#TITLE:This I Promise You
#ARTIST:'N Sync
#MP3:'N Sync - This I Promise You.mp3
#COVER:'N Sync - This I Promise You [CO].jpg
#BACKGROUND:'N Sync - This I Promise You [BG].jpg
#BPM:120
#GAP:3850
: 0 1 57 U
: 1 4 64 u
: 6 1 62 u
: 7 4 64 u
: 11 1 62 u
: 13 1 64 u
: 14 1 62 u
: 16 14 59 uh
-31
: 62 3 57 U
: 65 21 66 u
: 86 1 62 u
: 87 1 66 u
: 88 23 64 u
-120
: 166 1 57 When
: 167 1 57  the
: 169 3 61  vi
: 172 3 62 sions
: 175 3 64  a
: 178 5 62 round
: 183 9 59  you
-193
: 212 3 50 Bring
: 215 3 59  tears
: 218 6 59  to
: 224 3 57  your
: 227 1 57  e
: 228 2 55 ye
: 230 6 52 s
-237
: 259 1 57 And
: 260 1 57  
: 261 3 61  all
: 264 3 62  that
: 267 2 64  sur
: 269 1 65 
: 270 4 66 rounds
: 274 14 62  you
-289
: 305 3 57 Are
: 308 3 61  se
: 311 2 62 crets
: 313 1 63  and
: 314 2 64 
: 316 19 64  lies
-336
: 343 2 55 I´ll
: 345 3 54  be
: 348 3 64  your
: 351 11 62  strength
-363
: 366 2 55 I´ll
: 368 3 54  give
: 371 3 66  you
: 374 10 64  hope
-385
: 389 3 62 Keep
: 392 2 64 ing
: 394 6 66  your
: 400 6 64  faith
: 406 3 62  when
: 409 3 61  it´s
: 412 4 59  go
: 416 2 57 n
: 418 7 54 e
-427
: 435 3 55  one
: 438 3 54  you
: 441 3 64  should
: 444 9 62  call
-454
: 458 3 55 Was
: 461 3 54  stand
: 464 3 55 ing
: 467 9 64  here
: 475 2 66  all
: 477 1 62  a
: 478 25 64 long
-500
: 525 3 57 And
: 528 5 57  I
: 533 3 62  will
: 536 9 62  take
: 548 3 57  you
: 551 2 57  in
: 553 4 61  my
: 558 6 61  arms
-565
: 571 3 57 And
: 574 5 57  hold
: 579 3 62  you
: 582 6 62  right
: 588 3 64  where
: 591 6 62  you
: 603 3 59  be
: 606 4 59 lo
: 610 1 57 n
: 611 7 55 g
-619
: 626 3 66 ´Til
: 629 3 66  the
: 632 3 67  day
: 635 2 66  my
: 637 3 64  life
: 640 3 62  is
: 643 9 64  dream
-653
: 655 3 67 This
: 658 2 66  I
: 660 3 64  prom
: 663 3 62 ise
: 666 5 59  y
: 671 1 57 o
: 672 1 56 u
: 673 4 55 u
-678
: 701 3 67 This
: 704 3 66  I
: 707 3 64  prom
: 710 3 62 ise
: 713 14 62  you
-728
: 744 3 57 I´ve
: 747 3 61  loved
: 750 3 62  you
: 753 3 64  for
: 756 6 62 ev
: 762 10 59 er
-773
: 791 2 50 In
: 793 3 59  life
: 796 6 59 ti
: 802 3 57 mes
: 805 1 57  be
: 806 1 56 fo
: 807 1 55 r
: 808 9 52 e
-818
: 837 1 57 And
: 838 1 57  I
: 840 3 61  prom
: 843 3 62 ise
: 846 2 64  you
: 848 6 66  ne
: 854 7 62 ve
: 861 1 64 
: 863 4 66 r
-868
: 880 3 59 Will
: 883 3 62  you
: 886 4 67  hu
: 890 2 66 rt
: 892 3 64  a
: 895 3 62 ny
: 898 4 64  mo
: 902 1 61 
: 903 1 59 
: 904 6 57 re
-911
: 918 3 54 I
: 921 3 55  give
: 924 3 54  you
: 927 2 62  my
: 929 11 62  word
-940
: 941 3 54 I
: 944 3 55  give
: 947 3 54  you
: 950 3 66  my
: 953 10 64  heart
-964
: 967 3 62 This
: 970 3 64  is
: 973 3 66  a
: 976 5 67  bat
: 981 3 66 tle
: 984 3 69  we´ve
: 987 6 66  w
: 993 1 64 o
: 994 13 62 n
-1008
: 1013 3 55 And
: 1016 3 54  with
: 1019 3 62  this
: 1022 9 62  vow
-1032
: 1033 3 54 For
: 1036 3 55 ev
: 1039 3 54 er
: 1042 3 64  has
: 1045 9 64  now
: 1054 3 66  be
: 1057 12 64 gun
-1070
: 1080 3 55 Just
: 1083 5 55  close
: 1088 3 62  your
: 1091 9 62  eyes
-1101
: 1103 3 57 Each
: 1106 3 57  lov
: 1109 4 61 in´
: 1113 6 61  day
-1120
: 1126 3 57 And
: 1129 6 57  know
: 1135 3 62  this
: 1138 6 62  feel
: 1143 6 64 ing
-1150
: 1152 3 67 Won´t
: 1155 3 66  go
: 1158 3 64  a
: 1161 1 66 w
: 1162 1 64 a
: 1164 5 62 y, 
: 1169 1 64 n
: 1170 3 66 o
-1174
: 1181 3 66 ´Til
: 1184 3 66  the
: 1187 3 67  day
: 1190 3 66  my
: 1193 2 64  life
: 1195 3 62  is
: 1198 3 66  throu
: 1201 9 64 gh
-1211
: 1210 3 67 This
: 1213 3 66  I
: 1216 3 64  prom
: 1219 3 62 ise
: 1221 5 59  y
: 1226 1 56 o
: 1227 4 55 u
-1232
: 1256 3 67 This
: 1259 3 66  I
: 1262 3 64  prom
: 1265 3 66 ise
: 1268 33 62  you
-1302
: 1317 3 67 O
: 1320 3 67 ver
: 1323 2 67  and
: 1325 3 67  o
: 1328 3 66 ver
: 1331 6 62  I
: 1337 19 64  fall
-1357
: 1366 3 67 When
: 1369 3 67  I
: 1372 6 69  here
: 1378 5 66  you
: 1383 13 64  call
: 1385 1 66 -
-1387
: 1398 3 62 With
: 1401 3 62 out
: 1404 17 69  you
: 1421 3 67  in
: 1424 3 66  my
: 1427 1 66  li
: 1428 1 64 f
: 1430 8 62 e
: 1438 6 64  ba
: 1444 4 66 by
-1449
: 1448 1 62 I
: 1450 3 64  just
: 1453 3 66  would
: 1456 3 67 n´t
: 1459 2 66  be
: 1461 6 66  liv
: 1467 3 62 ing
: 1470 3 66  at
: 1473 17 64  a
: 1490 3 62 
: 1493 3 66 
: 1496 3 64 
: 1499 14 62 ll
-1515
: 1652 3 71 I
: 1655 3 68  will
: 1658 8 66  take
: 1667 5 66  you
: 1672 3 66  in
: 1675 3 68  my
: 1678 3 66  ar
: 1681 11 64 ms
-1693
: 1709 2 64 Right
: 1711 1 66  where
: 1713 4 68  you
: 1717 1 66  b
: 1719 4 64 e
: 1723 1 66 lon
: 1725 6 64 g
-1732
: 1736 3 68 ´Til
: 1739 3 68  the
: 1742 3 69  day
: 1745 3 68  my
: 1748 3 66  life
: 1751 3 64  is
: 1754 1 68  thro
: 1755 7 66 ugh
-1763
: 1765 3 69 This
: 1768 3 68  I
: 1771 4 71  prom
: 1775 1 68 ise
: 1777 2 66  yo
: 1779 6 64 u, 
: 1785 1 65  b
: 1787 1 66 a
: 1788 6 68 by
-1796
: 1807 1 68 Ye
: 1808 1 66 
: 1810 3 64 
: 1813 1 66 
: 1814 9 68 ah
-1825
: 1886 3 64 N
: 1889 1 66 
: 1891 4 68 o
-1896
: 1898 3 68 Ev
: 1901 3 68 ery
: 1904 3 69  word
: 1907 3 68  I
: 1910 3 66  say
: 1913 3 64  is
: 1915 1 68  tr
: 1917 7 66 ue
-1925
: 1927 3 69 This
: 1930 3 68  I
: 1933 4 66  prom
: 1937 1 64 ise
: 1939 1 61  y
: 1940 1 59 o
: 1941 7 57 
: 1949 1 59 
: 1950 1 61 
: 1951 1 59 
: 1953 3 57 
: 1956 1 59 
: 1957 7 61 u
-1965
: 1991 3 68 Ev
: 1993 3 68 ery
: 1996 3 69  word
: 1999 3 68  I
: 2002 3 66  say
: 2005 3 64  is
: 2008 1 68  tr
: 2009 7 66 ue
-2017
: 2019 3 69 This
: 2022 3 68  I
: 2025 4 66  prom
: 2030 1 64 ise
: 2031 1 61  y
: 2032 1 59 o
: 2034 14 57 u
-2049
: 2066 3 69 Ooo,
: 2069 2 68  I
: 2071 3 66  prom
: 2074 3 68 ise
: 2077 14 64  you
-2091
: 2092 1 66 U
: 2092 1 64 u
: 2093 1 68 u
: 2095 12 66 uh, 
: 2108 1 64 U
: 2109 1 66 u
: 2110 1 68 u
: 2112 1 66 u
: 2113 12 64 uh
E


Created by PURE6 [poland]
My song no. 34 (all to be found under "[ultrastar][pure6]" in e-donkey 2000 network) 
