#TITLE:The Kill (Bury Me)
#ARTIST:30 Second to Mars
#MP3:30 Second to Mars - The Kill (Bury Me).mp3
#VIDEO:30 Second to Mars - The Kill (Bury Me) [VD#0].mpg
#COVER:30 Second to Mars - The Kill (Bury Me) [CO].jpg
#BACKGROUND:30 Second to Mars - The Kill (Bury Me) [BG].jpg
#BPM:362
#GAP:8220
#VIDEOGAP:0
#ENCODING:UTF8
#LANGUAGE:Englisch
#EDITION:[SC]-Songs
: 2 4 7 What
: 7 6 6  if
: 15 8 2  I
: 25 8 7  want
: 34 6 7 ed
: 41 4 6  to
: 50 12 2  break
- 64
: 97 7 7 Laugh
: 105 3 6  it
: 110 9 2  all
: 122 6 7  off
: 130 4 6  in
: 137 7 2  your
: 169 14 -1  face
- 185
: 214 8 -1 What
: 223 8 -1  would
: 232 5 -1  you
: 239 9 -1  do?
- 250
: 382 4 7 What
: 387 6 6  if
: 395 6 2  I
: 405 8 7  fell
: 417 3 7  to
: 422 2 6  the
: 428 14 2  floor
- 444
: 475 6 7 Cou
: 482 4 7 ldn't
: 487 8 7  take
: 501 4 7  this
: 509 4 7  a
: 514 8 7 ny
: 524 13 9 more
- 539
: 582 6 11 What
: 594 11 11  would
: 609 8 11  you
: 621 10 11  do,
: 643 10 11  do,
: 666 14 14  do?
- 682
: 713 36 19 Come,
: 762 20 21  Break
: 785 18 23  me
: 809 38 21  down
- 849
: 856 4 23 Bu
: 862 6 21 ry
: 869 8 19  me,
: 880 4 23  bu
: 886 6 21 ry
: 893 8 19  me
- 903
: 905 18 23 I
: 928 18 19  am
: 951 14 18  fi
: 967 14 19 nished
: 983 9 18  with
* 1000 78 18  you
- 1080
: 1142 4 7 What
: 1147 6 6  if
: 1155 8 2  I
: 1166 7 7  want
: 1174 5 7 ed
: 1181 3 6  to
: 1189 10 2  fight
- 1201
: 1237 6 7 Beg
: 1244 4 7  for
: 1249 6 7  the
: 1260 7 19  rest
: 1269 2 19  of
: 1272 8 19  my
: 1284 13 21  life
- 1299
: 1343 8 11 What
: 1355 10 11  would
: 1366 8 11  you
: 1380 8 11  do,
: 1404 8 11  do,
: 1427 8 11  do?
- 1437
: 1465 4 14 You
: 1473 18 19  say
: 1496 18 14  you
: 1521 10 12  want
: 1532 14 11 ed
: 1550 18 7  more
- 1569
: 1569 21 19 What
: 1593 10 14  are
: 1607 8 12  you
: 1616 10 12  wait
: 1630 13 11 ing
: 1647 9 7  for
- 1658
: 1665 18 19 I'm
: 1687 18 14  not
: 1711 15 12  run
: 1727 10 11 ning
: 1741 19 12  from
: 1768 23 11  you
- 1793
: 1852 36 19 Come,
: 1902 17 21  Break
: 1925 18 23  me
: 1949 38 21  down
- 1989
: 1996 4 23 Bu
: 2002 6 21 ry
: 2009 8 19  me,
: 2020 4 23  bu
: 2025 6 21 ry
: 2032 8 19  me
- 2042
: 2045 19 23 I
: 2068 18 19  am
: 2091 15 18  fi
: 2107 14 19 nished
: 2123 9 18  with
: 2139 80 18  you
- 2221
: 2233 43 19 Look
: 2282 20 21  in
: 2304 18 23  my
: 2328 28 21  eyes
- 2358
: 2372 2 21 You
: 2375 4 23  ki
: 2381 6 21 lling
: 2388 8 19  me,
: 2399 4 23  ki
: 2404 6 21 lling
: 2412 9 23  me
- 2423
: 2426 20 23 All
: 2448 13 23  I
: 2470 13 23  want
: 2486 11 23 ed
: 2502 13 23  was
* 2519 91 23  you
- 2612
: 2629 5 19 I
: 2636 12 23  tried
: 2649 4 21  to
: 2653 4 19  be
: 2660 21 21  some
: 2685 18 23 one
: 2709 33 19  else
- 2744
: 2756 8 23 noth
: 2766 7 21 ing
: 2777 12 19  seemed
: 2791 8 18  to
: 2802 23 19  change
- 2826
: 2828 20 16 I
: 2850 20 18  know
: 2874 16 16  now,
: 2897 12 18  this
: 2911 10 16  is
: 2923 6 18  who
: 2933 8 16  I
: 2944 10 24  rea
: 2956 10 23 lly
: 2969 11 21  am
: 2982 8 23  in
: 2992 16 23 side
- 3010
: 3016 11 23 Fi
: 3028 4 21 nal
: 3032 6 19 ly
: 3040 20 21  found
: 3064 18 26  my
: 3086 37 23 self
- 3125
: 3135 12 26 Fight
: 3148 10 24 ing
: 3159 10 23  for
: 3171 5 16  a
: 3182 20 23  chance
- 3204
: 3209 18 16 I
: 3231 19 18  know
: 3255 18 19  now,
: 3278 10 23  this
: 3290 10 23  is
: 3302 10 23  who
: 3314 10 23  I
: 3326 8 23  rea
: 3336 10 23 lly
: 3348 23 23  am
- 3373
: 3847 38 19 Come,
: 3895 20 21  Break
: 3918 18 23  me
: 3943 38 21  down
- 3983
: 3989 4 23 Bu
: 3995 6 21 ry
: 4002 8 19  me,
: 4013 4 23  bu
: 4019 6 21 ry
: 4026 8 19  me
- 4036
: 4038 19 23 I
: 4061 18 19  am
: 4084 13 18  fi
: 4099 14 19 nished
: 4115 9 18  with
: 4132 16 23  you,
: 4156 16 23  you,
: 4181 44 23  you
- 4226
: 4227 44 19 Look
: 4276 19 19  in
: 4298 18 18  my
: 4324 28 14  eyes
- 4354
: 4367 2 14 You
: 4370 3 18  ki
: 4374 6 18 lling
: 4381 8 14  me,
: 4393 3 18  ki
: 4397 6 18 lling
: 4405 12 19  me
- 4419
: 4425 14 19 All
: 4442 16 19  I
: 4463 13 23  want
: 4478 14 23 ed
: 4494 16 23  was
* 4512 92 23  you
- 4605
: 4607 35 19 Come,
: 4655 20 19  break
: 4678 22 18  me
: 4702 36 19  down
- 4740
: 4749 20 19 Break
: 4773 21 18  me
: 4796 34 19  down
- 4832
: 4844 20 19 Break
: 4868 19 21  me
* 4891 93 23  down
- 4986
: 5035 4 7 What
: 5040 6 6  if
: 5048 7 2  I
: 5059 6 7  want
: 5066 6 7 ed
: 5073 2 6  to
: 5082 12 2  break?
- 5096
: 5225 4 7 What
: 5230 6 6  if
: 5238 8 2  I,
- 5247
: 5248 4 7 What
: 5253 6 6  if
: 5261 8 2  I,
- 5270
: 5272 4 7 What
: 5277 6 6  if
: 5285 8 2  I,
- 5294
: 5296 4 7 What
: 5301 6 6  if
: 5309 8 2  I,
E