#TITLE:Does Your Mother Know (LEAD MALE)
#ARTIST:ABBA
#MP3:ABBA - Does Your Mother Know.mp3
#COVER:ABBA - Does Your Mother Know [CO].jpg
#BACKGROUND:ABBA - Does Your Mother Know [BG].jpg
#BPM:269,3
#GAP:22001,49
#ENCODING:UTF8
#LANGUAGE:English
#GENRE:Pop
#EDITION:SingStar ABBA
#YEAR:1979
: 0 3 59 You're
: 4 6 62  so
: 12 3 62  hot
: 32 3 59  tea
: 36 7 62 sing
: 44 7 64  me
- 53
: 64 2 59 So
: 68 5 62  you're
: 75 4 62  blue
: 79 6 64 ~
- 86
: 87 2 64 But
: 91 2 64  I
: 95 5 62  can't
: 103 2 62  take
: 107 2 62  a
: 111 6 60  chance
- 118
: 119 2 60 On
: 123 2 60  a
: 127 4 59  chick
: 131 4 60  like
: 135 2 59 ~
: 139 4 59 you
: 143 5 57 ~
- 150
: 178 2 62 It's
: 182 2 62  some
: 186 2 62 thing
: 190 2 64  I
: 194 4 62  could
: 198 2 64 n't
* 202 5 64  do
: 207 2 62 ~
- 211
: 269 3 59 There's
: 273 5 62  that
: 282 4 62  look
: 301 3 59  in
: 306 4 62  your
: 313 4 62  eyes
: 317 5 64 ~
- 324
: 333 3 59 I
: 338 4 62  can
: 346 3 62  read
: 349 6 64 ~
: 357 2 64 in
: 361 2 64  your
: 366 6 62  face
- 373
: 374 2 62 That
: 377 2 62  your
: 381 6 60  feel
: 389 2 60 ings
- 392
: 393 2 60 Are
: 397 4 59  dri
: 401 4 60 ving
: 405 2 59  you
: 409 4 59  wild
: 413 5 57 ~
- 420
: 441 6 62 Ah
: 449 2 62  but
: 453 2 62  girl
: 457 3 62  you're
: 461 3 64  on
: 464 2 62 ly
: 468 2 62  a
* 472 2 59  child
: 474 2 57 ~
: 476 4 55 ~
- 482
: 528 2 62 Well
: 532 2 62  I
: 536 2 62  can
: 540 4 64  dance
: 548 3 64  with
: 552 2 62  you
: 556 3 65  hon
: 560 2 65 ey
- 564
: 568 5 64 If
: 576 2 64  you
: 580 3 64  think
: 583 2 62  it's
: 587 3 65  fun
: 592 2 65 ny
- 596
* 599 6 64 Does
: 607 2 64  your
: 611 2 62  mo
: 615 2 60 ther
: 619 3 64  know
- 623
: 623 2 62 That
: 627 2 62  you're
: 631 4 62  out?
- 637
: 655 2 62 And
: 659 2 62  I
: 663 2 62  can
: 667 4 64  chat
: 675 3 64  with
: 678 2 62  you
* 682 2 65  ba
: 686 2 65 by
- 690
: 694 3 64 Flirt
: 702 2 64  a
: 706 3 64  lit
: 709 2 62 tle
: 713 2 65  may
: 717 2 65 be
- 721
: 725 7 64 Does
: 733 2 64  your
: 737 3 62  mo
: 741 2 60 ther
: 745 3 64  know
- 749
: 749 2 62 That
: 753 2 62  you're
: 757 4 62  out?
- 763
: 784 3 55 Take
: 788 3 54  it
: 792 2 55  ea
: 796 2 59 sy
- 800
: 816 3 55 Bet
: 820 2 55 ter
: 824 3 55  slow
: 829 2 62  down
* 836 4 62  girl
- 842
: 848 2 62 That's
: 852 2 60  no
: 856 4 59  way
: 860 2 55  to
: 868 5 55  go
- 875
: 912 2 55 Take
: 916 3 54  it
: 920 3 55  ea
: 924 2 59 sy
- 928
: 944 4 55 Try
: 948 3 54  to
: 952 5 55  cool
: 957 3 62  it
: 965 4 62  girl
- 971
: 976 3 62 Take
: 981 3 60  it
: 985 4 59  nice
: 989 3 55  and
: 997 6 55  slow
- 1005
: 1303 2 59 I
: 1307 4 62  can
: 1315 5 62  see
: 1335 2 59  what
: 1339 4 62  you
* 1347 3 62  want
: 1351 5 64 ~
- 1358
: 1367 2 59 But
: 1371 3 62  you
: 1379 4 62  seem
: 1383 5 64 ~
: 1391 3 64 pret
: 1395 2 64 ty
: 1399 5 62  young
- 1405
: 1407 2 62 To
: 1411 2 62  be
: 1415 6 60  search
: 1423 2 60 ing
: 1427 2 60  for
: 1431 4 59  that
: 1435 3 60  kind
: 1439 2 59  of
: 1443 3 59  fun
: 1447 5 57 ~
- 1454
: 1482 2 62 So
: 1486 2 62  may
: 1490 2 62 be
: 1494 3 64  I'm
: 1498 2 62  not
: 1502 2 64  the
: 1506 4 64  one
: 1510 3 62 ~
- 1515
: 1569 4 62 Now
: 1573 3 59  you're
: 1577 3 62  so
: 1585 4 62  cute
- 1591
: 1601 3 62 I
: 1605 2 59  like
: 1609 3 62  your
: 1617 4 62  style
: 1621 5 64 ~
- 1628
: 1637 3 59 And
: 1641 3 62  I
: 1648 4 62  know
: 1652 5 64 ~
: 1660 3 64 what
: 1664 2 64  you
: 1668 5 62  mean
- 1674
: 1676 2 62 When
: 1680 2 62  you
: 1684 6 60  give
: 1692 2 60  me
: 1696 2 60  a
: 1700 2 59  flash
: 1704 3 60  of
: 1708 2 59  that
- 1712
* 1724 4 59 Smile
: 1728 5 57 ~
- 1735
: 1751 2 62 But
: 1755 3 62  girl
: 1759 4 62  you're
: 1763 4 64  on
: 1767 2 62 ly
: 1771 1 62  a
: 1775 1 59  child
: 1776 2 57 ~
: 1778 5 55 ~
- 1785
: 1830 2 62 Well
: 1834 2 62  I
: 1838 2 62  can
: 1842 4 64  dance
: 1850 3 64  with
: 1854 3 62  you
: 1858 3 65  hon
: 1862 2 65 ey
- 1866
: 1870 6 64 If
: 1878 2 64  you
: 1882 3 64  think
: 1886 3 62  it's
: 1890 2 65  fun
: 1894 2 65 ny
- 1898
: 1901 6 64 Does
: 1909 3 64  your
: 1913 4 62  mo
: 1917 3 60 ther
: 1921 3 64  know
- 1925
: 1925 2 62 That
: 1929 2 62  you're
* 1933 4 62  out?
- 1939
: 1957 2 62 And
: 1961 3 62  I
: 1965 2 62  can
: 1969 5 64  chat
: 1977 4 64  with
: 1981 3 62  you
: 1985 3 65  ba
: 1989 2 65 by
- 1993
: 1997 6 64 Flirt
: 2005 2 64  a
: 2009 3 64  lit
: 2013 3 62 tle
: 2017 3 65  may
: 2021 2 65 be
- 2025
: 2028 7 64 Does
: 2036 3 64  your
: 2040 4 62  mo
: 2044 3 60 ther
: 2048 3 64  know
- 2052
: 2052 2 62 That
: 2056 3 62  you're
: 2060 5 62  out?
- 2067
: 2087 3 55 Take
: 2091 3 54  it
: 2095 3 55  ea
: 2099 3 59 sy
- 2104
: 2120 3 55 Bet
: 2124 3 54 ter
: 2128 3 55  slow
: 2132 3 62  down
: 2140 3 62  girl
- 2145
: 2152 3 62 That's
: 2156 3 60  no
: 2160 4 59  way
: 2164 3 55  to
: 2172 4 55  go
- 2178
: 2217 3 55 Take
: 2221 3 54  it
: 2225 3 55  ea
: 2229 3 59 sy
- 2234
: 2249 3 55 Try
: 2253 3 54  to
: 2257 4 55  cool
: 2262 3 62  it
: 2270 3 62  girl
- 2275
: 2281 3 62 Take
: 2286 3 60  it
: 2290 3 59  nice
: 2294 3 55  and
: 2302 5 55  slow
- 2309
: 2374 2 62 Well
: 2378 2 62  I
: 2382 2 62  can
: 2386 6 64  dance
: 2394 3 64  with
: 2398 3 62  you
: 2402 3 65  hon
: 2406 2 65 ey
- 2410
: 2414 6 64 If
: 2422 2 64  you
: 2426 3 64  think
: 2430 3 62  it's
: 2434 2 65  fun
: 2438 2 65 ny
- 2442
: 2445 6 64 Does
: 2453 3 64  your
: 2457 3 62  mo
: 2461 3 60 ther
: 2465 3 64  know
- 2469
: 2469 3 62 That
: 2473 3 62  you're
: 2478 4 62  out?
- 2484
: 2501 3 62 And
: 2505 2 62  I
: 2509 2 62  can
* 2513 6 64  chat
: 2521 3 64  with
: 2525 3 62  you
: 2529 2 65  ba
: 2533 2 65 by
- 2537
: 2541 6 64 Flirt
: 2549 2 64  a
: 2553 3 64  lit
: 2557 3 62 tle
: 2561 3 65  may
: 2565 2 65 be
- 2569
: 2573 4 64 Does
: 2581 3 64  your
: 2585 3 62  mo
: 2588 3 60 ther
: 2592 3 64  know
- 2596
: 2596 3 62 That
: 2600 3 62  you're
: 2604 4 62  out?
- 2610
: 2628 2 62 Well
: 2632 2 62  I
: 2636 2 62  can
: 2640 5 64  dance
: 2648 3 64  with
: 2652 3 62  you
: 2656 3 65  hon
: 2660 3 65 ey
- 2665
: 2668 7 64 If
: 2676 2 64  you
: 2680 3 64  think
: 2684 3 62  it's
: 2688 3 65  fun
: 2692 2 65 ny
- 2696
: 2700 7 64 Does
: 2708 3 64  your
: 2711 4 62  mo
: 2715 3 60 ther
: 2719 3 64  know
- 2723
: 2723 3 62 That
: 2727 3 62  you're
: 2731 5 62  out?
- 2738
: 2754 2 62 And
: 2758 2 62  I
: 2762 2 62  can
: 2766 5 64  chat
: 2774 3 64  with
: 2778 3 62  you
: 2782 2 65  ba
: 2786 2 65 by
- 2790
* 2794 6 64 Flirt
: 2802 2 64  a
: 2806 3 64  lit
: 2810 3 62 tle
: 2814 3 65  may
: 2818 2 65 be
- 2822
: 2826 7 64 Does
: 2834 3 64  your
: 2838 4 62  mo
: 2842 3 60 ther
: 2846 3 64  know
- 2850
: 2850 3 62 That
: 2854 3 62  you're
: 2858 5 62  out?
- 2865
: 2881 2 62 Well
: 2885 2 62  I
: 2889 2 62  can
: 2893 5 64  dance
: 2901 3 64  with
: 2905 3 62  you
: 2909 3 65  hon
: 2913 3 65 ey
- 2918
: 2921 7 64 If
: 2929 2 64  you
: 2933 3 64  think
: 2937 3 62  it's
: 2941 3 65  fun
: 2945 2 65 ny
- 2949
: 2953 7 64 Does
: 2961 3 64  your
: 2964 4 62  mo
: 2968 3 60 ther
: 2972 3 64  know
- 2976
: 2976 3 62 That
: 2980 3 62  you're
: 2984 5 62  out?
E