#TITLE:I Have A Dream
#ARTIST:ABBA
#MP3:ABBA - I Have A Dream.mp3
#COVER:ABBA - I Have A Dream [CO].jpg
#BACKGROUND:ABBA - I Have A Dream [BG].jpg
#BPM:104
#GAP:13000
: 0 3 65 I
: 3 7 74  have
: 10 1 72  a
: 11 17 75  dream,
: 30 4 65  a
: 34 7 70  song
: 41 2 69  to
: 43 14 70  sing.
- 60
: 63 4 65 To
: 67 6 74  help
: 73 2 72  me
: 75 15 75  cope
: 92 7 65  with
: 99 7 70  any
: 106 2 69 thi
: 108 15 70 ng. 
- 125
: 131 2 74 If
: 133 1 75  you
: 134 4 77  see
: 138 1 79  the
: 139 2 77  wo
: 141 3 72 nd
: 144 17 72 er 
- 162
: 163 2 72  of
: 165 2 74  a
: 167 2 75  fa
: 169 2 77 iry
: 171 18 74  tale?
- 190
: 195 2 74 You
: 197 1 75  can
: 198 4 77  take
: 202 1 79  the
: 203 3 77  fu
: 206 2 72 tu
: 208 15 72 re 
- 225
: 227 2 72  ev
: 229 2 74 en
: 231 2 75  if
: 233 1 77  you
: 234 16 74  fail. 
- 253
: 259 2 77 I
: 261 2 79  be
: 263 2 81 lie
: 265 1 82 ve
: 266 1 81  in
: 267 4 75  an
: 271 18 75 gels.
- 290
: 291 4 75 Something
: 295 1 77  go
: 296 2 79 od
: 298 2 81  in
: 300 4 79  e
: 304 2 77 very
: 306 5 75 thing
: 311 3 74  I
: 314 8 77  see. 
- 323
: 323 2 77 I
: 325 2 79  be
: 327 1 81 lie
: 328 2 82 ve
: 330 1 81  in
: 331 4 75  an
: 335 13 75 gels.
- 350
: 355 2 75 When
: 357 2 77  I
: 359 2 79  know
: 361 2 81  the
: 363 6 79  time
: 369 2 77  is
: 371 4 75  right
: 375 4 74  for
: 379 3 77  me.
- 382
: 383 4 65 I'll
: 387 6 74  cross
: 393 1 72  the
: 394 18 75  stream,
: 414 5 65  I
: 419 7 70  have
: 426 2 69  a
: 428 14 70  dream. 
- 445
: 448 4 65 I
: 452 6 74  have
: 458 2 72  a
: 460 16 75  dream,
: 478 5 65  a
: 483 6 70  fan
: 489 2 69 ta
: 491 18 70 sy.
- 510
: 511 5 65 To
: 516 6 74  help
: 522 2 72  me
: 524 18 75  through
: 543 5 65  re
: 548 5 70 a
: 553 2 72 li
: 555 2 70 t
: 557 17 74 y. 
- 575
: 579 3 74 And
: 582 2 75  my
: 584 2 77  de
: 586 2 79 sti
: 588 2 77 na
: 590 2 72 ti
: 592 14 72 on 
- 608
: 611 4 72  makes
: 615 1 74  it
: 616 3 75  worth
: 619 1 77  the
: 620 16 74  while
- 638
: 644 4 74 Pushing
: 648 3 75  through
: 651 1 77  the
: 652 3 79  da
: 655 2 77 rk
: 657 1 72 ne
: 658 15 72 ss 
- 675
: 676 3 72  still
: 679 3 74  ano
: 682 3 75 ther
: 685 1 77  m
: 686 14 74 ile.
: 707 4 77 I
: 711 2 79  be
: 713 8 81 lie
: 721 3 82 ve
: 724 1 81  in
: 725 3 75  an
: 728 14 75 gels.
- 744
: 747 6 75 Something
: 753 1 77  go
: 754 1 79 od
: 755 2 81  in
: 757 3 79  e
: 760 5 77 very
: 765 4 75 thing
: 769 3 74  I
: 772 3 77  se
: 775 5 77 e. 
- 781
: 781 2 77 I
: 783 2 79  be
: 785 2 81 lie
: 787 2 82 ve
: 789 1 81  in
: 790 3 75  an
: 793 12 75 gels.
- 807
: 811 4 75 When
: 815 2 77  I
: 817 2 79  know
: 819 2 81  the
: 821 7 79  time
: 828 2 77  is
: 830 4 75  right
: 834 2 74  fo
: 836 1 77 r
: 837 3 77  me. 
- 841
: 841 5 74 I'll
: 846 6 74  cross
: 852 1 72  the
: 853 16 75  stream,
: 872 5 65  I
: 877 7 70  have
: 884 1 69  a
: 885 17 70  dream.
- 903
: 905 5 65 I'll
: 910 6 74  cross
: 916 1 72  the
: 917 18 75  stream,
: 937 5 65  I
: 942 7 70  have
: 949 1 69  a
: 950 21 70  dream. 
- 1000
: 1105 4 65 I
: 1109 7 74  have
: 1116 1 72  a
: 1117 19 75  dream,
: 1136 4 65  a
: 1141 6 70  song
: 1147 2 69  to
: 1149 19 70  sing
- 1169
: 1169 4 65 To
: 1173 7 74  help
: 1180 2 72  me
: 1182 18 75  cope
: 1201 5 65  with
: 1206 7 70  any
: 1213 2 69 thi
: 1215 15 70 ng. 
- 1232
: 1238 2 74 If
: 1240 2 75  you
: 1242 3 77  see
: 1245 1 79  the
: 1246 2 77  wo
: 1248 2 72 nd
: 1250 14 72 er 
- 1265
: 1269 4 72  of
: 1273 1 74  a
: 1274 2 75  fa
: 1276 2 77 iry
: 1278 16 74  tale?
- 1295
: 1301 3 74 You
: 1304 2 75  can
: 1306 3 77  take
: 1309 2 79  the
: 1311 2 77  fu
: 1313 1 72 tu
: 1314 14 72 re 
- 1329
: 1333 4 72  ev
: 1337 2 74 en
: 1339 2 75  if
: 1341 1 77  you
: 1342 17 74  fail. 
- 1361
: 1365 4 77 I
: 1369 2 79  be
: 1371 8 81 lie
: 1379 2 82 ve
: 1381 2 81  in
: 1383 3 75  an
: 1386 18 75 gels.
- 1405
: 1405 6 75 Something
: 1411 2 77  go
: 1413 1 79 od
: 1414 1 81  in
: 1415 6 79  e
: 1421 1 77 very
: 1422 4 75 thing
: 1426 4 74  I
: 1430 2 77  se
: 1432 6 77 e. 
- 1439
: 1439 2 77 I
: 1441 2 79  be
: 1443 2 81 lie
: 1445 1 82 ve
: 1446 1 81  in
: 1447 3 75  an
: 1450 15 75 gels.
- 1467
: 1470 3 75 When
: 1473 2 77  I
: 1475 2 79  know
: 1477 2 81  the
: 1479 7 79  time
: 1486 2 77  is
: 1488 3 75  right
: 1491 2 74  fo
: 1493 2 77 r
: 1495 4 77  me. 
- 1499
: 1499 5 74 I'll
: 1504 5 74  cross
: 1509 1 72  the
: 1510 17 75  stream,
: 1530 5 65  I
: 1535 7 70  have
: 1542 1 69  a
: 1543 15 70  dream.
- 1560
: 1563 4 65 I'll
: 1567 7 74  cross
: 1574 1 72  the
: 1575 17 75  stream,
: 1594 6 65  I
: 1600 6 70  have
: 1606 2 69  a
: 1608 19 70  dream.
E
