#TITLE:C'est La Vie
#ARTIST:Ace of Base
#MP3:Ace of Base - C'est La Vie.mp3
#COVER:Ace of Base - C'est La Vie [CO].jpg
#BACKGROUND:Ace of Base - C'est La Vie [BG].jpg
#BPM:151
#GAP:2500
: 0 4 67 I'
: 4 1 64 m 
: 5 1 67 as 
: 8 4 69 young 
: 12 1 69 as 
: 13 1 67 I'm 
: 16 3 62 feel
: 20 3 60 ing
-24
: 60 5 64 I'm 
: 65 3 64 al
: 69 3 64 ways 
: 73 3 62 twen
: 77 1 60 ty 
: 80 4 60 one
-84
: 84 1 60 I 
: 85 1 64 am 
: 88 5 67 al
: 93 2 67 ways 
: 97 3 67 twen
: 101 2 64 ty 
: 104 8 62 one
-113
: 129 3 65 C'est 
: 133 2 64 la 
: 136 8 67 vie, 
: 145 2 65 c'est 
: 148 2 64 la 
: 152 7 67 vie
-160
: 161 3 67 C'est 
: 165 2 64 la 
: 168 8 57 vie
-177
: 188 4 64 I'm 
: 193 3 64 al
: 197 2 64 ways 
: 201 3 62 twen
: 205 1 60 ty 
: 208 2 60 one 
: 212 2 57 at 
: 216 6 55 heart
-223
: 229 2 55 Now 
: 233 2 57 lis
: 237 3 60 ten 
: 241 2 64 to 
: 245 8 62 me
-255
: 280 1 64 I 
: 281 3 65 need 
: 285 1 65 some
: 288 2 67 bo
: 292 1 67 dy 
: 293 2 65 to 
: 297 2 64 stay 
: 301 1 64 be
: 304 2 67 side 
: 308 1 65 me
-309
: 312 1 64 Cause 
: 313 1 64 I've 
: 316 1 64 got 
: 317 1 64 a 
: 320 2 67 hun
: 324 2 65 gry 
: 328 5 62 heart
-334
: 337 3 62 Ba
: 341 2 64 by 
: 345 1 65 with 
: 348 1 65 or 
: 349 1 65 with
: 352 2 67 out 
: 356 1 65 lo
: 357 1 65 ve
-359
: 361 1 64 I'm 
: 364 1 64 gon
: 365 1 64 na 
: 368 2 67 get 
: 372 2 65 a 
: 376 2 64 man
-379
: 380 1 64 who 
: 381 1 64 can 
: 384 1 64 ful
: 385 2 67 fill 
: 388 2 65 my 
: 392 4 62 dreams
-398
: 401 3 62 On 
: 405 2 64 the 
: 409 1 65 top 
: 412 1 65 of 
: 413 1 65 the 
: 416 2 67 world
-419
: 420 2 65 I 
: 425 1 64 don't 
: 428 1 64 wan
: 429 1 64 na 
: 432 2 67 be 
: 436 2 65 a
: 440 2 64 lone
-443
: 456 5 69 No, 
: 461 3 69 n
: 464 1 67 o, 
: 465 3 69 n
: 468 1 67 o, 
: 469 2 64 not 
: 472 3 67 me
-480
: 497 2 65 C'est 
: 500 2 64 la 
: 504 7 67 vie, 
: 513 2 65 c'est 
: 516 2 64 la 
: 520 4 67 vie
-525
: 525 3 67 On 
: 528 1 64 the 
: 529 3 67 road 
: 533 1 59 to
: 536 5 60 night
-542
: 561 2 64 Love 
: 565 2 64 is 
: 569 2 62 good 
: 573 1 60 for 
: 576 5 60 you
-582
: 584 5 67 Al
: 589 3 67 ready 
: 593 3 67 twen
: 597 2 64 ty 
: 600 5 62 one
-606
: 625 2 65 C'est 
: 628 2 64 la 
: 632 7 67 vie, 
: 641 2 65 c'est 
: 644 2 64 la 
: 648 4 67 vie
-652
: 653 3 67 On 
: 656 1 64 my 
: 657 3 67 own 
: 661 1 59 to
: 664 5 60 night
-670
: 689 2 64 Love 
: 693 2 64 will 
: 697 2 62 come 
: 701 1 60 to 
: 704 5 60 you
-710
: 712 5 67 You are 
: 717 3 67 always 
: 721 3 67 twen
: 725 2 64 ty 
: 728 5 62 one
-735
: 753 3 62 Oo
: 757 3 64 oo, 
: 761 1 65 love 
: 764 1 65 is 
: 765 1 65 a 
: 768 2 67 ly
: 772 2 65 er
-775
: 777 3 64 But 
: 780 1 64 I'm 
: 781 1 64 a 
: 784 2 67 try
: 788 1 65 er
-790
: 792 1 64 Give 
: 796 1 64 it 
: 797 1 64 a
: 800 2 67 no
: 804 2 65 ther 
: 808 5 62 go
-814
: 817 3 62 I 
: 821 2 64 know 
: 825 1 65 you 
: 828 1 65 have 
: 829 1 65 a
: 832 2 67 no
: 837 1 65 ther
-839
: 841 1 64 Yes 
: 844 1 64 I 
: 845 1 64 have 
: 848 2 67 seen 
: 852 2 65 her
-855
: 860 1 64 I 
: 861 1 64 won
: 864 1 64 der 
: 865 2 67 who 
: 868 2 65 she 
: 872 4 62 is
-877
: 881 3 62 Does 
: 885 2 64 she 
: 889 1 65 kiss 
: 892 1 65 you 
: 893 1 65 the 
: 896 2 67 way
-899
: 900 2 65 That 
: 905 1 64 I 
: 908 1 64 used 
: 909 1 64 to 
: 912 2 67 kiss 
: 916 2 64 you
-919
: 920 1 64 I 
: 921 2 64 bet 
: 925 1 64 she 
: 928 1 64 won
: 932 3 64 der 
: 941 3 67 who 
: 944 3 64 I 
: 947 10 67 am
-957
: 977 2 65 C'est 
: 980 2 64 la 
: 984 7 67 vie, 
: 993 2 65 c'est 
: 996 2 64 la 
: 1000 4 67 vie
-1004
: 1005 3 67 On 
: 1008 1 64 the 
: 1009 3 67 road 
: 1013 1 59 to
: 1016 5 60 night
-1022
: 1041 2 64 Love 
: 1045 2 64 is 
: 1049 2 62 good 
: 1053 1 60 for 
: 1056 5 60 you
-1062
: 1064 5 67 al
: 1069 3 67 ready 
: 1073 3 67 twen
: 1077 2 64 ty 
: 1080 5 62 one
-1086
: 1105 2 65 C'est 
: 1108 2 64 la 
: 1112 7 67 vie, 
: 1121 2 65 c'est 
: 1124 2 64 la 
: 1128 4 67 vie
-1132
: 1133 3 67 On 
: 1136 1 64 my 
: 1137 3 67 own 
: 1141 1 59 to
: 1144 5 60 night
-1150
: 1169 2 64 Love 
: 1173 2 64 will 
: 1177 2 62 come 
: 1181 1 60 to 
: 1184 5 60 you
-1190
: 1192 5 67 You are 
: 1197 3 67 always 
: 1201 3 67 twen
: 1205 2 64 ty 
: 1208 5 62 one
-1215
: 1233 3 64 C'est 
: 1237 1 62 la 
: 1240 4 60 vi
: 1244 27 67 e, 
: 1272 4 65 ye
: 1276 3 64 ah
-1280
: 1363 2 62 I 
: 1365 2 62 get 
: 1367 5 72 ol
: 1373 3 72 der 
: 1377 3 65 eve
: 1381 2 64 ry 
: 1383 2 64 da
: 1385 6 62 y
-1392
: 1393 2 62 But 
: 1395 1 62 I 
: 1397 1 62 will 
: 1399 5 71 fight 
: 1405 3 71 it 
: 1409 3 67 till 
: 1413 2 65 the 
: 1415 2 65 e
: 1417 6 64 nd
-1424
: 1433 3 72 There's 
: 1437 2 72 a 
: 1439 5 65 man 
: 1445 2 64 for 
: 1447 5 62 me
-1450
: 1455 2 62 To 
: 1457 2 64 have 
: 1459 2 65 and 
: 1463 2 62 to 
: 1465 8 64 hold
-1475
: 1491 2 62 Ea
: 1493 2 62 sy 
: 1495 5 72 come 
: 1501 3 72 and 
: 1505 3 65 ea
: 1509 2 64 sy 
: 1511 2 64 g
: 1513 6 62 o
-1520
: 1523 1 62 On
: 1525 1 62 ce 
: 1527 5 71 bit
: 1532 3 71 ten 
: 1536 1 71 but 
: 1537 3 67 not 
: 1541 1 65 too 
: 1544 1 65 lo
: 1545 6 64 ng
-1552
: 1553 3 62 And 
: 1557 3 64 as 
: 1561 3 65 you
: 1565 3 67 ng 
: 1569 1 69 as 
: 1572 2 65 I'm 
: 1575 4 62 feel
: 1579 6 64 ing
-1585 
: 1585 2 65 Yes 
: 1587 3 59 I 
: 1591 10 60 am
-1605
: 1617 2 65 C'est 
: 1620 2 64 la 
: 1624 7 67 vie, 
: 1633 2 65 c'est 
: 1636 2 64 la 
: 1640 4 67 vie
-1644
: 1645 3 67 On 
: 1648 1 64 the 
: 1649 3 67 road 
: 1653 1 59 to
: 1656 5 60 night
-1670
: 1681 2 64 Love 
: 1685 2 64 will 
: 1689 2 62 come 
: 1693 1 60 to 
: 1696 5 60 you
-1702
: 1704 5 67 You are 
: 1709 3 67 always 
: 1713 3 67 twen
: 1717 2 64 ty 
: 1720 5 62 one
-1726
: 1745 2 65 C'est 
: 1748 2 64 la 
: 1752 7 67 vie, 
: 1761 2 65 c'est 
: 1764 2 64 la 
: 1768 4 67 vie
-1772
: 1773 3 67 On 
: 1776 1 64 my 
: 1777 3 67 own 
: 1781 1 59 to
: 1784 5 60 night
-1790
: 1809 2 64 Life 
: 1813 2 64 is 
: 1817 2 62 good 
: 1821 1 60 for 
: 1824 5 60 you
-1830
: 1832 5 67 Al
: 1837 3 67 ways 
: 1841 3 67 twen
: 1845 2 64 ty 
: 1848 5 62 one
-1854
: 1859 2 55 You 
: 1861 2 57 are 
: 1863 5 65 al
: 1869 3 64 ways 
: 1873 3 60 twen
: 1877 2 59 ty 
: 1879 5 60 one
-1885
: 1937 2 64 Life 
: 1941 2 64 is 
: 1945 2 62 good 
: 1949 1 60 for 
: 1952 5 60 you
-1958
: 1960 5 67 You are 
: 1965 3 67 always 
: 1969 3 67 twen
: 1973 2 69 ty 
: 1976 5 67 one
-1982
: 1987 2 55 You 
: 1989 2 57 are 
: 1991 5 65 al
: 1997 3 64 ways 
: 2001 3 60 twen
: 2005 2 55 ty 
: 2007 2 62 o
: 2009 1 60 ne
E


Created by PURE6 [poland]
My song no. 24 (all to be found under "[ultrastar][pure6]" in e-donkey 2000 network)
