#TITLE:Someone Like You
#ARTIST:Adele
#MP3:Adele - Someone Like You.mp3
#VIDEO:Adele - Someone Like You.mp4
#COVER:Adele - Someone Like You [CO].jpg
#BPM:269,1
#GAP:14165
#ENCODING:UTF8
#LANGUAGE:English
#GENRE:Pop
#EDITION:None
#YEAR:2011
#AUTHOR:delme19
: 0 3 1 I
: 4 3 2 ~
: 8 12 4 ~
: 24 11 1  heard
- 37
: 64 2 -1 That
: 68 11 -3  you
: 80 3 -6 ~'re
- 85
: 96 3 4 Settl
: 100 5 4 ed
: 108 16 1  down
- 126
: 128 3 -1 That
: 133 10 -3  you
: 144 4 -6 ~
- 150
: 160 6 4 Found
: 168 2 4  a
: 172 13 1  girl
- 187
: 192 2 -1 And
: 196 11 -3  you
: 208 3 -6 ~'re
- 213
: 224 3 4 Mar
: 228 2 4 ried
: 235 15 1  no
: 252 14 -1 ~
: 268 7 -3 ~w
- 277
: 284 12 4 I
: 300 11 1  heard
- 313
: 320 3 -1 That
: 324 5 -3  your
* 336 7 6  drea
: 344 4 4 ~ms
: 352 3 -1  ca
: 356 7 1 ~me
: 368 7 -3  true
- 377
: 388 3 -1 Guess
: 394 2 -3  she
: 399 5 -6  gave
: 407 2 -6  you
: 412 11 -3  thi
: 424 3 -6 ~ngs
- 429
: 451 2 -6 I
: 455 2 -6  did
: 459 2 -6 n't
: 463 3 -1  give
: 468 2 -3  to
: 472 10 -1  you
: 484 5 1 ~
: 490 7 2 ~
- 499
: 521 4 3 O
* 526 9 4 ~ld
: 543 11 1  frie
: 555 3 -1 ~nd
- 560
: 570 4 6 Why
: 577 3 4  are
: 581 2 4  you
: 586 9 4  so
: 602 3 4  shy
: 606 3 2 ~
: 610 8 1 ~
: 619 5 1 ~
- 626
: 638 3 -1 Ain't
: 642 3 -1  li
: 646 5 1 ~ke
: 654 4 -6  you
: 662 2 -6  to
: 666 10 -3  hold
: 682 7 -6  back
- 691
: 707 3 -8 O
: 711 4 -6 ~r
: 718 2 -1  hi
: 721 2 -3 ~
: 724 10 -1 ~de
: 738 2 -1  from
: 741 2 -3  the
: 744 3 -3  li
: 748 8 -1 ~
: 757 3 1 ~ght
- 762
: 777 2 -6 I
: 781 2 -1  hate
: 785 2 1  to
: 789 2 1  turn
: 794 4 1  up
: 802 2 -1  out
: 806 2 -1  of
: 810 2 -3  the
: 814 6 -1  blue
: 822 3 -1  un
: 826 2 -3 in
: 830 3 -1 vi
: 834 2 -3 ted
- 837
: 838 2 -3 But
: 841 8 -3  I
: 853 1 -1  could
: 855 3 -3 n't
: 861 2 -1  stay
: 865 4 -3  a
: 870 7 -1 way
- 879
: 882 2 -3 I
: 885 2 -1  could
: 888 2 -3 n't
: 893 3 -1  fight
: 897 2 -3  it
- 900
: 901 5 -3 I
: 909 2 -1  hoped
: 913 2 1  you'd
: 917 2 1  see
: 921 2 1  my
: 925 7 1  face
- 934
: 937 2 -1 And
: 941 2 -1  that
: 945 2 -3  you'd
: 949 2 -1  be
: 953 2 -3  re
: 957 2 -1 min
: 961 2 -3 ded
: 965 2 -1  that
: 969 2 1  for
: 973 7 -6  me
- 982
: 993 2 -3 It
: 997 2 -1  is
: 1001 2 -3 n't
: 1005 13 -1  o
: 1020 3 -1 ve
: 1024 13 1 ~r
- 1039
: 1073 3 9 Ne
: 1077 2 9 ver
: 1081 6 9 mind
: 1089 3 9  I
: 1093 2 8 ~'ll
: 1097 7 8  fi
: 1105 3 6 ~nd
- 1110
: 1117 3 8 Some
: 1121 3 8 one
: 1125 3 8  li
: 1129 4 9 ~ke
* 1137 26 6  you
: 1165 8 6 ~
- 1175
: 1181 4 6 I
: 1189 3 8  wish
: 1197 3 9  no
: 1202 3 4 thing
: 1209 5 4  but
: 1216 3 9  the
: 1220 2 8 ~
: 1225 6 8  be
: 1233 3 6 ~st
- 1238
: 1248 3 8 Fo
: 1252 4 9 ~r
: 1260 29 6  you
: 1292 11 9  too
- 1305
: 1308 5 13 Don't
: 1316 5 13  for
: 1324 4 13 get
: 1331 3 13  me
: 1335 2 11 ~
- 1339
* 1344 6 16 I
: 1352 7 13  be
: 1361 3 11 ~gged
- 1366
: 1372 3 14 I
: 1376 2 13 ~'ll
: 1380 3 11  re
: 1384 2 9 ~
: 1388 4 13 mem
: 1394 10 13 ber
: 1408 5 13  you
: 1416 1 11  sai
: 1418 1 9 ~
: 1420 12 6 ~d
- 1433
: 1435 3 9 Some
: 1440 5 9 times
: 1447 2 9  it
: 1452 7 9  lasts
: 1463 3 4  in
: 1468 6 4  love
- 1476
: 1479 2 4 But
: 1483 4 6  some
: 1488 5 4 times
: 1495 2 4  it
: 1499 8 6  hurts
: 1511 2 4  i
: 1514 2 6 ~n
: 1519 2 4 stea
* 1522 22 6 ~
: 1545 2 4 ~
: 1548 6 6 ~d
- 1556
: 1563 3 9 Some
: 1568 4 9 times
: 1575 2 9  it
: 1580 6 9  lasts
: 1591 2 4  in
: 1596 5 4  love
- 1603
: 1606 2 4 But
: 1611 3 4  some
: 1616 5 2 times
: 1623 2 2  it
: 1627 7 1  hu
: 1635 2 -1 ~rts
: 1639 4 -3  in
: 1647 13 -3 stead
- 1662
: 1675 3 -1 Yea
: 1679 7 1 ~h
- 1688
: 1751 10 4 You
: 1766 11 1  know
: 1785 4 -1  how
: 1791 7 -3  the
- 1800
: 1815 3 1 Ti
: 1819 8 4 ~me
: 1831 14 1  flies
- 1847
: 1850 3 -1 On
: 1854 2 -3 l
: 1858 6 -1 ~y
- 1866
: 1883 4 4 Yes
: 1891 2 4 ter
: 1895 12 1 day
- 1908
: 1910 3 1 It
: 1914 2 -1  was
: 1918 6 -3  the
: 1930 12 2  time
: 1946 2 2  of
: 1950 5 2  our
: 1958 3 2  li
: 1962 9 1 ~ves
- 1973
: 1977 3 1 We
: 1981 3 -1 ~
: 1985 4 -3  were
: 1993 9 -3  born
* 2006 6 4  and
: 2017 12 1  rai
: 2030 4 -1 ~sed
- 2036
: 2045 3 -1 In
: 2049 8 -3  a
: 2070 3 -3  sum
: 2074 8 4 mer
: 2085 16 1  haze
- 2103
: 2105 10 1 Bound
: 2120 8 -6  by
: 2134 3 1  the
: 2141 3 -1  sur
: 2145 9 1 pri
: 2155 4 -1 ~se
- 2161
: 2169 5 -3 Of
: 2176 4 -3  our
: 2185 14 2  glo
: 2201 10 1 ry
: 2213 2 -1 ~
: 2217 14 -3  days
- 2233
: 2244 2 -6 I
: 2248 2 -1  hate
: 2252 2 1  to
: 2256 2 1  turn
: 2261 4 1  up
: 2269 2 -1  out
: 2273 2 -1  of
: 2277 2 -3  the
: 2281 6 -1  blue
: 2289 3 -1  un
: 2293 2 -3 in
: 2297 3 -1 vi
: 2301 2 -3 ted
- 2304
: 2305 2 -3 But
: 2308 8 -3  I
: 2321 1 -1  could
: 2323 3 -3 n't
: 2329 2 -1  stay
: 2333 3 -3  a
: 2337 7 -1 way
- 2346
: 2349 2 -3 I
: 2353 1 -1  could
: 2355 2 -3 n't
: 2360 3 -1  fight
: 2364 2 -3  it
- 2367
: 2368 5 -3 I
: 2376 2 -1  hoped
: 2380 2 1  you'd
: 2384 2 1  see
: 2388 2 1  my
: 2392 6 1  face
- 2400
: 2404 2 -1 And
: 2408 2 -1  that
: 2412 2 -3  you'd
: 2416 2 -1  be
: 2420 2 -3  re
: 2424 2 -1 min
: 2428 2 -3 ded
: 2432 2 -1  that
: 2436 2 1  for
: 2440 7 -6  me
- 2449
: 2460 2 -3 It
: 2464 2 -1  is
: 2468 2 -3 n't
: 2472 13 -1  o
: 2487 3 -1 ve
* 2491 12 1 ~r
- 2505
: 2572 3 9 Ne
: 2576 2 9 ver
: 2580 6 9 mind
: 2588 3 9  I
: 2592 2 8 ~'ll
: 2596 7 8  fi
: 2604 3 6 ~nd
- 2609
: 2616 3 8 Some
: 2620 6 8 one
: 2628 3 8  li
: 2632 2 9 ~ke
: 2636 26 6  you
: 2664 8 6 ~
- 2674
: 2679 5 6 I
: 2687 3 8  wish
: 2695 3 9  no
: 2701 3 4 thing
: 2708 5 4  but
: 2715 3 9  the
: 2719 2 8 ~
: 2724 6 8  be
: 2732 3 6 ~st
- 2737
: 2747 3 8 Fo
: 2751 4 9 ~r
* 2759 29 6  you
: 2791 11 9  too
- 2804
: 2807 5 13 Don't
: 2815 5 13  for
: 2823 3 13 get
: 2828 2 13  me
: 2831 3 11 ~
- 2836
: 2843 5 16 I
: 2850 7 13  be
: 2858 3 11 ~gged
- 2863
: 2870 3 14 I
: 2874 2 13 ~'ll
: 2878 3 11  re
: 2882 2 9 ~
: 2886 4 13 mem
: 2893 9 13 ber
: 2907 4 13  you
: 2915 1 11  sai
: 2917 1 9 ~
: 2919 11 6 ~d
- 2932
: 2934 3 9 Some
: 2939 5 9 times
: 2946 2 9  it
: 2951 7 9  lasts
: 2962 3 4  in
: 2967 6 4  love
- 2975
: 2978 2 4 But
: 2982 4 6  some
: 2987 5 4 times
: 2994 2 4  it
: 2998 8 -1  hurts
: 3010 2 -3  i
: 3013 2 -1 ~n
: 3019 27 -3 stea
: 3047 3 -1 ~
: 3051 8 1 ~d
- 3061
: 3078 3 -3 No
: 3083 3 -3 thing
: 3089 3 4  com
: 3094 5 0 pares
- 3100
: 3102 6 -1 No
: 3110 4 -3  wor
: 3115 3 -3 ries
: 3121 3 4  or
: 3126 7 1  cares
- 3135
: 3138 2 1 Re
: 3142 3 1 grets
: 3148 3 1  and
: 3153 3 1  mis
: 3158 5 1 takes
- 3164
: 3166 5 1 And
: 3174 4 2  me
: 3180 3 4 mo
: 3185 2 1 ries
: 3190 7 1  made
- 3199
: 3206 3 -3 Who
: 3211 4 -3  would
* 3217 3 4  have
: 3222 5 0  known
: 3230 8 -3  how
- 3240
: 3253 3 1 Bit
: 3257 6 1 ter
: 3270 14 1 swee
: 3286 12 -1 ~t
: 3302 4 -1  this
: 3317 8 1  would
: 3335 14 -3  taste
- 3351
: 3414 3 9 Ne
: 3418 2 9 ver
: 3422 5 9 mind
: 3429 3 9  I
: 3433 2 8 ~'ll
: 3438 8 8  fi
: 3447 3 6 ~nd
- 3452
: 3458 3 8 Some
: 3462 3 8 one
: 3466 3 8  li
: 3470 3 9 ~ke
* 3476 26 6  you
: 3505 8 6 ~
- 3515
: 3520 4 6 I
: 3528 3 8  wish
: 3536 3 9  no
: 3542 3 4 thing
: 3549 4 4  but
: 3556 2 9  the
: 3559 2 8 ~
: 3565 6 8  be
: 3573 3 6 ~st
- 3578
: 3588 3 8 Fo
: 3592 4 9 ~r
: 3600 29 6  you
: 3632 11 9 ~
- 3645
: 3648 5 13 Don't
: 3656 5 13  for
: 3664 4 13 get
: 3670 5 13  me
- 3677
: 3684 5 16 I
: 3692 7 13  be
: 3700 4 11 ~gged
- 3706
: 3712 3 14 I
: 3716 2 13 ~'ll
: 3720 3 11  re
: 3724 2 9 ~
: 3728 4 13 mem
* 3734 10 13 ber
: 3748 5 13  you
: 3756 1 11  sai
: 3758 1 9 ~
: 3760 5 6 ~d
- 3767
: 3776 3 9 Some
: 3780 5 9 times
: 3787 2 9  it
: 3791 7 9  lasts
: 3803 3 4  in
: 3808 6 4  love
- 3816
: 3818 2 4 But
: 3822 4 6  some
: 3827 4 4 times
: 3834 2 4  it
: 3843 5 6  hurts
: 3851 4 6  in
: 3859 2 4 stea
: 3862 15 6 ~
: 3879 2 4 ~
: 3882 17 2 ~d
- 3901
: 3922 3 9 Ne
: 3926 2 9 ver
: 3930 6 9 mind
: 3938 3 9  I
: 3942 2 8 ~'ll
: 3946 7 8  fi
: 3954 3 6 ~nd
- 3959
: 3967 3 8 Some
: 3971 5 8 one
: 3979 3 8  li
: 3983 2 9 ~ke
: 3987 26 6  you
: 4016 8 6 ~
- 4026
: 4031 4 6 I
: 4039 3 8  wish
: 4047 3 9  no
: 4052 3 4 thing
: 4059 5 4  but
: 4066 3 9  the
: 4070 2 8 ~
: 4075 6 8  be
: 4083 3 6 ~st
- 4088
: 4098 3 8 Fo
: 4102 4 9 ~r
: 4110 29 6  you
* 4142 11 9  too
- 4155
: 4158 5 13 Don't
: 4166 5 13  for
: 4174 3 13 get
: 4180 2 13  me
: 4183 2 11 ~
- 4187
: 4193 6 16 I
: 4201 7 13  be
: 4210 3 11 ~gged
- 4215
: 4222 3 14 I
: 4226 2 13 ~'ll
: 4230 3 11  re
: 4234 2 9 ~
: 4238 4 13 mem
: 4244 10 13 ber
: 4258 5 13  you
: 4266 1 11  sai
: 4268 1 9 ~
: 4270 11 6 ~d
- 4283
: 4285 3 9 Some
: 4290 5 9 times
: 4297 2 9  it
: 4302 7 9  lasts
: 4313 3 4  in
: 4318 6 4  love
- 4326
: 4328 2 4 But
: 4333 3 6  some
: 4337 5 4 times
: 4345 2 4  it
: 4349 3 4  hu
: 4353 4 6 ~rts
: 4360 3 4  i
: 4364 2 6 ~n
: 4368 3 4 stea
* 4372 24 6 ~
: 4397 2 8 ~
: 4400 9 9 ~d
- 4411
: 4413 3 9 Some
: 4418 5 9 times
: 4425 2 9  it
: 4429 6 9  lasts
: 4441 3 4  in
: 4446 7 4  love
- 4454
: 4456 2 4 But
: 4461 3 6  some
: 4465 3 6 ti
: 4469 3 4 ~mes
: 4477 2 4  it
: 4481 4 -1  hurts
: 4489 4 -1  in
: 4497 20 -3 stead
- 4519
: 4525 2 -1 Yea
: 4528 6 1 ~h,
: 4545 3 -1  yea
: 4549 6 -3 ~h,
: 4560 5 -6  yeah
E