#TITLE:Beetween Love And Fire
#ARTIST:After Forever
#EDITION:Ultrastar Metal
#MP3:After Forever - Beetween Love And Fire.mp3
#COVER:After Forever - Beetween Love And Fire [CO].jpg
#BACKGROUND:After Forever - Beetween Love And Fire [BG].jpg
#BPM:251,94
#GAP:25923
: 0 28 71 Here
: 28 8 66  I
: 36 20 65  am,
- 56
: 56 10 62  the
: 66 16 66  fu
: 82 8 71 ture
: 90 10 66  is
: 100 14 65  mi
: 114 12 62 ne
- 128 234
: 254 26 71 Ou
: 280 10 66 r
: 290 20 65  dreams
- 310
: 310 8 62  can
: 318 4 66  be
: 322 8 71 come
: 330 4 66  re
: 334 12 65 al
: 346 14 62 ity
- 362 363
: 372 4 73 Im
: 376 2 71  in
: 378 11 69  charge
: 389 5 66  of
: 394 10 69  life's
: 404 5 66  great
: 409 19 64  circle
- 430
: 434 3 66 I
: 437 11 73  control
: 448 9 71  my
: 457 12 69  path
: 469 5 66  of
: 474 26 66  wealth
- 502 503
: 520 7 71 Am
: 527 6 74 bi
: 533 6 74 tions
: 539 16 73  high,
: 558 7 74  bu
: 565 11 73 rning
- 578
: 583 5 71 The
: 588 11 74  flames
: 599 4 76  burn
: 603 10 74  deep
: 613 10 73  down
: 623 8 71  in
: 631 6 69  our
: 637 29 71  sou
: 666 20 73 ls
- 687
: 688 6 71 To
: 694 8 70  be
: 702 19 66  known
- 723
: 728 4 66  for
: 732 4 66  ef
: 736 4 70 fi
: 740 6 73 ciency
: 746 5 76  and
: 751 7 74  pas
: 758 7 73 sion
- 766
: 767 23 71 Se
: 790 14 66 perate
: 804 23 65  goals
: 827 3 62  but
: 831 19 74  fir
: 850 7 71 e
- 858
: 859 18 69  shar
: 877 59 71 ed
- 938 998
: 1018 13 69  oh
: 1031 4 71  I
: 1035 4 73  can
: 1039 5 74  thi
: 1044 3 71 nk,
: 1047 3 66  I
: 1050 3 64  can
: 1053 7 62  wo
: 1060 4 64 rk,
- 1065
: 1066 2 66  I
: 1068 2 64  don
: 1070 2 62 ĂÂ´t
: 1072 3 64  need
: 1075 2 62  your
: 1077 6 64  sup
: 1083 11 66 port
- 1095
: 1096 7 71 Our
: 1103 9 71  love
: 1112 4 74  is
: 1116 8 73  pale,
- 1126
: 1128 4 71  but
: 1132 3 71  it's
: 1135 5 71  not
: 1140 4 76  in
: 1144 3 74  my
: 1147 43 73  way
- 1192 1193
: 1204 4 71 to
: 1208 7 70  sha
: 1215 1 66 re
: 1216 4 67  our
: 1220 9 66  liv
: 1229 10 66 es,
- 1239
: 1239 2 66  our
: 1241 6 74  fi
: 1247 29 73 re
- 1278
: 1284 7 74 Am
: 1291 6 73 bi
: 1297 7 71 tio
: 1304 3 74 ns
: 1307 9 74  high,
: 1325 11 73  burn
: 1336 13 74 ing
- 1350
: 1350 4 73 The
: 1354 8 71  flam
: 1362 4 74 es
: 1366 5 76  burn
: 1371 11 74  deep
: 1382 8 73  down
: 1390 8 71  in
: 1398 6 69  our
: 1404 34 71  sou
: 1438 21 73 ls
- 1459
: 1459 8 71 To
: 1467 5 70  be
: 1472 22 66  known
: 1494 4 66  for
: 1498 4 66  ef
: 1502 4 70 fi
: 1506 8 73 ciency
- 1514
: 1514 4 76  and
: 1518 8 74  pas
: 1526 8 73 si
: 1534 9 71 on
: 1543 7 74  Am
: 1550 4 74 bi
: 1554 7 73 tio
: 1561 2 74 ns,
- 1563
: 1563 12 73  dreams,
: 1575 5 71  they
: 1580 2 74 're
: 1582 6 76  burn
: 1588 12 74 ing
- 1602
: 1606 7 73 The
: 1613 6 71  flam
: 1619 4 69 es
: 1623 2 71  bu
: 1625 2 73 rn
: 1627 8 71  dee
: 1635 8 70 per
: 1643 6 66  to
: 1649 6 66 wards
- 1655
: 1655 8 66  our
: 1663 34 70  go
: 1697 19 73 als,
- 1717
: 1719 8 76  our
: 1727 8 74  ne
: 1735 32 73 eds
- 1769 2155
: 2175 4 64 Sud
: 2179 4 64 den
: 2183 4 64 ly,
: 2187 4 65  we
: 2191 4 65  have
: 2195 4 65  been
: 2199 4 68  care
: 2203 4 67 less
- 2207
: 2207 4 64 A
: 2211 4 64  new
: 2215 4 64  life,
: 2219 4 65  a
: 2223 4 65  new
: 2227 4 65  di
: 2231 4 68 men
: 2235 4 67 sion
- 2239
: 2239 4 64 It
: 2243 4 64  dis
: 2247 4 64 turbs
: 2251 4 65  our
: 2255 4 65  sol
: 2259 4 65 id
: 2263 4 68  fu
: 2267 4 67 ture.
- 2271
: 2271 4 64  It
: 2275 4 64  puts
: 2279 4 64  out
: 2283 4 65  the
: 2287 4 65  fire
: 2291 4 65  we
: 2295 4 68  both
: 2299 4 67  need
- 2303
: 2303 4 64 It's
: 2307 4 64  a
: 2311 4 64  choice
: 2315 4 65  be
: 2319 4 65 tween
: 2323 4 65  the
: 2327 4 68  pas
: 2331 4 67 sion,
- 2335
: 2335 4 64  or
: 2339 4 64  the
: 2343 4 64  love
: 2347 4 65  that
: 2351 4 65  can
: 2355 4 65  be
: 2359 4 68  saved
: 2363 4 67  now
- 2367
: 2367 4 64 See
: 2371 4 64  the
: 2375 4 64  child
: 2379 4 65  here
: 2383 4 65  as
: 2387 2 65  a
: 2389 6 68  saviour.
- 2395
: 2395 4 67  Choo
: 2399 4 64 se
: 2403 4 64  for
: 2407 4 64  love
: 2411 4 65  and
: 2415 4 65  let
: 2419 4 65  this
: 2423 4 68  life
: 2427 4 67  be
: 2431 32 62 gin
- 2465 3522
: 3542 10 74 Feel
: 3552 11 74  it,
: 3572 4 73  this
: 3576 2 73  li
: 3578 3 71 fe
- 3581
: 3581 3 70  in
: 3584 4 71  me,
: 3607 8 74  mo
: 3615 10 74 ving
- 3627 3628
: 3644 4 66 With
: 3648 4 66  this
: 3652 8 73  child
: 3660 8 71  we
: 3668 8 69  must
: 3676 7 66  make
: 3683 9 69  choic
: 3692 15 66 es,
- 3707
: 3707 3 64  it
: 3710 3 66  can
: 3713 12 73  save
: 3725 7 71  us
: 3732 8 69  if
: 3740 6 66  we
: 3746 26 66  want
- 3773
: 3775 12 74 Oh,
: 3803 4 74  I
: 3807 4 74  fear
: 3811 8 74  it,
- 3821
: 3826 5 73  the
: 3831 4 73  path
: 3835 4 71  we
: 3839 4 70  ta
: 3843 10 71 ke
- 3855 3856
: 3864 6 74 Is
: 3870 14 74  this
: 3892 3 76  a
: 3895 2 76  ch
: 3897 4 74 oi
: 3901 3 73 ce
: 3904 6 71  any
: 3910 47 70 way,
- 3959
: 3967 4 66  be
: 3971 3 67 twe
: 3974 6 66 en
: 3980 16 66  love
: 3998 3 74  and
: 4001 33 73  fire?
- 4036 4037
: 4048 8 71 Am
: 4056 6 74 bi
: 4062 5 74 tions
: 4067 20 73  high,
- 4087
: 4087 8 74  bu
: 4095 4 73 rn
: 4099 12 71 ing
- 4113
: 4115 3 74 The
: 4118 9 76  flames
: 4127 5 74  burn
: 4132 11 73  deep
: 4143 8 71  down
: 4151 8 69  in
: 4159 6 71  our
- 4165
: 4165 46 73  sou
: 4211 8 71 ls
- 4219
: 4219 5 70 To
: 4228 2 66  be
: 4235 19 66  known
: 4256 4 66  for
: 4260 4 70  ef
: 4264 4 73 fi
: 4268 8 76 ciency
- 4276
: 4276 4 74  and
: 4280 8 73  pas
: 4288 16 71 sion
: 4304 8 74  Am
: 4312 4 74 bi
: 4316 6 73 tio
: 4322 2 74 ns,
- 4324
: 4324 11 73  dreams,
: 4335 7 71  they
: 4342 2 74 're
: 4344 9 76  burn
: 4353 10 74 ing
- 4365
: 4370 4 73 The
: 4374 6 71  flam
: 4380 4 69 es
: 4384 3 71  bu
: 4387 2 73 rn
: 4389 8 71  dee
: 4397 10 70 per
- 4407
: 4407 4 66  to
: 4411 5 66 wards
: 4416 7 66  our
: 4423 4 70  go
: 4427 51 73 als,
- 4478
: 4478 8 76  our
: 4486 8 74  ne
: 4494 31 73 eds
E

