#TITLE:Release me
#ARTIST:Agnes
#MP3:Release me.mp3
#VIDEO:Release me.avi
#COVER:Release me.jpg
#BPM:128
#GAP:-500
#ENCODING:UTF8
#LANGUAGE:English
#GENRE:Pop
: 1 2 5 Re
: 4 14 12 lease 
* 22 4 5 me 
- 28
: 34 1 5 Re
: 36 10 12 lease 
: 49 2 4 my 
: 52 2 4 bo
: 56 4 5 dy
- 62
: 65 1 5 I 
: 67 2 10 kno
: 70 8 12 ~w 
: 81 2 5 it's 
: 84 1 7 wro
: 86 4 5 ~ng 
- 92
: 100 1 5 So 
: 102 2 9 why 
: 105 1 7 am 
: 107 2 5 I 
: 110 2 9 with 
: 113 2 7 you 
: 116 4 7 now? 
- 122
: 127 1 5 I 
: 129 1 5 say 
: 131 1 5 re
: 133 12 12 lease 
: 149 4 5 me 
- 155
: 162 1 5 'Cause 
: 164 9 12 I'm 
: 177 1 4 not 
: 179 1 5 a
: 180 2 4 ~
: 184 1 5 ble 
: 186 1 4 to
: 188 4 2 ~
- 193
: 194 1 5 Con
: 196 11 12 vince 
: 210 1 5 my
: 212 1 7 se
: 214 4 5 ~lf
- 220
: 228 1 5 That 
: 230 2 9 I'm 
: 234 1 7 bet
: 236 1 5 ter 
: 238 2 9 off 
: 241 2 7 with
: 244 2 7 out 
: 248 1 7 you
: 250 2 5 ~
- 254
: 266 1 2 Yeah 
: 268 1 2 it's 
: 270 1 5 per
: 272 1 7 fect
: 274 1 5 ly 
: 276 2 9 clear 
- 279
: 280 1 2 That 
: 282 1 2 it's 
: 284 1 2 not 
: 286 2 7 what 
: 290 1 5 you 
: 292 1 5 nee
: 294 2 2 ~d
- 296
: 296 1 2 I 
: 298 1 2 tell 
: 300 1 2 you 
: 302 1 5 that 
: 304 1 7 I 
: 306 1 5 don't 
: 308 2 9 care 
- 311
: 312 1 2 But 
: 314 1 2 I 
: 316 1 2 don't 
: 318 2 7 want 
: 322 2 5 to 
- 326
: 330 1 2 A
: 332 1 2 ny
: 334 1 5 thing 
: 336 1 7 that 
: 338 1 5 you 
: 340 2 9 say 
- 343
: 344 1 2 I 
: 346 1 2 hear 
: 348 1 2 my
: 350 2 7 self 
: 354 1 5 a
: 356 1 5 gree
: 358 2 2 ~ 
- 361
: 362 1 2 And 
: 364 1 2 I 
: 366 1 5 don't 
: 368 1 7 re
: 370 1 5 cog
: 372 2 9 nize 
- 375
: 376 1 2 What 
: 378 1 2 I've 
: 380 1 2 turned 
: 382 2 7 in
: 386 2 5 to
- 390
: 394 3 5 I 
: 398 2 4 don't 
: 402 1 2 know 
: 404 2 -2 why 
- 408
: 410 3 5 I 
: 414 2 4 want 
: 417 2 2 you 
: 420 2 -2 so
- 424
: 436 1 5 'Cause 
: 438 1 7 I 
: 440 1 5 don't 
: 442 1 7 need 
: 444 1 5 the 
: 446 2 9 heart 
: 450 1 2 bre
: 452 2 5 ~ak
- 455
: 457 3 5 I 
: 461 2 4 don't 
: 465 1 2 know 
: 467 2 -2 what
- 471
: 473 3 5 Ad
: 477 2 4 dic
: 481 2 2 tive 
: 484 2 -2 hold
- 488
: 500 1 5 You 
: 502 1 7 have 
: 504 1 5 on 
: 506 1 7 me 
: 508 1 5 I 
: 510 2 9 can't 
: 514 2 9 shake
- 518
: 520 12 5 No, 
- 534
: 540 1 7 I'm 
: 542 1 9 not 
: 544 1 7 in 
: 546 1 9 con
: 548 3 7 tro
: 552 6 9 ~l
- 559
: 561 2 9 So 
: 564 2 13 let 
: 568 2 9 me 
: 572 2 9 go
: 575 2 7 ~
- 578
: 578 1 5 Re
: 580 14 12 lease 
: 598 4 5 me 
- 604
: 610 1 5 Re
: 612 10 12 lease 
: 625 2 4 my 
: 628 2 4 bo
: 632 4 5 dy
- 638
: 641 1 5 I 
: 643 2 10 kno
: 646 8 12 ~w 
: 657 2 5 it's 
: 660 1 7 wro
: 662 4 5 ~ng 
- 668
: 675 1 5 So 
: 677 2 9 why 
: 680 1 7 do 
: 682 2 5 I 
: 685 2 9 keep 
: 688 2 7 com
: 692 2 7 ing 
: 696 2 7 ba
: 700 1 9 ~ck
- 702
: 704 1 5 I 
: 706 1 5 say 
: 708 1 5 re
: 710 11 12 lease 
: 724 4 5 me 
- 730
: 738 1 5 'Cause 
: 740 10 12 I'm 
: 753 1 4 not 
: 755 1 5 a
: 756 3 4 ~
: 760 1 5 ble 
: 762 1 4 to
: 764 2 2 ~
- 768
: 770 1 5 Con
: 772 11 12 vince 
: 786 1 5 my
: 788 1 7 se
: 790 4 5 ~lf
- 796
: 804 1 5 That 
: 806 2 9 I'm 
: 810 1 7 bet
: 812 1 5 ter 
: 814 2 9 off 
: 817 2 7 with
: 820 2 7 out 
: 824 1 7 you
: 826 2 5 ~
- 830
: 842 1 2 I 
: 844 1 2 could 
: 846 1 5 sleep 
: 848 1 7 by 
: 850 1 5 my
: 852 2 9 self
- 855
: 856 1 2 I 
: 858 2 2 would 
: 862 1 5 burn 
: 864 1 7 me 
: 866 1 5 a
: 868 1 5 li
: 870 2 2 ~ve
- 873
: 874 1 2 Find 
: 876 1 2 me 
: 878 1 5 some
: 880 1 7 bo
: 882 1 5 dy 
: 884 2 9 else
- 887
: 888 1 2 But 
: 890 1 2 I 
: 892 1 2 don't 
: 894 2 7 want 
: 898 2 5 to 
- 902
: 906 1 2 Try 
: 908 1 2 to 
: 910 1 5 leave 
: 912 1 7 out 
: 914 1 5 the 
: 916 2 9 love
- 919
: 920 1 2 That 
: 922 1 2 goes 
: 924 1 2 a
: 926 2 7 gain 
: 930 1 5 the 
: 932 1 5 gra
: 934 2 2 ~in
- 937
: 938 1 2 But 
: 940 1 2 I 
: 942 1 5 can 
: 944 1 7 ra
: 946 1 5 tio
: 948 2 9 nalize 
: 952 2 2 it
- 954
: 954 1 2 If 
: 956 1 2 I 
: 958 2 7 have 
: 962 2 5 to
- 966
: 970 3 5 I 
: 974 2 4 don't 
: 978 1 2 know 
: 980 2 -2 why 
- 984
: 986 3 5 I 
: 990 2 4 want 
: 993 2 2 you 
: 996 2 -2 so
- 1000
: 1012 1 7 'Cause 
: 1014 1 12 I 
: 1016 1 7 don't 
: 1018 1 7 need 
: 1020 1 5 the 
: 1022 2 7 heart 
: 1026 1 2 bre
: 1028 2 5 ~ak
- 1031
: 1033 3 5 I 
: 1037 2 4 don't 
: 1041 1 2 know 
: 1043 2 -2 what
- 1047
: 1049 3 5 Ad
: 1053 2 4 dic
: 1057 2 2 tive 
: 1060 2 -2 hold
- 1064
: 1076 1 5 You 
: 1078 1 7 have 
: 1080 1 5 on 
: 1082 1 7 me 
: 1084 1 5 I 
: 1086 2 9 can't 
: 1090 2 9 shake
- 1094
: 1096 12 5 No, 
- 1110
: 1116 1 7 I'm 
: 1118 1 9 not 
: 1120 1 7 in 
: 1122 1 9 con
: 1124 3 7 tro
: 1128 6 9 ~l
- 1135
: 1137 2 9 So 
: 1140 2 13 let 
: 1144 2 9 me 
: 1148 2 9 go
: 1151 2 7 ~
- 1154
: 1154 1 5 Re
: 1156 14 12 lease 
: 1174 4 5 me 
- 1180
: 1186 1 5 Re
: 1188 10 12 lease 
: 1201 2 4 my 
: 1204 2 4 bo
: 1208 4 5 dy
- 1214
: 1217 1 5 I 
: 1219 2 10 kno
: 1222 8 12 ~w 
: 1233 2 5 it's 
: 1236 1 7 wro
: 1238 4 5 ~ng 
- 1244
: 1251 1 7 So 
: 1253 2 14 why 
: 1256 1 12 do 
: 1258 2 12 I 
: 1261 3 14 keep 
: 1265 2 12 com
: 1268 2 12 ing 
: 1271 1 9 ba
: 1273 1 7 ~ck
- 1276
: 1279 1 5 I 
: 1281 1 5 say 
: 1283 1 5 re
: 1285 12 12 lease 
: 1300 4 5 me 
- 1306
: 1313 1 5 'Cause 
: 1315 10 12 I'm 
: 1328 1 4 not 
: 1330 1 5 a
: 1331 3 4 ~
: 1335 1 5 ble 
: 1337 1 4 to
: 1339 2 2 ~
- 1343
: 1345 1 5 Con
: 1347 11 12 vince 
: 1361 1 5 my
: 1363 5 7 se
: 1369 2 5 ~lf
- 1373
: 1379 1 5 That 
: 1381 2 9 I'm 
: 1385 1 7 bet
: 1387 1 5 ter 
: 1389 2 9 off 
: 1392 2 7 with
: 1395 2 7 out 
: 1399 1 7 you
: 1401 1 5 ~
- 1404
: 1564 1 7 I'm 
: 1566 1 9 not 
: 1568 1 7 in 
: 1570 1 9 con
: 1572 3 7 tro
: 1576 6 9 ~l
- 1583
: 1585 2 9 So 
: 1588 2 13 let 
: 1592 2 9 me 
: 1596 2 9 go
: 1599 2 7 ~
- 1602
: 1602 1 5 Re
: 1604 14 12 lease 
: 1622 4 5 me 
- 1628
: 1634 1 5 Re
: 1636 10 12 lease 
: 1649 2 4 my 
: 1652 2 4 bo
: 1656 4 5 dy
- 1662
: 1665 1 5 I 
: 1667 11 5 know 
: 1681 2 5 it's 
: 1684 3 7 wro
: 1688 1 5 ~
: 1689 1 7 ~
: 1691 4 5 ~ng
- 1697
: 1699 1 5 So 
: 1701 2 9 why 
: 1704 2 7 do 
: 1707 2 7 I 
: 1710 2 9 keep 
: 1713 2 7 com
: 1716 2 7 ing 
: 1720 2 7 ba
: 1724 2 9 ~ck
- 1727
: 1728 1 5 I 
: 1730 1 5 say 
: 1732 1 5 re
: 1734 8 9 le
: 1743 2 5 ~ase 
: 1748 1 7 me
: 1750 4 5 ~
- 1756
: 1762 1 5 'Cause 
: 1764 2 5 I
: 1767 2 7 ~
: 1770 2 9 ~'m 
: 1778 1 12 not 
: 1781 2 12 a
: 1784 1 9 ble 
: 1785 2 9 to
: 1788 2 7 ~
- 1792
: 1794 1 5 Con
: 1796 1 5 vi
: 1798 1 9 ~
: 1800 2 9 ~
: 1803 2 9 ~nce 
: 1809 1 7 my
: 1811 2 9 se
: 1814 2 5 ~lf
- 1818
: 1828 1 12 That 
: 1830 1 14 I'm 
: 1832 2 12 bet
: 1836 1 9 ter 
: 1838 2 14 off 
: 1841 2 12 with
: 1844 2 9 out 
: 1848 1 9 you
: 1850 1 7 ~
- 1853
: 1900 1 12 Re
: 1902 2 14 lease 
: 1905 2 12 my 
: 1908 2 12 bo
: 1912 2 9 dy
: 1914 2 7 ~
- 1918
: 1922 1 5 I 
: 1924 2 5 kno
: 1927 2 9 ~
: 1930 3 9 ~w 
: 1938 2 5 it's 
: 1941 1 7 wro
: 1943 4 5 ~ng 
- 1949
: 1956 1 5 So 
: 1958 2 9 why 
: 1961 1 7 do 
: 1963 2 5 I 
: 1966 3 9 keep 
: 1970 2 7 com
: 1973 2 7 ing 
: 1976 1 7 ba
: 1978 1 9 ~ck
- 1981
: 1984 1 5 I 
: 1986 1 5 say 
: 1988 1 5 re
: 1990 11 12 lease 
: 2004 4 5 me 
- 2010
: 2018 1 5 'Cause 
: 2020 1 9 I
: 2022 4 7 ~'m 
: 2034 1 12 not 
: 2036 2 14 a
: 2039 1 12 ble 
: 2041 1 7 to
: 2043 2 5 ~
- 2047
: 2050 1 5 Con
: 2052 2 7 vi
: 2055 2 7 ~
: 2058 4 5 ~nce 
: 2066 1 5 my
: 2068 2 7 se
: 2071 2 7 ~
: 2074 2 5 ~lf
- 2078
: 2084 1 5 That 
: 2086 2 9 I'm 
: 2090 1 7 bet
: 2092 1 5 ter 
: 2094 2 9 off 
: 2097 2 7 with
: 2100 2 7 out 
: 2104 1 7 you
: 2106 1 5 ~
E