#TITLE:You learn
#ARTIST:Alanis Morissette
#EDITION:Alanis Morissette
#MP3:Alanis Morissette - You learn.mp3
#COVER:Alanis Morissette - You learn.jpg
#VIDEO:Alanis Morissette - You learn.avi
#BPM:84
#GAP:11840
: 4 2 5 I
: 6 4 3 ~ 
- 11
: 14 1 -2 Rec
: 15 1 0 om
: 16 1 1 mend 
: 18 1 1 gett
: 19 1 1 in 
: 20 1 1 your 
: 21 3 1 heart 
: 24 1 1 tram
: 25 1 0 pl
: 26 1 -2 ed 
: 27 1 -4 on
- 29
: 31 1 -4 To 
: 32 1 -2 an
: 33 1 0 y
: 34 2 0 one
- 44
: 46 4 -4 Yeah 
: 60 4 -4 oh 
: 68 2 5 I
: 70 2 3 ~
: 72 4 8 ~ 
- 77
: 78 1 -2 Rec
: 79 1 0 om
: 80 1 1 mend 
: 82 1 1 walk
: 83 1 1 ing 
: 84 2 1 a
: 86 1 1 round 
- 88
: 88 1 1 Na
: 89 1 0 ked 
: 90 2 -2 in 
: 92 2 -4 your 
: 94 1 -2 liv
: 95 1 0 ing 
: 96 1 0 room
: 97 1 1 ~
: 98 4 0 ~
: 102 9 3 ~
- 113
: 118 2 -6 Ye
: 120 5 -4 ah 
: 131 3 5 swal
: 134 5 6 low 
: 139 1 5 it
: 140 2 3 ~ 
: 142 6 3 down
- 150
: 163 2 5 It 
: 165 3 6 fe
: 168 3 5 els 
: 171 3 3 so 
: 174 7 3 good
- 185
: 195 3 5 Wait 
: 198 4 6 un
: 202 4 5 til 
: 206 1 3 the 
: 207 3 3 dust 
: 210 4 8 set
: 214 1 10 ~
: 216 2 12 ~
: 218 1 13 ~
: 219 2 12 ~
: 221 1 10 ~
: 222 1 8 ~
: 223 4 8 tles
- 228
: 228 1 8 You 
: 229 4 8 live, 
: 235 2 3 you 
: 237 4 3 learn, 
: 243 2 8 you 
: 245 5 8 love, 
: 251 2 3 you 
: 253 4 3 learn
- 258
: 259 2 8 You 
: 261 5 8 cry, 
: 267 2 10 you 
: 269 3 10 learn, 
: 273 2 8 you 
: 275 3 8 lo
: 278 1 13 ~
: 279 4 12 se, 
: 283 3 10 you 
: 286 1 12 lear
: 287 1 10 ~
: 288 3 8 n
- 292
: 292 2 8 You 
: 294 3 8 bleed, 
: 299 2 3 you 
: 301 5 3 learn, 
: 307 2 8 you 
: 309 4 8 scream, 
- 314
: 315 3 3 You 
* 318 8 12 lear
* 326 4 10 ~
* 330 4 8 ~
* 334 9 6 n 
- 346
: 355 2 5 I
: 357 4 3 ~ 
: 365 2 -2 rec
: 367 1 0 om
: 368 1 1 mend
- 370
: 370 1 1 Bit
: 371 1 1 ing 
: 372 1 1 off 
: 373 2 1 more 
: 375 2 1 than 
: 377 2 0 you 
: 379 1 -2 can 
: 380 2 -4 chew 
- 383
: 383 1 -4 To 
: 384 1 -2 an
: 385 1 0 y
: 386 3 0 one
- 392
: 397 3 -4 I 
: 402 1 0 cer
: 403 1 -2 tain
: 404 1 0 ly 
: 405 2 -4 do 
: 413 2 -4 oh 
- 417
: 419 2 5 I
: 421 2 3 ~
: 423 4 8 ~ 
: 430 1 -2 rec
: 431 1 0 om
: 432 1 1 mend 
- 434
: 434 1 1 stick
: 435 1 1 ing 
: 436 1 1 your 
: 437 2 1 foot
: 439 1 1 ~ 
: 440 2 0 in 
: 442 1 -2 your 
: 443 2 -4 mouth
- 446
: 447 1 -4 At 
* 448 1 -2 any
* 449 2 0 ti
* 452 1 1 ~
* 453 1 0 ~
* 454 1 1 ~
* 455 3 0 ~
* 458 4 3 me 
* 462 7 8 oh 
* 469 2 12 feel 
* 471 9 8 free
- 482
: 484 2 5 Thro
: 486 4 6 ~
: 490 2 5 w 
: 492 2 3 it 
: 494 9 3 down
- 508
: 516 2 5 Ho
: 518 4 6 ~
: 522 2 5 ld 
: 524 1 3 it 
: 526 2 3 up
: 528 5 8 ~
- 538
: 548 2 5 You 
: 550 4 6 wait 
: 554 2 5 and
: 556 1 3 ~ 
: 557 4 3 see 
: 561 4 8 when 
: 566 1 5 the 
: 567 2 8 smo
: 569 1 10 ~
: 570 1 12 ~
: 572 1 13 ke 
: 574 2 12 cle
: 576 1 10 ar
: 577 2 8 s
- 580
: 580 1 8 You 
: 581 4 8 live, 
: 587 2 3 you 
: 589 3 3 learn, 
: 596 1 8 you 
: 597 3 8 love, 
: 603 2 3 you 
: 605 3 3 learn
- 609
: 611 2 8 You 
: 613 3 8 cry, 
: 619 2 10 you 
: 621 3 10 learn, 
: 626 2 8 you 
: 628 2 8 lo
: 630 1 13 ~
: 631 4 12 se, 
: 635 2 10 you 
: 637 2 12 lea
: 639 1 10 r
: 640 3 8 n
- 644
: 644 2 8 You 
: 646 2 8 bleed, 
: 651 2 3 you 
: 653 3 3 learn, 
: 659 2 8 you 
: 661 3 8 scream, 
- 665
: 667 3 3 You 
* 670 8 12 lear
* 678 3 10 ~
* 681 4 8 ~
* 685 9 6 n
- 709
: 709 5 12 Hi 
: 719 6 13 hi 
: 725 7 12 yeah 
: 735 3 6 Ya 
: 738 3 8 ha 
: 741 7 12 hi 
: 750 4 6 Ya 
: 754 3 8 ha 
: 757 4 13 hi 
: 761 5 12 yeah
- 770
: 835 2 5 Wea
: 837 4 6 ~
: 841 2 5 r 
: 843 1 3 it 
: 845 4 3 out
- 851
: 867 2 5 Me
: 869 4 6 ~
: 873 2 5 lt 
: 875 2 5 it 
: 877 2 3 do
: 879 6 8 wn
- 889
: 899 2 5 The 
: 901 4 6 fi
: 905 2 5 ~
: 907 2 3 re 
: 909 4 3 trucks 
: 913 4 8 are
- 918
: 919 1 8 Com
: 920 1 8 ing 
: 921 1 8 up 
: 922 1 8 a
: 923 2 12 round 
: 925 1 13 the 
: 926 2 12 ben
: 928 1 10 ~
: 929 1 8 d
- 931
: 932 1 8 You 
: 933 3 8 live, 
: 939 2 3 you 
: 941 3 3 learn, 
: 947 2 8 you 
: 949 3 8 love, 
: 955 2 3 you 
: 957 3 3 learn
- 961
: 963 2 8 You 
: 965 3 8 cry, 
: 971 2 10 you 
: 973 3 10 learn, 
: 977 2 8 you 
: 979 2 8 lo
: 981 2 13 ~
: 983 4 12 se, 
: 987 2 10 you 
: 989 1 12 lear
: 990 1 10 ~
: 991 3 8 n
- 995
: 995 2 8 You 
: 997 3 8 bleed, 
: 1003 2 3 you 
: 1005 3 3 learn, 
: 1011 2 8 you 
: 1013 3 8 scream, 
- 1017
: 1019 2 3 You 
* 1021 8 3 learn
* 1029 8 8 ~
* 1037 7 12 ~
* 1044 1 10 ~
* 1045 6 8 ~
* 1051 2 12 ~
* 1053 4 8 ~
- 1058
: 1059 2 8 You 
: 1061 3 8 breathe, 
: 1067 2 3 you 
: 1069 3 3 learn, 
: 1075 2 8 you 
: 1077 3 8 choke, 
: 1083 2 3 you 
: 1085 3 3 learn
- 1089
: 1091 2 8 You 
: 1093 3 8 laugh, 
: 1099 2 10 you 
: 1101 3 10 learn, 
- 1105
: 1105 2 8 You 
: 1107 2 8 choo
: 1109 1 13 ~
: 1110 5 12 se, 
: 1115 2 10 you 
: 1117 1 12 lear
: 1118 1 10 ~
: 1119 3 8 n
- 1123
: 1123 2 8 You 
: 1125 3 8 pray, 
: 1131 2 3 you 
: 1133 3 3 learn, 
: 1139 2 8 you 
: 1141 3 8 ask, 
: 1147 2 3 you 
: 1149 3 3 learn,
- 1153
: 1155 2 8 You 
: 1157 4 8 live, 
: 1163 2 3 you 
* 1165 19 3 learn
* 1184 16 5 ~ 
* 1199 15 8 Ooo
* 1215 9 12 ~
* 1223 9 15 ~
: 1236 8 10 ah
E
