#TITLE:Fairytale
#ARTIST:Alexander Rybak
#MP3:Alexander Rybak - Fairytale.mp3
#VIDEO:Alexander Rybak - Fairytale [VD#10,5].avi
#COVER:Alexander Rybak - Fairytale [CO].jpg
#BPM:324.03
#GAP:19320
#VIDEOGAP:10,5
#ENCODING:UTF8
#LANGUAGE:English
: 0 4 9 Years
: 6 3 7  a
: 12 6 9 go
- 20
: 30 4 5 When
: 36 4 4  I
: 42 2 2  was
: 48 4 12  you
: 54 3 10 ~n
: 60 6 10 ger
- 68
: 90 2 5 I
: 96 4 10  kin
: 102 3 9 da
: 108 8 10  liked
- 118
: 126 2 9 A
: 132 4 10  girl
: 138 3 12  I
: 144 8 9  knew
- 154
: 192 4 9 She
: 198 2 7  was
: 204 7 9  mine
- 213
: 222 3 5 And
: 228 4 4  we
: 234 2 2  were
: 240 4 12  swee
* 246 3 14 ~t-
: 252 6 10 hearts
- 260
: 288 4 10 That
: 294 2 9  was
: 300 7 10  then
- 309
: 318 3 9 But
: 324 4 10  then
: 330 3 12  it's
: 342 5 9  true
- 349
: 384 4 17 I'm
: 390 3 16  in
* 396 17 19  love
- 415
: 420 4 17 With
: 426 2 16  a
: 432 4 17  fai
: 438 3 16 ry
: 444 4 19 ta
: 450 16 17 ~le
- 468
: 480 4 17 E
: 486 2 16 ven
: 492 20 17  though
: 516 4 19  it
: 522 4 15  hu
: 528 26 16 ~rts
- 556
: 570 3 14 'Cause
: 576 4 17  I
: 582 3 16  don't
: 588 18 19  care
- 608
: 612 4 17 If
: 618 3 16  I
: 624 4 17  loose
: 630 3 16  my
: 636 5 19  mi
: 642 15 17 ~nd
- 659
: 672 4 5 I'm
: 678 3 4  al
: 684 22 5 rea
: 708 3 7 dy
: 714 4 3  cu
: 720 22 4 ~
* 744 14 5 ~rsed
- 760
: 1175 4 9 Ev
: 1182 3 8 ery
: 1188 7 9  day
- 1197
: 1206 2 5 We
: 1212 4 4  start
: 1218 2 2  a
* 1224 5 12  fi
: 1230 3 10 ~gh
: 1236 6 10 ting
- 1244
: 1272 3 10 Ev
: 1278 2 9 ery
: 1284 6 10  night
- 1292
: 1302 2 9 We
: 1308 4 10  fell
: 1314 3 12  in
: 1320 6 9  love
- 1328
: 1368 4 9 No
: 1374 3 8  one
: 1380 7 9  else
- 1389
: 1398 3 5 Could
: 1404 3 4  make
: 1410 3 2  me
: 1416 4 12  sa
: 1422 3 14 ~d
: 1428 5 10 der
- 1435
: 1458 3 9 But
: 1464 4 10  no
: 1470 3 9  one
: 1476 6 10  else
- 1484
: 1494 3 9 Could
: 1500 3 10  lift
: 1506 3 12  me
: 1512 8 9  high
: 1524 3 9  a
* 1530 18 16 bove
- 1550
: 1560 4 17 I
: 1566 3 16  don't
: 1572 7 17  know
- 1581
: 1590 3 17 What
: 1596 3 16  I
: 1602 3 14  was
: 1608 4 17  do
: 1614 3 16 ~
: 1620 6 16 ing
- 1628
: 1649 3 14 When
: 1656 5 16  sud
: 1662 3 14 den
: 1668 6 16 ly
- 1676
: 1686 3 16 We
: 1692 4 16  fell
: 1698 3 14  a
: 1704 10 12 pa
: 1716 10 17 ~
* 1728 16 16 ~rt
- 1746
: 1752 4 9 Now
: 1758 2 8 a
: 1764 7 9 days
- 1773
: 1782 3 5 I
: 1788 4 4  can
: 1794 2 2 not
: 1800 4 9  fi
: 1806 3 10 ~nd
: 1812 5 7  her
- 1819
: 1842 3 9 But
: 1848 4 10  when
: 1854 3 9  I
: 1860 6 10  do
- 1868
: 1877 3 9 We'll
: 1884 4 10  get
: 1890 3 12  a
: 1896 6 9  brand
: 1907 3 9  new
* 1914 5 17  sta
* 1920 19 16 ~rt
- 1941
: 1992 4 17 I'm
: 1998 3 16  in
: 2004 18 19  love
- 2024
: 2028 4 17 With
: 2034 2 16  a
: 2040 4 17  fai
: 2046 3 16 ry
: 2052 4 19 ta
: 2058 11 17 ~le
- 2071
: 2088 4 17 E
: 2094 3 16 ven
: 2100 20 17  though
: 2124 3 19  it
: 2130 4 15  hu
: 2136 26 16 ~rts
- 2164
: 2178 4 13 'Cause
: 2184 4 17  I
: 2190 3 16  don't
* 2196 19 19  care
- 2217
: 2220 4 17 If
: 2226 3 16  I
: 2232 4 17  loose
: 2238 3 16  my
: 2244 5 19  mi
: 2250 16 17 ~nd
- 2268
: 2280 4 5 I'm
: 2286 3 4  al
: 2292 22 5 re
: 2316 4 7 ady
: 2322 4 3  cu
: 2328 22 4 ~
: 2352 14 5 ~rsed
- 2368
: 2814 4 0 She's
: 2820 3 2  a
: 2826 10 5  fai
: 2838 4 7 ry
: 2844 3 5 ~
* 2850 40 9 tale
- 2892
: 2898 6 7 Yea
: 2906 2 5 ~
: 2909 22 2 ~h
- 2933
: 2952 4 17 E
: 2958 3 16 ven
: 2964 14 17  thou
: 2980 5 16 ~gh
: 2988 2 14  it
: 2994 4 17  hu
: 3000 32 16 ~rts
- 3034
: 3041 4 14 'Cause
: 3048 4 17  I
: 3054 3 16  don't
: 3060 20 19  care
- 3082
: 3084 3 17 If
: 3090 3 16  I
: 3096 3 17  loose
: 3102 3 16  my
: 3108 5 19  mi
: 3114 18 17 ~nd
- 3134
: 3144 4 5 I'm
: 3150 3 4  al
: 3156 22 5 rea
: 3180 3 7 dy
: 3186 4 7  cu
* 3192 15 9 ~
: 3210 23 7 ~rsed
E