#TITLE:I Swear
#ARTIST:All 4 One
#MP3:All 4 One - I Swear.mp3
#COVER:All 4 One - I Swear [CO].jpg
#BACKGROUND:All 4 One - I Swear [BG].jpg
#BPM:84
#GAP:0
: 1 2 88  I
: 3 3 86  swe
: 6 3 83 ar
- 11
: 15 2 83 by
: 17 2 85  the
: 19 5 86  moon
: 24 1 86  and
: 25 2 86  the
: 27 5 86  stars
: 32 2 78  in
: 34 1 79  the
: 35 8 81  sky
- 47
: 48 2 81 And
: 50 2 88 I
: 52 3 86  sw
: 55 4 83 ear
- 60
: 64 2 83 like
: 66 1 85  the
: 67 6 86  sha
: 73 2 86 dow
: 75 1 86  that's
: 76 4 86  by
: 80 2 78  yo
: 82 2 79 ur
: 84 8 81  side
- 118
: 126 2 66 I
: 128 2 67  see
: 130 2 69  the
: 132 4 69  ques
: 136 5 71 tions
: 141 5 62  in
: 146 3 64  your
: 149 6 66  eyes
- 157
: 158 2 66 I
: 160 3 67  know
: 163 2 69  what's
: 165 4 69  wei
: 169 3 76 ghing
: 172 6 73  on
: 178 2 71  yo
: 180 1 69 ur
: 181 5 71  mind
- 190
: 190 2 66 You
: 192 3 67  can
: 195 1 69  be
: 196 5 69  sure
: 202 3 71  I
: 205 5 62  know
: 210 4 66  my
: 214 9 64  heart
- 227
: 227 3 71 `Coz
: 230 2 69  I
: 232 3 67 'll
: 239 4 66  stand
- 243
: 243 2 67 be
: 245 4 69 side
: 249 4 69  you
: 253 4 71  throu
: 257 2 69 gh
: 259 2 67  the
: 261 7 66  years
- 271
: 271 3 66 You'll
: 274 2 67  on
: 276 1 69 ly
: 277 4 69  cry
: 281 5 76  those
: 286 5 73  ha
: 291 2 71 ppy
: 293 3 69  te
: 296 4 71 ars
- 303
: 303 3 74 And
: 306 2 78  though
: 308 1 76  I
: 309 6 74  make
: 315 10 74  mistakes
- 328
: 328 2 78 I'll
: 330 4 76  never
: 334 3 74  bre
: 337 3 74 ak
: 340 1 76  yo
: 341 1 78 ur
: 342 9 76  heart
- 352
: 354 2 81 And
: 356 2 88  I
: 358 4 86  swe
: 362 2 83 ar
- 366
: 370 2 83 by
: 372 2 85  the
: 374 5 86  moon
: 379 1 86  and
: 380 1 86  the
: 381 6 86  stars
: 387 2 78  in
: 389 1 79  the
: 390 8 81  sky
- 403
: 403 2 83 I'll
: 405 2 85  be
: 407 4 83  the
: 411 2 81 re
- 417
: 420 2 88 I
: 422 4 86  sw
: 426 4 83 ear
- 433
: 435 2 83 like
: 437 1 85  the
: 438 5 86  sha
: 443 2 86 dow
: 445 2 86  that's
: 447 4 86  by
: 451 1 78  yo
: 452 2 79 ur
: 454 9 81  side
- 467
: 467 2 83 I'll
: 469 4 85  be
: 473 4 83  the
: 477 3 81 re
- 485
: 487 2 78 For
: 489 2 79  bet
: 491 2 78 ter
: 493 2 76  or
: 495 8 86  worse
- 503
: 503 2 78 till
: 505 3 79  death
: 508 2 78  do
: 510 2 76  us
: 512 6 88  part
- 519
: 520 1 78 I'll
: 521 2 79  lo
: 523 1 78 ve
: 524 2 76  you
- 526
: 526 2 86  with
: 528 6 88  eve
: 534 2 90 ry
: 536 4 90  beat
: 540 2 91  of
: 542 2 90  my
: 544 4 88  heart
- 549
: 549 1 81 And
: 550 6 88  I
: 556 13 86  swear
- 614
: 626 3 86 I'll
: 629 2 85  give
: 631 2 81  you
: 633 7 86  every
: 640 5 85 thing
: 646 3 81  I
: 649 6 81  can
- 650
: 658 3 66 I'll
: 661 2 67  build
: 663 2 69  your
: 665 6 69  dreams
: 671 2 71  with
: 673 6 62  these
: 679 2 64  two
: 681 6 66  hands
- 690
: 691 1 66 We
: 692 1 67 'll
: 693 2 69  hang
: 695 2 69  some
: 697 4 76  me
: 701 4 73 mories
: 705 5 71  on
: 711 2 69  the
: 713 10 71  walls
- 728
: 728 2 66 And
: 730 6 67  when
: 742 1 69  ju
: 743 1 69 st
: 744 1 71  the
: 745 5 62  two
: 750 4 66  of
: 754 5 64  us
- 759
: 759 3 71 are
: 762 1 69  the
: 763 1 67 r
: 764 4 66 e
: 770 2 67 You
: 772 2 69  won't
: 774 2 69  have
: 776 2 71  to
: 778 4 69  ask
- 782
: 782 4 67 if
: 786 5 66  I
: 791 3 66  sti
: 794 1 67 ll
: 795 1 69  ca
: 796 2 69 re
: 804 3 76 `Coz
: 807 2 73  as
: 809 1 71  the
: 810 2 69  ti
: 812 3 71 me
- 815
: 815 2 74 turns
: 817 1 78  the
: 818 2 76  pa
: 820 2 74 g
: 822 2 74 e,
- 824
: 824 2 78 my
: 826 5 76  love
: 831 4 74  won't
: 835 6 74  age
: 841 2 76  at
: 843 5 78  al
: 848 5 76 l
- 862
: 863 2 81 And
: 865 2 88  I
: 867 2 86  swe
: 869 2 83 ar
- 867
: 871 2 83 by
: 873 2 85  the
: 875 4 86  moon
: 879 2 86  and
: 881 1 86  the
: 882 6 86  stars
: 888 1 78  in
: 889 2 79  the
: 891 7 81  sky
- 911
: 911 2 83 I'll
: 913 2 85  be
: 915 4 83  the
: 919 2 81 re
: 921 2 78 (I
: 923 2 78  sw
: 925 2 79 e
: 927 2 78 ar)
- 929
: 929 1 76 And
: 930 1 88  I
: 931 2 86  swe
: 933 2 83 ar
- 932
: 935 3 83 like
: 938 1 85  the
: 939 5 86  sha
: 944 2 86 dow
: 946 2 86  that's
: 948 3 86  by
: 951 2 78  yo
: 953 2 79 ur
: 955 8 81  side
- 967
: 968 2 83 I'll
: 970 4 85  be
: 974 3 83  the
: 977 2 78 re
- 988
: 988 2 78 For
: 990 2 79  bet
: 992 2 78 ter
: 994 2 76  or
: 996 6 86  worse
- 1004
: 1004 2 78 till
: 1006 2 79  death
: 1008 3 78  do
: 1011 2 76  us
: 1013 5 88  part
- 1019
: 1020 2 78 I'll
: 1022 2 79  lo
: 1024 1 78 ve
: 1025 1 76  you
- 1026
: 1026 2 86  with
: 1028 6 88  eve
: 1034 2 90 ry
: 1036 5 90  beat
: 1041 2 91  of
: 1043 1 90  my
: 1044 7 88  heart
- 1052
: 1052 4 81 I
: 1056 5 88  swe
: 1061 11 86 ar
- 1093
: 1131 2 90 I
: 1133 4 88  swe
: 1137 2 85 ar
- 1142
: 1145 2 85 by
: 1147 2 87  the
: 1149 5 88  moon
: 1154 2 88  and
: 1156 1 88  the
: 1157 5 88  stars
: 1162 1 80  in
: 1163 2 81  the
: 1165 7 83  sky
- 1176
: 1178 2 85 I'll
: 1180 2 87  be
: 1182 2 85  the
: 1184 2 83 re
- 1195
: 1197 4 90 I
: 1201 3 88  sw
: 1204 4 85 ear
- 1207
: 1210 2 85 like
: 1212 2 87  the
: 1214 4 88  sha
: 1218 2 88 dow
: 1220 2 88  that's
: 1222 5 88  by
: 1227 2 80  yo
: 1229 1 81 ur
: 1230 2 83  si
: 1232 4 83 de
- 1241
: 1242 3 80 I'll
: 1245 6 85  be
: 1251 2 87  th
: 1253 4 85 ere
- 1254
: 1262 2 80 For
: 1264 3 81  bet
: 1267 2 80 ter
: 1269 2 78  or
: 1271 5 88  worse
- 1279
: 1279 2 80 till
: 1281 2 81  death
: 1283 2 80  do
: 1285 1 78  us
: 1286 7 90  part
- 1293
: 1295 2 80 I'll
: 1297 1 81  lo
: 1298 1 80 ve
: 1299 1 78  you
- 1300
: 1300 4 88  with
: 1304 3 90  eve
: 1307 2 92 ry
: 1312 4 92  beat
: 1316 2 93  of
: 1318 3 92  my
: 1321 4 90  heart
E
