#TITLE:One Thing
#ARTIST:Amerie
#LANGUAGE:English
#EDITION:Singstar R&B
#MP3:Amerie - One Thing.mp3
#COVER:Amerie - One Thing [CO].jpg
#BACKGROUND:Amerie - One Thing [BG].jpg
#BPM:199,8
#GAP:10960,96
: 0 1 70 Na
: 2 1 70  na
: 4 1 70  na
: 6 1 70  na
: 8 2 70  na
: 12 3 63  oh
- 17 18
: 32 1 70 Na
: 34 1 70  na
: 36 1 70  na
: 38 1 70  na
: 40 2 70  na
: 44 3 63  oh
- 49 50
: 64 1 70 Na
: 66 1 70  na
: 68 1 70  na
: 70 1 70  na
: 72 2 70  na
: 76 2 63  oh
- 80 81
: 96 1 70 Na
: 98 1 70  na
: 100 1 70  na
: 102 1 70  na
: 104 2 70  na
- 108
: 112 4 73 Oh
- 118
: 126 2 70 Been
: 128 2 73  try
: 130 1 73 ing
: 132 1 73  to
: 134 1 70  let
: 138 1 70  it
: 140 3 70  go
- 145 146
: 154 2 73 Try
: 156 1 70 ing
: 158 1 70  to
: 160 2 70  keep
: 164 2 70  my
: 166 2 73  eyes
: 168 2 70 ~
: 172 3 70  closed
- 177 178
: 186 2 73 Try
: 188 2 70 ing
: 190 1 70  to
: 192 1 70  keep
: 194 1 70  it
: 196 1 70  just
: 198 2 73  like
: 202 1 70  be
: 204 3 70 fore
- 209
: 212 1 73 The
: 214 3 73  times
: 218 3 75  we
- 222
: 224 1 75 Ne
: 226 1 75 ver
: 228 1 75  e
: 230 1 75 ven
: 232 3 73  thought
: 236 1 70  to
: 238 2 70  speak
: 240 3 73 ~
- 245 246
: 254 1 70 Don't
: 256 1 73  wan
: 258 1 73 na
: 260 1 73  tell
: 262 1 73  you
: 264 1 73  what
: 266 1 70  it
: 268 3 70  is
- 273
: 278 3 70 Oh
* 282 3 75  wee
- 286
: 286 2 70 It
: 288 3 75  felt
: 292 2 70  so
: 296 1 70  se
: 298 1 70 ri
: 300 2 70 ous
: 302 4 68 ~
- 308
: 314 1 75 Got
: 316 1 73  me
: 318 2 70  think
: 322 2 70 ing
: 324 2 73  just
: 328 2 70  too
: 332 2 70  much
: 334 4 68 ~
- 340
: 342 1 70 I
: 344 1 70  wan
: 346 1 70 na
: 352 1 70  set
: 354 1 70  it
: 356 2 70  off
: 364 3 75  but
- 368
: 368 2 70 It's
: 372 1 75  this
: 374 2 70  one
: 378 2 75  thing
- 381
: 382 1 70 That
: 384 2 70  got
: 388 2 70  me
: 392 1 70  trip
: 394 2 70 pin'
- 398
: 400 2 70 It's
: 404 1 75  this
: 406 2 70  one
: 410 2 75  thing
- 413
: 414 1 70 That
: 416 2 70  got
: 420 2 70  me
: 424 1 70  trip
: 426 2 70 pin'
- 430
* 436 2 75 This
: 438 2 70  one
: 442 2 75  thing
- 445
: 446 1 70 Your
: 448 2 70  soul
: 452 2 70  made
: 454 2 70  me
: 456 1 70  feel
: 458 1 70  it
- 461
: 464 2 70 It's
: 468 2 70  this
: 470 2 68  one
: 474 2 73  thing
: 478 1 70  you
: 480 2 70  did
- 483
: 484 2 70 Oh
: 486 3 68 ~
: 490 1 73  oh
: 492 4 70 ~
- 498
: 500 1 75 This
: 502 2 70  one
: 506 2 75  thing
- 509
: 510 1 70 That
: 512 2 70  caught
: 516 2 70  me
: 520 1 70  slip
: 522 2 70 pin'
- 526
: 528 2 70 It's
: 532 1 75  this
: 534 2 70  one
: 538 2 75  thing
- 541
: 542 1 70 I
: 544 1 70  want
: 546 1 70  to
: 548 2 70  ad
: 552 1 70 mit
: 554 3 70  it
- 559
: 564 2 75 This
: 566 2 73  one
: 570 2 73  thing
- 573
: 574 1 71 And
: 576 1 71  I
: 578 1 71  was
: 580 1 71  so
: 584 1 71  with
: 586 2 70  it
- 590
: 592 2 70 It's
: 595 2 70  this
: 598 2 68  one
: 602 2 73  thing
: 606 1 70  you
: 608 2 70  did
- 611
: 611 2 70 Oh
: 614 4 68 ~
: 618 1 73  oh
: 620 4 70 ~
- 626
: 632 4 75 Hey
- 638
: 640 1 75 We
: 642 1 75  don't
: 644 1 75  know
: 646 1 75  each
: 648 1 73  o
: 650 1 70 ther
: 652 3 70  well
- 657
: 660 1 70 ''So
: 662 2 73  what?''
- 665
: 666 2 75 I
* 670 3 77  keep
: 676 1 73  think
: 678 1 73 ing
: 680 1 73  to
: 682 1 70  my
: 684 2 70 self
: 686 3 68 ~
- 691
: 695 1 73 Me
: 697 1 73 mo
: 699 4 75 ries
- 704
: 705 2 70 Just
: 709 2 75  keep
: 713 1 70  ring
: 715 1 70 ing
: 717 3 70  bells
- 722 738
: 758 1 70 Hear
: 760 1 70  voi
: 762 1 70 ces
- 764
: 766 1 70 I
: 768 1 75  don't
: 770 1 75  want
: 772 1 75  to
: 774 2 73  un
: 778 1 70 der
: 780 3 70 stand
- 785
: 790 1 70 My
: 792 1 75  car
: 794 1 75  keys
- 796
: 798 1 75 Are
: 800 3 73  jin
: 804 1 75 gling
: 806 3 70  in
: 810 1 70  my
: 812 4 73  hand
- 818
: 822 1 70 My
* 824 1 75  high
: 826 2 75  heels
- 829
: 830 1 75 Are
: 832 1 73  click
: 836 1 73 ing
: 838 1 71  to
: 839 1 71 wards
: 842 2 71  your
: 844 4 70  door
: 848 4 68 ~
- 854 855
: 880 1 70 It's
: 884 1 75  this
: 886 2 70  one
: 890 2 75  thing
- 893
: 894 1 70 That
: 896 2 70  got
: 900 2 70  me
: 904 1 70  trip
: 906 2 70 pin'
- 910
: 912 2 70 It's
: 916 1 75  this
: 919 2 70  one
: 922 2 75  thing
- 925
: 926 1 70 That
: 928 2 70  got
: 932 2 70  me
: 936 1 70  trip
: 938 2 70 pin'
- 942
: 948 2 75 This
: 950 2 70  one
: 954 2 75  thing
- 957
: 958 1 70 Your
: 960 2 70  soul
: 964 2 70  made
: 966 2 70  me
: 968 1 70  feel
: 970 1 70  it
- 973
: 976 1 70 It's
: 980 1 70  this
: 982 2 68  one
: 986 2 73  thing
: 990 1 70  you
: 992 2 70  did
- 995
: 995 2 70 Oh
: 998 3 68 ~
: 1002 1 73  oh
: 1004 4 70 ~
- 1010
: 1012 2 75 This
: 1014 2 70  one
: 1018 2 75  thing
- 1021
: 1022 1 70 That
: 1024 2 70  caught
: 1028 2 70  me
: 1032 1 70  slip
: 1034 3 70 pin'
- 1038
: 1040 1 70 It's
: 1044 1 75  this
: 1046 2 70  one
: 1050 2 75  thing
- 1053
: 1054 1 70 I
: 1056 1 70  want
: 1058 1 70  to
: 1060 2 70  ad
: 1064 1 70 mit
: 1066 3 70  it
- 1071
: 1076 2 75 This
: 1078 2 73  one
: 1082 2 73  thing
- 1085
: 1086 1 71 And
: 1088 1 71  I
: 1090 1 71  was
: 1092 3 71  so
: 1096 2 71  with
: 1098 3 70  it
- 1102
: 1104 2 70 It's
: 1108 1 70  this
: 1110 2 68  one
: 1114 2 73  thing
: 1118 1 70  you
: 1120 2 70  did
- 1123
: 1124 2 70 Oh
: 1126 3 68 ~
: 1130 2 73  oh
: 1132 4 70 ~
: 1136 7 73 ~
- 1145 1154
: 1174 1 70 And
: 1176 1 70  may
: 1178 1 70 be
: 1180 1 70  I
: 1182 1 70  just
- 1184
: 1184 2 70 Can't
: 1188 2 70  be
: 1190 2 73 lieve
: 1192 3 70 ~
: 1196 3 70  it
- 1201 1212
: 1232 1 70 It's
: 1236 1 70  this
: 1238 2 68  one
: 1242 2 73  thing
: 1245 1 70  you
: 1248 2 70  did
- 1251
: 1252 2 70 Oh
: 1255 3 68 ~
: 1258 1 73  oh
: 1260 4 70 ~
- 1266
: 1271 1 70 I
: 1273 1 70  can't
: 1275 1 70  de
: 1277 4 73 ny
- 1282
: 1283 4 70 Tired
: 1288 1 70  of
: 1290 2 73  try
: 1292 1 73 ing
- 1294
: 1295 1 70 O
: 1297 1 70 pen
: 1299 1 70  up
: 1301 1 70  the
: 1303 3 73  door
- 1307
: 1307 1 75 But
: 1309 1 75  I
* 1311 3 77  keep
: 1315 2 73  on
: 1319 2 73  see
: 1321 2 70 ing
: 1323 4 73  you
- 1329
: 1333 1 70 I'm
: 1335 1 70  hop
: 1337 1 70 ing
: 1339 1 70  you
: 1341 1 70  can
- 1343
: 1343 2 70 Keep
: 1347 1 70  a
: 1349 3 73  se
: 1353 1 70 ~
: 1355 3 70 cret
- 1360 1371
: 1391 3 70 It's
: 1396 2 75  this
: 1398 2 70  one
: 1402 2 75  thing
- 1405
: 1406 1 70 That
: 1408 2 70  got
: 1412 2 70  me
: 1416 2 70  trip
: 1418 2 70 pin'
- 1422
: 1424 2 70 It's
: 1428 2 75  this
: 1430 2 70  one
: 1434 2 75  thing
- 1437
: 1438 1 70 That
: 1440 2 70  got
: 1444 2 70  me
: 1448 2 70  trip
: 1450 1 70 pin'
- 1453
: 1460 2 75 This
: 1462 2 70  one
: 1466 2 75  thing
- 1469
: 1470 1 70 Your
: 1472 2 70  soul
: 1476 2 70  made
: 1478 1 70  me
: 1480 1 70  feel
: 1482 2 70  it
- 1486
: 1488 2 70 It's
: 1492 1 70  this
: 1494 1 68  one
: 1498 1 73  thing
: 1502 1 70  you
: 1504 2 70  did
- 1507
: 1508 2 70 Oh
: 1510 2 68 ~
: 1514 2 73  oh
: 1516 4 70 ~
- 1522
: 1524 2 75 This
: 1526 2 70  one
: 1530 2 75  thing
- 1533
: 1534 1 70 That
: 1536 2 70  caught
: 1540 2 70  me
: 1544 1 70  slip
: 1546 2 70 pin'
- 1550
: 1552 2 70 It's
: 1556 1 75  this
: 1558 2 70  one
: 1562 2 75  thing
- 1565
: 1566 1 70 I
: 1568 2 70  want
: 1570 1 70  to
: 1572 2 70  ad
: 1576 1 70 mit
: 1578 1 70  it
- 1581
: 1588 2 75 This
: 1590 2 73  one
: 1594 2 73  thing
- 1597
: 1598 1 71 And
: 1600 1 71  I
: 1602 1 71  was
: 1604 2 71  so
: 1608 1 71  with
: 1610 3 70  it
- 1614
: 1616 2 70 It's
: 1620 1 70  this
: 1622 2 68  one
: 1626 2 73  thing
: 1630 1 70  you
: 1632 2 70  did
- 1635
: 1636 2 70 Oh
: 1638 3 68 ~
: 1642 2 73  oh
: 1644 3 70 ~
: 1648 7 73 ~
- 1657 1658
: 1668 2 70 Oh
: 1670 3 68 ~
: 1674 1 73  oh
: 1676 4 70 ~
: 1680 6 73 ~
- 1688 1689
: 1700 2 70 Oh
: 1702 3 68 ~
: 1706 1 73  oh
: 1708 4 70 ~
* 1712 7 73 ~
- 1721 1722
: 1732 2 70 Oh
: 1734 3 68 ~
: 1738 2 73  oh
: 1740 3 70 ~
: 1744 6 73 ~
- 1752 1753
: 1764 2 70 Oh
: 1766 3 68 ~
: 1770 2 73  oh
: 1772 4 70 ~
: 1776 7 73 ~
- 1785 1804
: 1824 1 70 Na
: 1826 1 70  na
: 1828 1 70  na
: 1830 1 70  na
: 1832 2 70  na
: 1836 3 63  oh
- 1841 1880
: 1900 2 63 Oh
- 1904 1905
: 1920 1 70 Na
: 1922 1 70  na
: 1924 1 70  na
: 1926 1 70  na
: 1928 2 70  na
: 1932 3 63  oh
- 1937 1938
: 1952 1 70 Na
: 1954 1 70  na
: 1956 1 70  na
: 1958 1 70  na
: 1960 2 70  na
: 1964 2 63  oh
- 1968 1969
: 1984 1 70 Na
: 1986 1 70  na
: 1988 1 70  na
: 1990 1 70  na
: 1992 2 70  na
* 1996 3 63  oh
- 2001 2002
: 2016 1 70 Na
: 2018 1 70  na
: 2020 1 70  na
: 2022 1 70  na
: 2024 2 70  na
- 2028
: 2032 2 70 It's
: 2036 2 75  this
: 2038 2 70  one
: 2042 2 75  thing
- 2045
: 2046 1 70 That
: 2048 2 70  got
: 2052 2 70  me
: 2056 1 70  trip
: 2058 2 70 pin'
- 2062
: 2064 2 70 It's
: 2068 1 75  this
: 2070 2 70  one
: 2074 2 75  thing
- 2077
: 2078 1 70 That
: 2080 2 70  got
: 2084 2 70  me
: 2088 1 70  trip
: 2090 2 70 pin'
- 2094
* 2100 2 75 This
: 2102 2 70  one
: 2106 2 75  thing
- 2109
: 2110 1 70 Your
: 2112 2 70  soul
: 2116 1 70  made
: 2118 1 70  me
: 2120 1 70  feel
: 2122 2 70  it
- 2126
: 2128 2 70 It's
: 2132 2 70  this
: 2134 2 68  one
: 2138 2 73  thing
: 2142 1 70  you
: 2144 2 70  did
- 2147
: 2148 2 70 Oh
: 2150 2 68 ~
: 2154 2 73  oh
: 2156 4 70 ~
- 2162
: 2164 2 75 This
: 2166 2 70  one
: 2170 2 75  thing
- 2173
: 2174 1 70 That
: 2176 2 70  caught
: 2180 2 70  me
: 2184 1 70  slip
: 2186 3 70 pin'
- 2190
: 2192 2 70 It's
: 2196 2 75  this
: 2198 2 70  one
: 2202 2 75  thing
- 2205
: 2206 1 70 I
: 2208 1 70  want
: 2210 1 70  to
: 2212 2 70  ad
: 2216 1 70 mit
: 2218 2 70  it
- 2222
: 2228 2 75 This
: 2230 2 73  one
: 2234 2 73  thing
- 2237
: 2238 1 71 And
: 2240 1 71  I
: 2242 1 71  was
: 2244 2 71  so
: 2248 2 71  with
: 2250 3 70  it
- 2254
: 2256 2 70 It's
: 2260 1 70  this
: 2262 2 68  one
: 2266 2 73  thing
: 2270 1 70  you
: 2272 2 70  did
- 2275
: 2276 2 70 Oh
: 2278 3 68 ~
* 2282 2 73  oh
: 2284 4 70 ~
- 2290
: 2292 2 75 This
: 2294 2 70  one
: 2298 2 75  thing
- 2301
: 2302 1 70 That
: 2304 2 70  got
: 2308 2 70  me
: 2312 1 70  trip
: 2314 2 70 pin'
- 2318
: 2320 2 70 It's
: 2324 2 75  this
: 2326 2 70  one
: 2330 2 75  thing
- 2333
: 2334 1 70 That
: 2336 2 70  got
: 2340 2 70  me
: 2344 1 70  trip
: 2346 2 70 pin'
- 2350
: 2356 2 75 This
: 2358 2 70  one
: 2362 2 75  thing
- 2365
: 2366 1 70 Your
: 2368 2 70  soul
: 2372 1 70  made
: 2374 1 70  me
: 2376 1 70  feel
: 2378 2 70  it
- 2382
: 2384 2 70 It's
: 2388 2 70  this
: 2390 2 68  one
: 2394 2 73  thing
: 2398 1 70  you
: 2400 2 70  did
- 2403
: 2404 2 70 Oh
: 2406 3 68 ~
: 2410 2 73  oh
: 2412 4 70 ~
- 2418
: 2420 2 75 This
: 2422 2 70  one
: 2426 2 75  thing
- 2429
: 2430 1 70 That
: 2432 2 70  caught
: 2436 2 70  me
: 2440 1 70  slip
: 2442 2 70 pin'
- 2446
: 2448 2 70 It's
: 2452 2 75  this
: 2454 2 70  one
* 2458 2 75  thing
- 2461
: 2462 1 70 I
: 2464 2 70  want
: 2466 1 70  to
: 2468 2 70  ad
: 2472 1 70 mit
: 2474 2 70  it
- 2478
: 2484 2 75 This
: 2486 2 73  one
: 2490 2 73  thing
- 2493
: 2494 1 71 And
: 2496 1 71  I
: 2498 1 71  was
: 2500 2 71  so
: 2504 2 71  with
: 2506 3 70  it
- 2510
: 2512 2 70 It's
: 2516 1 70  this
: 2518 2 68  one
: 2522 2 73  thing
: 2526 1 70  you
: 2528 2 70  did
- 2531
: 2532 2 70 Oh
: 2534 3 68 ~
: 2538 1 73  oh
: 2540 4 70 ~
: 2544 9 73 ~
- 2555 2575
: 2595 2 70 Oh
: 2597 4 68 ~
: 2601 2 73  oh
: 2603 4 70 ~
: 2607 7 73 ~
- 2616 2639
: 2659 2 70 Oh
: 2661 4 68 ~
: 2665 2 73  oh
: 2667 4 70 ~
: 2671 10 73 ~
- 2683 2703
: 2723 2 70 Oh
: 2725 4 68 ~
: 2729 2 73  oh
: 2731 4 70 ~
: 2735 8 73 ~
E
