#TITLE:I Will Be There
#ARTIST:Art Of Dying
#GENRE:Hard Rock, Post-Grunge
#LANGUAGE:English
#MP3:Art Of Dying - I Will Be There.mp3
#COVER:Art Of Dying - I Will Be There.jpg
#VIDEO:Art Of Dying - I Will Be There.mp4
#VIDEOGAP:-6
#BPM:172.8
#GAP:5099
: -2 5 -4 Some
: 3 3 -1 bo
: 6 4 -4 dy's
: 11 7 -1  lea
: 19 13 1 ving
- 49
: 63 4 -3 Some
: 67 3 -1 bo
: 70 4 -3 dy
: 75 7 -3  gives
: 83 2 -3  a
: 86 8 -6  damn
- 113
: 127 4 -1 Some
: 131 3 -1 bo
: 134 3 -1 dy's
: 140 6 -1  drea
: 148 9 1 ming
- 173
: 189 2 -3 'Cause
: 192 4 -3  some
: 196 3 -1 bo
: 200 2 -3 dy
: 205 6 -3  knows
: 213 5 -4  they
: 220 6 -8  can
- 228
: 229 3 -8 You
: 233 8 -4  can
- 249
: 256 4 -4 For
: 261 2 -1  all
: 264 3 -1  the
: 269 5 -1  times
: 277 6 1  this
: 284 7 -8  world
: 292 8 -6  ain't
: 301 9 -4  fair
- 313
: 318 2 -1 I
: 321 2 -1  want
: 324 1 -1  you
: 329 2 -4  to
: 333 8 -3  know
- 356
: 370 9 0 I
: 381 7 6  will
: 389 6 4  be
* 397 4 -1  there
* 401 8 -3 ~
- 410
: 413 2 0 To
: 416 5 6  watch
: 422 4 4  you
: 427 5 -1  go
: 432 3 -4 ~,
: 446 1 0  to
: 449 4 6  let
: 455 5 4  you
: 461 7 -1  know
: 469 7 -1  some
: 476 8 1 bo
: 484 4 -1 dy
: 493 12 -1  cares
- 506
: 511 1 0 I
: 513 4 6  will
: 519 5 4  be
* 526 3 0  there
* 529 6 -3 ~
- 546
: 547 1 2 To
: 548 4 6  love
* 554 4 4  you
* 559 3 -4 ~
* 562 10 -5 ~
- 577
: 580 5 -8 When
: 586 2 -6  no
: 588 3 -8 thing
: 593 7 0  works
: 601 3 0  and
: 605 6 1  no
: 612 7 -1  one
: 621 12 -8  cares
- 638
: 643 2 -4 Some
: 646 2 -1 bo
: 649 4 -4 dy's
: 654 3 0  dying
: 657 16 1 ~
- 688
: 704 2 -4 An
: 707 2 -1  an
: 710 5 -1 gel
: 719 5 -3  lost
: 726 3 -4  her
: 730 11 -6  wings
- 755
: 768 3 -1 And
: 772 3 -1  I
: 777 4 0  think
: 782 2 -1  I'm
: 787 4 4  lo
: 793 3 3 sing
: 800 1 -1  my
: 803 16 -1  mind
- 828
: 835 4 -4 Some
: 840 3 -1 times
: 844 3 -4  there
: 848 6 -3  ain't
: 855 5 -4  no
: 863 5 -8  o
: 869 5 -8 ther
: 875 3 -4  way
: 878 7 -4 ~
- 895
: 901 2 -4 And
: 904 3 -1  when
: 908 3 -4  this
: 912 6 -1  life
: 919 7 1  gets
: 927 8 -8  hard
: 936 2 -6  to
: 940 9 -4  bear
- 954
: 961 2 -2 I
: 964 3 -1  want
: 968 2 -2  you
: 972 2 4  to
: 975 3 5  know
: 979 6 1 ~,
: 990 9 4  yeah
- 1006
: 1013 9 0 I
: 1024 7 6  will
: 1032 6 4  be
: 1040 4 -1  there
: 1044 8 -3 ~
- 1053
: 1057 2 0 To
: 1060 5 6  watch
: 1066 4 4  you
: 1071 5 -1  go
: 1076 3 -4 ~,
: 1090 1 0  to
: 1093 4 6  let
: 1099 5 4  you
: 1105 7 -1  know
: 1113 7 -1  some
: 1120 8 1 bo
: 1128 4 -1 dy
: 1137 12 -1  cares
- 1150
: 1153 1 0 I
: 1155 4 6  will
: 1161 5 4  be
: 1168 3 0  there
: 1171 6 -3 ~
- 1183
* 1186 1 2 To
* 1187 4 6  love
* 1193 4 4  you
* 1198 2 4 ~
* 1200 3 8 ~
* 1203 4 6 ~
* 1207 4 4 ~
* 1211 4 1 ~
- 1220
: 1223 5 -8 When
: 1229 2 -6  no
: 1231 3 -8 thing
: 1236 7 0  works
: 1244 3 0  and
: 1248 6 1  no
: 1255 7 3  one
: 1264 12 4  cares
- 1277
: 1279 2 0 I
: 1282 4 1  will
: 1288 8 4  be
: 1297 16 6  there
: 1313 14 4 ~
- 1337
* 1343 2 0 I
* 1346 4 1  will
* 1353 5 4  be
* 1358 3 1 ~
* 1368 8 8  there
* 1376 4 8 ~
* 1383 4 8 ~
* 1390 3 8 ~
* 1394 3 6 ~
* 1397 8 4 ~
- 1405
: 1407 2 0 I
: 1411 5 1  will
: 1417 6 4  be
: 1425 18 6  there
: 1443 19 4 ~
- 1467
* 1471 2 0 I
* 1474 4 1  will
* 1481 5 4  be
* 1486 3 1 ~
* 1496 8 8  there
* 1504 4 8 ~
* 1511 4 8 ~
* 1518 3 8 ~
* 1522 3 6 ~
* 1525 35 4 ~
- 1634
: 1701 5 -4 Some
: 1706 3 -1 bo
: 1709 4 -4 dy's
: 1715 6 -1  li
: 1721 13 1 ving
- 1750
: 1765 2 -4 'Cause
: 1768 4 -3  some
: 1772 3 -1 bo
: 1775 4 -3 dy
: 1780 7 -3  gives
: 1788 1 -3  a
: 1790 8 -6  damn
- 1807
: 1816 9 0 I
: 1827 7 6  will
: 1835 6 4  be
: 1843 4 -1  there
: 1847 8 -3 ~
- 1859
: 1861 2 0 To
: 1864 5 6  watch
: 1870 4 4  you
: 1875 5 -1  go
: 1880 3 -4 ~,
: 1894 1 0  to
: 1897 4 6  let
: 1903 5 4  you
: 1909 7 -1  know
: 1917 7 -1  some
: 1924 8 1 bo
: 1932 4 -1 dy
: 1941 12 -1  cares
- 1954
: 1957 1 0 I
: 1959 4 6  will
: 1965 5 4  be
: 1972 3 0  there
: 1975 6 -3 ~
- 1988
* 1989 1 2 To
* 1990 4 6  love
* 1996 4 4  you
* 2003 3 8 ~
* 2006 4 6 ~
* 2010 4 4 ~
* 2014 4 1 ~
- 2027
: 2029 3 8 When
: 2033 2 7  no
: 2036 4 8 thing
: 2041 5 8  works
: 2049 3 8  and
: 2053 7 8  no
: 2061 7 8  one
: 2069 3 8  cares
: 2072 1 6 ~
: 2073 6 4 ~
- 2080
: 2082 2 0 I
: 2085 4 1  will
: 2091 8 4  be
: 2100 16 6  there
: 2116 14 4 ~
- 2140
* 2145 2 0 I
* 2148 4 1  will
* 2155 5 4  be
* 2160 3 1 ~
* 2170 8 8  there
* 2178 4 8 ~
* 2185 4 8 ~
* 2192 3 8 ~
* 2196 3 6 ~
* 2199 8 4 ~
- 2210
: 2211 2 0 I
: 2215 5 1  will
: 2221 6 4  be
: 2229 17 6  there
: 2246 19 4 ~
- 2270
* 2274 2 0 I
* 2277 4 1  will
* 2284 5 4  be
* 2289 3 1 ~
* 2299 8 8  there
* 2307 4 8 ~
* 2314 4 8 ~
* 2321 3 8 ~
* 2325 3 6 ~
* 2328 10 4 ~
- 2341
: 2341 3 6 I
: 2345 4 6  will
: 2350 11 6  be,
: 2370 3 8  I
: 2374 6 7  will
: 2382 7 6  be
: 2390 5 5  there
: 2395 25 4 ~.
E
