#TITLE:Reckoning Song (One Day)
#ARTIST:Asaf Avidan
#MP3:Asaf Avidan - Reckoning Song (One Day).mp3
#VIDEO:Asaf Avidan - Reckoning Song (One Day).mp4
#COVER:Asaf Avidan - Reckoning Song (One Day)[CO].jpg
#BPM:357,03
#GAP:1067
#ENCODING:UTF8
#LANGUAGE:English
#GENRE:Israeli Pop
#YEAR:2012
#CREATOR:Fepo
: 0 6 1 One
: 12 6 -2  day
: 24 4 -4  ba
: 32 3 -6 by,
: 37 5 -9  we'll
: 45 3 -4  be
: 50 5 1  old
- 57
: 68 3 3 Oh
* 74 7 1  ba
: 84 2 -2 by,
: 88 2 -4  we'll
: 95 2 -6  be
: 99 3 -4  old
- 103
: 104 2 -4 And
: 108 4 -4  think
: 115 2 -4  of
: 119 6 -2  all
: 127 3 -2  the
: 132 3 -6  sto
: 137 4 -4 ries
: 144 5 -4  that
: 152 2 -4  we
: 156 2 -4  could
: 160 2 -6  have
: 164 4 -9  told
- 170
: 192 6 1 One
: 204 6 -2  day
: 216 4 -4  ba
: 224 3 -6 by,
: 229 5 -9  we'll
: 237 3 -4  be
: 242 5 1  old
- 249
: 260 3 3 Oh
* 266 7 1  ba
: 276 2 -2 by,
: 280 2 -4  we'll
: 287 2 -6  be
: 291 4 -4  old
- 296
: 296 2 -4 And
: 300 4 -4  think
: 307 2 -4  of
: 311 6 -2  all
: 319 3 -2  the
: 324 3 -6  sto
: 329 4 -4 ries
: 336 5 -4  that
: 344 2 -4  we
: 348 2 -4  could
: 352 2 -6  have
: 356 4 -9  told
- 362
: 384 8 1 One
: 396 8 -2  day
- 406
* 576 8 1 One
* 588 8 -2  day
- 598
: 769 3 -9 No
: 775 3 -2  more
: 781 3 -2  tears,
: 787 3 -2  my
: 793 3 1  heart
: 799 3 -2  is
: 805 9 -4  dry
- 816
: 820 2 -6 I
: 823 2 -2  don't
: 827 3 -2  laugh
: 832 2 -2  and
: 838 3 1  I
: 843 3 -2  don't
: 849 7 -4  cry
- 858
: 862 2 -6 I
: 865 3 -4  don't
: 870 2 -4  think
: 874 2 -4  a
: 877 4 -4 bout
: 884 3 -4  you
: 888 2 1  all
: 893 2 -2  the
: 898 7 -4  time
- 906
: 907 2 -6 But
: 911 3 -4  when
: 916 4 -6  I
: 924 4 -4  do
: 932 2 -6  I
: 936 2 -4  won
: 940 2 -6 der
: 945 8 -9  why
- 955
: 960 3 -9 No
: 966 3 -2  more
: 972 3 -2  tears,
: 978 3 -2  my
: 984 3 1  heart
: 990 3 -2  is
: 996 9 -4  dry
- 1007
: 1012 2 -6 I
: 1015 2 -2  don't
: 1019 3 -2  laugh
: 1024 2 -2  and
: 1029 3 1  I
: 1035 3 -2  don't
: 1040 8 -4  cry
- 1050
: 1054 2 -6 I
: 1057 3 -4  don't
: 1062 2 -4  think
: 1066 2 -4  a
: 1069 4 -4 bout
: 1076 3 -4  you
: 1080 2 1  all
: 1085 2 -2  the
: 1089 7 -4  time
- 1098
: 1100 2 -6 But
: 1104 3 -4  when
: 1109 4 -6  I
: 1117 4 -4  do
: 1125 2 -6  I
: 1129 2 -4  won
: 1133 2 -6 der
: 1137 8 -9  why
- 1147
: 1156 3 -9 No
: 1162 3 -2  more
: 1168 3 -2  tears,
: 1174 3 -2  my
: 1180 3 1  heart
: 1186 3 -2  is
: 1192 9 -4  dry
- 1202
: 1204 2 -6 I
: 1208 2 -2  don't
: 1212 3 -2  laugh
: 1217 2 -2  and
: 1222 3 1  I
: 1229 2 -2  don't
: 1234 8 -4  cry
- 1244
: 1247 2 -6 I
: 1250 3 -4  don't
: 1255 2 -4  think
: 1259 2 -4  a
: 1262 4 -4 bout
: 1269 3 -4  you
: 1273 2 1  all
: 1277 2 -2  the
: 1281 7 -4  time
- 1290
: 1292 2 -6 But
: 1296 3 -4  when
: 1301 4 -6  I
: 1309 4 -4  do
: 1317 2 -6  I
: 1321 2 -4  won
: 1325 2 -6 der
: 1329 8 -9  why
- 1339
: 1346 2 -9 No
: 1351 3 -2  more
: 1357 4 -2  tears,
: 1363 3 -2  my
: 1369 3 1  heart
: 1376 3 -2  is
: 1382 8 -4  dry
- 1392
: 1397 2 -6 I
: 1400 2 -2  don't
: 1404 3 -2  laugh
: 1409 2 -2  and
: 1414 3 1  I
: 1420 3 -2  don't
: 1425 8 -4  cry
- 1435
: 1439 2 -6 I
: 1442 3 -4  don't
: 1447 2 -4  think
: 1451 2 -4  a
: 1454 4 -4 bout
: 1461 3 -4  you
: 1465 2 1  all
: 1469 2 -2  the
: 1473 7 -4  time
- 1482
: 1484 2 -6 But
: 1488 3 -4  when
: 1493 4 -6  I
: 1501 4 -4  do
: 1508 2 -6  I
: 1512 2 -4  won
: 1516 2 -6 der
: 1520 8 -9  why
- 1530
: 1536 6 1 One
: 1548 6 -2  day
: 1560 4 -4  ba
: 1568 3 -6 by,
: 1573 5 -9  we'll
: 1581 3 -4  be
: 1586 5 1  old
- 1593
: 1602 3 3 Oh
: 1608 7 1  ba
: 1618 2 -2 by,
: 1622 2 -4  we'll
: 1629 2 -6  be
: 1633 4 -4  old
- 1639
: 1642 2 -4 And
: 1646 4 -4  think
: 1653 2 -4  of
: 1657 4 -2  all
: 1664 3 -2  the
: 1668 3 -6  sto
: 1673 4 -4 ries
: 1680 5 -4  that
: 1688 2 -4  we
: 1692 2 -4  could
: 1696 2 -6  have
: 1700 4 -9  told
- 1706
: 1728 6 1 One
: 1740 6 -2  day
: 1752 4 -4  ba
: 1760 3 -6 by,
: 1765 5 -9  we'll
: 1773 3 -4  be
: 1778 5 1  old
- 1785
: 1795 4 3 Oh
: 1802 7 1  ba
: 1812 2 -2 by,
: 1816 2 -4  we'll
: 1823 2 -6  be
: 1827 4 -4  old
- 1832
: 1834 2 -4 And
: 1838 4 -4  think
: 1845 2 -4  of
: 1849 4 -2  all
: 1856 3 -2  the
: 1860 3 -6  sto
: 1865 4 -4 ries
: 1872 5 -4  that
: 1880 2 -4  we
: 1884 2 -4  could
: 1888 2 -6  have
: 1892 4 -9  told
- 1898
: 1920 6 1 One
: 1932 6 -2  day
: 1944 4 -4  ba
: 1952 3 -6 by,
: 1957 5 -9  we'll
: 1965 3 -4  be
: 1970 5 1  old
- 1977
: 1986 4 3 Oh
: 1993 7 1  ba
: 2003 2 -2 by,
: 2007 5 -4  we'll
: 2015 2 -6  be
: 2019 4 -4  old
- 2025
: 2027 2 -4 And
: 2031 4 -4  think
: 2038 2 -4  of
: 2042 4 -2  all
: 2049 3 -2  the
: 2053 3 -6  sto
: 2058 4 -4 ries
: 2065 5 -4  that
: 2073 2 -4  we
: 2077 2 -4  could
: 2081 2 -6  have
: 2085 4 -9  told
- 2091
: 2113 6 1 One
: 2125 6 -2  day
: 2137 4 -4  ba
: 2145 3 -6 by,
: 2150 5 -9  we'll
: 2158 3 -4  be
: 2163 5 1  old
- 2170
: 2180 4 3 Oh
: 2187 7 1  ba
: 2197 2 -2 by,
: 2201 3 -4  we'll
: 2208 2 -6  be
: 2212 4 -4  old
- 2217
: 2219 2 -4 And
: 2223 4 -4  think
: 2230 2 -4  of
: 2234 4 -2  all
: 2241 3 -2  the
: 2245 3 -6  sto
: 2250 4 -4 ries
: 2257 5 -4  that
: 2265 2 -4  we
: 2269 2 -4  could
: 2273 2 -6  have
: 2277 4 -9  told
- 2283
: 2305 6 1 One
: 2317 6 -2  day
: 2329 4 -4  ba
: 2337 3 -6 by,
: 2342 5 -9  we'll
: 2350 3 -4  be
: 2355 5 1  old
- 2362
: 2371 4 3 Oh
: 2378 5 1  ba
: 2385 2 1 by,
: 2389 6 1  we'll
: 2399 2 6  be
: 2403 4 5  old
- 2408
: 2410 2 5 And
: 2414 4 5  think
: 2420 2 5  of
: 2424 5 5  all
: 2432 2 5  the
: 2436 5 5  sto
: 2443 3 5 ries
: 2449 5 3  that
: 2458 2 3  we
: 2462 2 3  could
: 2466 2 3  have
: 2470 4 3  told
- 2476
: 2497 8 10 One
: 2509 9 10  day
: 2522 8 10  ba
: 2533 2 10 by,
: 2537 3 10  we'll
: 2544 3 10  be
: 2549 9 10  old
- 2560
: 2565 4 10 Oh
: 2572 6 13  ba
: 2580 2 10 by,
: 2584 6 8  we'll
: 2593 2 6  be
: 2597 4 8  old
- 2602
: 2602 2 -4 And
: 2606 4 -4  think
: 2612 2 -4  of
: 2616 4 -4  all
: 2623 2 -4  the
: 2627 5 -4  sto
: 2634 4 -4 ries
: 2640 4 -6  that
: 2649 2 -6  we
: 2653 2 -6  could
: 2658 2 -9  have
: 2662 4 -6  told
- 2668
: 2689 5 10 One
: 2700 7 10  day
: 2713 6 10  ba
: 2721 3 10 by,
: 2726 5 10  we'll
: 2735 3 10  be
: 2740 10 10  old
- 2752
: 2754 6 10 Oh
: 2763 6 10  ba
: 2772 2 10 by,
: 2776 5 10  we'll
: 2783 2 10  be
: 2788 4 10  old
- 2794
: 2806 4 10 Oh
: 2812 4 10  ba
: 2818 2 8 by,
: 2822 5 5  we'll
: 2831 2 1  be
: 2835 7 3  old
- 2844
: 2881 5 10 One
: 2892 7 10  day
: 2905 6 10  ba
: 2913 3 10 by,
: 2918 5 10  we'll
: 2927 3 10  be
: 2932 10 10  old
- 2944
: 2946 4 10 Oh
: 2953 8 15  ba
: 2964 2 8 by,
: 2968 5 8  we'll
: 2976 2 6  be
: 2980 5 8  old
- 2986
: 2986 2 -4 And
: 2990 4 -4  think
: 2997 2 -4  of
: 3001 4 -4  all
: 3008 2 -4  the
: 3012 4 -4  sto
: 3018 3 -4 ries
: 3024 5 -6  that
: 3032 2 -6  we
: 3036 2 -6  could
: 3040 3 -6  have
: 3045 4 -6  told
- 3051
: 3072 6 10 One
: 3084 7 10  day
: 3097 6 10  ba
: 3108 3 10 by,
: 3113 4 10  we'll
: 3120 3 10  be
: 3125 10 10  old
- 3137
: 3140 4 10 Oh
: 3147 6 10  ba
: 3155 3 10 by,
: 3160 5 10  we'll
: 3168 2 10  be
: 3172 6 10  old
- 3180
: 3190 4 10 Oh
: 3196 4 10  ba
: 3202 2 8 by,
: 3206 5 5  we'll
: 3215 2 1  be
: 3219 7 3  old
- 3228
: 3239 4 10 Oh
: 3245 5 10  ba
: 3252 3 8 by,
: 3257 5 6  we'll
: 3264 3 8  be
: 3270 9 10  old
- 3281
* 3457 8 1 One
* 3469 9 -2  day
- 3480
: 3649 6 1 One
: 3661 6 -2  day
: 3673 4 -4  ba
: 3681 3 -6 by,
: 3686 5 -9  we'll
: 3694 3 -4  be
: 3699 5 1  old
- 3706
: 3712 4 1 Oh
: 3720 5 1  ba
: 3728 3 1 by,
: 3733 7 1  we'll
: 3742 3 6  be
: 3747 5 5  old
- 3753
: 3754 2 5 And
: 3758 2 5  think
: 3763 2 5  of
: 3768 4 5  all
: 3775 3 5  the
: 3780 3 5  sto
: 3786 3 3 ries
: 3792 8 3  that
: 3802 2 3  we
: 3806 2 3  could
: 3810 2 3  have
: 3814 4 3  told
- 3820
: 3842 6 10 One
: 3854 6 10  day
: 3866 4 10  ba
: 3873 3 10 by,
: 3878 4 10  we'll
: 3886 3 10  be
: 3892 5 10  old
- 3899
: 3908 4 10 Oh
: 3914 7 15  ba
: 3924 2 10 by,
: 3928 4 8  we'll
: 3935 2 6  be
: 3939 4 8  old
- 3944
: 3946 2 -4 And
: 3950 4 -4  think
: 3957 2 -4  of
: 3961 4 -4  all
: 3968 3 -4  the
: 3973 3 -4  sto
: 3978 3 -4 ries
: 3984 4 -6  that
: 3993 2 -6  we
: 3997 2 -6  could
: 4001 2 -6  have
: 4005 4 -6  told
- 4011
: 4032 6 10 One
: 4044 10 10  day
: 4058 6 10  ba
: 4066 3 10 by,
: 4071 5 10  we'll
: 4080 3 10  be
: 4085 5 10  old
- 4092
: 4100 5 10 Oh
: 4108 4 10  ba
: 4114 2 10 by,
: 4120 4 10  we'll
: 4126 2 10  be
: 4130 9 10  old
- 4141
: 4147 4 10 Oh
: 4154 3 10  ba
: 4159 2 10 by,
: 4164 5 6  we'll
: 4172 3 3  be
: 4178 8 3  old
- 4188
: 4197 4 10 Oh
: 4204 4 10  ba
: 4210 3 8 by,
: 4216 4 6  we'll
: 4223 2 8  be
- 4227
: 4229 10 10 One
: 4246 18 10  day
: 4269 13 10  ba
: 4286 4 10 by
: 4293 7 10  we'll
: 4306 3 10  be
: 4311 9 10  old
- 4322
: 4352 6 10 Oh
: 4361 12 10  ba
: 4376 5 10 by
: 4384 9 13  we'll
: 4397 5 6  be
: 4404 24 8  old
- 4430
: 4434 2 -6 And
: 4438 4 -6  think
: 4444 2 -6  of
: 4448 13 -4  all
: 4464 3 -4  the
: 4471 5 -4  sto
: 4479 4 -4 ries
: 4488 12 -7  that
: 4510 5 -6  we
: 4517 2 -6  could
: 4521 2 -6  have
: 4526 9 -6  told
- 4537
: 4584 11 1 One
: 4607 12 -2  day
: 4631 14 -4  ba
: 4649 4 -6 by
: 4657 15 -9  we'll
: 4675 3 -2  be
: 4681 20 1  old
- 4703
: 4721 6 3 Oh
: 4729 16 1  ba
: 4747 4 1 by
: 4753 18 1  we'll
: 4773 3 6  be
: 4780 21 5  old
- 4803
: 4818 2 5 And
: 4822 3 5  think
: 4827 2 5  of
: 4831 15 5  all
: 4849 4 5  the
: 4856 5 5  sto
: 4865 11 5 ries
: 4880 22 3  that
: 4908 4 3  we
: 4915 3 3  could
: 4920 5 3  have
: 4928 7 3  told
E