#TITLE:Girl From Mars
#ARTIST:Ash
#EDITION:SingStar Summer Party
#MP3:Ash - Girl From Mars.mp3
#COVER:Ash - Girl From Mars [CO].jpg
#BACKGROUND:Ash - Girl From Mars [BG].jpg
#VIDEO:Ash - Girl From Mars [VD#0].avi
#VIDEOGAP:0
#BPM:340
#GAP:2470,59
: 0 3 52 D'you
: 5 3 52  re
: 9 3 52 mem
: 14 2 56 ber
: 18 3 57  the
: 23 7 59  time
- 31
: 31 2 52 I
: 36 3 52  knew
: 40 2 52  a
: 45 2 52  girl
: 50 6 59  from
: 58 5 59  Mars?
: 63 7 57 ~
- 72 73
: 81 4 54 I
: 86 5 57  don't
: 94 3 61  know
: 97 5 54 ~
- 103
: 103 3 54 If
: 108 4 57  you
: 113 7 57  knew
: 122 6 56  that
- 130
: 134 4 56 Oh
: 139 3 52  we'd
: 143 4 52  stay
: 148 2 52  up
: 152 4 52  late
- 157
: 158 4 57 Play
: 162 2 57 ing
: 166 8 59  cards
- 175
: 177 4 52 Hen
: 181 4 52 ri
: 186 4 52  Win
: 194 4 59 ter
: 198 3 59 man
: 203 8 59  ci
: 213 7 57 gars
- 222
: 230 3 54 And
: 235 3 57  she
: 239 7 61  ne
: 248 6 61 ver
- 255
: 257 8 62 Told
: 266 3 62  me
: 271 3 61  her
: 275 14 59  name
- 291 292
: 303 3 52 I
: 309 3 54  still
: 313 5 61  love
: 321 4 61  you
- 326
: 326 3 61 The
: 331 7 62  girl
: 340 7 61  from
: 349 10 57  Mars
- 361 481
: 501 3 52 Sit
: 505 3 52 ting
: 510 4 52  in
: 514 7 57  our
- 522
: 523 6 59 Drea
: 531 5 61 my
: 536 4 59 ~
: 540 7 57 days
- 548
: 548 3 59 By
: 553 3 57  the
: 557 7 59  wa
: 565 3 57 ter's
: 570 8 54  edge
- 580 581
: 591 4 61 On
: 599 3 54  a
: 605 3 57  cool
: 609 8 57  sum
: 618 3 56 mer
: 626 7 57  night
- 635
: 639 6 52 Fire
: 647 3 52 flies
: 652 6 57  and
- 659
: 661 6 59 Stars
: 669 3 61  in
: 674 2 59  the
: 679 6 57  sky
- 686
: 686 5 59 Gen
: 691 4 57 tle
* 696 6 59  glow
: 704 3 57 ing
: 709 6 54  light
- 717 718
: 729 3 61 From
: 739 5 57  your
: 747 6 57  ci
: 755 6 56 ga
: 764 4 57 rette
- 770
: 777 7 52 The
: 786 4 52  breeze
: 790 6 57 ~
- 797
: 799 7 59 Blow
: 808 3 61 ing
: 811 3 59 ~
: 816 6 57 soft
: 825 4 59 ly
: 829 3 57 ~
- 833
: 833 7 59 On
: 841 3 57  my
: 846 8 54  face
- 856
: 864 3 54 Re
: 869 4 61 minds
: 877 3 56  me
: 881 3 57  of
: 886 7 57  some
: 894 7 56 thin'
: 903 6 57  else
- 911
: 915 6 52 Some
: 924 3 52 thin'
: 929 6 57  that
- 936
: 937 5 59 In
: 946 3 61  my
: 949 4 59 ~
: 955 6 57 mem
: 963 4 59 'ry
- 968
: 968 3 57 Has
: 972 7 59  been
: 981 3 57  mis
: 985 8 54 placed
- 995 996
: 1009 4 61 Sud
: 1017 2 54 den
: 1022 2 57 ly
: 1026 6 57  all
: 1033 7 59  comes
: 1043 12 57  back
- 1057 1058
: 1078 4 61 And
: 1088 2 57  as
: 1092 2 57  I
: 1096 6 57  look
: 1105 2 56  to
: 1109 3 56  the
* 1114 9 57  stars
- 1124
: 1126 3 52 I
: 1131 3 52  re
: 1136 3 52 mem
: 1140 3 57 ber
: 1144 3 57  the
: 1149 7 59  time
- 1157
: 1158 2 52 I
: 1162 2 52  knew
: 1167 2 52  a
: 1172 2 52  girl
: 1176 6 59  from
: 1184 4 59  Mars
: 1188 7 57 ~
- 1197 1198
: 1206 4 54 I
: 1211 5 57  don't
: 1219 4 61  know
: 1223 3 54 ~
- 1227
: 1227 3 54 If
: 1233 4 57  you
: 1237 7 57  knew
: 1246 6 56  that
- 1254
: 1259 4 56 Oh
: 1264 3 52  we'd
: 1268 3 52  stay
: 1272 3 52  up
: 1277 4 52  late
- 1282
: 1282 3 57 Play
: 1285 3 57 ing
: 1290 8 59  cards
- 1299
: 1300 4 52 Hen
: 1304 4 52 ri
: 1309 4 52  Win
: 1317 4 59 ter
: 1321 3 59 man
: 1326 8 59  ci
: 1336 6 57 gars
- 1344
: 1352 3 54 But
: 1357 3 57  she
: 1362 7 61  ne
: 1370 6 61 ver
- 1377
: 1379 8 62 Told
: 1388 3 62  me
: 1393 3 61  her
: 1397 14 59  name
- 1413 1414
: 1423 3 52 I
: 1428 3 52  still
: 1433 8 61  love
: 1442 2 61  you
- 1445
: 1446 3 61 The
: 1451 8 62  girl
: 1460 8 61  from
: 1469 18 57  Mars
- 1489 1601
: 1621 3 52 Surg
: 1625 3 52 in'
: 1630 4 52  through
: 1634 7 57  the
: 1643 6 59  dark
: 1651 3 61 ness
- 1656
: 1660 7 57 O
: 1668 5 59 ver
: 1673 3 57  the
: 1678 6 59  moon
: 1686 3 57 lit
: 1690 8 54  strand
- 1700
: 1705 3 52 E
: 1709 3 54 lec
: 1714 3 59 tri
: 1721 3 54 ci
: 1725 3 57 ty
- 1729
: 1729 8 57 In
: 1738 7 56  the
* 1747 7 57  air
- 1756
: 1760 3 52 Twist
: 1765 3 52 ing
: 1769 5 52  all
: 1774 6 57 ~
- 1781
: 1782 6 59 Through
: 1791 4 61  the
: 1795 3 59 ~
: 1800 7 57 night
- 1808
: 1808 4 59 On
: 1813 3 57  the
: 1817 9 59  ter
: 1826 4 56 ~
: 1831 6 54 race
- 1839 1840
: 1853 4 61 Now
: 1862 5 57  that
: 1870 6 57  sum
: 1879 2 56 mer
: 1883 2 56  is
: 1888 2 57  here
: 1890 10 52 ~
- 1901
: 1901 7 52 I
: 1909 4 52  know
: 1913 6 57  that
- 1920
: 1922 7 59 You
: 1932 3 61  are
: 1935 3 59 ~
: 1940 6 57 al
: 1949 3 59 most
- 1953
: 1953 3 57 In
: 1957 7 59  love
: 1966 3 56  with
: 1970 8 54  me
- 1980
: 1983 3 54 I
: 1987 3 54  can
: 1992 4 61  see
: 1996 4 54 ~
: 2001 6 57 it
- 2008
: 2009 7 57 In
: 2018 7 56  your
: 2027 6 57  eyes
- 2035
: 2040 6 52 Strange
: 2049 5 52  light
: 2054 6 57 ~
- 2061
* 2062 7 59 Shim
: 2070 5 61 mer
: 2075 4 59 ing
: 2079 6 57  o
: 2087 4 59 ver
- 2092
: 2092 3 57 The
: 2096 7 59  sea
: 2105 3 57  to
: 2109 8 54 night
- 2119
: 2122 3 52 And
: 2126 3 52  it
: 2132 2 61  al
: 2134 5 54 ~
: 2141 5 57 most
: 2150 6 57  blows
: 2158 8 59  my
: 2168 12 57  mind
- 2182 2183
: 2204 4 61 And
: 2213 2 57  as
: 2217 2 57  I
: 2221 6 57  look
: 2231 2 56  to
: 2235 3 56  the
: 2239 9 57  stars
- 2250
: 2252 3 52 I
: 2257 3 52  re
: 2262 3 52 mem
: 2266 3 57 ber
: 2270 3 57  the
: 2275 7 59  time
- 2283
: 2284 2 52 I
: 2288 2 52  knew
: 2293 2 52  a
: 2298 2 52  girl
: 2302 6 59  from
: 2311 4 59  Mars
* 2315 10 57 ~
- 2327
: 2334 4 54 I
: 2339 5 57  don't
: 2347 3 61  know
: 2350 5 54 ~
- 2356
: 2356 3 54 If
: 2361 4 57  you
: 2365 7 57  knew
: 2374 6 56  that
- 2382
: 2387 4 56 Oh
: 2392 3 52  we'd
: 2396 4 52  stay
: 2400 2 52  up
: 2405 4 52  late
- 2410
: 2410 3 57 Play
: 2413 3 57 ing
: 2418 8 59  cards
- 2427
: 2428 4 52 Hen
: 2432 4 52 ri
: 2437 6 52  Win
: 2446 4 59 ter
: 2450 3 59 man
: 2455 8 59  ci
: 2465 6 57 gars
- 2473 2474
: 2482 3 54 Though
: 2487 3 57  she
: 2492 7 61  ne
: 2500 6 61 ver
- 2507
: 2509 8 62 Told
: 2518 3 62  me
: 2523 3 61  her
: 2527 14 59  name
- 2543 2544
: 2554 3 52 I
: 2559 3 52  still
: 2564 8 61  love
: 2573 2 61  you
- 2576
: 2577 3 61 The
: 2582 8 62  girl
: 2590 8 61  from
: 2600 18 57  Mars
- 2620 3302
: 3322 7 52 To
: 3330 4 52 day
: 3335 7 57  a
: 3344 6 59 sleep
: 3353 3 61  in
: 3356 3 59  the
* 3362 7 57  chair
- 3370
: 3370 3 59 By
: 3375 3 57  the
: 3379 9 59  win
: 3388 3 56 ~
: 3393 8 54 dow
- 3403
: 3411 3 54 It
: 3416 3 61  felt
: 3425 3 54  as
: 3428 4 57  if
- 3433
: 3433 7 57 You'd
: 3443 6 56  re
: 3452 5 57 turned
: 3457 9 52 ~
- 3467
: 3467 5 52 I
: 3476 5 52  thought
: 3481 9 57  that
* 3491 7 59  you
: 3499 4 61  were
: 3503 2 59 ~
- 3506
: 3508 7 57 Stand
: 3518 4 59 ing
: 3527 9 59  o
: 3536 3 57 ver
: 3541 6 54  me
- 3549
: 3556 3 52 When
: 3560 3 52  I
: 3564 3 59  woke
- 3569
: 3573 4 57 There
: 3577 2 57  was
: 3582 7 57  no
: 3592 6 56 one
: 3602 5 56  there
: 3607 11 57 ~
- 3620 3621
: 3642 3 52 I
: 3648 10 52  still
: 3663 7 61  love
: 3672 5 56  you
: 3677 3 57 ~
- 3682
: 3684 8 57 Girl
: 3699 6 56  from
- 3707 3708
: 3717 8 57 Mars
- 3726
: 3726 3 52 D'you
: 3731 3 52  re
: 3736 3 52 mem
: 3740 3 57 ber
: 3744 3 57  the
: 3748 7 59  time
- 3756
: 3757 2 52 I
: 3761 2 52  knew
: 3765 2 52  a
: 3769 2 52  girl
: 3774 6 59  from
: 3782 4 59  Mars?
: 3786 7 57 ~
- 3795 3796
: 3804 4 54 I
: 3809 5 57  don't
: 3817 4 61  know
: 3821 4 54 ~
- 3826
: 3826 3 54 If
: 3831 4 57  you
: 3835 7 57  knew
* 3844 6 56  that
- 3852
: 3857 4 56 Oh
: 3862 3 52  we'd
: 3866 4 52  stay
: 3870 3 52  up
: 3875 4 52  late
- 3880
: 3880 4 57 Play
: 3884 2 57 ing
: 3888 8 59  cards
- 3897
: 3899 3 52 Hen
: 3903 4 52 ri
: 3908 4 52  Win
: 3915 4 59 ter
: 3919 3 59 man
: 3924 8 59  ci
: 3934 6 57 gars
- 3942
: 3950 3 54 Though
: 3955 3 57  she
: 3960 7 61  ne
: 3968 4 54 ver
: 3972 3 57 ~
- 3976
: 3977 8 57 Told
: 3986 3 57  me
: 3991 3 56  her
* 3995 3 57  name
- 4000 4001
: 4009 3 52 D'you
: 4014 3 52  re
: 4019 3 52 mem
: 4023 3 57 ber
: 4027 3 57  the
: 4032 7 59  time
- 4040
: 4041 2 52 I
: 4045 2 52  knew
: 4049 2 52  a
: 4054 2 52  girl
: 4059 6 59  from
: 4067 4 59  Mars?
: 4071 7 57 ~
- 4080 4081
: 4089 4 54 I
: 4094 5 57  don't
: 4102 3 61  know
: 4105 5 54 ~
- 4111
: 4112 3 54 If
: 4117 4 57  you
: 4121 7 57  knew
: 4129 6 56  that
- 4137
: 4142 4 56 Oh
: 4147 3 52  we'd
: 4151 3 52  stay
: 4154 3 52  up
: 4160 4 52  late
- 4165
: 4165 3 57 Play
: 4168 2 57 ing
: 4173 8 59  cards
- 4182
: 4183 4 52 Hen
: 4187 4 52 ri
: 4192 4 52  Win
: 4200 4 59 ter
: 4204 3 59 man
: 4209 8 59  ci
: 4219 6 57 gars
- 4227
: 4235 5 56 And
: 4240 3 57 ~
: 4245 7 61 I'll
: 4254 4 61  still
* 4262 8 62  dream
: 4271 5 61  of
: 4280 15 59  you
- 4297 4298
: 4306 3 52 I
: 4310 6 52  still
: 4319 2 61  love
: 4323 7 61  you
- 4331
: 4333 7 62 Girl
: 4342 7 61  from
: 4351 24 57  Mars
E
