#TITLE:Solid
#ARTIST:Ashford & Simpson
#LANGUAGE:Englisch
#EDITION:SingStar Party
#GENRE:Pop
#YEAR:1984
#MP3:Ashford & Simpson - Solid.mp3
#COVER:Ashford & Simpson - Solid [CO].jpg
#BACKGROUND:Ashford & Simpson - Solid [BG].jpg
#VIDEO:Ashford & Simpson - Solid [VD#0].avi
#VIDEOGAP:0
#BPM:202,4
#GAP:32312,25
- 2 220
: 240 2 70 It
: 242 2 65  was
: 244 4 67  no
* 248 4 70  time
: 252 2 70  to
: 254 1 67  play
: 255 2 65 ~
- 259 260
: 284 4 67 And
: 288 4 70  build
: 292 2 67  it
: 294 2 70  up
- 298 299
: 316 4 62 And
: 320 4 64  now
: 324 2 67  it's
: 328 4 71  so
: 332 4 67 lid
- 338 356
: 376 4 64 So
: 380 4 66 lid
: 384 4 67  as
: 388 4 71  a
: 392 4 69  rock
- 398 412
: 432 5 70 That's
: 440 4 70  what
: 448 6 70  this
: 456 4 70  love
: 460 2 65 ~
: 464 18 67 is
- 484 564
: 584 4 67 So
: 588 4 64 lid
- 594 612
: 632 4 64 So
: 636 4 66 lid
: 640 4 67  as
: 644 4 71  a
: 648 4 69  rock
- 654 668
: 688 5 70 And
: 696 4 70  no
: 704 6 70 thing's
: 712 3 70  changed
: 716 2 65 ~
: 720 18 67 it
- 740 741
: 756 4 64 The
: 760 4 64  thrill
: 764 4 67  is
* 768 4 71  still
: 772 2 69 ~
: 774 1 67 ~
- 776
: 776 2 67 Hot,
: 780 2 67  hot,
: 784 2 67  hot,
: 788 2 67  hot,
: 792 2 67  hot,
: 796 2 67  hot,
: 800 2 67  hot,
: 804 2 67  hot
- 808 834
: 854 4 59 Oh
: 858 2 55 ~
: 860 4 57 ~
* 864 8 55 ~
- 874 875
: 900 4 55 You
: 904 4 60  did
: 908 4 60 n't
: 912 4 60  turn
: 916 2 60  a
: 918 4 60 way
- 924
: 932 2 60 When
: 934 2 60  the
: 936 7 59  sky
: 944 6 59  went
: 950 4 59  grey
- 956 957
: 970 5 58 Some
: 976 4 58 how
: 980 2 58  we
: 982 4 58  ma
: 986 4 53 naged
- 992
: 998 2 58 We
: 1000 4 62  had
: 1004 4 62  to
: 1008 4 60  stick
: 1012 2 58  to
: 1024 4 60 ge
: 1028 2 58 ther
- 1032 1074
: 1094 2 55 You
: 1096 4 60  did
: 1100 4 60 n't
: 1104 4 60  bat
: 1108 2 60  an
: 1110 4 60  eye
- 1116 1117
: 1126 2 60 When
: 1128 4 59  I
: 1132 4 59  made
: 1136 4 59  you
: 1140 4 59  cry
- 1146 1147
: 1158 2 57 We
: 1160 4 58  knew
: 1164 4 58  down
: 1168 4 58  the
: 1172 4 58  line
- 1178 1179
: 1192 4 62 We
: 1196 4 62  would
: 1200 4 60  make
: 1204 4 58  it
* 1216 4 65  bet
: 1220 2 62 ter
- 1224 1500
: 1520 2 70 It
: 1522 2 65  was
: 1524 4 67  no
: 1528 4 70  time
: 1532 2 70  to
: 1534 2 65  play
- 1538 1539
: 1564 2 67 And
: 1568 4 70  build
: 1572 2 67  it
: 1574 4 70  up
- 1580 1581
: 1596 4 62 And
: 1600 4 64  now
: 1604 4 67  it's
: 1608 4 71  so
: 1612 4 67 lid
- 1618 1636
: 1656 4 64 So
: 1660 4 66 lid
: 1664 4 67  as
: 1668 4 71  a
: 1672 4 69  rock
- 1678 1692
: 1712 5 70 And
: 1720 4 70  no
: 1728 6 70 thing's
: 1736 4 70  changed
: 1740 2 65 ~
* 1744 18 67 it
- 1764 1780
: 1800 2 67 Hot,
: 1804 2 67  hot,
: 1808 2 67  hot,
: 1812 2 67  hot,
: 1816 2 67  hot,
: 1820 2 67  hot,
: 1824 2 67  hot,
: 1828 2 67  hot
- 1832 1864
: 1884 4 59 Oh
: 1888 2 55 ~
: 1890 4 57 ~
: 1894 6 55 ~
- 1902 1903
: 1928 4 60 Knock
: 1932 4 60  knock
: 1936 4 60  on
* 1940 7 60  wood
- 1949 1950
: 1960 4 59 You
: 1964 4 59  un
: 1968 4 59 der
: 1972 8 59 stood
- 1982 1983
: 1992 4 58 Love
: 1996 4 58  was
: 2000 4 58  so
: 2004 8 58  new
- 2014
: 2020 4 58 We
: 2024 4 62  did
: 2028 4 60  what
: 2032 4 58  we
: 2036 4 60  had
: 2044 11 65  to
- 2056
* 2056 28 62 Ooh
- 2086 2332
: 2352 4 70 This
: 2356 4 67  wouldn't
: 2360 4 70  turn
: 2364 2 70  to
: 2366 5 67  dust
- 2373 2374
: 2396 4 67 And
* 2400 4 70  build
: 2404 2 67  it
: 2406 4 70  up
- 2412 2413
: 2428 4 62 And
: 2432 4 64  now
: 2436 4 67  it's
: 2440 4 71  so
: 2444 4 67 lid
- 2450 2468
: 2488 4 64 So
: 2492 4 66 lid
: 2496 4 67  as
: 2500 4 71  a
* 2504 4 69  rock
- 2510 2524
: 2544 5 70 That's
: 2552 4 70  what
: 2560 6 70  this
: 2568 4 70  love
: 2572 2 65 ~
: 2576 18 67 is
- 2596 2632
: 2652 22 74 Oh
- 2675
: 2676 6 70 Oh
: 2682 2 67 ~
: 2684 6 65 ~
- 2692
: 2696 4 67 So
: 2700 4 64 lid
- 2706 2707
: 2724 4 67 Yes
: 2728 2 64  it
: 2730 6 67  is
- 2738
: 2744 4 64 So
: 2748 4 66 lid
: 2752 4 67  as
: 2756 4 71  a
: 2760 3 69  rock
- 2765 2780
: 2800 5 70 And
: 2808 4 70  no
: 2816 6 70 thing's
: 2824 4 70  changed
: 2829 2 65 ~
* 2833 18 67 it
- 2853 2854
: 2868 4 64 The
: 2872 4 64  thrill
: 2876 4 67  is
: 2880 4 71  still
: 2884 2 69 ~
: 2886 1 67 ~
- 2888
: 2888 2 67 Hot,
: 2892 2 67  hot,
: 2896 2 67  hot,
: 2900 2 67  hot,
: 2904 2 67  hot,
: 2908 2 67  hot,
: 2912 2 67  hot,
: 2916 2 67  hot
- 2920 2932
: 2952 4 67 So
: 2956 4 64 lid
- 2962 3408
: 3428 3 62 And
: 3432 4 65  for
: 3436 6 69  love's
: 3442 2 65 ~
: 3446 3 65 sake
: 3449 11 62 ~
- 3462
: 3468 8 67 Each
: 3476 4 65  mis
: 3480 3 65 take
: 3483 12 58 ~
- 3497
: 3504 5 58 Oh
: 3514 6 58  you
: 3524 4 55  for
: 3528 2 62 gave
: 3530 2 60 ~
: 3532 14 62 ~
- 3548
: 3552 4 62 And
: 3556 4 65  soon
: 3560 4 62 ~
: 3564 4 69 both
: 3568 4 65 ~
: 3572 4 65 of
: 3576 4 65  us
: 3580 10 62 ~
- 3592
: 3596 4 67 Learned
: 3600 4 65 ~
: 3604 4 65 to
: 3608 20 70  trust
- 3630
: 3636 4 70 Not
: 3644 4 70  run
: 3648 2 70  a
: 3650 4 67 way
- 3656 3676
: 3696 4 67 We
: 3700 4 71  build
: 3704 2 67  it
: 3706 2 71  up
- 3710 3711
: 3728 4 67 And
: 3732 4 71  build
: 3736 2 67  it
* 3738 2 71  up
- 3742
: 3744 4 62 And
: 3748 4 64  now
: 3752 2 67  it's
: 3756 4 71  so
: 3760 4 67 lid
- 3766 3784
: 3804 4 64 So
: 3808 4 66 lid
: 3812 4 67  as
: 3816 4 71  a
: 3820 4 69  rock
- 3826 3840
: 3860 5 70 That's
: 3868 4 70  what
: 3876 6 70  this
: 3884 4 70  love
: 3888 2 65 ~
: 3892 18 67 is
- 3912 3913
: 3932 4 64 That's
: 3938 4 67  what
: 3944 3 71  we've
: 3947 2 69 ~
: 3949 3 67 ~
: 3953 10 67 got
- 3965
: 3968 4 69 Oh
: 3972 4 64 ~
- 3978
: 3984 10 67 Mm
- 3996 3997
: 4012 4 67 So
: 4016 4 64 lid
- 4022 4040
: 4060 4 64 So
: 4064 4 66 lid
: 4068 4 67  as
: 4072 4 71  a
: 4076 4 69  rock
- 4082 4096
: 4116 5 70 And
: 4124 4 70  no
: 4132 6 70 thing's
: 4140 3 70  changed
: 4144 2 65 ~
: 4148 18 67 it
- 4168 4440
: 4460 12 70 Ooh
: 4472 20 69 ~
: 4492 12 67 ~
: 4504 12 69 ~
- 4518 4632
: 4652 12 70 Ooh
: 4664 20 69 ~
: 4684 12 67 ~
: 4696 10 69 ~
- 4707
: 4708 4 62 And
: 4712 4 65  for
: 4716 8 69  love's
: 4724 4 65 ~
: 4728 4 65 sake
: 4732 8 62 ~
- 4742
: 4748 6 67 Each
: 4756 4 65  mis
: 4760 4 65 take
: 4764 12 58 ~
- 4778
: 4784 6 58 Oh
: 4796 4 58  you
: 4804 4 55  for
: 4808 4 62 gave
: 4812 2 60 ~
* 4814 12 62 ~
- 4828
: 4832 4 62 And
: 4836 4 65  soon
: 4840 4 62 ~
: 4844 4 69 both
: 4848 4 65 ~
: 4852 4 65 of
: 4856 4 65  us
: 4860 8 62 ~
- 4870
: 4876 8 67 Learned
: 4884 4 65  to
* 4888 20 70  trust
- 4910
: 4916 4 70 Not
: 4924 4 70  run
: 4928 2 70  a
: 4930 2 67 way
- 4934 4956
: 4976 2 67 We
: 4980 4 71  build
: 4984 2 67  it
: 4986 2 71  up
- 4990 4991
: 5008 2 67 And
: 5012 4 71  build
: 5016 2 67  it
* 5018 2 71  up
- 5022
: 5024 4 62 And
: 5028 4 64  now
: 5032 4 67  it's
: 5036 4 71  so
: 5040 4 67 lid
- 5046 5064
: 5084 4 64 So
: 5088 4 66 lid
: 5092 4 67  as
: 5096 4 71  a
: 5100 4 69  rock
- 5106 5120
: 5140 5 70 And
: 5148 4 70  no
: 5156 6 70 thing's
: 5164 4 70  changed
: 5168 2 65 ~
: 5172 18 67 it
- 5192 5193
: 5208 4 64 The
: 5212 4 64  thrill
: 5216 4 67  is
* 5220 4 71  still
: 5224 2 69 ~
: 5226 1 67 ~
- 5229 5464
* 5484 12 58 Ooh
: 5496 19 57 ~
- 5516
: 5516 12 55 Ooh
: 5528 6 57 ~
- 5535
: 5536 4 60 And
: 5540 2 62  with
: 5542 4 65  that
* 5548 8 69  feel
: 5556 4 65 ~
: 5560 4 65 ing
: 5564 4 62 ~
- 5570
: 5572 4 62 We
: 5576 4 65  were
: 5580 8 67  will
: 5588 4 65 ~
: 5592 4 65 ing
: 5596 4 62 ~
: 5600 2 62 ~
: 5602 2 60 ~
: 5604 2 62 ~
: 5606 2 60 ~
: 5608 6 58 ~
- 5616
: 5624 4 55 To
: 5628 4 58  take
: 5632 4 60 ~
: 5636 4 62 a
: 5640 20 62  chance
- 5662
: 5668 4 62 So
: 5672 4 65  a
: 5676 6 69 gainst
: 5684 4 65  all
: 5688 4 65  odds
: 5692 6 62 ~
- 5700
: 5704 4 65 We
: 5708 4 67  made
: 5712 4 65 ~
: 5716 4 65 a
* 5720 20 70  start
- 5742
: 5748 4 70 We
: 5752 4 67  got
: 5756 4 70  se
: 5760 2 70 ri
: 5762 2 67 ous
- 5766 5788
: 5808 4 67 We
: 5812 4 71  build
: 5816 2 67  it
: 5818 2 71  up
- 5822 5823
: 5840 4 67 And
: 5844 4 71  build
: 5848 2 67  it
: 5850 2 71  up
- 5854
: 5856 4 62 And
: 5860 4 64  now
: 5864 4 67  it's
: 5868 4 71  so
: 5872 4 67 lid
- 5878 5896
: 5916 4 64 So
: 5920 4 66 lid
: 5924 4 67  as
: 5928 4 71  a
* 5932 4 69  rock
- 5938 5952
: 5972 5 74 That's
: 5980 4 74  what
: 5988 6 74  this
: 5996 4 74  love
: 6000 2 70 ~
: 6004 18 70 is
- 6023
: 6024 6 74 Oh
: 6030 6 74  oh
- 6038
: 6044 6 64 That's
: 6050 6 67  what
: 6056 3 71  we've
: 6059 2 69 ~
: 6061 3 67 ~
: 6066 4 67 got
- 6072
: 6080 8 67 Oh
- 6090 6104
: 6124 4 67 So
: 6128 4 64 lid
- 6134 6152
: 6172 4 64 So
: 6176 4 66 lid
: 6180 4 67  as
: 6184 4 71  a
: 6188 3 69  rock
- 6192
: 6192 20 74 Ah
: 6212 8 75 ~
- 6222
: 6228 5 74 And
: 6236 4 74  no
: 6244 6 74 thing's
: 6252 4 74  changed
: 6257 2 70 ~
* 6261 18 70 it
- 6281 6296
: 6316 2 67 Hot,
: 6320 2 67  hot,
: 6324 2 67  hot,
: 6328 2 67  hot,
: 6332 2 67  hot,
: 6336 2 67  hot,
: 6340 2 67  hot,
: 6344 2 67  hot
- 6348 6360
: 6380 4 67 So
: 6384 4 64 lid
E
