#TITLE:Pieces Of Me
#ARTIST:Ashlee Simpson
#EDITION:SS TheDome, Popworld & Pop
#GENRE:Rock
#YEAR:2004
#MP3:Ashlee Simpson - Pieces Of Me.mp3
#COVER:Ashlee Simpson - Pieces Of Me [CO].jpg
#VIDEO:Ashlee Simpson - Pieces Of Me [VD#0].avi
#VIDEOGAP:0
#BPM:174
#GAP:5172,41
: 0 2 57 On
: 2 2 59  a
: 4 5 61  Mon
: 9 4 62 day
- 14
: 16 2 57 I
: 18 2 59  am
: 20 6 61  wait
: 26 3 62 ing
- 31
: 36 6 61 Tues
: 42 4 62 day
- 47
: 48 2 57 I
: 50 2 59  am
: 52 6 61  fa
: 58 4 62 ding
- 63
: 64 2 57 And
: 66 2 59  by
: 68 5 61  Wednes
: 73 4 62 day
- 79
: 82 4 61 I
: 89 4 59  can't
: 93 3 57 ~
: 97 8 57 sleep
- 107 108
: 128 2 57 Then
: 130 2 59  the
: 132 5 61  phone
: 137 4 62  rings
- 143
: 146 2 57 I
: 148 5 61  hear
: 153 3 62  you
- 158
: 160 2 57 And
: 162 2 57  the
* 164 5 64  dark
: 170 3 62 ness
- 174
: 176 2 57 Is
: 178 2 57  a
: 180 5 64  clear
: 185 3 62  view
- 190
: 192 2 57 'Cause
: 194 3 57  you've
: 197 3 61  come
: 201 4 62  to
- 207
: 209 4 61 Res
: 217 4 59 cue
: 221 4 57 ~
: 225 14 57 me
- 241 242
: 261 13 64 Fall
- 275
: 275 2 62 With
: 277 2 64  you
: 279 2 62  I
: 283 2 64  fall
: 287 4 66  so
: 291 4 64  fast
: 295 2 62 ~
: 297 9 59 ~
- 308 309
: 320 2 64 I
: 322 2 62  can
: 324 3 64  hard
: 328 3 64 ly
: 332 3 64  catch
: 336 3 64  my
: 340 4 64  breath
- 345
: 347 2 59 I
: 349 2 64  hope
: 353 4 66  it
: 357 2 64 ~
: 361 10 64 lasts
: 371 2 62 ~
: 373 2 64 ~
: 375 2 66 ~
: 377 6 64 ~
- 385
* 389 27 69 Oh
- 417
: 417 3 69 It
: 420 3 69  seems
: 424 2 71  like
: 428 2 62  I
: 432 2 59  can
- 435
: 436 4 69 Fi
: 440 2 71 nally
: 444 3 62  rest
: 448 3 69  my
- 452
: 452 3 69 Head
: 456 2 67  on
: 460 2 67  some
: 464 2 66 thing
: 468 4 66  real
: 472 4 64 ~
- 478
: 482 2 69 I
: 484 4 69  like
: 488 3 67  the
: 492 2 67  way
: 496 2 66  that
: 500 4 66  feels
: 504 6 64 ~
- 512
: 517 25 69 Oh
- 543
: 543 2 69 It's
: 545 3 69  as
: 548 3 69  if
: 552 3 71  you
: 556 3 62  know
: 560 2 59  me
- 563
: 564 4 69 Bet
: 568 2 71 ter
: 572 3 62  than
: 576 3 69  I
- 580
: 580 3 69 E
: 584 3 67 ver
: 588 3 67  knew
: 592 2 66  my
* 596 5 66 self
: 601 2 64 ~
- 605
: 609 2 69 I
: 611 4 69  love
: 615 3 67  how
: 619 3 67  you
: 623 3 66  can
: 627 6 66  tell
: 633 2 64 ~
- 637
: 640 2 62 All
: 642 2 64  the
: 644 2 66  pie
: 648 6 64 ces
: 654 2 62 ~
- 658
: 660 2 66 Pie
* 664 6 64 ces
: 670 2 62 ~
- 674
: 677 3 66 Pie
: 681 3 67 ces
: 685 3 62  of
: 689 5 66  me
- 696
: 704 2 57 I
: 706 2 59  am
: 708 5 61  moo
: 714 4 62 dy
- 720
: 724 4 61 Mes
: 729 3 62 sy
- 734
: 736 2 57 I
: 738 2 59  get
: 740 4 61  rest
: 745 4 62 less
- 750
: 752 2 57 And
: 754 2 59  it's
: 756 4 61  sense
: 761 4 62 less
- 766
: 768 2 57 How
: 770 2 59  you
: 772 5 61  ne
: 777 4 62 ver
- 783
: 786 4 61 Seem
: 793 4 59  to
: 797 3 57 ~
: 801 8 57 care
- 811 812
* 837 13 64 Fall
- 851
: 852 2 62 Some
: 854 2 64 times
: 856 2 62  I
: 860 2 64  fall
: 864 4 66  so
: 868 4 64  fast
: 872 2 62 ~
: 874 10 59 ~
: 884 3 57 ~
- 889
: 896 2 64 Well
: 898 2 62  I
: 900 3 64  hit
: 904 3 64  that
: 908 3 64  bot
: 912 3 64 tom,
: 916 4 64  crash
- 922
: 924 2 59 You're
: 926 2 69  all
: 930 4 66  I
: 934 2 64 ~
: 938 9 64 have
: 947 2 62 ~
: 949 2 64 ~
: 951 2 66 ~
: 953 6 64 ~
- 961
: 965 27 69 Oh
- 993
: 994 2 69 It
: 996 3 69  seems
: 1000 2 71  like
: 1004 2 62  I
: 1008 2 59  can
- 1011
: 1012 4 69 Fi
: 1016 2 71 nally
: 1020 3 62  rest
: 1024 3 69  my
- 1028
: 1028 3 69 Head
: 1032 2 67  on
: 1036 2 67  some
: 1040 2 66 thing
: 1044 4 66  real
: 1048 4 64 ~
- 1054
: 1058 2 69 I
: 1060 4 69  like
: 1064 3 67  the
: 1068 2 67  way
: 1072 2 66  that
: 1076 4 66  feels
: 1080 6 64 ~
- 1088
: 1093 25 69 Oh
- 1119
: 1120 2 69 It's
: 1122 2 69  as
: 1124 3 69  if
: 1128 3 71  you
: 1132 3 62  know
: 1136 2 59  me
- 1139
: 1140 4 69 Bet
: 1144 2 71 ter
: 1148 3 62  than
: 1152 3 69  I
- 1156
: 1156 3 69 E
: 1160 3 67 ver
: 1164 3 67  knew
: 1168 2 66  my
: 1172 5 66 self
: 1177 3 64 ~
- 1182
: 1185 2 69 I
: 1187 5 69  love
: 1192 3 67  how
: 1196 3 67  you
: 1200 3 66  can
: 1204 5 66  tell
: 1209 3 64 ~
- 1214
: 1216 2 62 All
: 1218 2 64  the
: 1220 2 66  pie
: 1224 6 64 ces
: 1230 2 62 ~
- 1234
: 1236 2 66 Pie
: 1240 6 64 ces
: 1246 2 62 ~
- 1250
: 1254 3 66 Pie
: 1258 3 67 ces
: 1262 3 62  of
: 1266 5 66  me
- 1273 1274
: 1301 3 66 How
: 1305 4 67  do
: 1309 2 69  you
* 1313 17 69  know
- 1331
: 1333 2 67 E
: 1335 2 66 very
: 1339 3 64 thing
: 1343 4 64  I'm
: 1347 2 62  a
: 1349 2 64 bout
: 1353 2 66  to
: 1355 5 64  say
- 1362
: 1365 4 66 Am
: 1369 2 67  I
: 1373 2 69  that
: 1377 7 69  ob
: 1385 2 67 vi
: 1387 4 66 ous
- 1393
: 1396 2 62 And
: 1398 2 69  if
: 1400 3 67  it's
: 1404 3 66  writ
: 1408 2 64 ten
: 1412 2 64  on
: 1416 3 66  my
* 1420 10 64  face
- 1432
: 1437 2 62 I
: 1440 3 64  hope
: 1443 2 66  it
: 1447 5 67  ne
: 1452 4 66 ver
: 1457 13 64  goes
- 1471
: 1471 4 57 A
: 1475 12 59 way
- 1489 1490
F 1500 7 35 Yeah
- 1509 1510
: 1536 2 57 On
: 1538 2 59  a
: 1540 6 61  Mon
: 1546 4 62 day
- 1551
: 1552 2 57 I
: 1554 2 59  am
: 1556 6 61  wait
: 1562 3 62 ing
- 1566
: 1568 2 57 And
: 1570 2 59  by
: 1572 6 61  Tues
: 1578 3 62 day
- 1582
: 1584 2 57 I
: 1586 2 59  am
: 1588 6 61  fa
: 1594 3 62 ding
- 1598
: 1600 2 57 In
: 1602 2 59 to
: 1604 5 61  your
: 1609 8 62  arms
- 1619
: 1626 2 62 So
: 1628 3 62  I
: 1632 4 62  can
* 1641 22 64  breathe
: 1663 3 66 ~
- 1667
: 1669 27 69 Oh
- 1697
: 1698 2 69 It
: 1700 3 69  seems
: 1704 2 71  like
: 1708 2 62  I
: 1712 2 59  can
- 1715
: 1716 4 69 Fi
: 1720 2 71 nally
: 1724 3 62  rest
: 1728 3 69  my
- 1732
: 1732 4 69 Head
: 1736 2 67  on
: 1740 2 67  some
: 1744 2 66 thing
: 1748 4 66  real
: 1752 4 64 ~
- 1758
: 1762 2 69 I
* 1764 4 69  like
: 1768 3 67  the
: 1772 2 67  way
: 1776 2 66  that
: 1780 4 66  feels
: 1784 6 64 ~
- 1792
: 1797 25 69 Oh
- 1823
: 1824 2 69 It's
: 1826 2 69  as
: 1828 3 69  if
: 1832 3 71  you
: 1836 3 62  know
: 1840 2 59  me
- 1843
: 1844 4 69 Bet
: 1848 2 71 ter
: 1852 3 62  than
: 1856 3 69  I
- 1860
: 1860 3 69 E
: 1864 3 67 ver
: 1868 3 67  knew
: 1872 2 66  my
: 1876 5 66 self
: 1881 2 64 ~
- 1885
: 1890 2 69 I
: 1892 4 69  love
: 1896 3 67  how
: 1900 3 67  you
: 1904 3 66  can
: 1908 5 66  tell
: 1913 10 64 ~
- 1925
: 1933 19 69 Oh
- 1953
: 1954 2 69 I
: 1956 3 69  love
: 1960 3 67  how
: 1964 3 67  you
: 1968 2 66  can
: 1972 10 66  tell
: 1982 6 64 ~
- 1990
* 1997 19 69 Oh
- 2017
: 2018 2 69 I
: 2020 3 69  love
: 2024 3 67  how
: 2028 3 67  you
: 2032 2 66  can
: 2036 5 66  tell
: 2041 4 64 ~
: 2045 2 62 ~
- 2048
: 2048 2 62 All
: 2050 2 64  the
: 2052 3 66  pie
: 2056 6 64 ces
: 2062 2 62 ~
- 2066
: 2068 3 66 Pie
: 2072 6 64 ces
: 2078 2 62 ~
- 2082
: 2085 4 66 Pie
: 2089 3 67 ces
: 2094 4 62  of
: 2099 8 66  me
: 2107 6 64 ~
E
