#TITLE:Mamma Mia
#ARTIST:A*Teens
#MP3:ATeens - Mamma Mia.mp3
#COVER:ATeens - Mamma Mia [CO].jpg
#BACKGROUND:ATeens - Mamma Mia [BG].jpg
#BPM:135
#GAP:14260
: 0 4 59 I've
: 4 4 64  been
: 8 2 63  chea
: 10 2 64 ted
: 12 1 66  by
: 14 5 68  you
- 19
: 20 1 64 Since
: 22 2 64  I
: 24 2 63  don
: 26 2 64 't
: 28 1 63  know
: 30 7 63  when
- 38
: 64 4 59 So
: 68 3 64  I
: 72 2 63  made
: 74 2 64  up
: 76 1 66  my
: 78 5 68  mind
- 83
: 84 1 64 It
: 86 2 64  must
: 88 2 63  come
: 90 2 64  to
: 92 1 63  an
: 94 7 63  end
- 102
: 128 2 59 Look
: 130 2 61  at
: 132 2 64  me
: 134 9 68  now,
: 148 2 68  will
: 150 2 66  I
: 152 2 68  ev
: 154 2 66 er
: 156 2 64  learn
- 159
: 160 2 59 I
: 162 2 61  don't
: 164 2 64  know
: 166 11 68  how
- 178
: 180 2 68 But
: 182 2 66  I
: 184 2 69  sud
: 186 2 68 den
: 188 1 64 ly
: 190 4 66  lose
: 194 4 68  con
: 198 2 68 tr
: 200 2 66 o
: 202 4 64 l
- 205
: 212 1 68 There's
: 214 1 68  a
: 216 2 68  fi
: 218 2 66 re
: 220 2 64  with
: 222 4 66 in
: 226 4 68  my
: 230 9 59  soul
- 240
: 248 4 69 Just
: 252 4 68  one
: 256 1 66  look
: 258 1 59  and
: 260 1 59  I
: 262 1 59  can
: 264 1 59  hear
: 266 1 59  ev
: 268 1 59 ery
: 270 3 59 thing
- 274
: 280 3 69 One
: 284 4 68  more
: 288 2 66  look
: 290 1 59  and
: 292 1 59  I
: 294 1 59  for
: 296 1 59 get
: 298 1 59  ev
: 300 1 59 ery
: 302 5 59 thing
- 308
: 312 2 68 Wo
: 314 1 64 o
: 316 2 66 o
: 318 2 64 oh
- 321
: 324 1 66 Mam
: 326 1 64 ma
: 328 2 66  mi
: 330 2 64 a,
: 340 1 64  here
: 342 1 64  I
: 344 2 66  go
: 346 1 68  a
: 348 2 66 ga
: 350 2 64 in
- 353
: 356 3 66 My,
: 360 3 64  my,
: 366 2 69  how
: 370 1 69  can
: 372 1 69  I
: 374 1 69  re
: 376 3 68 sist
: 380 2 64  you
- 383
: 388 2 66 Mam
: 390 1 64 ma
: 392 2 66  mi
: 394 2 64 a,
: 404 1 64  does
: 406 1 64  it
: 408 2 66  show
: 410 1 68  a
: 412 1 66 ga
: 414 2 64 in
- 417
: 420 4 66 My,
: 424 4 64  my,
: 430 1 69  just
: 434 1 69  how
: 436 1 69  much
: 438 1 69  I've
: 440 4 68  missed
: 444 3 64  you
- 448
: 452 4 71 Yes,
: 458 1 71  I've
: 460 1 71  been
: 462 3 71  bro
: 466 3 66 ken
: 470 3 68  heart
: 474 5 69 ed
- 480
: 484 4 68 Blue
: 490 1 68  since
: 492 1 68  the
: 494 3 68  day
: 498 3 63  we
: 502 3 64  part
: 506 3 66 ed
- 510
: 516 3 66 Why,
: 520 3 64  why
: 526 2 69  did
: 530 1 69  I
: 532 2 68  ev
: 534 1 64 er
: 536 2 66  let
: 538 1 64  you
: 540 2 66  g
: 542 2 64 o
- 545
: 548 2 66 Mam
: 550 1 64 ma
: 552 2 66  mi
: 554 2 64 a,
: 564 1 64  now
: 566 1 64  I
: 568 2 66  real
: 570 1 68 ly
: 572 1 66  kn
: 574 2 64 ow
- 577
: 580 3 66 My,
: 584 2 64  my,
: 590 1 69  I
: 594 1 69  could
: 596 2 68  ne
: 598 1 64 ver
: 600 2 66  let
: 602 2 64  you
: 604 2 66  g
: 606 2 64 o
- 608
: 672 4 59 I've
: 676 4 64  been
: 680 2 63  an
: 682 2 64 gry
: 684 1 66  and
: 686 5 68  sad
- 691
: 692 1 64 A
: 694 2 64 bout
: 696 2 63  things
: 698 2 64  that
: 700 1 63  you
: 702 7 63  do
- 711
: 736 4 59 I
: 740 3 64  can't
: 744 2 63  count
: 746 2 64  all
: 748 1 66  the
: 750 5 68  times
- 755
: 756 1 64 That
: 758 2 64  I've
: 760 2 63  told
: 762 2 64  you
: 764 1 63  we're
: 766 7 63  through
- 775
: 800 2 59 And
: 802 2 61  when
: 804 2 64  you
: 806 9 68  go,
: 820 2 68  when
: 822 2 66  you
: 824 2 68  slam
: 826 2 66  the
: 828 2 64  door
- 831
: 832 2 59 I
: 834 2 61  think
: 836 2 64  you
: 838 11 68  know
- 850
: 852 2 68 That
: 854 2 66  you
: 856 2 69  won't
: 858 2 68  be
: 860 1 64  aw
: 862 4 66 ay
: 866 4 68  too
: 870 2 68  lo
: 872 2 66 n
: 874 4 64 g
- 879
: 884 1 68 You
: 886 1 68  know
: 888 2 68  th
: 890 2 66  at
: 892 2 64  I'm
: 894 4 66  not
: 898 4 68  that
: 902 9 59  strong
- 912
: 920 4 69 Just
: 924 4 68  one
: 928 1 66  look
: 930 1 59  and
: 932 1 59  I
: 934 1 59  can
: 936 1 59  hear
: 938 1 59  the
: 940 1 59  bell
: 942 3 59  ring
- 946
: 952 3 69 One
: 956 4 68  more
: 960 2 66  look
: 962 1 59  and
: 964 1 59  I
: 966 1 59  for
: 968 1 59 get
: 970 1 59  ev
: 972 1 59 ery
: 974 5 59 thing
- 980
: 984 2 68 Wo
: 986 1 64 o
: 988 2 66 o
: 990 2 64 oh
- 993
: 996 1 66 Mam
: 998 1 64 ma
: 1000 2 66  mi
: 1002 2 64 a,
: 1012 1 64  here
: 1014 1 64  I
: 1016 2 66  go
: 1018 1 68  a
: 1020 2 66 ga
: 1022 2 64 in
- 1025
: 1028 3 66 My,
: 1032 3 64  my,
: 1038 2 69  how
: 1042 1 69  can
: 1044 1 69  I
: 1046 1 69  re
: 1048 3 68 sist
: 1052 2 64  you
- 1055
: 1060 2 66 Mam
: 1062 1 64 ma
: 1064 2 66  mi
: 1066 2 64 a,
: 1076 1 64  does
: 1078 1 64  it
: 1080 2 66  show
: 1082 1 68  a
: 1084 1 66 ga
: 1086 2 64 in
- 1089
: 1092 4 66 My,
: 1096 4 64  my,
: 1102 1 69  just
: 1106 1 69  how
: 1108 1 69  much
: 1110 1 69  I
: 1112 4 68  missed
: 1116 3 64  you
- 1121
: 1124 4 71 Yes,
: 1130 1 71  I've
: 1132 1 71  been
: 1134 3 71  bro
: 1138 3 66 ken
: 1142 3 68  heart
: 1146 5 69 ed
- 1152
: 1156 4 68 Blue
: 1162 1 68  since
: 1164 1 68  the
: 1166 3 68  day
: 1170 3 63  we
: 1174 3 64  par
: 1178 3 66 ted
- 1182
: 1188 3 66 Why,
: 1192 3 64  why
: 1198 2 69  did
: 1202 1 69  I
: 1204 2 68  ev
: 1206 1 64 er
: 1208 2 66  let
: 1210 1 64  you
: 1212 2 66  g
: 1214 2 64 o
- 1217
: 1220 2 66 Mam
: 1222 1 64 ma
: 1224 2 66  mi
: 1226 2 64 a,
: 1236 1 64  now
: 1238 1 64  I
: 1240 2 66  real
: 1242 1 68 ly
: 1244 1 66  kn
: 1246 2 64 ow
- 1249
: 1252 3 66 My,
: 1256 2 64  my,
: 1262 1 69  I
: 1266 1 69  could
: 1268 2 68  ne
: 1270 1 64 ver
: 1272 2 66  let
: 1274 2 64  you
: 1276 2 66  g
: 1278 2 64 o
- 1281
: 1429 1 66 Mam
: 1431 1 64 ma
: 1433 2 66  mi
: 1435 2 64 a,
: 1445 1 64  here
: 1447 1 64  I
: 1449 2 66  go
: 1451 1 68  a
: 1453 2 66 ga
: 1455 2 64 in
- 1458
: 1461 3 66 My,
: 1465 3 64  my,
: 1471 2 69  how
: 1475 1 69  can
: 1477 1 69  I
: 1479 1 69  re
: 1481 3 68 sist
: 1485 2 64  you
- 1489
: 1493 2 66 Mam
: 1495 1 64 ma
: 1497 2 66  mi
: 1499 2 64 a,
: 1509 1 64  does
: 1511 1 64  it
: 1513 2 66  show
: 1515 1 68  a
: 1517 1 66 ga
: 1519 2 64 in
- 1522
: 1525 4 66 My,
: 1529 4 64  my,
: 1535 1 69  just
: 1539 1 69  how
: 1541 1 69  much
: 1543 1 69  I
: 1545 4 68  missed
: 1549 3 64  you
- 1553
: 1557 4 71 Yes,
: 1563 1 71  I've
: 1565 1 71  been
: 1567 3 71  bro
: 1571 3 66 ken
: 1575 3 68  hear
: 1579 5 69 ted
- 1585
: 1589 4 68 Blue
: 1595 1 68  since
: 1597 1 68  the
: 1599 3 68  day
: 1603 3 63  we
: 1607 3 64  par
: 1611 3 66 ted
- 1615
: 1621 3 66 Why,
: 1625 3 64  why,
: 1631 2 69  did
: 1635 1 69  I
: 1637 2 68  ev
: 1639 1 64 er
: 1641 2 66  let
: 1643 1 64  you
: 1645 2 66  g
: 1647 2 64 o
- 1650
: 1653 2 66 Mam
: 1655 1 64 ma
: 1657 2 66  mi
: 1659 2 64 a,
: 1669 1 64  now
: 1671 1 64  I
: 1673 2 66  real
: 1675 1 68 ly
: 1677 1 66  kn
: 1679 2 64 ow
- 1682
: 1685 3 66 My,
: 1689 2 64  my,
: 1695 1 69  I
: 1699 1 69  could
: 1701 2 68  ne
: 1703 1 64 ver
: 1705 2 66  let
: 1707 2 64  you
: 1709 2 66  g
: 1711 2 64 o
- 1715
: 1749 2 66 Mam
: 1751 2 64 ma
: 1753 2 66  mi
: 1755 2 64 a
- 1757
: 1757 2 66 Mi
: 1759 2 64 a,
: 1761 2 66  mi
: 1763 2 64 a,
: 1765 2 66  mi
: 1767 2 64 a,
: 1769 2 66  mi
: 1771 2 64 a
- 1774
: 1781 2 66 Mam
: 1783 2 64 ma
: 1785 2 66  mi
: 1787 2 64 a
- 1789
: 1789 2 66 Mi
: 1791 2 64 a,
: 1793 2 66  mi
: 1795 2 64 a,
: 1797 2 66  mi
: 1799 2 64 a,
: 1801 2 66  mi
: 1803 2 64 a
- 1810
: 1813 2 66 Mam
: 1815 2 64 ma
: 1817 2 66  mi
: 1819 2 64 a
- 1821
: 1821 2 66 Mi
: 1823 2 64 a,
: 1825 2 66  mi
: 1827 2 64 a,
: 1829 2 66  mi
: 1831 2 64 a,
: 1833 2 66  mi
: 1835 2 64 a,
E


Created by PURE6 [poland]
My song no. 23 (all to be found under "[ultrastar][pure6]" in e-donkey 2000 network) 
