#TITLE:Johnny Johnny Come Home
#ARTIST:Avalanche
#MP3:Avalanche - Johnny Johnny Come Home.mp3
#VIDEO:Avalanche - Johnny Johnny Come Home.mp4
#COVER:Avalanche - Johnny Johnny Come Home.jpg
#BPM:239.59
#GAP:3685
#ENCODING:UTF8
#LANGUAGE:English
#GENRE:Pop
#YEAR:1989
#CREATOR:mustangfred and PatTwo
: 0 4 3 Na
: 5 2 5  na
: 9 9 7  na
: 22 6 7  na
: 29 3 5  na
: 33 3 3  na
: 37 2 2  na
: 41 7 0  na
- 51
: 53 6 0 Na
: 62 2 0  na
: 65 3 2  na
: 69 2 3  na
* 73 2 3  na
* 76 6 5 ~
: 85 7 5  na
: 93 3 3  na
: 97 2 2  na
: 100 3 0  na
: 105 16 2  na
- 133
: 137 3 0 Ooh
: 141 2 3 ~
: 145 4 3  John
: 150 1 3 ny
: 153 4 3  John
: 158 1 5 ny
* 161 5 7  come
: 169 23 7  home
- 199
: 202 2 0 Ooh
: 205 2 3 ~
: 209 3 3  John
: 213 2 3 ny
: 217 3 3  John
: 221 1 5 ny
: 225 4 8  come
: 232 33 7  home
- 296
: 337 3 7 John
: 341 1 7 ny
* 345 3 7  John
* 349 1 7 ny
: 352 4 5  come
: 358 14 7  home
- 387
: 413 2 0 Na
: 416 3 2  na
: 420 2 3  na
: 424 10 5  na
: 437 5 5  na
: 444 3 3  na
: 448 3 2  na
: 452 3 0  na
: 456 16 2  na
- 484
: 488 3 0 Ooh
: 492 2 3 ~
: 496 3 3  John
: 500 2 3 ny
: 504 4 3  John
: 509 1 5 ny
: 512 4 7  come
: 519 20 7  home
- 549
: 553 2 0 Ooh
: 556 2 3 ~
: 560 3 3  John
: 564 1 3 ny
: 568 3 3  John
: 572 2 5 ny
: 576 5 7  come
: 583 9 7  home
- 598
: 600 3 7 John
: 604 2 7 ny
: 608 2 5  come
: 612 3 7  home
: 616 9 7 ~
- 640
: 668 3 0 Na
: 672 2 2  na
: 676 2 3  na
: 680 9 5  na
: 692 6 5  na
: 700 3 3  na
: 705 2 2  na
: 709 2 0  na
: 712 16 2  na
- 738
: 746 2 0 Ooh
: 749 1 3 ~
: 752 3 3  John
: 756 2 3 ny
: 760 3 3  John
: 764 2 5 ny
: 768 4 8  come
: 776 14 7  home
- 800
: 810 2 0 Ooh
: 813 1 3 ~
: 816 4 3  John
: 821 1 3 ny
: 824 3 3  John
: 828 2 5 ny
: 832 5 8  come
: 839 13 7  home
- 867
: 887 5 -5 When
* 896 17 2  time
: 917 3 0  had
: 925 4 -5  come
- 939
: 949 2 -7 He
: 953 5 -7  made
: 960 2 0  his
: 965 3 -2  de
: 972 3 -7 ci
: 978 3 -7 sion
: 983 7 -5 ~
- 1000
: 1010 3 -9 Oh
: 1016 5 -9  John
: 1022 4 -7 ny
: 1028 3 -4  was
: 1035 8 -5  tired
: 1044 5 -7 ~
- 1059
: 1070 2 -9 And
: 1076 6 -9  filled
: 1084 3 -7  with
: 1089 2 -4  de
: 1094 7 -5 sire
: 1102 16 -5 ~
- 1128
: 1136 2 -5 He
* 1141 14 2  closed
: 1158 5 3  the
: 1165 8 2  door
: 1174 1 2 ~
: 1176 14 0 ~
- 1198
: 1201 3 -7 Stepped
: 1207 8 -7  out
: 1217 3 0  in
: 1223 3 -2 to
: 1229 4 -7  no
: 1235 11 -5 where
- 1256
: 1264 1 -9 No
: 1270 5 -9  to
: 1277 4 -7  be
: 1283 2 -4  a
: 1288 5 -5  tramp
: 1294 1 -7 ~
: 1296 3 -9 ~
: 1300 4 -12 ~
: 1305 4 -14 ~
- 1319
: 1328 4 0 Will
: 1334 2 0  he
: 1338 1 0  ev
: 1340 1 0 er
: 1344 5 0  come
* 1352 27 2  back?
- 1388
: 1391 4 7 John
: 1396 2 7 ny
: 1400 3 7  John
: 1404 1 7 ny
: 1408 2 5  come
: 1412 2 7  home
: 1415 11 7 ~
- 1441
: 1468 3 0 Na
: 1472 2 2  na
: 1476 2 3  na
: 1480 9 5  na
: 1492 6 5  na
: 1500 3 3  na
: 1504 2 2  na
: 1508 2 0  na
: 1512 16 2  na
- 1538
: 1545 2 0 Ooh
: 1548 1 3 ~
: 1552 3 3  John
: 1556 1 3 ny
: 1560 3 3  John
: 1564 2 5 ny
: 1568 4 8  come
* 1575 19 7  home
- 1604
: 1608 2 0 Ooh
: 1611 2 3 ~
* 1616 3 3  John
* 1620 1 3 ny
: 1624 3 3  John
: 1628 1 5 ny
: 1632 4 8  come
: 1638 10 7  home
- 1654
: 1656 3 7 John
: 1660 1 7 ny
: 1664 2 5  come
: 1668 2 7  home
: 1671 11 7 ~
- 1697
: 1724 3 0 Na
: 1728 2 2  na
: 1731 3 3  na
* 1736 9 5  na
: 1748 6 5  na
: 1756 2 3  na
: 1760 2 2  na
: 1764 2 0  na
: 1768 13 2  na
- 1791
: 1800 2 0 Ooh
: 1803 2 3 ~
: 1808 3 3  John
: 1812 1 3 ny
: 1816 2 3  John
: 1819 2 5 ny
: 1824 4 8  come
: 1831 18 7  home
- 1859
: 1863 3 0 Ooh
: 1867 2 3 ~
: 1872 3 3  John
: 1876 1 3 ny
: 1880 2 3  John
: 1883 2 5 ny
: 1888 4 8  come
: 1895 14 7  home
- 1924
: 1941 5 -5 At
: 1950 15 2  break
: 1968 1 0  of
: 1972 10 -5  day
- 1992
: 2008 3 -7 They
* 2014 6 0  found
* 2021 2 -2 ~
: 2025 2 -2  his
: 2031 2 -7  let
: 2036 2 -7 ter
: 2039 9 -5 ~
- 2060
: 2064 6 -9 Few
: 2072 3 -9  words
: 2078 2 -7  of
: 2083 4 -4  re
: 2089 9 -5 gret
: 2100 15 -2 ~
- 2124
: 2127 3 0 Will
: 2132 2 0  he
: 2135 4 0  nev
: 2140 1 0 er
: 2144 4 0  come
: 2152 28 2  back?
- 2188
: 2191 3 7 John
: 2195 2 7 ny
: 2200 2 7  John
: 2203 2 7 ny
: 2208 2 5  come
: 2212 2 7  home
: 2215 13 7 ~
- 2243
: 2268 2 0 Na
: 2271 2 2  na
: 2275 2 3  na
: 2280 8 5  na
: 2292 6 5  na
: 2299 3 3  na
: 2304 2 2  na
: 2308 2 0  na
: 2311 16 2  na
- 2337
: 2346 3 3 Ooh
: 2351 3 3  John
: 2355 1 3 ny
: 2359 3 3  John
: 2363 2 5 ny
: 2367 4 8  come
: 2374 19 7  home
- 2404
: 2408 2 0 Ooh
: 2411 2 3 ~
: 2415 3 3  John
: 2419 2 3 ny
: 2423 3 3  John
: 2427 2 5 ny
: 2431 5 8  come
: 2439 8 7  home
- 2453
: 2455 3 7 John
: 2459 1 7 ny
: 2463 2 5  come
: 2468 2 7  home
: 2471 10 7 ~
- 2496
: 2523 3 0 Na
: 2527 2 2  na
: 2530 3 3  na
: 2535 9 5  na
: 2547 6 5  na
: 2555 2 3  na
: 2559 2 2  na
: 2563 2 0  na
: 2567 17 2  na
- 2596
: 2600 2 0 Ooh
: 2603 1 3 ~
: 2607 3 3  John
: 2611 2 3 ny
: 2615 3 3  John
: 2619 2 5 ny
: 2623 4 8  come
: 2630 20 7  home
- 2659
: 2663 2 0 Ooh
: 2666 2 3 ~
: 2672 3 3  John
: 2676 1 3 ny
: 2679 3 3  John
: 2683 2 5 ny
: 2687 4 8  come
: 2695 25 7  home
- 2735
: 2772 4 0 Oh
: 2780 2 0  John
: 2783 3 0 ny
- 2801
: 2834 2 0 You
: 2837 2 0  nev
: 2840 1 0 er
: 2843 1 0  said
: 2848 1 0  a
: 2850 4 0  word
- 2869
: 2901 2 0 How
: 2906 2 0  could
: 2910 1 0  we
: 2914 3 0  know?
- 2932
: 2964 2 0 Oh
: 2971 3 0  John
: 2975 4 0 ny
- 2990
: 2994 2 0 Please
: 2999 1 0  come
: 3002 2 0  home
- 3035
: 3247 3 7 John
: 3251 1 7 ny
: 3255 3 7  John
: 3259 1 7 ny
: 3263 2 5  come
: 3267 16 7  home
- 3298
: 3326 3 12 Ooh
: 3330 2 10 ~
: 3335 3 10  John
: 3340 5 12 ny
: 3346 2 10 ~
: 3351 3 10  John
: 3355 1 8 ny
: 3359 4 7  come
: 3365 8 7  home
- 3383
: 3399 2 0 Ooh
: 3402 2 3 ~
: 3407 2 3  John
: 3410 2 3 ny
: 3415 2 3  John
: 3418 2 5 ny
: 3423 4 8  come
: 3430 19 7  home
- 3459
: 3463 2 0 Ooh
: 3466 2 3 ~
: 3471 3 3  John
: 3475 1 3 ny
: 3478 4 3  John
: 3483 1 5 ny
: 3486 4 8  come
: 3494 8 7  home
- 3508
* 3510 3 7 John
* 3514 2 7 ny
: 3518 2 5  come
: 3522 2 7  home
: 3525 12 7 ~
- 3552
: 3579 2 0 Na
: 3583 2 2  na
: 3587 2 3  na
: 3591 9 5  na
: 3603 6 5  na
: 3610 3 3  na
: 3614 2 2  na
: 3618 2 0  na
: 3622 17 2  na
- 3649
: 3656 2 0 Ooh
: 3659 1 3 ~
: 3662 3 3  John
: 3666 2 3 ny
: 3670 3 3  John
: 3674 2 5 ny
: 3678 4 8  come
: 3685 19 7  home
- 3715
: 3719 2 0 Ooh
: 3722 2 3 ~
: 3726 3 3  John
: 3730 2 3 ny
: 3734 3 3  John
: 3738 2 5 ny
: 3743 4 8  come
: 3750 8 7  home
- 3764
: 3766 3 7 John
: 3771 1 7 ny
: 3775 2 5  come
: 3779 2 7  home
: 3782 10 7 ~
- 3807
: 3834 3 0 Na
: 3838 2 2  na
: 3842 3 3  na
: 3846 9 5  na
: 3859 5 5  na
: 3866 2 3  na
: 3870 2 2  na
: 3874 2 0  na
: 3878 16 2  na
- 3904
: 3911 2 0 Ooh
: 3914 1 3 ~
: 3918 3 3  John
: 3922 2 3 ny
: 3926 3 3  John
: 3930 2 5 ny
: 3934 4 8  come
: 3941 20 7  home
E