#TITLE:The Best Damn Thing
#ARTIST:Avril Lavigne
#MP3:Avril Lavigne - The Best Damn Thing.mp3
#VIDEO:Avril Lavigne - The Best Damn Thing.mp4
#COVER:Avril Lavigne - The Best Damn Thing [CO].jpg
#BPM:165
#GAP:2700
#MedleyStartBeat:240
#MedleyEndBeat:504
#ENCODING:UTF8
#PREVIEWSTART:24,518
#LANGUAGE:English
#GENRE:Pop
#YEAR:2008
: 0 2 11 Let 
: 2 2 11 me 
: 4 2 11 hear 
: 6 2 11 you 
: 8 4 11 say 
- 12
: 12 4 11 hey 
: 16 4 11 hey 
: 20 8 11 hey! 
- 28
: 28 4 11 Hey 
: 32 4 11 hey 
: 36 8 11 hey! 
- 46
: 48 2 7 Al 
: 50 6 7 right, 
- 58
: 62 2 7 now 
: 64 2 11 let 
: 66 2 11 me 
: 68 2 11 hear 
: 70 2 11 you 
: 72 4 11 say 
- 76
: 76 4 11 hey 
: 80 4 11 hey 
: 84 8 11 ho! 
- 92
: 92 4 11 Hey 
: 96 4 11 hey 
: 100 4 11 ho! 
- 105
: 106 2 11 I 
: 108 2 11 hate 
: 110 2 11 it 
: 112 2 11 when 
: 114 2 11 a 
: 116 4 11 guy 
- 122
: 124 2 11 does
: 126 2 11 n't 
: 128 2 11 get 
: 130 2 11 the 
: 132 4 11 door, 
- 136
: 136 2 11 e
: 138 2 11 ven 
: 140 2 11 though 
: 142 2 11 I 
: 144 2 11 told 
: 146 2 11 him 
: 148 2 11 yes
: 150 2 11 ter
: 152 4 11 day 
- 156
: 156 2 11 and 
: 158 2 11 the 
: 160 2 11 day 
: 162 2 11 be
: 164 4 11 fore. 
- 169
: 170 2 11 I 
: 172 2 11 hate 
: 174 2 11 it 
: 176 2 11 when 
: 178 2 11 a 
: 180 4 11 guy 
- 186
: 188 2 11 does
: 190 2 11 n't 
: 192 2 11 get 
: 194 2 11 the 
: 196 4 11 tab 
: 200 2 11 and 
: 202 2 11 I 
- 204
: 204 2 11 have 
: 206 2 11 to 
: 208 2 11 put 
: 210 2 11 my 
: 212 2 11 mon
: 214 2 11 ey 
: 216 2 11 out 
- 218
: 218 2 11 and 
: 220 4 11 that 
: 224 4 11 looks 
: 228 4 11 bad! 
- 234
: 240 2 6 Where 
: 242 6 4 are 
: 248 2 2 the 
: 250 6 0 hopes? 
- 256
: 256 2 6 Where 
: 258 6 4 are 
: 264 2 2 the 
: 266 6 0 dreams? 
- 272
: 272 2 6 My 
: 274 6 4 Cin
: 280 2 2 der
: 282 4 0 el
: 286 4 0 la 
: 290 4 1 sto
: 294 4 2 ry 
: 298 6 0 scene. 
- 304
: 304 2 6 When 
: 306 6 4 do 
: 312 2 2 you 
: 314 6 0 think 
- 320
: 320 4 6 they'll 
: 324 4 4 fina
: 328 4 2 'ly 
* 332 6 6 see
* 338 1 7 ~
* 339 1 6 ~
* 340 8 4 ~. 
- 350
: 358 2 2 That 
: 360 2 2 you're 
: 362 4 9 not, 
: 366 4 9 not, 
: 370 4 9 not, 
- 374
: 374 2 9 gon
: 376 2 9 na 
: 378 4 9 get 
: 382 2 7 an
: 384 2 7 y 
: 386 4 6 bet
: 390 2 4 ter? 
- 392
: 392 2 2 You 
: 394 4 9 won't, 
: 398 4 9 won't, 
: 402 4 9 won't, 
- 406
: 406 2 9 you 
: 408 2 9 won't 
: 410 2 9 get 
: 412 2 9 rid 
: 414 2 7 of 
: 416 2 7 me 
- 418
: 418 4 6 nev
: 422 2 4 er, 
: 426 4 9 like 
: 430 2 2 it 
: 432 2 2 or 
: 434 4 9 not 
- 438
: 438 2 2 e
: 440 2 2 ven 
: 442 4 9 though 
: 446 2 2 she's 
: 448 2 2 a 
: 450 4 9 lot 
: 454 4 7 like 
: 458 6 6 me. 
- 465
* 466 2 0 We're 
* 468 4 6 not 
* 472 2 0 the 
* 474 10 6 same, 
- 486
: 488 2 2 and 
: 490 4 9 yeah, 
: 494 4 9 yeah, 
: 498 4 9 yeah 
- 502
: 502 2 9 I'm 
: 504 2 9 a 
: 506 4 9 lot 
: 510 4 7 to 
: 514 4 6 han 
: 518 2 4 dle. 
- 520
: 520 2 2 You 
: 522 4 9 don't 
: 526 4 9 know 
: 530 4 9 trou
: 534 2 9 ble; 
- 536
: 536 2 9 I'm 
: 538 2 9 a 
: 540 2 9 hell 
: 542 2 7 of 
: 544 2 7 a 
: 546 4 6 scan
: 550 4 4 dal. 
- 554
: 554 4 9 Me, 
: 558 2 2 I'm 
: 560 2 2 a 
: 562 6 9 scene, 
: 568 2 2 I'm 
: 570 2 2 a 
- 572
: 572 2 4 dra
: 574 4 6 ma 
: 578 6 2 queen, 
- 584
: 584 2 2 I'm 
: 586 2 2 the 
: 588 4 4 best 
: 592 4 4 damn 
: 596 4 4 thing 
: 600 2 4 that 
: 602 2 2 your 
- 604
: 604 4 4 eyes 
: 608 4 6 have 
: 612 2 4 ev
: 614 2 2 er 
: 616 4 2 seen! 
- 622
* 632 2 11 Al
* 634 6 11 right, 
* 640 2 11 al
* 642 6 11 right, 
* 658 6 11 yeah. 
- 666
: 682 2 11 I 
: 684 2 11 hate 
: 686 2 11 it 
: 688 2 11 when 
: 690 2 11 a 
: 692 4 11 guy 
- 698
: 700 2 11 does
: 702 2 11 n't 
: 704 2 11 un
: 706 2 11 der
: 708 4 11 stand 
: 712 2 11 why 
: 714 2 11 a 
- 716
: 716 2 11 cer
: 718 2 11 tain 
: 720 2 11 time 
: 722 2 11 of 
: 724 2 11 month, 
- 726
: 726 2 11 I 
: 728 4 11 don't 
: 732 2 11 wan
: 734 2 11 na 
: 736 2 11 hold 
: 738 2 11 his 
: 740 4 11 hand, 
- 745
: 746 2 11 I 
: 748 2 11 hate 
: 750 2 11 it 
: 752 2 11 when 
: 754 2 11 they 
: 756 2 11 go 
: 758 2 11 out 
- 761
: 762 2 11 and 
: 764 4 11 we 
: 768 4 11 stay 
: 772 4 11 in, 
- 776
: 776 2 11 and 
: 778 2 11 they 
: 780 4 11 come 
: 784 4 11 home 
: 788 2 11 smell
: 790 2 11 ing 
- 792
: 792 2 11 like 
: 794 2 11 their 
: 796 4 11 ex
: 800 4 11 girl
: 804 4 11 friend. 
- 810
: 814 2 0 But 
: 816 2 6 I 
: 818 6 4 found 
: 824 2 2 my 
: 826 6 0 hopes, 
- 832
: 832 2 6 I 
: 834 6 4 found 
: 840 2 2 my 
: 842 6 0 dreams. 
- 848
: 848 2 6 My 
: 850 6 4 Cin
: 856 2 2 der
: 858 4 0 el
: 862 4 0 la 
: 866 4 1 sto
: 870 4 2 ry 
: 874 6 0 scene. 
- 880
: 880 2 6 Now 
: 882 6 4 ev
: 888 2 2 'ry 
: 890 6 0 bod
: 896 4 6 y's 
- 900
: 900 4 4 gon
: 904 4 2 na 
* 908 6 6 see
* 914 1 7 ~
* 915 1 6 ~
* 916 8 4 ~. 
- 926
: 934 2 2 That 
: 936 2 2 you're 
: 938 4 9 not, 
: 942 4 9 not, 
: 946 4 9 not, 
- 950
: 950 2 9 gon
: 952 2 9 na 
: 954 4 9 get 
: 958 2 7 an
: 960 2 7 y 
: 962 4 6 bet
: 966 2 4 ter. 
- 968
: 968 2 2 You 
: 970 4 9 won't, 
: 974 4 9 won't, 
: 978 4 9 won't, 
- 982
: 982 2 9 you 
: 984 2 9 won't 
: 986 2 9 get 
: 988 2 9 rid 
: 990 2 7 of 
: 992 2 7 me 
- 994
: 994 4 6 nev
: 998 2 4 er, 
: 1002 4 9 like 
: 1006 2 2 it 
: 1008 2 2 or 
: 1010 4 9 not 
- 1014
: 1014 2 2 e
: 1016 2 2 ven 
: 1018 4 9 though 
: 1022 2 2 she's 
: 1024 2 2 a 
: 1026 4 9 lot 
: 1030 4 7 like 
: 1034 6 6 me. 
- 1041
: 1042 2 0 We're 
: 1044 4 6 not 
: 1048 2 0 the 
: 1050 10 6 same, 
- 1062
: 1064 2 2 and 
: 1066 4 9 yeah, 
: 1070 4 9 yeah, 
: 1074 4 9 yeah 
- 1078
: 1078 2 9 I'm 
: 1080 2 9 a 
: 1082 4 9 lot 
: 1086 4 7 to 
: 1090 4 6 han
: 1094 2 4 dle. 
- 1096
: 1096 2 2 You 
: 1098 4 9 don't 
: 1102 4 9 know 
: 1106 4 9 trou
: 1110 2 9 ble; 
- 1112
: 1112 2 9 I'm 
: 1114 2 9 a 
: 1116 2 9 hell 
: 1118 2 7 of 
: 1120 2 7 a 
: 1122 4 6 scan
: 1126 4 4 dal. 
- 1130
: 1130 4 9 Me, 
: 1134 2 2 I'm 
: 1136 2 2 a 
: 1138 6 9 scene, 
: 1144 2 2 I'm 
: 1146 2 2 a 
- 1148
: 1148 2 4 dra
: 1150 4 6 ma 
: 1154 6 2 queen, 
- 1160
: 1160 2 2 I'm 
: 1162 2 2 the 
: 1164 4 4 best 
: 1168 4 4 damn 
: 1172 4 4 thing 
: 1176 2 4 that 
: 1178 2 2 your 
- 1180
: 1180 4 4 eyes 
: 1184 4 6 have 
: 1188 2 4 ev
: 1190 2 2 er 
: 1192 4 2 seen! 
- 1196
: 1196 8 11 A! 
- 1206
: 1208 2 11 Al
: 1210 2 11 ways 
: 1212 2 11 give 
: 1214 2 11 me 
: 1216 2 11 what 
: 1218 2 11 I 
: 1220 2 11 want! 
- 1222
: 1222 2 11 Give 
: 1224 2 11 me 
: 1226 2 11 a 
: 1228 8 11 V! 
- 1237
: 1238 2 11 Be 
: 1240 2 11 ver
: 1242 2 11 y, 
: 1244 2 11 ver
: 1246 2 11 y 
: 1248 2 11 good 
: 1250 2 11 to 
: 1252 4 11 me! 
- 1258
: 1260 8 11 R! 
- 1270
: 1272 2 11 Are 
: 1274 2 11 you 
: 1276 2 11 gon
: 1278 2 11 na 
: 1280 2 11 treat 
: 1282 2 11 me 
: 1284 4 11 right? 
- 1290
: 1292 8 11 I! 
- 1302
: 1304 2 11 I 
: 1306 2 11 can 
: 1308 2 11 put 
: 1310 2 11 up 
: 1312 2 11 a 
: 1314 4 11 fight! 
- 1318
: 1318 2 11 Give 
: 1320 2 11 me 
: 1322 2 11 an 
: 1324 8 11 L! 
- 1334
: 1336 2 11 Let 
: 1338 2 11 me 
: 1340 2 11 hear 
: 1342 2 11 you 
: 1344 4 11 scream 
: 1348 4 11 loud! 
- 1352
: 1352 2 11 Let 
: 1354 2 11 me 
: 1356 2 11 hear 
: 1358 2 11 you 
: 1360 4 11 scream 
: 1364 8 11 loud! 
- 1372
: 1372 4 11 1 
: 1376 4 11 2 
: 1380 4 11 3 
: 1384 4 11 4 
- 1390
: 1392 2 6 Where 
: 1394 6 4 are 
: 1400 2 2 the 
: 1402 6 0 hopes? 
- 1408
: 1408 2 6 Where 
: 1410 6 4 are 
: 1416 2 2 the 
: 1418 6 0 dreams? 
- 1424
: 1424 2 6 My 
: 1426 6 4 Cin
: 1432 2 2 der
: 1434 4 0 el
: 1438 4 0 la 
: 1442 4 1 sto
: 1446 4 2 ry 
: 1450 6 0 scene. 
- 1456
: 1456 2 6 When 
: 1458 6 4 do 
: 1464 2 2 you 
: 1466 6 0 think 
- 1472
: 1472 4 6 they'll 
: 1476 4 4 fina
: 1480 4 2 'ly 
: 1484 6 6 see
: 1490 1 7 ~
: 1491 1 6 ~
: 1492 8 4 ~. 
- 1502
: 1510 2 2 That 
: 1512 2 2 you're 
: 1514 4 9 not, 
: 1518 4 9 not, 
: 1522 4 9 not, 
- 1526
: 1526 2 9 gon
: 1528 2 9 na 
: 1530 4 9 get 
: 1534 2 7 an
: 1536 2 7 y 
: 1538 4 6 bet
: 1542 2 4 ter? 
- 1544
: 1544 2 2 You 
: 1546 4 9 won't, 
: 1550 4 9 won't, 
: 1554 4 9 won't, 
- 1558
: 1558 2 9 you 
: 1560 2 9 won't 
: 1562 2 9 get 
: 1564 2 9 rid 
: 1566 2 7 of 
: 1568 2 7 me 
- 1570
: 1570 4 6 nev
: 1574 2 4 er, 
: 1578 4 9 like 
: 1582 2 2 it 
: 1584 2 2 or 
: 1586 4 9 not 
- 1590
: 1590 2 2 e
: 1592 2 2 ven 
: 1594 4 9 though 
: 1598 2 2 she's 
: 1600 2 2 a 
: 1602 4 9 lot 
: 1606 4 7 like 
: 1610 6 6 me. 
- 1617
: 1618 2 0 We're 
: 1620 4 6 not 
: 1624 2 0 the 
: 1626 10 6 same, 
- 1638
: 1640 2 2 and 
: 1642 4 9 yeah, 
: 1646 4 9 yeah, 
: 1650 4 9 yeah 
- 1654
: 1654 2 9 I'm 
: 1656 2 9 a 
: 1658 4 9 lot 
: 1662 4 7 to 
: 1666 4 6 han
: 1670 2 4 dle. 
- 1672
: 1672 2 2 You 
: 1674 4 9 don't 
: 1678 4 9 know 
: 1682 4 9 trou
: 1686 2 9 ble; 
- 1688
: 1688 2 9 I'm 
: 1690 2 9 a 
: 1692 2 9 hell 
: 1694 2 7 of 
: 1696 2 7 a 
: 1698 4 6 scan
: 1702 4 4 dal. 
- 1706
: 1706 4 9 Me, 
: 1710 2 2 I'm 
: 1712 2 2 a 
: 1714 6 9 scene, 
: 1720 2 2 I'm 
: 1722 2 2 a 
- 1724
: 1724 2 4 dra
: 1726 4 6 ma 
: 1730 6 2 queen, 
- 1736
: 1736 2 2 I'm 
: 1738 2 2 the 
: 1740 4 4 best 
: 1744 4 4 damn 
: 1748 4 4 thing 
: 1752 2 4 that 
: 1754 2 2 your 
- 1756
: 1756 4 4 eyes 
: 1760 4 6 have 
: 1764 2 4 ev
: 1766 2 2 er 
: 1768 4 2 seen! 
- 1774
: 1792 2 11 Let 
: 1794 2 11 me 
: 1796 2 11 hear 
: 1798 2 11 you 
: 1800 4 11 say 
- 1804
: 1804 4 11 hey 
: 1808 4 11 hey 
: 1812 8 11 hey! 
- 1820
: 1820 4 11 Hey 
: 1824 4 11 hey 
: 1828 8 11 hey! 
- 1838
: 1840 2 11 Al
: 1842 6 11 right, 
: 1854 2 11 now 
: 1856 2 11 let 
: 1858 2 11 me 
: 1860 2 11 hear 
: 1862 2 11 you 
: 1864 4 11 say 
- 1868
: 1868 4 11 hey 
: 1872 4 11 hey 
: 1876 8 11 ho! 
- 1884
: 1884 4 11 Hey 
: 1888 4 11 hey 
: 1892 8 11 ho! 
- 1902
: 1916 4 11 Hey 
: 1920 4 11 hey 
: 1924 8 11 hey! 
- 1934
: 1948 4 11 Hey 
: 1952 4 11 hey 
: 1956 8 11 hey! 
- 1966
: 1980 4 11 Hey 
: 1984 4 11 hey 
: 1988 4 11 hey! 
- 1992
* 1992 2 4 I'm 
* 1994 2 4 the 
* 1996 4 4 best 
* 2000 4 4 damn 
* 2004 4 4 thing 
- 2008
* 2008 2 4 that 
* 2010 2 2 your 
* 2012 4 4 eyes 
* 2016 4 6 have 
* 2020 2 4 ev
* 2022 2 2 er 
* 2024 4 2 seen! 
E