#TITLE:Larger Than Life
#ARTIST:Backstreet Boys
#MP3:Backstreet Boys - Larger Than Life.mp3
#VIDEO:Backstreet Boys - Larger Than Life.mp4
#COVER:Backstreet Boys - Larger Than Life [CO].jpg
#BPM:270,07
#GAP:17370
#MedleyStartBeat:2880
#MedleyEndBeat:3144
#ENCODING:UTF8
#PREVIEWSTART:177,329
#LANGUAGE:English
#GENRE:Pop
#YEAR:1999
: 0 2 0 I
: 5 2 0  may
: 10 2 0  run
: 15 2 0  and
: 20 6 0  hide,
- 28
: 30 2 0 when
: 35 2 0  you're
: 40 2 -2  scream
: 45 2 -2 ing
: 50 2 -2  my
: 55 2 -2  name
: 60 4 -3 ~.
- 66
: 70 2 0 Al
: 75 4 0 right
: 83 1 -2 ~
: 85 1 -5 ~!
- 88
: 155 2 -5 But
: 160 2 0  let
: 165 2 0  me
: 170 2 0  tell
: 175 2 0  you
: 180 4 0  now
- 186
: 190 2 0 there
: 195 2 0  are
: 200 2 -2  pric
: 205 2 -2 es
: 210 2 -2  to
: 215 7 -3  fame.
- 224
: 231 2 0 Al
: 236 2 0 right
* 241 9 3 ~!
- 252
: 320 7 2 All
: 330 2 0 ~
: 335 9 0  of
: 350 4 3  our
: 360 9 2  time
: 375 9 0  spent
- 386
: 390 2 -2 in
: 395 2 -2 ~
: 400 7 2  flash
: 410 2 0 ~
: 415 9 0 es
- 426
: 430 2 3 of
: 435 6 2  light
: 445 2 3 ~
: 450 2 2 ~
: 455 2 3 ~
: 460 2 2 ~
: 465 2 3 ~
: 470 4 0 ~.
- 476
: 480 4 3 All
: 490 4 3  you
: 500 2 3  peo
: 505 2 3 ple
: 510 2 3  can't
: 515 2 0  you
: 520 4 2  see,
- 526
: 530 2 2 can't
: 535 2 0  you
: 540 7 0  see.
- 549
: 555 1 0 How
: 558 4 3 ~
: 565 2 3  your
: 570 2 3  love's
: 575 2 3  af
: 580 2 3 fect
: 585 2 0 ing
- 588
: 590 2 0 our
: 595 2 0  re
: 600 6 2 al
: 610 2 2 i
: 615 4 0 ty
: 623 1 -2 ~
: 625 2 -3 ~.
- 629
: 636 6 3 E
: 645 2 3 very
: 650 2 3  time
: 655 2 0  we're
: 660 7 3  down,
- 669
: 675 4 2 you
: 685 2 2  can
: 690 2 2  make
: 695 2 0  it
: 700 4 0  right.
- 706
: 710 4 -5 And
: 720 7 2  that
: 730 2 0 ~
: 735 9 0  makes
- 746
: 750 4 3 you
: 760 9 2  larg
: 775 9 0 er
: 790 2 -2  than
: 795 2 0 ~
: 800 9 0  life.
- 811
: 830 2 0 Al
: 835 2 0 right
: 840 1 -2 ~
: 843 2 -5 ~!
- 847
* 875 1 5 Look
* 878 2 7 ~
: 885 2 3 ing
: 890 2 0  at
: 895 2 -2  the
: 900 4 0  crowd
- 906
: 910 2 0 and
: 915 2 0  I
: 920 2 -2  see
: 925 2 -2  your
: 930 2 -2  bo
: 935 2 -3 dy
: 940 4 -3  sway.
- 946
: 950 2 0 C'
: 955 2 0 mon
: 960 1 -2 ~
: 963 1 -5 ~!
- 966
: 1040 2 0 Wish
: 1045 2 0 in'
: 1050 2 0  I
: 1055 2 0  could
: 1060 2 0  thank
: 1065 2 0  you
- 1068
: 1070 2 0 in
: 1075 2 0  a
: 1080 2 -2  diff
: 1085 2 -2 e
: 1090 2 -2 rent
: 1095 7 -3  way.
- 1104
: 1110 2 3 C'
: 1115 2 0 mon
: 1120 7 3 ~!
- 1129
: 1200 7 2 All
: 1210 2 0 ~
: 1215 9 0  of
: 1230 4 3  your
: 1240 9 2  time
: 1255 9 0  spent
- 1266
: 1280 12 2 keeps
: 1298 7 0  us
- 1307
: 1310 2 3 a
: 1315 6 2 live
: 1325 2 3 ~
: 1330 2 5 ~
: 1335 2 7 ~
* 1340 2 10 ~
: 1345 2 7 ~
: 1350 2 5 ~.
- 1354
: 1360 4 3 All
: 1370 4 3  you
: 1380 2 3  peo
: 1385 2 3 ple
: 1390 2 3  can't
: 1395 2 0  you
: 1400 4 2  see,
- 1406
: 1410 2 2 can't
: 1415 2 0  you
: 1420 7 0  see.
- 1429
: 1435 1 0 How
: 1438 4 3 ~
: 1445 2 3  your
: 1450 2 3  love's
: 1455 2 3  af
: 1460 2 3 fect
: 1465 2 0 ing
- 1468
: 1470 2 0 our
: 1475 2 0  re
: 1480 6 2 al
: 1490 2 2 i
: 1495 4 0 ty
: 1503 1 -2 ~
: 1505 2 -3 ~.
- 1509
: 1516 6 3 E
: 1525 2 3 very
: 1530 2 3  time
: 1535 2 0  we're
: 1540 7 3  down,
- 1549
: 1555 4 2 You
: 1565 2 2  can
: 1570 2 2  make
: 1575 2 0  it
: 1580 4 0  right.
- 1586
: 1590 4 -5 And
: 1600 7 2  that
: 1610 2 0 ~
: 1615 9 0  makes
- 1626
: 1630 4 3 you
: 1640 9 2  larg
: 1655 9 0 er
: 1670 2 -2  than
: 1675 2 0 ~
: 1680 9 0  life.
- 1691
* 1735 1 7 Lar
* 1738 2 10 ~
: 1745 2 6 ger
: 1750 2 5  than
- 1754
: 1756 1 6 life
: 1758 1 7 ~
* 1760 31 6 ~-
- 1793
: 1795 2 10 ~
: 1800 2 9 ~
: 1805 2 7 ~
: 1810 1 7 ~
: 1813 1 5 ~
: 1815 1 7 ~
: 1818 1 5 ~
: 1820 1 5 ~
: 1823 1 3 ~
: 1825 1 5 ~
: 1828 1 3 ~
: 1830 14 3 ~.
- 1846
: 1913 1 2 Yeah
: 1915 2 3 ~
: 1920 9 2 ~!
- 1931
: 2000 9 2 All
: 2015 9 0  of
: 2030 2 3  your
: 2035 2 2 ~
: 2040 9 2  time
: 2055 9 0  spent
- 2066
: 2080 9 2 keeps
: 2095 9 0  us
- 2106
: 2110 4 3 a
: 2116 2 2 ~
: 2120 2 2 live
: 2125 2 3 ~
: 2130 2 2 ~
: 2135 2 3 ~
: 2140 2 2 ~
: 2145 2 3 ~
: 2150 2 2 ~
: 2155 2 3 ~
: 2160 2 2 ~
: 2165 2 3 ~
: 2170 2 2 ~
: 2175 2 3 ~
: 2180 2 2 ~
: 2185 2 3 ~
: 2190 2 2 ~
: 2195 2 3 ~
: 2200 2 2 ~
: 2205 2 3 ~
: 2210 2 2 ~
: 2215 2 3 ~
: 2220 2 2 ~
: 2225 2 3 ~.
- 2229
: 2880 4 3 All
: 2890 4 3  you
: 2900 2 3  peo
: 2905 2 3 ple
: 2910 2 3  can't
: 2915 2 0  you
: 2920 4 2  see,
- 2926
: 2930 2 2 can't
: 2935 2 0  you
: 2940 7 0  see.
- 2949
: 2955 6 3 How
: 2965 2 3  your
: 2970 2 3  love's
: 2975 2 3  af
: 2980 2 3 fect
: 2985 2 0 ing
- 2988
: 2990 2 0 our
: 2995 2 0  re
: 3000 6 2 al
: 3010 2 2 i
: 3015 4 0 ty
: 3023 1 -2 ~
: 3025 2 -3 ~.
- 3029
: 3035 4 3 E
: 3045 2 3 very
: 3050 2 3  time
: 3055 2 0  we're
: 3060 7 3  down,
- 3069
: 3075 4 2 you
: 3085 2 2  can
: 3090 2 2  make
: 3095 2 0  it
: 3100 4 0  right.
- 3106
: 3110 4 -5 And
: 3120 7 2  that
: 3130 2 0 ~
: 3135 9 0  makes
- 3146
: 3150 4 3 you
: 3160 9 2  larg
: 3175 9 0 er
: 3190 2 -2  than
: 3195 2 0 ~
: 3200 9 0  life.
- 3211
: 3215 2 3 Yeah
: 3220 4 2 ~
: 3228 2 0 ~!
- 3232
* 3235 6 5 E
: 3245 2 5 very
: 3250 2 5  time
: 3255 2 7  we're
: 3260 7 5  down.
- 3269
: 3295 2 3 Yeah
: 3300 4 2 ~
: 3308 2 0 ~!
- 3312
: 3318 4 5 You
: 3325 2 5  can
: 3330 2 5  make
: 3335 2 7  it
* 3340 2 10  right
: 3345 2 7 ~
: 3350 2 5 ~
: 3355 4 3 ~
: 3365 2 0 ~!
- 3369
: 3375 2 3 Yeah
: 3380 4 2 ~
: 3388 2 0 ~!
- 3392
: 3395 4 5 That's
: 3405 2 5  what
: 3410 2 5  makes
: 3415 2 7  you
: 3420 2 10  lar
: 3425 2 7 ger
- 3428
: 3430 4 10 than
* 3440 1 12  life
* 3443 1 11 ~
* 3445 64 12 ~!
- 3511
: 3520 4 3 All
: 3530 4 3  you
: 3540 2 3  peo
: 3545 2 3 ple
: 3550 2 3  can't
: 3555 2 0  you
: 3560 4 2  see,
- 3566
: 3570 2 2 can't
: 3575 2 0  you
: 3580 7 0  see.
- 3589
: 3595 6 3 How
: 3605 2 3  your
: 3610 2 3  love's
: 3615 2 3  af
: 3620 2 3 fect
: 3625 2 0 ing
- 3628
: 3630 2 0 our
: 3635 2 0  re
: 3640 6 2 al
: 3650 2 2 i
: 3655 4 0 ty
: 3663 1 -2 ~
: 3665 2 -3 ~.
- 3669
: 3675 6 3 E
: 3685 2 3 very
: 3690 2 3  time
: 3695 2 0  we're
: 3700 7 3  down,
- 3709
: 3715 4 2 you
: 3725 2 2  can
: 3730 2 2  make
: 3735 2 0  it
: 3740 4 0  right.
- 3746
: 3750 4 -5 And
: 3760 7 2  that
: 3770 2 0 ~
: 3775 9 0  makes
- 3786
: 3790 4 3 you
: 3800 9 2  larg
: 3815 9 0 er,
- 3826
: 3830 4 -5 and
: 3840 7 2  that
: 3850 2 0 ~
: 3855 9 0  makes
- 3866
: 3870 4 3 you
: 3880 9 2  larg
: 3895 9 0 er,
- 3906
: 3910 4 -5 and
: 3920 7 2  that
: 3930 2 0 ~
: 3935 9 0  makes
- 3946
: 3950 4 3 you
: 3960 9 2  larg
: 3975 9 0 er
: 3990 2 -2  than
: 3995 2 0 ~
: 4000 9 0  life.
E