#TITLE:Show Me The Meaning Of Being Lonely
#ARTIST:Backstreet Boys
#MP3:Backstreet Boys - Show Me The Meaning Of Being Lonely.mp3
#VIDEO:Backstreet Boys - Show Me The Meaning Of Being Lonely.mp4
#COVER:Backstreet Boys - Show Me The Meaning Of Being Lonely [CO].jpg
#BPM:335,68
#GAP:6650
#MedleyStartBeat:2432
#MedleyEndBeat:2902
#ENCODING:UTF8
#PREVIEWSTART:114,610
#LANGUAGE:English
#GENRE:Pop
#YEAR:1999
: 0 4 13 Show
: 8 4 13  me
: 16 4 13  the
: 24 4 13  mean
: 32 6 13 ing
- 40
: 50 4 13 of
: 58 12 14  be
: 74 4 11 ing
: 82 12 9  lone
: 98 14 8 ly.
- 114
: 256 4 9 So
: 264 4 9  ma
: 272 4 9 ny
: 280 18 9  words,
- 300
: 304 2 6 for
: 308 2 8  the
: 312 12 9  bro
: 328 4 11 ken
: 336 20 8  heart.
- 358
: 376 4 6 It's
: 386 8 9  hard
: 400 2 6  to
: 408 16 9  see
- 426
: 432 2 6 in
: 437 2 8  a
: 442 12 9  crim
: 458 2 11 son
: 466 16 8  love.
- 484
: 496 4 4 So
: 504 14 8  hard
: 522 2 9  to
: 528 20 6  breathe.
- 550
: 566 16 6 Walk
: 586 2 8  with
: 592 12 5  me
- 606
: 610 2 6 and
: 617 2 8  may
: 624 4 6 be
- 630
: 640 8 9 nights
: 650 2 6 ~
: 658 2 6  of
: 666 12 9  light
- 680
: 688 2 6 so
: 696 12 9  soon
: 712 4 11  be
: 720 14 8 come
- 736
: 768 8 8 wild
: 778 2 5 ~
: 786 2 5  and
: 794 14 8  free.
- 810
: 816 2 6 I
: 821 2 8  could
: 826 12 9  feel
: 842 4 11  the
: 850 14 8  sun.
- 866
: 880 6 4 Your
: 890 12 8  e
: 906 4 9 very
: 914 20 6  wish
- 936
: 952 12 6 will
: 968 4 8  be
: 976 14 5  done.
: 994 2 6  They
: 1001 2 8  tell
: 1008 4 6  me...
- 1014
: 1024 4 13 Show
: 1032 4 13  me
: 1040 4 13  the
: 1048 4 13  mean
: 1056 6 13 ing
- 1064
: 1072 4 13 of
: 1080 12 14  be
: 1096 2 11 ing
: 1104 12 9  lone
: 1120 16 8 ly.
- 1138
: 1154 4 13 Is
: 1162 4 13  this
: 1170 4 13  the
: 1178 4 13  feel
: 1186 6 13 ing
- 1194
: 1200 4 13 I
: 1208 12 14  need
: 1224 2 11  to
: 1232 10 9  walk
: 1248 16 8  with?
- 1266
: 1280 8 16 Tell
: 1290 2 13 ~
: 1298 2 13  me
: 1306 12 16  why
- 1320
: 1328 5 13 I
: 1338 5 17  can't
: 1346 2 13 ~
: 1354 2 13  be
: 1362 8 17  there
- 1372
: 1376 4 18 where
* 1384 4 20  you
* 1392 5 20  are
: 1400 10 18 ~
: 1413 2 16 ~
: 1418 5 13 ~!
- 1425
: 1456 5 13 There's
: 1466 2 14  some
: 1474 2 14 thing
: 1482 2 14  miss
: 1490 2 9 ing
- 1494
: 1498 2 9 in
: 1506 2 8  my
: 1514 14 11  heart.
- 1530
: 1664 10 8 Life
: 1680 2 5  goes
: 1688 16 8  on
- 1706
: 1712 2 6 as
: 1717 2 8  it
: 1722 10 9  ne
: 1738 2 11 ver
: 1746 20 8  ends.
- 1768
: 1792 12 9 Eyes
: 1810 2 6  of
: 1818 16 9  stone
- 1836
: 1842 4 6 ob
: 1850 12 9 serve
: 1866 4 11  the
: 1874 14 8  trends.
- 1890
: 1904 4 4 They
: 1914 12 8  ne
: 1930 2 9 ver
: 1938 1 6  say
: 1941 1 8 ~
: 1944 10 6 ~
- 1956
: 1968 4 2 fo
: 1978 12 6 re
: 1994 4 8 ver
: 2002 12 5  gaze.
: 2018 2 6  If
: 2025 2 8  on
: 2032 4 5 ly....
- 2038
: 2048 10 9 Guil
: 2064 2 6 ty
: 2072 14 9  roads
- 2088
: 2096 2 6 to
: 2101 2 8  an
: 2106 12 9  end
: 2122 2 11 less
: 2130 18 8  love.
- 2150
: 2176 4 9 There's
: 2184 4 9  no
: 2192 4 6  con
: 2202 12 9 trol.
- 2216
: 2224 2 6 Are
: 2229 2 8  you
: 2234 10 9  with
: 2250 2 11  me
: 2258 8 8  now
: 2269 2 6 ~
: 2274 2 4 ~?
- 2278
* 2288 6 4 Your
* 2298 4 16  e
: 2306 4 14 ~
: 2314 4 13 very
: 2322 2 11  wish
: 2328 16 9 ~
- 2346
: 2352 16 11 will
: 2376 2 13  be
: 2381 2 11 ~
: 2386 10 13  done.
: 2402 2 13  They
: 2409 2 15  tell
: 2416 5 16  me...
- 2423
: 2432 4 13 Show
: 2440 4 13  me
: 2448 4 13  the
: 2456 4 13  mean
: 2464 6 13 ing
- 2472
: 2480 4 13 of
: 2488 12 14  be
: 2504 2 11 ing
: 2512 10 9  lone
: 2528 16 8 ly!
- 2546
: 2562 4 13 Is
: 2570 4 13  this
: 2578 4 13  the
: 2586 4 13  feel
: 2594 5 13 ing
- 2601
: 2608 4 13 I
: 2616 12 14  need
: 2632 2 11  to
: 2640 10 9  walk
: 2656 14 8  with?
- 2672
: 2688 8 16 Tell
: 2698 2 13 ~
: 2706 2 13  me
: 2714 13 16  why
- 2729
: 2736 5 13 I
: 2746 5 17  can't
: 2754 2 13 ~
: 2762 2 13  be
: 2770 8 17  there
- 2780
: 2784 4 18 where
* 2792 4 20  you
* 2800 5 20  are
: 2808 10 18 ~
: 2821 2 16 ~
: 2826 5 13 ~!
- 2833
: 2864 5 13 There's
* 2874 4 18  some
: 2882 4 16 thing
: 2890 4 16  miss
: 2898 4 13 ing
- 2904
: 2906 4 18 in
: 2914 10 16  my....
- 2926
* 2954 10 15 There's
: 2970 2 8  no
: 2978 2 10 where
: 2986 2 11  to
: 2994 8 11  run.
- 3004
: 3010 4 8 I
: 3018 4 15  have
: 3026 8 13  no
: 3042 4 11  place
: 3050 4 10  to
: 3058 1 11  go
: 3062 1 10 ~
: 3066 5 8 ~.
- 3073
* 3078 10 15 Sur
* 3090 2 8 ~
: 3096 4 8 ren
: 3104 4 10 der
: 3112 4 11  my
: 3120 16 11  heart',
- 3138
: 3152 8 13 bo
: 3162 4 11 ~
: 3170 4 11 dy
: 3178 4 15  and
* 3186 16 15  soul!
- 3204
: 3208 2 11 How
: 3213 2 11  can
: 3217 2 11  it
: 3221 8 11  be
- 3231
: 3233 2 11 you're
: 3237 8 11  ask
: 3249 2 13 ing
: 3253 5 10  me
: 3265 2 10  to
: 3269 10 10  feel
- 3281
: 3285 1 15 the
: 3288 5 15  things
: 3298 2 15  you
: 3304 5 18  ne
: 3312 2 15 ver
- 3315
: 3317 5 20 show
: 3325 2 18 ~
* 3330 26 20 ~
: 3362 5 18 ~
: 3373 8 16 ~-
- 3383
: 3386 5 15 ~
: 3397 8 13 ~
: 3410 24 11 ~-
- 3435
: 3437 1 13 ~
: 3441 1 15 ~
: 3445 2 16 ~
: 3450 2 15 ~
: 3456 10 13 ~
* 3476 32 11 ~.
- 3510
* 3776 4 20 You
: 3784 4 18  are
: 3792 4 18  miss
: 3800 4 15 ing
: 3808 4 13  in
: 3816 10 11  my
- 3828
* 3834 37 15 heart
: 3874 1 13 ~
: 3878 1 11 ~
: 3882 4 10 ~.
- 3888
: 4000 4 20 Tell
: 4008 4 20  me
* 4016 10 20  why
- 4028
: 4032 4 20 can't
: 4040 4 20  I
* 4048 4 23  be
: 4056 4 22  there
: 4064 4 22  where
: 4072 4 20  you
: 4080 6 20  are!
- 4088
* 4096 4 15 Show
: 4104 4 15  me
: 4112 4 15  the
: 4120 4 15  mean
: 4128 6 15 ing
- 4136
: 4144 4 15 of
* 4152 12 16  be
: 4168 2 13 ing
: 4176 10 11  lone
: 4192 14 10 ly!
- 4208
: 4226 4 15 Is
: 4234 4 15  this
: 4242 4 15  the
: 4250 4 15  feel
: 4258 6 15 ing
- 4266
: 4272 4 15 I
: 4280 12 16  need
: 4296 2 13  to
: 4304 10 11  walk
: 4320 16 10  with?
- 4338
: 4352 8 18 Tell
: 4362 2 15 ~
: 4370 2 15  me
* 4378 12 18  why
- 4392
: 4400 5 15 I
: 4410 5 19  can't
: 4418 2 15 ~
: 4426 2 15  be
: 4434 8 19  there
- 4444
: 4448 4 20 where
* 4456 4 22  you
* 4464 5 22  are
: 4472 10 20 ~
: 4485 2 18 ~
: 4490 5 15 ~!
- 4497
: 4528 5 15 There's
: 4538 2 16  some
: 4546 2 16 thing
: 4554 2 16  miss
: 4562 2 11 ing
- 4566
: 4570 2 11 in
: 4578 2 10  my
: 4586 10 13  heart.
- 4598
: 4608 4 15 Show
: 4616 4 15  me
: 4624 4 15  the
: 4632 4 15  mean
: 4640 6 15 ing
- 4648
: 4656 4 15 of
: 4664 12 16  be
: 4680 2 13 ing
: 4688 10 11  lone
: 4704 21 10 ly!
- 4727
: 4738 4 15 Is
: 4746 4 15  this
: 4754 4 15  the
: 4762 4 15  feel
: 4770 6 15 ing
- 4778
: 4784 4 15 I
: 4792 12 16  need
: 4808 2 13  to
: 4816 10 11  walk
: 4832 14 10  with?
- 4848
: 4864 8 18 Tell
: 4874 2 15 ~
: 4882 2 15  me
: 4890 13 18  why
- 4905
: 4912 5 15 I
: 4922 5 19  can't
: 4930 2 15 ~
: 4938 2 15  be
: 4946 8 19  there
- 4956
: 4960 4 20 where
* 4968 4 22  you
* 4976 5 22  are
: 4984 10 20 ~
: 4997 2 18 ~
: 5002 5 15 ~!
- 5009
: 5040 5 15 There's
: 5050 2 16  someth
: 5058 2 16 ing
: 5066 2 16  miss
: 5074 2 11 ing
: 5082 2 11  in
: 5090 2 10  my
- 5094
* 5112 48 15 heart!
E