#TITLE:Get Down
#ARTIST:Backstreet Boys
#MP3:Backstreet Boys - Get Down.mp3
#VIDEO:Backstreet Boys - Get Down.avi
#COVER:Backstreet Boys - Get Down [CO].jpg
#BPM:451,8
#GAP:560
#ENCODING:UTF8
#LANGUAGE:English
#GENRE:Pop
#YEAR:1996
#CREATOR:pauldiddy
: 0 6 15 You're
: 10 4 15  the
: 18 8 15  one
: 32 6 15  for
: 42 16 13  me.
- 60
: 64 6 13 You're
: 74 4 13  my
: 82 8 13  ec
: 94 8 16 sta
: 108 16 15 sy.
- 126
: 128 6 15 You're
: 138 4 15  the
: 146 8 15  one
: 158 6 19  I
* 170 58 19  need.
- 230
: 330 2 15 Hey
* 334 22 20 ~,
: 364 8 20  yeah!
- 374
: 488 4 15 Get
: 498 12 15  down!
- 512
: 520 4 15 Get
: 530 12 15  down!
- 544
: 552 6 15 And
: 562 4 19  move
: 570 4 15  it
: 578 4 13  all
: 586 4 16  a
: 594 10 15 round!
- 606
: 616 4 15 Get
: 626 12 15  down!
- 640
: 648 4 15 Get
: 658 12 15  down!
- 672
: 680 6 15 And
: 690 4 19  move
: 698 4 15  it
: 706 4 19  all
: 714 4 22  a
: 722 4 22 round
: 730 8 20 ~!
- 740
: 760 6 15 Hey,
: 770 4 15  ba
: 778 2 15 by
: 784 6 15  love,
- 792
: 794 4 13 I
: 802 4 11  need
: 810 4 8  a
: 818 10 11  girl
: 830 6 13  like
: 842 16 13  you.
- 860
: 878 2 11 But
: 882 4 16  tell
: 890 4 15  me
: 898 4 13  if
: 906 4 11  you
* 914 8 18  feel
: 926 4 15  it,
: 938 8 13  too
: 950 2 11 ~
: 954 4 8 ~.
- 960
: 1018 4 15 I'm
: 1026 4 15  in
: 1034 2 14  de
: 1038 8 15 lu
: 1050 4 13 sion
- 1056
: 1058 4 11 e
: 1066 4 8 very
: 1074 4 11  mi
: 1082 2 8 nute,
: 1086 4 11  e
: 1094 2 8 very
: 1098 4 13  hour
: 1106 6 13 ~.
- 1114
: 1130 4 11 My
: 1138 4 16  heart
: 1146 4 15  is
: 1154 4 13  cry
: 1162 4 11 ing
: 1170 6 18  out
: 1182 6 20  for
* 1194 12 18  you
* 1210 4 20 ~.
- 1216
: 1274 4 16 I
: 1282 4 16  feel
: 1290 2 16  in
: 1294 8 16  heav
: 1306 4 15 en
- 1312
: 1314 4 13 when
: 1322 4 11  I
: 1330 4 11  look
: 1338 4 13  in
: 1346 4 15  your
: 1354 4 13  eyes
: 1362 20 11 ~.
- 1384
: 1402 4 8 I
: 1410 4 11  know
: 1418 4 8  that
: 1426 4 11  you
: 1434 4 13  are
: 1442 4 11  the
: 1450 4 18  one
: 1464 4 15  for
: 1472 24 13  me.
- 1498
: 1530 4 16 You
: 1538 4 16  drive
: 1546 2 16  me
: 1550 8 16  cra
: 1562 4 15 zy
- 1568
: 1570 4 13 'cuz
: 1578 4 11  you're
: 1586 4 11  one
: 1594 4 13  of
: 1602 4 15  a
: 1610 24 13  kind.
- 1636
: 1658 4 16 I
: 1666 4 16  want
: 1674 4 16  your
: 1682 4 16  lov
: 1690 4 15 in'
- 1696
: 1698 4 13 and
: 1706 4 11  I
: 1714 4 18  want
: 1722 2 15 ~
: 1730 4 18  it
: 1738 2 15 ~
- 1742
: 1746 4 18 right
: 1754 2 15 ~
* 1762 4 20  now!
: 1768 6 15  Get
: 1778 14 15  down!
- 1794
: 1800 4 15 Get
: 1810 12 15  down!
- 1824
: 1832 6 15 And
: 1842 4 19  move
: 1850 4 15  it
: 1858 4 13  all
: 1866 4 16  a
: 1874 10 15 round!
- 1886
: 1896 4 15 Get
: 1906 12 15  down!
- 1920
: 1928 4 15 Get
: 1938 12 15  down!
- 1952
: 1960 6 15 And
: 1970 4 19  move
: 1978 4 15  it
: 1986 4 19  all
: 1994 4 22  a
: 2002 4 22 round
: 2010 8 20 ~!
- 2020
: 2024 4 15 Get
: 2034 12 15  down!
- 2048
: 2056 4 15 Get
: 2066 12 15  down!
- 2080
: 2088 6 15 And
: 2098 4 19  move
: 2106 4 15  it
: 2114 4 13  all
: 2122 4 16  a
: 2130 10 15 round!
- 2142
: 2152 4 15 Get
: 2162 12 15  down!
- 2176
: 2184 4 15 Get
: 2194 12 15  down!
- 2208
: 2216 6 15 And
: 2226 4 19  move
: 2234 4 15  it
: 2242 4 19  all
: 2250 4 22  a
* 2258 8 23 round
* 2274 8 22 ~!
- 2284
: 2298 4 15 Oh,
: 2306 4 15  ba
: 2314 4 15 by,
: 2322 6 15  you're
: 2334 6 15  so
: 2346 12 13  fine.
- 2360
: 2362 4 13 I'm
: 2370 4 13  gon
: 2378 4 13 na
: 2386 4 13  make
: 2398 4 16  you
: 2410 12 15  mine!
- 2424
: 2426 4 15 Your
: 2434 4 15  lips
: 2442 4 15  they
: 2450 6 15  taste
: 2462 6 15  so
: 2474 52 13  sweet.
- 2528
: 2562 6 15 You're
: 2572 4 15  the
: 2580 8 15  one
: 2594 6 15  for
: 2604 16 13  me.
- 2622
: 2626 6 13 You're
: 2636 4 13  my
: 2644 8 13  ec
: 2656 8 16 sta
: 2668 16 15 sy.
- 2686
: 2688 6 15 You're
: 2698 4 15  the
: 2706 8 15  one
: 2720 6 19  I
* 2732 58 19  need!
- 2792
: 2802 4 14 Bang,
: 2810 4 14  bang,
: 2818 4 14  bang!
- 2824
: 2826 2 14 Here
: 2830 2 14  we
: 2834 4 14  come,
: 2842 2 14  here
: 2846 2 14  we
: 2850 4 14  slam.
- 2856
: 2858 2 14 It's
: 2862 2 14  the
: 2866 4 14  fun
: 2874 2 14 fac
: 2878 2 14 to
: 2882 4 14 ry
- 2888
: 2890 2 14 with
: 2894 2 14  the
: 2898 2 14  B
: 2902 2 14 S
: 2906 4 14 B's.
- 2912
: 2914 2 14 All
: 2918 2 14  the
: 2922 2 14  girls,
: 2926 2 14  get
: 2930 2 14  on
: 2934 2 14  your
: 2938 4 14  knees.
- 2944
: 2946 2 14 Tryin'
: 2950 2 14  to
: 2954 2 14  scream
: 2958 2 14  or
: 2962 2 14  touch
: 2966 2 14  me,
: 2970 4 14  please.
- 2976
: 2978 4 14 Back
: 2984 2 14 street
: 2990 4 14  Boys,
: 2998 2 14  are
: 3002 4 14  you
: 3010 4 14  with
: 3018 4 14  it?
- 3024
: 3026 4 11 A.
: 3034 4 11 J.,
: 3042 4 11  hit
: 3050 4 11  it!
- 3056
: 3060 2 9 Come
: 3064 4 9  on
: 3072 4 9  girl
: 3080 2 9  and
: 3084 4 9  get
: 3092 12 9  down!
- 3106
: 3122 4 13 Smack
: 3128 2 13  it
: 3132 4 13  up,
: 3140 2 13  flip
: 3144 4 13  it
- 3150
: 3152 2 13 and
: 3156 2 13  move
: 3160 2 13  it
: 3164 2 13  all
: 3168 2 13  a
: 3172 12 13 round!
- 3186
: 3196 2 13 Here
: 3200 2 13  it
: 3204 4 13  is
- 3210
: 3212 2 13 if
: 3216 2 13  you
: 3220 2 13  wan
: 3224 2 13 na
: 3228 2 13  get
: 3234 4 13  with
: 3242 4 13  this.
- 3248
: 3250 2 13 Put
: 3254 2 13  you
: 3258 2 13  on
: 3262 2 13  the
: 3266 2 13  top
: 3270 2 13  of
: 3274 4 13  my
: 3282 8 13  list.
- 3292
: 3302 12 13 Uh!
- 3316
: 3322 4 16 I
: 3330 4 16  feel
: 3338 2 16  in
: 3342 8 16  heav
: 3354 4 15 en
- 3360
: 3362 4 13 when
: 3370 4 11  I
: 3378 4 11  look
: 3386 4 13  in
: 3394 4 15  your
: 3402 8 13  eyes
: 3414 2 11 ~
: 3418 4 8 ~.
- 3424
: 3450 4 8 I
: 3458 4 11  know
: 3466 4 8  that
: 3474 4 11  you
: 3482 4 13  are
: 3490 4 11  the
: 3498 4 18  one
: 3514 4 15  for
: 3522 12 13  me.
- 3536
: 3546 12 11 Yes
: 3562 4 8 ~!
- 3568
: 3578 4 16 You
: 3586 4 16  drive
: 3594 2 16  me
: 3598 8 16  cra
: 3610 4 15 zy
- 3616
: 3618 4 13 'cuz
: 3626 4 11  you're
: 3634 4 11  one
: 3642 4 13  of
: 3650 4 15  a
: 3658 8 13  kind
: 3670 2 11 ~
: 3674 4 8 ~.
- 3680
: 3706 4 16 I
: 3714 4 16  want
: 3722 4 16  your
: 3730 4 16  lov
: 3738 4 15 in'
- 3744
: 3746 4 13 and
: 3754 4 11  I
: 3762 6 18  want
: 3778 6 18  it
: 3794 6 18  right
: 3810 4 20  now!
- 3816
: 3818 4 15 Get
: 3828 12 15  down!
- 3842
: 3850 4 15 Get
: 3860 12 15  down!
- 3874
: 3882 6 15 And
: 3892 4 19  move
: 3900 4 15  it
: 3908 4 13  all
: 3916 4 16  a
: 3924 12 15 round!
- 3938
: 3946 4 15 Get
: 3956 12 15  down!
- 3970
: 3978 4 15 Get
: 3988 12 15  down!
- 4002
: 4010 6 15 And
: 4020 4 19  move
: 4028 4 15  it
: 4036 4 19  all
: 4044 4 22  a
* 4052 4 22 round
: 4060 8 20 ~!
- 4070
: 4074 4 15 Get
: 4084 12 15  down!
- 4098
: 4106 4 15 Get
: 4116 12 15  down!
- 4130
: 4138 6 15 And
: 4148 4 19  move
: 4156 4 15  it
: 4164 4 13  all
: 4172 4 16  a
: 4180 12 15 round!
- 4194
: 4202 4 15 Get
: 4212 12 15  down!
- 4226
: 4234 4 15 Get
: 4244 12 15  down!
- 4258
: 4266 6 15 And
: 4276 4 19  move
: 4284 4 15  it
: 4292 4 19  all
: 4300 4 22  a
* 4308 8 23 round
* 4324 8 22 ~!
- 4334
: 4348 4 15 Oh,
: 4356 4 15  ba
: 4364 4 15 by
: 4372 6 15  you're
: 4384 6 15  so
: 4396 12 13  fine.
- 4410
: 4412 4 13 I'm
: 4420 4 13  gon
: 4428 4 13 na
: 4436 4 13  make
: 4448 4 16  you
: 4460 12 15  mine!
- 4474
: 4476 4 15 Your
: 4484 4 15  lips
: 4492 4 15  they
: 4500 6 15  taste
: 4512 6 15  so
: 4524 56 13  sweet.
- 4582
: 4610 6 15 You're
: 4620 4 15  the
: 4628 8 15  one
: 4642 6 15  for
: 4652 16 13  me!
- 4670
: 4674 6 13 You're
: 4684 4 13  my
: 4692 8 13  ec
: 4704 8 16 sta
: 4716 16 15 sy!
- 4734
: 4736 6 15 You're
: 4746 4 15  the
: 4754 8 15  one
: 4768 6 19  I
* 4780 60 19  need!
- 4842
: 4858 4 16 I
: 4866 4 16  feel
: 4874 4 16  in
: 4882 6 16  heav
: 4892 2 15 en
: 4898 4 13  when
: 4906 6 11  I
: 4916 4 11  look
: 4924 4 13  in
: 4932 4 15  your
: 4940 24 13  eyes.
- 4966
: 4984 8 8 I
: 4996 4 11  know
: 5004 4 8  that
: 5012 4 11  you
: 5020 4 13  are
: 5028 4 11  the
: 5036 4 18  one
: 5048 4 15  for
: 5058 8 13  me
: 5070 4 15 ~.
- 5076
: 5086 4 11 Yeah
: 5094 4 8 ~!
- 5100
: 5114 4 16 You
: 5122 4 16  drive
: 5130 4 16  me
: 5138 4 16  cra
: 5148 4 15 zy
- 5154
: 5156 4 13 'cuz
: 5163 4 11  you're
: 5172 4 11  one
: 5180 4 13  of
: 5188 4 15  a
: 5196 24 13  kind.
- 5222
: 5242 4 15 I
: 5250 4 15  want
: 5258 4 15  your
: 5266 4 16  lov
: 5274 4 15 in',
: 5282 4 14  ba
: 5290 4 15 by,
- 5296
: 5306 4 15 and
: 5314 8 15  I
: 5330 4 18  want
: 5338 4 15  it...
- 5344
: 5348 4 15 Oh
: 5356 4 13 ~,
: 5364 4 20  whoa
: 5372 4 15 ~,
: 5380 4 13  whoa
: 5388 4 15 ~,
: 5396 4 13  whoa
: 5404 4 15 ~.
- 5410
: 5420 10 16 Whoa,
: 5436 4 15  oh,
: 5444 4 13  whoa
: 5452 4 15 ~,
: 5460 4 13  whoa
: 5468 4 15 ~.
- 5474
: 5484 4 15 Oh,
: 5492 4 20  whoa
: 5500 4 15 ~,
: 5508 4 13  whoa
: 5516 4 15 ~,
: 5524 4 13  whoa
: 5532 4 15 ~.
- 5538
: 5548 10 16 Whoa,
: 5564 4 15  oh,
: 5572 4 13  whoa
: 5580 4 15 ~,
: 5588 4 13  whoa
: 5596 4 15 ~.
- 5602
: 5612 4 15 Oh,
: 5620 4 20  whoa
: 5628 4 15 ~,
: 5636 4 13  whoa
: 5644 4 15 ~,
: 5652 4 13  whoa
: 5660 4 15 ~.
- 5666
: 5676 10 16 Whoa,
: 5692 4 15  oh
: 5700 4 13  whoa
: 5708 4 15 ~,
: 5716 4 13  whoa
: 5724 4 15 ~.
- 5730
: 5740 4 15 Oh,
: 5748 4 20  whoa
: 5756 4 15 ~,
: 5764 4 13  whoa
: 5772 4 15 ~,
: 5780 4 13  whoa
: 5788 4 15 ~.
- 5794
: 5804 10 16 Whoa,
: 5820 4 15  oh,
: 5828 4 13  whoa
: 5836 4 15 ~,
: 5844 4 13  whoa
: 5852 4 15 ~.
- 5858
: 5890 6 15 You're
: 5900 4 15  the
: 5908 8 15  one
: 5922 6 15  for
: 5932 16 13  me!
- 5950
: 5954 6 13 You're
: 5964 4 13  my
: 5972 8 13  ec
: 5984 8 16 sta
: 5996 16 15 sy!
- 6014
: 6016 6 15 You're
: 6026 4 15  the
: 6034 8 15  one
: 6048 6 19  I
* 6058 58 19  need.
- 6118
: 6122 4 15 Get
: 6132 12 15  down!
- 6146
: 6154 4 15 Get
: 6164 12 15  down!
- 6178
: 6186 6 15 And
: 6196 4 19  move
: 6204 4 15  it
: 6212 4 13  all
: 6220 4 16  a
: 6228 12 15 round!
- 6242
: 6250 4 15 Get
: 6260 12 15  down!
- 6274
: 6282 4 15 Get
: 6292 12 15  down!
- 6306
: 6314 6 15 And
: 6324 4 19  move
: 6332 4 15  it
: 6340 4 19  all
: 6348 4 22  a
* 6356 8 23 round
* 6370 6 22 ~!
- 6378
: 6380 4 15 Get
: 6390 12 15  down!
- 6404
: 6410 4 15 Get
: 6420 12 15  down!
- 6434
: 6458 6 19 And
: 6468 4 19  move
: 6476 4 20  it
* 6484 4 22  all
: 6492 4 20  a
: 6500 4 20 round!
- 6506
: 6508 4 15 Get
: 6518 12 15  down!
- 6532
: 6540 4 15 Get
: 6550 12 15  down!
- 6564
: 6586 6 19 And
: 6596 4 19  move
: 6604 4 20  it
: 6612 4 22  all
: 6620 4 20  a
: 6628 4 20 round!
- 6634
: 6636 4 15 Get
: 6646 12 15  down!
- 6660
: 6668 4 15 Get
: 6678 12 15  down!
- 6692
: 6716 4 19 And
: 6724 4 19  move
: 6732 4 20  it
: 6740 4 22  all
: 6748 4 20  a
: 6756 4 20 round!
- 6762
: 6764 4 15 Get
: 6774 12 15  down!
- 6788
: 6796 4 15 Get
: 6806 12 15  down!
- 6820
: 6828 4 20 Get
: 6838 10 19  down!
- 6850
: 6852 4 15 Get
: 6860 4 14  down
: 6868 4 15 ~
: 6876 4 16 ~
: 6884 12 15 ~!
- 6898
: 6900 4 19 Yeah
: 6908 12 20 ~!
E