#TITLE:Dreh Dich Um Und Geh
#ARTIST:Beatplanet
#LANGUAGE:Deutsch
#EDITION:Singstar - Deutsch Rock-Pop 2
#MP3:Beatplanet - Dreh Dich Um Und Geh.mp3
#COVER:Beatplanet - Dreh Dich Um Und Geh [CO].jpg
#BACKGROUND:Beatplanet - Dreh Dich Um Und Geh [BG].jpg
#BPM:266,00
#GAP:13139,10
: 0 3 52 Dreh
: 4 3 52  dich
: 8 3 50  um
: 13 5 50  und
: 21 5 49  geh
- 28 44
: 64 3 57 Mäd
: 69 2 55 chen
: 72 3 57  ich
: 76 3 57  will
: 80 2 59  nicht
: 84 3 57  mehr
- 88
: 89 9 62 Dein
* 101 9 61  sein
- 112 113
: 128 3 64 Dreh
: 132 3 64  dich
: 136 3 62  um
: 140 5 64  und
: 148 10 61  geh
- 160 172
: 192 3 57 Ich
: 196 2 55  will
: 200 2 57  viel
: 204 3 57  lie
: 208 3 59 ber
- 212
: 212 3 57 Al
: 216 10 62 lein
: 229 10 61  sein
- 241 252
: 272 2 45 Uns
: 276 3 45 're
: 280 3 54  Lie
: 284 3 54 be
: 288 3 54  ha
: 292 3 54 be
- 296
: 296 5 57 Ich
: 304 4 57  ver
: 308 4 56 un
: 316 6 52 treut
- 324
: 332 3 52 Das
: 336 2 54  wä
: 340 3 52 re
: 344 5 57  nicht
- 350
: 352 6 57 So
: 360 3 54  schlimm
: 364 3 54  hätt
: 368 2 57  ich
: 372 3 57  es
- 376
: 376 6 60 Je
: 384 2 59  be
: 388 7 57 reut
- 397
: 400 6 57 Drum
* 408 23 59  dreh
: 432 5 61  dich
- 438
: 439 3 56 Um
: 442 2 57 ~
: 444 2 58 ~
: 446 1 59 ~
: 447 1 60 ~
: 448 1 61 ~
: 449 1 62 ~
: 450 2 64 ~
: 452 2 65 ~
: 454 2 66 ~
: 457 3 71 ~
- 462
: 464 3 54 Und
: 468 7 57  geh
- 477 492
: 512 3 64 Dreh
: 516 3 64  dich
: 520 3 62  um
: 524 6 64  und
: 532 11 61  geh
- 545 556
: 576 4 57 Und
: 580 3 55  ge
: 584 2 57 denk
: 588 3 57  der
: 592 3 59  schö
: 596 3 57 nen
: 601 9 62  Stun
: 613 12 61 den
- 627 628
: 640 3 64 Dreh
: 644 3 64  dich
: 648 3 62  um
: 652 6 64  und
: 660 8 61  geh
- 670 684
: 704 2 57 Ich
: 708 2 55  hab
: 712 3 57  mei
: 716 3 57 nen
: 720 3 59  Weg
: 724 3 57  ge
: 729 10 62 fun
: 741 11 61 den
- 754 768
: 788 3 45 Er
: 792 3 54  führt
: 796 2 54  mich
: 800 2 54  in
: 804 2 54  den
- 807
: 808 6 57 Schoss
: 816 3 57  der
: 820 3 56  Frau
: 824 9 52 en
- 835 836
: 844 3 52 Dort
: 848 3 54  werd'
: 852 3 52  ich
: 856 6 57  mich
- 863
: 864 6 57 Sorg
: 872 7 54 fäl
: 880 7 57 tig
* 896 6 60  um
: 904 3 57 schau
: 907 3 57 en
- 911
: 912 7 57 Drum
: 920 16 59  dreh
: 944 5 61  dich
- 950
: 952 3 56 Um
: 955 2 57 ~
: 957 2 58 ~
: 959 1 59 ~
: 960 1 60 ~
: 961 1 61 ~
: 962 1 62 ~
: 963 2 64 ~
: 965 2 65 ~
: 967 2 68 ~
: 969 6 69 ~
- 976
: 976 4 69 Und
* 981 40 69  geh
- 1023 1032
: 1052 2 55 Ich
: 1056 2 55  hab
: 1060 3 55  dich
: 1064 3 55  nie
: 1068 3 55  wirk
: 1072 3 55 lich
- 1076
: 1076 3 55 Ge
: 1080 3 59 liebt
: 1084 5 59  mein
: 1092 7 55  Schatz
- 1101 1102
: 1116 3 54 In
: 1120 3 54  mei
: 1124 4 52 nem
: 1128 3 54  Bett
- 1132
: 1132 4 54 Fan
: 1136 3 54 den
: 1140 2 54  auch
: 1144 2 59  an
: 1148 4 59 d're
: 1156 6 54  Platz
- 1164 1165
: 1180 4 54 Schluss
: 1188 3 54  mit
: 1192 4 57  Schna
: 1196 5 54 cken
- 1203 1204
: 1212 2 53 Ich
: 1216 3 53  helf
: 1220 3 53  dir
* 1224 3 57  pa
: 1228 4 53 cken
- 1234 1235
: 1244 3 52 Und
: 1248 3 52  dann
: 1252 3 50  mach
: 1256 3 52  kehrt
: 1260 3 52  auf
- 1264
: 1264 4 52 Dei
: 1268 3 52 nem
: 1272 2 56  Schuh
: 1276 4 56 ab
: 1284 4 59 satz
: 1288 6 57 ~
- 1296 1297
: 1308 3 55 Wir
: 1312 2 55  müs
: 1316 2 55 sen
: 1320 3 55  schei
: 1324 2 55 den
- 1327
: 1328 2 55 Denn
: 1332 2 55  ich
: 1336 3 59  hab
: 1341 3 59  er
: 1348 8 55 kannt
- 1358 1359
: 1372 5 54 Mich
: 1380 2 52  braucht
: 1384 3 54  je
: 1388 3 54 de
: 1392 2 54  Frau
: 1396 3 52  in
- 1400
: 1400 2 54 Die
: 1405 5 54 sem
: 1412 6 59  Land
: 1420 7 57 ~
: 1428 5 54 ~
- 1434
: 1436 3 54 Ich
: 1442 3 54  schreib
: 1448 4 57  Sin
: 1452 5 54 gle
- 1459 1460
: 1468 3 53 An
: 1472 2 53  mei
: 1476 3 53 ne
: 1480 3 57  Klin
: 1484 6 53 gel
- 1491
: 1492 3 45 Denn
: 1496 3 56  le
: 1500 4 47 dig
- 1506
F 1509 2 36 Ist
F 1513 3 36  sein
F 1517 19 36  Familienstand
- 1538 1960
: 1980 2 59 Ich
: 1984 2 59  hab
: 1988 3 59  dich
: 1992 3 59  nie
: 1996 3 59  wirk
: 2000 3 59 lich
- 2004
: 2004 3 59 Ge
: 2008 3 62 liebt
* 2013 4 64  mein
: 2021 7 59  Schatz
- 2030 2031
: 2044 2 59 In
: 2048 3 59  mei
: 2052 2 57 nem
: 2056 2 59  Bett
- 2059
: 2060 4 59 Fan
: 2064 3 59 den
: 2068 2 59  auch
: 2072 2 62  an
: 2076 4 62 d're
: 2084 7 59  Platz
- 2093 2094
: 2108 4 57 Schluss
: 2115 3 57  mit
: 2120 2 62  Schna
: 2124 7 57 cken
- 2133
: 2140 3 57 Ich
: 2144 2 57  helf
: 2148 3 57  dir
: 2152 2 62  pa
: 2156 7 57 cken
- 2165
: 2172 2 52 Und
: 2176 2 52  dann
: 2180 2 50  mach
: 2184 2 52  kehrt
: 2188 3 52  auf
- 2192
: 2192 4 52 Dei
: 2196 3 52 nem
: 2200 2 56  Schuh
: 2204 5 56 ab
: 2212 4 59 satz
* 2216 8 57 ~
- 2226 2227
: 2236 2 59 Wir
: 2240 3 59  müs
: 2244 3 57 sen
: 2248 3 59  schei
: 2252 3 59 den
- 2256
: 2256 2 59 Denn
: 2260 3 59  ich
: 2264 3 62  hab
: 2268 4 59  er
* 2276 7 66 kannt
: 2284 2 65 ~
: 2286 6 66 ~
: 2292 2 64 ~
: 2294 4 66 ~
- 2299
: 2300 5 66 Mich
: 2306 4 66  braucht
: 2312 3 64  je
: 2316 3 62 de
: 2320 3 59  Frau
: 2324 4 62  in
- 2330
: 2332 3 66 Die
: 2336 3 64 sem
: 2340 4 66  Land
: 2348 5 69 ~
: 2356 7 66 ~
- 2364
: 2364 4 66 Ich
: 2370 4 66  schreib
: 2376 2 64  Sin
: 2380 6 62 gle
- 2388
: 2396 2 62 An
: 2400 2 62  mei
: 2404 2 62 ne
: 2408 2 65  Klin
: 2412 7 62 gel
- 2420
: 2420 4 55 Denn
: 2424 4 62  le
: 2428 5 59 dig
- 2435
F 2440 5 36 Isser
- 2447 2448
F 2456 4 36 Bin
F 2460 7 36  ich
- 2469
F 2472 7 36 Ahh
- 2481
F 2485 3 36 Hey
F 2488 5 36  Puppe
- 2494
F 2494 2 36 Du
F 2496 3 36  musst
F 2500 3 36  jetzt
F 2504 3 36  stark
F 2508 3 36  sein
- 2512
F 2512 3 36 Lass
F 2515 2 36  dir
F 2517 5 36  gesagt
F 2523 2 36  sein
- 2526
F 2526 2 36 Das
F 2528 6 36  Leben
F 2534 2 36  kann
F 2536 2 36  fies
- 2539
F 2539 3 36 Und
F 2542 5 36  vertrackt
F 2548 3 36  sein
- 2552
F 2552 3 36 Nimm
F 2555 3 36  jetzt
F 2558 2 36  dein
F 2560 6 36  Sparschwein
- 2567
F 2567 3 36 Miet
F 2570 3 36  dir
F 2573 3 36  ne
F 2576 7 36  eigene
F 2584 7 36  Wohnung
- 2592
F 2594 1 36 Und
F 2595 1 36  die
F 2596 11 36  Betonung
- 2608
F 2608 4 36 Liegt
F 2612 4 36  auf
F 2616 11 36  eigene
- 2628
F 2628 4 36 Also
F 2632 2 36  nich'
F 2634 2 36  mit
F 2637 5 36  mir
- 2643
F 2645 3 36 Ich
F 2648 3 36  zähl
F 2651 2 36  jetzt
F 2653 3 36  bis
F 2656 2 36  Zehn
- 2659
F 2659 2 36 Dann
F 2661 2 36  bist
F 2663 2 36  du
F 2665 2 36  nich'
F 2667 2 36  mehr
F 2669 4 36  hier
- 2674
F 2675 2 36 Und
F 2677 2 36  in
F 2680 3 36  zwei
F 2683 4 36  drei
F 2687 3 36  Jahren
F 2690 2 36  tuts
- 2693
F 2693 3 36 Auch
F 2696 4 36  nich'
F 2700 2 36  mehr
F 2702 3 36  weh
- 2706
F 2708 4 36 Drum
F 2712 5 36  dreh
F 2718 6 36  dich
F 2725 4 36  um
F 2732 3 36  und
F 2736 7 36  geh
- 2745
: 2752 2 69 Dreh
: 2756 2 69  dich
: 2760 3 69  um
: 2764 5 69  und
: 2772 11 69  geh
- 2785 2796
: 2816 3 61 Mäd
: 2820 3 61 chen
: 2824 3 62  ich
: 2828 2 62  will
: 2832 2 62  nicht
: 2836 3 64  mehr
- 2840
: 2840 5 61 Dein
: 2845 6 57 ~
: 2852 4 57  sein
: 2856 11 55 ~
- 2869 2870
: 2880 3 64 Dreh
: 2884 3 64  dich
: 2888 3 62  um
: 2892 5 64  und
: 2900 12 69  geh
- 2914 2924
: 2944 3 57 Ich
: 2948 3 55  will
: 2952 2 57  viel
: 2956 2 57  lie
: 2960 2 59 ber
- 2963
: 2964 3 57 Al
* 2968 10 62 lein
: 2980 15 61  sein
- 2997 2998
: 3024 2 45 Uns
: 3028 3 45 're
: 3032 2 54  Lie
: 3036 2 54 be
: 3040 2 54  ha
: 3044 3 54 be
- 3048
: 3048 5 57 Ich
: 3056 3 61  ver
: 3060 5 61 un
: 3068 10 59 treut
- 3080
: 3084 3 57 Das
: 3088 2 59  wä
: 3092 3 57 re
: 3096 4 62  nicht
: 3102 4 61  so
: 3108 7 57  schlimm
- 3116
: 3116 2 54 Hätt
: 3120 3 54  ich
: 3124 2 57  es
: 3128 4 60  je
: 3134 4 60  be
: 3140 10 57 reut
- 3151
: 3152 4 57 Drum
: 3160 21 59  dreh
: 3184 5 61  dich
- 3190
: 3192 5 57 Um
: 3197 2 58 ~
: 3199 1 59 ~
: 3200 2 60 ~
: 3202 1 62 ~
: 3203 1 63 ~
: 3204 1 64 ~
: 3205 1 65 ~
: 3206 1 66 ~
: 3207 1 67 ~
: 3208 7 69 ~
- 3216
: 3216 4 69 Und
: 3220 49 69  geh
- 3271
: 3279 4 57 Dreh
: 3283 4 55  dich
: 3288 8 57  um
- 3298 3299
: 3312 4 57 Dreh
: 3316 4 55  dich
* 3320 8 57  um
- 3330 3331
: 3344 4 61 Dreh
: 3348 4 59  dich
: 3352 8 61  um
- 3362 3363
: 3376 3 61 Dreh
: 3380 4 59  dich
: 3384 12 61  um
- 3398 3399
: 3408 3 64 Dreh
: 3412 4 62  dich
: 3416 10 64  um
- 3428 3429
: 3440 3 64 Dreh
: 3444 4 62  dich
: 3448 12 64  um
- 3462 3463
: 3472 3 64 Dreh
: 3476 4 62  dich
: 3480 11 64  um
- 3493 3494
: 3504 4 64 Dreh
: 3508 3 62  dich
: 3512 8 64  um
: 3520 8 62 ~
: 3528 6 60 ~
- 3535
: 3536 3 57 Und
: 3540 4 57  geh
E
