#TITLE:Stand by me
#ARTIST:Ben E. King
#LANGUAGE:Englisch
#EDITION:[SC]-Songs
#MP3:Ben E. King - Stand by me.mp3
#COVER:Ben E. King - Stand by me [CO].jpg
#BACKGROUND:Ben E. King - Stand by me [BG].jpg
#BPM:248
#GAP:15420
: 1 2 13 When
: 5 2 16  the
: 9 3 18  night
- 14
: 38 2 13  has
: 43 3 16  come
- 48
: 91 2 9 and
: 94 2 11  the
: 97 4 13  land
: 103 3 11  is
: 111 4 9  dark
- 117
: 135 2 9 and
: 138 2 11  the
: 142 2 13  moon
: 145 2 9 ~
- 149
: 167 2 9 is
: 171 3 13  the
: 175 3 11  on
: 179 3 9 ~
: 184 3 11 ly
- 189
: 201 2 11 light
: 205 6 11  we'll
: 213 2 9  see.
- 217
: 266 2 13 No,
: 270 3 16  I
* 275 3 18  won't
- 280
: 300 2 13 be
: 303 3 16  a
: 308 4 18 fraid.
- 314
: 324 2 13 Oh,
: 328 2 13  I
: 332 2 11 ~
: 336 2 9 ~
: 340 2 9 ~
: 343 2 11 ~
: 346 4 13  won't
- 352
: 366 2 11 be
: 370 4 11  a
: 379 4 9 fraid,
- 385
: 400 2 9 just
: 404 2 11  as
: 408 1 13  long
: 410 1 11 ~
: 412 1 9 ~
- 415
: 432 2 9 as
: 436 2 13  you
: 441 2 11  stand
: 444 3 9 ~ ,
- 449
: 466 2 13 stand
: 470 3 11  by
: 474 4 9 ~
: 483 2 9  me.
- 487
: 507 2 18 So
: 511 3 18  darl
: 515 3 16 ~
: 519 3 16 ing,
* 528 5 21  Darl
: 536 3 20 ing
: 545 2 18  stand
: 548 3 16 ~
: 552 3 18 ~
- 557
: 567 6 18 by
: 575 2 16  me
: 578 2 18 ~ !
- 582
: 592 6 18 Oh
: 600 3 16 ~,
: 609 2 13 stand
: 612 2 11 ~
: 615 2 9 ~
: 618 3 13 ~
- 623
: 633 3 11 by
: 637 1 11 ~
: 639 3 9 ~
: 646 3 9 me!
- 651
* 666 8 13 Oh,
: 679 2 11  stand
: 683 4 9 ~ ,
- 689
: 720 3 13 stand
: 725 3 11  by
: 729 2 9 ~
: 734 2 9  me!
- 738
: 754 2 13 Stand
: 758 3 11  by
: 762 5 9 ~
: 771 3 9 me!
- 776
: 799 2 13 If
: 804 2 16  the
* 809 4 18  sky,
- 815
: 834 2 13 that
: 837 2 16  we
: 840 2 16  look
: 843 2 18  up
: 846 6 16 on
: 854 3 18 ~ ,
- 859
: 891 2 9 should
: 895 2 13  tum
: 899 2 13 ble
: 904 4 11  and
: 912 5 9  fall
- 919
: 934 2 9 or
: 938 2 11  the
: 942 3 13  moun
: 948 1 11 tain
: 950 3 9 ~
- 955
: 975 2 13 should
: 980 2 13  crum
: 984 2 11 ble
: 988 5 9 ~
- 995
: 1001 2 9 to
: 1005 3 11  the
: 1013 3 9  sea,
- 1018
: 1067 3 13 I
: 1072 2 16  won't
: 1077 4 18  cry.
- 1083
: 1102 2 13 I
* 1106 3 18  won't
: 1112 3 18  cry.
- 1117
: 1126 2 18 No,
: 1130 4 18  I
: 1136 3 16 ~
: 1143 3 13 won't
: 1147 1 11 ~
: 1149 2 9 ~
: 1152 4 13 ~
- 1158
: 1168 2 11 shed
: 1172 5 11  a
: 1181 4 9  tear,
- 1187
: 1202 2 9 just
: 1206 2 11  as
: 1211 1 13  long
: 1213 1 11 ~
: 1215 4 9 ~
- 1221
: 1235 2 11 as
: 1239 2 13  you
: 1244 2 11  stand
: 1247 4 9 ~ ,
- 1253
: 1268 2 13 stand
: 1272 4 11  by
: 1277 3 9 ~
: 1285 3 9  me.
- 1290
: 1310 2 18 And
: 1314 3 18  darl
: 1318 3 16 ~
: 1322 2 16 ing,
: 1331 4 21  darl
: 1339 3 20 ing
: 1348 2 18  stand
: 1351 3 16 ~
: 1355 3 18 ~
- 1360
: 1369 6 18 by
: 1378 3 18  me!
- 1383
: 1395 6 18 Oh
: 1403 3 16 ~ ,
: 1412 2 13  stand
: 1415 2 11 ~
: 1419 4 13 ~
- 1425
: 1437 2 11 by
: 1440 1 12 ~
: 1442 2 11 ~
: 1444 2 9 ~
: 1449 2 11 me
: 1452 2 9 ~ !
- 1456
* 1469 4 18 Whoa,
: 1478 2 9  stand
: 1481 3 11 ~
: 1487 1 11 now
: 1489 4 9 ~ ,
- 1495
: 1524 2 13 stand
: 1528 3 11  by
: 1533 3 9 ~
: 1541 3 9  me!
- 1546
: 1557 2 13 Stand
: 1561 2 11  by
: 1565 3 9 ~
: 1573 3 9  me!
- 1578
: 2117 3 18 Darl
: 2121 3 16 ~
: 2125 3 16 ing,
* 2134 4 21  darl
: 2142 3 20 ing
: 2151 2 18  stand
: 2154 2 16 ~
: 2157 2 18 ~
- 2161
: 2172 7 18  by
: 2181 3 18  me!
- 2186
* 2198 6 18 Oh
: 2206 3 16 ~ ,
: 2214 2 13  stand
: 2217 2 11 ~
: 2220 2 9 ~
: 2223 2 13 ~
- 2227
: 2238 4 11 by
: 2243 1 13 ~
: 2245 2 11 ~
: 2250 2 11  me
: 2253 2 9 ~ !
- 2257
: 2272 4 13 Oh,
: 2280 2 11  stand
: 2283 3 9 ~
: 2289 4 11  now,
- 2295
: 2313 3 13  stand
: 2318 1 11  by
: 2320 2 9 ~
: 2325 2 9  me!
- 2329
: 2347 2 13 Stand
: 2351 1 11  by
: 2353 2 9 ~
: 2358 2 9  me!
- 2362
: 2379 2 18 When
* 2383 2 18  ev
: 2387 2 16 er
: 2391 2 16  you're
* 2395 2 18  in
: 2400 2 16  trou
: 2404 2 18 ble,
- 2407
: 2409 2 16 won't
: 2412 2 18  you
: 2416 2 18  stand
: 2420 2 16 ~
: 2424 2 18 ~
- 2428
: 2438 6 18  by
: 2447 2 18  me?
E
