#TITLE:The Rose
#ARTIST:Bette Midler
#MP3:Bette Midler - The Rose.mp3
#COVER:Bette Midler - The Rose [CO].jpg
#BACKGROUND:Bette Midler - The Rose [BG].jpg
#BPM:264
#GAP:21180
#ENCODING:UTF8
#LANGUAGE:Englisch
#EDITION:[SC]-Songs
: 2 3 12 Some
: 10 5 14  say,
* 19 25 16  love,
: 62 6 16  it
: 70 10 17  is
: 83 3 16  a
: 89 3 16  ri
: 93 3 14 ~
: 98 18 14 ver,
- 118
: 145 5 14 that
: 154 27 12  drowns
: 197 3 12  the
: 204 8 14  ten
: 218 4 16 der
: 230 15 16  reed.
- 247
: 273 4 12 Some
: 282 3 14  say,
: 290 23 16  love,
: 332 7 16  it
: 341 9 17  is
: 353 3 16  a
: 358 3 16  ra
: 362 7 14 ~
: 375 14 14 zor,
- 391
: 418 6 14 that
: 427 33 12  leaves
: 469 3 12  your
: 478 9 14  soul
: 492 6 16  to
: 505 17 16  bleed.
- 524
: 546 4 16 Some
: 555 4 17  say,
* 564 21 19  love,
: 606 6 19  it
: 614 6 19  is
: 623 9 19  a
: 638 6 19  hun
: 650 18 12 ger,
- 670
: 692 7 16 an
: 701 35 17  end
: 744 4 16 less
: 752 9 14  a
: 766 5 12 ching
: 777 6 9  nee
: 785 24 7 ~d.
- 811
: 828 5 12 I
: 839 4 14  say,
: 849 18 16  love,
: 892 6 16  it
* 901 9 17  is
: 914 4 16  a
: 924 3 16  flo
: 928 5 14 ~
: 940 9 14 wer
- 951
: 976 9 14 and
: 990 20 12  you
: 1027 5 12  it's
: 1036 10 14  on
: 1050 3 12 ly
: 1057 50 12  seed.
- 1109
: 1168 5 12 It's
: 1176 3 14  the
: 1180 2 12 ~
: 1186 24 16  heart,
: 1228 4 16  a
: 1236 9 17 fraid
: 1248 3 16  of
: 1254 8 16  brea
: 1264 3 14 ~
: 1269 17 14 king,
- 1288
: 1309 5 12 that
: 1317 3 12  ne
: 1321 28 12 ver
: 1365 9 14  learns
: 1380 5 16  to
: 1390 14 16  dance.
- 1406
: 1430 3 12 It's
: 1437 3 14  the
: 1441 2 12 ~
* 1447 32 16  dream,
: 1487 4 16  a
: 1495 9 17 fraid
: 1507 7 16  of
: 1520 5 16  wa
: 1526 3 14 ~
: 1532 10 14 king,
- 1544
: 1567 4 14 that
: 1575 3 14  ne
: 1579 22 12 ver
: 1621 8 14  takes
: 1636 2 14  the
: 1639 3 16 ~
: 1647 10 16  chance.
- 1659
: 1688 4 16 It's
: 1695 3 17  the
: 1699 2 16 ~
* 1704 31 19  one,
: 1744 8 19  who
: 1757 8 19  won't
: 1768 9 19  be
: 1782 3 19  ta
: 1787 3 12 ~
: 1793 12 12 ken,
- 1807
: 1824 4 16 who
: 1833 33 17  can
: 1871 5 16  not
: 1882 7 14  seem
: 1893 3 12  to
: 1899 5 9  gi
: 1906 12 7 ~ve.
- 1920
: 1953 4 12 And
: 1962 3 14  the
: 1966 2 12 ~
: 1974 20 16  soul,
: 2011 4 16  a
: 2020 6 17 fraid
: 2028 4 16  of
: 2037 11 16  dy
: 2052 20 14 in',
- 2074
: 2091 4 14 that
: 2099 3 14  ne
: 2103 27 12 ver
: 2148 9 14  learns
: 2164 3 12  to
: 2170 62 12  live.
- 2234
: 2277 4 12 When
: 2285 3 14  the
: 2289 2 12 ~
* 2294 34 16  night
: 2333 4 16  has
: 2341 4 17  been
: 2349 4 16  to
: 2357 6 16  lo
: 2365 4 14 ~ne
: 2373 25 14 ly
- 2400
: 2404 8 14 and
: 2416 2 12  the
: 2420 27 12  road
: 2459 4 12  has
: 2466 6 14  been
: 2479 2 14  to
: 2482 5 16 ~
: 2490 15 16  long
- 2507
: 2529 5 14 and
: 2537 4 16  you
* 2545 31 16  think,
: 2584 5 16  that
: 2592 6 17  love
: 2601 4 16  is
: 2608 6 16  o
: 2616 3 14 ~n
: 2624 12 14 ly
- 2638
: 2655 7 14 for
: 2666 2 14  the
: 2670 3 14  lu
: 2674 37 12 cky
: 2716 7 14  and
: 2729 2 14  the
: 2732 3 16 ~
: 2741 13 16  strong.
- 2756
: 2781 6 16 Just
: 2793 3 17  re
: 2798 4 19 mem
: 2806 30 19 ber
: 2845 6 19  in
: 2857 2 19  the
: 2861 4 19  win
: 2869 11 12 ter,
- 2882
: 2909 7 16 far
: 2921 3 16  be
* 2926 14 17 neath
- 2942
: 2966 7 16 the
: 2978 3 14  bi
: 2982 3 12 tter
: 2990 4 9  sno
: 2996 17 7 ~ws,
- 3015
: 3050 12 12 lies
: 3067 3 14  the
: 3074 20 16  seed,
: 3113 5 16  that
: 3122 7 17  with
: 3132 3 16  the
: 3137 5 16  su
: 3145 4 14 ~n's
: 3153 15 14  love
- 3170
: 3185 6 14 in
: 3197 3 12  the
: 3202 22 12  spring
: 3243 4 12  be
: 3251 12 14 comes
: 3277 3 12  the
* 3283 56 12  rose.
E