#TITLE:Diva
#ARTIST:Beyoncé
#LANGUAGE:English
#GENRE:Pop
#YEAR:2008
#MP3:Beyoncé - Diva.mp3
#COVER:Beyoncé - Diva[CO].jpg
#VIDEO:Beyoncé - Diva.mp4
#PREVIEWSTART:19,984
#MEDLEYSTARTBEAT:0
#MEDLEYENDBEAT:498
#BPM:292,3
#GAP:12800
: 0 2 -4 I'm 
: 4 2 -2 a-
: 8 2 -4 a 
: 12 2 -2 di
: 16 4 -7 va
- 22
: 24 2 -4 I'm 
: 28 2 -2 a-
: 32 2 -4 I'm 
: 36 2 -2 a-
: 40 2 -4 a 
: 44 2 -2 di
: 48 4 -7 va
- 54
: 56 2 -4 I'm 
: 60 2 -2 a-
: 64 2 -4 I'm 
: 68 2 -2 a-
: 72 2 -4 a 
: 76 2 -2 di
: 80 4 -7 va
- 86
: 88 2 -4 I'm 
: 92 2 -2 a-
: 96 2 -4 I'm 
: 100 2 -2 a-
: 104 2 -4 a 
: 108 2 -2 di
: 112 4 -7 va
- 118
: 120 2 -4 I'm 
: 124 2 -2 a-
: 128 2 -4 I'm 
: 132 2 -2 a-
: 136 2 -4 a 
: 140 2 -2 di
: 144 4 -7 va
- 150
: 152 2 -4 I'm 
: 156 2 -2 a-
: 160 2 -4 I'm 
: 164 2 -2 a-
: 168 2 -4 a 
: 172 2 -2 di
: 176 4 -7 va
- 182
: 184 2 -4 I'm 
: 188 2 -2 a-
: 192 2 -4 I'm 
: 196 2 -2 a-
: 200 2 -4 a 
: 204 2 -2 di
: 208 4 -7 va
- 214
: 216 2 -4 I'm 
: 220 2 -2 a-
F 224 2 -4 I'm 
F 228 2 -2 a-
F 232 2 -4 a 
F 236 2 -2 di
F 240 4 -7 va
- 244
: 244 2 1 Na-
: 248 2 1 na-
: 252 2 1 na 
: 256 2 3 Di
: 260 2 3 va 
- 263
: 264 2 1 Is 
: 268 2 1 a 
: 272 2 3 fe
: 276 2 1 male 
: 280 2 1 ver
: 284 2 1 sion 
- 287
: 288 2 1 Of 
: 292 2 1 a 
: 296 6 3 hust
: 304 4 1 la
- 310
: 320 2 1 Of 
: 324 2 1 a 
: 328 6 3 hust
: 336 4 1 la
- 342
: 344 2 1 Of 
: 348 2 1 a-
: 352 2 1 of 
: 356 2 1 a 
: 360 6 3 hust
: 368 2 1 la
- 371
: 372 2 1 Na-
: 376 2 1 na-
: 380 2 1 na 
: 384 2 3 Di
: 388 2 3 va 
- 391
: 392 2 1 Is 
: 396 2 1 a 
: 400 2 3 fe
: 404 2 1 male 
: 408 2 1 ver
: 412 2 1 sion 
- 415
: 416 2 1 Of 
: 420 2 1 a 
: 424 6 3 hust
: 432 2 1 la
- 436
: 448 2 1 Of 
: 452 2 1 a 
: 456 6 3 hust
: 464 2 1 la
- 468
: 472 2 1 Of 
: 476 2 1 a-
: 480 2 1 of 
: 484 2 1 a 
: 488 6 3 hust
: 496 2 1 la
- 500
: 522 2 1 Stop 
: 526 2 1 the 
: 530 5 8 track
- 537
: 544 2 1 Let 
: 548 2 1 me 
: 552 4 1 state 
: 560 2 6 fa
: 564 4 8 ~cts
- 570
: 572 2 1 I 
: 576 2 1 told 
: 580 2 1 you 
: 584 2 1 give 
: 588 2 1 me 
: 592 2 1 a
- 595
: 596 2 1 Mi
: 600 2 1 nute 
: 604 2 1 and 
- 607
: 608 2 1 I'll 
: 612 2 1 be 
: 616 4 1 right 
: 624 6 8 back
- 631
: 632 2 1 Fif
: 636 2 1 ty 
: 640 2 8 mil
: 644 2 8 lion 
: 648 2 8 round 
: 652 2 8 the 
: 656 2 6 world 
- 659
: 660 2 6 And 
: 664 2 6 they 
: 668 2 3 said 
: 672 2 3 that 
- 675
: 676 2 3 I 
: 680 2 1 could
: 684 2 3 n't 
: 688 4 -4 get
- 694
: 696 2 1 I 
: 700 2 1 done 
: 704 2 8 got 
: 708 2 8 so 
: 712 2 8 sick 
: 716 2 8 and
- 719
: 720 2 6 Fil
: 724 2 6 thy 
: 728 2 6 with 
- 731
: 732 2 3 Ben
: 736 2 3 ji's 
: 740 2 3 I 
: 744 2 3 ca
: 748 2 6 ~n't 
: 752 4 -4 spend
- 758
: 760 2 1 How 
: 764 2 1 you 
: 768 2 1 gone 
- 771
: 772 2 1 Be 
: 776 2 1 tal
: 780 2 1 kin' 
: 784 4 13 shit?
- 789
: 790 1 1 You 
: 792 2 1 act 
: 796 2 1 like
- 799
: 800 2 1 I 
: 804 2 1 just 
: 808 2 1 got 
: 812 2 1 up 
: 816 2 13 in 
: 820 2 13 it
- 824
: 826 1 1 Been 
: 828 2 1 the 
: 832 2 1 num
: 836 2 1 ber 
: 840 2 1 one
- 844
: 848 2 1 Di
: 852 2 1 va 
: 856 2 1 in 
: 860 2 1 this 
: 864 6 1 game
- 871
: 872 2 1 For 
: 876 2 1 a 
: 880 2 13 mi
: 884 2 13 nute
- 888
: 892 2 8 I 
: 896 2 13 know 
: 900 2 13 you 
: 904 2 13 read 
: 908 2 13 the 
: 912 2 11 pa
: 916 2 11 per
- 919
: 920 2 11 The 
: 924 2 9 one 
: 928 2 9 that 
: 932 2 9 they 
: 936 2 9 call 
: 940 2 8 a 
: 944 6 8 queen
- 951
: 952 2 8 E
: 956 2 8 very 
: 960 2 13 ra
: 964 2 13 di
: 968 2 13 o 
- 971
: 972 2 10 Round 
: 976 2 10 the 
: 980 2 10 world 
: 984 2 11 know 
: 988 4 8 me
- 992
: 992 2 8 'Cause 
: 996 2 8 that's 
: 1000 2 8 where 
: 1004 2 8 I 
: 1008 6 8 be
- 1016
: 1024 2 -4 I'm 
: 1028 2 -2 a-
: 1032 2 -4 a 
: 1036 2 -2 di
: 1040 4 -7 va
- 1046
: 1048 2 -4 I'm 
: 1052 2 -2 a-
: 1056 2 -4 I'm 
: 1060 2 -2 a-
: 1064 2 -4 a 
: 1068 2 -2 di
: 1072 4 -7 va
- 1078
: 1080 2 -4 I'm 
: 1084 2 -2 a-
: 1088 2 -4 I'm 
: 1092 2 -2 a-
: 1096 2 -4 a 
: 1100 2 -2 di
: 1104 4 -7 va
- 1110
: 1112 2 -4 I'm 
: 1116 2 -2 a-
: 1120 2 -4 I'm 
: 1124 2 -2 a-
: 1128 2 -4 a 
: 1132 2 -2 di
: 1136 4 -7 va
- 1142
: 1144 2 -4 I'm 
: 1148 2 -2 a-
: 1152 2 -4 I'm 
: 1156 2 -2 a-
: 1160 2 -4 a 
: 1164 2 -2 di
: 1168 4 -7 va
- 1174
: 1176 2 -4 I'm 
: 1180 2 -2 a-
: 1184 2 -4 I'm 
: 1188 2 -2 a-
: 1192 2 -4 a 
: 1196 2 -2 di
: 1200 4 -7 va
- 1206
: 1208 2 -4 I'm 
: 1212 2 -2 a-
: 1216 2 -4 I'm 
: 1220 2 -2 a-
: 1224 2 -4 a 
: 1228 2 -2 di
: 1232 4 -7 va
- 1238
: 1240 2 -4 I'm 
: 1244 2 -2 a-
F 1248 2 -4 I'm 
F 1252 2 -2 a-
F 1256 2 -4 a 
F 1260 2 -2 di
F 1264 2 -7 va
- 1267
: 1268 2 1 Na-
: 1272 2 1 na-
: 1276 2 1 na 
: 1280 2 3 Di
: 1284 2 3 va 
- 1287
: 1288 2 1 Is 
: 1292 2 1 a 
: 1296 2 3 fe
: 1300 2 1 male 
: 1304 2 1 ver
: 1308 2 1 sion 
- 1311
: 1312 2 1 Of 
: 1316 2 1 a 
: 1320 6 3 hust
: 1328 4 1 la
- 1334
: 1344 2 1 Of 
: 1348 2 1 a 
: 1352 6 3 hust
: 1360 4 1 la
- 1366
: 1368 2 1 Of 
: 1372 2 1 a-
: 1376 2 1 of 
: 1380 2 1 a 
: 1384 6 3 hust
: 1392 2 1 la
- 1395
: 1396 2 1 Na-
: 1400 2 1 na-
: 1404 2 1 na 
: 1408 2 3 Di
: 1412 2 3 va 
- 1415
: 1416 2 1 Is 
: 1420 2 1 a 
: 1424 2 3 fe
: 1428 2 1 male 
: 1432 2 1 ver
: 1436 2 1 sion 
- 1439
: 1440 2 1 Of 
: 1444 2 1 a 
: 1448 6 3 hust
: 1456 4 1 la
- 1462
: 1472 2 1 Of 
: 1476 2 1 a 
: 1480 6 3 hust
: 1488 4 1 la
- 1494
: 1496 2 1 Of 
: 1500 2 1 a-
: 1504 2 1 of 
: 1508 2 1 a 
: 1512 6 3 hust
: 1520 2 1 la
- 1524
: 1544 2 3 When 
: 1548 2 3 he 
: 1552 6 6 pull 
: 1560 6 3 up
- 1567
: 1568 2 3 Wan
: 1572 2 3 na 
: 1576 2 3 pop 
: 1580 2 3 my 
: 1584 4 6 hood 
: 1590 4 3 up
- 1596
: 1600 2 3 Bet 
: 1604 2 3 he 
: 1608 2 3 bet
: 1612 2 3 ter 
: 1616 2 8 have 
: 1620 2 8 a 
: 1624 4 8 six 
: 1632 4 6 pack
- 1638
: 1640 2 3 In 
: 1644 2 3 the 
: 1648 4 6 coo
: 1654 9 3 ler
- 1665
: 1670 2 3 Get
: 1674 2 3 ting 
: 1678 2 6 mo
: 1682 6 3 ne
: 1690 2 6 ~y
- 1694
: 1696 2 3 Di
: 1700 2 3 vas 
: 1704 2 3 get
: 1708 2 3 ting 
: 1712 2 0 mo
: 1716 4 0 ney
- 1720
: 1720 2 0 If 
: 1724 2 0 you 
: 1728 4 3 ain't
- 1734
: 1736 2 3 Get
: 1740 2 0 ting 
: 1744 2 3 mo
: 1748 2 3 ney 
: 1752 2 3 then 
: 1756 2 3 you
- 1759
: 1760 2 3 Ain't 
: 1764 2 3 got 
: 1768 2 3 no
: 1772 2 0 thing 
: 1776 2 3 for 
: 1780 2 3 me
- 1783
: 1784 2 7 Tell 
: 1788 2 7 me 
: 1792 4 7 some
: 1798 4 7 thin' 
- 1804
: 1816 2 6 Where 
: 1820 2 2 your 
: 1824 6 1 boss 
: 1832 2 -1 at?
- 1836
: 1848 2 8 Where 
: 1852 2 8 my 
: 1856 2 13 la
: 1860 2 13 dies 
: 1864 2 11 up 
: 1868 2 11 in 
- 1871
: 1872 2 9 There 
: 1876 2 9 that 
: 1880 2 9 like 
: 1884 2 9 to 
: 1888 6 9 talk 
: 1896 2 9 ba
: 1900 2 8 ~ck
- 1904
: 1908 2 3 I 
: 1912 2 3 wan
: 1916 2 3 na 
: 1920 6 6 see 
: 1928 4 3 ya
- 1934
: 1940 2 3 I'd 
: 1944 2 3 like 
: 1948 2 3 to 
: 1952 6 6 meet 
: 1960 4 3 cha
- 1966
: 1976 2 8 What 
: 1980 2 8 you 
: 1984 2 8 said
- 1988
: 2006 2 8 She 
: 2010 2 8 ain't 
: 2014 4 6 no 
: 2020 4 8 Di
: 2026 6 8 va
- 2034
: 2036 2 1 Na-
: 2040 2 1 na-
: 2044 2 1 na 
: 2048 2 3 Di
: 2052 2 3 va 
- 2055
: 2056 2 1 Is 
: 2060 2 1 a 
: 2064 2 3 fe
: 2068 2 1 male 
: 2072 2 1 ver
: 2076 2 1 sion 
- 2079
: 2080 2 1 Of 
: 2084 2 1 a 
: 2088 6 3 hust
: 2096 4 1 la
- 2102
: 2112 2 1 Of 
: 2116 2 1 a 
: 2120 6 3 hust
: 2128 4 1 la
- 2134
: 2136 2 1 Of 
: 2140 2 1 a-
: 2144 2 1 of 
: 2148 2 1 a 
: 2152 6 3 hust
: 2160 2 1 la
- 2163
: 2164 2 1 Na-
: 2168 2 1 na-
: 2172 2 1 na 
: 2176 2 3 Di
: 2180 2 3 va 
- 2183
: 2184 2 1 Is 
: 2188 2 1 a 
: 2192 2 3 fe
: 2196 2 1 male 
: 2200 2 1 ver
: 2204 2 1 sion 
- 2207
: 2208 2 1 Of 
: 2212 2 1 a 
: 2216 6 3 hust
: 2224 2 1 la
- 2228
: 2240 2 1 Of 
: 2244 2 1 a 
: 2248 6 3 hust
: 2256 4 1 la
- 2262
: 2264 2 1 Of 
: 2268 2 1 a-
: 2272 2 1 of 
: 2276 2 1 a 
: 2280 6 3 hust
: 2288 2 1 la
- 2291
: 2292 2 8 Since 
: 2296 4 8 fif
: 2302 4 8 teen 
: 2308 2 8 in 
: 2312 2 8 my 
: 2316 2 8 sti
: 2320 2 9 let
: 2324 2 8 tos 
- 2327
: 2328 2 8 Been 
: 2332 2 8 strut
: 2336 2 8 tin' 
: 2340 2 8 in 
: 2344 3 8 this 
: 2350 4 -6 game
- 2356
: 2360 2 8 What's 
: 2364 2 8 your 
: 2368 2 6 a
: 2372 2 8 ~ge
- 2375
: 2376 2 8 What 
: 2380 2 8 the 
: 2384 2 8 ques
: 2388 2 8 tion 
: 2392 2 8 they
- 2395
: 2396 2 8 Asked 
: 2400 2 8 when 
: 2404 2 8 I 
: 2408 2 8 hit 
: 2412 2 8 the 
: 2416 4 -6 stage
- 2422
: 2424 2 8 I'm 
: 2428 2 8 a 
: 2432 2 13 Di
: 2436 2 13 va
- 2439
: 2440 2 12 Best 
: 2444 2 12 be
: 2448 2 10 live 
: 2452 2 10 her
- 2455
: 2456 2 10 You 
: 2460 2 8 see 
: 2464 2 8 her
- 2467
: 2468 2 8 She 
: 2472 2 8 get
: 2476 2 8 ting 
: 2480 4 -6 paid
- 2486
: 2488 2 8 She 
: 2492 2 8 ain't 
: 2496 2 12 cal
: 2500 2 12 lin' 
- 2503
: 2504 2 12 Him 
: 2508 2 12 to 
: 2512 2 10 greet 
: 2516 2 10 her
- 2519
: 2520 2 10 Don't 
: 2524 2 8 need 
: 2528 2 8 him
- 2531
: 2532 2 8 Her 
: 2536 2 8 be
: 2540 2 8 ~d's 
: 2544 2 -6 made
- 2547
: 2548 2 -4 This 
: 2552 2 -4 is 
: 2556 2 -4 a 
: 2560 2 -2 stick 
: 2564 4 -4 up-
: 2572 2 -2 stick 
: 2576 2 -4 up
- 2579
: 2580 2 -4 I 
: 2584 2 -4 need 
: 2588 2 -4 them 
: 2592 2 -4 ba
: 2596 2 -2 ~gs
- 2599
: 2600 2 -4 Uh 
: 2604 2 -4 that 
: 2608 2 1 mo
: 2612 2 1 ney
- 2615
: 2616 2 1 A 
: 2620 2 1 must 
: 2624 2 3 stick 
: 2628 4 1 up-
: 2636 2 3 stick 
: 2640 2 1 up
- 2643
: 2644 2 -4 You 
: 2648 2 -4 see 
: 2652 2 -4 them 
: 2656 2 -4 a
: 2660 2 -2 ~sk
- 2663
: 2664 2 -4 Where 
: 2668 2 -4 that 
: 2672 2 1 mo
: 2676 2 1 ney?
- 2679
: 2680 2 8 All 
: 2684 2 8 my 
: 2688 2 8 la
: 2692 2 8 dies 
: 2696 2 8 get 
: 2700 2 8 it 
: 2704 4 13 up
- 2710
: 2712 2 8 I 
: 2716 2 8 see 
: 2720 2 8 you 
: 2724 2 8 I 
: 2728 2 8 do 
: 2732 2 8 the 
: 2736 4 13 same
- 2742
: 2744 2 1 Take 
: 2748 2 1 it 
: 2752 2 6 to 
: 2756 2 8 a
: 2760 2 8 not
: 2764 2 8 her 
: 2768 2 6 lev
: 2772 2 6 el
- 2775
: 2776 2 6 No 
: 2780 2 4 pas
: 2784 2 4 sen
: 2788 2 4 gers 
: 2792 2 4 on 
: 2796 2 4 my 
: 2800 10 2 plane
- 2812
: 2816 2 -4 I'm 
: 2820 2 -2 a-
: 2824 2 -4 a 
: 2828 2 -2 di
: 2832 4 -7 va
- 2838
: 2840 2 -4 I'm 
: 2844 2 -2 a-
: 2848 2 -4 I'm 
: 2852 2 -2 a-
: 2856 2 -4 a 
: 2860 2 -2 di
: 2864 4 -7 va
- 2870
: 2872 2 -4 I'm 
: 2876 2 -2 a-
: 2880 2 -4 I'm 
: 2884 2 -2 a-
: 2888 2 -4 a 
: 2892 2 -2 di
: 2896 4 -7 va
- 2902
: 2904 2 -4 I'm 
: 2908 2 -2 a-
: 2912 2 -4 I'm 
: 2916 2 -2 a-
: 2920 2 -4 a 
: 2924 2 -2 di
: 2928 4 -7 va
- 2932
: 2932 2 -4 This 
: 2936 2 -6 is 
: 2940 2 -4 a 
: 2944 2 0 stick 
: 2948 2 -4 up-
: 2956 2 0 stick 
: 2960 2 -4 up
- 2963
: 2964 2 -4 I 
: 2968 2 -2 need 
: 2972 2 0 them 
: 2976 2 -4 ba
: 2980 2 -2 ~gs
- 2983
: 2984 2 -4 Uh 
: 2988 2 -2 that 
: 2992 2 3 mo
: 2996 4 5 ney
- 3002
: 3004 2 -4 A 
: 3008 2 1 stick 
: 3012 4 -4 up-
: 3020 2 1 stick 
: 3024 2 -4 up
- 3027
: 3028 2 -4 You 
: 3032 2 -4 see 
: 3036 2 -4 them 
: 3040 4 -6 ask
- 3046
F 3048 2 -6 Where 
F 3052 4 -4 that...
- 3058
: 3060 2 1 Na-
: 3064 2 1 na-
: 3068 2 1 na 
: 3072 2 3 Di
: 3076 2 3 va 
- 3079
: 3080 2 1 Is 
: 3084 2 1 a 
: 3088 2 3 fe
: 3092 2 1 male 
: 3096 2 1 ver
: 3100 2 1 sion 
- 3103
: 3104 2 1 Of 
: 3108 2 1 a 
: 3112 6 3 hust
: 3120 4 1 la
- 3126
: 3136 2 1 Of 
: 3140 2 1 a 
: 3144 6 3 hust
: 3152 4 1 la
- 3158
: 3160 2 1 Of 
: 3164 2 1 a-
: 3168 2 1 of 
: 3172 2 1 a 
: 3176 6 3 hust
: 3184 2 1 la
- 3187
: 3188 2 1 Na-
: 3192 2 1 na-
: 3196 2 1 na 
: 3200 2 3 Di
: 3204 2 3 va 
- 3207
: 3208 2 1 Is 
: 3212 2 1 a 
: 3216 2 3 fe
: 3220 2 1 male 
: 3224 2 1 ver
: 3228 2 1 sion 
- 3231
: 3232 2 1 Of 
: 3236 2 1 a 
: 3240 6 3 hust
: 3248 2 1 la
- 3252
: 3264 2 1 Of 
: 3268 2 1 a 
: 3272 6 3 hust
: 3280 4 1 la
- 3286
: 3288 2 1 Of 
: 3292 2 1 a-
: 3296 2 1 of 
: 3300 2 1 a 
: 3304 6 3 hust
: 3312 2 1 la
- 3316
: 3328 2 -4 I'm 
: 3332 2 -2 a-
: 3336 2 -4 a 
: 3340 2 -2 di
: 3344 4 -7 va
- 3350
: 3352 2 -4 I'm 
: 3356 2 -2 a-
: 3360 2 -4 I'm 
: 3364 2 -2 a-
: 3368 2 -4 a 
: 3372 2 -2 di
: 3376 4 -7 va
- 3382
: 3384 2 -4 I'm 
: 3388 2 -2 a-
: 3392 2 -4 I'm 
: 3396 2 -2 a-
: 3400 2 -4 a 
: 3404 2 -2 di
: 3408 4 -7 va
- 3414
: 3416 2 -4 I'm 
: 3420 2 -2 a-
: 3424 2 -4 I'm 
: 3428 2 -2 a-
: 3432 2 -4 a 
: 3436 2 -2 di
: 3440 4 -7 va
- 3446
: 3448 2 -4 I'm 
: 3452 2 -2 a-
: 3456 2 -4 I'm 
: 3460 2 -2 a-
: 3464 2 -4 a 
: 3468 2 -2 di
: 3472 4 -7 va
- 3478
: 3480 2 -4 I'm 
: 3484 2 -2 a-
: 3488 2 -4 I'm 
: 3492 2 -2 a-
: 3496 2 -4 a 
: 3500 2 -2 di
: 3504 4 -7 va
- 3510
: 3512 2 -4 I'm 
: 3516 2 -2 a-
: 3520 2 -4 I'm 
: 3524 2 -2 a-
: 3528 2 -4 a 
: 3532 2 -2 di
: 3536 4 -7 va
- 3542
: 3544 2 -4 I'm 
: 3548 2 -2 a-
: 3552 2 -4 I'm 
: 3556 2 -2 a-
: 3560 2 -4 a 
: 3564 2 -2 di
: 3568 4 -7 va
- 3574
: 3584 2 -4 I'm 
: 3588 2 -2 a-
: 3592 2 -4 a 
: 3596 2 -2 di
: 3600 4 -7 va
- 3606
: 3608 2 -4 I'm 
: 3612 2 -2 a-
: 3616 2 -4 I'm 
: 3620 2 -2 a-
: 3624 2 -4 a 
: 3628 2 -2 di
: 3632 4 -7 va
- 3638
: 3640 2 -4 I'm 
: 3644 2 -2 a-
: 3648 2 -4 I'm 
: 3652 2 -2 a-
: 3656 2 -4 a 
: 3660 2 -2 di
: 3664 4 -7 va
- 3670
: 3672 2 -4 I'm 
: 3676 2 -2 a-
: 3680 2 -4 I'm 
: 3684 2 -2 a-
: 3688 2 -4 a 
: 3692 2 -2 di
: 3696 4 -7 va
- 3702
: 3704 2 -4 I'm 
: 3708 2 -2 a-
: 3712 2 -4 I'm 
: 3716 2 -2 a-
: 3720 2 -4 a 
: 3724 2 -2 di
: 3728 4 -7 va
- 3734
: 3736 2 -4 I'm 
: 3740 2 -2 a-
: 3744 2 -4 I'm 
: 3748 2 -2 a-
: 3752 2 -4 a 
: 3756 2 -2 di
: 3760 4 -7 va
- 3766
: 3768 2 -4 I'm 
: 3772 2 -2 a-
: 3776 2 -4 I'm 
: 3780 2 -2 a-
: 3784 2 -4 a 
: 3788 2 -2 di
: 3792 4 -7 va
- 3798
: 3800 2 -4 I'm 
: 3804 2 -2 a-
: 3808 2 -4 I'm 
: 3812 2 -2 a-
: 3816 2 -4 a 
: 3820 2 -2 di
: 3824 4 -7 va
- 3830
F 3832 4 -7 Hey! 
E
