#TITLE:Ego
#ARTIST:Beyoncé
#LANGUAGE:English
#GENRE:Pop
#YEAR:2008
#MP3:Beyoncé - Ego.mp3
#COVER:Beyoncé - Ego[CO].jpg
#VIDEO:Beyoncé - Ego.mp4
#PREVIEWSTART:55,323
#MEDLEYSTARTBEAT:1132
#MEDLEYENDBEAT:1444
#BPM:312
#GAP:1080
F 0 4 0 Oh 
F 8 1 0 ba
F 10 1 0 by 
F 12 2 0 how 
F 16 2 0 you 
F 20 1 0 do
F 22 2 0 ing?
- 26
F 54 1 0 You 
F 56 2 0 know 
F 60 1 0 I'm 
F 62 1 0 gon
F 64 1 0 na 
- 66
F 66 1 0 Cut 
F 68 1 0 right 
F 70 1 0 to 
F 72 1 0 the 
F 74 1 0 chase 
- 77
F 108 4 0 Some 
F 116 4 0 wo
F 122 2 0 men
- 126
F 140 2 0 Were 
F 144 2 0 made 
- 148
F 184 2 0 But 
F 188 2 0 me
- 192
F 200 2 0 My
F 204 2 0 self
- 208
F 232 1 0 I 
F 234 2 0 like 
F 238 1 0 to 
F 240 2 0 think 
F 244 2 0 I 
F 248 4 0 was 
F 256 2 0 cre
F 260 2 0 a
F 264 2 0 ted
- 268
F 292 3 0 For 
F 296 1 0 a 
F 298 2 0 spe
F 302 1 0 cial 
F 304 4 0 pur
F 310 4 0 pose
- 316
F 348 2 0 You 
F 352 6 0 know
- 360
F 380 2 0 What's 
F 384 2 0 more 
F 388 4 0 spe
F 394 8 0 cial 
- 404
F 406 2 0 Than 
F 410 2 0 you?
- 414
F 430 2 0 You 
F 434 5 0 feel 
F 440 4 0 me 
- 446
: 480 2 -4 It's 
: 484 10 -2 on 
: 496 2 -2 ba
: 500 2 -4 by
- 503
: 504 6 -2 Let's 
: 512 2 -2 ge
: 516 2 -4 ~t 
: 520 10 -2 lost 
- 532
: 536 2 0 You 
: 540 2 -2 don't 
: 544 2 0 need 
: 548 2 -2 to 
: 552 6 0 call 
: 560 2 0 in
: 564 2 -2 to 
: 568 2 0 work
- 571
: 572 2 -2 'Cause 
: 576 2 0 you're 
: 580 2 -2 the 
: 584 10 0 boss 
- 596
: 608 2 -4 For 
: 612 4 -2 real 
- 618
: 620 2 -4 Want 
: 624 2 -2 you 
: 628 2 -4 to 
: 632 2 -2 show 
: 636 2 -4 me 
: 640 2 -2 how 
: 644 2 -4 you 
: 648 2 -2 fee
: 652 2 -4 ~l
- 655
: 656 2 -4 I 
: 660 2 -4 con
: 664 2 0 si
: 668 2 0 der 
: 672 6 1 my
: 680 2 3 self
- 684
: 688 2 -4 Lu
: 692 2 -4 cky 
: 696 2 0 that's 
: 700 2 0 a 
: 704 4 1 big 
: 712 8 3 deal 
- 722
: 728 12 1 Why?
- 742
: 752 4 -2 Well
- 758
: 764 2 -4 You 
: 768 2 -2 got 
: 772 2 -4 the 
: 776 2 -2 ke
: 780 2 -1 ~y 
: 784 2 -1 to 
: 788 2 -1 my 
: 792 4 0 heart 
- 798
: 804 1 0 But 
: 806 1 0 you 
: 808 2 0 aint 
: 812 2 0 gonna 
: 816 2 0 need 
: 820 2 0 it 
- 824
: 828 2 0 Id 
: 832 1 0 ra
: 834 1 0 ther 
: 836 2 0 you 
: 840 2 0 o
: 844 2 0 pen 
: 848 2 -1 up 
: 852 2 -1 my 
: 856 2 -2 bo
: 860 2 -2 dy
- 864
: 868 2 -2 And 
: 872 2 1 show 
: 876 2 1 me 
: 880 2 -2 se
: 884 2 -2 crets
- 888
: 892 2 -2 You 
: 896 2 5 did
: 900 2 5 n't 
: 904 6 3 know 
: 912 2 5 was 
: 916 2 5 in
: 920 8 3 side
- 928
: 928 6 5 No 
: 936 2 3 need 
: 940 2 3 for 
: 944 2 5 me 
: 948 2 5 to 
: 952 2 3 lie
: 956 8 1 ~
- 966
: 972 2 1 It's 
: 976 6 5 too 
: 984 14 5 big 
- 1000
: 1004 2 1 It's 
: 1008 6 5 too 
: 1016 14 5 wide 
- 1032
: 1036 2 1 It's 
: 1040 6 5 too 
: 1048 14 5 strong 
- 1064
: 1068 2 1 It 
: 1072 6 5 won't 
: 1080 14 5 fit 
- 1096
: 1100 2 1 It's 
: 1104 6 5 too 
: 1112 14 5 much 
- 1128
: 1132 2 1 It's 
: 1136 6 5 too 
: 1144 10 5 tough 
- 1155
: 1156 2 -4 He 
: 1160 4 5 talk 
: 1168 4 5 like 
: 1176 4 3 this 
: 1184 4 5 'cause
- 1190
: 1192 2 3 He 
: 1196 2 3 can 
: 1200 2 5 back 
: 1204 2 5 it 
: 1208 2 3 up 
- 1212
: 1220 2 -4 He 
: 1224 2 8 got 
: 1228 2 6 a 
: 1232 6 5 big 
: 1240 6 3 e
: 1248 14 1 go
- 1264
: 1288 2 8 Such 
: 1292 2 6 a 
: 1296 6 5 huge 
: 1304 6 3 e
: 1312 14 5 go
- 1328
: 1348 2 -4 I 
: 1352 2 8 love 
: 1356 2 6 his 
: 1360 6 5 big 
: 1368 6 3 e
: 1376 8 1 go
- 1386
: 1388 2 1 It's 
: 1392 6 5 too 
: 1400 8 5 much 
- 1410
: 1412 2 -4 He 
: 1416 4 5 walks 
: 1424 4 5 like 
: 1432 4 3 this 
: 1440 4 5 'cause
- 1446
: 1448 2 3 He 
: 1452 2 3 can 
: 1456 2 5 back 
: 1460 2 5 it 
: 1464 2 3 up 
- 1468
: 1496 2 -2 U
: 1500 2 -4 su
: 1504 2 -2 ally 
: 1508 2 -4 I'm 
: 1512 4 -2 hum
: 1518 4 -2 ble
- 1523
: 1524 2 -4 Right 
: 1528 2 -2 now 
: 1532 2 -4 I 
: 1536 4 -2 don't 
: 1542 8 -2 choose
- 1552
: 1560 2 0 You 
: 1564 2 -2 can 
: 1568 2 0 leave 
: 1572 2 -2 with 
: 1576 4 0 me 
- 1582
: 1584 4 0 Or 
: 1592 2 0 you 
: 1596 2 -2 could 
: 1600 2 0 have 
: 1604 2 -2 the 
: 1608 8 0 blues 
- 1618
: 1624 2 1 Some 
: 1628 6 1 call 
: 1636 2 3 it 
: 1640 2 5 ar
: 1644 2 3 ro
: 1648 2 1 gant
- 1652
: 1656 2 1 I 
: 1660 6 1 call 
: 1668 2 3 it 
: 1672 2 5 con
: 1676 2 8 fi
: 1680 2 8 dent
- 1684
: 1688 2 3 You 
: 1692 6 3 de
: 1700 2 5 cide 
: 1704 2 3 when 
: 1708 2 1 you 
: 1712 6 0 find 
- 1719
: 1720 2 3 Out 
: 1724 6 3 what 
: 1732 2 5 I'm 
: 1736 2 3 work
: 1740 2 1 ing 
: 1744 4 0 with 
- 1750
: 1752 8 1 Damn 
- 1762
: 1772 2 -2 I 
: 1776 4 -2 know
- 1782
: 1788 2 -2 I'm 
: 1792 2 -2 kill
: 1796 2 -2 ing 
: 1800 2 -2 you
: 1804 2 -1 ~ 
: 1808 2 -1 with 
: 1812 2 -1 them 
: 1816 8 0 legs 
- 1826
: 1828 1 0 Bet
: 1830 1 0 ter 
: 1832 2 0 yet 
: 1836 2 0 them 
: 1840 6 0 thighs 
- 1848
: 1852 2 0 Mat
: 1856 2 0 ter 
: 1860 2 0 a 
: 1864 6 -1 fact 
: 1872 2 -1 it's 
: 1876 2 -1 my 
: 1880 6 -2 smile 
- 1888
: 1890 1 -2 Or 
: 1892 2 -2 may
: 1896 2 1 be 
: 1900 2 1 my 
: 1904 8 -2 eyes 
- 1914
: 1920 6 5 Boy 
: 1928 2 3 you 
: 1932 2 3 a 
: 1936 2 5 sight 
: 1940 2 5 to 
: 1944 6 3 see 
- 1951
: 1952 2 5 Kind 
: 1956 2 3 of 
: 1960 2 3 some
: 1964 2 3 thing 
: 1968 6 5 like 
: 1976 6 3 me
: 1984 8 1 ~
- 1994
: 1996 2 1 It's 
: 2000 6 5 too 
: 2008 14 5 big 
- 2024
: 2028 2 1 It's 
: 2032 6 5 too 
: 2040 14 5 wide 
- 2056
: 2060 2 1 It's 
: 2064 6 5 too 
: 2072 14 5 strong 
- 2088
: 2092 2 1 It 
: 2096 6 5 won't 
: 2104 14 5 fit 
- 2120
: 2124 2 1 It's 
: 2128 6 5 too 
: 2136 14 5 much 
- 2152
: 2156 2 1 It's 
: 2160 6 5 too 
: 2168 10 5 tough 
- 2179
: 2180 2 -4 I 
: 2184 4 5 talks 
: 2192 4 5 like 
: 2200 4 3 this 
: 2208 4 5 'cause
- 2214
: 2216 2 3 He 
: 2220 2 3 can 
: 2224 2 5 back 
: 2228 2 5 it 
: 2232 2 3 up 
- 2236
: 2244 2 -4 I 
: 2248 2 8 got 
: 2252 2 6 a 
: 2256 6 5 big 
: 2264 6 3 e
: 2272 14 1 go
- 2288
: 2312 2 8 Such 
: 2316 2 6 a 
: 2320 6 5 huge 
: 2328 6 3 e
: 2336 14 5 go
- 2352
: 2368 2 -4 But 
: 2372 2 -4 he 
: 2376 2 8 love 
: 2380 2 6 my 
: 2384 6 5 big 
: 2392 6 3 e
: 2400 8 1 go
- 2410
: 2412 2 1 It's 
: 2416 6 5 too 
: 2424 11 5 much 
- 2435
: 2436 2 -4 I 
: 2440 4 5 walk 
: 2448 4 5 like 
: 2456 4 3 this 
: 2464 4 5 'cause
- 2470
: 2472 2 3 I 
: 2476 2 3 can 
: 2480 2 5 back 
: 2484 2 5 it 
: 2488 2 3 up 
- 2491
: 2492 4 5 I-
: 2500 2 5 I 
: 2504 6 5 walk 
: 2512 6 5 like 
: 2520 6 3 this 
- 2527
: 2528 4 5 'Cause 
: 2536 2 3 I 
: 2540 2 3 can 
: 2544 2 5 back 
: 2548 2 5 it 
: 2552 2 3 up 
- 2555
: 2556 4 5 I-
: 2564 2 5 I 
: 2568 6 5 walk 
: 2576 6 5 like 
: 2584 6 3 this 
- 2591
: 2592 4 5 'Cause 
: 2600 2 3 I 
: 2604 2 3 can 
: 2608 2 5 back 
: 2612 2 5 it 
: 2616 2 3 up 
- 2619
: 2620 4 8 I-
: 2628 2 6 I-
: 2632 2 3 I 
: 2636 2 3 can 
: 2640 2 5 back 
: 2644 2 5 it 
: 2648 2 3 up 
- 2652
: 2664 2 5 I 
: 2668 2 3 can 
: 2672 2 5 back 
: 2676 2 5 it 
: 2680 2 3 up 
- 2684
: 2692 2 1 I 
: 2696 4 5 walk 
: 2704 4 5 like 
: 2712 4 3 this 
- 2718
: 2720 4 5 'Cause 
: 2728 2 3 I 
: 2732 2 3 can 
: 2736 2 5 back 
: 2740 2 5 it 
: 2744 2 3 u
: 2748 2 5 ~
: 2752 2 3 ~
: 2756 8 1 ~p
- 2764
: 2764 2 1 It's 
: 2768 2 10 too
: 2772 2 8 ~ 
: 2776 6 8 bi
: 2784 8 10 ~g
- 2794
: 2796 2 1 It's 
: 2800 6 5 too 
: 2808 14 5 wide 
- 2824
: 2828 2 1 It's 
: 2832 6 5 too 
: 2840 14 5 strong 
- 2856
: 2860 2 1 It 
: 2864 6 5 won't 
: 2872 14 5 fit 
- 2888
: 2892 2 1 It's 
: 2896 6 10 too 
: 2904 6 10 mu
: 2912 6 8 ~ch
- 2920
: 2924 2 1 It's 
: 2928 6 5 too 
: 2936 10 5 tough 
- 2947
: 2948 2 -4 He 
: 2952 4 5 talk 
: 2960 4 5 like 
: 2968 4 3 this 
: 2976 4 5 'cause
- 2982
: 2984 2 3 He 
: 2988 2 3 can 
: 2992 2 5 back 
: 2996 2 5 it 
: 3000 2 3 up 
- 3004
: 3012 2 -4 He 
: 3016 2 8 got 
: 3020 2 6 a 
: 3024 6 5 big 
: 3032 6 3 e
: 3040 14 1 go
- 3056
: 3080 2 8 Such 
: 3084 2 6 a 
: 3088 6 5 huge 
: 3096 6 3 e
: 3104 14 5 go
- 3120
: 3140 2 -4 I 
: 3144 2 8 love 
: 3148 2 6 his 
: 3152 6 5 big 
: 3160 6 3 e
: 3168 8 1 go
- 3178
: 3180 2 1 It's 
: 3184 6 5 too 
: 3192 6 5 much 
- 3200
: 3204 2 -4 He 
: 3208 4 5 walks 
: 3216 4 5 like 
: 3224 4 3 this 
: 3232 4 5 'cause
- 3238
: 3240 2 3 He 
: 3244 2 3 can 
: 3248 2 5 back 
: 3252 2 5 it 
: 3256 2 3 u
: 3260 6 3 ~
: 3268 4 1 ~p
- 3274
: 3280 6 5 E
: 3288 6 5 go 
: 3296 2 5 so
: 3300 2 8 ~ 
: 3304 2 8 bi
: 3308 4 5 ~g
- 3314
: 3316 2 5 You 
: 3320 4 5 must 
: 3326 6 8 ad
: 3334 4 8 mit
- 3340
: 3344 2 5 I 
: 3348 2 5 got 
: 3352 2 8 e
: 3356 2 8 very 
: 3360 2 8 rea
: 3364 2 8 son 
: 3368 2 8 to 
: 3372 2 8 fee
: 3376 2 5 ~l 
: 3380 2 5 like 
- 3383
: 3384 2 5 I'm 
: 3388 6 8 that 
: 3396 6 8 bitch 
- 3404
: 3408 6 5 E
: 3416 6 5 go 
: 3424 6 8 so 
: 3432 6 8 stro
: 3440 2 5 ~ng
- 3444
: 3446 1 3 If 
: 3448 2 3 you 
: 3452 6 5 ain't 
: 3460 6 6 know 
- 3467
: 3468 2 1 I 
: 3472 6 1 don't 
: 3480 4 6 need 
: 3488 4 5 no 
: 3496 4 3 beat
- 3502
: 3504 2 1 I 
: 3508 2 1 can 
: 3512 2 6 sing 
: 3516 2 6 it 
: 3520 2 5 with 
: 3524 6 3 pi
: 3532 2 0 a
: 3536 12 1 no
- 3550
: 3560 2 1 O
: 3564 2 3 ~
: 3568 2 5 ~
: 3572 12 6 ~h
- 3586
: 3592 2 8 O
: 3596 2 10 ~
: 3600 2 12 ~
: 3604 12 13 ~h
- 3618
: 3620 14 8 O
: 3636 14 5 ~
: 3652 14 3 ~h
- 3668
: 3700 2 13 O
: 3704 2 13 ~
: 3708 2 12 ~
: 3712 2 10 ~h
- 3715
: 3716 2 13 O
: 3720 2 12 ~
: 3724 2 10 ~
: 3728 2 13 ~
: 3732 2 12 ~h
- 3735
: 3736 2 13 O
: 3740 2 12 ~
: 3744 2 10 ~
: 3748 2 8 ~
: 3752 2 10 ~h
- 3755
: 3756 10 5 O
: 3768 6 3 ~
: 3776 12 1 ~h
- 3790
: 3800 6 13 A
: 3808 6 15 ~
: 3816 6 17 ~
: 3824 6 10 ~
: 3832 22 13 ~h
- 3856
: 3872 2 13 A
: 3876 20 15 ~h
- 3898
: 3920 2 8 O
: 3924 2 10 ~
: 3928 2 10 ~
: 3932 2 12 ~
: 3936 2 10 ~
: 3940 1 8 ~
: 3942 1 5 ~
: 3944 1 3 ~
: 3946 6 1 ~h
- 3954
: 4008 2 -4 O
: 4012 2 -2 ~
: 4016 2 1 ~
: 4020 2 3 ~
: 4024 2 5 ~h
- 4027
: 4028 2 8 O
: 4032 2 10 ~
: 4036 2 13 ~
: 4040 2 15 ~
: 4044 2 17 ~h
- 4047
: 4048 18 20 O
: 4068 2 17 ~
: 4072 2 15 ~
: 4076 6 17 ~
: 4084 2 15 ~h
- 4088
: 4120 4 -4 Oh
- 4126
: 4144 2 -4 Oh 
: 4148 4 -4 oh 
: 4160 4 -4 oh
- 4166
: 4172 2 -4 O
: 4176 2 -2 ~
: 4180 2 1 ~h
- 4184
: 4248 4 -4 Oh
- 4254
: 4272 2 -4 Oh 
: 4276 4 -4 oh 
: 4288 4 -4 oh
- 4294
: 4300 2 -4 O
: 4304 2 -2 ~
: 4308 2 1 ~h
- 4312
: 4376 4 -4 Oh
- 4382
: 4400 2 -4 Oh 
: 4404 4 -4 oh 
: 4416 4 -4 oh
- 4422
: 4428 2 -4 O
: 4432 2 -2 ~
: 4436 2 1 ~h
- 4440
: 4504 4 -4 Oh
- 4510
: 4528 2 -4 Oh 
: 4532 4 -4 oh 
: 4544 4 -4 oh
- 4550
: 4556 4 -4 Oh
E
