#TITLE:Save a Horse
#ARTIST:Big And Rich
#MP3:Big And Rich - Save a Horse.mp3
#VIDEO:Big And Rich - Save a Horse [VD#0].avi
#COVER:Big And Rich - Save a Horse [CO].jpg
#BPM:203,96
#GAP:3088,84
#VIDEOGAP:0
#ENCODING:UTF8
#EDITION:SingStar Country
: 0 1 56 Dum
: 3 1 56  da
: 4 1 56  da
: 6 1 52  dum
- 8
: 9 1 52 Da
: 10 1 52  da
: 12 2 56  dum
: 15 1 56  da
: 16 1 56  da
: 17 2 52  dum
- 20
: 20 1 52 Da
: 21 1 52  da
: 23 6 59  da
: 29 12 56  da
- 43
: 46 1 59 Dum
: 49 1 59  da
: 50 1 59  da
: 52 2 56  dum
- 55
: 55 1 56 Da
: 56 1 56  da
: 58 2 59  dum
: 61 1 59  da
: 62 1 59  da
: 64 2 56  dum
- 67
: 67 1 56 Da
: 68 1 56  da
: 70 3 61  da
: 73 3 59  da
: 76 2 57  da
: 79 2 59  da
: 82 7 56  da
- 91
: 346 2 62 Well
: 348 4 64  I
: 354 3 64  walk
: 358 2 62  in
: 360 3 64 to
: 363 2 62  the
: 366 4 64  room
- 372
: 377 2 55 Pass
: 380 2 55 in'
: 382 2 57  out
: 386 3 57  hun
: 389 3 55 dred
: 392 3 57  dol
: 395 2 55 lar
* 398 6 59  bills
- 405
: 405 2 57 And
: 407 3 55  it
: 410 8 59  kills
: 418 2 57  and
: 420 3 55  it
: 423 7 59  thrills
- 431
: 431 2 57 Like
: 433 3 55  the
: 436 6 59  horns
: 442 2 59  on
: 446 2 59  my
: 450 3 57  Sil
: 454 2 55 ve
: 456 3 57 ra
: 460 2 57 do
: 464 2 52  grill
- 468
: 476 2 62 And
: 478 3 64  I
: 482 3 64  buy
: 485 2 62  the
: 487 3 64  bar
- 491
: 491 2 62 A
: 494 2 64  doub
: 496 3 62 le
: 499 3 64  round
: 502 3 62  of
: 505 4 64  crown
- 510
: 510 1 55 And
: 512 1 55  then
: 514 2 57  e
: 516 1 55 very
: 519 2 57 bo
: 521 1 55 dy's
- 523
: 525 2 57 Get
: 527 2 55 tin'
* 530 5 59  down
: 535 2 57  in
: 537 4 59  this
: 542 4 52  town
- 548
: 558 1 64 Ain't
: 562 1 67  ne
: 564 1 64 ver
: 566 1 64  gon
: 568 1 64 na
: 570 2 62  be
: 574 1 57  the
: 576 4 57  same
- 582
: 602 2 62 'Cause
: 604 3 64  I
: 610 3 67  sad
: 614 1 67 dle
: 616 3 67  up
: 620 2 67  my
: 624 8 67  horse
- 633
: 634 1 57 And
: 636 4 57  I
: 642 2 57  ride
: 646 2 57  in
: 650 3 57 to
: 654 2 55  the
: 656 3 59  ci
: 660 4 55 ty
- 666
: 669 3 64 I
: 674 3 64  make
: 677 2 62  a
: 679 3 64  lot
: 682 2 62  of
: 685 6 64  noise
- 693
: 698 4 59 'Cause
: 702 1 57  the
: 704 5 57  girls
- 710
: 710 2 55 They
: 712 3 57  are
: 716 5 57  so
: 722 2 59  pret
: 724 6 55 ty
- 732
: 737 5 64 Ri
: 742 2 62 din'
: 744 4 64  up
: 748 2 62  and
: 750 4 64  down
: 754 5 67  Broad
: 759 2 64 way
- 762
: 764 2 55 On
: 766 3 57  my
: 770 4 57  old
: 776 2 57  stud
: 780 2 57  Le
: 784 5 59 roy
- 790
: 790 2 59 And
: 792 2 57  the
: 794 3 59  girls
: 798 3 52  say
- 803
: 809 4 64 ''Save
: 813 2 62  a
: 815 7 67  horse
: 825 4 64  ride
: 829 2 62  a
: 831 4 67  cow
: 835 10 64 boy''
- 847
: 853 4 28 Everybody
: 861 5 28  says
- 868
: 873 3 64 ''Save
: 877 2 62  a
: 879 8 64  horse
: 889 4 57  ride
: 894 2 59  a
: 896 4 57  cow
: 900 7 55 boy''
- 909
: 922 2 62 Well
: 924 4 64  I
: 930 5 64  don't
: 938 2 64  give
: 940 2 62  a
: 942 6 64  dang
- 950
: 953 3 57 A
: 956 3 59 bout
: 960 3 57  noth
: 964 7 55 in'
- 972
: 972 3 59 I'm
: 977 3 57  sing
: 980 6 55 in'
: 986 2 57  and
: 988 3 59  bling
: 992 4 57 bling
: 996 4 55 in'
- 1001
: 1001 3 59 While
: 1005 1 59  the
: 1007 4 59  girls
: 1013 2 62  are
: 1015 2 59  drink
* 1020 1 55 in'
: 1021 5 57 ~
- 1027
: 1029 4 67 Long
: 1035 3 67  necks
: 1041 4 63  down
: 1045 5 64 ~
- 1051
: 1052 1 64 And
: 1054 1 64  I
: 1057 3 67  would
: 1061 1 67 n't
: 1062 3 67  trade
: 1067 1 67  ole
: 1071 3 67  Le
: 1075 3 67 roy
- 1080
: 1082 2 55 Or
: 1084 4 57  my
: 1090 3 57  Chev
: 1094 2 55 ro
: 1096 2 57 let
- 1099
: 1099 2 57 For
: 1101 3 55  your
: 1105 2 57  Es
: 1109 2 55 ca
: 1111 2 59 lade
- 1114
: 1115 1 38 Or
: 1117 1 38  your
: 1121 2 38  freak
: 1125 4 38  parade
- 1131
: 1133 3 64 I'm
: 1136 2 62  the
: 1138 3 64  on
: 1141 2 62 ly
: 1144 3 64  John
* 1150 7 67  Wayne
- 1158
: 1158 3 67 Left
: 1162 1 67  in
: 1164 3 67  this
: 1170 4 63  town
: 1174 2 64 ~
- 1177
: 1178 1 64 And
: 1180 3 64  I
: 1186 3 67  sad
: 1190 1 67 dle
: 1192 3 67  up
: 1196 2 67  my
: 1200 8 67  horse
- 1209
: 1210 1 57 And
: 1212 4 57  I
: 1218 2 57  ride
: 1222 2 57  in
: 1226 3 57 to
: 1230 2 55  the
: 1232 3 59  ci
: 1236 4 55 ty
- 1242
: 1246 2 64 I
: 1250 3 64  make
: 1254 2 62  a
: 1256 3 64  lot
: 1259 2 62  of
: 1262 6 67  noise
- 1270
: 1273 5 59 'Cause
: 1278 1 57  the
: 1280 5 57  girls
- 1286
: 1286 2 55 They
: 1288 3 57  are
: 1292 4 57  so
: 1296 3 59  pret
: 1300 6 55 ty
- 1308
: 1313 4 64 Ri
: 1317 2 62 din'
: 1319 4 64  up
: 1323 2 62  and
: 1325 4 64  down
: 1329 5 67  Broad
: 1335 2 64 way
- 1338
: 1340 2 55 On
: 1342 3 57  my
: 1346 4 57  old
: 1352 2 57  stud
: 1356 2 57  Le
: 1360 5 59 roy
- 1366
: 1366 2 59 And
: 1368 2 57  the
: 1370 3 59  girls
: 1373 3 52  say
- 1378
: 1385 4 64 ''Save
: 1389 2 62  a
* 1391 7 67  horse
: 1402 4 64  ride
: 1406 2 62  a
: 1408 4 67  cow
: 1412 10 64 boy''
- 1424
: 1429 4 29 Everybody
: 1437 5 29  says
- 1444
: 1450 3 64 ''Save
: 1454 2 62  a
: 1456 8 64  horse
: 1466 4 57  ride
: 1470 2 59  a
: 1472 4 57  cow
: 1476 7 55 boy''
- 1485
: 1756 2 57 Well
: 1758 2 57  I'm
: 1760 2 57  a
: 1764 5 57  thorough
: 1769 2 57 bred
- 1772
: 1774 1 57 That's
: 1778 2 57  what
: 1782 2 57  she
: 1785 2 57  said
- 1788
: 1789 1 57 In
: 1791 1 57  the
: 1792 2 57  back
: 1795 1 57  of
: 1797 1 57  my
: 1803 2 57  truck
: 1810 2 57  bed
- 1813
: 1814 1 60 As
: 1816 1 60  I
: 1819 2 60  was
: 1823 5 60  gettin'
: 1834 6 60  buzzed
: 1841 1 60  on
: 1846 7 60  suds
- 1854
: 1854 1 60 Out
: 1857 2 60  on
: 1861 2 60  some
: 1865 3 60  back
: 1870 4 60  country
: 1876 5 60  road
- 1883
: 1885 2 60 We
: 1888 2 60  were
: 1892 4 60  flyin'
: 1899 4 60  high
: 1904 3 60  fine
: 1908 1 60  as
: 1911 5 60  wine
- 1918
: 1922 2 57 Having
: 1925 6 57  ourselves
: 1933 1 57  a
: 1937 2 57  big
: 1939 2 57  and
: 1942 4 57  rich
: 1948 4 57  time
- 1953
: 1953 1 57 And
: 1954 1 57  I
: 1956 1 57  was
: 1959 6 57  goin'
: 1966 2 57  just
: 1969 3 57  about
- 1973
: 1973 2 57 As
: 1977 2 57  far
: 1981 2 57  as
: 1985 2 57  she'd
: 1988 2 57  let
: 1992 3 57  me
: 1996 3 57  go
- 2001
: 2013 2 59 But
: 2017 1 62  her
: 2019 1 62  e
: 2023 4 62 va
: 2027 3 59 lu
: 2031 4 62 a
* 2035 3 64 tion
- 2039
: 2039 2 64 Of
: 2044 3 64  my
: 2049 2 62  cow
: 2053 2 62 boy
: 2057 4 62  re
: 2061 2 59 pu
: 2063 5 62 ta
: 2068 3 64 tion
- 2072
: 2072 3 64 Had
: 2076 4 64  me
: 2081 1 67  beg
: 2083 2 67 gin'
: 2087 3 67  for
: 2091 2 69  sal
: 2095 2 67 va
: 2101 1 62 tion
- 2103
: 2103 8 62 All
: 2111 6 64  night
: 2117 1 57  long
* 2118 6 55 ~
- 2126
: 2140 1 59 So
: 2141 2 62  I
: 2145 2 62  took
: 2148 2 59  her
: 2151 5 62  out
: 2158 1 62  gig
* 2160 2 62 gin'
: 2164 7 64  frogs
- 2172
: 2173 2 62 In
: 2175 2 59 tro
: 2177 2 62 duced
: 2181 3 59  her
: 2184 3 62  to
: 2187 3 59  my
: 2190 2 62  old
: 2195 3 62  bird
* 2200 5 64  dog
- 2206
: 2207 1 29 And
: 2209 2 29  sang
: 2211 1 29  her
: 2213 3 29  every
: 2217 5 29  Willie
: 2223 3 29  Nelson
: 2230 4 29  song
- 2235
: 2235 2 29 I
: 2238 2 29  could
: 2241 2 29  think
: 2244 2 29  of
- 2247
: 2247 3 64 And
: 2250 1 67  we
: 2252 3 67  made
: 2258 6 67  love
- 2265
: 2266 1 67 And
: 2268 3 67  I
: 2273 3 67  sad
: 2277 1 67 dle
: 2279 3 67  up
: 2283 2 67  my
: 2287 8 67  horse
- 2296
: 2297 1 57 And
: 2299 4 57  I
: 2305 2 57  ride
: 2309 2 57  in
: 2313 3 57 to
: 2317 2 55  the
: 2319 3 59  ci
: 2323 4 55 ty
- 2329
: 2333 2 64 I
: 2337 3 64  make
: 2341 2 62  a
: 2343 3 64  lot
: 2346 2 62  of
: 2349 6 67  noise
- 2357
: 2361 4 59 'Cause
: 2365 1 57  the
: 2367 5 57  girls
- 2373
: 2373 2 55 They
: 2375 3 57  are
: 2379 4 57  so
: 2383 4 59  pret
: 2387 6 55 ty
- 2395
: 2401 4 64 Ri
: 2405 2 62 din'
: 2407 4 64  up
: 2411 2 62  and
: 2413 4 64  down
: 2417 5 67  Broad
: 2423 2 64 way
- 2426
: 2427 2 55 On
: 2429 3 57  my
: 2433 4 57  old
: 2439 2 57  stud
: 2443 2 57  Le
: 2447 5 59 roy
- 2453
: 2453 2 59 And
: 2455 2 57  the
: 2457 3 59  girls
: 2461 3 52  say
- 2466
: 2473 4 64 ''Save
: 2477 2 62  a
: 2479 7 67  horse
: 2489 4 64  ride
: 2493 2 62  a
: 2495 4 67  cow
: 2499 10 64 boy''
- 2511
: 2517 4 28 Everybody
: 2525 5 28  says
- 2532
: 2537 3 64 ''Save
: 2541 2 62  a
: 2543 8 67  horse
: 2553 4 64  ride
: 2557 2 62  a
: 2559 4 67  cow
: 2563 12 64 boy''
- 2577
: 2581 3 64 What,
: 2589 4 64  what
- 2595
: 2601 3 64 ''Save
: 2605 2 62  a
: 2607 8 67  horse
: 2617 4 64  ride
: 2621 2 62  a
: 2623 4 67  cow
: 2627 12 64 boy''
- 2641
: 2645 4 29 Everybody
: 2653 5 29  says
- 2660
: 2665 3 64 ''Save
: 2669 2 62  a
: 2671 8 64  horse
: 2681 4 57  ride
: 2685 2 59  a
: 2687 4 57  cow
* 2693 10 55 boy''
E