#TITLE:Inget kan stoppa oss nu
#ARTIST:Black Jack
#MP3:Black Jack - Inget kan stoppa oss nu.mp3
#COVER:Black Jack - Inget kan stoppa oss nu [CO].jpg
#BACKGROUND:Black Jack - Inget kan stoppa oss nu [BG].jpg
#BPM:151,62
#GAP:16485
: 0 2 74 Ja 
: 2 2 71 jag 
: 4 4 71 vet 
: 8 2 69 att 
: 10 2 71 klo
: 14 4 71 ckan 
: 18 2 69 är 
: 20 2 71 tvĺ
-23
: 24 2 71 Och 
: 26 2 69 det 
: 28 2 71 är 
: 32 2 71 sent 
: 34 2 69 för 
: 36 2 71 en 
: 38 2 74 sön
: 42 4 74 dags 
: 46 2 69 kväll 
: 48 6 71 -
-57
: 62 2 74 Men 
: 64 2 74 ing
: 66 2 72 en
: 68 4 72 ting 
: 72 2 71 kan 
: 74 6 71 fĺ 
: 80 2 69 mig 
: 82 4 67 här 
: 86 2 69 i
: 88 4 71 frĺn
-93 110
: 128 2 74 Är 
: 130 2 71 man 
: 132 4 71 klok 
: 136 2 69 sĺ 
: 138 2 71 bor
: 142 4 71 de 
: 146 2 69 man 
: 148 2 71 gĺ
-151
: 152 2 71 Men 
: 154 2 69 vem 
: 156 2 71 har 
: 160 2 71 lust 
: 162 2 69 att 
: 164 2 71 va' 
: 166 2 74 rat
: 170 4 74 ion
: 174 2 69 e
: 176 8 71 ll
-185
: 192 2 74 När 
: 194 2 72 man 
: 196 4 72 hör 
: 200 2 71 rock 
: 202 4 71 n 
: 206 4 69 roll 
: 210 4 67 pĺ 
: 214 2 69 sax
: 216 4 71 ofon.
-225 240
: 256 2 72 Mĺn
: 258 2 72 dag 
: 260 2 72 mor
: 264 2 72 gon
-267
: 272 2 71 Kan 
: 276 2 71 vi 
: 278 2 69 glöm
: 280 4 67 mma
-285
: 288 2 69 Det 
: 292 4 69 är 
: 296 2 67 flera 
: 298 4 71 ljus
: 302 2 67 ĺr 
: 304 2 69 tills 
: 306 2 64 det 
: 308 4 67 ljus
: 312 2 71 nar
-316
: 320 2 72 Mĺn
: 322 2 72 dag 
: 324 2 72 mor
: 328 2 72 gon
-331
: 336 2 71 Kan 
: 338 2 71 vi 
: 340 2 71 drö 
: 342 2 69 - 
: 344 4 67 mma
-348: 348 2 69 Om 
: 352 2 69 det 
: 356 2 71 som 
: 360 2 73 hän
: 364 2 74 der 
: 368 2 74 oss 
: 370 2 74 här 
: 374 2 74 och 
: 378 2 74 nu.
-381
: 392 2 74 I 
: 396 2 74 natt 
: 400 2 74 i 
: 402 2 74 natt 
-405
: 406 2 74 Är 
: 410 2 74 det 
: 412 2 74 du 
: 416 2 74 är 
: 418 2 74 det 
: 420 4 74 jag
-424
: 424 2 71 Och 
: 426 2 72 vi 
: 428 2 74 föl
: 430 2 74 jer 
: 432 2 74 sĺ 
: 434 2 74 lätt 
-437
: 438 2 74 Min
: 442 2 74 sta 
: 444 2 74 mot
: 446 2 72 stĺnd
: 448 2 71 ets 
: 450 6 69 lag
-456
: 456 2 71 Mot 
: 458 2 72 en 
: 460 4 74 himm
: 464 2 71 el 
: 466 2 69 som 
: 468 2 67 har 
: 470 2 69 nu
: 472 2 71 mmer 
: 474 6 72 sju
-480: 480 2 69 Ing
: 482 2 67 et 
: 484 2 66 sto
: 486 2 67 ppar 
: 488 4 69 oss 
: 492 8 71 nu
-502 510
: 520 2 74 I 
: 524 2 74 natt 
: 528 2 74 i 
: 530 2 74 natt 
-533
: 534 4 74 Kom 
: 538 2 74 och 
: 540 4 74 ge 
: 544 2 74 kom 
: 546 2 74 och 
: 548 4 74 ta
-552
: 552 2 71 Kom 
: 554 2 72 och 
: 556 2 74 dan
: 558 2 74 sa 
: 560 2 74 med 
: 562 2 74 mig
-565
: 566 2 74 Du 
: 570 2 74 är 
: 572 2 74 allt 
: 574 2 72 jag 
: 576 2 71 vill 
: 578 6 69 ha
-584
: 584 2 71 Ing
: 586 2 72 en
: 588 4 74 ting 
: 592 2 71 som 
: 594 2 69 vi 
: 596 2 67 gör 
: 598 2 69 är 
: 600 2 71 ta
: 602 6 72 bu
-608
: 608 2 69 Ing
: 610 2 67 et 
: 612 2 66 sto
: 614 2 67 ppar 
: 616 4 69 oss 
: 620 6 67 nu.
-630 730
: 752 2 75 Har 
: 754 2 72 sĺ 
: 756 4 72 svĺrt 
: 760 2 70 att 
: 762 2 72 slä
: 766 4 72 ppa 
: 770 2 70 din 
: 772 2 72 hand
-775
: 776 2 72 Och 
: 778 2 70 se 
: 780 2 72 dig 
: 784 2 72 gĺ 
-786
: 786 2 70 Mot 
: 788 2 72 ett 
: 790 2 75 annat
: 794 4 75 hĺll 
: 798 2 70 - 
: 800 6 72 -
-808
: 814 2 75 När 
: 816 2 75 vi 
: 818 2 73 pre
: 820 4 73 cis 
: 824 2 72 har 
: 826 6 72 träf
: 832 2 70 fats 
: 834 4 68 du 
: 838 2 70 och 
: 840 4 72 jag.
-850 865
: 880 2 75 Har 
: 882 2 72 du 
: 884 4 72 ock
: 888 2 70 sĺ 
: 890 2 72 tänkt 
: 894 4 72 pĺ 
: 898 2 70 i
: 900 2 72 bland
-903
: 904 2 72 Att 
: 906 2 70 ingen
: 908 2 72 ting 
: 912 2 72 spe
: 914 2 70 lar 
: 916 2 72 nĺ
: 918 2 75 gon 
: 922 4 75 ro 
: 926 2 70 - 
: 928 8 72 ll
-938
: 944 2 75 Och 
: 946 2 73 att 
: 948 4 73 i 
: 952 2 72 mor
: 954 4 72 gon 
: 958 4 70 är 
: 962 4 68 en 
: 966 2 70 annan 
: 968 4 72 dag?
-980
: 1008 2 73 Mĺn
: 1010 2 73 dag 
: 1012 2 73 mor
: 1016 2 73 gon
-1020
: 1024 2 72 När 
: 1028 2 72 vi 
: 1030 2 70 vak
: 1032 4 68 nar
-1037
: 1040 2 70 Är 
: 1044 4 70 det 
: 1048 2 68 säkert 
: 1050 4 72 se
: 1054 2 68 na
: 1056 2 70 re 
: 1058 2 65 än 
: 1060 4 68 van
: 1064 2 72 ligt
-1068
: 1072 2 73 Mĺn
: 1074 2 73 dag 
: 1076 2 73 mor
: 1080 2 73 gon
-1084
: 1088 2 72 Och 
: 1090 2 72 vi 
: 1092 2 72 sak
: 1094 2 70 nar 
: 1096 4 68 -
-1100
: 1100 2 70 Ett 
: 1104 2 70 a
: 1108 2 72 nnat 
: 1112 2 74 hjär
: 1116 2 75 ta
-1119
: 1120 2 75 Som 
: 1122 2 75 slĺr 
: 1126 2 75 i 
: 1130 2 75 takt.
-1134
: 1144 2 75 I 
: 1148 2 75 natt 
: 1152 2 75 i 
: 1154 2 75 natt 
: 1158 2 75 är 
: 1162 2 75 det 
: 1164 2 75 du 
: 1168 2 75 är 
: 1170 2 75 det 
: 1172 4 75 jag
-1176
: 1176 2 72 Och 
: 1178 2 73 vi 
: 1180 2 75 föl
: 1182 2 75 jer 
: 1184 2 75 sĺ 
: 1186 2 75 lätt
-1189
: 1190 2 75 Min
: 1194 2 75 sta 
: 1196 2 75 mot
: 1198 2 73 stĺnd
: 1200 2 72 ets 
: 1202 6 70 lag
-1208
: 1208 2 72 Mot 
: 1210 2 73 en 
: 1212 4 75 himm
: 1216 2 72 el 
: 1218 2 70 som 
: 1220 2 68 har 
: 1222 2 70 nu
: 1224 2 72 mmer 
: 1226 6 73 sju
-1232
: 1232 2 70 Ing
: 1234 2 68 et 
: 1236 2 67 sto
: 1238 2 68 ppar 
: 1240 4 70 oss 
: 1244 8 72 nu.
-1255 1398
: 1408 2 73 När 
: 1410 2 73 du 
: 1412 2 73 rör 
: 1416 2 73 mig
-1419
: 1424 2 72 Händer 
: 1428 2 72 nĺgot 
: 1430 2 70 inu
: 1432 4 68 ti
-1437
: 1440 2 73 Och 
: 1442 2 73 du 
: 1444 2 73 gör 
: 1448 2 73 mig
-1451
: 1452 2 72 vild 
: 1454 2 72 och 
: 1456 2 75 ex
: 1458 2 72 al
: 1460 2 77 te
: 1464 2 77 rad
-1468
: 1472 2 73 Om 
: 1474 2 73 du 
: 1476 2 73 hör 
: 1480 2 73 mig
-1484
: 1488 2 72 Har 
: 1492 2 72 jag 
: 1494 2 70 nĺtt 
: 1496 4 68 att 
: 1500 2 70 sä
: 1504 2 70 ga 
: 1508 2 72 dig
-1511
: 1512 2 74 Sta
: 1516 2 75 nna 
: 1520 2 75 här 
: 1522 2 75 hos 
: 1528 2 75 mig
-1531
: 1532 2 75 Natt 
: 1536 2 75 i 
: 1538 2 75 natt
-1541
: 1542 2 75 Är 
: 1546 2 75 det 
: 1548 2 75 du 
: 1552 2 75 är 
: 1554 2 75 det 
: 1556 4 75 jag
-1560
: 1560 2 72 Och 
: 1562 2 73 vi 
: 1564 2 75 föl
: 1566 2 75 jer 
: 1568 2 75 sĺ 
: 1570 2 75 lätt
-1573
: 1574 2 75 Min
: 1578 2 75 sta 
: 1580 2 75 mot
: 1582 2 73 stĺn
: 1584 2 72 dets 
: 1586 6 70 lag
-1592
: 1592 2 72 Mot 
: 1594 2 73 en 
: 1596 4 75 himm
: 1600 2 72 el 
: 1602 2 70 som 
: 1604 2 68 har 
: 1606 2 70 numm
: 1608 2 72 er 
: 1610 6 73 sju
-1616: 1616 2 70 Ing
: 1618 2 68 et 
: 1620 2 67 stopp
: 1622 2 68 ar 
: 1624 4 70 oss 
: 1628 8 72 nu
-1640
: 1648 2 70 Ing
: 1650 2 68 et 
: 1652 2 67 sto
: 1654 2 68 ppar 
: 1656 4 70 oss 
: 1660 8 68 nu
E
