#TITLE:Home
#ARTIST:Blake Shelton
#EDITION:SingStar Country
#MP3:Blake Shelton - Home.mp3
#COVER:Blake Shelton - Home [CO].jpg
#VIDEO:Blake Shelton - Home [VD#0].avi
#VIDEOGAP:0
#BPM:256,1
#GAP:15462,71
: 0 3 52 A
: 4 3 55 no
: 8 3 52 ther
: 12 3 55  sum
: 16 3 55 mer
: 20 4 57  day
: 24 4 59 ~
- 30
: 32 3 52 Has
: 36 3 55  come
: 40 3 52  and
: 44 3 55  gone
: 48 3 55  a
: 52 4 57 way
: 56 4 59 ~
- 62 63
: 72 3 47 In
: 76 4 52  Pa
: 80 2 55 ris
: 84 3 55  and
: 88 4 52  Rome
* 92 6 50 ~
- 100
: 104 1 50 But
: 106 1 50  I
: 108 3 52  wan
: 112 2 55 na
: 116 2 55  go
: 120 16 55  home
- 138 161
: 181 4 52 Mmm
: 185 6 55 ~
: 191 2 52 ~
: 193 5 50 ~
- 200 236
: 256 3 52 May
: 260 3 55 be
: 264 3 52  sur
: 268 3 55 round
: 272 2 55 ed
: 276 4 57  by
: 280 3 59 ~
- 285
: 289 3 52 A
: 293 3 55  mil
: 297 3 52 lion
: 301 2 55  peo
: 305 2 55 ple
: 308 4 57  I
: 312 4 59 ~
- 318 319
: 329 4 50 Still
: 333 3 52  feel
: 337 2 55  all
: 341 3 55  a
: 345 4 52 lone
: 349 5 50 ~
- 356
: 360 4 50 I
: 364 4 52  wan
: 368 2 55 na
: 372 2 55  go
: 377 17 55  home
- 396 397
: 420 3 50 Oh
: 424 3 50  I
: 428 3 52  miss
: 434 3 52  you
* 437 11 55 -,
: 450 3 55  you
: 453 2 52 ~
: 457 2 55 know
: 459 3 52 ~
: 462 6 50 ~
- 470 471
: 497 2 57 And
: 499 4 59  I've
: 504 3 62  been
: 509 4 62  keep
: 513 5 64 ~
: 519 3 62 ing
- 523
* 524 7 62 All
: 534 3 60  the
: 538 3 60  let
: 542 3 57 ters
: 545 14 59 ~
- 561
: 563 3 57 That
: 567 3 55  I
: 572 4 57  wrote
: 577 3 55  to
: 581 4 57  you
: 585 4 59 ~
- 591 600
: 620 4 55 Each
: 625 3 57  one
: 629 2 59  a
: 633 9 57  line
: 645 3 59  or
: 650 15 55  two
- 667 668
: 681 3 45 ''I'm
: 685 3 52  fine
: 689 3 55 ~
: 693 3 57 ba
: 697 3 59 by
- 701
: 701 4 55 How
: 705 8 57 ~
: 713 2 55 are
: 717 3 55  you?
: 720 15 57 -''
- 737 738
: 753 2 57 And
: 755 4 59  I
: 760 4 62  would
: 765 6 64  send
: 773 3 62  them
: 778 4 62  but
- 784
: 786 4 59 I
: 790 6 60 ~
: 797 6 60 know
: 805 3 59  that
: 809 4 57  it's
: 817 5 55  just
- 824
: 826 7 57 Not
: 833 3 59  e
: 839 5 57 nough
: 844 4 59 ~
: 848 2 57 ~
: 850 3 55 ~
- 855 856
: 873 3 55 My
: 877 5 57  words
: 885 3 59  were
: 891 8 57  cold
: 902 3 59  and
* 908 8 55  flat
- 918 919
: 937 3 52 And
: 941 3 55  you
: 945 2 57  de
: 949 4 57 serve
: 953 3 59 ~
- 958
: 960 4 55 More
: 964 20 57 ~
: 984 3 55 ~
: 988 3 55 than
: 993 4 55  that
: 997 13 57 ~
- 1012 1037
: 1057 3 52 A
: 1061 3 55 no
: 1065 3 52 ther
: 1069 3 55  ae
: 1073 2 55 ro
: 1077 4 57 plane
: 1081 4 59 ~
- 1087
: 1089 3 52 A
: 1093 3 55 no
: 1097 3 52 ther
: 1101 3 55  sun
: 1105 3 55 ny
: 1109 4 57  place
: 1113 5 59 ~
- 1120
: 1122 4 57 I'm
: 1129 3 57  luck
: 1134 4 55 y
: 1141 4 55  I
: 1147 3 55  know
: 1150 2 52 ~
: 1152 4 50 ~
- 1158
: 1161 1 50 But
: 1163 2 50  I
: 1165 3 52  wan
: 1169 3 55 na
: 1173 3 55  go
: 1178 13 55  home
- 1193 1205
: 1225 3 50 I've
: 1229 4 52  got
: 1236 3 55  to
: 1242 8 55  go
: 1253 2 55  home
: 1255 2 52 ~
: 1257 5 50 ~
- 1264 1273
: 1293 4 59 Let
: 1297 2 62  me
: 1301 2 62  go
- 1304
: 1305 4 62 Home
: 1309 40 64 ~
: 1349 12 62 ~
: 1361 11 60 ~
: 1373 5 57 ~
: 1378 15 59 ~
: 1393 3 57 ~
: 1396 5 55 ~
- 1403 1404
: 1412 6 59 I'm
: 1418 6 62 ~
: 1424 3 59 ~
: 1429 3 59 just
: 1434 3 57  too
* 1439 2 59  far
: 1441 2 57 ~
: 1443 3 55 ~
- 1448
: 1453 4 62 From
: 1458 3 59  where
: 1462 2 57  you
: 1466 2 59  are
: 1468 2 57 ~
: 1470 4 55 ~
- 1476
: 1481 3 50 I
: 1485 3 52  wan
: 1489 3 55 na
: 1493 5 55  come
: 1501 4 55  home
: 1505 4 52 ~
: 1509 7 50 ~
- 1518 1792
: 1812 4 59 And
: 1816 3 62  I
: 1821 3 62  feel
* 1824 5 64 ~
: 1831 3 62 just
: 1836 5 62  like
- 1842
: 1844 3 60 I'm
: 1849 4 60  liv
: 1855 3 57 ing
: 1859 9 59 ~
- 1870
: 1875 2 57 Some
: 1877 2 55 ~
: 1880 3 55 one
: 1885 3 57  el
: 1890 4 55 se's
: 1895 4 57  life
: 1899 4 59 ~
- 1905 1906
: 1929 3 52 It's
: 1932 3 55  like
: 1936 3 57  I
: 1941 4 59  just
: 1946 4 57  stepped
: 1953 5 59  out
: 1962 15 55 side
- 1979 1980
: 1993 4 49 When
: 1997 3 55  e
: 2001 3 55 very
: 2005 3 57 thing
: 2009 4 59  was
- 2014
: 2014 3 55 Go
: 2017 6 57 ~
: 2025 3 55 in'
: 2030 4 55  right
: 2034 8 57 ~
- 2044 2045
: 2065 3 62 And
: 2069 3 67 ~
: 2073 3 66 I
: 2077 6 64  know
: 2086 2 62  just
: 2090 10 62  why
: 2100 3 60 ~
- 2104
: 2105 2 60 You
: 2109 4 60  could
: 2114 4 59  not
: 2121 11 57  come
- 2133
: 2134 3 55 A
: 2137 3 57 long
: 2145 3 55  with
: 2149 4 57  me
: 2153 6 59 ~
: 2159 2 57 ~
: 2161 4 55 ~
- 2167 2168
: 2189 6 57 This
: 2197 2 59  was
: 2201 5 57  not
: 2209 6 59  your
: 2217 15 57  dream
- 2234 2235
: 2245 2 53 But
: 2249 3 53  you
: 2253 5 55  al
: 2260 5 57 ways
: 2268 5 59  be
: 2273 3 57 ~
* 2277 14 57 lieved
- 2293
: 2296 4 59 In
: 2300 3 57 ~
: 2306 3 59 me
: 2309 11 57 ~
- 2322 2349
: 2369 3 62 A
: 2373 3 59 no
: 2377 2 57 ther
: 2381 3 57  win
: 2385 2 55 ter
: 2389 6 55  day
- 2396
: 2397 6 62 Has
: 2405 3 59  come
: 2409 2 57  and
: 2413 3 57  gone
: 2417 2 55  a
: 2422 5 55 way
- 2429
: 2433 3 62 In
: 2437 3 59  e
: 2441 2 57 ven
: 2445 4 57  Pa
: 2449 2 55 ris
: 2453 2 55  and
: 2457 8 55  Rome
- 2467
: 2472 1 55 And
: 2474 2 55  I
: 2477 4 62  wan
: 2482 3 59 na
: 2487 4 57  go
: 2492 4 59  home
: 2496 3 57 ~
: 2499 7 55 ~
- 2508 2520
: 2540 4 52 Let
: 2547 5 55  me
* 2555 6 59  go
: 2561 4 57  home
: 2565 11 55 ~
- 2578 2601
: 2621 4 59 And
: 2625 3 62 ~
: 2629 3 59 I'm
: 2633 2 57  sur
: 2637 3 57 round
: 2641 3 55 ed
: 2645 8 55  by
- 2655
: 2657 3 62 A
: 2661 3 59  mil
: 2665 2 57 lion
: 2669 3 57  peo
: 2673 2 55 ple
: 2677 8 55  I
- 2687
: 2693 4 62 Still
: 2701 4 62  feel
: 2705 3 64 ~
: 2709 2 62 a
* 2713 4 62 lone
: 2717 4 64 ~
: 2721 3 62 ~
- 2725
: 2725 3 62 And
: 2729 2 59  I
: 2733 3 62  wan
: 2737 3 59 na
: 2742 3 57  go
: 2746 3 59  home
: 2749 3 57 ~
: 2752 12 55 ~
- 2766 2767
: 2789 2 50 Oh
: 2793 3 50  I
: 2797 6 52  miss
: 2805 12 55  you,
: 2819 2 55  you
: 2823 3 55  know
: 2826 3 52 ~
: 2829 4 50 ~
- 2835 2836
: 2861 4 59 Let
: 2865 3 62  me
: 2869 3 62  go
- 2873
: 2873 5 62 Home
: 2878 39 64 ~
: 2917 13 62 ~
: 2931 7 60 ~
: 2940 5 57 ~
: 2945 15 59 ~
: 2960 2 57 ~
: 2962 5 55 ~
- 2969 2970
: 2982 4 59 I've
: 2986 4 62 ~
: 2990 5 59 ~
: 2996 3 59 had
: 3001 4 57  my
: 3006 2 59  run
: 3008 2 57 ~
: 3010 4 55 ~
- 3016
: 3022 4 62 Ba
: 3026 3 59 by
: 3030 3 57  I'm
: 3035 2 59  done
: 3037 3 57 ~
: 3040 5 55 ~
- 3047
: 3050 3 50 I'm
: 3054 3 52  com
: 3058 3 55 in'
: 3062 5 55  back
: 3070 2 55  home
: 3072 2 52 ~
: 3074 4 50 ~
- 3080 3097
: 3117 4 59 Let
: 3121 3 62  me
: 3125 2 62  go
- 3128
: 3129 5 62 Home
: 3134 20 64 ~
: 3154 4 66 ~
* 3158 3 67 ~
: 3161 4 66 ~
: 3165 3 62 ~
: 3170 5 62 ~
: 3178 3 64 ~
: 3182 3 59 ~
: 3186 4 62 ~
: 3190 11 59 ~
: 3201 2 57 ~
: 3203 10 55 ~
- 3215 3216
: 3242 1 55 It
: 3244 1 55 'll
: 3246 4 59  all
: 3250 4 62 ~
: 3254 4 59 ~
: 3259 4 59 be
: 3264 4 57  all
: 3271 3 59  right
: 3274 3 57 ~
: 3278 12 55 ~
- 3292 3293
: 3307 4 55 I'll
: 3313 4 62  be
: 3319 4 59  home
: 3326 4 57  to
: 3333 4 59 night
: 3337 20 57 ~
- 3359 3360
: 3381 3 50 I'm
: 3386 3 62  com
: 3389 4 64 ~
: 3393 4 62 in'
: 3400 5 57  back
: 3405 14 59 ~
: 3420 4 57 home
: 3424 15 55 ~
E
