#TITLE:First Date
#ARTIST:Blink 182
#MP3:Blink 182 - First Date.mp3
#COVER:Blink 182 - First Date [CO].jpg
#BACKGROUND:Blink 182 - First Date [BG].jpg
#BPM:191
#GAP:13100
#ENCODING:UTF8
: 0 2 60 In 
: 2 2 60 the 
: 4 6 64 car 
: 10 2 60 I 
: 12 2 62 just 
: 14 4 64 can't 
: 18 8 60 wait
- 28
: 30 2 55 to 
: 32 2 55 pick 
: 34 2 55 you 
: 36 4 64 up 
: 40 2 64 on 
: 42 2 60 our 
: 44 2 62 very 
: 46 2 62 fir
: 48 4 64 st 
: 52 6 60 date
- 60
: 64 2 55 Is 
: 66 2 55 it 
: 68 4 64 cool 
: 72 2 60 if 
: 74 2 60 I 
: 76 4 62 hold 
: 80 4 64 your 
: 84 6 60 hand
- 92
: 96 2 55 Is 
: 98 2 55 it 
: 100 4 64 wrong 
: 104 2 64 if 
: 106 2 60 I 
: 108 2 62 think 
: 110 2 62 it's 
: 112 2 62 lame 
: 114 2 64 to 
: 116 6 60 dance
- 124
: 128 2 55 Do 
: 130 2 55 you 
: 132 6 64 like 
: 138 2 60 my 
: 140 2 62 stup
: 142 4 64 id 
: 146 8 60 hair
- 156
: 160 2 55 Would 
: 162 2 55 you 
: 164 4 64 guess
- 168
: 168 2 64 that 
: 170 2 60 I 
: 172 2 62 didn't 
: 174 2 62 know 
: 176 2 62 what 
: 178 2 64 you 
: 180 6 60 wear
- 188
: 192 2 55 I'm 
: 194 2 55 scar
: 196 6 64 ed 
: 202 2 60 of 
: 204 4 62 what 
: 208 4 64 you 
: 212 6 60 think
- 220
: 222 2 55 You 
: 224 2 55 make 
: 226 2 55 me 
: 228 2 64 ner
: 230 2 64 vous 
: 232 2 64 so 
: 234 2 60 I 
: 236 2 62 real
: 238 2 62 ly 
: 240 4 64 can't 
: 244 6 60 eat
- 252
: 260 4 62 Let's 
: 264 6 60 go
- 274
: 276 4 62 don't 
: 280 6 60 wait
- 288
: 292 4 64 this 
: 296 4 60 night's 
: 300 4 62 al
: 304 4 60 most 
: 308 4 62 o
: 312 6 60 ver
- 320
: 324 4 62 Hon
: 328 6 60 est
- 336
: 340 4 62 let's 
: 344 6 60 make 
: 356 4 64 this 
: 360 4 60 night 
: 364 4 62 last 
: 368 4 60 for
: 372 4 62 e
: 376 6 60 ver
- 383
: 384 4 55 For
: 388 4 62 e
: 392 6 60 ver 
: 400 4 55 and 
: 404 4 62 e
: 408 6 60 ver
- 415
: 416 4 64 let's 
: 420 4 64 make 
: 424 4 60 this 
: 428 4 62 last 
: 432 4 60 for
: 436 4 62 e
: 440 6 60 ver
- 447
: 448 4 55 For
: 452 4 62 e
: 456 6 60 ver 
: 464 4 55 and 
: 468 4 62 e
: 472 6 60 ver
- 479
: 480 4 64 let's 
: 484 4 64 make 
: 488 4 60 this 
: 492 4 62 last 
: 496 4 60 for
: 500 4 62 e
: 504 6 60 ver
- 520
: 640 2 60 When 
: 642 2 60 you 
: 644 6 64 smile 
: 650 2 60 I 
: 652 2 62 melt 
: 654 4 64 in
: 658 8 60 side
- 668
: 672 2 55 I'm 
: 674 2 55 not 
: 676 2 64 wor
: 678 2 64 thy 
: 680 2 64 for 
: 682 2 64 a 
: 684 2 62 min
: 686 2 62 ute 
: 688 2 62 of 
: 690 2 64 your 
: 692 6 60 time
- 700
: 702 2 55 I 
: 704 2 55 real
: 706 2 55 ly 
: 708 4 64 wish 
: 712 2 64 it 
: 714 2 64 was 
: 716 2 62 on
: 718 2 62 ly 
: 720 2 62 me 
: 722 2 64 and 
: 724 6 60 you
- 733
: 734 2 55 I'm 
: 736 2 55 jeal
: 738 2 55 ous 
: 740 4 64 of 
: 744 2 64 e
: 746 2 64 very
: 748 2 62 bod
: 750 2 62 y 
: 752 2 62 in 
: 754 2 64 the 
: 756 6 60 room
- 764
: 768 2 55 Please 
: 770 2 55 don't 
: 772 2 64 look 
: 774 2 64 at 
: 776 4 64 me 
: 780 2 62 with 
: 782 4 64 those 
: 786 8 60 eyes
- 796
: 800 2 55 Please 
: 802 2 55 don't 
: 804 4 64 hint 
: 808 2 64 that 
: 810 2 64 you're 
: 812 2 62 cap
: 814 2 62 ab
: 816 2 62 le 
: 818 2 64 of 
: 820 6 60 lies
- 828
: 830 2 55 I 
: 832 2 55 dread 
: 834 2 55 the 
: 836 4 64 thought 
: 840 2 64 of 
: 842 2 60 our 
: 844 2 62 very 
: 846 2 62 fir
: 848 4 64 st 
: 852 6 60 kiss
- 860
: 862 2 55 A 
: 864 2 55 trag
: 866 2 55 et 
: 868 4 64 that 
: 872 4 64 I 
: 876 2 62 prob
: 878 2 62 ably 
: 880 2 62 gon
: 882 2 64 na 
: 884 6 60 miss
- 892
: 900 4 62 Let's 
: 904 6 60 go
- 912
: 916 4 62 don't 
: 920 6 60 wait
- 928
: 932 4 64 this 
: 936 4 60 night 
: 940 4 62 al
: 944 4 60 most 
: 948 4 62 o
: 952 6 60 ver
- 960
: 964 4 62 Hon
: 968 6 60 est
- 976
: 980 4 62 let's 
: 984 6 60 make 
: 996 4 64 this 
: 1000 4 60 night 
: 1004 4 62 last 
: 1008 4 60 for
: 1012 4 62 e
: 1016 6 60 ver
- 1023
: 1024 4 55 For
: 1028 4 62 e
: 1032 6 60 ver 
: 1040 4 55 and 
: 1044 4 62 e
: 1048 6 60 ver
- 1055
: 1056 4 64 let's 
: 1060 4 64 make 
: 1064 4 60 this 
: 1068 4 62 last 
: 1072 4 60 for
: 1076 4 62 e
: 1080 6 60 ver
- 1087
: 1088 4 55 For
: 1092 4 62 e
: 1096 6 60 ver 
: 1104 4 55 and 
: 1108 4 62 e
: 1112 6 60 ver
- 1119
: 1120 4 64 let's 
: 1124 4 64 make 
: 1128 4 60 this 
: 1132 4 62 last 
: 1136 4 60 for
: 1140 4 62 e
: 1144 6 60 ver
- 1200
: 1540 4 62 Let's 
: 1544 6 60 go
- 1552
: 1556 4 62 don't 
: 1560 6 60 wait
- 1570
: 1572 4 64 this 
: 1576 4 60 night's 
: 1580 4 62 al
: 1584 4 60 mosst 
: 1588 4 62 o
: 1592 6 60 ver
- 1600
: 1604 4 62 Hon
: 1608 6 60 est
- 1616
: 1620 4 62 let's 
: 1624 6 60 make 
: 1636 4 64 this 
: 1640 4 60 night 
: 1644 4 62 last 
: 1648 4 60 for
: 1652 4 62 e
: 1656 6 60 ver
- 1663
: 1664 4 55 For
: 1668 4 62 e
: 1672 6 60 ver 
: 1680 4 55 and 
: 1684 4 62 e
: 1688 6 60 ver
- 1695
: 1696 4 64 let's 
: 1700 4 64 make 
: 1704 4 60 this 
: 1708 4 62 last 
: 1712 4 60 for
: 1716 4 62 e
: 1720 6 60 ver
- 1727
: 1728 4 55 For
: 1732 4 62 e
: 1736 6 60 ver 
: 1744 4 55 and 
: 1748 4 62 e
: 1752 6 60 ver
- 1759
: 1760 4 64 let's 
: 1764 4 64 make 
: 1768 4 60 this 
: 1772 4 62 last 
: 1776 4 60 for
: 1780 4 62 e
: 1784 6 60 ver
- 1791
: 1792 4 55 For
: 1796 4 62 e
: 1800 6 60 ver 
: 1808 4 55 and 
: 1812 4 62 e
: 1816 6 64 ver
- 1823
: 1824 4 64 let's 
: 1828 4 64 make 
: 1832 4 64 this 
: 1836 4 65 last 
: 1840 4 64 for
: 1844 4 62 e
: 1848 6 64 ver
- 1855
: 1856 4 55 For
: 1860 4 62 e
: 1864 6 60 ver 
: 1872 4 55 and 
: 1876 4 62 e
: 1880 6 64 ver
- 1887
: 1888 4 64 let's 
: 1892 4 64 make 
: 1896 4 64 this 
: 1900 4 65 last 
: 1904 4 64 for
: 1908 4 62 e
: 1912 12 60 ver
E