#TITLE:Obvious
#ARTIST:Blink 182
#LANGUAGE:Englisch
#EDITION:[SC]-Songs
#MP3:Blink 182 - Obvious.mp3
#COVER:Blink 182 - Obvious [CO].jpg
#BACKGROUND:Blink 182 - Obvious [BG].jpg
#BPM:340
#GAP:16710
: 0 2 -1 I
: 4 3 8  saw
: 8 2 4  you
: 12 2 3  a
: 16 10 4 gain
- 28 29
: 56 2 -1 I
: 60 2 -1  think
: 64 2 -1  you
: 68 3 8  used
: 72 2 4  me
: 76 2 3  a
: 80 8 4 gain
- 90 104
: 124 2 -1 Should
: 128 2 1  we
: 132 2 8  try
: 136 2 4  this
: 140 2 3  be
: 144 5 4 fore
- 150
: 152 2 -1 We
: 156 3 1  give
: 161 5 4  up
: 168 2 -1  and
: 172 3 1  move
: 176 9 4  on
- 186
: 188 2 3 And
: 192 2 4  pre
* 196 2 8 tend
: 200 2 4  to
: 204 2 3  re
: 208 4 4 store
- 214
: 216 3 -1 What
: 220 2 1  we
: 224 6 4  have
: 232 2 -1  and
: 236 3 1  hold
: 240 8 4  on
- 250
: 253 4 4 At
: 260 8 8  times
: 274 6 8  like
: 285 38 4  these
- 325 362
: 382 3 4 It's
: 389 6 8  ob
: 400 7 8 vi
: 413 28 4 ous
- 443 748
: 768 2 -1 I
: 772 2 8  saw
: 776 2 4  you
: 780 2 3  a
: 784 9 4 gain
- 795 804
: 824 2 -1 I
: 828 2 -1  know,
: 832 2 -1  you
: 836 3 8  fucked
: 840 3 4  him
: 844 2 3  a
: 848 9 4 gain
- 859 872
: 892 2 -1 Can
: 896 2 1  you
: 900 2 8  com
: 904 2 4 fort
: 908 2 3  your
: 912 4 4 self
- 918
: 920 2 -1 With
: 924 2 1  the
: 928 5 4  sense
: 936 2 -1  of
: 940 2 1  re
: 944 7 4 venge
- 953
: 956 2 3 Are
: 960 2 4  you
: 964 3 8  lea
: 968 2 4 ving
: 972 2 3  me
* 976 4 4  here
- 982
: 984 2 -1 With
: 988 2 1  the
: 992 5 4  taste
: 1000 2 -1  of
: 1004 2 1  the
: 1008 9 4  end,
- 1019
: 1022 3 4 At
: 1028 8 8  times
: 1041 6 8  like
* 1053 33 4  these
- 1088 1130
: 1150 3 4 It's
: 1157 6 8  ob
: 1168 6 8 vi
: 1180 37 4 ous
- 1219 1258
: 1278 3 4 At
: 1285 7 8  times
: 1297 6 8  like
: 1309 38 4  these
- 1349 1386
: 1406 3 4 It's
* 1413 8 8  ob
: 1425 7 8 vi
: 1437 36 4 ous
- 1475 2028
: 2048 2 -1 I
: 2052 2 8  saw
: 2056 2 4  you
: 2060 2 3  a
: 2064 6 4 gain
- 2071
: 2072 2 -1 And
: 2076 2 1  a
: 2080 5 4 gain
- 2086
: 2087 2 -1 And
: 2091 2 1  a
: 2095 7 4 gain
- 2104
: 2106 2 4 There's
: 2109 2 4  some
: 2114 2 8  room
: 2118 2 4  to
: 2122 2 3  move
: 2126 4 4  on
- 2132
: 2134 2 -1 To
: 2137 3 1  move
: 2142 3 4  on
- 2147
: 2150 2 -1 To
: 2153 2 1  move
* 2157 5 4  on
- 2164
: 2170 2 3 And
: 2173 2 4  I
: 2176 3 8  saw
: 2181 2 4  you
: 2184 2 3  a
: 2188 5 4 gain
- 2195
: 2197 2 -1 And
: 2201 2 1  a
: 2204 4 4 gain
- 2210
: 2213 2 -1 And
: 2217 2 1  a
: 2221 6 4 gain
- 2229 2230
* 2240 3 8 How
: 2244 2 4  do
: 2248 2 3  we
: 2253 4 4  fix
: 2260 2 4  this
- 2264
: 2266 2 1 If
: 2270 4 4  we
: 2276 2 4  ne
: 2280 2 4 ver
: 2284 2 4  had
: 2288 2 4  vi
: 2292 4 6 sion
- 2298
: 2300 2 -1 I
: 2303 2 8  saw
: 2307 2 4  you
: 2311 2 3  a
: 2315 5 4 gain
- 2322
: 2324 2 -1 And
: 2327 2 1  a
: 2331 5 4 gain
- 2338
: 2340 2 -1 And
: 2344 2 1  a
: 2348 5 4 gain
- 2355
: 2358 2 4 There's
: 2362 2 4  some
: 2366 2 8  room
: 2370 2 4  to
: 2374 2 3  move
* 2378 4 4  on
- 2384
: 2387 2 -1 To
: 2391 2 1  move
: 2395 3 4  on
- 2400
: 2404 2 -1 To
: 2407 2 1  move
: 2411 5 4  on
- 2418
: 2422 2 3 And
: 2425 2 4  I
* 2429 3 8  saw
: 2433 3 4  you
: 2438 2 3  a
: 2442 5 4 gain
- 2448
: 2450 2 -1 And
: 2454 2 1  a
: 2458 5 4 gain
- 2464
: 2466 2 -1 And
: 2469 2 1  a
: 2473 6 4 gain
- 2481 2482
: 2492 2 8 How
: 2496 2 4  do
: 2499 2 3  we
: 2503 5 4  fix
: 2511 4 4  this
- 2516
: 2516 2 4 If
* 2521 4 4  we
: 2528 2 4  ne
: 2532 2 4 ver
: 2536 2 4  had
: 2540 2 4  vi
: 2544 3 6 sion
- 2549
: 2551 2 -1 I
: 2555 3 8  saw
: 2561 2 4  you
: 2565 2 3  a
: 2569 5 4 gain
- 2575
: 2577 2 -1 And
: 2581 2 1  a
: 2585 4 4 gain
- 2590
: 2592 2 -1 And
: 2596 2 1  a
: 2600 6 4 gain
- 2608
: 2610 3 4 There's
: 2615 2 4  some
* 2619 2 8  room
: 2623 2 4  to
: 2627 2 3  move
: 2631 4 4  on
- 2637
: 2639 2 -1 To
: 2643 2 1  move
: 2646 3 4  on
- 2651
: 2654 2 -1 To
: 2658 2 1  move
: 2662 6 4  on
- 2670
: 2674 2 3 And
: 2677 2 4  I
: 2682 2 8  saw
: 2686 2 4  you
: 2690 2 3  a
: 2694 4 4 gain
- 2700
: 2703 2 -1 And
: 2707 2 1  a
: 2710 5 4 gain
- 2717
: 2719 2 -1 And
: 2723 2 1  a
* 2726 7 4 gain
- 2735 2736
: 2745 2 8 How
: 2749 2 4  do
: 2753 2 3  we
: 2757 5 4  fix
: 2765 2 4  this
- 2768
: 2769 3 4 If
: 2774 4 4  we
: 2781 2 4  ne
: 2784 2 4 ver
: 2788 2 4  had
: 2792 2 4  vi
: 2796 3 6 sion
- 2801
: 2805 2 -1 I
: 2808 3 8  saw
: 2812 2 4  you
: 2816 2 3  a
: 2820 5 4 gain
- 2827
: 2830 2 -1 And
: 2834 2 1  a
: 2838 5 4 gain
- 2844
: 2846 2 -1 And
: 2850 2 1  a
: 2854 6 4 gain
- 2862
: 2864 2 4 There's
: 2867 2 4  some
: 2871 2 8  room
: 2875 2 4  to
: 2878 2 3  move
: 2882 5 4  on
- 2889
: 2893 2 -1 To
: 2896 2 1  move
: 2900 3 4  on
- 2905
: 2908 2 -1 To
* 2911 3 1  move
: 2916 5 4  on
- 2923
: 2927 2 3 And
: 2930 2 4  I
* 2935 3 8  saw
: 2940 2 4  you
: 2943 2 3  a
: 2947 5 4 gain
- 2954
: 2956 2 -1 And
: 2960 2 1  a
: 2964 4 4 gain
- 2970
: 2972 2 -1 And
: 2976 2 1  a
: 2980 6 4 gain
- 2988 2989
: 2997 2 8 How
: 3001 2 4  do
: 3005 2 3  we
: 3010 4 4  fix
: 3017 3 4  this
- 3021
: 3022 2 4 If
: 3027 4 4  we
: 3034 3 4  ne
: 3038 2 4 ver
: 3042 2 4  had
: 3046 2 4  vi
: 3050 4 6 sion
E
