#TITLE:Adam's Song
#ARTIST:Blink 182
#MP3:Blink 182 - Adam's Song.mp3
#COVER:Blink 182 - Adam's Song [CO].jpg
#BACKGROUND:Blink 182 - Adam's Song [BG].jpg
#BPM:286,84
#GAP:15000
#ENCODING:UTF8
#EDITION:[SC]-Songs
: 0 4 14 I
: 6 8 16  ne
: 14 4 19 ver
: 19 9 16  thought
: 35 3 14  I'd
: 39 7 16  die
: 48 4 19  a
: 52 12 16 lone
- 66
: 68 3 12 I
: 72 8 12  laughed
: 80 4 14  the
: 84 12 17  lou
: 98 6 16 dest
: 106 8 12  who'd
: 114 4 14  have
: 118 12 12  known?
- 132
: 134 2 12 I
: 138 8 16  trace
: 146 4 14  the
: 152 10 16  cord
: 164 6 14  back
: 172 6 12  to
: 180 3 14  the
: 184 12 12  wall
- 198
: 202 3 12 No
: 206 4 12  won
: 210 2 11 der
: 214 4 12  it
: 218 4 12  was
: 222 4 17  ne
: 226 3 17 ver
: 230 8 16  plugged
: 240 6 12  in
: 248 4 14  at
: 252 11 12  all
- 265
: 268 4 16 I
: 272 7 16  took
: 280 4 19  my
: 285 12 16  time,
: 303 4 16  IĂÂ´ve
: 308 6 16  hur
: 314 5 19 ried
: 320 10 16  up
- 332
: 336 4 12 The
: 340 8 12  choice
: 348 4 14  was
: 352 9 17  mine
: 362 3 16  I
: 365 4 16  did
: 369 3 16 n't
: 373 9 12  think
: 382 4 14  e
: 386 12 12 nough
- 400
: 404 2 14 I'm
: 408 6 16  too
: 416 4 19  de
: 420 12 16 pressed
: 442 5 16  to
: 450 6 19  go
: 458 10 16  on
- 470
: 474 8 12 You'll
: 483 6 14  be
: 491 9 17  sor
: 500 6 16 ry
: 509 7 12  when
: 518 6 14  I'm
* 526 26 12  gone
- 554
: 811 3 14 I
: 816 7 16  ne
: 823 4 16 ver
: 828 12 16  con
: 840 7 14 quered,
: 849 7 12  rare
: 856 4 14 ly
: 862 9 16  came
- 872
: 873 7 16 Six
: 882 8 16 teen
: 890 8 16  just
: 900 6 17  held
: 908 8 16  such
: 918 8 12  bet
: 926 4 14 ter
: 930 12 12  days
- 944
: 951 8 16 Days
: 960 4 19  when
: 965 8 16  I
: 976 6 14  still
: 985 8 12  felt
: 994 4 14  a
: 998 11 16 live
- 1011
: 1014 4 12 We
: 1019 4 12  could
: 1023 9 14 n't
: 1034 9 17  wait
: 1044 4 16  to
: 1049 7 12  get
: 1058 8 14  out
: 1067 7 16 side
- 1075
: 1077 3 16 The
: 1081 10 16  world
: 1092 4 16  was
: 1097 11 16  wide,
: 1109 4 16  too
: 1114 10 16  late
: 1125 4 19  to
: 1130 10 16  try
- 1142
: 1147 4 12 The
: 1151 8 12  tour
: 1160 4 14  was
: 1165 10 17  o
: 1175 7 16 ver
: 1183 8 12  we'd
: 1192 5 14  sur
: 1197 12 12 vived
- 1211
: 1214 3 14 I
: 1218 4 16  could
: 1222 8 19 n't
* 1231 11 16  wait
: 1248 4 16  till
: 1252 7 16  I
: 1260 7 19  got
: 1268 9 16  home
- 1279
: 1281 4 12 To
: 1286 7 12  pass
: 1294 3 14  the
: 1298 8 17  time
: 1307 3 16  in
: 1311 6 16  my
: 1318 8 12  room
: 1327 4 14  a
* 1331 20 12 lone
- 1353
: 1620 4 14 I
: 1625 7 16  ne
: 1632 4 19 ver
: 1637 13 16  thought
: 1653 4 14  I'd
: 1658 8 16  die
: 1667 3 19  a
: 1671 12 16 lone
- 1685
: 1687 3 12 A
: 1690 5 12 no
: 1695 2 12 ther
: 1698 7 14  six
: 1706 9 17  months
: 1716 8 16  I'll
: 1725 4 12  be
: 1730 7 14  un
: 1737 11 12 known
- 1750
: 1755 3 14 Give
: 1759 7 16  all
: 1766 4 19  my
: 1771 12 16  things
: 1788 3 14  to
: 1792 7 16  all
: 1800 3 19  my
: 1804 13 16  friends
- 1818
: 1820 4 12 You'll
: 1825 4 12  ne
: 1829 2 12 ver
: 1833 6 12  step
: 1841 4 17  foot
: 1846 4 17  in
: 1851 5 16  my
: 1858 8 12  room
: 1867 3 14  a
: 1870 12 12 gain
- 1884
: 1886 4 14 You'll
: 1891 8 16  close
: 1900 4 19  it
: 1904 13 16  off,
: 1925 8 16  board
: 1934 3 19  it
: 1938 11 16  up
- 1951
: 1955 3 12 Re
: 1958 5 12 mem
: 1963 3 12 ber
: 1967 3 14  the
* 1971 11 17  time
: 1983 4 16  that
: 1987 3 16  I
: 1991 8 12  spilled
: 2000 3 14  the
: 2004 10 12  cup
- 2016
: 2022 3 14 Of
: 2026 7 16  ap
: 2033 4 19 ple
: 2038 12 16  juice
: 2059 7 16  in
: 2067 3 19  the
: 2071 16 16  hall
- 2089
: 2091 7 12 Please
: 2099 7 14  tell
: 2108 8 17  mom
: 2117 4 16  this
: 2122 3 16  is
: 2126 7 12  not
: 2134 6 14  her
: 2141 14 12  fault
- 2157
: 2426 3 14 I
: 2430 8 16  ne
: 2438 4 19 ver
: 2443 11 16  con
: 2454 8 14 quered,
: 2463 8 12  rare
: 2471 3 14 ly
* 2476 10 16  came
- 2487
: 2488 8 16 Six
: 2496 8 16 teen
: 2504 8 16  just
: 2513 7 17  held
: 2521 7 16  such
: 2530 7 12  bet
: 2538 3 14 ter
: 2542 11 12  days
- 2555
: 2564 7 16 Days
: 2572 4 19  when
: 2577 9 16  I
: 2589 7 14  still
: 2597 7 12  felt
: 2606 4 14  a
: 2610 12 16 live
- 2624
: 2626 3 12 We
: 2630 5 12  could
: 2635 7 12 n't
: 2643 12 17  wait
: 2655 3 16  to
: 2659 8 12  get
: 2668 10 14  out
: 2679 8 16 side
- 2688
: 2688 3 16 The
: 2692 12 16  world
: 2705 4 16  was
: 2710 10 16  wide,
: 2722 4 16  too
: 2727 11 16  late
: 2739 3 19  to
: 2743 9 16  try
- 2754
: 2760 3 12 The
: 2764 8 12  tour
: 2773 3 14  was
: 2777 10 17  o
: 2787 8 16 ver
: 2796 8 12  we'd
: 2805 5 14  sur
: 2810 13 12 vived
- 2825
: 2827 3 14 I
: 2831 4 16  could
: 2835 7 19 n't
: 2843 11 16  wait
: 2860 5 14  till
: 2865 7 16  I
: 2874 5 19  got
: 2881 9 16  home
- 2891
: 2893 3 12 To
: 2898 6 12  pass
: 2906 3 14  the
: 2910 9 17  time
: 2920 3 16  in
: 2924 6 16  my
: 2931 8 12  room
: 2940 4 14  a
* 2945 21 12 lone
- 2968
: 3775 3 14 I
: 3780 8 16  ne
: 3788 4 19 ver
: 3793 12 16  con
: 3805 7 14 quered,
: 3815 7 12  rare
: 3822 3 14 ly
: 3826 10 16  came
- 3838
: 3840 7 16 To
: 3847 8 16 mor
: 3855 7 12 row
: 3863 8 17  holds
: 3871 8 16  such
: 3880 9 12  be
: 3889 4 14 tter
: 3894 12 12  days
- 3908
: 3914 8 16 Days
: 3923 3 19  when
: 3927 7 16  I
: 3935 3 16  can
: 3939 6 14  still
: 3947 8 12  feel
: 3956 4 14  a
: 3960 13 16 live
- 3975
: 3977 3 12 When
: 3981 4 12  I
: 3986 11 12  can't
: 3998 8 17  wait
: 4007 3 16  to
: 4011 7 12  get
: 4019 8 14  out
: 4029 8 16 side
- 4039
: 4041 4 16 The
: 4045 11 16  world
: 4057 3 16  is
: 4061 10 16  wide,
: 4072 3 16  the
: 4077 11 16  time
: 4089 5 19  goes
: 4095 8 16  by
- 4105
: 4110 3 12 The
: 4114 8 12  tour
: 4123 3 14  is
* 4127 12 17  o
: 4139 7 16 ver
: 4147 6 12  I'd
: 4154 5 14  sur
: 4159 13 12 vived
- 4174
: 4181 5 16 I
: 4187 9 19  can't
: 4197 11 16  wait
: 4210 5 16  till
: 4216 4 16  I
: 4222 6 19  get
: 4229 10 16  home
- 4241
: 4243 3 12 To
: 4247 8 12  pass
: 4256 4 14  the
: 4260 8 17  time
: 4269 3 16  in
: 4272 6 16  my
: 4279 9 12  room
: 4289 4 14  a
* 4293 42 12 lone
E