#TITLE:Always
#ARTIST:Blink 182째
#MP3:Blink 182째 - Always.mp3
#COVER:Blink 182째 - Always [CO].jpg
#BACKGROUND:Blink 182째 - Always [BG].jpg
#BPM:158,2
#GAP:24620
: 0 3 59 I've
: 3 4 61  been
: 7 9 63  here
: 20 3 66  be
: 23 12 61 fore
: 36 2 61  a
: 38 5 63  few
: 43 14 59  times.
- 59
: 64 2 59 And
: 66 6 61  I'm
: 72 8 63  quite
: 84 2 63  a
: 86 10 61 ware
: 100 2 59  we're
: 102 5 61  dy
: 107 17 59 ing.
- 126
: 128 2 59 And
: 130 5 61  your
: 135 10 63  hands
: 148 4 64  they
: 152 8 61  shake
: 164 2 61  with
: 166 6 63  good
: 172 15 59 byes.
- 189
: 192 2 59 And
: 194 5 61  I'll
: 199 9 63  take
: 212 4 63  you
: 216 8 61  back
: 224 2 61  if
: 226 4 58  you'd
: 230 6 61  have
: 236 15 59  me.
- 253
: 259 5 66 So
: 264 10 63  here
: 275 3 66  I
: 278 11 63  am,
: 290 4 63  I'm
: 294 6 66  try
: 300 21 63 ing!
- 322
: 323 5 66 So
: 328 10 63  here
: 338 4 66  I
: 342 10 63  am,
: 354 2 63  are
: 356 2 63  you
: 358 6 66  rea
: 364 19 63 dy?
- 383
: 383 2 59 Come
: 385 3 59  on
: 388 2 59  let
: 390 2 61  me
: 392 6 63  hold
: 398 8 61  you,
- 407
: 408 6 63 touch
: 414 8 61  you,
: 424 6 63  feel
: 430 8 61  you,
: 440 6 64  al
: 446 9 59 ways!
- 456
: 456 6 63 Kiss
: 462 8 61  you,
: 472 6 63  taste
: 478 8 61  you,
: 488 6 63  all
: 494 8 61  night,
: 504 6 64  al
: 510 10 59 ways!
- 522 620
: 640 2 59 And
: 642 5 61  I'll
: 647 7 63  miss
: 660 4 63  your
: 664 9 61  laugh,
: 675 3 59  your
: 678 6 63  smi
: 684 15 59 le.
- 701
: 704 2 59 I'll
: 706 4 61  ad
: 710 8 63 mit
: 722 5 63  I'm
: 727 8 61  wrong
: 736 2 61  if
: 738 4 58  you'd
: 742 6 61  tell
: 748 16 59  me.
- 766
: 768 2 59 I'm
: 770 5 61  so
: 775 9 63  sick
: 788 4 63  of
: 792 9 61  fights,
: 804 2 59  I
: 806 5 63  hate
: 811 17 59  them.
- 830
: 832 2 59 Let's
: 834 5 61  start
: 839 9 63  this
: 852 2 63  a
: 854 12 61 gain
: 868 2 58  for
: 870 6 61  re
: 876 16 59 al.
- 894
: 899 5 66 So
: 904 10 63  here
: 914 5 66  I
: 919 10 63  am,
: 930 3 63  I'm
: 933 6 66  try
: 939 22 63 ing!
- 962
: 962 5 66 So
: 967 10 63  here
: 978 5 66  I
: 983 10 63  am,
: 994 2 63  are
: 996 2 63  you
: 998 6 66  rea
: 1004 20 63 dy?
- 1025
: 1027 5 66 So
: 1032 9 63  here
: 1042 6 64  I
: 1048 9 61  am,
: 1058 4 61  I'm
: 1062 6 63  try
: 1068 21 59 ing!
- 1090
: 1091 5 66 So
: 1096 6 63  here
: 1102 6 64  I
: 1108 9 61  am,
: 1120 2 61  are
: 1122 3 59  you
: 1125 6 66  rea
: 1131 12 63 dy
: 1143 8 64 ~?
- 1151
: 1151 2 59 Come
: 1153 2 59  on
: 1155 2 59  let
: 1157 3 61  me
: 1160 6 63  hold
: 1166 8 61  you,
- 1175
: 1175 6 63 touch
: 1181 9 61  you,
: 1192 5 63  feel
: 1197 9 61  you,
: 1208 6 64  al
: 1214 9 59 ways!
- 1223
: 1223 6 63 Kiss
: 1229 8 61  you,
: 1239 6 63  taste
: 1245 8 61  you,
: 1255 6 63  all
: 1261 8 61  night,
: 1271 6 64  al
: 1277 3 59 ways!
- 1280
: 1280 2 59 Come
: 1282 2 59  on
: 1284 2 59  let
: 1286 2 61  me
: 1288 5 63  hold
: 1293 8 61  you,
- 1302
: 1303 7 63 touch
: 1310 8 61  you,
: 1320 6 63  feel
: 1326 8 61  you,
: 1335 6 64  al
: 1341 9 59 ways!
- 1351
: 1351 6 63 Kiss
: 1357 9 61  you,
: 1367 6 63  taste
: 1373 9 61  you,
: 1383 6 63  all
: 1389 8 61  night,
: 1399 6 64  al
: 1405 10 59 ways!
- 1417 1643
: 1663 3 47 I've
: 1666 5 49  been
: 1671 9 51  here
: 1683 3 51  be
: 1686 9 49 fore
: 1699 3 49  a
: 1702 4 51  few
: 1706 18 47  times.
- 1725
: 1727 2 47 And
: 1729 6 49  I'm
: 1735 8 51  quite
: 1747 3 51  a
: 1750 10 49 ware
: 1763 2 47  we're
: 1765 6 49  dy
: 1771 16 47 ing.
- 1789 1790
: 1807 2 59 Come
: 1809 2 61  on
: 1811 2 59  let
: 1813 2 61  me
: 1815 6 63  hold
: 1821 8 61  you,
- 1830
: 1831 6 63 touch
: 1837 8 61  you,
: 1847 6 63  feel
: 1853 8 61  you,
: 1863 6 64  al
: 1869 9 59 ways!
- 1879
: 1879 6 63 Kiss
: 1885 8 61  you,
: 1895 6 63  taste
: 1901 8 61  you,
: 1911 6 63  all
: 1917 8 61  night,
: 1927 6 64  al
: 1933 4 59 ways!
- 1937
: 1937 1 59 Come
: 1938 1 59  on
: 1939 2 59  let
: 1941 2 61  me
: 1943 6 63  hold
: 1949 8 61  you,
- 1958
: 1959 6 63 touch
: 1965 8 61  you,
: 1975 6 63  feel
: 1981 8 61  you,
: 1991 6 64  al
: 1997 9 59 ways!
- 2007
: 2007 6 63 Kiss
: 2013 8 61  you,
: 2023 6 63  taste
: 2029 8 61  you,
: 2039 6 63  all
: 2045 8 61  night,
: 2055 6 64  al
: 2061 10 59 ways!
E
Made by Vivi_Triba
