#TITLE:Song 2
#ARTIST:Blur
#LANGUAGE:Englisch
#EDITION:SingStar Rocks!
#GENRE:Rock
#YEAR:1996
#MP3:Blur - Song 2.mp3
#COVER:Blur - Song 2 [CO].jpg
#BACKGROUND:Blur - Song 2 [BG].jpg
#VIDEO:Blur - Song 2 [VD#0].avi
#VIDEOGAP:0
#BPM:255
#GAP:15352,94
: 0 1 73 Whoo
: 1 2 74 ~
: 3 4 75 ~
: 7 2 72 hoo
: 9 1 71 ~
: 10 1 70 ~
: 11 1 69 ~
: 12 1 68 ~
: 13 1 67 ~
- 16 43
: 63 1 73 Whoo
: 64 2 74 ~
* 66 4 75 ~
: 70 2 72 hoo
: 72 1 71 ~
: 73 1 70 ~
: 74 1 69 ~
: 75 1 68 ~
: 76 1 67 ~
- 79 106
: 126 1 73 Whoo
: 127 2 74 ~
: 129 4 75 ~
: 133 2 72 hoo
: 135 1 71 ~
: 136 1 70 ~
: 137 1 69 ~
: 138 1 68 ~
: 139 1 67 ~
- 142 169
* 189 1 73 Whoo
: 190 2 74 ~
: 192 4 75 ~
: 196 2 72 hoo
: 198 1 71 ~
: 199 1 70 ~
: 200 1 69 ~
: 201 1 68 ~
: 202 1 67 ~
- 205 228
: 248 4 56 I
: 252 4 58  got
: 256 4 56  my
: 261 6 60  head
: 267 4 56  checked
: 271 4 53 ~
- 277 291
: 311 4 56 By
: 315 4 58  a
: 319 4 56  jum
* 323 7 60 bo
: 330 4 56  jet
: 334 5 53 ~
- 341 354
: 374 4 56 It
: 378 3 58  was
: 382 4 56 n't
: 386 7 60  ea
: 394 4 56 sy
: 398 5 53 ~
- 405 417
: 437 3 58 But
: 441 3 58  no
: 445 3 58 thing
: 449 3 58  is
: 455 7 56 ~
* 462 9 53 ~
- 473 474
: 490 3 51 No
: 493 6 53 ~
- 501
: 505 2 74 Whoo
: 507 4 75 ~
: 511 2 72 hoo
: 513 1 71 ~
: 514 1 70 ~
: 515 1 69 ~
: 516 1 68 ~
: 517 1 67 ~
- 520 521
: 535 2 65 When
: 538 3 65  I
: 542 3 65  feel
: 546 3 65  hea
: 550 3 65 vy
: 554 3 65  me
* 558 7 65 tal
- 566
: 567 1 73 Whoo
: 568 2 74 ~
: 570 4 75 ~
: 574 2 72 hoo
: 576 1 71 ~
: 577 1 70 ~
: 578 1 69 ~
: 579 1 68 ~
: 580 1 67 ~
: 581 1 66 ~
: 582 1 65 ~
- 585 586
: 596 3 65 And
: 600 3 65  I'm
: 604 3 65  pins
: 608 3 65  and
: 612 3 65  I'm
: 616 3 65  nee
: 620 8 65 dles
- 629
: 631 2 74 Whoo
: 633 4 75 ~
* 637 2 72 hoo
: 639 1 71 ~
: 640 1 70 ~
: 641 1 69 ~
: 642 1 68 ~
: 643 1 67 ~
- 646 647
: 661 3 65 Well
: 665 3 65  I
: 669 3 65  lie
: 673 3 65  and
: 677 3 65  I'm
: 681 7 65  ea
: 688 2 60 sy
- 692 693
: 701 6 65 All
: 707 3 60  of
: 711 3 60  the
: 714 6 65  time
- 721
: 723 3 60 But
: 727 2 60  I'm
: 731 5 65  ne
: 736 6 60 ver
: 743 6 65  sure
- 750
: 752 3 60 Why
: 756 3 60  I
: 760 3 60  need
: 764 10 56  you
- 776 777
: 799 3 65 Pleased
: 803 2 65  to
: 806 5 65  meet
: 813 3 59  you
: 816 12 58 ~
: 828 3 57 ~
- 833 921
: 941 3 56 I
: 944 3 58  got
: 948 4 56  my
: 952 8 60  head
: 960 4 56  down
: 964 6 53 ~
- 972 988
: 1008 3 58 When
: 1011 4 56  I
* 1015 8 60  was
: 1023 4 56  young
: 1028 7 53 ~
- 1037 1046
: 1066 4 56 It's
: 1070 4 58  not
: 1074 4 56  my
: 1078 6 60  prob
: 1085 5 56 lem
: 1090 6 53 ~
- 1098 1109
: 1129 3 58 It's
: 1133 3 58  not
: 1137 3 58  my
: 1150 7 58  prob
* 1157 25 56 lem
: 1182 2 55 ~
: 1184 7 53 ~
- 1193
: 1195 10 77 Whoo
: 1205 9 68  hoo
: 1214 1 67 ~
: 1215 1 66 ~
: 1216 1 65 ~
: 1217 1 64 ~
: 1218 1 63 ~
- 1221
: 1227 3 65 When
: 1231 3 65  I
: 1235 3 65  feel
: 1239 3 65  hea
: 1243 3 65 vy
: 1247 3 65  me
: 1251 6 65 tal
- 1258
: 1259 1 73 Whoo
: 1260 2 74 ~
: 1262 4 75 ~
: 1266 2 72 hoo
: 1268 1 71 ~
: 1269 1 70 ~
: 1270 1 69 ~
: 1271 1 68 ~
: 1272 1 67 ~
- 1275 1276
: 1290 3 65 And
: 1294 3 65  I'm
: 1298 3 65  pins
: 1302 3 65  and
: 1306 3 65  I'm
: 1310 3 65  nee
: 1314 5 65 dles
- 1320
: 1322 2 74 Whoo
: 1324 5 75 ~
: 1329 2 72 hoo
: 1331 1 71 ~
: 1332 1 70 ~
: 1333 1 69 ~
: 1334 1 68 ~
: 1335 1 67 ~
- 1338 1339
: 1352 4 65 Well
: 1357 3 65  I
: 1361 4 65  lie
: 1366 3 65  and
: 1370 3 65  I'm
* 1374 7 65  ea
: 1381 7 60 sy
- 1390
: 1392 6 65 All
: 1400 3 60  of
: 1404 3 60  the
: 1407 6 65  time
- 1414
: 1416 2 60 But
: 1420 3 60  I'm
: 1424 4 65  ne
: 1428 6 60 ver
: 1435 7 65  sure
- 1443
: 1445 2 60 Why
: 1448 2 60  I
: 1451 5 60  need
: 1457 9 56  you
- 1468 1469
: 1491 3 65 Pleased
: 1495 3 65  to
: 1499 5 68  meet
: 1506 4 59  you
: 1511 8 58 ~
- 1521 1553
: 1573 3 65 Yeah
: 1577 7 65  yeah
- 1586 1616
: 1636 3 65 Yeah
* 1640 7 65  yeah
- 1649 1679
: 1699 3 65 Yeah
: 1703 7 65  yeah
- 1712 1742
: 1762 9 65 Oh
: 1774 4 56  yeah
: 1778 1 55 ~
: 1779 1 54 ~
: 1780 1 53 ~
: 1781 1 52 ~
E
