#TITLE:Kleiner Satelit
#ARTIST:Blümchen
#MP3:Blümchen - Kleiner Satelit.mp3
#COVER:Blümchen - Kleiner Satelit [CO].jpg
#BACKGROUND:Blümchen - Kleiner Satelit [BG].jpg
#BPM:180
#GAP:411
#ENCODING:UTF8
: 0 2 67 Piep
: 4 3 67 piep 
: 8 2 62 klei
: 12 2 67 ner 
: 16 1 66 Sa
: 18 2 64 te
: 22 2 62 lit.
: 32 2 64 Sag 
- 36
: 36 3 64 ihm 
: 40 2 60 das 
: 44 2 64 es 
: 48 1 62 mich 
: 50 2 60 noch 
: 54 4 59 gibt.
- 64
: 64 2 67 Piep 
: 68 3 67 piep 
: 72 3 62 klei
: 76 2 67 ner 
: 80 1 66 Sa
: 82 2 64 te
: 86 4 62 lit.
- 96
: 96 3 64 Frag 
: 100 2 67 ihn 
: 104 3 67 ob 
: 108 2 64 er 
: 112 1 67 mich 
: 114 2 69 noch 
: 118 7 71 liebt.
- 128
: 128 2 71 Piep 
: 132 2 71 piep 
: 136 2 71 klei
: 140 1 71 ner 
: 144 1 71 Sa
: 146 2 72 te
: 150 5 72 lit.
- 160
: 160 3 69 Sag 
: 164 2 69 ihm 
: 168 2 69 das 
: 172 2 69 mein 
: 176 3 72 Herz 
: 180 1 71 ver
: 182 2 71 glüht.
- 188
: 188 2 74 Piep 
: 192 2 67 piep
- 200
: 200 2 64 Wenn 
: 202 1 67 es 
: 206 2 67 nicht 
: 210 2 66 bald 
: 214 2 64 zu 
: 218 5 66 ihm 
: 224 26 67 fliegt.
- 288
: 288 6 67 Da 
: 294 6 69 da 
: 300 4 71 da
- 304
: 304 6 67 da 
: 310 6 69 da 
: 316 4 71 da
- 320
: 320 6 74 da 
: 326 6 69 da 
: 332 3 71 da
- 336
: 336 2 72 da 
: 340 1 72 da 
: 342 3 72 da
- 346
: 346 1 71 da 
: 348 2 69 da
- 352
: 352 1 50 Klei
: 354 1 50 ner 
: 356 1 50 Sa
: 358 1 50 te
: 360 2 55 lit 
- 448
: 548 1 50 Klei
: 550 1 50 ner 
: 552 1 50 Sa
: 554 1 50 te
: 556 2 55 lit 
- 656
: 676 1 50 Klei
: 678 1 50 ner 
: 680 1 50 Sa
: 682 1 50 te
: 684 2 55 lit 
- 784
: 816 2 67 Piep 
: 820 3 67 piep 
: 824 2 62 klei
: 828 2 67 ner 
: 832 1 66 Sa
: 834 2 64 te
: 838 2 62 lit.
- 848
: 848 2 64 Sag 
: 852 3 64 ihm 
: 856 2 60 das 
: 860 2 64 es 
: 864 1 62 mich 
: 866 2 60 noch 
: 870 4 59 gibt.
- 880
: 880 2 67 Piep 
: 884 3 67 piep 
: 888 3 62 klei
: 892 2 67 ner 
: 896 1 66 Sa
: 898 2 64 te
: 902 4 62 lit. 
- 912
: 912 3 64 Frag 
: 916 2 67 ihn 
: 920 3 67 ob 
: 924 2 64 er 
: 928 1 67 mich 
: 930 2 69 noch 
: 934 7 71 liebt.
- 944
: 944 2 71 Piep 
: 948 2 71 piep 
: 952 2 71 klei
: 956 1 71 ner 
: 960 1 71 Sa
: 962 2 72 te
: 966 5 72 lit.
- 976
: 976 3 69 Sag 
: 980 2 69 ihm 
: 984 2 69 das 
: 988 2 69 mein 
: 992 3 72 Herz 
: 996 1 71 ver
: 998 2 71 glüht.
- 1004
: 1004 2 74 Piep 
: 1008 2 67 piep
- 1016
: 1016 2 64 Wenn 
: 1018 1 67 es 
: 1022 2 67 nicht 
: 1026 2 66 bald 
: 1030 2 64 zu 
: 1034 5 66 ihm 
: 1040 26 67 fliegt.
- 1140
: 1168 6 67 Da 
: 1174 6 69 da 
: 1180 4 71 da
- 1184
: 1184 6 67 da 
: 1190 6 69 da 
: 1196 4 71 da
- 1200
: 1200 6 74 da 
: 1206 6 69 da 
: 1212 3 71 da 
- 1216
: 1216 2 72 da 
: 1220 1 72 da 
: 1222 3 72 da 
- 1226
: 1226 1 71 da 
: 1228 2 69 da 
- 1232
: 1232 6 67 Da 
: 1238 6 69 da 
: 1244 4 71 da
- 1248
: 1248 6 67 da 
: 1254 6 69 da 
: 1260 4 71 da 
- 1264
: 1264 6 74 da 
: 1270 6 69 da 
: 1276 3 71 da
- 1280
: 1280 2 72 da 
: 1284 1 72 da 
: 1286 3 72 da
- 1290
: 1290 1 71 da 
: 1292 2 69 da 
- 1350
: 1360 2 55 Ob 
: 1364 1 52 er 
: 1368 1 55 mich 
: 1370 1 57 noch 
: 1374 3 59 liebt.
- 1400
: 1424 2 55 Ob 
: 1428 1 52 er 
: 1432 1 55 mich 
: 1434 1 57 noch 
: 1438 3 59 liebt.
- 1464
: 1488 2 55 Ob 
: 1492 1 52 er 
: 1496 1 55 mich 
: 1498 1 57 noch 
: 1502 3 59 liebt.
- 1530
: 1540 1 50 Klei
: 1542 1 50 ner 
: 1544 1 50 Sa
: 1546 1 50 te
: 1548 2 55 lit
- 1552
: 1552 2 55 Ob 
: 1556 1 52 er 
: 1560 1 55 mich 
: 1562 1 57 noch 
: 1566 3 59 liebt.
- 1584
: 1584 2 55 Ob 
: 1588 1 51 er 
: 1592 1 55 mich 
: 1594 1 57 noch 
: 1598 3 58 liebt.
- 1616
: 1616 2 55 Ob 
: 1620 1 52 er 
: 1624 1 55 mich 
: 1626 1 57 noch 
: 1630 3 59 liebt.
- 1648
: 1648 2 55 Ob 
: 1652 1 51 er 
: 1656 1 55 mich 
: 1658 1 57 noch 
: 1662 3 58 liebt.
- 1680
: 1680 2 55 Ob 
: 1684 2 52 er 
: 1688 1 55 mich 
: 1690 1 57 noch 
: 1694 1 59 liebt.
- 1696
: 1696 1 55 Ob 
: 1700 1 52 er 
: 1704 2 55 mich 
: 1706 1 57 noch 
: 1710 1 59 liebt.
- 1712
: 1712 1 55 Ob 
: 1716 2 51 er 
: 1720 1 55 mich 
: 1722 1 57 noch 
: 1726 1 58 liebt.
- 1728
: 1728 1 55 Ob 
: 1732 2 51 er 
: 1736 1 55 mich 
: 1738 1 57 noch 
: 1742 1 58 liebt.
- 1744
: 1744 2 55 Ob 
: 1748 2 52 er 
: 1752 2 55 mich 
: 1754 1 57 noch 
: 1758 1 59 liebt. 
- 1760
: 1760 1 55 Ob 
: 1764 1 52 er 
: 1768 2 55 mich 
: 1770 1 57 noch 
: 1774 1 59 liebt.
- 1776
: 1776 2 55 Ob 
: 1780 2 51 er 
: 1784 1 55 mich 
: 1786 1 57 noch 
: 1790 1 58 liebt.
- 1792
: 1792 2 55 Ob 
: 1796 1 51 er 
: 1800 1 55 mich 
: 1802 1 57 noch 
: 1806 1 58 liebt.
- 1936
: 1936 6 67 Da 
: 1942 6 69 da 
: 1948 4 71 da
- 1952
: 1952 6 67 da 
: 1958 6 69 da 
: 1964 4 71 da 
- 1968
: 1968 6 74 da 
: 1974 6 69 da 
: 1980 3 71 da
- 1984
: 1984 2 72 da 
: 1988 1 72 da 
: 1990 3 72 da
- 1994
: 1994 1 71 da 
: 1996 2 69 da
- 2000
: 2000 6 67 Da 
: 2006 6 69 da 
: 2012 4 71 da
- 2016
: 2016 6 67 da 
: 2022 6 69 da 
: 2028 4 71 da
- 2032
: 2032 6 74 da 
: 2038 6 69 da 
: 2044 3 71 da
- 2048
: 2048 2 72 da 
: 2052 1 72 da 
: 2054 3 72 da
- 2058
: 2058 1 71 da 
: 2060 2 69 da
- 2064
: 2064 2 67 Piep 
: 2068 3 67 piep 
: 2072 2 62 klei
: 2076 2 67 ner 
: 2080 1 66 Sa
: 2082 2 64 te
: 2086 2 62 lit.
- 2096
: 2096 2 64 Sag 
: 2100 3 64 ihm 
: 2104 2 60 das 
: 2108 2 64 es 
: 2112 1 62 mich 
: 2114 2 60 noch 
: 2118 4 59 gibt.
- 2128
: 2128 2 67 Piep 
: 2132 3 67 piep 
: 2136 3 62 klei
: 2140 2 67 ner 
: 2144 1 66 Sa
: 2146 2 64 te
: 2150 4 62 lit.
- 2160
: 2160 3 64 Frag 
: 2164 2 67 ihn 
: 2168 3 67 ob 
: 2172 2 64 er 
: 2176 1 67 mich 
: 2178 2 69 noch 
: 2182 7 71 liebt.
- 2192
: 2192 2 71 Piep 
: 2196 2 71 piep 
: 2200 2 71 klei
: 2204 1 71 ner 
: 2208 1 71 Sa
: 2210 2 72 te
: 2214 5 72 lit.
- 2224
: 2224 3 69 Sag 
: 2228 2 69 ihm 
: 2232 2 69 das 
: 2236 2 69 mein 
: 2240 3 72 Herz 
: 2244 1 71 ver
: 2246 2 71 glüht.
- 2252
: 2252 2 74 Piep 
: 2256 2 67 piep
- 2264
: 2264 2 64 Wenn 
: 2266 1 67 es 
: 2270 2 67 nicht 
: 2274 2 66 bald 
: 2278 2 64 zu 
: 2282 5 66 ihm 
: 2288 26 67 fliegt.
- 2328
: 2328 2 64 Wenn 
: 2330 1 67 es 
: 2334 2 67 nicht 
: 2338 2 66 bald 
: 2342 2 64 zu 
: 2346 5 66 ihm 
: 2352 26 67 fliegt. 
- 2406
: 2416 6 67 Da 
: 2422 6 69 da 
: 2428 4 71 da
- 2432
: 2432 6 67 da 
: 2438 6 69 da 
: 2444 4 71 da 
- 2448
: 2448 6 74 da 
: 2454 6 69 da 
: 2460 3 71 da
- 2464
: 2464 2 72 da 
: 2468 1 72 da 
: 2470 3 72 da
- 2474
: 2474 1 71 da 
: 2476 2 69 da 
- 2480
: 2480 6 67 Da 
: 2486 6 69 da 
: 2492 4 71 da
- 2496
: 2496 6 67 da 
: 2502 6 69 da 
: 2508 4 71 da
- 2512
: 2512 6 74 da 
: 2518 6 69 da 
: 2524 3 71 da 
- 2528
: 2528 2 72 da 
: 2532 1 72 da 
: 2534 3 72 da
- 2538
: 2538 1 71 da 
: 2540 2 69 da 
- 2544
: 2544 2 67 Piep 
: 2548 3 67 piep 
: 2552 2 62 klei
: 2556 2 67 ner 
: 2560 1 66 Sa
: 2562 2 64 te
: 2566 2 62 lit.
- 2576
: 2576 2 64 Sag 
: 2580 3 64 ihm 
: 2584 2 60 das 
: 2588 2 64 es 
: 2592 1 62 mich 
: 2594 2 60 noch 
: 2598 4 59 gibt.
- 2608
: 2608 2 67 Piep 
: 2612 3 67 piep 
: 2616 3 62 klei
: 2620 2 67 ner 
: 2624 1 66 Sa
: 2626 2 64 te
: 2630 4 62 lit.
- 2640
: 2640 3 64 Frag 
: 2644 2 67 ihn 
: 2648 3 67 ob 
: 2652 2 64 er 
: 2656 1 67 mich 
: 2658 2 69 noch 
: 2662 7 71 liebt.
- 2672
: 2672 2 71 Piep 
: 2676 2 71 piep 
: 2680 2 71 klei
: 2684 1 71 ner 
: 2688 1 71 Sa
: 2690 2 72 te
: 2694 5 72 lit.
- 2704
: 2704 3 69 Sag 
: 2708 2 69 ihm 
: 2712 2 69 das 
: 2716 2 69 mein 
: 2720 3 72 Herz 
: 2724 1 71 ver
: 2726 2 71 glüht. 
- 2732
: 2732 2 74 Piep 
: 2736 2 67 piep
- 2744
: 2744 2 64 Wenn 
: 2746 1 67 es 
: 2750 2 67 nicht 
: 2754 2 66 bald 
: 2758 2 64 zu 
: 2762 5 66 ihm 
: 2768 26 67 fliegt. 
E