#TITLE:I'd die for you
#ARTIST:Bon Jovi
#MP3:Bon Jovi - I'd die for you.mp3
#COVER:Bon Jovi - I'd die for you [CO].jpg
#BACKGROUND:Bon Jovi - I'd die for you [BG].jpg
#BPM:135
#GAP:28700
: 0 2 16 If
: 2 2 16  you
: 4 2 16  cou
: 6 2 16 ld
: 8 4 16  see
: 12 4 16  in
: 16 4 16 side
: 20 4 16  my
: 24 6 16  heart
- 31
: 32 2 16 Then
: 34 2 16  you
: 36 4 14  donÂ´t
: 40 4 14  un
: 44 4 16 der
: 48 10 14 stand
- 62
: 64 2 14 Id
: 66 2 16  nev
: 68 4 14 er
: 72 4 14  mean
: 76 4 12  to
: 80 4 11  hurt
: 84 5 11  you
- 90
: 91 3 14 Ba
: 94 3 12 by
: 97 2 11  Im
: 99 2 12  not
: 101 4 11  that
: 105 4 11  kind
: 109 4 12  of
: 113 6 11  man
- 123
: 129 3 16 I
: 132 3 16  might
: 135 3 16  not
: 138 4 16  say
: 142 4 17  Im
: 146 6 16  sorry
- 155
: 157 4 16 Yeah,
: 161 2 16  I
: 163 5 16  might
: 168 3 14  talk
: 171 4 14  rough
: 175 4 16  some
: 179 6 14 times
- 189
: 194 1 14 And
: 195 2 14  I
: 197 4 16  might
: 201 2 14  for
: 203 4 14 get
: 211 1 12  the
: 212 2 12  lit
: 214 2 12 tle
: 216 4 11  things
- 222
: 224 2 16 Or
: 226 2 16  keep
: 228 1 16  you
: 229 4 16  hang
: 233 3 16 ing
: 236 4 16  on
: 240 2 14  the
: 242 2 14  li
: 244 4 12 ne
- 252
: 254 4 14 In
: 258 4 16  a
: 262 3 17  world
- 266
: 267 2 17  that
: 269 4 17  dont
: 273 4 17  know
: 277 2 16  ro
: 279 2 14 me
: 281 3 14 o
: 284 2 12  and
: 286 2 14  ju
: 288 2 14 li
: 290 4 16 et
- 295
: 296 3 17 Boy
: 299 3 17  meets
: 302 4 19  girl
- 307
: 308 2 17  and
: 310 2 16  pro
: 312 5 14 mises
: 317 1 14  we
: 318 2 12  cant
: 320 2 14  for
: 322 3 14 get
- 327
: 328 3 17 We
: 331 3 17  are
: 334 4 17  cast
- 339
: 340 2 16  from
: 342 2 16  e
: 344 2 14 dens
: 346 2 14  gate
: 348 2 12  with
: 350 2 14  no
: 352 2 14  re
: 354 3 16 grets
- 358
: 359 3 16 In
: 362 2 14 to
: 364 3 12  the
: 367 4 12  fire
: 371 4 16  we
: 375 8 16  cry
- 385
: 387 4 16 Id
: 391 4 14  die
: 395 2 12  for
: 397 6 12  you
- 404
: 404 4 16 Id
: 408 4 14  cry
: 412 2 12  for
: 414 2 12  you
- 417
: 418 2 16 Id
: 420 4 14  do
: 424 2 14  a
: 426 4 14 ny
: 430 3 14 thing
- 434
: 434 4 16 Id
: 438 6 16  lie
: 444 2 16  for
: 446 2 16  you
- 450
: 452 4 16 You
: 456 4 14  know
: 460 2 12  its
: 462 6 11  true
- 470
: 471 4 17 Ba
: 475 2 17 by
: 477 4 16  Id
: 481 4 12  die
: 485 4 16  for
: 489 16 14  you
- 510
: 515 5 16 Id
: 520 5 14  die
: 525 3 12  for
: 528 4 12  you
- 533
: 533 4 16 Id
: 537 5 14  cry
: 542 2 12  for
: 544 2 12  you
- 547
: 548 2 16 If
: 550 2 12  it
: 552 4 14  came
: 556 4 14  right
: 560 3 14  down
- 564
: 565 4 14  to
: 569 4 16  me
: 573 3 16  and
: 576 4 16  you
- 581
: 582 4 16 You
: 586 4 14  know
: 590 3 12  its
: 593 6 9  true,
- 600
: 601 4 17  ba
: 605 2 17 by
: 607 4 16  Id
: 611 4 14  die
: 615 4 12  for
: 619 16 14  you
- 641
: 649 2 16 I
: 651 2 16  might
: 653 4 16  not
: 657 4 16  be
: 661 4 16  a
: 665 4 17  sav
: 669 6 16 ior
- 677
: 678 2 16 And
: 680 4 16  Ill
: 684 2 16  nev
: 686 4 14 er
: 690 4 14  be
: 694 4 16  a
: 698 10 14  king
- 712
: 715 2 14 I
: 717 2 16  might
: 719 4 14  not
: 723 4 14  send
: 727 4 12  you
: 731 4 12  ros
: 735 4 11 es
- 743
: 747 2 12 Or
: 749 3 12  buy
: 752 4 11  you
: 756 3 11  dia
: 759 4 12 mond
: 763 6 11  rings
- 774
: 776 2 16 But
: 778 2 16  if
: 780 6 16  I
: 786 2 16  could
: 788 4 16  see
: 792 4 16  in
: 796 4 16 side
: 800 4 16  you
: 804 3 14 May
: 807 3 12 be
- 811
: 812 2 16  Id
: 814 2 16  know
: 816 4 14  just
: 820 4 14  who
: 824 5 16  we
: 829 6 14  are
- 837
: 841 3 12 cause
: 844 3 16  our
: 847 4 16  love
: 851 2 14  is
: 853 4 14  like
: 857 4 12  a
: 861 4 12  hu
: 865 5 11 nger
- 872
: 877 2 16 With
: 879 4 16 out
: 883 2 16  it
: 885 4 16  we
: 889 4 19  would
: 893 6 16  starve
- 904
: 904 3 14 In
: 907 4 16  a
: 911 6 17  world
- 917
: 917 2 17  that
: 919 4 17  dont
: 923 4 17  know
: 927 3 16  ro
: 930 2 14 me
: 932 2 14 o
: 934 2 12  and
: 936 2 14  ju
: 938 2 14 li
: 940 4 16 et
- 946
: 947 3 17 Boy
: 950 3 17  meets
: 953 4 19  girl
- 958
: 959 2 17  and
: 961 2 16  pro
: 963 4 14 mises
: 967 2 14  we
: 969 2 12  cant
: 971 2 14  for
: 973 3 14 get
- 977
: 978 3 17 We
: 981 4 17  are
: 985 4 17  cast
- 990
: 991 2 16  from
: 993 2 16  e
: 995 2 14 dens
: 997 2 14  gate
: 999 2 12  with
: 1001 2 14  no
: 1003 2 14  re
: 1005 2 16 grets
- 1009
: 1009 3 16 In
: 1012 3 14 to
: 1015 2 12  the
: 1017 4 12  fire
: 1021 4 16  we
: 1025 10 16  cry
- 1036
: 1037 4 16 Id
: 1041 4 14  die
: 1045 2 12  for
: 1047 6 12  you
- 1053
: 1053 4 16 Id
: 1057 5 14  cry
: 1062 2 12  for
: 1064 2 12  you
- 1067
: 1068 2 16 Id
: 1070 4 14  do
: 1074 2 14  a
: 1076 4 14 ny
: 1080 3 14 thing
- 1084
: 1084 4 16 Id
: 1088 6 16  lie
: 1094 2 16  for
: 1096 4 16  you
- 1101
: 1102 4 16 You
: 1106 4 14  know
: 1110 2 12  its
: 1112 6 11  true
- 1119
: 1120 4 17 Ba
: 1124 2 17 by
: 1126 5 16  Id
: 1131 4 12  die
: 1135 4 16  for
: 1139 15 14  you
- 1160
: 1165 5 16 Id
: 1170 5 14  die
: 1175 2 12  for
: 1177 5 12  you
- 1183
: 1184 4 16 Id
: 1188 4 14  cry
: 1192 2 12  for
: 1194 2 12  you
- 1197
: 1198 2 16 If
: 1200 2 12  it
: 1202 4 14  came
: 1206 4 14  right
: 1210 4 14  down
- 1215
: 1216 2 14  to
: 1218 5 16  me
: 1223 3 16  and
: 1226 4 16  you
- 1231
: 1232 4 16 You
: 1236 5 14  know
: 1241 2 12  its
: 1243 6 11  true,
- 1250
: 1251 4 17  ba
: 1255 2 17 by
: 1257 4 16  Id
: 1261 4 14  die
: 1265 4 12  for
: 1269 13 14  you
- 1283
: 1284 3 16 ah
: 1287 2 16 ah
: 1289 2 16 ah 
: 1291 2 16 ah 
: 1293 3 16 ah 
: 1296 4 16 ah 
: 1300 5 14 ah 
- 1468
: 1550 6 16 Id
: 1556 4 14  die
: 1560 2 12  for
: 1562 3 12  you
- 1566
: 1567 6 16 Id
: 1573 4 14  cry
: 1577 3 12  for
: 1580 2 12  you
- 1583
: 1584 2 16 Id
: 1586 3 14  do
: 1589 2 14  a
: 1591 4 14 ny
: 1595 2 14 thing
- 1598
: 1599 4 16 Id
: 1603 7 16  lie
: 1610 2 16  for
: 1612 4 16  you
- 1617
: 1618 4 16 You
: 1622 2 14  know
: 1624 2 12 -
: 1626 2 12  its
: 1628 5 11  true
- 1635
: 1636 4 17 Ba
: 1640 3 17 by
: 1643 4 16  Id
: 1647 4 14  die
: 1651 4 12  for
: 1655 20 14  you
- 1679
: 1681 6 16 Id
: 1687 4 14  die
: 1691 2 12  for
: 1693 4 12  you
- 1698
: 1699 5 16 Id
: 1704 3 14  cry
: 1707 3 12  for
: 1710 3 12  you
- 1714
: 1715 1 16 If
: 1716 2 12  it
: 1718 4 14  came
: 1722 4 14  right
: 1726 4 14  down
- 1731
: 1732 2 14  to
: 1734 5 16  me
: 1739 3 16  and
: 1742 4 16  you
- 1747
: 1748 3 16 You
: 1751 5 19  know
: 1756 2 16  its
: 1758 6 19  true
- 1765
: 1766 4 17 Ba
: 1770 3 17 by
: 1773 4 16  Id
: 1777 3 14  die
: 1780 5 12  for
: 1785 15 14  you
- 1807
: 1815 6 16 ah
: 1821 4 14  a
: 1825 6 12 ha
: 1831 6 16  ah
: 1837 4 14  a
: 1841 3 12 ha
: 1844 3 14  a
: 1847 7 14 ha
- 1858
: 1863 2 16 Ba
: 1865 6 16 by
: 1871 3 21  Id
: 1874 3 16  die
: 1877 3 12  for
: 1880 4 14  you
: 1884 2 12 -
: 1886 6 9 -
- 1894
: 1895 6 13 di
: 1901 7 12 e
: 1908 3 10  for
: 1911 2 12  you
: 1913 14 12 -
- 1933
: 1943 6 16 ah
: 1949 4 14  a
: 1953 6 12 ha
: 1959 6 16  ah
: 1965 4 14  a
: 1969 3 12 ha
: 1972 3 14  a
: 1975 9 14 ha
- 1988
: 1992 2 16 Ba
: 1994 5 16 by
: 1999 4 21  Id
: 2003 3 16  die
: 2006 3 12  for
: 2009 4 14  you
: 2013 2 12 -
: 2015 6 9 -
- 2023
: 2024 6 13 di
: 2030 6 12 e
: 2036 4 10  for
: 2040 3 12  you
: 2043 28 14 -
- 2073
: 2073 19 12 yeah
E
