#TITLE:Waiting For A Star To Fall
#ARTIST:Boy Meets Girl
#LANGUAGE:Englisch
#EDITION:SingStar Rock Ballads
#GENRE:Pop
#YEAR:1988
#MP3:Boy Meets Girl - Waiting For A Star To Fall.mp3
#COVER:Boy Meets Girl - Waiting For A Star To Fall [CO].jpg
#VIDEO:Boy Meets Girl - Waiting For A Star To Fall [VD#0].avi
#VIDEOGAP:0
#BPM:339,24
#GAP:4377,43
: 0 2 65 I
: 5 5 67  hear
: 11 3 67  your
: 17 9 67  name
- 27
: 29 2 67 Whis
: 35 3 67 pered
: 41 9 68  on
: 52 2 68  the
: 58 7 67  wind
- 67
: 70 2 65 It's
: 76 2 63  a
* 82 29 70  sound
- 113 114
: 123 2 70 That
: 129 6 70  makes
: 140 5 66  me
: 145 3 65 ~
: 151 12 65 cry
: 163 9 63 ~
- 174 175
: 186 3 63 I
: 192 4 67  hear
: 197 3 67  a
: 204 8 67  song
- 214
: 216 5 67 Blow
: 222 2 67  a
: 224 7 68 gain
: 235 3 68  and
: 240 2 68  a
: 246 8 67 gain
- 255
: 257 2 65 Through
: 262 6 63  my
* 269 26 70  mind
- 297
: 303 3 70 And
: 310 6 70  I
: 316 4 72  don't
: 328 5 67  know
: 333 3 65 ~
: 339 11 65 why
: 350 3 63 ~
- 355 356
: 374 2 65 I
: 380 2 65  wish
: 386 2 65  I
: 391 4 65  did
: 397 2 65 n't
: 403 2 65  feel
- 407
: 409 2 67 So
: 415 9 68  strong
: 426 2 67  a
: 433 2 65 bout
: 435 8 63 ~
: 444 3 63 you
- 449
: 456 4 63 Like
: 462 2 65  hap
: 468 2 68 pi
: 473 2 68 ness
: 479 2 68  and
: 485 8 68  love
- 494
: 496 2 67 Re
: 502 15 70 volve
: 519 2 70  a
: 525 5 70 round
: 531 3 67 ~
: 537 8 67 you
- 547
: 549 10 70 Try
: 561 2 70 ing
: 566 3 70  to
: 573 5 72  catch
: 584 5 67  your
: 595 6 67  heart
: 601 15 65 ~
- 617
: 619 5 63 Is
: 631 5 58  like
- 638
: 643 9 70 Try
: 654 3 70 ing
: 660 3 70  to
: 666 4 72  catch
: 677 5 67  a
: 688 6 67  star
: 694 18 65 ~
: 712 12 63 ~
- 726 727
: 747 4 68 So
: 753 3 68  ma
: 759 2 68 ny
: 765 3 68  peo
: 771 3 67 ple
: 776 6 66  love
: 782 9 65 ~
: 792 2 63 you
: 795 3 65  ba
: 798 7 63 ~
: 806 11 63 by
- 819 820
: 841 3 63 That
: 846 2 63  must
: 852 2 63  be
: 858 3 63  what
: 864 5 60  you
: 870 5 60  are
: 875 13 58 ~
- 890 902
: 922 10 72 Wait
: 935 2 72 ing
: 940 2 72  for
: 946 2 72  a
: 952 9 70  star
: 963 2 70  to
: 969 5 67  fall
: 975 6 65 ~
- 983
: 987 3 63 And
: 994 9 67  car
: 1004 5 68 ry
: 1011 3 70  your
: 1016 9 70  heart
: 1027 2 63  in
: 1033 4 63 to
: 1039 3 63  my
: 1045 8 63  arms
- 1055
: 1062 10 70 That's
: 1074 2 63  where
: 1080 3 63  you
: 1085 5 63  be
: 1091 4 63 long
- 1096
: 1098 3 60 In
: 1103 3 60  my
: 1109 8 67  arms
: 1121 3 60  ba
: 1127 5 60 by
: 1133 5 58  yeah
: 1139 8 55 ~
- 1149 1183
* 1203 10 72 Wait
: 1215 2 72 ing
: 1220 4 72  for
: 1226 2 72  a
: 1232 9 70  star
: 1243 2 70  to
: 1249 5 67  fall
: 1255 5 65 ~
- 1262
: 1266 3 63 And
: 1273 10 67  car
: 1284 5 68 ry
: 1291 3 70  your
: 1296 9 70  heart
: 1308 2 63  in
: 1313 4 63 to
: 1319 5 63  my
: 1325 5 63  arms
- 1332 1333
: 1343 9 70 That's
: 1354 2 63  where
: 1360 4 63  you
: 1366 5 63  be
: 1372 4 63 long
- 1377
: 1378 2 60 In
: 1383 3 60  my
: 1389 8 67  arms
: 1402 3 60  ba
: 1407 5 60 by
: 1413 5 58  yeah
: 1419 8 55 ~
- 1429 1475
: 1495 2 67 I've
: 1500 5 67  learned
: 1506 3 67  to
: 1512 9 67  feel
- 1522
: 1524 3 67 What
: 1530 3 67  I
: 1536 6 68  can
: 1542 5 68 not
: 1553 9 67  see
- 1563
: 1565 2 65 But
: 1571 2 63  with
* 1577 29 70  you
- 1608 1609
: 1618 4 70 I
: 1624 6 72  lose
: 1635 5 66  that
: 1640 3 65 ~
: 1646 5 65 vi
: 1651 5 63 ~
: 1658 9 63 sion
- 1669 1670
: 1687 4 67 I
: 1692 6 67  don't
: 1699 8 67  know
: 1711 5 67  how
- 1717
: 1717 3 67 To
: 1723 6 68  dream
: 1730 8 68  your
: 1741 7 67  dream
- 1750
: 1752 2 63 So
: 1757 6 72  I'm
: 1764 5 72  all
: 1769 10 70 ~
: 1781 8 70 caught
: 1789 3 70  up
- 1794
: 1798 3 70 In
: 1805 6 70  this
* 1811 4 72  su
: 1823 5 67 per
: 1828 3 65 ~
: 1834 5 65 sti
: 1845 9 63 tion
: 1854 3 65 ~
: 1857 2 67 ~
- 1861
: 1869 4 65 I
: 1875 2 65  want
: 1881 2 65  to
: 1886 3 65  reach
: 1892 4 65  out
- 1898
: 1904 2 58 And
: 1910 10 68  pull
: 1921 2 68  you
: 1928 10 67  to
: 1938 3 65  me
: 1941 3 63 ~
- 1946
: 1951 8 68 Who
: 1963 3 68  says
: 1968 3 68  I
: 1974 3 68  should
- 1978
: 1980 5 68 Let
: 1986 4 72  a
: 1992 15 70  wild
: 2008 10 70  one
: 2020 5 70  go
: 2026 3 67 ~
: 2032 8 67 free
- 2042
: 2044 10 70 Try
: 2056 2 70 ing
: 2061 3 70  to
: 2068 5 72  catch
: 2079 5 67  your
: 2090 6 67  heart
: 2096 15 65 ~
- 2112
: 2114 5 63 Is
: 2126 5 58  like
- 2133
: 2138 9 70 Try
: 2149 3 70 ing
: 2155 3 70  to
: 2161 4 72  catch
: 2172 5 67  a
: 2183 6 67  star
: 2189 18 65 ~
: 2207 12 63 ~
- 2221 2222
: 2241 2 63 But
: 2243 6 68  I
: 2251 8 68  can't
: 2260 6 68  love
: 2266 3 67 ~
: 2271 6 67 you
- 2278
: 2278 8 67 This
: 2290 3 65  much
: 2301 10 67  ba
: 2312 9 65 by
: 2321 3 63 ~
- 2326 2327
: 2335 5 63 And
: 2341 4 63  love
: 2347 4 63  you
: 2353 2 63  from
: 2359 3 60  this
: 2365 4 60  far
: 2370 13 58 ~
- 2385 2397
: 2417 10 72 Wait
: 2430 2 72 ing
: 2435 2 72  for
: 2441 2 72  a
: 2447 9 70  star
: 2458 2 70  to
: 2464 5 67  fall
: 2470 6 65 ~
- 2478
: 2482 3 63 And
* 2489 9 67  car
: 2499 5 68 ry
: 2506 3 70  your
: 2511 9 70  heart
: 2522 2 63  in
: 2528 4 63 to
: 2534 5 63  my
: 2540 8 63  arms
- 2550
: 2557 10 70 That's
: 2569 4 63  where
: 2575 4 63  you
: 2580 4 63  be
: 2586 4 63 long
- 2591
: 2593 3 60 In
: 2598 3 60  my
: 2604 8 67  arms
: 2616 3 60  ba
: 2622 5 60 by
: 2628 5 58  yeah
: 2634 8 55 ~
- 2644 2678
: 2698 10 72 Wait
: 2710 2 72 ing
: 2715 4 72  for
: 2721 2 72  a
: 2727 9 70  star
: 2738 2 70  to
: 2744 5 67  fall
: 2750 5 65 ~
- 2757
: 2761 3 63 And
: 2768 10 67  car
: 2779 5 68 ry
: 2786 3 70  your
: 2791 9 70  heart
: 2803 2 63  in
: 2808 4 63 to
: 2814 5 63  my
: 2820 5 63  arms
- 2827 2828
: 2837 10 70 That's
: 2849 3 63  where
: 2855 3 63  you
: 2861 2 63  be
: 2864 4 63 long
- 2870
: 2873 2 60 In
: 2878 4 60  my
: 2884 8 67  arms
: 2897 3 60  ba
: 2902 5 60 by
: 2908 5 58  yeah
: 2914 8 55 ~
- 2924 2958
: 2978 10 70 Wait
: 2990 2 70 ing
- 2994
: 3001 4 73 How
* 3007 10 72 e
: 3018 2 73 ver
: 3024 15 68  long
- 3040
: 3041 2 61 I
: 3048 7 65  don't
: 3059 5 68  like
: 3071 10 70  wait
: 3083 2 70 ing
- 3087
: 3094 2 70 I'll
: 3100 8 70  wait
: 3109 4 68 ~
: 3116 4 66 for
: 3120 3 68 ~
: 3125 8 68 you
- 3134
: 3136 2 68 It's
: 3141 6 70  so
: 3147 3 68 ~
: 3153 7 68 hard
: 3165 10 70  wait
: 3176 2 70 ing
- 3180
: 3188 2 73 Don't
: 3194 8 72  be
: 3205 2 73  too
* 3211 16 68  long
- 3229
: 3235 10 65 Seems
: 3246 4 68  like
: 3258 8 70  wait
: 3269 3 70 ing
- 3274 3275
: 3294 2 66 Makes
: 3299 3 66  me
: 3304 6 65  love
: 3310 8 63 ~
: 3318 13 63 you
- 3333 3334
: 3347 4 65 E
: 3352 3 63 ven
: 3358 28 65  more
: 3386 5 63 ~
: 3392 3 62 whoa
: 3395 3 60 ~
: 3398 6 58 ~
: 3405 10 58 whoa
- 3417 4032
: 4052 10 74 Wait
: 4064 3 74 ing
: 4069 3 74  for
: 4075 3 74  a
: 4081 9 72  star
: 4092 2 72  to
: 4098 5 69  fall
: 4104 5 67 ~
- 4111
: 4116 3 65 And
: 4122 10 69  car
: 4133 5 70 ry
: 4140 3 72  your
* 4145 9 72  heart
: 4157 2 65  in
: 4162 4 65 to
: 4168 5 65  my
: 4174 10 65  arms
- 4186
: 4192 10 72 That's
: 4203 2 65  where
: 4209 4 65  you
: 4215 4 65  be
: 4221 4 65 long
- 4226
: 4227 2 62 In
: 4233 2 62  my
: 4239 7 69  arms
: 4251 3 62  ba
: 4256 5 62 by
: 4262 5 60  yeah
: 4268 8 57 ~
- 4278 4313
: 4333 10 74 Wait
: 4345 3 74 ing
: 4350 3 74  for
: 4356 3 74  a
: 4362 9 72  star
: 4373 2 72  to
: 4379 5 69  fall
: 4385 5 67 ~
- 4392 4393
: 4403 10 69 Car
: 4414 5 70 ry
: 4421 3 72  your
: 4426 9 72  heart
: 4438 2 65  in
: 4443 4 65 to
: 4449 3 65  my
: 4455 5 65  arms
- 4462 4463
: 4472 10 72 That's
: 4484 2 65  where
: 4490 4 65  you
: 4496 4 65  be
: 4501 4 65 long
- 4506
: 4508 2 65 In
: 4513 2 65  my
* 4519 8 69  arms
: 4532 3 62  ba
: 4537 5 62 by
: 4543 5 60  yeah
: 4549 8 57 ~
E
