#TITLE:Motownphilly
#ARTIST:Boyz II Men
#EDITION:SingStar '90s
#GENRE:Pop
#YEAR:1991
#MP3:Boyz II Men - Motownphilly.mp3
#COVER:Boyz II Men - Motownphilly [CO].jpg
#BACKGROUND:Boyz II Men - Motownphilly [BG].jpg
#VIDEO:Boyz II Men - Motownphilly [VD#0].avi
#VIDEOGAP:0
#BPM:340
#GAP:4852,94
F 0 3 36 Yo
F 3 5 36  fellas
F 9 4 36  y'all
F 13 3 36  ready
F 16 2 36  to
F 18 2 36  do
F 20 5 36  this?
- 27
F 32 6 36 Yeah
F 39 9 36  wassup
F 49 10 36  dawg
- 61 77
F 97 4 36 Boyz
F 101 2 36  II
F 103 2 36  Men
F 105 2 36  in
F 107 11 36  effect
- 119
F 119 9 36 Yeah
- 129
F 130 2 36 And
F 132 3 36  it's
F 135 10 36  about
F 147 9 36  time
- 157
F 157 3 36 Yo
F 160 4 36  let's
F 164 4 36  switch
F 168 3 36  this
F 171 5 36  up
- 178 189
: 209 6 58 Boyz
: 218 2 58  II
: 221 6 58  Men
- 229 230
: 256 6 58 Boyz
: 265 2 58  II
: 268 6 58  Men
- 276 277
: 304 6 58 Boyz
: 312 2 58  II
: 315 6 58  Men
- 323 324
: 351 6 58 Boyz
: 360 2 58  II
: 363 7 58  Men
- 372 409
: 429 6 57 Mo
: 437 5 57 town
: 446 8 57 phil
: 455 5 57 ly
: 463 5 57  back
: 473 5 60  a
: 482 6 57 gain
- 490 520
: 540 3 55 Do
: 543 2 55 in'
: 546 5 55  a
: 552 5 55  lit
: 559 4 53 tle
: 565 7 52  east
: 576 7 55 coast
* 589 9 52  swing
- 600 601
: 618 6 57 Boyz
: 627 5 57  II
: 635 7 57  Men
- 644 645
: 654 8 57 Go
: 663 7 60 in'
: 672 7 57  on
- 681 693
: 713 5 55 Not
: 722 7 55  too
: 730 8 55  hard
- 740 741
: 754 7 52 Not
: 766 6 55  too
: 778 8 52  soft
- 788
: 796 5 45 It's
: 803 6 55  long
: 810 3 53  o
: 814 3 52 ver
: 819 9 50 due
: 831 5 45  and
: 838 9 50  now
- 849
: 855 7 50 Phil
: 863 5 45 ly's
* 873 8 52  slam
: 882 4 53 min'
- 888 889
: 897 6 52 Boyz
: 906 2 52  II
: 908 4 52  Men
- 914
: 920 2 52 A
: 923 2 52  B
: 929 4 52  C
- 935
: 937 3 52 B
: 941 3 52  B
: 945 4 49  D
- 951 952
: 965 2 52 The
: 968 3 53  east
: 974 3 53 coast
: 980 4 52  fa
: 986 2 45 mi
: 989 3 45 ly
- 993
: 995 3 57 Ne
: 999 3 53 ver
: 1004 3 55  skipped
: 1009 3 53  a
: 1013 4 50  beat
- 1019
F 1027 8 36 Nah
- 1037
: 1045 3 45 While
: 1050 3 50  cool
: 1054 3 45 in'
: 1057 3 50  on
* 1063 7 52  South
: 1073 5 53  Street
- 1080
: 1087 2 52 Jet
: 1093 2 52  black
: 1099 4 52  Benz
- 1105
: 1111 2 52 Plen
: 1114 1 52 ty
: 1116 2 52  of
: 1120 5 52  friends
- 1127 1128
F 1137 2 36 And
F 1140 2 36  all
F 1143 2 36  the
F 1146 5 36  Philly
F 1154 4 36  steaks
- 1159
F 1159 2 36 You
F 1163 3 36  can
F 1167 6 36  eat
- 1175 1176
: 1193 3 60 Back
: 1197 2 62  in
: 1202 4 62  school
- 1207
: 1209 3 57 We
: 1214 2 60  used
: 1220 3 62  to
: 1226 4 65  dream
: 1232 3 62  a
: 1238 3 65 bout
: 1244 3 62  this
- 1248
: 1250 3 65 Ev
: 1256 3 62 ery
: 1261 6 62 day
: 1267 2 60 ~
: 1269 4 57 ~
- 1275
: 1283 2 64 Could
: 1286 2 64  it
: 1289 2 64  real
: 1292 3 64 ly
: 1297 4 64  hap
: 1304 8 62 pen
- 1313
: 1315 3 60 Or
: 1318 4 62  do
: 1324 8 67  dreams
: 1332 3 65  just
* 1336 8 67  fade
: 1344 3 65  a
: 1347 3 62 way?
: 1351 3 60 ~
: 1354 3 57 ~
- 1358
: 1359 7 55 Yeah
: 1366 6 53 ~
- 1374
: 1377 2 65 Then
: 1380 2 65  we
: 1383 3 65  start
: 1387 6 65 ed
: 1395 3 64  sing
: 1399 5 62 ing
- 1405
: 1405 3 57 And
: 1410 6 65  they
: 1419 4 64  said
: 1423 2 62  it
: 1428 7 57  sounds
: 1437 3 65  smooth
: 1440 7 64 ~
- 1449
: 1457 4 62 Then
: 1461 3 64  we
: 1466 3 65  start
: 1470 3 67 ed
: 1474 3 69  a
: 1479 6 65  group
- 1486
: 1486 3 67 And
* 1490 7 64  here
: 1498 3 65  we
: 1502 3 62  are
: 1505 3 60 ~
: 1508 3 57 ~
- 1512
: 1514 2 67 Kick
: 1517 3 65 in'
: 1520 3 67  it
: 1526 3 67  just
: 1532 3 67  for
: 1538 6 69  you
: 1544 4 67 ~
: 1550 8 67 oh
: 1558 2 69 ~
: 1560 2 67 ~
: 1562 4 65 ~
- 1567
: 1568 5 57 Mo
: 1577 5 57 town
: 1585 9 57 phil
: 1595 5 57 ly
: 1603 6 57  back
: 1612 5 60  a
: 1620 7 57 gain
- 1629 1660
: 1680 2 55 Do
: 1683 2 55 in'
: 1686 5 55  a
: 1692 5 55  lit
: 1698 4 53 tle
: 1704 5 52  east
: 1716 5 55 coast
: 1730 13 52  swing
- 1745 1746
: 1757 6 57 Boyz
: 1767 4 57  II
: 1775 6 57  Men
- 1783 1784
: 1793 6 57 Go
: 1802 6 60 in'
: 1811 8 57  on
- 1821 1832
: 1852 5 55 Not
: 1861 4 55  too
: 1870 6 55  hard
- 1878 1879
: 1893 5 52 Not
: 1905 6 55  too
: 1918 8 52  soft
- 1928 1929
: 1947 6 58 Boyz
- 1955
: 1959 7 58 Boyz
- 1968 1969
F 1993 5 36 Yo
F 1998 5 36  these
F 2003 5 36  four
F 2008 5 36  new
F 2013 7 36  jacks
F 2020 4 36  is
- 2025
F 2025 8 36 Real
F 2033 7 36  smooth
F 2040 2 36  on
F 2042 2 36  the
F 2044 11 36  harmony
F 2055 4 36  tip
- 2061
F 2067 5 36 Nate
F 2073 6 36  Mike
F 2079 6 36  Shawn
F 2085 2 36  and
F 2088 10 36  Wan
- 2100
F 2104 2 36 You
F 2106 3 36  know
F 2109 7 36  the
F 2116 14 36  mentality
- 2132
F 2137 5 36 Keep
F 2143 6 36  spittin'
F 2149 2 36  the
F 2152 7 36  gift
- 2161 2162
: 2171 4 53 The
: 2177 6 55  spot
: 2187 4 53 light
: 2193 3 52  is
: 2199 6 50  on
: 2207 3 45  us
: 2214 7 50  now
- 2223
: 2231 7 50 Watch
: 2240 4 45  us
: 2249 7 52  do
: 2259 4 53  this
- 2265
: 2273 8 57 Da
: 2282 2 57  dap
- 2286 2287
* 2309 16 57 Ba
: 2326 5 55  dap
- 2333
: 2341 2 55 Ba
: 2344 3 55  dop
: 2350 2 55  dop
: 2356 2 55  do
: 2359 3 57  ba
: 2362 3 55  dop
- 2366
: 2368 6 57 Live
: 2377 4 55  and
: 2382 6 53  di
: 2388 4 55 rect
: 2395 4 53  from
- 2401
: 2403 6 50 Phil
: 2409 3 52 ly
: 2416 5 55  town
: 2421 5 53 ~
- 2427
: 2427 3 50 Rapp
: 2430 2 52 in'
: 2436 3 53  hype
: 2442 2 52  and
: 2447 2 50  we
: 2451 3 52  can
: 2457 3 53  get
: 2463 5 52  down
: 2468 3 50 ~
: 2471 3 48 ~
- 2475
: 2475 3 57 We
: 2479 3 55  are
: 2484 5 55  rea
: 2490 3 57 dy
: 2495 3 53  to
: 2498 3 53  roll
: 2502 4 50 ~
- 2507
: 2507 3 50 So
: 2510 5 57  now
: 2516 2 55  the
: 2519 3 55  world
: 2525 4 53  will
- 2530
: 2531 4 57 Know
: 2537 2 60  that
: 2542 5 55  we
: 2547 5 53  roll
: 2552 3 50 ~
: 2555 3 48 ~
: 2558 2 50 ~
: 2560 3 53 ~
: 2563 4 50 ~
- 2568
: 2569 3 60 Back
: 2572 4 62  in
: 2579 4 62  school
- 2584
: 2585 4 57 We
: 2591 3 60  used
: 2597 3 62  to
: 2603 4 65  dream
: 2609 3 67  a
: 2615 4 69 bout
: 2621 3 65  this
- 2625
: 2626 3 67 Ev
: 2632 3 62 ery
: 2638 5 62 day
: 2644 9 65 ~
- 2655
: 2658 2 57 Could
: 2661 4 57  it
: 2665 3 60  real
: 2668 5 62 ~
: 2673 3 62 ly
: 2677 6 67  hap
: 2684 3 67 pen
: 2687 4 65 ~
- 2692
: 2692 2 60 Or
: 2695 3 62  do
: 2700 8 67  dreams
: 2709 3 65  just
: 2712 8 67  fade
: 2721 2 65  a
: 2724 3 65 way?
: 2727 2 67 ~
: 2729 4 69 ~
- 2734
: 2734 1 68 Yeah
: 2735 4 69 ~
: 2739 6 67 ~
: 2745 2 68 ~
: 2747 2 67 ~
: 2749 3 65 ~
- 2753
: 2753 2 65 Then
: 2756 2 65  we
: 2759 2 65  start
: 2763 7 65 ed
: 2771 3 64  sing
: 2775 4 62 ing
- 2780
: 2781 2 57 And
* 2786 7 65  they
: 2795 3 64  said
: 2798 3 62  it
: 2805 5 57  sounds
: 2813 3 65  smooth
: 2816 10 64 ~
- 2828
: 2834 3 60 So
: 2838 3 62  we
: 2842 4 69  start
: 2846 4 67 ed
: 2850 3 65  a
: 2855 4 67  group
: 2859 3 65 ~
- 2863
: 2863 3 64 And
: 2867 4 65  here
: 2871 4 64 ~
: 2875 4 62 we
: 2879 4 64  are
: 2883 2 62 ~
: 2885 3 60 ~
- 2889
: 2890 3 67 Kick
: 2893 3 65 in'
: 2896 3 67  it
: 2902 3 67  just
: 2908 3 72  for
: 2914 2 69  you
: 2916 2 67 ~
: 2918 6 65 ~
- 2925
: 2925 7 68 Oh
: 2932 3 65 ~
: 2935 3 62 ~
: 2938 4 65 ~
- 2943
: 2944 5 57 Mo
: 2953 5 57 town
: 2962 7 57 phil
: 2970 3 57 ly
: 2978 5 57  back
: 2988 6 60  a
: 2996 7 57 gain
- 3005 3036
: 3056 2 55 Do
: 3059 3 55 in'
: 3062 3 55  a
: 3068 4 55  lit
: 3074 5 53 tle
: 3081 6 52  east
: 3092 6 55 coast
: 3106 8 52  swing
- 3116 3117
: 3134 4 57 Boyz
: 3143 4 57  II
: 3151 4 57  Men
- 3157 3158
: 3169 7 57 Go
: 3178 6 60 in'
: 3187 7 57  on
- 3196 3207
: 3227 6 55 Not
: 3237 6 55  too
: 3246 7 55  hard
- 3255 3256
: 3269 6 52 Not
: 3281 7 55  too
: 3293 8 52  soft
- 3303 3304
: 3323 2 69 Then
: 3326 2 69  we
: 3329 2 69  start
: 3332 4 69 ed
- 3338
: 3341 6 58 Boyz
: 3350 2 58  II
: 3353 4 58  Men
- 3359 3360
: 3371 2 69 Then
: 3374 2 69  we
: 3377 2 69  start
: 3380 4 69 ed
- 3386
: 3389 6 58 Boyz
: 3398 2 58  II
: 3401 4 58  Men
- 3407 3408
: 3418 2 69 Then
: 3420 2 69  we
: 3423 2 69  start
: 3426 4 69 ed
- 3432
: 3435 6 58 Boyz
: 3444 2 58  II
: 3447 4 58  Men
- 3453 3454
: 3465 2 69 Then
: 3468 2 69  we
: 3471 2 69  start
: 3474 4 69 ed
- 3480
: 3483 6 58 Boyz
: 3492 2 58  II
: 3495 4 58  Men
- 3501 3502
: 3513 2 69 Then
: 3516 2 69  we
: 3519 2 69  start
: 3522 4 69 ed
- 3528
* 3531 6 58 Boyz
: 3540 2 58  II
: 3543 4 58  Men
- 3549 3550
: 3560 2 69 Then
: 3563 2 69  we
: 3566 2 69  start
: 3569 4 69 ed
- 3575
: 3578 6 58 Boyz
: 3587 2 58  II
: 3590 4 58  Men
- 3596 3597
: 3608 2 69 Then
: 3611 2 69  we
: 3614 2 69  start
: 3617 4 69 ed
: 3626 3 65  sing
: 3629 4 67 ing
- 3634
: 3634 4 65 And
: 3640 8 69  they
: 3649 3 65  said
: 3652 4 67  it
: 3658 7 65  sounds
: 3667 3 69  smooth
: 3670 15 67 ~
- 3687 3688
F 3702 7 36 Yo,
F 3714 6 36  yo
- 3721
F 3721 11 36 Mmm
F 3733 4 36  hmm
- 3738
F 3738 4 36 Now
F 3744 3 36  check
F 3748 4 36  this
F 3753 5 36  out
- 3759
F 3759 4 36 One
F 3764 4 36  day
F 3769 6 36  back
F 3775 3 36  in
F 3779 9 36  Philly
- 3790
F 3797 6 36 Four
F 3804 8 36  guys
F 3815 5 36  wanted
F 3821 2 36  to
F 3824 7 36  sing
- 3833
F 3840 3 36 They
F 3843 4 36  came
F 3847 2 36  up
F 3850 3 36  to
F 3853 2 36  me
F 3855 2 36  I
F 3857 1 36  said
- 3859
F 3859 3 36 ''But
F 3862 4 36  what's
F 3866 5 36  your
F 3871 7 36  name?''
- 3879
F 3879 4 36 Boyz
F 3883 4 36  II
F 3887 5 36  Men
- 3893
F 3893 12 36 Hey
F 3907 4 36  you
F 3911 2 36  know
F 3913 2 36  what
F 3915 2 36  I'm
F 3918 10 36  sayin'?
- 3930 3931
F 3939 3 36 Then
F 3943 2 36  I
F 3947 2 36  said
F 3949 9 36  ''aiight
F 3958 5 36  fellas
- 3964
F 3964 2 36 Well
F 3966 3 36  let
F 3969 3 36  me
F 3972 2 36  see
F 3975 4 36  what
F 3980 2 36  you
F 3982 3 36  can
F 3986 6 36  do''
- 3994
F 4001 2 36 And
F 4003 2 36  then
F 4005 4 36  the
F 4010 6 36  smart
F 4016 3 36  one
- 4020
F 4020 5 36 Named
F 4025 8 36  Wanya
F 4034 6 36  said
- 4041
F 4041 5 36 ''Yo
F 4046 6 36  Mike
- 4054
F 4059 4 36 Check
F 4066 4 36  this
F 4070 8 36  out
- 4080
F 4083 3 36 See
F 4086 2 36  if
F 4090 6 36  this
F 4098 5 36  one
F 4103 6 36  moves
F 4109 4 36  you''
- 4115 4116
: 4129 6 57 Mmm
: 4135 6 62  mmm
: 4141 5 64  mmm
: 4147 7 65  dah
: 4156 3 65  dap
- 4161
: 4165 6 57 Mmm
: 4171 6 62  mmm
: 4177 5 64  mmm
: 4183 7 65  dah
: 4192 3 65  dap
- 4197
: 4201 3 67 Da
: 4204 2 69 ~
: 4207 3 67 ya
: 4210 2 69 ~
: 4212 3 67 ya
: 4215 2 69 ~
: 4218 8 67 ya
: 4227 4 67  dop
- 4233 4234
: 4242 7 67 Ba
: 4251 2 67  dop
- 4255 4256
: 4266 6 69 Dah
: 4272 3 67 ~
: 4275 3 65 ~
: 4278 7 67 ~
- 4287
: 4289 6 65 Oh
: 4295 3 64 ~
: 4298 3 62 ~
: 4301 9 64 ~
- 4312
: 4320 6 57 Mmm
: 4326 5 62  mmm
: 4331 5 64  mmm
: 4337 7 65  dah
: 4346 3 65  dap
- 4351
: 4355 6 57 Mmm
: 4361 6 62  mmm
: 4367 5 64  mmm
* 4373 7 65  dah
: 4382 3 65  dap
- 4387
: 4391 3 67 Da
: 4394 2 69 ~
: 4397 3 67 ya
: 4400 2 69 ~
: 4402 3 67 ya
: 4405 2 69 ~
: 4408 8 67 ya
: 4417 4 67  dop
- 4423 4424
: 4432 7 67 Ba
: 4441 2 67  dop
- 4445 4446
: 4456 6 69 Ah,
: 4468 7 67  ah
: 4481 17 64  oh
- 4500 4501
: 4509 5 57 Mo
: 4518 5 57 town
: 4527 8 57 phil
: 4536 3 57 ly
: 4544 5 57  back
: 4554 6 60  a
: 4562 7 57 gain
- 4571 4602
: 4622 2 55 Do
: 4625 3 55 in'
: 4628 3 55  a
: 4634 4 55  lit
: 4640 5 53 tle
: 4647 6 52  east
: 4658 6 55 coast
: 4672 8 52  swing
- 4682 4683
: 4699 5 57 Boyz
: 4708 6 57  II
: 4716 5 57  Men
- 4723 4724
: 4735 7 57 Go
: 4744 6 60 in'
: 4753 7 57  on
- 4762 4773
: 4793 6 55 Not
: 4802 6 55  too
: 4811 7 55  hard
- 4820 4821
: 4835 6 52 Not
* 4847 7 55  too
: 4859 8 52  soft
- 4869 4870
F 4889 6 36 Go,
F 4901 7 36  go
- 4910
F 4913 7 36 Go,
F 4925 5 36  go
- 4931
: 4931 6 58 Boyz
: 4939 2 58  II
: 4942 3 58  Men
- 4947 4958
: 4978 6 58 Boyz
: 4987 2 58  II
: 4990 3 58  Men
- 4995 5005
: 5025 6 58 Boyz
: 5034 2 58  II
- 5038 5039
: 5049 6 58 Boyz
: 5058 2 58  II
: 5061 3 58  Men
- 5066
: 5073 6 58 Boyz,
: 5084 6 58  Boyz,
: 5096 6 58  Boyz,
: 5108 6 58  Boyz
- 5116
: 5120 6 58 Boyz
: 5129 2 58  II
: 5132 3 58  Men
- 5137
: 5144 3 58 A
: 5148 3 58  B
: 5153 3 58  C
- 5158
: 5162 2 58 B
: 5165 2 57  B
: 5168 3 55  D
E
