#TITLE:Kom Och Ta Mig
#ARTIST:Brandsta City Släckers
#MP3:Brandsta City Släckers - Kom Och Ta Mig.mp3
#COVER:Brandsta City Släckers - Kom Och Ta Mig [CO].jpg
#BACKGROUND:Brandsta City Släckers - Kom Och Ta Mig [BG].jpg
#BPM:270,40
#GAP:2662,72
#ENCODING:UTF8
#LANGUAGE:Swedish
#EDITION:Singstar Svenska Hits Schlager
: 0 4 59 Ooh
: 4 4 62  - 
: 8 7 67 - 
: 16 7 67  - 
: 24 7 67  - 
: 32 6 67  - 
- 38
: 40 8 69 Ooh
: 48 4 67  - 
: 52 4 66 - 
: 56 8 64 - 
: 64 7 62 - 
- 71
: 72 8 60 Ooh
: 80 7 64  - 
: 88 8 64  - 
: 96 4 62 - 
: 100 4 60 - 
: 104 4 59 - 
: 108 4 60 - 
: 112 4 62 - 
: 116 4 64 - 
: 120 6 62 - 
- 126
: 128 4 59 Ooh
: 132 4 62  - 
: 136 7 67 - 
: 144 7 67  - 
: 152 7 67  - 
: 160 7 67  - 
- 167
: 168 4 66 Ooh
: 172 4 67  - 
: 176 4 69 - 
: 180 4 66 - 
: 184 8 64 - 
: 192 7 62 - 
- 199
: 200 8 60 Ooh
: 208 8 64  - 
: 216 4 62 - 
: 220 4 59 - 
: 224 2 57 - 
- 226
: 227 2 55 Jag 
: 231 6 55 stĺr 
: 239 2 55 här 
: 243 2 59 pĺ 
: 247 5 62 ga
: 255 3 59 tan 
- 258
: 259 2 55 Vi 
: 263 5 54 bod
: 271 4 57 de 
: 279 7 57 pĺ 
- 288
: 291 2 55 En 
: 295 6 57 gĺng 
: 303 2 57 var 
: 307 2 59 den 
: 311 5 60 he
: 319 2 57 la 
- 321
: 323 4 54 Vĺr 
* 331 15 55 värld 
- 350
: 355 2 54 Men 
: 359 5 55 in
: 367 2 55 gen
: 371 2 59 ting 
: 375 5 62 känns 
- 381
: 383 3 59 Li
: 387 2 55 ka
: 391 5 54 dant 
: 399 5 57 som 
: 407 3 57 dĺ 
- 410
: 411 3 57 Och 
: 415 2 57 in
: 419 2 57 ga 
: 423 5 57 lyck
: 431 2 57 li
: 435 2 59 ga 
: 439 4 60 män
: 443 2 57 ni
: 447 3 57 skor 
- 450
: 451 7 54 Bor 
: 459 14 55 här 
- 478
: 483 2 55 De 
* 487 5 60 dör
: 495 2 60 rar 
: 499 2 62 som 
: 503 5 64 all
: 511 2 62 tid 
- 513
: 515 2 60 Stod 
: 519 6 59 öp
: 527 6 62 pna 
: 535 6 62 dĺ 
- 544
: 547 2 59 Är 
: 551 5 57 stäng
: 559 2 57 da 
: 563 2 59 och 
: 567 5 60 lĺs
: 575 4 57 ta 
: 579 3 54 i
: 583 10 55 dag 
- 602
: 611 2 59 Fast 
: 615 5 60 al
: 623 2 60 la 
: 627 2 62 är 
: 631 5 64 en
: 639 3 62 sam
: 643 3 60 ma 
- 646
: 647 5 59 Hem
: 655 4 59 ma 
: 659 2 62 än
: 663 6 62 dĺ 
- 672
: 675 2 55 Sĺ 
: 679 6 57 blev 
: 687 2 57 det 
: 691 2 59 för 
: 695 4 61 oss 
: 702 4 61 som 
: 707 7 64 blev 
* 715 28 62 kvar 
- 753
: 775 6 55 Kom 
: 783 6 59 och 
: 791 6 62 ta 
: 799 6 67 mig 
- 805
: 807 5 66 Lĺngt 
: 815 3 64 hä
: 819 3 62 ri
: 823 8 60 frĺn 
- 834
: 838 4 66 Lĺngt 
: 846 3 64 hä
: 850 2 62 ri
: 854 9 60 frĺn 
- 866
: 870 4 64 Lĺngt 
: 878 2 62 hä
: 882 2 60 ri
: 886 6 59 frĺn 
- 892
: 894 6 57 Ja 
: 902 7 55 kom 
: 910 6 59 och 
: 918 6 62 ta 
: 926 6 67 mig 
- 932
* 934 4 66 Lĺngt 
: 942 3 64 hä
: 946 3 62 ri
: 950 8 60 frĺn 
- 962
: 966 4 66 Kom 
: 974 3 64 ta 
: 978 2 62 mig 
- 980
: 982 4 60 Lĺngt 
: 990 3 59 hä
: 994 5 57 ri
: 1002 14 55 frĺn 
- 1026
: 1058 2 55 Jag 
: 1062 6 55 minns 
: 1070 2 55 att 
: 1074 2 59 de 
* 1078 5 62 sa 
- 1084
: 1086 3 59 Du 
: 1090 2 55 var 
: 1094 5 54 rast
: 1102 4 57 lös 
: 1110 7 57 dĺ 
- 1119
: 1122 2 55 Att 
: 1126 6 57 stan 
: 1134 2 57 var 
: 1138 2 59 för 
: 1142 5 60 li
: 1150 2 57 ten 
- 1152
: 1154 3 54 För 
: 1158 10 55 dig 
- 1175
: 1182 2 55 Jag 
: 1186 2 54 för
: 1190 5 55 stod 
: 1198 2 55 in
: 1202 2 59 te 
: 1206 5 62 alls 
- 1212
: 1214 3 59 Vad 
: 1218 2 55 de 
: 1222 5 54 me
: 1230 5 57 na' 
: 1238 7 57 dĺ 
- 1245
: 1246 2 57 Men 
: 1250 2 57 jag 
: 1254 5 57 ön
: 1262 2 57 skar 
: 1266 2 59 de 
: 1270 4 60 sagt 
- 1276
: 1278 3 57 Sĺ 
: 1282 7 54 om 
: 1290 12 55 mig 
- 1308
: 1314 2 60 Fast 
: 1318 5 60 in
: 1326 2 60 gen
: 1330 2 62 ting 
: 1334 5 64 skul
: 1342 2 62 le 
- 1344
: 1346 2 60 Fĺ 
: 1350 6 59 skil
: 1358 3 62 ja 
: 1362 2 62 oss 
: 1366 6 62 ĺt 
- 1375
: 1378 2 50 Sĺ 
: 1382 5 57 sĺg 
: 1390 2 57 jag 
: 1394 2 59 ditt 
: 1398 5 60 tĺg 
: 1406 4 57 ge 
: 1410 7 54 sig 
: 1418 9 55 av 
- 1434
: 1442 2 55 Jag 
: 1446 5 60 klam
: 1454 2 60 ra' 
: 1458 2 62 mig 
: 1462 5 64 fast 
- 1468
: 1470 3 62 Vid 
: 1474 3 60 en 
: 1478 5 59 skylt 
: 1486 6 62 och 
: 1494 6 62 grät 
- 1500
: 1502 2 59 Bĺ
: 1506 2 59 de 
: 1510 6 57 skyl
: 1518 2 57 ten 
: 1522 2 59 och 
: 1526 6 61 jag 
: 1534 3 61 vi 
: 1538 6 64 stĺr 
: 1546 27 62 kvar 
- 1583
: 1606 6 55 Kom 
: 1614 6 59 och 
: 1622 6 62 ta 
: 1630 6 67 mig 
- 1636
: 1638 5 66 Lĺngt 
: 1646 3 64 hä
: 1650 3 62 ri
: 1654 8 60 frĺn 
- 1665
: 1669 4 66 Lĺngt 
: 1677 3 64 hä
: 1681 2 62 ri
: 1685 9 60 frĺn 
- 1697
: 1701 4 64 Lĺngt 
: 1709 2 62 hä
: 1713 2 60 ri
: 1717 6 59 frĺn 
- 1723
: 1725 6 57 Oh 
: 1733 7 55 kom 
: 1741 6 59 och 
: 1749 6 62 ta 
: 1757 6 67 mig 
- 1763
: 1765 4 66 Lĺngt 
: 1773 3 64 hä
: 1777 3 62 ri
: 1781 8 60 frĺn 
- 1793
: 1797 4 66 Kom 
: 1805 3 64 ta 
: 1809 2 62 mig 
- 1811
: 1813 4 60 Lĺngt 
: 1821 3 59 hä
: 1825 5 57 ri
: 1833 14 55 frĺn 
- 1850
: 1854 4 59 Ooh
: 1858 4 62  - 
: 1862 7 67 - 
: 1870 7 67  - 
: 1878 7 67  - 
: 1886 6 67  - 
- 1892
: 1894 8 69 Ooh
: 1902 4 67  - 
: 1906 4 66 - 
: 1910 8 64 - 
: 1918 7 62 - 
- 1925
: 1926 8 60 Ooh
: 1934 7 64  - 
: 1942 8 64  - 
: 1950 4 62 - 
: 1954 4 60 - 
: 1958 4 59 - 
: 1962 4 60 - 
: 1966 4 62 - 
: 1970 4 64 - 
: 1974 6 62 - 
- 1980
: 1982 4 59 Ooh
: 1986 4 62  - 
* 1990 7 67 - 
: 1998 7 67  - 
: 2006 7 67  - 
: 2014 7 67  - 
- 2021
: 2022 4 66 Ooh
: 2026 4 67  - 
: 2030 4 69 - 
: 2034 4 66 - 
: 2038 8 64 - 
: 2046 7 62 - 
- 2053
: 2054 8 60 Ooh
: 2062 8 64  - 
: 2070 4 62 - 
: 2074 4 59 - 
: 2078 3 57 - 
- 2081
: 2082 2 50 Och 
: 2086 6 55 om 
: 2094 2 55 jag 
: 2098 2 59 fick 
: 2102 5 62 le
: 2110 3 59 va 
- 2113
: 2114 2 55 Mitt 
: 2118 5 54 liv 
: 2126 6 57 i
: 2134 7 57 gen 
- 2143
: 2146 2 50 Sĺ 
: 2150 6 57 skul
: 2158 2 57 le 
: 2162 2 59 jag 
* 2166 5 60 ta 
- 2172
: 2174 2 57 Sam
: 2178 4 54 ma 
: 2186 8 55 tĺg 
- 2199
: 2205 2 55 Men 
: 2209 2 54 för
: 2213 7 55 stod 
: 2221 2 55 in
: 2225 2 59 te 
: 2229 5 62 alls 
- 2235
: 2237 3 59 Vad 
: 2241 2 55 du 
: 2245 5 54 me
: 2253 5 57 na' 
: 2261 7 57 dĺ 
- 2270
: 2273 2 57 Och 
: 2277 5 57 sĺg 
: 2285 2 57 in
: 2289 2 59 te 
: 2293 5 60 alls 
- 2299
: 2301 3 57 Det 
: 2305 7 54 du 
: 2313 11 55 sĺg 
- 2330
: 2337 2 55 För 
* 2341 5 60 fön
: 2349 2 60 stren 
: 2353 2 62 var 
: 2357 5 64 al
: 2365 2 62 drig 
- 2367
: 2369 2 60 Sĺ 
: 2373 6 59 mör
: 2381 6 62 ka 
: 2389 6 62 dĺ 
- 2398
: 2401 2 54 Och 
: 2405 5 57 ga
: 2413 2 57 tan 
: 2417 2 59 var 
: 2421 5 60 in
: 2429 4 57 te 
: 2433 3 54 sĺ 
: 2441 12 55 smal 
- 2458
: 2464 2 55 Och 
: 2468 5 60 förre
: 2476 2 60 sten 
: 2480 2 62 sĺ 
: 2484 5 64 skul
: 2492 3 62 le 
- 2495
: 2496 3 60 Vi 
: 2500 5 59 föl
: 2508 6 62 jas 
: 2516 6 62 ĺt 
- 2525
: 2528 2 55 Sĺ 
: 2532 6 57 kom 
: 2540 2 57 nu 
: 2544 2 59 jag 
: 2548 4 61 vill 
: 2555 4 61 ge 
* 2560 5 64 mig 
: 2568 28 62 av 
- 2606
: 2628 6 55 Kom 
: 2636 6 59 och 
: 2644 6 62 ta 
: 2652 6 67 mig 
- 2658
: 2660 5 66 Lĺngt 
: 2668 3 64 hä
: 2672 3 62 ri
: 2676 8 60 frĺn 
- 2688
: 2692 4 66 Lĺngt 
: 2700 3 64 hä
: 2704 2 62 ri
: 2708 9 60 frĺn 
- 2720
: 2724 4 64 Lĺngt 
: 2732 2 62 hä
: 2736 2 60 ri
: 2740 6 59 frĺn 
- 2746
: 2748 6 57 Ja 
: 2756 7 55 kom 
: 2764 6 59 och 
: 2772 6 62 ta 
: 2780 6 67 mig 
- 2786
: 2788 4 66 Lĺngt 
: 2796 3 64 hä
: 2800 3 62 ri
: 2804 8 60 frĺn 
- 2816
: 2820 4 66 Kom 
: 2828 3 64 ta 
: 2832 2 62 mig 
- 2834
: 2836 4 60 Lĺngt 
: 2844 3 59 hä
: 2848 5 57 ri
: 2856 14 55 frĺn 
- 2877
* 2884 6 57 Kom 
: 2892 6 61 och 
: 2900 6 64 ta 
: 2908 6 69 mig 
- 2914
: 2916 5 68 Lĺngt 
: 2924 3 66 hä
: 2928 3 64 ri
: 2932 8 62 frĺn 
- 2944
: 2948 4 68 Lĺngt 
: 2956 3 66 hä
: 2960 2 64 ri
: 2964 9 62 frĺn 
- 2976
: 2980 4 66 Lĺngt 
: 2988 2 64 hä
: 2992 2 62 ri
: 2996 6 61 frĺn 
- 3002
: 3004 6 59 Ja 
: 3012 7 57 kom 
: 3020 6 61 och 
: 3028 6 64 ta 
: 3036 6 69 mig 
- 3042
: 3044 4 68 Lĺngt 
: 3052 3 66 hä
: 3056 3 64 ri
: 3060 8 62 frĺn 
- 3071
: 3075 4 68 Kom 
: 3083 3 66 ta 
: 3087 2 64 mig 
- 3089
: 3091 4 62 Lĺngt 
: 3099 3 61 hä
: 3103 5 59 ri
: 3111 14 57 frĺn 
E