#TITLE:Circus
#ARTIST:Britney Spears
#GENRE:Pop
#MP3:Britney Spears - Circus.mp3
#COVER:Britney Spears - Circus [CO].jpg
#VIDEO:Britney Spears - Circus [VD#30].avi
#VIDEOGAP:30
#BPM:115,02
#GAP:7610
F 0 1 13 
: 1 1 13 There's 
: 2 1 13 on
: 4 2 13 ly 
: 6 2 18 two 
: 10 2 13 ty
: 12 2 11 pes of 
: 14 2 13 peo
: 16 2 6 ple
- 18
: 18 2 6 in 
: 20 2 4 the 
: 22 2 6 world
: 24 2 4 -
- 26
: 32 2 13 The 
: 34 1 13 ones 
: 36 2 11 that 
: 38 2 13 en
: 40 2 11 ter
: 42 2 13 tain
: 44 2 11 -
- 46
: 48 1 6 and 
: 49 1 6 the 
: 50 2 6 ones 
: 52 3 6 that 
: 55 1 4 ob
: 56 2 6 ser
: 58 2 4 ve
- 60
: 64 2 13 Well 
: 66 1 13 ba
: 68 2 13 by 
: 70 2 18 I'm 
: 72 2 18 a 
: 74 2 13 pu
: 76 2 13 t-o
: 78 2 11 n-a-
: 80 2 13 show
- 82
: 82 2 13 kin
: 84 2 6 da 
: 86 2 6 girl
: 88 2 4 -
- 90
: 96 2 13 Don't 
: 98 1 13 like 
: 100 2 11 the 
: 102 2 13 ba
: 104 2 11 ck
: 106 2 13 seat
- 108
: 112 2 13 Got
: 114 1 13 ta 
: 116 2 6 be 
: 118 2 6 first
: 120 2 4 -
- 122
: 128 1 13 I'
: 129 1 13 m 
: 130 2 13 like 
: 132 2 13 the 
: 134 4 13 rin
: 138 2 11 glea
: 140 2 9 der
- 142
: 144 2 13 I 
: 146 2 13 call 
: 148 2 11 the 
: 150 2 13 shots
- 152
: 160 1 13 I'
: 161 1 13 m 
: 162 2 13 like a 
: 164 2 13 fi
: 166 4 13 re 
: 170 2 11 cra
: 172 2 9 cker
- 174
: 176 2 13 I 
: 178 2 13 make 
: 180 2 11 it 
: 182 2 13 hot
- 184
: 187 1 13 When 
: 188 1 13 I 
: 189 1 16 put 
: 190 4 20 on 
: 194 2 16 a 
: 196 2 18 show
- 198
: 208 1 21 Feel 
: 210 1 21 the 
: 212 2 21 a
: 214 1 20 dre
: 216 1 20 na
: 218 1 20 line
- 219
: 220 1 20 mo
: 222 2 20 ving th
: 224 2 21 rough 
: 226 1 20 my 
: 228 2 20 ve
: 230 3 18 ins
- 233
: 238 3 21 Spot
: 242 3 21 light 
: 246 1 21 on 
: 248 1 21 me 
- 250
: 250 1 21 and
: 252 1 21 I'm 
: 254 2 20 rea
: 256 2 20 dy 
: 258 2 20 to 
: 260 2 20 bre
: 262 3 21 ak
- 265
: 270 1 21 I'm 
: 272 1 21 like 
: 274 1 21 a 
: 276 2 21 per
: 278 1 20 for
: 280 1 20 mer
- 281
: 282 1 20 The 
: 284 1 20 dance
: 286 2 20 floor 
: 288 2 21 is 
: 290 1 20 my 
: 292 2 20 sta
: 294 3 18 ge
- 297
: 304 2 21 Bet
: 306 1 21 ter 
: 308 1 21 be 
: 310 2 21 rea
: 312 1 21 dy
- 313
: 316 2 25 Hope 
: 318 2 23 that 
: 320 1 21 ya 
: 322 2 20 feel 
: 324 2 21 the 
: 326 1 18 same
- 327
: 344 1 18 All 
: 346 1 18 eyes 
: 348 1 18 on 
: 350 1 18 me
: 352 0 18 in 
: 353 1 18 the 
: 354 0 18 cen
: 355 1 18 ter 
: 356 1 18 of 
: 357 1 18 the 
: 358 1 18 ring
- 359
: 360 1 18 just 
: 362 1 18 like 
: 364 2 18 a 
: 366 2 14 cir
: 368 1 13 cus
: 370 2 13 -
- 372
: 376 1 18 When 
: 377 1 18 I 
: 378 1 18 crack 
: 380 1 18 that 
: 382 1 18 whip
- 383
: 384 0 18 E
: 385 1 18 very
: 386 0 18 bo
: 387 1 18 dy 
: 388 1 18 gon
: 389 1 18 na 
: 390 1 18 trip
- 391
: 392 1 18 just 
: 394 1 18 like 
: 396 2 18 a 
: 398 2 14 cir
: 400 1 13 cus
: 402 2 13 -
- 404
: 408 1 18 Don't 
: 410 1 18 stand 
: 412 2 18 there 
: 414 1 21 wat
: 416 1 18 ching 
: 418 2 18 me
- 420
: 420 1 21 Fol
: 422 1 18 low 
: 424 1 18 me, 
: 426 2 18 Show 
: 428 1 18 me
: 430 1 21 what 
: 432 1 18 you 
: 434 1 16 can 
: 436 1 18 do
- 437
: 440 1 18 E
: 441 1 18 very
: 442 1 18 bo
: 443 1 18 dy 
: 444 1 18 let 
: 446 1 18 go
- 447
: 448 0 18 We 
: 449 1 18 can 
: 450 0 18 -
: 451 1 18 make 
: 452 1 18 a 
: 453 1 18 dance 
: 454 1 18 floor
- 455
: 456 1 18 just 
: 458 1 18 like 
: 460 2 18 a 
: 462 2 14 cir
: 464 1 13 cus 
: 466 2 13 -
- 468
: 497 1 13 There's 
: 498 1 13 on
: 500 2 13 ly 
: 502 2 18 two 
: 506 2 13 types 
: 508 2 11 of 
: 510 2 13 guys
: 512 2 6 -
- 514
: 514 2 6 out 
: 516 2 4 -
: 518 2 6 the
: 520 2 4 re
- 522
: 528 2 13 Ones 
: 530 1 13 that 
: 532 2 11 can 
: 534 2 13 hang 
: 536 2 11 with 
: 538 2 13 me
: 540 2 11 -
- 542
: 544 1 6 and 
: 545 1 6 ones 
: 546 2 6 that 
: 548 3 6 are 
: 551 1 4 -
: 552 2 6 sca
: 554 2 4 red
- 556
: 560 2 13 So 
: 562 1 13 ba
: 564 2 13 by 
: 566 2 18 I 
: 568 2 18 -
: 570 2 13 hope 
: 572 2 13 -
: 574 2 11 that
: 576 2 13 -
: 578 2 13 you 
- 580
: 580 2 6 came 
: 582 2 6 pre
: 584 2 4 pared
- 586
: 592 2 13 I 
: 594 1 13 run 
: 596 2 11 a 
: 598 2 13 tight 
: 600 2 11 -
: 602 2 13 ship 
: 608 2 13 -
- 610
: 610 1 13 so 
: 612 2 6 be
: 614 2 6 wa
: 616 2 4 re
- 618
: 624 1 13 I'
: 625 1 13 m 
: 626 2 13 like 
: 628 2 13 the 
: 630 4 13 rin
: 634 2 11 glea
: 636 2 9 der
- 638
: 640 2 13 I 
: 642 2 13 call 
: 644 2 11 the 
: 646 2 13 shots
- 648
: 656 1 13 I'
: 657 1 13 m 
: 658 2 13 like 
: 660 2 13 a 
: 662 4 13 fire 
: 666 2 11 cra
: 668 2 9 cker
- 670
: 672 2 13 I 
: 674 2 13 make 
: 676 2 11 it 
: 678 2 13 hot
- 680
: 683 1 13 When 
: 684 1 13 I 
: 685 1 16 put 
: 686 4 20 on 
: 690 2 16 a 
: 692 2 18 show
- 694
: 702 1 21 I
: 704 1 21 Feel 
: 706 1 21 the 
: 708 2 21 a
: 710 1 20 dre
: 712 1 20 na
: 714 1 20 line
- 715
: 716 1 20 mo
: 718 2 20 ving 
: 720 2 21 through 
: 722 1 20 my 
: 724 2 20 veins
: 726 3 18 -
- 729
: 734 3 21 Spot
: 738 3 21 light 
: 742 1 21 on 
: 744 1 21 me 
- 745
: 746 1 21 and
: 748 1 21 I'm 
: 750 2 20 rea
: 752 2 20 dy 
: 754 2 20 to 
: 756 2 20 bre
: 758 3 21 ak
- 761
: 766 1 21 I'm 
: 768 1 21 like 
: 770 1 21 a 
: 772 2 21 per
: 774 1 20 for
: 776 1 20 mer
- 777
: 778 1 20 The 
: 780 1 20 dan
: 782 2 20 cefloor 
: 784 2 21 is 
: 786 1 20 my 
: 788 2 20 sta
: 790 3 18 ge
- 793
: 800 2 21 Bet
: 802 1 21 ter 
: 804 1 21 be 
: 806 2 21 rea
: 808 1 21 dy
- 809
: 812 2 25 Hope 
: 814 2 23 that 
: 816 1 21 ya feel 
: 818 2 20 the 
: 820 2 21 same
: 822 1 18 -
- 823
: 824 1 18 All 
: 826 1 18 eyes 
: 828 1 18 on 
: 830 1 18 me
- 831
: 832 0 18 In 
: 833 1 18 the 
: 834 0 18 cen
: 835 1 18 ter 
: 836 1 18 of 
: 837 1 18 the 
: 838 1 18 ring
- 839
: 840 1 18 just 
: 842 1 18 like 
: 844 2 18 a 
: 846 2 14 cir
: 848 1 13 cus
: 850 2 13 -
- 852
: 856 1 18 When 
: 857 1 18 I 
: 858 1 18 crack 
: 860 1 18 that 
: 862 1 18 whip
- 863
: 864 0 18 E
: 865 1 18 very
: 866 0 18 bo
: 867 1 18 dy 
: 868 1 18 gon
: 869 1 18 na 
: 870 1 18 trip
- 871
: 872 1 18 just 
: 874 1 18 like 
: 876 2 18 a 
: 878 2 14 cir
: 880 1 13 cus
: 882 2 13 -
- 884
: 888 1 18 Don't 
: 890 1 18 stand 
: 892 2 18 there 
: 894 1 21 wat
: 896 1 18 ching 
: 898 2 18 me
- 900
: 900 1 21 Fol
: 902 1 18 low 
: 904 1 18 me, 
: 906 2 18 show 
: 908 1 18 me
: 910 1 21 what 
: 912 1 18 you 
: 914 1 16 can 
: 916 1 18 do
- 917
: 920 1 18 E
: 921 1 18 very
: 922 1 18 bo
: 923 1 18 dy 
: 924 1 18 let 
: 926 1 18 go
- 927
: 928 0 18 We 
: 929 1 18 can 
: 930 0 18 -
: 931 1 18 make 
: 932 1 18 a 
: 933 1 18 dan
: 934 1 18 cefloor
- 935
: 936 1 18 just 
: 938 1 18 like 
: 940 2 18 a 
: 942 2 14 cir
: 944 1 13 cus
: 946 2 13 -
- 948
: 976 1 6 Let's 
: 978 2 6 go
- 980
: 1020 1 9 Let 
: 1021 1 9 me 
: 1022 1 11 see 
: 1023 1 9 what 
: 1024 1 9 you 
: 1025 1 9 can 
: 1026 1 9 do
- 1027
: 1052 1 6 I'm 
: 1054 1 6 run
: 1055 1 6 ning 
: 1056 1 6 this
: 1061 1 18 like - 
: 1064 1 18 like - 
: 1066 1 18 like - 
: 1068 1 18 like 
- 1069
: 1069 1 18 a 
: 1070 4 14 cir
: 1074 2 13 cus, 
- 1076
: 1076 2 6 Yeah
- 1078
: 1088 1 9 Like 
: 1089 1 9 a 
: 1090 2 13 what? 
: 1093 1 18 like - 
: 1096 1 18 like - 
: 1098 1 18 like - 
: 1100 1 18 like 
- 1101
: 1101 1 18 a 
: 1102 4 14 cir
: 1106 2 13 cus
- 1108
: 1112 1 18 All 
: 1114 1 18 eyes 
: 1116 1 18 on 
: 1118 1 18 me
- 1119
: 1120 0 18 In 
: 1121 1 18 the 
: 1122 0 18 cen
: 1123 1 18 ter 
: 1124 1 18 of 
: 1125 1 18 the 
: 1126 1 18 ring
- 1127
: 1128 1 18 just 
: 1130 1 18 like 
: 1132 2 18 a 
: 1134 2 14 cir
: 1136 1 13 cus
: 1138 2 13 -
- 1140
: 1144 1 18 When 
: 1145 1 18 I 
: 1146 1 18 crack 
: 1148 1 18 that 
: 1150 1 18 whip
- 1151
: 1152 0 18 E
: 1153 1 18 very
: 1154 0 18 bo
: 1155 1 18 dy 
: 1156 1 18 gon
: 1157 1 18 na 
: 1158 1 18 trip
- 1159
: 1160 1 18 just 
: 1162 1 18 like 
: 1164 2 18 a 
: 1166 2 14 cir
: 1168 1 13 cus
: 1170 2 13 -
- 1172
: 1176 1 18 Don't 
: 1178 1 18 stand 
: 1180 2 18 there 
: 1182 1 21 wat
: 1184 1 18 ching 
: 1186 2 18 me
- 1188
: 1188 1 21 Fol
: 1190 1 18 low 
: 1192 1 18 me, 
: 1194 2 18 show 
: 1196 1 18 me
: 1198 1 21 what 
: 1200 1 18 you 
: 1202 1 16 can 
: 1204 1 18 do
- 1206
: 1208 1 18 E
: 1209 1 18 very
: 1210 1 18 bo
: 1211 1 18 dy 
: 1212 1 18 let 
: 1214 1 18 go
- 1215
: 1216 0 18 We 
: 1217 1 18 can 
: 1218 0 18 make 
: 1219 1 18 a 
: 1220 1 18 dan
: 1221 1 18 cef
: 1222 1 18 loor
- 1223
: 1224 1 18 just 
: 1226 1 18 like 
: 1228 2 18 a 
: 1230 2 14 cir
: 1232 1 13 cus
: 1234 2 13 -
- 1236
: 1240 1 18 All 
: 1242 1 18 eyes 
: 1244 1 18 on 
: 1246 1 18 me
- 1247
: 1248 0 18 In 
: 1249 1 18 the 
: 1250 0 18 cen
: 1251 1 18 ter 
: 1252 1 18 of 
: 1253 1 18 the 
: 1254 1 18 ring
- 1255
: 1256 1 18 just 
: 1258 1 18 like 
: 1260 2 18 a 
: 1262 2 14 cir
: 1264 1 13 cus
: 1266 2 13 -
- 1268
: 1272 1 18 When 
: 1273 1 18 I 
: 1274 1 18 crack 
: 1276 1 18 that 
: 1278 1 18 whip
- 1279
: 1280 0 18 E
: 1281 1 18 very
: 1282 0 18 bo
: 1283 1 18 dy 
: 1284 1 18 go
: 1285 1 18 nna 
: 1286 1 18 trip
- 1287
: 1288 1 18 just 
: 1290 1 18 like 
: 1292 2 18 a 
: 1294 2 14 cir
: 1296 1 13 cus
: 1298 2 13 -
- 1300
: 1304 1 18 Don't 
: 1306 1 18 stand 
: 1308 2 18 there
: 1310 1 21 wa
: 1312 1 18 tchin 
: 1314 2 18 me
- 1316
: 1316 1 21 Fol
: 1318 1 18 low 
: 1320 1 18 me,
: 1322 2 18 show 
: 1324 1 18 me 
: 1326 1 21 what 
: 1328 1 18 you 
: 1330 1 16 can 
: 1332 1 18 do
- 1333
: 1336 1 18 E
: 1337 1 18 very
: 1338 1 18 bo
: 1339 1 18 dy 
: 1340 1 18 let 
: 1342 1 18 go
- 1343
: 1344 0 18 We 
: 1345 1 18 can 
: 1346 0 18 -
: 1347 1 18 make 
: 1348 1 18 a 
: 1349 1 18 dance 
: 1350 1 18 floor
: 1352 1 18 just 
: 1354 1 18 like 
: 1356 2 18 a 
- 1358
: 1358 2 14 Cir
: 1360 1 13 cus
: 1362 2 13 -
E
