#TITLE:Zuviel
#ARTIST:Bцhse Onkelz
#LANGUAGE:German
#EDITION:UltraStar Bцhse Onkelz
#GENRE:Metal
#CREATOR:Eggman
#MP3:Bцhse Onkelz - Zuviel.mp3
#COVER:Bцhse Onkelz - Zuviel [CO].jpg
#BACKGROUND:Bцhse Onkelz - Zuviel [BG].jpg
#BPM:88
#GAP:26600
: 0 2 60 Wir 
: 2 2 60 flie
: 4 2 59 hen 
: 6 1 60 vor 
: 7 1 59 ein
: 8 2 60 an
: 10 8 59 der
- 20
: 22 2 60 Der 
: 24 2 60 Him
: 26 2 60 mel 
: 28 2 60 ist 
: 30 4 62 das 
: 34 8 59 Ziel
- 62
: 64 2 60 Das 
: 66 2 60 Le
: 68 2 59 ben 
: 70 1 60 will 
: 71 2 59 es 
: 73 1 60 an
: 74 8 59 ders
- 83
: 85 2 60 Zwei 
: 87 2 60 sind 
: 89 2 60 einer 
: 91 2 60 zu
: 93 3 62 vie
: 96 5 59 l
- 124
: 126 2 67 Es 
: 128 2 67 brennt 
: 130 2 66 nicht 
: 132 6 67 mehr 
- 146
: 148 2 67 Wir 
: 150 2 67 ver
: 152 2 67 schwen
: 154 2 67 den 
: 156 2 67 un
: 158 4 69 sere 
: 162 8 66 Zeit.
- 184
: 186 2 67 Ich 
: 188 2 67 habe 
: 190 2 67 Angst 
: 192 2 66 mich 
: 194 2 67 zu 
: 196 2 66 ver
: 198 2 67 lier
: 200 6 66 en,
- 209
: 211 2 67 Wir 
: 213 2 67 sind 
: 215 2 67 ein
: 217 2 67 sam 
: 219 4 69 zu
: 223 6 66 zweit 
- 251
: 253 2 60 Ei
: 255 2 60 ne 
: 257 2 60 letz
: 259 2 60 te 
: 261 1 60 Um
: 262 3 60 arm
: 265 4 59 ung -
- 271
: 273 2 59 be
: 275 1 59 vor 
: 276 1 57 ich 
: 277 5 59 geh
- 287
: 289 2 60 Ein 
: 291 1 60 letz
: 292 2 60 ter 
: 294 2 59 Fick -
- 295
: 297 2 59 be
: 299 2 59 vor 
: 301 2 57 wir 
: 303 2 59 uns 
: 305 2 59 nie 
: 307 2 59 wie
: 309 2 62 der 
: 311 6 59 sehn 
- 318
: 320 4 60 Ein 
: 324 2 60 letz
: 326 2 60 tes 
: 328 6 62 Wort -
- 332
: 334 2 62 nach 
: 336 2 62 so 
: 338 2 62 lan
: 340 2 62 ger 
: 342 8 64 Zeit 
- 350
: 352 2 64 ein 
: 354 2 64 letzter 
: 356 2 64 Bli
: 358 2 66 ck -
- 359
: 361 2 66 und 
: 363 4 66 wir 
: 367 3 67 sind 
: 373 2 67 wie
: 375 3 66 der 
: 378 5 64 allein
- 382
: 384 2 64 Zu
: 386 2 64 vie
: 388 2 64 le 
: 390 2 62 Wort
: 392 4 64 e 
- 396
: 398 2 67 Al
: 400 2 67 les  
: 402 1 67 tot
: 403 1 67 ge
: 404 2 67 re
: 406 8 57 det 
- 413
: 415 2 64 Zu
: 417 2 64 vie
: 419 2 64 le 
: 421 2 62 Trдu
: 423 1 64 me 
- 423
: 425 2 64 Die 
: 427 2 67 nie  
: 429 2 67 in 
: 431 1 67 Er
: 432 1 67 fьl
: 433 2 67 lung 
: 435 8 57 gehen
- 445
: 447 2 64 Zu 
: 449 2 64 viel
: 450 2 64 e 
: 452 2 62 Trд
: 454 5 64 nen
- 459
: 461 2 67 Wir lie
: 463 0 67 -
: 463 1 67 ben 
: 464 1 67 uns  
: 465 1 67 zu 
: 466 2 67 to
: 468 8 57 de 
- 476
: 478 2 64 Zu
: 480 2 64 viele 
: 482 2 64 Ge
: 484 2 62 dank
: 486 2 64 en 
- 487
: 489 2 64 Die 
: 491 2 64 sich 
: 501 2 60 um  
: 503 2 66 dich  
: 505 16 64 drehn 
- 540
: 542 2 60 Wir 
: 544 2 60 hat
: 546 2 59 ten 
: 548 2 60 al
: 550 6 59 les
- 557
: 559 2 60 Zeit 
: 561 2 60 fьr 
: 563 0 60 neu
: 563 1 60 e 
: 564 2 60 E
: 566 2 62 pi
: 568 4 62 so
: 572 8 59 den
- 597
: 599 2 60 Wenn 
: 601 2 60 man 
: 603 2 60 los
: 605 2 59 lдяt 
- 606
: 606 2 60 Stirbt 
: 608 6 59 man 
: 626 2 60 im
: 628 2 60 mer 
: 630 2 60 klei
: 631 2 62 ne 
: 633 4 62 To
: 637 8 59 de 
- 666
: 668 2 67 Zu 
: 670 2 67 vie
: 672 2 66 le 
: 674 2 67 Fra
: 676 8 66 gen
- 687
: 689 2 67 Wie
: 691 2 67 so 
: 693 2 67 und 
: 695 4 69 wa
: 699 8 66 rum 
- 730
: 732 2 67 Zu
: 734 2 67 vie
: 736 2 66 le 
: 738 2 67 Na
: 740 8 66 men
- 747
: 749 2 67 Un
: 751 2 67 sere 
: 753 2 67 Zeit 
: 755 2 67 ist 
: 757 2 67 ein
: 759 4 69 fach 
: 763 8 66 um 
- 789
: 791 2 60 Ei
: 793 2 60 ne 
: 795 2 60 letz
: 797 2 60 te 
: 799 1 60 Um
: 800 3 60 arm
: 803 4 59 ung -
- 809
: 811 2 59 bev
: 813 1 59 or 
: 814 1 57 ich 
: 815 8 59 geh
- 825
: 827 2 60 Ein 
: 829 2 60 letz
: 831 2 60 ter 
: 833 2 59 Fick -
- 833
: 835 2 59 bev
: 837 2 59 or 
: 839 2 57 wir 
: 841 2 59 uns 
: 843 2 59 nie 
: 845 2 59 wie
: 847 2 62 der 
: 849 8 59 sehn
- 857
: 859 3 60 Ein 
: 862 2 60 letz
: 864 2 60 tes 
: 866 8 62 Wort -
- 870
: 872 2 62 nach 
: 874 2 62 so 
: 876 2 62 lang
: 878 2 62 er 
: 880 8 64 Zeit 
- 888
: 890 2 64 Ein 
: 892 2 64 letz
: 894 2 64 ter 
: 896 4 66 Blick -
- 897
: 899 2 66 und 
: 901 2 66 wir 
: 903 3 67 sind 
- 911
: 913 2 67 wie
: 915 3 66 der 
: 918 3 64 allein 
- 920
: 922 2 64 Zu
: 924 2 64 vie
: 926 2 64 le 
: 928 2 62 Wor
: 930 4 64 te 
- 934
: 936 2 60 Al
: 938 2 67 les 
: 940 1 67 tot
: 941 1 67 ge
: 942 3 67 re
: 945 7 57 det 
- 951
: 953 2 64 Zu 
: 955 2 64 vie
: 957 2 64 le 
: 959 2 62 Trдu
: 961 1 64 me 
- 962
: 964 2 64 Die 
: 966 2 67 nie 
: 968 2 67 in 
: 970 1 67 Er
: 971 1 67 fьl
: 972 2 67 lung 
: 974 8 57 gehen 
- 983
: 985 2 64 Zu 
: 987 2 64 vie
: 989 2 64 le 
: 991 2 62 Trд
: 993 6 64 nen 
- 997
: 999 2 67 Wir lie
: 1001 1 67 ben 
: 1002 1 67 uns 
: 1003 1 67 zu 
: 1004 3 67 to
: 1007 3 67 de 
- 1014
: 1016 2 64 Zu
: 1018 2 64 viele 
: 1020 2 64 Ge
: 1022 2 62 dank
: 1024 2 64 en 
: 1026 2 64 die 
: 1028 2 64 sich 
- 1034
: 1036 2 60 um 
: 1038 2 66 dich 
: 1040 16 64 drehen
- 1141
: 1143 2 67 Laя 
: 1145 2 67 uns 
: 1147 2 67 nicht 
: 1149 3 67 gehen
- 1153
: 1155 2 67 mit 
: 1157 2 66 Hass 
: 1159 2 66 in 
: 1161 2 66 un
: 1163 2 67 seren 
: 1165 2 66 blick
: 1167 6 64 en
- 1174
: 1176 2 67 Sag 
: 1178 2 67 "Auf 
: 1180 2 67 wie
: 1182 2 67 der
: 1184 5 67 sehn"
- 1190
: 1192 2 67 Mit 
: 1194 2 67 einem 
: 1196 2 67 Se
: 1198 2 72 gen 
: 1200 2 72 auf 
: 1202 2 72 den 
: 1204 2 72 Lip
: 1206 2 71 pen
- 1330
: 1332 2 71 Z
: 1334 1 64 u 
: 1335 3 64 vie
: 1338 2 64 le 
: 1340 4 62 Wor
: 1344 4 64 te
- 1345
: 1347 2 60 Al
: 1349 2 67 les  
: 1351 1 67 tot 
: 1352 1 67 ge
: 1353 2 67 re
: 1355 8 57 det 
- 1361
: 1363 2 64 Zu
: 1365 2 64 vie
: 1367 2 64 le 
: 1369 3 62 Trдu
: 1372 2 64 me 
- 1374
: 1376 2 64 Die 
: 1378 2 67 nie  
: 1380 2 67 in 
: 1382 1 67 er
: 1383 1 67 fьl
: 1384 2 67 lung 
: 1386 8 57 gehen 
- 1393
: 1395 2 64 Zu 
: 1397 2 64 viel
: 1399 2 64 e 
: 1401 2 62 Trд
: 1403 6 64 nen 
- 1407
: 1409 3 67 Wir lie
: 1412 2 67 -
: 1413 1 67 ben 
: 1416 1 67 uns 
: 1417 1 67 zu 
: 1418 2 67 to
: 1420 4 57 de
- 1426
: 1428 2 64 Zu
: 1430 2 64 viele 
: 1432 2 64 Ge
: 1434 2 62 dank
: 1436 2 64 en 
- 1436
: 1438 3 64 Die 
: 1441 4 64 sich
- 1456
: 1458 2 64 Zu
: 1460 2 64 vie
: 1462 2 64 le 
: 1464 2 62 Wort
: 1466 4 64 e 
- 1472
: 1474 2 60 Al
: 1476 2 67 les 
: 1478 1 67 tot 
: 1479 1 67 ge
: 1480 2 67 re
: 1482 8 57 det 
- 1490
: 1492 2 64 Zu
: 1494 2 64 vie
: 1496 2 64 le 
: 1498 2 62 Trдu
: 1500 1 64 me 
- 1500
: 1502 2 64 Die 
: 1504 2 67 nie 
: 1506 2 67 in 
: 1508 1 67 er
: 1509 1 67 fьl
: 1510 2 67 lung 
: 1512 8 57 gehen 
- 1520
: 1522 2 64 Zu 
: 1524 2 64 viel
: 1526 2 64 e 
: 1528 2 62 Trд
: 1530 6 64 nen
- 1534
: 1536 2 67 Wir lie
: 1538 1 67 -
: 1539 1 67 ben 
: 1540 1 67 uns 
: 1541 1 67 zu 
: 1542 4 67 to
: 1546 10 57 de 
- 1552
: 1554 2 64 Zu
: 1556 2 64 viele 
: 1558 2 64 Ge
: 1560 2 62 dank
: 1562 2 64 en 
- 1562
: 1564 2 64 Die 
: 1566 2 64 sich 
: 1577 2 60 um 
: 1578 2 66 mich 
: 1581 16 64 drehn
E
