#TITLE:Wir sind immer für euch da
#ARTIST:Böhse Onkelz
#LANGUAGE:German
#EDITION:UltraStar Böhse Onkelz
#GENRE:Metal
#CREATOR:Eggman
#MP3:Böhse Onkelz - Wir sind immer für euch da.mp3
#COVER:Böhse Onkelz - Wir sind immer für euch da [CO].jpg
#BACKGROUND:Böhse Onkelz - Wir sind immer für euch da [BG].jpg
#BPM:150
#GAP:38900
: 0 2 66 Hier 
: 2 2 66 kom
: 4 2 66 mt 
: 6 2 66 die 
: 8 2 66 Kirche 
: 10 2 66 des 
: 12 2 66 Wahn
: 16 6 66 sinns,
- 26
: 26 2 66 eu
: 28 2 66 re 
: 30 2 66 neu
: 32 2 66 e 
: 34 2 66 Rel
: 36 2 69 ig
: 38 4 62 ion.
- 68
: 68 2 64 Ver
: 70 2 66 gesst 
: 72 2 66 was 
: 74 2 66 ein
: 76 2 66 mal 
: 78 4 66 war 
- 90
: 90 2 66 Ich 
: 92 2 66 bin 
: 94 2 66 Got
: 96 2 66 tes 
: 98 2 66 neu
: 100 2 66 er 
: 102 4 62 Sohn 
- 128
: 128 2 64 Ich 
: 130 2 64 bin 
: 132 2 62 die 
: 134 2 64 Lü
: 136 2 64 ge 
: 138 2 64 und 
: 140 2 62 die 
: 142 2 64 Wahr
: 144 2 64 heit, 
- 146
: 146 2 64 für 
: 148 2 66 re
: 150 2 67 al 
: 152 2 67 und 
: 154 2 67 Il
: 156 2 66 lu
: 158 4 64 sion, 
- 164
: 164 2 62 die 
: 166 2 64 Hu
: 168 2 64 re 
: 170 2 64 in 
: 172 2 64 der 
: 174 4 64 Kir
: 178 4 64 che, 
- 186
: 186 2 64 ei
: 188 2 64 ne 
: 190 2 64 neu
: 192 2 64 e 
: 194 2 64 Sen
: 196 2 62 sa
: 198 12 66 tion 
- 210
: 210 2 64 Wir 
: 212 2 62 sind 
: 214 2 64 im
: 216 6 64 mer 
: 222 2 66 für 
: 224 4 64 euch 
: 228 6 62 da! 
- 244
: 244 2 59 Ver
: 246 4 62 gesst 
: 250 4 62 was 
: 254 4 67 ein
: 258 4 67 mal 
: 262 12 66 war!
- 274
: 274 2 64 Wir 
: 276 2 62 sind 
: 278 2 64 im
: 280 6 64 mer 
: 286 2 66 für 
: 288 4 64 euch 
: 292 6 62 da! 
- 306
: 306 2 62 Bringt 
: 308 2 62 mir 
: 310 4 62 eu
: 314 4 62 re 
: 318 4 67 Op
: 322 4 67 fer 
: 326 12 66 dar!
- 338
: 338 2 64 Wir 
: 340 2 62 sind 
: 342 2 64 im
: 344 6 64 mer 
: 350 2 66 für 
: 352 4 64 euch 
: 356 6 62 da! 
- 370
: 370 2 62 Ich 
: 372 2 62 bin 
: 374 2 67 im
: 376 6 67 mer 
: 382 2 67 für 
: 384 6 67 euch 
: 390 12 66 da! 
- 402
: 402 2 64 Wir 
: 404 2 62 sind 
: 406 2 64 im
: 408 6 64 mer 
: 414 2 66 für 
: 416 4 64 euch 
: 420 6 62 da! 
- 434
: 434 2 62 Ganz 
: 436 2 59 e
: 438 4 62 gal 
: 442 4 62 was 
: 446 4 62 ein
: 450 4 62 mal 
: 454 4 64 war! 
- 494
: 494 4 57 Wir 
: 498 4 57 sind 
: 502 2 66 im
: 504 6 66 mer 
: 510 2 66 für 
: 512 4 64 euch 
: 516 10 62 da! 
- 639
: 639 2 62 Ich 
: 641 2 62 be
: 643 4 66 grü
: 647 2 66 ße 
: 649 6 66 euch, 
- 656
: 656 2 64 in 
: 658 4 66 mei
: 662 2 66 ner 
: 664 6 66 Welt 
- 679
: 679 4 62 "Herz
: 683 4 62 lich 
: 687 4 59 Wil
: 691 6 62 lkom
: 697 2 64 men" 
- 705
: 705 2 64 Sie 
: 707 4 66 ist 
: 711 4 66 ver
: 715 4 66 lo
: 719 4 62 gen 
: 723 4 62 und 
: 727 2 62 vul
: 729 2 62 gär, 
- 739
: 739 4 62 böh
: 743 4 62 se 
: 747 4 62 und 
: 751 4 59 ver
: 755 6 62 kom
: 761 6 64 men 
- 771
: 771 2 64 du 
: 773 2 64 bist 
: 775 2 64 auch 
: 777 2 62 ein 
: 779 2 64 Teil 
: 781 2 64 von 
: 783 2 64 ihr,
- 785
: 785 2 66 ge
: 787 2 67 nau 
: 789 2 67 wie 
: 791 2 67 ich 
: 793 2 66 es 
: 795 4 64 bin.
- 801
: 801 2 62 Die 
: 803 2 64 Welt 
: 805 2 64 ver
: 807 2 64 welkt 
: 809 2 62 und 
: 811 2 64 du 
: 813 2 64 siehst 
: 815 2 64 zu, 
- 817
: 817 2 66 dein 
: 819 4 64 Glau
: 823 4 64 be 
: 827 4 64 macht 
: 831 2 64 dich 
: 833 2 66 blind 
- 846
: 846 2 64 Wir 
: 848 2 62 sind 
: 850 2 64 im
: 852 6 64 mer 
: 858 2 66 für 
: 860 4 64 euch 
: 864 6 62 da! 
- 881
: 881 2 59 Ver
: 883 4 62 gesst 
: 887 4 62 was 
: 891 4 67 ein
: 895 4 67 mal 
: 899 12 66 war! 
- 910
: 910 2 64 Wir 
: 912 2 62 sind 
: 914 2 64 im
: 916 6 64 mer 
: 922 2 66 für 
: 924 4 64 euch 
: 928 6 62 da! 
- 942
: 942 2 62 Bringt 
: 944 2 62 mir 
: 946 4 62 eu
: 950 4 62 re 
: 954 4 67 Op
: 958 4 67 fer 
: 962 8 66 dar! 
- 973
: 973 2 64 Wir 
: 975 2 62 sind 
: 977 2 64 im
: 979 6 64 mer 
: 985 2 66 für 
: 987 4 64 euch 
: 991 6 62 da! 
- 1005
: 1005 2 62 Ich 
: 1007 2 62 bin 
: 1009 2 67 im
: 1011 6 67 mer 
: 1017 2 67 für 
: 1019 6 67 euch 
: 1025 12 66 da! 
- 1035
: 1035 2 64 Wir 
: 1037 2 62 sind 
: 1039 2 64 im
: 1041 6 64 mer 
: 1047 2 66 für 
: 1049 4 64 euch 
: 1053 6 62 da! 
- 1067
: 1067 2 62 Ganz 
: 1069 2 59 e
: 1071 4 62 gal 
: 1075 4 62 was 
: 1079 4 62 ein
: 1083 2 62 mal 
: 1085 4 64 war! 
- 1124
: 1124 4 57 Wir 
: 1128 4 57 sind 
: 1132 2 66 im
: 1134 6 66 mer 
: 1140 2 66 für 
: 1142 4 64 euch 
: 1146 10 62 da! 
- 1383
: 1383 2 66 Hier 
: 1385 2 66 kom
: 1387 2 66 mt 
: 1389 2 66 die 
: 1391 3 66 Kirche 
: 1394 2 66 des 
: 1396 3 66 Wahn
: 1399 7 66 sinns, 
- 1410
: 1410 2 66 eu
: 1412 2 66 re 
: 1414 2 66 neu
: 1416 2 66 e 
: 1418 2 66 Rel
: 1420 2 69 ig
: 1422 4 62 ion. 
- 1451
: 1451 2 64 Ver
: 1453 3 66 gesst 
: 1456 2 66 was 
: 1458 2 66 ein
: 1460 2 66 mal 
: 1462 4 66 war
- 1473
: 1473 2 66 Ich 
: 1475 2 66 bin 
: 1477 2 66 Got
: 1479 2 66 tes 
: 1481 2 66 neu
: 1483 2 66 er 
: 1485 6 62 Sohn 
- 1511
: 1511 2 64 Ich 
: 1513 2 64 bin 
: 1515 2 62 die 
: 1517 2 64 Lü
: 1519 2 64 ge 
: 1521 2 64 und 
: 1523 2 62 die 
: 1525 2 64 Wahr
: 1527 2 64 heit, 
- 1529
: 1529 3 64 für 
: 1532 2 66 re
: 1534 2 67 al 
: 1536 2 67 und 
: 1538 1 67 Il
: 1539 2 66 lu
: 1541 6 64 sion, 
- 1547
: 1547 2 62 die 
: 1549 2 64 Hu
: 1551 2 64 re 
: 1553 2 64 in 
: 1555 2 64 der 
: 1557 4 64 Kir
: 1561 6 64 che, 
- 1569
: 1569 2 64 ei
: 1571 2 64 ne 
: 1573 2 64 neu
: 1575 1 64 e 
: 1576 2 64 Sen
: 1578 3 62 sa
: 1581 12 66 tion 
- 1591
: 1591 2 64 Wir 
: 1593 3 62 sind 
: 1596 2 64 im
: 1598 5 64 mer 
: 1603 2 66 für 
: 1605 4 64 euch 
: 1609 6 62 da! 
- 1625
: 1625 2 59 Ver
: 1627 4 62 gesst 
: 1631 4 62 was 
: 1635 4 67 ein
: 1639 2 67 mal 
: 1641 10 66 war! 
- 1654
: 1654 2 64 Wir 
: 1656 2 62 sind 
: 1658 2 64 im
: 1660 6 64 mer 
: 1666 2 66 für 
: 1668 4 64 euch 
: 1672 6 62 da! 
- 1686
: 1686 2 62 Bringt 
: 1688 2 62 mir 
: 1690 4 62 eu
: 1694 3 62 re 
: 1697 4 67 Op
: 1701 3 67 fer 
: 1704 9 66 dar! 
- 1716
: 1716 2 64 Wir 
: 1718 2 62 sind 
: 1720 2 64 im
: 1722 6 64 mer 
: 1728 2 66 für 
: 1730 4 64 euch 
: 1734 6 62 da! 
- 1748
: 1748 2 62 Ich 
: 1750 2 62 bin 
: 1752 2 67 im
: 1754 4 67 mer 
: 1758 3 67 für 
: 1761 4 67 euch 
: 1765 12 66 da! 
- 1775
: 1775 4 64 Wir 
: 1779 3 62 sind 
: 1782 2 64 im
: 1784 6 64 mer 
: 1790 2 66 für 
: 1792 3 64 euch 
: 1795 6 62 da! 
- 1809
: 1809 3 62 Ganz 
: 1812 2 59 e
: 1814 4 62 gal 
: 1818 3 62 was 
: 1821 4 62 ein
: 1825 2 62 mal 
: 1827 4 64 war! 
- 1867
: 1867 4 57 Wir 
: 1871 4 57 sind 
: 1875 2 66 im
: 1877 6 66 mer 
: 1883 2 66 für 
: 1885 4 64 euch 
: 1889 10 62 da! 
E
written by STUKA8
