#TITLE:C'est Dit
#ARTIST:Calogero
#MP3:Calogero - C'est Dit.mp3
#VIDEO:Calogero - C'est Dit.avi
#COVER:Calogero - C'est Dit.jpg
#BPM:336
#GAP:34229
#ENCODING:UTF8
#LANGUAGE:French
#GENRE:Pop
#YEAR:2009
#CREATOR:alban et mustangfred
: 0 3 6 Des
: 8 2 6  chan
: 15 4 11 sons,
: 22 3 13  des
* 33 6 16  fil
: 41 1 14 les
: 46 4 13  beau
: 54 8 11 coup
- 63
: 65 2 9 De
: 70 8 11  verres
: 85 2 9  et
: 88 2 7  de
: 92 10 6  nuits
- 112
: 129 3 14 Telles
: 134 3 14  é
: 141 6 16 taient
: 150 3 18  nos
: 158 13 7  heures
: 173 9 6 ~
- 191
: 194 2 13 Telles
: 198 2 13  é
: 205 9 14 taient
: 217 2 16  nos
: 223 11 6  vies
- 244
: 266 1 6 Fu
: 270 6 11 tils
: 278 4 14  a
: 289 4 18 do
: 294 2 16 les
: 301 6 16 cents,
- 312
: 314 2 14 Tout
: 320 3 18  nous
: 326 2 16  é
: 333 4 16 tait
: 342 4 9  per
: 351 20 18 mis
- 381
: 385 3 18 Rois
: 390 1 18  de
* 398 4 21  pa
: 406 3 19 co
: 414 22 18 tille,
- 440
: 442 4 11 Prin
: 452 9 11 ces
: 466 4 14  dé
: 473 2 16 mu
: 478 22 16 nis
- 509
: 513 3 16 On
: 518 4 16  n'est
: 526 6 16  ri
: 538 2 14 che
: 546 3 14  que
: 551 1 13  de
: 559 4 13  ses
: 566 3 11 a
: 573 7 10  mis
- 590
: 600 2 11 C'est
: 605 10 11  dit
- 659
: 740 1 6 Le
: 745 2 6  temps
: 749 4 11  des
: 758 5 13  tem
* 768 5 16 pętes
: 776 4 14  ar
: 782 4 13 rive
- 788
: 790 3 11 A
: 797 7 9 vant
: 809 2 11  qu'on
: 814 3 9  l'ait
: 822 4 7  pré
: 830 8 6 dit
- 848
: 864 2 14 A
: 870 9 14 mours
: 881 2 16  im
* 886 2 18 pos
: 894 12 7 si
: 909 5 6 ~
: 916 2 6 bles
- 926
: 929 1 13 Dé
: 936 5 13 faites,
: 950 2 14  i
: 955 3 16 ro
: 962 5 6 nies
- 977
: 1000 1 6 Quand
: 1006 3 11  tout
: 1013 6 14  s'a
* 1024 6 18 bî
* 1032 1 16 me,
- 1035
: 1037 5 16 Quand
: 1045 6 14  mę
* 1056 3 18 me
: 1061 5 16  nos
: 1070 5 16  rę
: 1077 2 9 ves
: 1086 20 18  fuient
- 1115
: 1119 1 18 Il
: 1121 2 18  ne
* 1126 4 18  res
* 1135 3 21 te
: 1143 5 19  qu'une
: 1150 18 18  île,
- 1174
: 1176 4 11 Un
: 1185 11 11  port,
* 1202 4 14  un
: 1209 2 16  par
: 1216 14 16 ti
- 1240
: 1250 2 16 On
: 1254 3 16  n'est
: 1262 6 16  ri
: 1273 3 14 che
: 1281 3 14  que
: 1287 2 13  de
: 1294 5 13  ses
: 1302 3 11  a
: 1309 9 10 mis
- 1328
: 1338 2 11 C'est
: 1343 14 11  dit
- 1401
: 1464 2 11 C'est
: 1469 18 11  dit
- 1531
: 2146 2 7 Mais
: 2151 2 7  quand
: 2157 2 12  tout
: 2165 8 14  s'al
* 2177 5 17 lu
* 2185 1 15 me
- 2188
: 2190 4 14 Quand
: 2198 2 12  tout
: 2206 3 10  en
: 2214 8 12 fin
: 2226 2 10  nous
: 2234 3 8  sou
: 2240 7 7 rit
- 2257
* 2273 6 19 Gloi
* 2281 1 19 re,
* 2288 4 19  fę
* 2293 1 15 tes,
* 2304 3 19  sym
* 2311 3 17 pho
* 2316 6 17 nies
- 2332
: 2336 4 17 Bra
: 2343 4 17 vo,
: 2353 3 17  bi
: 2360 6 14 joux,
* 2374 4 17  fré
* 2381 2 15 né
: 2387 11 15 sies
- 2406
: 2409 1 7 Quand
: 2414 4 12  on
: 2421 3 15  me
* 2432 6 19  saou
: 2440 1 17 le
- 2443
: 2445 4 17 D'im
: 2452 5 15 pos
: 2464 6 19 ture
: 2472 2 17  ou
: 2476 5 17  d'am
: 2485 3 10 né
: 2493 21 19 sie
- 2525
: 2529 3 19 Hon
: 2534 3 19 neur
: 2541 3 22  et
: 2550 5 20  for
: 2562 12 19 tu
: 2576 1 19 ne
- 2583
: 2586 2 12 Qu'en
: 2593 10 12  sais-
: 2605 1 12  je
: 2610 3 15  au
: 2616 2 17 jour
: 2621 24 17 d'hui?
- 2655
: 2685 1 12 Je
: 2689 1 17  ne
: 2694 4 17  suis
: 2702 7 17  ri
: 2714 3 15 che
: 2722 3 15  que
: 2726 3 14  de
: 2734 5 14  mes
: 2742 3 12  a
: 2749 9 11 mis
- 2780
: 2842 2 12 C'est
: 2847 19 12  dit
- 2910
: 2977 6 15 La
: 2990 4 17  la
: 2997 5 19  la
: 3008 10 8  la
: 3021 9 7  la
- 3038
: 3041 6 14 La
: 3053 6 15  la
: 3061 4 17  la
: 3072 7 12  la
- 3089
: 3112 1 7 La
: 3117 5 12  la
: 3124 3 15  la
: 3135 7 19  la
: 3143 2 17  la
: 3149 4 17  la
: 3157 2 15  la
- 3165
: 3168 5 19 La
: 3175 2 17  la
: 3180 4 17  la
: 3189 2 15  la
: 3195 17 14  la
- 3222
: 3233 2 19 Hon
: 3237 3 19 neur
* 3246 2 22  et
: 3254 5 20  for
: 3265 16 19 tu
: 3283 1 19 ne
- 3288
: 3290 2 12 Qu'en
: 3298 10 12  sais-
: 3311 1 12 je
: 3313 3 15  au
: 3319 3 17 jour
: 3324 22 17 d'hui?
- 3355
* 3358 1 12 Je
: 3360 2 17  ne
: 3366 4 17  suis
: 3373 6 17  ri
: 3386 2 15 che
: 3393 3 15  que
: 3398 2 14  de
: 3406 4 14  mes
: 3414 2 12  a
: 3422 14 11 mis
- 3446
: 3458 12 15 Mes
: 3473 10 14  a
: 3489 6 12 mis
- 3505
: 3513 2 12 C'est
: 3518 15 12  dit
E