#TITLE:Im Not Alone
#ARTIST:Calvin Harris
#MP3:Calvin Harris - IŽm Not Alone.mp3
#VIDEO:Calvin Harris - IŽm Not Alone.mp4
#COVER:calvin-harris-im-not-alone.jpg
#BPM:262
#GAP:100
#ENCODING:UTF8
: 0 2 -4 Can
: 4 2 -2  you
: 8 2 -2  stay
: 16 2 -7  up
: 24 2 -7  for
: 32 2 -4  the
: 36 2 -9  week
: 44 6 -11 end
- 52
: 60 2 -11 And
: 64 2 -9  blame
: 72 6 -6  god
- 80
* 84 2 -9 For
: 88 2 -6  look
: 92 2 -4 ing
: 96 2 -2  too
: 100 10 -2  old
- 112
: 128 2 -4 Can
: 132 2 -2  you
: 136 2 -2  find
: 144 2 -7  all
: 152 2 -7  that
: 160 2 -4  you
: 164 2 -9  stand
: 172 4 -11  for
- 178
: 188 2 -11 Has
: 192 2 -9  been
: 196 2 -11  re
: 200 3 -6 placed
- 205
: 212 2 -9 With
: 216 2 -6  moun
: 220 2 -4 tains
: 224 2 -2  of
: 228 10 -2  gold
- 240
: 252 2 1 You
: 256 2 1  can
: 260 2 1 not
* 264 2 6  dream
: 272 2 5  your
: 280 2 3 self
- 284
: 288 2 1 To
: 292 4 3  not
: 300 8 1 ice
- 310
: 316 2 1 To
: 320 2 1  feel
: 328 4 3  pain
: 340 2 -6  and
: 344 2 -6  swal
: 348 2 -6 low
: 356 10 -4  fear
- 368
: 379 2 -2 But
: 383 2 -2  can
: 387 2 -2  you
: 391 2 -2  stay
: 399 2 -7  up
: 407 2 -7  for
: 415 2 -4  the
: 419 2 -9  week
: 427 6 -11 end
- 434
: 435 2 -11 Till
: 439 3 -2  next
* 448 16 -6  year
- 466
: 507 2 -5 God,
: 511 2 -5  I
: 515 2 -5  can't
: 520 2 -3  do
: 525 2 -5  this
: 531 2 -6  a
: 536 2 -5 ny
* 540 18 -5 more
- 560
: 571 2 -5 Though
: 575 2 -5  I'll
: 579 2 -5  be
: 584 2 -3  laid
: 590 2 -5  down
: 596 2 -6  on
: 602 2 -8  the
: 607 18 -10  floor
- 627
: 635 2 -5 As
: 639 2 -5  ma
: 643 2 -5 ny
* 648 2 -3  feet
: 653 2 -5  walk
: 659 2 -6  through
: 664 2 -5  the
: 672 14 -5  door
- 688
: 691 2 -10 I'm
* 695 2 -3  not
: 699 2 -10  a
* 705 18 -5 lone
- 725
: 1544 2 -2 If
: 1548 2 1  I
: 1552 2 -2  see
: 1556 2 -2  a
: 1560 2 -6  light
: 1568 2 -6  flash
: 1573 6 -4 ing
- 1581
: 1588 2 -9 Could
: 1592 2 -6  this
: 1596 2 -9  mean
: 1600 2 -6  that
: 1604 2 -4  I'm
* 1609 2 -2  com
: 1613 2 -9 ing
: 1617 3 -9  home 
: 1623 8 -11 ~
- 1633
: 1671 2 -2 If
: 1675 2 1  I
: 1679 2 -2  see
: 1683 2 -2  a
: 1687 2 -6  man
: 1695 2 -6  wa
: 1700 6 -4 ving
- 1708
: 1715 2 -9 Does
: 1719 2 -6  this
: 1723 2 -9  mean
: 1727 2 -6  that
: 1731 2 -4  I'm
: 1736 2 -2  not
: 1741 2 -9  a
: 1745 2 -9 lone 
: 1750 8 -11 ~
- 1760
: 1800 2 -2 If
: 1804 2 1  I
: 1808 2 -2  see
: 1812 2 -2  a
: 1816 2 -6  light
: 1824 2 -6  flash
: 1829 6 -4 ing
- 1837
: 1844 2 -9 Could
: 1848 2 -6  this
: 1852 2 -9  mean
: 1856 2 -6  that
: 1860 2 -4  I'm
* 1865 2 -2  com
: 1869 2 -9 ing
: 1873 3 -9  home 
: 1879 8 -11 ~
- 1889
: 1927 2 -2 If
: 1931 2 1  I
: 1935 2 -2  see
: 1939 2 -2  a
: 1943 2 -6  man
: 1951 2 -6  wa
: 1956 6 -4 ving
- 1964
: 1971 2 -9 Does
: 1975 2 -6  this
: 1979 2 -9  mean
: 1983 2 -6  that
: 1987 2 -4  I'm
: 1992 2 -2  not
: 1997 2 -9  a
: 2001 2 -9 lone 
: 2006 8 -11 ~
- 2016
* 2020 1 -9 No 
* 2022 16 -6 ~
- 2040
: 2568 2 -2 If
: 2572 2 1  I
: 2576 2 -2  see
: 2580 2 -2  a
: 2584 2 -6  light
: 2592 2 -6  flash
: 2597 6 -4 ing
- 2605
: 2612 2 -9 Could
: 2616 2 -6  this
: 2620 2 -9  mean
: 2624 2 -6  that
: 2628 2 -4  I'm
* 2633 2 -2  com
: 2637 2 -9 ing
: 2641 3 -9  home 
: 2647 8 -11 ~
- 2657
: 2695 2 -2 If
: 2699 2 1  I
: 2703 2 -2  see
: 2707 2 -2  a
: 2711 2 -6  man
: 2719 2 -6  wa
: 2724 6 -4 ving
- 2732
: 2739 2 -9 Does
: 2743 2 -6  this
: 2747 2 -9  mean
: 2751 2 -6  that
: 2755 2 -4  I'm
: 2760 2 -2  not
: 2765 2 -9  a
: 2769 2 -9 lone 
: 2774 8 -11 ~
- 2784
: 2824 2 -2 If
: 2828 2 1  I
: 2832 2 -2  see
: 2836 2 -2  a
: 2840 2 -6  light
: 2848 2 -6  flash
: 2853 6 -4 ing
- 2861
: 2867 2 -9 Could
: 2871 2 -6  this
: 2875 2 -9  mean
: 2879 2 -6  that
: 2883 2 -4  I'm
* 2888 2 -2  com
: 2893 2 -9 ing
: 2897 2 -9  home 
: 2901 8 -11 ~
- 2911
: 2951 2 -2 If
: 2955 2 1  I
: 2959 2 -2  see
: 2963 2 -2  a
: 2967 2 -6  man
: 2975 2 -6  wa
: 2980 6 -4 ving
- 2988
: 2995 2 -9 Does
: 2999 2 -6  this
: 3003 2 -9  mean
: 3007 2 -6  that
: 3011 2 -4  I'm
: 3016 2 -2  not
: 3021 2 -9  a
: 3025 2 -9 lone 
: 3030 8 -11 ~
- 3040
* 3044 1 -9 No 
* 3046 16 -6 ~
E