#TITLE:We Don't Talk Anymore
#ARTIST:Charlie Puth feat. Selena Gomez
#MP3:Charlie Puth feat Selena Gomez - We Dont Talk Anymore.mp3
#VIDEO:Charlie Puth feat Selena Gomez - We Dont Talk Anymore.mkv
#COVER:Charlie Puth feat Selena Gomez - We Dont Talk Anymore.jpg
#BPM:200.02
#GAP:821
#ENCODING:UTF8
#LANGUAGE:English
#GENRE:Pop
#YEAR:2016
#AUTHOR:amro98
: 0 1 6 We
: 2 2 8  don't
: 6 2 8  talk
: 10 1 6  a
: 12 1 4 ny
: 14 2 1 more
- 28
: 32 1 6 We
: 34 2 8  don't
: 38 2 8  talk
: 42 1 6  a
: 44 1 4 ny
: 46 2 3 more
- 60
: 64 1 6 We
: 66 2 8  don't
: 70 2 8  talk
: 74 1 6  a
: 76 1 4 ny
: 78 2 1 more
- 82
: 84 4 1 Like
: 90 4 3  we
: 96 5 4  used
* 104 1 9  to
* 106 1 11 ~
* 108 1 9 ~
* 110 1 8 ~
* 112 4 8  do
* 117 1 6 ~
- 125
: 128 1 6 We
: 130 2 8  don't
: 134 2 8  love
: 138 1 6  a
: 140 1 4 ny
: 142 2 1 more
- 156
: 160 1 6 What
: 162 2 8  was
: 166 1 6  all
: 168 1 8 ~
: 170 1 6  of
: 172 1 4  it
: 174 2 3  for?
- 178
: 180 1 4 Ohh
: 182 5 6 ~
: 188 3 8 ~
: 192 1 6  we
: 194 2 8  don't
: 198 1 6  talk
: 200 1 8 ~
: 202 1 6  a
: 204 1 4 ny
: 206 2 1 more
- 210
: 212 4 1 Like
: 218 4 3  we
: 224 5 4  used
: 232 1 11  to
: 234 1 13 ~
: 236 1 11 ~
: 238 1 8 ~
: 240 4 8  do
: 245 1 6 ~
- 253
: 256 1 8 I
: 258 1 9 ~
: 260 1 6  just
: 262 1 8 ~
: 264 3 6  heard
: 268 2 4  you
- 270
: 272 1 4 Found
: 274 1 6 ~
: 276 1 6  the
: 278 2 6  one
: 281 1 6  you've
: 284 1 6  been
: 286 1 8 ~
: 288 1 6  loo
F 290 1 -1 ~
F 292 3 -4 king
- 301
: 304 1 4 You've
: 306 1 6 ~
: 308 1 6  been
: 310 5 6  loo
: 316 1 6 king
: 318 1 8 ~
: 320 1 6  for
: 322 1 8 ~
: 324 2 6 ~
- 332
: 334 1 -1 I
: 336 1 4  wish
: 340 3 6  I
: 344 1 6  would
: 346 1 6  have
: 348 1 8 ~
: 350 2 6  known
: 354 5 4  that
- 359
: 360 1 1 Wasn't
: 362 1 4 ~
: 364 1 4  me
: 366 2 6 ~
: 369 7 6 ~
- 379
: 381 1 1 'Cause
* 384 1 8  e
* 386 1 9 ~
: 388 1 6 ven
: 390 1 8 ~
: 392 2 6  af
: 396 3 4 ter
- 399
: 400 1 4 All
: 402 1 6 ~
: 404 1 6  this
: 406 2 6  time
: 409 1 6  I
: 412 1 6  still
: 414 1 8 ~
* 416 1 6  won
F 418 1 3 ~
F 420 1 1 der
- 429
: 432 1 4 Why
: 434 1 6 ~
: 436 1 6  I
: 438 2 6  can't
: 442 1 9  move
: 444 2 11 ~
: 448 1 6  on
: 450 1 8 ~
: 452 2 6 ~
- 461
: 464 1 4 Just
: 468 1 6  the
: 470 3 6  way
: 475 1 8  you
: 478 1 6  did
: 482 5 4  so
- 487
: 488 1 1 Ea
: 490 1 4 si
: 492 1 4 ly
: 494 1 6 ~
: 496 10 6 ~
- 513
: 516 3 -1 Don't
: 520 1 -1  wan
: 522 1 1 ~
: 524 1 3 na
: 528 6 4  know
- 534
: 536 1 -1 What
: 538 1 1  kind
: 540 1 3  of
: 542 2 4  dress
: 546 1 1  you're
: 548 1 3 ~
* 550 1 3  wea
* 552 1 1 ~
* 554 1 -1 ring
: 556 2 -1  to
: 560 1 4 night
: 562 3 6 ~
- 568
: 570 1 -1 If
: 572 1 -1  he's
: 574 1 4  hol
: 576 1 6 ~
: 578 1 6 ding
: 580 1 4  on
: 583 1 3 to
: 585 1 3  you
: 588 2 1  so
: 592 1 6  tight
: 594 3 8 ~
- 602
: 604 1 1 The
: 606 1 8  way
: 608 2 9 ~
* 611 2 8  I
: 615 1 4  did
: 618 1 -1  be
: 620 1 1 ~
: 622 5 -1 fore
- 637
: 644 3 -1 I
: 648 3 1  o
: 652 1 3 ver
: 656 1 4 dosed
: 658 1 6 ~
: 660 4 4 ~
- 664
: 666 1 1 Should
: 668 1 3 've
: 670 2 4  known
: 674 1 1  your
: 676 1 3 ~
: 678 1 3  love
: 680 1 1 ~
: 682 1 -1  was
: 684 1 -1  a
: 688 1 4  game
: 690 4 6 ~
- 696
: 698 1 -1 Now
: 700 1 -1  I
: 702 1 4  can't
: 704 1 6 ~
: 706 1 4  get
: 708 1 4  you
: 710 2 3  out
: 713 1 3  of
: 716 2 1  my
: 720 1 6  brain
: 722 4 8 ~
- 732
: 734 1 8 Ohh
: 736 1 9 ~
: 738 2 8  it's
: 742 2 4  such
* 747 1 1  a
: 750 5 -1  shame
: 756 1 1 ~
: 758 5 -1 ~
- 764
* 766 1 1 That
: 768 1 6  we
: 770 2 8  don't
: 774 2 8  talk
: 778 1 6  a
: 780 1 4 ny
: 782 2 1 more
- 796
: 800 1 6 We
: 802 2 8  don't
: 806 2 8  talk
: 810 1 6  a
: 812 1 4 ny
: 814 2 3 more
- 828
: 832 1 6 We
: 834 2 8  don't
: 838 2 8  talk
: 842 1 6  a
: 844 1 4 ny
: 846 2 1 more
- 850
: 852 4 1 Like
: 858 4 3  we
: 864 5 4  used
: 872 1 9  to
: 874 1 11 ~
: 876 1 9 ~
: 878 1 8 ~
: 880 4 8  do
: 885 1 6 ~
- 893
: 896 1 6 We
: 898 2 8  don't
: 902 2 8  love
* 906 1 6  a
* 908 1 4 ny
* 910 2 1 more
- 924
: 928 1 6 What
: 930 2 8  was
: 934 1 6  all
: 936 1 8 ~
: 938 1 6  of
: 940 1 4  it
: 942 2 3  for?
- 946
: 948 1 4 Ohh
: 950 5 6 ~
: 956 3 8 ~
: 960 1 6  we
: 962 2 8  don't
: 966 1 6  talk
: 968 1 8 ~
: 970 1 6  a
: 972 1 4 ny
: 974 2 1 more
- 978
: 980 4 1 Like
: 986 4 3  we
: 992 5 4  used
: 1000 1 11  to
: 1002 1 13 ~
: 1004 1 11 ~
: 1006 1 8 ~
: 1008 4 8  do
: 1013 1 6 ~
- 1021
: 1024 1 8 I
: 1026 1 9 ~
: 1029 1 8  just
: 1033 1 6  hope
: 1037 2 4  you're
- 1039
: 1040 1 4 Ly
: 1042 1 6 ~
: 1044 1 6 ing
: 1047 1 6  next
: 1050 1 4  to
: 1052 1 6  some
: 1054 1 8 ~
: 1056 1 6 bo
F 1058 1 1 ~
F 1060 2 -1 dy
- 1064
: 1066 1 -1 Who
: 1068 1 -1  knows
: 1072 1 4  how
: 1074 1 6 ~
: 1076 1 6  to
: 1078 2 6  love
: 1082 1 6  you
: 1084 2 4  like
: 1088 2 6  me
: 1091 1 8 ~
: 1093 1 6 ~
- 1100
* 1102 1 -1 There
* 1104 1 4  must
: 1108 1 6  be
: 1110 3 6  a
: 1114 1 6  good
: 1116 1 8 ~
: 1118 3 6  rea
: 1123 4 4 son
- 1127
: 1128 1 1 That
: 1130 1 1  you're
: 1132 1 4  gone
: 1134 1 6 ~
: 1136 1 4 ~
: 1138 5 6 ~
- 1149
: 1152 1 8 Eve
: 1154 1 9 ~
: 1156 1 6 ry
: 1158 1 8 ~
: 1160 2 6  now
: 1164 2 4  and
- 1166
* 1168 1 11 Then
* 1170 1 13 ~
* 1172 1 13  I
* 1174 2 11  think
: 1178 1 11  you
: 1180 2 11  might
: 1184 1 8  want
: 1186 1 9 ~
: 1188 1 9  me
: 1190 1 6  to
: 1192 1 8 ~
- 1194
: 1196 2 8 Come
: 1200 3 6  show
: 1204 1 4  up
: 1206 2 6  at
: 1211 1 9  your
: 1213 1 11 ~
: 1216 1 6  door
: 1218 2 8 ~
: 1221 2 6 ~
- 1228
: 1230 1 1 But
: 1232 3 4  I'm
: 1236 1 6  just
: 1240 2 6  too
: 1243 1 8  a
: 1246 3 6 fraid
: 1251 3 4  that
- 1254
: 1256 1 1 I'll
: 1258 1 4  be
: 1260 2 4  wrong
: 1263 1 6 ~
: 1265 1 4 ~
: 1267 5 6 ~
- 1281
: 1284 3 -1 Don't
: 1288 1 -1  wan
: 1290 1 1 ~
: 1292 1 3 na
: 1296 6 4  know
- 1304
: 1306 1 -1 If
: 1308 1 1  you're
: 1310 2 4  loo
: 1314 2 3 king
: 1318 2 1  in
: 1322 1 -1 to
: 1324 2 -1  her
: 1328 1 4  eyes
: 1330 5 6 ~
- 1336
: 1338 1 -1 If
: 1340 1 -1  she's
: 1343 1 4  hol
: 1345 1 6 ~
: 1347 2 4 ding on
: 1351 1 3 to
: 1353 1 3  you
: 1356 2 1  so
* 1361 1 6  tight
* 1363 5 8 ~
- 1370
: 1372 1 1 The
: 1375 1 8  way
: 1377 1 9 ~
: 1379 2 8  I
: 1383 1 4  did
: 1386 1 -1  be
: 1388 1 1 ~
: 1390 5 -1 fore
- 1405
: 1412 3 -1 I
: 1416 1 -1  o
: 1418 1 1 ~
: 1420 1 3 ver
: 1424 1 4 dosed
: 1426 1 6 ~
: 1428 4 4 ~
- 1432
: 1434 1 1 Should
: 1436 1 3 've
: 1438 2 4  known
: 1442 1 1  your
: 1444 1 3 ~
: 1446 1 3  love
: 1448 1 1 ~
: 1450 1 -1  was
: 1452 1 -1  a
: 1456 1 4  game
: 1458 4 6 ~
- 1464
: 1466 1 -1 Now
: 1468 1 -1  I
: 1470 1 4  can't
: 1472 1 6 ~
: 1474 1 4  get
: 1476 1 4  you
: 1478 2 3  out
: 1482 1 3  of
: 1484 2 1  my
: 1488 1 6  brain
: 1490 4 8 ~
- 1500
: 1502 1 8 Ohh
: 1504 1 9 ~
: 1506 2 8  it's
: 1510 2 4  such
: 1515 1 1  a
: 1518 5 -1  shame
: 1524 1 1 ~
: 1526 5 -1 ~
- 1532
: 1534 1 1 That
: 1536 1 6  we
: 1538 2 8  don't
: 1542 2 8  talk
: 1546 1 6  a
: 1548 1 4 ny
: 1550 2 1 more
- 1564
: 1568 1 6 We
: 1570 2 8  don't
: 1574 2 8  talk
: 1578 1 6  a
: 1580 1 4 ny
: 1582 2 3 more
- 1596
: 1600 1 6 We
* 1602 2 8  don't
* 1606 2 8  talk
: 1610 1 6  a
: 1612 1 4 ny
: 1614 2 1 more
- 1618
: 1620 4 1 Like
: 1626 4 3  we
: 1632 5 4  used
: 1640 1 9  to
: 1642 1 11 ~
: 1644 1 9 ~
: 1646 1 8 ~
: 1648 4 8  do
: 1653 1 6 ~
- 1661
: 1664 1 6 We
: 1666 2 8  don't
: 1670 2 8  love
: 1674 1 6  a
: 1676 1 4 ny
: 1678 2 1 more
- 1692
: 1696 1 6 What
: 1698 2 8  was
: 1702 1 6  all
: 1704 1 8 ~
: 1706 1 6  of
: 1708 1 4  it
: 1710 2 3  for?
- 1714
: 1716 1 4 Ohh
: 1718 5 6 ~
: 1724 3 8 ~
: 1728 1 6  we
: 1730 2 8  don't
: 1734 1 6  talk
: 1736 1 8 ~
: 1738 1 6  a
: 1740 1 4 ny
: 1742 2 1 more
- 1746
: 1748 4 1 Like
: 1754 4 3  we
: 1760 5 4  used
: 1768 1 11  to
: 1770 1 13 ~
: 1772 1 11 ~
: 1774 1 8 ~
: 1776 4 8  do
: 1781 1 6 ~
- 1808
* 1908 2 -1 Like
* 1911 1 1 ~
* 1914 2 1  we
* 1917 2 3 ~
* 1920 5 4  used
* 1928 1 9  to
* 1930 1 11 ~
* 1932 1 9 ~
* 1934 1 8 ~
* 1937 1 6  do
* 1939 1 8 ~
* 1941 1 6 ~
- 1968
: 2052 3 -1 Don't
: 2056 1 -1  wan
: 2058 1 1 ~
: 2060 1 3 na
: 2064 6 4  know
- 2070
: 2072 1 -1 What
: 2074 1 1  kind
: 2076 1 3  of
: 2078 2 4  dress
: 2082 1 1  you're
: 2084 1 3 ~
: 2086 1 3  wea
: 2088 1 1 ~
: 2090 1 -1 ring
: 2092 2 -1  to
: 2096 1 4 night
: 2098 3 6 ~
- 2104
: 2106 1 -1 If
: 2108 1 -1  he's
: 2110 1 4  gi
: 2112 1 6 ~
: 2114 1 6 ving
: 2116 1 4  it
: 2119 1 3  to
: 2121 1 3  you
: 2124 1 1  just
: 2128 1 6  right
: 2130 3 8 ~
- 2138
: 2140 1 1 The
: 2142 1 8  way
: 2144 1 9 ~
: 2146 2 8  I
: 2151 1 4  did
: 2154 1 -1  be
: 2156 1 1 ~
: 2158 5 -1 fore
- 2173
: 2180 3 -1 I
: 2184 1 -1  o
: 2186 1 1 ~
: 2188 1 3 ver
: 2192 1 4 dosed
: 2194 1 6 ~
: 2196 4 4 ~
- 2200
: 2202 1 1 Should
: 2204 1 3 've
: 2206 2 4  known
: 2210 1 1  your
: 2212 1 3 ~
: 2214 1 3  love
: 2216 1 1 ~
: 2218 1 -1  was
: 2220 1 -1  a
: 2224 1 4  game
: 2226 4 6 ~
- 2232
: 2234 1 -1 Now
: 2236 1 -1  I
: 2238 1 4  can't
: 2240 1 6 ~
: 2242 1 4  get
: 2244 1 4  you
: 2246 2 3  out
: 2250 1 3  of
: 2252 2 1  my
: 2256 1 6  brain
: 2258 4 8 ~
- 2268
: 2270 1 8 Ohh
: 2272 1 9 ~
: 2274 2 8  it's
: 2279 1 4  such
: 2283 1 1  a
* 2287 1 6  shame
* 2289 1 8 ~
* 2291 1 9 ~
* 2293 6 6 ~
- 2299
* 2301 2 6 That
: 2304 1 6  we
: 2306 2 8  don't
: 2310 2 8  talk
: 2314 1 6  a
: 2316 1 4 ny
: 2318 2 1 more
- 2332
: 2336 1 6 We
: 2338 2 8  don't
: 2342 2 8  talk
: 2346 1 6  a
: 2348 1 4 ny
: 2350 2 3 more
- 2364
: 2368 1 6 We
: 2370 2 8  don't
: 2374 2 8  talk
: 2378 1 6  a
: 2380 1 4 ny
: 2382 2 1 more
- 2386
: 2388 4 1 Like
: 2394 4 3  we
: 2400 5 4  used
: 2408 1 9  to
: 2410 1 11 ~
: 2412 1 9 ~
: 2414 1 8 ~
: 2416 4 8  do
: 2421 1 6 ~
- 2429
: 2432 1 6 We
: 2434 2 8  don't
: 2438 2 8  love
: 2442 1 6  a
: 2444 1 4 ny
: 2446 2 1 more
- 2460
: 2464 1 6 What
: 2466 2 8  was
: 2470 1 6  all
: 2472 1 8 ~
: 2474 1 6  of
: 2476 1 4  it
: 2478 2 3  for?
- 2482
: 2484 1 4 Ohh
: 2486 5 6 ~
: 2492 3 8 ~
: 2496 1 6  we
: 2498 2 8  don't
: 2502 1 6  talk
: 2504 1 8 ~
: 2506 1 6  a
: 2508 1 4 ny
: 2510 2 1 more
- 2514
: 2516 4 1 Like
: 2522 4 3  we
: 2528 5 4  used
: 2536 1 11  to
: 2538 1 13 ~
: 2540 1 11 ~
: 2542 1 8 ~
: 2544 4 8  do
: 2549 1 6 ~
- 2557
: 2560 1 6 We
: 2562 2 8  don't
: 2566 1 6  talk
: 2568 1 8 ~
: 2570 1 6  a
: 2572 1 4 ny
: 2574 1 4 more
: 2576 1 6 ~
: 2578 1 8 ~
: 2580 7 4 ~
- 2597
: 2612 2 6 Oh
: 2615 1 8 ~
: 2617 3 6 ~
- 2630
: 2644 1 8 Woah
: 2646 1 9 ~
: 2648 3 8 ~
- 2651
: 2652 1 1 The
: 2655 1 8  way
: 2657 1 9 ~
: 2659 2 8  I
: 2663 1 4  did
: 2666 1 -1  be
: 2668 1 1 ~
: 2670 5 -1 fore
- 2684
: 2688 1 6 We
: 2690 2 8  don't
: 2694 1 6  talk
: 2696 1 8 ~
: 2698 1 6  a
: 2700 1 4 ny
: 2702 1 4 more
: 2704 1 6 ~
: 2706 1 8 ~
: 2708 7 4 ~
- 2725
: 2740 1 6 Oh
: 2742 1 8 ~
: 2744 3 6 ~
- 2757
: 2772 1 8 Woah
: 2774 1 9 ~
: 2776 3 8 ~
- 2780
: 2782 1 8 Ohh
: 2784 1 9 ~
: 2786 2 8  it's
: 2790 2 4  such
: 2794 1 1  a
: 2798 5 -1  shame
: 2804 1 1 ~
: 2806 5 -1 ~
- 2812
* 2814 1 1 That
* 2816 1 6  we
* 2818 2 8  don't
* 2822 2 8  talk
* 2826 1 6  a
* 2828 1 4 ny
* 2830 2 1 more
E