#TITLE:I Want You To Want Me
#ARTIST:Cheap Trick
#LANGUAGE:Englisch
#EDITION:Singstar Amped
#MP3:Cheap Trick - I Want You To Want Me.mp3
#COVER:Cheap Trick - I Want You To Want Me [CO].jpg
#BACKGROUND:Cheap Trick - I Want You To Want Me [BG].jpg
#BPM:208,65
#GAP:18875,19
: 0 4 57 I
: 5 14 61  want
: 21 11 59  you
: 33 1 59  to
: 35 4 57  want
: 41 10 57  me
- 53
: 66 2 57 I
: 70 8 61  need
: 78 4 59 ~
: 86 11 59  you
: 98 1 59  to
: 100 5 57  need
: 106 11 57  me
- 119
: 130 2 64 I'd
* 134 14 66  love
: 150 10 64  you
: 162 1 64  to
: 164 5 62  love
: 170 9 62  me
- 181
: 191 6 66 I'm
: 199 11 64  beg
: 211 2 64 gin'
: 215 7 62  you
: 227 1 62  to
: 229 4 61  beg
: 235 16 61  me
- 253
: 259 3 57 I
: 263 13 61  want
: 279 11 59  you
: 291 1 59  to
: 293 4 57  want
: 298 9 57  me
- 309
: 324 2 64 I
: 328 14 66  need
: 344 10 64  you
: 356 1 64  to
: 358 5 62  need
: 364 11 62  me
- 377
: 384 7 66 I'd
: 392 14 64  love
: 408 7 62  you
: 420 1 62  to
: 422 4 61  love
: 428 17 61  me
- 447
: 455 1 57 I'll
: 456 1 57  shine
: 458 3 57  up
: 462 1 57  the
: 464 3 59  old
: 469 2 54  brown
: 473 8 57  shoes
- 483
: 488 1 59 Put
: 489 4 59  on
: 494 1 59  a
: 496 4 59  brand
: 500 2 57  new
: 505 4 60  shirt
: 509 3 61 ~
- 514
: 519 1 57 I'll
: 520 1 57  get
: 522 4 57  home
: 528 1 59  ear
: 530 1 59 ly
: 533 1 54  from
: 535 5 57  work
- 542
: 545 1 54 If
: 547 3 59  you
* 553 10 59  say
- 565
: 576 2 59 That
: 580 2 59  you
: 583 2 61  love
: 585 2 59 ~
: 588 8 57  me
- 598
: 617 2 57 Did
: 620 1 57 n't
: 621 2 57  I,
: 625 2 61  did
: 628 1 61 n't
: 629 2 61  I
- 632
: 633 2 64 Did
: 636 1 64 n't
: 637 2 64  I
: 641 3 66  see
: 645 2 66  you
: 648 5 66  cry
: 654 2 64 in'?
- 658
: 672 6 61 Oh
* 678 2 59 ~
: 682 2 57  did
: 685 1 57 n't
: 686 2 57  I,
: 690 2 61  did
: 693 1 61 n't
: 694 2 61  I
- 697
: 698 2 64 Did
: 701 1 64 n't
: 702 2 64  I
: 706 2 66  see
: 709 2 66  you
: 712 5 69  cry
: 718 2 69 in'?
- 722
: 745 2 66 Feel
: 748 1 64 in'
: 750 1 64  all
: 752 1 64  a
: 754 2 64 lone
: 757 1 64  with
: 758 1 64 out
: 760 1 64  a
: 762 2 66  friend
- 765
: 765 1 64 You
: 766 1 64  know
: 768 1 64  you
: 770 2 64  feel
: 773 2 64  like
: 777 4 66  dy
: 781 3 64 in'
- 786
: 801 6 61 Oh
: 807 3 59 ~
: 811 2 57  did
: 814 1 57 n't
: 815 2 57  I
: 819 2 61  did
: 822 1 61 n't
: 823 2 61  I
- 826
: 827 2 64 Did
: 830 1 64 n't
: 831 2 64  I
: 835 3 66  see
: 839 1 66  you
* 842 4 69  cry
: 847 2 69 in'?
- 851
: 871 4 57 I
: 876 11 61  want
: 892 12 59  you
: 905 1 59  to
: 907 4 57  want
: 913 10 57  me
- 925
: 937 2 57 I
: 941 8 61  need
: 949 3 59 ~
: 957 11 59  you
: 969 1 59  to
: 971 5 57  need
: 977 6 57  me
- 985
: 1002 2 64 I'd
: 1006 15 66  love
: 1022 11 64  you
: 1034 1 64  to
: 1036 5 62  love
: 1042 8 62  me
- 1052
: 1061 7 66 I'm
* 1070 11 64  beg
: 1082 2 64 gin'
: 1087 7 62  you
: 1098 1 62  to
: 1101 3 61  beg
: 1106 17 61  me
- 1125
: 1133 1 57 I'll
: 1135 1 57  shine
: 1137 3 57  up
: 1141 1 57  the
: 1143 2 59  old
: 1147 2 54  brown
: 1151 8 57  shoes
- 1161
: 1168 1 59 Put
: 1169 4 59  on
: 1174 1 59  a
: 1176 4 59  brand
: 1180 2 57  new
: 1184 6 60  shirt
: 1190 2 61 ~
- 1194
: 1199 1 54 I'll
: 1200 1 57  get
: 1202 4 57  home
: 1208 1 59  ear
: 1210 1 59 ly
: 1212 2 54  from
: 1215 6 57  work
- 1223
: 1225 1 54 If
: 1227 3 59  you
: 1233 13 59  say
- 1248
: 1256 2 59 That
: 1260 2 59  you
: 1263 2 61  love
: 1265 2 59 ~
: 1268 8 57  me
- 1278
: 1298 2 57 Did
: 1301 1 57 n't
: 1302 2 57  I,
: 1306 2 61  did
: 1309 1 61 n't
: 1310 2 61  I
- 1313
: 1314 2 64 Did
: 1317 1 64 n't
: 1318 2 64  I
: 1322 2 66  see
: 1325 2 66  you
: 1328 5 66  cry
: 1334 2 64 in'?
- 1338
: 1354 4 61 Oh
: 1358 2 59 ~
: 1362 2 57  did
: 1365 1 57 n't
: 1366 2 57  I,
: 1370 2 61  did
: 1373 1 61 n't
: 1374 2 61  I
- 1377
: 1378 2 64 Did
: 1381 1 64 n't
: 1382 2 64  I
: 1386 2 66  see
: 1389 2 66  you
: 1392 5 69  cry
: 1398 2 69 in'?
- 1402
: 1427 3 66 Feel
: 1431 1 64 in'
: 1432 2 64  all
: 1435 1 64  a
: 1436 2 64 lone
: 1439 1 64  with
: 1440 1 64 out
: 1442 1 64  a
: 1444 2 66  friend
- 1447
: 1447 1 64 You
: 1448 1 64  know
: 1450 1 64  you
: 1452 2 64  feel
: 1455 2 64  like
: 1459 4 66  dy
: 1463 3 64 in'
- 1468
: 1483 5 61 Oh
: 1488 3 59 ~
: 1492 2 57  did
: 1495 1 57 n't
: 1496 2 57  I
: 1500 2 61  did
: 1503 1 61 n't
: 1504 2 61  I
- 1507
: 1508 2 64 Did
: 1511 1 64 n't
: 1512 2 64  I
: 1516 3 66  see
: 1520 1 66  you
: 1523 4 69  cry
: 1528 2 69 in'?
- 1532
: 1545 6 67 Oh
- 1553
* 1687 3 66 Feel
: 1691 1 64 in'
: 1692 2 64  all
: 1695 1 64  a
: 1696 2 64 lone
: 1699 1 64  with
: 1700 1 64 out
: 1702 1 64  a
: 1704 2 66  friend
- 1707
: 1707 1 64 You
: 1708 1 64  know
: 1710 1 64  you
: 1712 2 64  feel
: 1715 2 64  like
: 1719 5 66  dy
: 1724 6 64 in'
: 1730 2 62 ~
: 1732 2 59 ~
- 1736
: 1743 6 61 Oh
: 1749 3 59 ~
: 1753 2 57  did
: 1756 1 57 n't
: 1757 2 57  I,
: 1761 2 61  did
: 1764 1 61 n't
* 1765 2 61  I
- 1768
: 1769 2 64 Did
: 1772 1 64 n't
: 1773 2 64  I
: 1777 3 66  see
: 1781 1 66  you
: 1784 4 69  cry
: 1789 2 69 in'?
- 1793
: 1804 2 64 Oh
: 1806 2 65 ~
: 1808 2 66 ~
: 1810 2 67 ~
- 1814
: 1943 4 57 I
: 1948 13 61  want
: 1964 12 59  you
: 1977 1 59  to
* 1979 4 57  want
: 1985 8 57  me
- 1995
: 2009 2 57 I
: 2013 11 61  need
: 2029 11 59  you
: 2041 1 59  to
: 2043 5 57  need
: 2049 6 57  me
- 2057
: 2072 2 64 I'd
: 2076 15 66  love
: 2092 11 64  you
: 2104 2 64  to
: 2107 4 62  love
* 2112 8 62  me
- 2122
: 2130 8 66 I'm
: 2140 11 64  beg
: 2152 2 64 gin'
: 2157 6 62  you
: 2168 1 62  to
: 2171 3 61  beg
: 2176 15 61  me
- 2193
: 2200 4 57 I
: 2205 12 61  want
: 2221 12 59  you
: 2234 1 59  to
: 2236 4 57  want
: 2242 10 57  me
- 2254
: 2266 4 57 I
: 2271 11 61  want
: 2287 12 59  you
: 2300 1 59  to
: 2302 4 57  want
: 2308 10 57  me
- 2320
: 2332 4 57 I
: 2337 13 61  want
: 2353 11 59  you
: 2365 1 59  to
: 2367 5 57  want
: 2374 6 57  me
- 2382
: 2391 9 64 I
: 2403 9 61  want
* 2419 8 59  you
: 2427 4 57 ~
: 2432 1 57  to
: 2434 3 59  want
: 2439 18 61  me
E
