#TITLE:Cuando Tú Vas
#ARTIST:Chenoa
#MP3:Chenoa - Cuando Tú Vas.mp3
#COVER:Chenoa - Cuando Tú Vas [CO].jpg
#BACKGROUND:Chenoa - Cuando Tú Vas [CO].jpg
#BPM:272
#GAP:1985,29
#ENCODING:UTF8
#LANGUAGE:Spanish
#GENRE:Pop
#EDITION:SingStar - Latino
#YEAR:2002
: 0 10 52 Ow
- 12
: 264 2 59 Pre
: 269 2 61 su
: 272 2 62 mien
: 277 2 61 do
: 280 3 59  que
- 284
: 284 2 61 Lo
: 288 3 62  sa
: 293 3 61 be
: 301 5 59  to
: 309 6 57 do
- 317
: 325 2 59 Me
: 328 2 59  di
: 333 2 61 ce
: 336 2 62  co
: 341 1 61 sas
: 344 2 59  que
- 347
: 348 2 61 No
: 352 3 62  sue
: 357 2 61 nan
: 360 4 59  del
: 368 4 62  to
* 373 5 66 do
: 381 3 64  bien
- 386
: 389 1 64 Es
: 392 2 64 tá
: 397 2 66  tra
: 400 3 67 tan
: 405 2 66 do
: 408 3 64  de
- 413
: 416 3 67 Se
: 421 3 66 du
: 429 3 64 cir
: 432 3 62 ~
: 436 9 62 me
: 445 4 61 ~
- 451
: 453 1 61 En
: 456 3 61 tre
: 461 2 62  la
: 464 2 64  mar
: 469 2 62 cha-hay
: 472 2 61  tan
: 477 2 62 to
- 480
: 480 4 64 Rui
: 485 2 62 do
: 488 3 61  no
: 493 2 62  le
: 496 3 64  oi
: 501 6 61 go
: 509 5 59  bien
- 515
: 517 1 59 Pe
: 520 2 59 lo-ha
: 525 2 61 cia-a
: 528 2 62 trás
- 531
: 533 2 61 Son
: 536 2 59 ri
: 541 2 61 sa
: 544 2 62  re
: 548 3 61 tor
: 556 5 59 ci
: 564 4 57 da
- 570
: 581 2 59 In
: 584 2 59 ten
: 589 2 61 ta
: 592 3 62 rá-a
: 597 2 61 bor
: 600 2 59 dar
: 605 2 61 me
- 608
: 608 2 62 Por
: 613 7 61  se
: 621 4 62 gun
: 629 6 66 da
: 637 4 64  vez
- 643
: 645 2 64 No
: 648 3 64  se
: 653 2 66  da
: 656 2 67  cuen
: 661 2 66 ta
- 664
: 664 3 64 Que
: 669 2 66  no
: 672 3 67  me-in
: 677 7 66 te
: 685 3 64 re
: 693 7 62 sa
: 701 3 61 ~
- 706
: 709 2 61 Que
: 712 2 61  lo
: 717 2 62  que
: 720 4 64  di
: 725 2 62 ga-o
: 728 2 61  lo
- 731
: 733 2 62 Que
: 736 4 64  ha
: 741 2 62 ga
: 744 2 61  lo
: 749 2 62  co
: 752 2 64 noz
* 757 7 67 co
: 765 4 66  bien
- 771
: 773 2 66 Y
: 776 4 66  no
: 781 2 66  me
: 784 4 67  ha
: 789 3 66 bles
- 794
: 797 1 66 De
: 800 2 66  se
: 804 2 66 xo
: 808 7 66  se
: 816 7 70 gu
: 824 7 71 ro
- 833
: 837 2 66 Ni
: 840 2 66  plas
: 845 2 66 ti
: 848 3 67 fi
: 853 3 66 ques
- 858
: 861 2 66 Mi
: 864 4 64  co
: 869 4 62 ra
: 877 10 61 zón
- 889
: 901 2 66 Ya-es
: 904 2 66 toy
: 909 2 66  can
: 912 4 67 sa
: 917 3 66 da
- 922
: 925 2 66 De
: 928 2 66  cuer
: 933 4 66 pos
: 941 7 70  du
* 949 8 71 ros
- 959
: 965 2 71 Y
: 968 2 71  men
: 973 2 71 tes
: 976 3 71  blan
: 981 2 67 das
- 984
: 984 3 67 Que
: 989 2 67  no
: 992 3 71  sa
: 997 2 73 ben
: 1000 3 71  de-a
: 1005 5 70 mor
: 1010 2 69 ~
: 1012 26 70 ~
- 1040
: 1064 2 54 Cuan
: 1067 1 54 do
: 1069 2 62  tú
: 1072 3 66  vas
- 1077
: 1096 4 66 Yo
: 1101 4 64  ven
: 1109 3 64 go
: 1112 4 62  de-a
: 1117 9 64 llí
- 1127
: 1128 2 54 Cuan
: 1131 1 54 do
: 1133 2 59  yo
: 1136 5 64  voy
- 1143
: 1157 2 64 Tú
: 1160 4 64  to
: 1165 2 64 da
: 1168 4 62 ví
: 1173 3 61 a-es
: 1181 3 62 tás
: 1189 2 61  a
: 1192 5 59 quí-y
- 1198
: 1200 4 61 Crees
: 1208 3 61  que
: 1213 2 61  me
: 1216 4 61  pue
: 1221 2 61 des
- 1225
: 1229 3 66 Con
: 1237 4 64 fun
: 1245 4 62 dir
- 1251
: 1256 1 54 Y
: 1258 2 54  de
: 1261 2 62  que
: 1264 3 66  vas
- 1269
: 1288 4 66 Mi
: 1293 4 64 rán
: 1300 3 64 do
: 1304 3 62 me-a
: 1309 6 64 trás
- 1317
: 1320 2 64 Ay
: 1323 1 64  qué
: 1325 1 58  des
: 1328 4 64 ca
: 1333 6 64 ro
- 1341
: 1349 2 64 Aho
: 1352 4 64 ra
: 1357 2 64  me
: 1360 2 62  gus
: 1365 3 61 tas
: 1372 2 62  más
: 1374 2 61 ~
: 1376 5 59 ~
- 1382
: 1384 2 62 Y-es
: 1389 2 62  que
: 1392 4 61  no
: 1397 2 61  me
: 1400 4 61  fí
: 1405 2 61 o
: 1408 3 61  por
: 1413 3 61 que
- 1418
* 1420 4 66 Sé
: 1429 2 66  que
: 1432 3 64  tú
: 1437 2 64  me-en
: 1440 4 62 ga
: 1445 6 61 ña
: 1453 12 59 rás
- 1467
: 1525 2 59 Le
: 1528 4 59  vi-u
: 1533 2 61 na
: 1536 2 62  mue
: 1541 2 61 ca
: 1544 2 59  ca
: 1549 2 61 si
- 1552
: 1552 2 62 Con
: 1557 4 61 ge
: 1565 3 59 la
: 1568 4 57 ~
: 1573 10 57 da
- 1585
: 1592 2 59 Re
: 1597 2 61 fle
: 1600 4 62 ja
: 1605 2 61 do-es
: 1608 3 59 tá-en
- 1612
: 1613 2 61 Su
: 1616 4 62  ca
: 1621 2 61 ra
: 1624 3 59  lo
- 1628
: 1629 2 61 Que
: 1632 2 62  di
: 1637 2 62 je
: 1640 3 66  de
: 1645 4 64  él
- 1651
: 1653 2 64 Y
: 1656 3 64  co
: 1661 2 66 mo-un
: 1664 4 67  ra
: 1669 2 66 yo
: 1672 3 64  só
: 1677 2 66 lo
- 1680
: 1680 4 67 Dio
: 1685 4 66  la
: 1693 5 64  vuel
: 1701 5 62 ta
: 1709 5 61 ~
- 1715
: 1717 2 61 Me
: 1720 3 61  con
: 1725 2 62 quis
: 1728 3 64 tó
: 1733 2 62  cuan
: 1736 3 61 do
- 1740
: 1741 2 62 Me
: 1744 2 64  di
: 1749 2 62 jo
: 1752 3 61  que
: 1757 2 62  me-e
: 1760 3 64 qui
: 1765 3 61 vo
: 1773 3 59 qué
- 1778
: 1781 2 59 Por
: 1784 2 59  fin
: 1789 2 61  pre
: 1792 2 62 gun
: 1797 2 61 tas
- 1800
: 1800 3 59 Có
: 1804 2 61 mo
: 1808 4 62  me
: 1813 4 61  lla
: 1821 3 59 ma
: 1824 4 57 ~
: 1829 7 57 ba
- 1838
: 1847 5 59 La
: 1853 2 61  ver
: 1856 3 62 dad
: 1861 2 61  hu
: 1864 2 59 bie
: 1869 2 61 ses
- 1872
: 1872 3 62 Em
: 1877 2 61 pe
: 1880 3 59 za
: 1885 2 61 do
: 1888 3 62  con
: 1893 3 66  buen
: 1901 6 64  pie
- 1908
: 1909 2 64 Com
: 1912 3 64 pren
: 1917 2 66 de
: 1920 2 67 rás
: 1925 2 66  que
: 1928 3 64  yo
- 1932
: 1933 2 66 No
* 1936 2 67  te
: 1941 5 66  co
: 1949 4 64 noz
: 1957 10 62 co
- 1969
: 1973 2 61 Pe
: 1976 3 61 ro
: 1981 2 62  me
: 1984 4 64  mue
: 1989 2 62 ro
: 1992 4 61  de
- 1997
: 1997 2 62 De
: 2000 4 64 se
: 2005 2 62 o
: 2008 2 61  por
: 2013 2 62  be
: 2016 2 64 sar
: 2021 6 67  su
: 2029 4 66  piel
- 2035
: 2037 2 66 Y
: 2040 4 66  no
: 2045 2 66  me
: 2048 4 67  ha
: 2053 3 66 bles
- 2058
: 2061 1 66 De
: 2064 2 66  se
: 2069 2 66 xo
: 2072 7 66  se
: 2080 7 70 gu
: 2088 7 71 ro
- 2097
: 2101 2 66 Ni
: 2104 2 66  plas
: 2109 2 66 ti
: 2112 3 67 fi
: 2117 3 66 ques
- 2122
: 2125 2 66 Mi
: 2128 4 64  co
: 2133 4 62 ra
: 2141 1 64 zón
: 2142 2 62 ~
: 2144 7 61 ~
- 2153
: 2165 2 66 Ya-es
: 2168 2 66 toy
: 2173 2 66  can
: 2176 4 67 sa
: 2181 3 66 da
- 2186
: 2189 2 66 De
: 2192 2 66  cuer
: 2197 4 66 pos
: 2205 7 70  du
: 2213 8 71 ros
- 2223
: 2229 2 71 Y
: 2232 2 71  men
: 2237 2 71 tes
: 2240 3 71  blan
: 2245 2 67 das
- 2248
: 2248 3 67 Que
: 2253 2 67  no
: 2256 3 71  sa
: 2261 2 73 ben
: 2264 3 71  de-a
: 2269 5 70 mor
: 2274 2 69 ~
: 2276 25 70 ~
- 2303
: 2328 2 54 Cuan
: 2331 1 54 do
: 2333 2 62  tú
: 2336 3 66  vas
- 2341
: 2360 4 66 Yo
: 2365 4 64  ven
: 2373 2 64 go
: 2376 4 64  de-a
: 2381 9 64 llí
- 2391
: 2392 2 64 Cuan
: 2395 1 64 do
: 2397 2 64  yo
: 2400 16 64  voy
- 2418
: 2421 2 64 Tú
: 2424 4 64  to
: 2429 2 64 da
: 2432 4 62 ví
: 2437 3 61 a-es
: 2445 3 62 tás
: 2453 2 61  a
: 2456 5 59 quí-y
- 2462
: 2464 4 61 Crees
: 2472 3 61  que
: 2477 2 61  me
: 2480 4 61  pue
: 2485 2 61 des
- 2489
* 2493 3 66 Con
: 2501 4 64 fun
: 2509 4 62 dir
- 2515
: 2520 1 66 Y
: 2522 2 66  de
: 2525 2 66  que
: 2528 4 66  vas
- 2534
: 2552 4 66 Mi
: 2557 4 64 rán
: 2564 3 64 do
: 2568 3 62 me-a
: 2573 6 64 trás
- 2581
: 2584 2 66 Ay
: 2587 1 58  qué
: 2589 1 58  des
: 2592 4 64 ca
: 2597 6 64 ro
- 2605
: 2613 2 64 Aho
: 2616 4 64 ra
: 2621 2 64  me
: 2624 2 62  gus
: 2629 3 61 tas
: 2636 2 62  más
: 2638 2 61 ~
: 2640 5 59 ~
- 2646
: 2648 2 62 Y-es
: 2653 2 62  que
: 2656 4 61  no
: 2661 2 61  me
: 2664 4 61  fí
: 2669 2 61 o
: 2672 3 61  por
: 2677 3 61 que
- 2682
: 2684 4 66 Sé
: 2693 2 66  que
: 2696 3 64  tú
: 2701 2 64  me-en
: 2704 4 62 ga
: 2709 7 61 ña
: 2717 2 62 rás
: 2719 2 61 ~
: 2721 12 59 ~
- 2735
* 2773 8 57 Dum
: 2781 8 59  dum
: 2792 4 59  du
: 2797 4 59  du
- 2803
: 2805 4 57 Uh
: 2813 9 59  huh
: 2829 9 62  yeah
: 2845 6 65  ah
- 2853
: 2877 5 59 Yeah,
: 2885 6 62  yeah,
: 2893 7 66  yeah
- 2902
: 2920 19 64 Hmm
: 2941 4 64  dum
: 2949 5 64  dum
- 2955
: 2957 2 62 Do
: 2960 4 64  doo
: 2965 2 62  bi
: 2968 4 64  dum
- 2973
: 2973 2 62 Bi
: 2976 4 66  de
: 2981 7 66  de
: 2989 14 66  dee
* 3005 13 70  yeah
- 3020
: 3032 2 66 Cuan
: 3035 1 66 do
: 3037 2 66  tú
: 3040 3 66  vas
- 3045
: 3064 4 66 Yo
: 3069 4 64  ven
: 3077 2 64 go
: 3080 4 62  de-a
: 3085 9 64 llí
- 3095
: 3096 2 64 Cuan
: 3099 1 64 do
: 3101 2 64  yo
: 3104 11 64  voy
- 3117
: 3125 2 64 Tú
: 3128 4 64  to
: 3133 2 64 da
: 3136 4 62 ví
: 3141 3 61 a-es
: 3149 3 62 tás
: 3157 2 61  a
: 3160 5 59 quí-y
- 3166
: 3168 4 61 Crees
: 3176 3 61  que
: 3181 2 61  me
: 3184 4 61  pue
: 3189 2 61 des
- 3193
: 3197 3 66 Con
: 3205 4 64 fun
: 3213 4 62 dir
- 3219
: 3224 1 66 Y
: 3226 2 66  de
: 3229 2 66  que
: 3232 9 66  vas
- 3243
: 3253 7 66 Mi
: 3261 4 64 rán
: 3268 3 64 do
: 3272 3 62 me-a
: 3277 6 64 trás
- 3285
: 3288 2 64 Ay
: 3291 1 64  qué
: 3293 1 64  des
* 3296 4 64 ca
: 3301 7 64 ro
- 3310
: 3317 2 64 Aho
: 3320 4 64 ra
: 3325 2 64  me
: 3328 2 62  gus
: 3333 3 61 tas
: 3340 2 62  más
: 3342 2 61 ~
: 3344 4 59 ~
- 3350
: 3352 2 62 Y-es
: 3357 2 62  que
: 3360 4 61  no
: 3365 2 61  me
: 3368 4 61  fí
: 3373 2 61 o
: 3376 3 61  por
: 3381 3 61 que
- 3386
: 3388 4 66 Sé
: 3397 2 66  que
: 3400 3 64  tú
: 3405 2 64  me-en
: 3408 4 62 ga
: 3413 4 61 ñas
- 3418
: 3420 4 66 Sé
: 3429 2 66  que
: 3432 3 64  tú
: 3437 2 64  me-en
: 3440 4 62 ga
: 3445 5 61 ñas
- 3451
: 3452 6 66 Sé
: 3461 2 66  que
: 3464 3 64  tú
: 3469 2 64  me-en
: 3472 4 62 ga
: 3477 6 61 ña
* 3485 4 59 rás
E