#TITLE:If I Could Turn Back Time
#ARTIST:Cher
#LANGUAGE:English
#EDITION:Singstar - Anthems
#MP3:Cher - If I Could Turn Back Time.mp3
#COVER:Cher - If I Could Turn Back Time [CO].jpg
#BACKGROUND:Cher - If I Could Turn Back Time [BG].jpg
#BPM:216,40
#GAP:8109,98
: 0 4 66 If
: 4 4 66  I
: 8 4 63  could
: 12 12 66  turn
: 24 8 66  back
: 32 4 66  time
: 36 8 59 ~
- 46 47
: 65 3 66 If
: 68 4 66  I
: 72 4 63  could
: 76 12 66  find
: 89 4 66  a
: 93 4 63 ~
: 97 7 68  way
- 106 107
: 133 4 66 I'd
: 137 4 63  take
: 141 8 66  back
: 149 4 66  those
: 153 4 63 ~
: 157 6 66  words
- 164
: 165 4 66 That
: 169 4 63  hurt
: 173 4 68 ~
: 177 4 66 ~
: 181 8 66  you
- 191
: 197 4 54 And
: 201 8 66  you'd
: 209 16 66  stay
- 227 228
: 246 4 61 I
: 250 4 61  don't
: 254 3 61  know
: 257 4 61  why
: 262 4 59  I
: 266 3 59  did
- 270
: 270 4 59 The
: 274 6 59  things
: 280 6 59  I
* 286 8 61  did
- 296 297
: 310 4 61 I
: 314 4 61  don't
: 318 4 61  know
: 322 4 61  why
: 326 5 59  I
: 331 3 59  said
- 335
: 335 4 59 The
: 339 6 59  things
: 345 5 59  I
: 350 2 56  said
: 352 8 54 ~
- 362 363
: 375 4 61 Pride's
: 379 4 61  like
: 383 4 61  a
: 387 3 59  knife
- 391
: 391 4 59 It
: 395 4 59  can
: 399 5 59  cut
: 407 4 59  deep
: 411 4 59  in
: 415 4 63 side
: 419 7 61 ~
- 428
: 435 5 66 Words
: 440 5 66  are
: 445 4 66  like
: 450 6 61  wea
: 456 5 61 pons
- 462
: 462 4 63 They
: 467 7 63  wound
: 475 6 54  some
* 482 14 54 times
- 498 515
: 535 3 66 I
: 539 4 66  did
: 543 4 63 n't
: 547 4 66  real
: 551 2 63 ly
: 553 6 61  mean
: 559 3 63  to
: 562 4 59 ~
: 566 5 61  hurt
: 571 11 59  you
- 584 585
: 599 3 66 I
: 603 3 66  did
: 607 4 63 n't
: 611 3 66  wan
: 614 4 63 na
: 619 4 61  see
: 623 4 63  you
: 627 3 59  go
- 631
: 631 4 66 I
: 636 3 66  know
: 639 4 66  I
: 643 4 66  made
: 647 4 66  you
: 651 4 66  cry
: 655 5 68 ~
- 662
: 664 4 66 But
: 668 4 66  ba
: 672 4 66 by
: 676 4 66  if
: 680 3 66  I
: 683 3 63  could
- 687
: 688 12 66 Turn
: 700 7 66  back
: 707 4 66  time
: 711 5 59 ~
- 718 719
: 739 4 66 If
: 743 4 66  I
: 747 4 63  could
: 751 12 66  find
: 763 4 66  a
: 767 4 63 ~
: 771 8 68  way
- 781 782
: 807 3 66 I'd
: 811 3 63  take
: 815 7 66  back
: 823 3 66  those
: 827 3 63 ~
: 831 7 66  words
- 839
: 839 4 66 That
: 843 3 63 ~
: 847 4 68  hurt
: 851 3 66 ~
: 855 7 66  you
- 864
: 871 3 54 And
: 875 6 66  you'd
: 883 6 66  stay
- 891
: 899 2 66 If
: 903 3 66  I
: 907 3 63  could
: 911 11 66  reach
: 923 7 66  the
* 931 4 66  stars
: 935 6 59 ~
- 943 944
: 963 4 66 I'd
: 967 4 66  give
: 971 4 63  them
: 975 11 66  all
: 987 4 66  to
: 991 4 63 ~
: 995 7 68  you
- 1004 1005
: 1031 4 66 Then
: 1035 4 63  you'd
: 1039 8 66  love
: 1047 4 59  me
: 1055 2 68  love
: 1057 5 66 ~
: 1063 4 66  me
- 1069
: 1071 8 71 Like
: 1080 5 71  you
: 1087 4 70  used
: 1091 7 66 ~
: 1099 3 66  to
: 1103 4 68  do
: 1107 8 66 ~
- 1117 1155
: 1175 3 61 My
: 1179 3 61  world
: 1183 3 61  was
: 1187 3 61  shat
: 1191 4 59 tered
- 1196
: 1196 3 59 I
: 1200 3 59  was
: 1204 5 59  torn
: 1210 5 59  a
* 1216 9 61 part
- 1227 1228
: 1239 3 61 Like
: 1242 3 61  some
: 1245 2 61 one
: 1247 2 61  took
: 1249 3 61  a
: 1252 3 59  knife
- 1256
: 1256 3 59 And
: 1260 3 59  drove
: 1264 3 59  it
: 1268 5 59  deep
: 1274 4 59  in
: 1279 5 59  my
: 1285 9 54  heart
- 1296
: 1304 2 61 You
: 1306 2 61  walk
: 1308 4 61  out
: 1312 4 61  that
: 1316 3 59  door
- 1320
: 1320 3 59 I
: 1324 3 59  swore
: 1328 3 59  that
: 1332 4 59  I
: 1337 3 59  did
: 1341 2 59 n't
: 1344 4 63  care
: 1348 4 61 ~
- 1354
: 1358 2 66 But
: 1360 3 66  I
: 1363 4 66  lost
: 1369 5 66  ev
: 1375 4 66 ery
: 1379 6 61 thing
: 1385 6 61  dar
: 1391 4 63 ling
- 1396
: 1396 5 63 Then
: 1401 5 59  and
: 1406 4 54 ~
: 1411 9 54  there
- 1422 1442
: 1462 4 66 Too
: 1467 3 66  strong
: 1471 2 63  to
: 1474 4 66  tell
: 1478 2 63  you
: 1481 3 61  I
: 1485 3 63  was
: 1488 4 59 ~
- 1493
: 1495 2 61 Sor
: 1497 4 59 ~
: 1502 5 59 ry
- 1509 1510
: 1526 4 66 Too
* 1531 5 66  proud
: 1536 3 63  to
: 1539 4 66  tell
: 1543 2 63  you
: 1545 3 61  I
: 1549 2 63  was
: 1551 3 59 ~
: 1554 4 59  wrong
- 1559
: 1559 3 66 I
: 1563 3 66  know
: 1567 3 66  that
: 1570 1 68  I
: 1571 3 66 ~
: 1575 3 66  was
: 1579 2 66  blind
: 1581 7 68 ~
- 1589
: 1591 3 66 And
: 1595 3 66  dar
: 1599 3 66 ling
: 1603 3 66  if
: 1607 3 66  I
: 1611 3 63  could
- 1615
: 1615 10 66 Turn
: 1627 7 66  back
: 1635 4 66  time
: 1639 6 59 ~
- 1647 1648
: 1667 3 66 If
: 1671 3 66  I
: 1675 3 63  could
: 1679 11 66  find
: 1691 4 66  a
: 1695 3 63 ~
: 1698 4 66  way
: 1702 5 68 ~
- 1709 1710
: 1735 4 66 I'd
: 1739 3 63  take
: 1743 6 66  back
: 1751 4 66  those
: 1755 3 63 ~
: 1759 6 66  words
- 1766
: 1767 3 66 That
: 1771 3 63 ~
: 1775 4 68  hurt
: 1779 3 66 ~
: 1783 6 66  you
- 1791
: 1799 4 63 And
: 1803 8 66  you'd
: 1811 8 66  stay
- 1821
: 1827 4 66 If
: 1831 4 66  I
: 1835 4 63  could
: 1839 10 66  reach
: 1851 7 66  the
: 1859 4 66  stars
: 1863 6 59 ~
- 1871 1872
: 1891 4 66 I'd
: 1895 4 66  give
: 1899 3 63  them
: 1903 10 66  all
: 1915 4 66  to
: 1919 4 63 ~
: 1923 8 68  you
- 1933 1934
: 1959 4 66 Then
: 1963 4 63  you'd
: 1967 8 66  love
: 1975 4 59  me,
: 1982 3 68  love
: 1985 5 66 ~
: 1990 4 66  me
- 1996
* 1999 6 71 Like
: 2006 7 71  you
: 2014 3 70  used
: 2017 6 66 ~
: 2026 4 66  to
: 2030 4 68  do
: 2034 10 66 ~
: 2054 14 71  oh
- 2070 2082
: 2102 4 59 If
: 2106 4 59  I
: 2110 4 59  could
: 2114 8 63  turn
: 2122 8 63  back
: 2130 11 61  time
- 2143 2144
: 2166 3 59 If
: 2170 3 59  I
: 2174 3 59  could
: 2182 3 63  turn
: 2186 4 59 ~
: 2190 4 61  back
: 2196 7 61  time
: 2203 2 63 ~
: 2205 2 61 ~
: 2207 7 59 ~
- 2216 2217
: 2229 3 71 If
: 2233 3 71  I
: 2237 3 68  could
: 2245 3 75  turn
: 2248 3 71 ~
: 2252 3 71  back
: 2256 12 73  time
: 2268 1 75 ~
: 2269 1 73 ~
: 2270 11 71 ~
: 2281 5 68 ~
- 2288
: 2293 7 71 Oh
: 2309 8 73  ba
: 2317 2 70 by
: 2319 2 68 ~
: 2321 11 66 ~
- 2334 2399
: 2419 4 66 I
: 2424 2 66  did
: 2426 4 63 n't
: 2431 3 66  real
: 2434 3 63 ly
: 2437 5 61  mean
: 2443 6 63  to
* 2451 7 59  hurt
: 2459 6 59  you
- 2467 2468
: 2484 4 66 I
: 2488 4 66  did
: 2492 4 63 n't
: 2496 2 66  wan
: 2498 5 63 na
: 2503 4 61  see
: 2507 5 59  you
: 2512 3 59  go
- 2516
: 2516 3 66 I
: 2520 3 66  know
: 2524 3 66  I
: 2528 3 66  made
: 2532 3 66  you
: 2536 4 66  cry
: 2540 5 68 ~
- 2546
: 2547 4 66 But
: 2552 4 71  oh
: 2556 3 70 ~
: 2559 3 68  if
: 2563 3 66  I
: 2567 3 66  could
- 2571
: 2572 10 66 Turn
: 2583 5 66  back
: 2591 4 66  time
: 2596 4 59 ~
- 2602 2603
: 2623 3 66 If
: 2627 3 66  I
: 2631 4 63  could
: 2635 11 66  find
: 2647 4 66  a
: 2651 4 63 ~
: 2655 2 66  way
: 2657 6 68 ~
- 2665 2666
: 2691 4 66 I'd
: 2695 4 63  take
: 2699 4 66  back
: 2707 4 66  those
: 2711 4 63 ~
: 2715 5 66  words
- 2721
: 2723 5 66 That
: 2731 4 68  hurt
: 2735 4 66 ~
: 2739 6 66  you
- 2747
* 2751 3 66 If
: 2755 3 66  I
: 2759 3 66  could
: 2763 10 69  reach
: 2774 7 69  the
: 2782 4 69  stars
: 2786 6 62 ~
- 2794 2795
: 2814 3 69 I'd
: 2818 4 69  give
: 2822 3 66  them
: 2826 10 69  all
: 2838 4 69  to
: 2842 3 66 ~
: 2845 3 69  you
: 2848 5 71 ~
- 2855 2856
: 2882 3 69 Then
: 2886 3 66  you'd
* 2889 7 69  love
: 2897 5 69  me,
: 2905 6 69  love
: 2912 5 69  me
- 2918
: 2920 11 74 Like
: 2932 3 74  you
: 2936 3 73  used
: 2939 6 69 ~
: 2948 4 66  to
: 2952 4 71  do
: 2956 9 69 ~
- 2967
: 2972 3 69 If
: 2976 4 69  I
: 2981 3 69  could
: 2985 11 69  turn
: 2997 6 69  back
: 3004 9 71  time
* 3013 33 69 ~
- 3048 3049
: 3069 2 69 If
: 3072 3 69  I
: 3076 3 69  could
: 3080 10 69  find
: 3092 4 69  a
: 3097 2 62  way
E
