#TITLE:Wonderchild
#ARTIST:Christian Walz
#LANGUAGE:English
#EDITION:SingStar Pop Hits Nordic
#GENRE:Pop
#YEAR:2004
#MP3:Christian Walz - Wonderchild.mp3
#COVER:Christian Walz - Wonderchild [CO].jpg
#BACKGROUND:Christian Walz - Wonderchild [BG].jpg
#VIDEOGAP:0
#BPM:179
#GAP:21620,11
: 0 2 63 Let
: 3 1 63  me
: 5 2 63  love
: 8 1 61  you
- 10
: 10 1 61 Let
: 12 1 61  me
: 14 3 61  be
: 18 2 58  a
: 21 6 59 round
- 29
: 31 1 54 I
: 33 1 61  pro
: 35 2 61 mise
: 38 2 61  you
- 41
: 41 2 59 I
: 44 2 59  won't
: 47 2 59  make
: 50 1 58  a
: 53 7 58  sound
- 62
: 65 1 63 'Cause
: 67 1 63  the
: 69 1 63  wind
: 71 1 61  is
- 73
: 73 1 61 Blow
: 75 1 61 ing
: 77 3 61  hard
: 81 1 58  you
: 84 3 59  see
- 89
: 91 1 54 We'll
: 93 3 61  take
: 97 2 61  a
* 100 4 66  ride
- 105
: 105 3 65 Just
: 109 3 65  you
: 113 3 63  and
: 117 7 63  me
- 126
: 128 2 63 Let's
: 131 1 63  go
: 133 2 63  down
: 137 1 61  to
- 139
: 139 1 61 The
: 141 3 61  south
: 145 2 58  of
: 149 6 59  France
- 157
: 159 1 49 But
: 161 1 61  we
: 163 1 61  can
: 165 2 61  love
- 168
: 168 1 59 I
: 170 2 59  think
: 173 2 61  there
: 176 2 59  is
: 179 1 58  a
: 182 7 58  chance
- 190
: 192 2 63 Go
: 195 3 63  down
: 201 1 61  for
: 203 1 63  the
: 205 3 61  ho
: 209 1 58 li
: 211 4 59 day
- 217
: 219 1 59 To
: 221 2 61  live
: 224 2 61  those
- 227
* 229 2 66 Hap
: 233 2 65 py
: 237 2 65  thoughts
: 241 1 63  a
: 243 6 63 gain
: 249 1 64 ~
: 250 1 65 ~
- 252
: 253 1 66 How
: 255 1 66  you
: 257 1 66  gon
: 259 1 66 na
: 261 3 66  run
- 265
: 265 2 64 At
: 267 2 61  the
: 270 3 61  speed
: 273 3 66  of
: 277 2 66  sound?
: 279 2 64 ~
- 283
: 285 4 66 Oh
: 289 4 69 ~
: 293 4 71 oh
: 297 3 73 ~
: 301 3 71 won
: 305 2 69 der
: 309 2 66 child
: 311 2 64 ~
- 315
: 317 1 66 How
: 319 1 66  you
: 321 1 66  gon
: 323 1 66 na
: 325 3 66  breathe
- 329
: 329 2 64 If
: 331 2 61  you're
: 334 2 61  un
: 337 3 66 der
: 341 2 66 ground?
: 343 2 64 ~
- 347
: 349 2 68 How
: 352 2 68  ma
: 355 1 68 ny
: 357 3 68  times
: 361 2 66  will
: 364 2 64  you
: 368 8 66  try?
: 376 3 68 ~
- 380
: 381 1 66 How
: 383 1 66  you
: 385 1 66  gon
: 387 2 66 na
: 390 2 66  walk
- 393
: 393 1 64 At
: 395 2 61  the
: 398 2 61  rain
: 401 3 66 bow's
: 405 2 66  edge?
: 407 2 64 ~
- 411
: 413 4 66 Oh
: 417 4 69 ~
: 421 4 71 oh
* 425 3 73 ~
: 429 3 71 won
: 433 2 69 der
: 437 2 66 child
: 439 2 64 ~
- 443
: 445 4 66 Oh
: 449 8 69 ~
: 457 2 71 ~
: 461 3 73 won
: 465 3 71 der
: 469 2 69 child
: 471 3 66 ~
- 475
: 476 3 68 Ev
: 480 2 68 ery
: 483 1 68 thing
: 485 3 68  comes
: 490 2 66  to
: 492 2 64  an
: 495 7 66  end
- 504 619
: 639 1 54 I
: 640 2 66  get
: 643 1 66  to
: 645 2 66  you
- 648
: 648 1 64 At
: 650 2 64  the
: 654 3 64  speed
: 657 2 61  of
: 661 6 62  sound
- 669
: 672 2 64 Real
: 675 1 64 ly
: 677 3 64  fast
: 681 2 62  when
- 684
: 684 1 64 You're
: 687 2 62  on
: 690 2 61  the
: 693 6 61  run
- 701
: 704 2 66 'Cause
: 707 1 66  the
: 709 2 66  world's
- 712
: 712 2 64 Clos
: 715 1 66 ing
: 717 3 64  in
: 720 2 62  on
: 723 2 62  us
- 727
: 730 1 52 A
: 733 2 64  se
: 736 2 64 cond
: 739 3 69  la
: 742 2 69 ter
- 745
: 745 2 68 We're
: 749 3 68  on
: 753 2 66  the
* 757 7 66  bus
- 766
: 768 2 66 You're
: 772 2 66  so
: 775 3 68  fine
- 779
: 779 1 69 And
: 781 3 69  I
: 784 4 71  love
: 789 2 69  you
: 793 4 68  so
- 798
: 799 2 66 So
: 802 1 66  beau
: 804 2 66 ti
: 807 2 68 ful
- 810
: 810 1 69 But
: 812 1 69  I
: 815 3 71  have
: 820 2 69  to
: 824 3 69  know
- 829
* 832 1 73 Is
: 835 2 73  this
: 839 3 73  real
- 843
: 843 2 71 Or
: 846 2 71  is
: 849 1 69  it
: 851 2 71  just
: 854 1 69  a
: 856 5 69  game?
- 862
: 864 1 64 Take
: 867 1 64  a
: 869 2 69  ride
- 872
: 872 2 68 Won't
: 875 2 68  come
: 878 2 68  back
: 881 2 66  the
: 884 5 66  same
- 891
: 893 1 66 How
: 895 1 66  you
: 897 1 66  gon
: 899 1 66 na
: 901 3 66  run
- 905
: 905 2 64 At
: 907 2 61  the
: 910 3 61  speed
: 913 3 66  of
: 917 2 66  sound?
: 919 2 64 ~
- 923
: 925 4 66 Oh
: 929 4 69 ~
: 933 4 71 oh
: 937 3 73 ~
: 941 3 71 won
: 945 2 69 der
: 949 2 66 child
: 951 2 64 ~
- 955
: 957 1 66 How
: 959 1 66  you
: 961 1 66  gon
: 963 1 66 na
: 965 3 66  breathe
- 969
: 969 2 64 If
: 971 2 61  you're
: 974 2 61  un
: 977 3 66 der
: 981 2 66 ground?
: 983 2 64 ~
- 986
: 988 2 68 How
: 991 2 68  ma
: 994 1 68 ny
: 996 3 68  times
: 1000 2 66  will
: 1003 2 64  you
: 1007 8 66  try?
: 1015 3 68 ~
- 1019
: 1021 1 66 How
: 1023 1 66  you
: 1025 1 66  gon
: 1027 2 66 na
: 1030 2 66  walk
- 1033
: 1033 1 64 At
: 1035 2 61  the
: 1038 2 61  rain
: 1041 3 66 bow's
: 1045 2 66  edge?
: 1047 2 64 ~
- 1051
: 1053 4 66 Oh
: 1057 4 69 ~
: 1061 4 71 oh
: 1065 3 73 ~
: 1069 3 71 won
: 1073 2 69 der
: 1077 2 66 child
: 1079 2 64 ~
- 1083
: 1085 4 66 Oh
: 1089 8 69 ~
: 1097 2 71 ~
: 1101 3 73 won
: 1105 3 71 der
: 1109 2 69 child
: 1111 3 66 ~
- 1115
: 1116 3 68 Ev
: 1120 2 68 ery
: 1123 1 68 thing
: 1125 3 68  comes
: 1130 2 66  to
: 1132 2 64  an
: 1135 7 66  end
- 1144
* 1148 16 69 Ah
: 1164 9 67 ~
- 1175
: 1180 16 67 Ah
: 1196 10 69 ~
- 1208
: 1212 16 69 Ah
: 1228 9 67 ~
- 1239
: 1244 16 67 Ah
: 1260 9 69 ~
- 1271
: 1276 16 69 Ah
: 1292 9 67 ~
- 1303
: 1308 16 67 Ah
: 1324 11 69 ~
- 1337
: 1340 16 69 Ah
: 1356 9 67 ~
- 1367
: 1372 16 67 Ah
: 1388 5 69 ~
- 1394
: 1394 1 67 And
: 1396 2 69  if
: 1400 1 71  I
: 1403 1 72  could
: 1406 5 71  be
: 1412 3 69  with
: 1416 8 69  you
- 1426
: 1428 2 69 I
: 1431 2 71  keep
: 1434 2 72  on
: 1438 6 71  won
: 1445 2 69 der
: 1448 7 69  why
- 1457
: 1460 2 69 If
: 1463 1 71  this
: 1466 2 72  whole
: 1469 5 71  es
: 1477 1 69 ca
: 1480 6 69 pade
- 1488
: 1492 1 69 Is
: 1495 2 71  it
: 1498 2 72  worth
: 1502 6 71  all
: 1508 1 69  this
: 1512 4 72  time?
: 1516 2 71 ~
: 1518 3 69 ~
- 1522
: 1522 1 67 And
: 1525 1 69  if
: 1528 1 71  I
: 1531 1 72  could
: 1534 6 71  be
: 1541 2 69  with
: 1544 8 69  you
- 1554
: 1556 2 69 I
: 1559 2 67  keep
: 1562 2 64  on
: 1566 5 67  won
: 1572 3 69 der
: 1576 7 69  why
- 1585
: 1588 2 69 If
: 1592 1 67  this
: 1594 2 64  whole
: 1598 5 62  es
: 1604 2 64 ca
: 1607 8 60 pade
- 1617
: 1620 2 60 Is
: 1623 1 62  it
: 1626 2 64  worth
* 1632 7 69  all
- 1640
F 1640 3 58 This
F 1648 5 58  time?
- 1655
F 1660 3 62 One
F 1668 3 62  two
F 1676 3 62  one
F 1680 1 62  bring
F 1682 1 62  it
F 1684 4 62  back
- 1690
: 1692 1 66 How
: 1694 1 66  you
: 1696 1 66  gon
: 1698 1 66 na
: 1700 3 66  run
- 1704
: 1704 2 64 At
: 1706 2 61  the
: 1709 3 61  speed
: 1712 3 66  of
: 1716 2 66  sound?
: 1718 2 64 ~
- 1722
: 1724 4 66 Oh
: 1728 4 69 ~
: 1732 4 71 oh
: 1736 3 73 ~
: 1740 3 71 won
: 1744 2 69 der
* 1748 2 66 child
: 1750 2 64 ~
- 1754
: 1756 1 66 How
: 1758 1 66  you
: 1760 1 66  gon
: 1762 1 66 na
: 1764 3 66  breathe
- 1768
: 1768 2 64 If
: 1770 2 61  you're
: 1773 2 61  un
: 1776 3 66 der
: 1780 2 66 ground?
: 1782 2 64 ~
- 1786
: 1788 2 68 How
: 1791 2 68  ma
: 1794 1 68 ny
: 1796 3 68  times
: 1800 2 66  will
: 1803 2 64  you
: 1807 8 66  try?
* 1815 3 68 ~
- 1819
: 1820 1 66 How
: 1822 1 66  you
: 1824 1 66  gon
: 1826 2 66 na
: 1829 2 66  walk
- 1832
: 1832 2 64 At
: 1835 1 61  the
: 1837 1 61  rain
: 1840 2 66 bow's
: 1844 2 66  edge?
: 1846 2 64 ~
- 1850
: 1852 4 66 Oh
: 1856 4 69 ~
: 1860 4 71 oh
: 1864 3 73 ~
: 1868 3 71 won
: 1872 2 69 der
: 1876 2 66 child
: 1878 2 64 ~
- 1882
: 1884 4 66 Oh
: 1888 8 69 ~
: 1896 2 71 ~
: 1900 3 73 won
: 1904 3 71 der
: 1908 2 69 child
: 1910 3 66 ~
- 1914
: 1916 3 68 Ev
: 1920 1 68 ery
: 1922 2 68 thing
: 1925 2 68  comes
: 1929 3 66  to
: 1932 1 64  an
: 1934 3 66  end
- 1938
: 1938 1 66 And
: 1940 2 66  if
: 1943 1 68  I
: 1946 2 69  could
: 1949 6 68  be
: 1956 3 66  with
: 1960 8 66  you
- 1969
: 1971 2 66 I
: 1974 2 68  keep
: 1977 2 69  on
: 1981 6 68  won
: 1988 2 66 der
: 1991 7 66  why
- 2000
: 2003 2 66 If
: 2006 1 68  this
: 2009 2 69  whole
: 2013 5 68  es
: 2020 1 66 ca
: 2023 6 66 pade
- 2031
: 2035 1 66 Is
: 2038 2 68  it
: 2041 2 69  worth
: 2045 6 68  all
: 2051 1 66  this
: 2055 4 69  time?
: 2059 2 68 ~
: 2061 3 66 ~
- 2065
: 2065 1 66 And
: 2068 1 66  if
: 2071 1 68  I
: 2074 1 69  could
: 2077 6 68  be
: 2084 2 66  with
: 2087 8 66  you
- 2097
: 2099 1 66 I
: 2102 2 68  keep
: 2105 2 69  on
: 2109 6 68  won
: 2115 1 66 der
: 2119 6 66  why
- 2127
: 2131 2 66 If
: 2135 1 68  this
: 2137 2 69  whole
: 2141 5 68  es
: 2148 1 66 ca
: 2151 6 66 pade
- 2159 2160
: 2171 3 68 Ev
: 2175 2 68 ery
: 2178 1 68 thing
: 2180 3 68  comes
: 2185 2 66  to
: 2187 1 64  an
* 2189 8 66  end
E
