#TITLE:AM To PM
#ARTIST:Christina Milian
#MP3:Christina Milian - AM To PM.mp3
#COVER:Christina Milian - AM To PM [CO].jpg
#BACKGROUND:Christina Milian - AM To PM [BG].jpg
#VIDEO:Christina Milian - AM To PM.divx
#BPM:340
#GAP:3554,12
: 0 4 67 Some
: 6 2 67 bo
: 9 2 67 dy
: 12 4 67  hit
: 19 6 65  the
: 25 4 67  lights
- 31
: 49 2 65 So
: 52 2 67  we
: 55 2 67  can
: 58 2 67  rock
: 61 2 67  it
: 65 4 67  day
: 71 5 65  and
: 78 4 67  night
- 84
: 103 3 67 Peo
: 107 2 67 ple
: 110 2 67  get
: 113 2 67 tin'
: 117 4 67  down
: 123 3 68  that's
: 130 7 65  right
- 139
: 151 2 63 From
: 155 6 65  A
: 161 2 63  M
: 165 2 63  to
: 168 7 65  P
: 175 5 63  M
- 182
: 206 4 67 Ev
: 210 2 67 ery
: 213 3 67 bo
: 216 3 67 dy
: 220 3 67  look
: 223 2 67 in'
: 226 6 65  like
: 233 5 67  stars
- 240
: 252 2 65 All
: 255 2 65  the
: 259 4 67  chicks
- 264
: 265 2 67 And
: 268 2 67  the
: 272 2 67  fel
: 275 3 67 las
: 278 3 65  in
: 281 4 65  the
: 285 6 67  bars
- 293
: 304 3 67 All
: 307 3 67  o'
: 311 3 67  y'all
: 317 4 67  bump
: 321 3 67 in'
: 324 2 67  this
- 328
: 330 3 68 In
: 333 3 68  your
: 338 7 65  cars
- 347
: 358 2 63 From
: 362 6 65  A
: 368 2 63  M
: 372 2 63  to
: 376 6 65  P
: 382 5 63  M
- 389
F 420 9 36 Uh
- 431
F 473 3 36 Come
F 476 7 36  on
- 485
F 524 11 36 Yeah
- 537
: 633 14 63 Yeah
- 649
: 686 6 63 Oh
: 692 2 65 ~
: 695 4 67  ooh
: 699 3 66 ~
: 702 4 67 ~
- 708
: 712 3 65 Yeah
: 715 3 63 ~
: 718 7 65 ~
: 725 8 67  yeah
- 735
: 738 6 63 Yeah
: 744 6 63 ~
: 751 4 60 ~
- 757
: 783 6 65 Oh
: 789 7 63 ~
- 797
: 799 6 67 Ev
: 805 2 67 ery
: 808 3 67 bo
: 812 2 67 dy
: 815 3 65  wan
: 818 2 65 na
: 821 3 65  get
: 825 8 63  down
- 834
: 835 2 63 When
: 838 3 63  you
: 841 5 62  hear
: 847 2 62  the
: 851 7 60  sound
- 859
: 860 2 60 And
: 863 3 60  you
: 867 6 62  bump
: 873 2 58  the
: 877 8 60  beat
- 887
: 899 4 60 Three
: 906 3 67 six
: 909 2 67 ty
: 912 5 67 five
: 919 4 65  days
: 925 3 65  a
* 929 8 63  year
- 938
: 939 2 63 Twen
: 942 3 63 ty
: 945 5 62 four
: 951 2 63  a
: 955 7 63  day
- 963
: 964 2 63 Se
: 967 3 63 ven
: 971 6 65  days
: 977 2 67  a
: 981 3 65  week
: 984 9 63 ~
- 995
: 1000 3 58 Now
: 1003 2 58  when
: 1006 2 63  you're
: 1009 3 67  driv
: 1013 2 67 in'
- 1016
: 1016 2 67 In
: 1019 2 67  your
: 1022 5 65  four
: 1028 2 65 by
: 1032 8 63 four
- 1041
: 1042 2 63 And
: 1045 3 63  you
: 1048 5 62  turn
: 1054 2 62  this
: 1058 7 60  up
- 1066
: 1067 2 60 On
: 1070 3 60  your
: 1074 6 62  ste
: 1080 2 58 re
* 1084 8 60 o
- 1094
: 1106 2 60 Whe
: 1109 3 60 ther
: 1113 5 67  night
: 1119 2 67  or
: 1123 3 70  day
: 1126 5 66 ~
- 1132
: 1132 5 65 Non
: 1139 4 65 stop
: 1145 2 65  you'll
: 1148 4 65  play
: 1152 4 63 ~
- 1157
: 1158 3 63 And
: 1161 3 63  you
: 1165 5 62  know
: 1171 2 62  you
: 1175 7 65  still
: 1184 5 67  want
: 1191 3 65  more
: 1194 7 63 ~
- 1202
: 1203 10 67 So
: 1213 4 65 ~
- 1219
: 1236 3 63 Find
: 1239 2 63  a
: 1242 3 63  ho
: 1245 2 63 ney
: 1249 3 63  that's
- 1254
: 1256 3 63 Stand
: 1259 2 63 ing
: 1262 2 63  on
: 1265 3 65  the
: 1268 7 67  wall
- 1277
: 1288 2 67 All
: 1291 2 67  the
: 1294 5 67  girls
: 1301 2 67  get
: 1304 2 67  their
: 1307 4 68  guys
- 1312
: 1314 3 67 On
: 1317 3 67  the
: 1320 6 65  floor
- 1328
: 1339 3 67 From
: 1342 2 67  the
: 1346 5 67  front
: 1353 2 67  to
: 1355 3 67  the
: 1359 4 67  back
- 1364
: 1366 6 67 Let's
: 1373 6 67  go
- 1381
: 1391 6 68 Hear
: 1398 5 67  this
- 1405
F 1410 11 36 Woo
- 1423
: 1450 4 63 Some
: 1456 2 63 bo
: 1459 2 63 dy
: 1463 4 63  hit
: 1470 6 62  the
: 1476 4 63  lights
- 1482
: 1498 2 63 So
: 1501 2 63  we
: 1505 2 63  can
: 1508 2 63  rock
: 1512 2 63  it
: 1515 4 63  day
: 1521 5 62  and
: 1528 4 63  night
- 1534
: 1553 3 63 Peo
: 1557 2 63 ple
: 1560 2 63  get
: 1563 2 63 tin'
: 1567 4 63  down
: 1573 3 65  that's
: 1580 7 60  right
- 1589
: 1601 2 60 From
: 1605 6 62  A
: 1611 2 60  M
: 1615 2 60  to
* 1618 7 62  P
: 1625 5 60  M
- 1632
: 1656 4 63 Ev
: 1660 2 63 ery
: 1663 3 63 bo
: 1666 3 63 dy
: 1670 3 63  look
: 1673 2 63 in'
: 1676 6 62  like
: 1683 7 63  stars
- 1692
: 1702 2 63 All
: 1705 2 63  the
: 1709 4 63  chicks
- 1714
: 1715 2 63 And
: 1718 2 63  the
: 1722 2 63  fel
: 1725 3 63 las
: 1728 3 62  in
: 1731 4 62  the
: 1735 6 63  bars
- 1743
: 1754 3 63 All
: 1757 3 63  o'
: 1761 3 63  y'all
: 1767 4 63  bump
: 1771 3 63 in'
: 1774 2 63  this
- 1778
: 1780 3 65 In
: 1783 3 65  your
: 1788 7 60  cars
- 1797
: 1808 2 60 From
: 1812 6 62  A
: 1818 2 60  M
: 1822 2 60  to
: 1825 7 62  P
: 1832 5 60  M
- 1839
: 1988 5 67 Ooh
: 1993 3 66 ~
: 1996 7 67 ~
- 2005
: 2013 4 63 Yeah
: 2017 3 60 ~
: 2020 7 63 ~
- 2029
: 2039 2 60 Ev
: 2042 2 60 ery
: 2045 2 67 bo
: 2048 2 67 dy
: 2051 3 67  in
: 2055 2 67  the
: 2058 4 65  club
: 2064 3 65  come
: 2068 8 63  on
- 2077
: 2078 2 63 Keep
: 2084 3 62  bob
: 2087 3 62 bin'
: 2090 2 62  ya
: 2094 7 60  head
: 2103 3 60  now
- 2108
: 2110 2 65 To
: 2116 2 58  this
* 2123 8 60  song
- 2133
: 2139 2 60 You
: 2142 2 60  got
: 2145 2 60  the
: 2149 4 67  beats
: 2155 3 67  and
: 2159 4 65  breaks
- 2165
: 2168 3 65 And
: 2171 2 65  your
: 2175 5 63  bo
: 2181 2 63 dy
: 2185 6 62  shak
: 2194 2 62 in'
- 2197
: 2197 2 63 We're
: 2201 3 63  do
: 2204 3 63 in'
: 2208 2 63  it
- 2212
: 2214 2 65 All
: 2220 4 60  night
: 2227 9 63  long
- 2238
: 2246 2 60 A
: 2249 2 60 ny
: 2252 5 67  time
: 2259 2 67  or
: 2262 5 65  place
- 2269
: 2271 2 65 A
: 2274 2 65 ny
: 2278 5 63  place
: 2285 2 63  or
: 2289 5 62  time
- 2295
: 2297 6 62 No
: 2304 4 63  we
: 2310 5 63  don't
: 2317 3 65  need
: 2323 2 60  no
: 2331 8 63  sleep
- 2341
: 2349 5 60 Three
: 2356 3 67 six
: 2359 2 67 ty
: 2362 5 67 five
: 2369 3 70  days
: 2372 3 65 ~
: 2375 2 65  a
: 2378 4 65  year
: 2382 4 63 ~
- 2387
: 2388 2 63 Twen
: 2391 4 63 ty
: 2395 4 62 four
: 2401 2 63  a
: 2405 6 63  day
- 2412
: 2414 2 63 Se
: 2417 2 63 ven
: 2421 6 65  days
: 2427 4 67  a
: 2431 3 65  week
: 2434 7 63 ~
- 2443
* 2446 10 67 So
: 2456 4 65 ~
- 2462
: 2479 3 63 Find
: 2482 2 63  a
: 2485 3 63  ho
: 2488 2 63 ney
: 2492 3 63  that's
- 2497
: 2499 3 63 Stand
: 2502 2 63 ing
: 2505 2 63  on
: 2508 3 65  the
: 2511 7 67  wall
- 2520
: 2531 2 67 All
: 2534 2 67  the
: 2537 5 67  girls
: 2544 2 67  get
: 2547 2 67  their
: 2550 4 68  guys
- 2555
: 2557 3 67 On
: 2560 3 67  the
: 2563 6 65  floor
- 2571
: 2582 3 67 From
: 2585 2 67  the
: 2589 5 67  front
: 2596 2 67  to
: 2598 3 67  the
: 2602 4 67  back
- 2607
: 2609 6 67 Let's
: 2616 6 67  go
- 2624
: 2634 6 68 Hear
: 2641 5 67  this
- 2648
F 2654 10 36 Woo
- 2666
: 2693 4 63 Some
: 2699 2 63 bo
: 2703 2 63 dy
: 2706 4 63  hit
: 2712 6 62  the
: 2719 4 63  lights
- 2725
: 2741 2 63 So
: 2744 2 63  we
: 2748 2 63  can
: 2751 2 63  rock
: 2755 2 63  it
: 2758 4 63  day
: 2764 5 62  and
: 2771 4 63  night
- 2777
: 2796 3 63 Peo
: 2800 2 63 ple
: 2803 2 63  get
: 2806 2 63 tin'
: 2810 4 63  down
: 2816 3 65  that's
: 2823 7 60  right
- 2832
: 2844 2 60 From
: 2848 6 62  A
: 2854 2 60  M
: 2858 2 60  to
: 2861 7 62  P
: 2868 5 60  M
- 2875
: 2899 4 63 Ev
: 2903 2 63 ery
: 2906 3 63 bo
: 2909 3 63 dy
: 2913 3 63  look
: 2916 2 63 in'
: 2919 6 62  like
: 2926 4 63  stars
- 2932
: 2945 2 63 All
: 2948 2 63  the
: 2952 4 63  chicks
- 2957
: 2958 2 63 And
: 2961 2 63  the
: 2965 2 63  fel
: 2968 3 63 las
: 2971 3 62  in
: 2974 4 62  the
: 2978 4 63  bars
- 2984
: 2997 3 63 All
: 3000 3 63  o'
: 3004 3 63  y'all
: 3010 4 63  bump
: 3014 3 63 in'
: 3017 2 63  this
- 3021
: 3023 3 65 In
: 3026 3 65  your
: 3030 7 60  cars
- 3039
: 3051 2 60 From
: 3055 6 62  A
: 3061 2 60  M
: 3065 2 60  to
: 3068 7 62  P
: 3075 5 60  M
- 3082
: 3127 2 62 From
: 3130 3 65  the
: 3134 5 67  front
: 3140 2 67  to
: 3142 2 67  the
: 3146 6 67  back
- 3153
: 3153 3 67 Come
: 3156 9 68  on
: 3166 3 68  and
: 3172 5 67  bob
: 3179 4 65  your
: 3185 8 65  head
- 3195
: 3198 6 67 Yeah
: 3204 4 65 ~
: 3208 3 67 ~
* 3211 8 65 ~
- 3221
: 3231 3 62 Three
: 3237 2 65 six
: 3239 2 67 ty
: 3243 4 67 five
: 3249 5 68  days
: 3255 2 70  a
: 3259 7 68  year
- 3268
: 3270 2 67 Twen
: 3272 2 68 ty
: 3276 5 67 four
: 3282 2 65  a
: 3288 8 65  day
- 3298
: 3301 6 67 Yeah
: 3307 3 65 ~
: 3310 4 67 ~
: 3314 9 65 ~
: 3323 3 63 ~
: 3327 7 67  yeah
: 3334 4 65 ~
- 3340
: 3346 6 72 No
: 3353 4 67  we
: 3359 6 67  don't
: 3366 6 70  need
: 3373 5 67  no
: 3379 8 65  sleep
- 3389
: 3398 6 72 All
: 3405 5 67  night
: 3412 6 67  we
: 3418 6 70  rock
: 3424 6 67  that
: 3431 8 65  beat
- 3441
: 3450 6 72 So
: 3457 4 67  you
: 3463 4 67  know
: 3470 5 70  what
: 3476 6 67  to
: 3482 4 65  do
- 3487
: 3489 3 63 Just
: 3496 4 65  make
: 3502 3 63  your
: 3508 5 63  move
: 3515 3 63  and
- 3519
: 3521 4 65 Make
: 3527 3 63  your
* 3534 6 67  move
: 3540 3 65 ~
- 4196
: 4223 4 63 Some
: 4229 2 63 bo
: 4233 2 63 dy
: 4236 4 63  hit
: 4243 6 62  the
: 4249 4 63  lights
- 4255
: 4271 2 63 So
: 4274 2 63  we
: 4278 2 63  can
: 4281 2 63  rock
: 4284 2 63  it
: 4288 5 63  day
: 4294 5 62  and
* 4301 4 63  night
- 4307
: 4326 3 63 Peo
: 4330 2 63 ple
: 4333 2 63  get
: 4336 2 63 tin'
: 4340 4 63  down
: 4346 3 65  that's
: 4353 7 60  right
- 4362
: 4374 2 60 From
: 4378 6 62  A
: 4384 2 60  M
: 4388 2 60  to
: 4391 7 62  P
: 4398 5 60  M
- 4405
: 4429 4 63 Ev
: 4433 2 63 ery
: 4436 3 63 bo
: 4439 3 63 dy
: 4443 3 63  look
: 4446 2 63 in'
: 4449 6 62  like
: 4456 4 63  stars
- 4462
: 4475 2 63 All
: 4478 2 63  the
: 4482 4 63  chicks
- 4487
: 4488 2 63 And
: 4491 2 63  the
: 4495 2 63  fel
: 4498 3 63 las
: 4501 3 62  in
: 4504 4 62  the
: 4508 6 63  bars
- 4516
: 4527 3 63 All
: 4530 3 63  o'
: 4534 3 63  y'all
: 4540 4 63  bump
: 4544 3 63 in'
: 4547 2 63  this
- 4551
: 4553 3 65 In
: 4556 3 65  your
* 4560 7 60  cars
- 4569
: 4581 2 60 From
: 4585 6 62  A
: 4591 2 60  M
: 4595 2 60  to
: 4598 7 62  P
: 4605 5 60  M
- 4612
F 4625 11 36 Woo
- 4637
: 4637 4 63 Some
: 4643 2 63 bo
: 4647 2 63 dy
: 4650 4 63  hit
: 4657 6 62  the
: 4663 4 63  lights
- 4669
: 4685 2 63 So
: 4688 2 63  we
: 4692 2 63  can
: 4695 2 63  rock
: 4698 2 63  it
: 4702 5 63  day
: 4708 5 62  and
: 4715 4 63  night
- 4721
: 4740 3 63 Peo
: 4744 2 63 ple
: 4747 2 63  get
: 4750 2 63 tin'
* 4754 4 63  down
: 4760 3 65  that's
: 4767 7 60  right
- 4776
: 4788 2 60 From
: 4792 6 62  A
: 4798 2 60  M
: 4802 2 60  to
: 4805 7 62  P
: 4812 5 60  M
- 4819
: 4843 4 63 Ev
: 4847 2 63 ery
: 4850 3 63 bo
: 4853 3 63 dy
: 4857 3 63  look
: 4860 2 63 in'
: 4863 6 62  like
: 4870 4 63  stars
- 4876
: 4889 2 63 All
: 4892 2 63  the
: 4896 4 63  chicks
- 4901
: 4902 2 63 And
: 4905 2 63  the
: 4909 2 63  fel
: 4912 3 63 las
: 4915 3 62  in
: 4918 4 62  the
: 4922 5 63  bars
- 4929
: 4941 3 63 All
: 4944 3 63  o'
: 4948 3 63  y'all
: 4954 4 63  bump
: 4958 3 63 in'
: 4961 2 63  this
- 4965
: 4967 3 65 In
: 4970 3 65  your
: 4974 7 60  cars
- 4983
: 4995 2 67 From
: 4999 6 68  A
: 5005 2 67  M
: 5009 2 67  to
: 5012 7 68  P
: 5019 5 67  M
- 5026
: 5204 2 60 From
: 5207 6 62  A
: 5213 2 60  M
: 5217 2 60  to
: 5221 6 62  P
: 5227 5 60  M
E
