#TITLE:Saviour's day
#ARTIST:Cliff Richard
#EDITION:X-Mas
#MP3:Cliff Richard - Saviour's day.mp3
#COVER:Cliff Richard - Saviour's day [CO].jpg
#BACKGROUND:Cliff Richard - Saviour's day [BG].jpg
#BPM:165
#GAP:21000
: 0 6 5 Now
: 6 5 5  we
: 11 3 5  have
: 14 5 5  been
: 19 4 7  through
: 23 2 10  the
: 25 7 12  har
: 32 6 14 vest
- 40 41
: 53 4 3 Win
: 57 4 3 ter
: 61 4 3  has
: 65 2 3  true
: 67 6 5 ly
: 73 5 7  be
: 78 7 5 gun
- 87 88
: 104 4 5 Now
: 108 4 5  we
: 112 4 5  have
: 116 4 5  walked
: 120 4 7  in
: 124 2 10  the
: 126 8 12  chill
: 134 4 12  of
: 138 3 14  the
: 141 5 15  night
- 148
: 151 2 14 We
: 153 2 15  are
: 155 5 17  wait
: 160 4 10 ing
: 164 4 10  for,
: 168 4 17  wait
: 172 4 10 ing
: 176 11 10  for
- 189
: 193 2 10 For
: 195 2 12  the
: 197 5 14  Sav
: 202 4 12 iour's
: 206 19 10  Day
- 227 288
: 308 2 5 Ma
: 310 7 5 ny
: 317 4 5  have
: 321 4 5  come
: 325 5 7  from
: 330 2 10  the
: 332 7 12  val
: 339 6 14 leys
- 347 348
: 359 2 3 Ma
: 361 7 3 ny
: 368 4 3  have
: 372 4 3  come
: 376 5 5  from
: 381 2 7  the
: 383 10 5  hills
- 395 396
: 410 2 5 Ma
: 412 7 5 ny
: 419 3 5  have
: 422 6 5  start
: 428 4 7 ed
: 432 4 10  their
: 436 8 12  jour
: 444 5 14 ney
: 449 5 15  home
- 455
: 457 2 14 to
: 459 2 15  be
: 461 4 17  with
: 466 4 10  some
: 470 5 10 one,
: 475 3 17  with
: 479 4 10  some
: 483 7 10 one
- 492
: 499 3 10 On
: 502 2 12  the
: 504 4 14  Sav
: 508 4 12 iour's
: 512 22 10  Day
- 536 545
: 565 7 17 O
: 572 2 14 pen
: 574 3 15  your
: 577 8 17  eyes
: 585 4 14  on
: 589 9 12  Sav
: 598 4 10 iour's
: 602 4 7  day
- 608
: 615 8 5 Don't
: 623 4 12  look
: 627 9 12  back
: 636 2 14  o
: 638 2 12 ~r
: 640 9 10  turn
: 649 4 7  a
: 653 5 5 way
- 660
: 666 6 17 Life
: 674 2 14  can
: 676 2 15  be
: 678 7 17  yours
: 687 2 15  if
: 689 2 14  you'll
: 691 8 12  on
: 699 3 10 ly
* 704 33 19  stay
- 739 740
: 751 2 14 He
: 753 3 15  is
: 756 4 17  cal
: 760 4 10 ling
: 764 4 10  you,
: 768 4 17  cal
: 772 5 10 ling
: 777 5 10  you
- 784 785
: 794 2 10 On
: 796 2 12  the
: 798 4 14  Sa
: 802 4 12 viour's
: 806 21 10  Day
- 829 888
: 908 3 5 Join
: 911 6 5 ing
: 917 4 5  the
: 921 4 5  old
: 925 5 7  and
: 930 4 10  the
: 934 4 12  young
: 938 5 14  ones
- 945 946
: 959 3 3 Join
: 962 5 3 ing
: 968 4 3  the
: 972 5 3  black
: 977 4 5  and
: 981 4 7  the
: 985 11 5  white
- 998 999
: 1010 4 5 Mee
: 1014 5 5 ting
: 1019 4 5  the
: 1023 5 5  need
: 1028 4 7  of
: 1032 4 10  the
: 1036 5 12  hun
: 1041 4 12 gry
: 1045 3 14  is
: 1049 4 15  he
- 1055
: 1057 2 14 Will
: 1059 3 15  we
: 1062 4 17  e
: 1066 4 10 ver
: 1070 4 10  re
: 1074 4 17 mem
: 1078 4 10 ber
: 1082 9 10  him
- 1093
: 1099 3 10 On
: 1102 2 12  the
: 1104 4 14  Sa
: 1108 5 12 viour's
: 1113 22 10  Day
- 1137 1138
: 1164 8 17 O
: 1172 3 14 pen
: 1175 2 15  your
: 1177 8 17  eyes
: 1186 3 14  on
: 1190 8 12  Sav
: 1198 4 10 iour's
: 1202 6 7  Day
- 1210
: 1215 8 5 Don't
: 1223 4 12  look
: 1227 9 12  back
: 1236 2 14  o
: 1238 2 12 ~r
: 1240 9 10  turn
: 1249 4 7  a
: 1253 4 5 way
- 1259
: 1266 5 17 Life
: 1274 2 14  can
: 1276 3 15  be
: 1279 6 17  yours
: 1287 2 15  if
: 1289 3 14  you'll
: 1292 8 12  on
: 1300 2 10 ly
* 1304 34 19  stay
- 1340
: 1347 5 14 He
: 1352 3 15  is
: 1356 4 17  cal
: 1360 4 10 ling
: 1364 4 10  you,
: 1368 4 17  cal
: 1372 5 10 ling
: 1377 11 10  you
- 1390
: 1394 2 10 On
: 1396 2 12  the
: 1398 4 14  Sa
: 1402 4 12 viour's
: 1406 18 10  Day
: 1432 21 17  he
: 1453 2 15 je
: 1455 3 17 hi
: 1458 29 19 jeh
- 1489 1642
: 1662 4 17 Here's
: 1666 5 17  to
: 1671 4 17  the
: 1675 4 17  God
: 1679 4 15  of
: 1683 4 14  the
: 1687 4 12  pre
: 1691 5 10 sent
- 1698 1699
: 1713 4 3 Here's
: 1717 6 3  to
: 1723 2 3  the
: 1725 5 3  God
: 1730 4 5  of
: 1734 4 7  the
: 1738 12 5  past
- 1752 1753
: 1764 4 5 Here's
: 1769 3 5  to
: 1773 4 5  the
: 1777 4 5  hope
: 1781 4 7  in
: 1785 5 10  the
: 1790 4 12  fu
: 1794 4 12 ture
: 1798 4 14  he
: 1802 5 15  brings
- 1809
: 1811 2 14 We
: 1813 2 15  will
: 1815 4 17  sing
: 1819 4 10  to
: 1823 3 10  him,
: 1827 5 17  sing
: 1832 4 10  to
: 1836 10 10  him
- 1848
: 1853 3 10 On
: 1856 2 12  the
: 1858 4 14  Sav
: 1862 4 12 iour's
: 1866 20 10  Day
- 1888 1898
: 1918 8 17 O
: 1926 2 14 pen
: 1928 2 15  your
: 1930 9 17  eyes
: 1939 2 14  on
: 1943 8 12  Sav
: 1951 5 10 iour's
: 1956 5 7  Day
- 1963
: 1969 8 5 Don't
: 1977 4 12  look
: 1981 8 12  back
: 1989 2 14  o
: 1991 3 12 ~r
: 1994 8 10  turn
: 2002 4 12  a
: 2006 7 14 way
- 2015
: 2019 6 17 Life
: 2028 2 14  can
: 2030 2 15  be
: 2032 8 17  yours
: 2041 2 15  if
: 2043 2 14  you'll
: 2045 7 12  on
: 2052 3 10 ly
* 2058 31 19  stay
- 2091 2092
: 2101 4 14 He
: 2105 4 15  is
: 2109 4 17  call
: 2113 4 10 ing
: 2117 4 10  you,
: 2121 5 17  call
: 2126 4 10 ing
: 2130 8 10  you
- 2140
: 2147 2 10 On
: 2149 2 12  the
: 2151 4 14  Sav
: 2155 5 12 iour's
: 2160 17 10  Day
- 2179 2180
: 2198 2 10 On
: 2200 2 12  the
: 2202 5 14  Sav
: 2207 4 12 iour's
: 2211 13 10  Day
- 2226 2227
: 2250 2 10 On
: 2252 2 12  the
: 2254 4 14  Sav
: 2258 4 12 iour's
: 2262 17 14  Day
- 2281 2282
: 2301 4 19 He
: 2305 5 17 ~
: 2310 4 17  is
: 2314 12 17  cal
: 2326 3 14 li
: 2329 2 12 ~
: 2331 3 10 n
: 2335 4 14  yo
: 2339 10 12 ~u
- 2350
: 2352 2 10 On
: 2354 2 12  the
: 2356 4 14  Sav
: 2360 4 12 iour's
: 2364 23 10  Day
- 2389 2390
: 2403 2 10 On
: 2405 2 12  the
: 2407 4 14  Sav
: 2411 5 12 iour's
: 2416 21 10  Day
- 2439 2440
: 2453 3 15 On
: 2456 2 14  the
: 2458 5 12  Sav
: 2463 4 10 iour's
: 2467 21 14  Day
- 2490 2491
: 2505 2 10 On
: 2507 2 12  the
: 2509 4 14  Sav
: 2513 5 12 iour's
: 2518 14 10  Day
- 2534 2561
: 2581 5 15 Raise
: 2586 5 15  all
: 2592 2 12  your
: 2594 5 12  glas
: 2599 3 12 ses
- 2604
: 2607 4 14 Drink
: 2611 4 12  to
: 2615 4 10  the
: 2619 6 10  King
- 2627
: 2632 5 15 Raise
: 2637 4 15  all
: 2643 2 12  your
: 2645 5 12  glas
: 2650 4 12 ses
- 2656
: 2658 4 14 Drink
: 2662 4 12  to
: 2666 4 10  the
: 2670 6 10  King
- 2678
: 2684 4 15 Raise
: 2688 4 15  all
: 2694 2 12  your
: 2696 5 12  glas
: 2701 4 12 ses
- 2707
: 2709 4 14 Drink
: 2713 4 12  to
: 2717 4 10  the
: 2721 8 10  King
- 2731
: 2735 4 15 Raise
: 2739 4 15  all
: 2745 3 12  your
: 2748 4 12  glas
: 2752 4 12 ses
- 2758
: 2760 4 14 Drink
: 2764 5 12  to
: 2769 4 10  the
: 2773 6 10  King
- 2781
: 2786 4 15 Raise
: 2790 4 15  all
: 2796 3 12  your
: 2799 4 12  glas
: 2803 4 12 ses
- 2809
: 2811 4 14 Drink
: 2815 5 12  to
: 2820 3 10  the
: 2823 7 10  King
- 2832
: 2837 4 15 Raise
: 2841 4 15  all
: 2847 2 12  your
: 2849 5 12  glas
: 2854 4 12 ses
- 2860
: 2863 4 14 Drink
: 2867 4 12  to
: 2871 3 10  the
: 2874 8 10  King
E
