#TITLE:We Don't Talk Anymore
#ARTIST:Cliff Richard
#MP3:Cliff Richard - We Don't Talk Anymore.mp3
#VIDEO:Cliff Richard - We Don't Talk Anymore [VD#0,573].mp4
#COVER:Cliff Richard - We Don't Talk Anymore.jpg
#BPM:446,8
#GAP:18182
#VIDEOGAP:0,07
#MedleyStartBeat:1666
#MedleyEndBeat:2324
#ENCODING:UTF8
#PREVIEWSTART:74,919
#GENRE:Other
#YEAR:1989
: 0 8 16 Used
: 10 4 16  to
: 18 6 14  think
: 26 6 12  that
: 34 12 12  life
: 50 4 11  was
: 58 20 15  sweet
- 80
: 144 8 12 Used
: 154 4 12  to
: 160 6 12  think
: 168 6 10  we
: 176 4 12  were
: 184 12 14  so
: 200 6 14  com
: 208 4 11 ple
: 212 4 9 e
: 216 8 8 ete
- 226
: 264 6 7 I
: 274 6 9  can't
: 282 6 12  be
: 290 14 12 li
: 304 12 9 iieve
- 318
: 344 6 10 You'd
: 352 8 12  throw
: 362 4 14  it
: 370 4 16  a
: 376 20 16 way
- 398
: 504 14 16 Used
: 520 6 16  to
: 528 6 14  feel
: 536 6 12  we
: 544 14 12  had
: 560 6 11  it
: 568 16 16  made
- 586
: 656 6 12 Used
: 666 4 12  to
: 672 6 12  feel
: 680 6 9  we
: 688 6 12  could
: 698 12 14  sail
: 712 6 14  a
: 720 4 11 wa
: 724 4 9 a
: 728 8 8 ay
- 738
: 776 4 7 Can
: 784 6 9  you
: 792 6 12  i
: 800 16 12 ma
: 816 12 9 gine
- 830
: 856 4 10 How
: 864 6 12  I
: 872 6 14  feel
: 880 6 16  to
: 888 20 16 day
- 910
: 1000 6 14 Well
: 1008 6 16  it
: 1016 14 17  seems
: 1032 6 17  a
: 1040 12 16  long
: 1056 14 14  time
: 1074 4 12  a
: 1080 4 14 go
: 1084 4 12 o
: 1088 12 11 o
- 1102
: 1128 4 11 You
: 1136 6 11  were
: 1146 4 10  the
: 1152 24 10  lone
: 1176 6 15 ly
: 1184 32 15  one
- 1218
: 1280 6 17 Now
: 1288 6 17  it
: 1298 8 16  comes
: 1308 4 16  to
: 1314 12 14  let
: 1328 4 12 ting
: 1336 16 14  go
: 1352 8 12 o
: 1360 4 10 o
- 1366
: 1384 6 11 You
: 1394 6 11  are
: 1404 4 10  the
: 1412 18 10  on
: 1434 6 15 ly
: 1442 30 15  one
- 1474
: 1512 6 12 Do
: 1522 6 12  you
: 1530 6 9  know
: 1540 18 9  what
: 1560 8 16  you've
: 1570 30 16  do
: 1600 4 17 o
: 1604 4 16 o
: 1608 28 14 one
- 1638
: 1666 8 12 It's
: 1678 8 11  so
: 1690 12 11  fun
: 1706 24 12 ny
- 1732
: 1746 8 11 How
: 1756 8 12  we
: 1768 10 11  don't
: 1786 26 14  talk
: 1818 4 12  a
: 1822 4 11 ny
: 1826 18 9 more
- 1846
: 1922 8 7 It's
: 1934 8 11  so
: 1946 12 11  fun
: 1962 24 12 ny
- 1988
: 2004 8 11 Why
: 2014 8 12  we
: 2026 10 11  don't
: 2042 26 14  talk
: 2076 4 14  a
: 2080 4 14 ny
: 2084 22 12 more
- 2108
: 2136 4 15 But
: 2142 4 15  I
: 2148 4 20  ai
: 2152 4 19 n't
: 2162 6 19  lo
: 2170 4 19 sing
: 2176 8 19  sle
: 2184 12 16 ep
- 2198
: 2268 2 17 And
: 2272 4 17  I
: 2280 4 17  ain't
: 2288 8 17  coun
: 2296 4 16 ting
: 2304 12 19  she
: 2316 8 16 ep
- 2326
: 2436 8 21 It's
: 2448 8 20  so
: 2460 12 20  fun
: 2476 24 21 ny
- 2502
: 2514 8 20 How
: 2526 10 21  we
: 2540 18 20  don't
: 2560 44 24  talk
: 2610 8 22  a
: 2618 4 21 ny
: 2622 32 20 more
- 2656
: 2718 36 19 Ooooooh-
: 2756 24 19 -
: 2784 8 20 we
: 2800 8 19 don´t-
: 2830 20 21 talk
- 2852
: 3192 4 9 Well
: 3198 2 9  it
: 3202 6 15  rea
: 3210 6 15 lly
: 3220 4 14  does
: 3224 4 12 n't
: 3234 14 12  matter
: 3250 6 9  to
: 3258 14 15  me
- 3274
: 3342 4 12 I
: 3350 4 12  guess
: 3356 4 9  your
: 3362 6 12  lea
: 3368 6 12 vi
: 3374 8 14 iing
: 3388 6 14  was
: 3398 6 11  meant
: 3406 4 9  to
: 3412 14 7  be
- 3428
: 3470 6 6 It's
: 3478 8 9  down
: 3488 6 12  to
: 3496 14 12  you
: 3512 14 9  now
- 3528
: 3546 6 10 You
: 3554 8 12  wan
: 3562 6 14 na
: 3572 6 16  be
: 3580 26 16  free
- 3608
: 3690 6 14 Well
: 3698 6 16  I
: 3706 18 17  hope
: 3726 6 16  you
: 3734 6 14  know
: 3742 8 12  which
: 3752 12 14  way
: 3766 6 12  to
: 3774 20 9  go
- 3796
: 3818 8 11 You're
: 3828 6 11  on
: 3836 6 9  your
: 3844 24 9  own
: 3870 4 16  a
: 3876 28 16 gain
- 3906
: 3968 16 17 Don't
: 3988 12 16  come
: 4004 8 14  cry
: 4012 6 12 ing
: 4020 6 14  to
: 4028 14 12  me
: 4042 8 11 ee
- 4052
: 4076 6 11 When
: 4084 6 11  you're
: 4092 4 9  the
: 4100 24 9  lone
: 4124 4 16 ly
: 4132 26 16  one
- 4160
: 4202 6 12 Re
: 4210 8 12 mem
: 4218 6 9 ber
: 4226 20 9  what
: 4248 6 16  you've
: 4258 22 16  do
: 4280 4 17 o
: 4284 4 16 o
: 4290 32 14 one
: 4334 12 14 oh-
- 4348
: 4356 6 12 It's
: 4368 8 11  so
: 4382 10 11  fun
: 4394 30 12 ny
- 4426
: 4436 8 11 How
: 4446 8 12  we
: 4460 12 11  don't
: 4476 24 14  talk
: 4504 4 12  a
: 4508 6 11 ny
: 4514 30 9 more
- 4546
: 4614 8 12 It's
: 4626 10 11  so
: 4644 8 11  fun
: 4654 24 12 ny
- 4680
: 4696 6 11 Why
: 4706 10 12  we
: 4722 8 11  don't
: 4738 22 14  talk
: 4764 4 14  a
: 4768 4 16 ny
: 4772 26 12 more
- 4800
: 4828 4 12 But
: 4834 6 12  I
: 4842 4 21  a
: 4848 4 19 in't
: 4854 4 19  lo
: 4860 4 19 sing
: 4866 12 16  sleep
- 4880
: 4958 4 17 And
: 4964 4 17  I
: 4970 4 17  ain't
: 4978 8 17  coun
: 4986 4 16 ting
: 4992 10 19  she
: 5002 18 16 ep
- 5022
: 5027 30 16 (sheeeeep)
: 5068 8 16 no,
: 5078 8 16 no,
: 5088 10 16 no
: 5098 12 16 -
- 5112
: 5124 6 21 It's
: 5136 10 20  so
: 5152 8 20  fun
: 5162 32 21 ny
- 5196
: 5206 8 20 How
: 5216 10 21  we
: 5228 16 20  don't
: 5246 32 24  talk
: 5278 18 23 -
: 5304 4 21  a
: 5310 4 20 ny
: 5314 36 18 more
- 5352
: 5406 20 21 Oooooh
: 5428 36 21 -
: 5466 16 20 -
: 5484 10 18 we
: 5496 10 18 don´t
: 5508 24 18 talk
- 5534
: 5644 14 19 Whooooo
: 5658 8 20 -
: 5666 12 19 -
: 5678 10 20 -
: 5690 36 19 -
: 5730 24 19 we
: 5756 8 19 don´t
: 5766 18 19 talk
- 5786
: 5874 4 12 But
: 5880 4 12  I
- 5886
: 5902 4 21 ain't
: 5906 4 21 no
: 5911 7 19 o,
: 5931 6 19  lo
: 5937 4 19 sing
: 5942 24 16  sleep
- 5968
: 5984 12 17 No
: 5996 4 17 -
: 6002 4 17  I
: 6008 6 17  ain't
: 6022 6 17  coun
: 6028 6 16 ting
: 6036 6 19  she
: 6042 7 16 ep
- 6051
: 6054 28 16 (sheeeeep)
: 6096 7 16 no,
: 6104 7 16 no,
: 6112 7 16 no
: 6121 7 16 no
: 6128 16 16 -
- 6146
: 6154 8 21 It's
: 6166 8 20  so
: 6179 9 20  fun
: 6196 32 21 ny
- 6230
: 6234 8 20 How
: 6244 10 21  we
: 6258 12 20  don't
: 6274 24 24  talk
: 6300 4 22  a
: 6304 4 21 ny
: 6308 14 19 more
: 6326 4 22  a
: 6330 4 21 ny
: 6336 32 19 more
- 6370
: 6444 26 24 Aaaaaaa
: 6471 25 23  aaaaau-
- 6498
: 6574 8 21 we
: 6584 8 20  don't
: 6596 26 23  talk
E