#TITLE:Hold On
#ARTIST:Colbie Caillat
#MP3:Colbie Caillat - Hold On.mp3
#VIDEO:Colbie Caillat - Hold On.mp4
#COVER:Colbie Caillat - Hold On.jpg
#BPM:220.06
#GAP:16247
#ENCODING:UTF8
#LANGUAGE:English
#GENRE:Pop
#AUTHOR:Nicolai (aac)
: 0 2 -3 I'm
: 4 2 0  fee
: 8 2 0 ling
: 12 2 0  furt
: 16 2 0 her,
: 20 2 0  fee
: 24 2 0 ling
: 28 2 0  fur
: 32 2 0 ther
: 36 2 0  from
: 40 2 0  you
: 44 2 0  eve
: 48 2 0 ry
: 52 6 7  day
- 60
: 64 2 0 You're
: 68 2 0  in
: 72 2 0  the
* 76 4 0  stars,
: 84 2 0  in
: 88 2 0  the
: 92 4 0  stars,
- 98
: 100 2 0 Yeah
: 104 2 0  You're
: 108 2 0  worlds
: 112 2 0  a
: 116 6 7 way
- 124
: 128 2 0 I'm
: 132 2 4  mo
: 136 2 4 ving
: 140 2 4  on
: 144 2 2 ~,
: 148 2 4  mo
: 152 2 4 ving
: 156 2 4  on
: 160 2 2 ~,
: 164 2 2  then
: 168 2 2  I
: 172 2 2  hear
: 176 2 2  you
: 180 4 0  say
- 186
: 188 6 2 Hold
: 196 2 0 ~
: 200 8 0  on,
- 210
: 220 2 4 Hold
: 224 1 5 ~
: 226 2 4 ~
* 230 12 2  on
: 244 2 0 ~
- 248
: 256 2 0 We're
: 260 2 0  lo
: 264 2 0 sing
: 268 4 0  light,
: 276 2 0  lo
: 280 2 0 sing
: 284 4 0  light,
- 290
: 292 2 0 Yeah
: 296 2 0  We're
: 300 2 0  fa
: 304 2 0 ding
: 308 6 7  fast
- 316
: 320 2 0 We
: 324 2 0  had
: 328 2 0  a
* 332 4 0  fire,
: 340 2 0  need
: 344 2 0  a
: 348 4 0  spark,
- 354
: 356 2 0 Or
: 360 2 0  we'll
: 364 2 0  ne
: 368 2 0 ver
* 372 6 7  last
- 380
: 384 2 4 Just
: 388 2 4  look
: 392 2 4  at
: 396 4 4  me,
: 404 2 4  look
: 408 2 4  at
: 412 4 4  me,
- 418
: 420 2 2 I've
: 424 2 2  been
: 428 2 2  bur
: 432 2 2 ning
: 436 2 2  for
: 440 2 2  you
- 443
: 444 6 2 So
: 452 2 0 ~
: 456 8 0  long,
- 466
: 476 2 4 So
: 480 1 5 ~
* 482 4 4 ~
* 488 10 2  long
: 500 2 0 ~
- 504
: 516 2 0 I
: 520 2 0  should
: 524 4 4  walk
: 532 2 7  a
: 536 2 7 way
: 540 4 9 ~
: 548 2 12 ~
: 552 2 14 ~
: 556 2 16 ~
: 560 2 14 ~
: 564 4 12 ~
- 570
: 572 2 14 Oh
: 576 2 9 ~
: 580 4 12  oh
: 588 2 14  oh
: 592 2 9 ~
: 596 4 12  oh
- 602
: 616 2 7 I
: 620 2 7  look
: 624 2 7  at
: 628 2 7  you
* 632 2 7  and
- 635
: 636 2 14 Oh
: 640 2 9 ~
: 644 4 12  oh
: 652 2 14  oh
: 656 2 9 ~
: 660 4 12  oh
- 666
: 680 2 7 I
: 684 2 7  get
: 688 2 7  the
: 692 2 7  fee
: 696 2 7 ling
- 699
: 700 2 14 Oh
: 704 2 9 ~
* 708 4 12  oh
: 716 2 14  oh
: 720 2 9 ~
: 724 4 12  oh
- 730
: 744 2 7 I
: 748 2 5  think
: 752 2 4  that
: 756 2 2  I
: 760 2 0  should
: 764 10 4  hold
: 776 8 2  on,
- 786
: 796 4 4 Hold
: 802 1 5 ~
: 804 2 4 ~
* 808 10 2  on
: 820 4 0 ~
- 826
: 828 2 14 Oh
: 832 2 9 ~
: 836 4 12  oh
: 844 2 14  oh
: 848 2 9 ~
: 852 4 12  oh
- 858
: 872 2 7 I
: 876 2 7  look
: 880 2 7  at
: 884 2 7  you
: 888 2 7  and
- 891
: 892 2 14 Oh
: 896 2 9 ~
* 900 4 12  oh
: 908 2 14  oh
: 912 2 9 ~
: 916 4 12  oh
- 922
: 936 2 7 I
: 940 2 7  get
: 944 2 7  the
: 948 2 7  fee
: 952 2 7 ling
- 955
: 956 2 14 Oh
: 960 2 9 ~
: 964 4 12  oh
: 972 2 14  oh
: 976 2 9 ~
: 980 4 12  oh
- 986
: 1000 2 7 I
: 1004 2 5  think
: 1008 2 4  that
: 1012 2 2  I
: 1016 2 0  should
* 1020 10 4  hold
: 1032 8 2  on,
- 1042
: 1052 4 4 Hold
: 1058 1 5 ~
: 1060 2 4 ~
: 1064 10 2  on
: 1076 4 0 ~
- 1082
: 1088 2 0 I'm
: 1092 2 0  lo
: 1096 2 0 sing
: 1100 4 0  love,
: 1108 2 0  lo
: 1112 2 0 sing
: 1116 4 0  you,
: 1124 2 0  lo
: 1128 2 0 sing
: 1132 2 0  eve
: 1136 2 0 ry
: 1140 6 7 thing
- 1148
: 1156 2 0 Lo
: 1160 2 0 sing
: 1164 4 0  faith
: 1172 2 0  in
: 1176 2 0  the
: 1180 4 0  world
: 1188 2 0  where
: 1192 2 0  I
: 1196 2 0  wan
: 1200 2 0 na
: 1204 4 7  be
- 1210
: 1216 2 0 So
: 1220 2 4  I
: 1224 2 4  don't
: 1228 2 4  care
* 1232 2 2 ~
: 1236 2 4  if
: 1240 2 4  the
: 1244 2 4  one
: 1248 2 2 ~
: 1252 2 0  thing
: 1256 2 2  that's
: 1260 2 2  kil
: 1264 2 2 ling
: 1268 4 2  me
- 1272
: 1272 2 0 Is
* 1276 6 2  so
: 1284 2 0 ~
: 1288 8 0  wrong,
- 1298
: 1308 4 4 So
: 1314 1 5 ~
: 1316 2 4 ~
: 1320 10 2  wrong
: 1332 4 0 ~
- 1338
: 1348 2 0 I
: 1352 2 0  should
: 1356 4 4  walk
: 1364 2 7  a
: 1368 2 7 way
: 1372 4 9 ~
* 1380 2 12 ~
* 1384 2 14 ~
* 1388 2 16 ~
* 1392 2 14 ~
* 1396 4 12 ~
- 1402
: 1404 2 14 Oh
: 1408 2 9 ~
: 1412 4 12  oh
: 1420 2 14  oh
: 1424 2 9 ~
: 1428 4 12  oh
- 1434
: 1448 2 7 I
: 1452 2 7  look
: 1456 2 7  at
: 1460 2 7  you
: 1464 2 7  and
- 1467
: 1468 2 14 Oh
: 1472 2 9 ~
: 1476 4 12  oh
: 1484 2 14  oh
: 1488 2 9 ~
: 1492 4 12  oh
- 1498
: 1512 2 7 I
: 1516 2 7  get
* 1520 2 7  the
: 1524 2 7  fee
: 1528 2 7 ling
- 1531
: 1532 2 14 Oh
: 1536 2 9 ~
: 1540 4 12  oh
: 1548 2 14  oh
: 1552 2 9 ~
: 1556 4 12  oh
- 1562
: 1576 2 7 I
: 1580 2 5  think
: 1584 2 4  that
: 1588 2 2  I
: 1592 2 0  should
: 1596 10 4  hold
: 1608 8 2  on,
- 1618
: 1628 4 4 Hold
* 1634 1 5 ~
* 1636 2 4 ~
: 1640 10 2  on
: 1652 4 0 ~
- 1658
: 1660 2 14 Oh
: 1664 2 9 ~
: 1668 4 12  oh
: 1676 2 14  oh
: 1680 2 9 ~
: 1684 4 12  oh
- 1690
: 1704 2 7 I
: 1708 2 7  look
: 1712 2 7  at
: 1716 2 7  you
: 1720 2 7  and
- 1723
: 1724 2 14 Oh
: 1728 2 9 ~
: 1732 4 12  oh
: 1740 2 14  oh
: 1744 2 9 ~
: 1748 4 12  oh
- 1754
: 1768 2 7 I
: 1772 2 7  get
* 1776 2 7  the
: 1780 2 7  fee
: 1784 2 7 ling
- 1787
: 1788 2 14 Oh
: 1792 2 9 ~
: 1796 4 12  oh
: 1804 2 14  oh
: 1808 2 9 ~
: 1812 4 12  oh
- 1818
: 1832 2 7 I
: 1836 2 5  think
: 1840 2 4  that
: 1844 2 2  I
: 1848 2 0  should
: 1852 10 4  hold
: 1864 8 2  on,
- 1874
: 1884 4 4 Hold
: 1890 1 5 ~
: 1892 2 4 ~
: 1896 10 2  on
: 1908 4 0 ~
- 1914
: 1952 2 7 Oh
: 1956 2 2 ~
: 1960 8 2  oh
* 1972 8 0  oh
- 1982
: 2016 2 7 Oh
: 2020 2 2 ~
: 2024 8 2  oh
: 2036 8 0  oh
- 2046
: 2064 2 7 And
: 2068 2 9  I
: 2072 4 12  can't
: 2080 4 12  stop
: 2088 2 9  this
: 2092 4 14  fee
: 2100 6 14 ling
- 2108
: 2128 2 7 And
: 2132 2 9  I
: 2136 4 12  can't
: 2144 4 12  stop
: 2152 2 9  this
: 2156 6 14  fee
* 2164 32 14 ling
- 2198
: 2236 2 14 Oh
: 2240 2 9 ~
: 2244 4 12  oh
: 2252 2 14  oh
: 2256 2 9 ~
: 2260 4 12  oh
- 2266
: 2280 2 7 I
: 2284 2 7  look
: 2288 2 7  at
* 2292 2 7  you
: 2296 2 7  and
- 2299
: 2300 2 14 Oh
: 2304 2 9 ~
: 2308 4 12  oh
: 2316 2 14  oh
: 2320 2 9 ~
: 2324 4 12  oh
- 2330
: 2344 2 7 I
: 2348 2 7  get
: 2352 2 7  the
: 2356 2 7  fee
: 2360 2 7 ling
- 2363
: 2364 2 14 Oh
: 2368 2 9 ~
: 2372 4 12  oh
: 2380 2 14  oh
: 2384 2 9 ~
: 2388 4 12  oh
- 2394
: 2408 2 7 I
: 2412 2 5  think
: 2416 2 4  that
: 2420 2 2  I
: 2424 2 0  should
* 2428 10 4  hold
: 2440 8 2  on,
- 2450
: 2460 4 4 Hold
: 2466 1 5 ~
: 2468 2 4 ~
: 2472 10 2  on
: 2484 4 0 ~
- 2490
: 2492 2 14 Oh
: 2496 2 9 ~
: 2500 4 12  oh
: 2508 2 14  oh
: 2512 2 9 ~
: 2516 4 12  oh
- 2522
: 2536 2 7 I
: 2540 2 7  look
: 2544 2 7  at
: 2548 2 7  you
: 2552 2 7  and
- 2555
: 2556 2 14 Oh
: 2560 2 9 ~
: 2564 4 12  oh
: 2572 2 14  oh
: 2576 2 9 ~
: 2580 4 12  oh
- 2586
: 2600 2 7 I
: 2604 2 7  get
: 2608 2 7  the
: 2612 2 7  fee
: 2616 2 7 ling
- 2619
: 2620 2 14 Oh
: 2624 2 9 ~
* 2628 4 12  oh
: 2636 2 14  oh
: 2640 2 9 ~
: 2644 4 12  oh
- 2650
: 2664 2 7 I
: 2668 2 5  think
: 2672 2 4  that
: 2676 2 2  I
: 2680 2 0  should
: 2684 10 4  hold
: 2696 8 2  on,
- 2706
: 2716 4 4 Hold
: 2722 1 5 ~
: 2724 2 4 ~
: 2728 10 2  on
: 2740 4 0 ~
E