#TITLE:Shiver
#ARTIST:Coldplay
#MP3:Coldplay - Shiver.mp3
#VIDEO:Coldplay - Shiver.avi
#COVER:Coldplay - Shiver.jpg
#BPM:399,14
#GAP:37482
#ENCODING:UTF8
#LANGUAGE:English
#GENRE:Pop
#EDITION:Guitar Hero World Tour
#YEAR:2000
: 0 5 18 So
: 7 3 20  I
: 14 6 20  look
: 27 4 18  in
: 35 8 20  your
: 47 5 18  di
: 55 4 23 rec
: 67 4 20 tion
- 80
: 84 3 11 But
: 89 3 11  you
: 98 11 20  pay
: 111 5 18  me
: 119 10 20  no
: 131 2 18  at
: 138 5 23 ten
: 150 5 20 tion
: 157 2 18 ~
- 162
: 164 4 18 Do
: 171 3 18  you
: 175 6 15 ~?
- 234
: 335 5 23 I
: 345 4 23  know
: 350 5 23  you
: 358 5 20  don't
: 366 5 23  li
: 377 5 20 sten
: 388 2 23  to
: 391 5 25 ~
: 400 4 23  me
- 412
: 415 2 23 'Cause
: 420 3 23  you
: 427 11 23  say
: 440 3 20  you
: 450 4 23  see
: 461 5 23  straight
: 472 3 23  through
: 476 5 25 ~
: 484 8 23  me
- 496
: 498 8 16 Don't
: 511 19 15  you?
- 556
: 626 4 23 But
: 634 9 20  on
: 644 6 23  and
* 654 3 23  on
* 658 8 25 ~
* 668 26 23 ~
- 699
: 701 5 23 From
: 708 3 20  the
: 715 7 23  mo
: 728 3 20 ment
* 735 3 23  I
* 739 6 25 ~
: 748 13 23  wake
: 762 6 20 ~
- 780
: 784 3 23 To
: 788 3 20  the
: 795 12 23  mo
: 809 4 20 ment
* 816 5 25  I
: 829 19 22  sleep
- 860
: 864 5 22 I'll
: 871 4 22  be
: 878 3 20  there
: 882 3 22 ~
: 889 8 22  by
: 899 2 20  your
: 902 3 22 ~
: 911 2 20  side
: 914 24 22 ~
- 943
: 945 5 22 Just
: 952 2 22  you
: 960 5 22  try
: 967 4 23  and
* 979 5 25  stop
: 990 14 23  me
: 1006 8 20 ~
- 1023
: 1026 5 23 I'll
: 1034 4 20  be
: 1041 8 23  wait
: 1054 3 20 ing
: 1061 3 23  in
: 1065 4 25 ~
: 1072 24 23  line
: 1097 3 20 ~
- 1106
: 1109 3 23 Just
: 1116 2 23  to
: 1122 5 23  see
: 1130 2 23  if
: 1136 3 22  you
: 1141 5 23 ~
: 1152 4 13  care
: 1158 24 15 ~
- 1208
: 1281 8 23 Oh
: 1290 22 21 ~
: 1314 8 23  Oh
: 1324 17 20 ~
- 1350
: 1354 2 20 Did
: 1359 5 23  you
: 1366 8 25  want
: 1377 4 23  me
* 1385 3 25  to
* 1389 4 27 ~
: 1400 3 25  change
: 1404 20 27 ~?
- 1430
: 1433 5 20 Well
: 1440 6 23  I'd
: 1453 4 25  change
: 1458 3 23 ~
* 1467 3 25  for
* 1471 4 27 ~
: 1482 4 27  good
: 1488 15 20 ~
- 1511
: 1514 3 20 And
: 1520 5 23  I
: 1527 8 25  want
: 1540 2 23  you
: 1546 3 25  to
: 1550 7 27 ~
: 1559 3 25  know
: 1563 20 27 ~
- 1590
: 1593 3 20 That
: 1598 4 20  you'll
* 1607 3 31  al
* 1612 5 32 ~
* 1620 8 35 ways
: 1633 3 32  get
: 1640 5 30  your
: 1647 19 32  way
- 1675
: 1678 2 20 And
: 1681 5 27  I
: 1689 8 25  wan
: 1700 3 23 ted
: 1707 7 25  to
: 1715 15 27 ~
: 1738 4 25  say
: 1743 17 23 ~
: 1763 24 20 ~
- 1813
: 1857 4 23 Don't
: 1863 3 23  you
* 1871 6 25  shi
* 1878 2 23 ~
* 1885 4 34 ver
: 1890 41 35 ~
: 1933 26 33 ~
: 1961 22 32 ~
: 1984 22 30 ~?
- 2016
: 2030 2 23 You
: 2037 5 25  shi
: 2043 5 23 ~
* 2050 46 35 ver
: 2098 25 33 ~
: 2125 21 32 ~
: 2149 24 30 ~
- 2183
: 2209 3 23 Sing
: 2215 3 23  it
* 2222 2 34  loud
: 2226 33 35 ~
: 2262 30 37 ~
: 2293 3 35  and
: 2304 25 37  clear
: 2330 11 39 ~
: 2343 21 35 ~
- 2374
: 2383 2 23 I'll
: 2386 3 23  al
: 2390 7 25 ~
: 2400 2 23 ways
: 2403 13 25 ~
: 2423 3 23  be
: 2430 4 27  wait
: 2442 6 23 ing
: 2449 2 20 ~
: 2457 5 20  for
: 2463 3 18 ~
: 2472 16 20  you
- 2498
: 2538 4 18 So
: 2544 4 20  you
: 2552 11 20  know
: 2565 5 18  how
: 2573 6 20  much
: 2584 5 18  I
: 2593 7 23  need
: 2605 5 20  ya
- 2617
: 2620 3 18 But
: 2625 5 18  you
: 2633 11 20  ne
: 2646 5 18 ver
: 2656 7 20  e
: 2665 4 18 ven
: 2675 5 23  see
: 2687 3 20  me
: 2691 3 18 ~
- 2700
: 2702 2 18 Do
: 2706 3 18  you
: 2710 14 15 ~?
- 2777
: 2866 3 23 And
: 2870 3 23  is
: 2878 4 30  this
: 2883 20 32 ~
: 2909 5 23  my
: 2920 3 32  fi
: 2924 21 34 ~
: 2950 3 23 nal
* 2962 5 34  chance
* 2968 20 35 ~
- 2993
: 2995 2 32 Of
: 3003 3 30  get
: 3008 23 32 ~
: 3033 17 30 ting
: 3052 24 30  you
- 3102
: 3158 6 23 But
: 3167 8 20  on
: 3176 9 23 ~
* 3188 2 23  and
* 3192 8 25 ~
: 3202 26 23  on
- 3234
: 3236 4 23 From
: 3243 4 20  the
: 3250 8 23  mo
: 3260 4 20 ment
: 3270 3 23  I
: 3274 5 25 ~
: 3281 17 23  wake
: 3300 5 20 ~
- 3314
: 3318 3 23 To
: 3323 2 20  the
: 3330 11 23  mo
: 3343 3 20 ment
: 3351 6 25  I
: 3365 20 22  sleep
- 3395
: 3399 4 22 I'll
: 3406 4 22  be
: 3413 3 20  there
: 3417 3 22 ~
: 3423 7 22  by
: 3432 3 20  your
: 3436 2 22 ~
: 3445 3 20  side
: 3449 21 22 ~
- 3477
: 3480 3 22 Just
: 3485 3 22  you
: 3493 5 22  try
: 3500 4 23  and
: 3511 5 25  stop
: 3522 13 23  me
: 3536 8 20 ~
- 3555
: 3559 4 23 I'll
: 3566 5 20  be
: 3573 8 23  wait
: 3586 3 20 ing
: 3594 3 23  in
: 3598 3 25 ~
: 3603 23 23  line
: 3627 4 20 ~
- 3637
: 3640 3 23 Just
: 3647 3 23  to
: 3654 5 23  see
: 3660 4 23  if
: 3667 3 22  you
: 3671 5 23 ~
: 3683 3 13  care
: 3688 21 15 ~
- 3717
: 3720 3 15 If
: 3727 2 22  you
: 3731 7 23 ~
: 3743 3 13  care
: 3747 17 15 ~
- 3774
: 3810 8 23 Oh
: 3820 22 21 ~
: 3844 8 23  Oh
: 3854 16 20 ~
- 3879
: 3882 2 20 Did
: 3888 5 23  you
: 3895 8 25  want
: 3907 3 23  me
: 3916 2 25  to
: 3919 4 27 ~
: 3929 3 25  change
: 3933 18 27 ~?
- 3959
: 3962 5 20 Well
: 3968 7 23  I'd
: 3981 5 25  change
: 3987 2 23 ~
: 3995 2 25  for
: 3998 6 27 ~
: 4009 5 27  good
: 4015 16 20 ~
- 4040
: 4043 4 20 And
: 4049 5 23  I
: 4056 8 25  want
: 4068 3 23  you
: 4076 2 25  to
: 4079 7 27 ~
: 4088 5 27  know
: 4094 3 28 ~
: 4099 13 27 ~
: 4114 2 20 ~
- 4121
: 4123 2 20 That
: 4127 4 20  you'll
: 4135 4 31  al
: 4140 6 32 ~
: 4148 8 35 ways
: 4162 3 37  get
: 4169 5 32  your
: 4176 15 32  way
- 4201
: 4205 2 20 And
: 4208 5 27  I
: 4216 10 25  wan
: 4229 2 23 ted
: 4236 6 25  to
: 4243 17 27 ~
: 4267 4 25  say
: 4272 15 23 ~
: 4289 23 20 ~
- 4338
: 4384 3 23 Don't
: 4389 5 23  you
: 4398 5 25  shi
: 4405 5 23 ~
: 4413 44 35 ver
: 4459 17 33 ~
: 4478 2 34 ~
: 4481 3 33 ~
: 4486 22 32 ~
: 4510 24 30 ~?
- 4544
: 4548 5 23 Don't
: 4555 5 23  you
: 4562 5 25  shi
: 4568 5 23 ~
: 4575 46 35 ver
: 4623 26 33 ~
: 4650 27 32 ~
: 4679 18 30 ~?
- 4707
: 4732 3 23 Sing
: 4738 4 23  it
: 4746 2 34  loud
: 4750 35 35 ~
: 4786 29 37 ~
: 4817 5 35  and
: 4828 25 37  clear
* 4854 12 39 ~
* 4867 10 35 ~
* 4879 5 32 ~
- 4894
: 4905 3 23 I'll
: 4909 3 23  al
: 4913 7 25 ~
: 4922 4 23 ways
: 4927 12 25 ~
: 4944 3 23  be
: 4951 5 27  wait
: 4962 8 23 ing
: 4971 2 20 ~
: 4978 6 20  for
: 4986 3 18 ~
: 4994 17 20  you
- 5064
: 5306 3 23 Yeah
: 5311 7 23  I'll
: 5320 10 23  al
: 5332 10 23 ways
: 5345 5 23  be
: 5353 5 27  wait
: 5364 5 23 ing
: 5379 8 22  for
: 5394 26 20  you
- 5430
: 5465 7 23 Yeah
: 5473 7 23  I'll
: 5482 10 23  al
: 5495 8 23 ways
: 5508 5 23  be
: 5515 7 27  wait
: 5527 5 23 ing
: 5540 7 22  for
: 5554 27 20  you
- 5591
: 5628 5 23 Yeah
: 5635 5 23  I'll
: 5642 10 23  al
: 5655 8 23 ways
: 5668 5 23  be
: 5675 9 27  wait
: 5687 10 23 ing
: 5701 8 22  for
: 5716 17 20  you
- 5743
: 5757 8 23 For
: 5771 10 20  you
: 5790 4 23  I
: 5795 5 23  will
: 5806 11 23  al
: 5819 8 23 ways
: 5830 5 23  be
: 5838 7 27  wait
: 5851 5 23 ing
- 5868
: 5872 3 23 And
: 5878 2 23  it's
: 5885 10 27  you
: 5896 4 25 ~
* 5912 7 25  I
* 5925 14 28  see
: 5940 3 25 ~
: 5952 4 23  but
: 5959 3 23  you
: 5967 6 25  don't
: 5979 5 25  see
: 5986 4 27 ~
: 5994 8 23  me
: 6003 7 20 ~
- 6020
: 6035 3 23 And
: 6040 3 23  it's
: 6047 14 27  you
: 6062 4 25 ~
: 6075 7 25  I
* 6089 14 28  hear
* 6104 5 25 ~
: 6122 4 25  so
: 6130 9 25  loud
: 6141 5 25  and
: 6153 1 25  so
: 6155 3 27 ~
: 6165 4 26  clear
: 6170 5 25 ~
: 6176 5 23 ~
- 6187
: 6190 2 23 I
: 6197 2 23  sing
: 6203 2 23  it
: 6210 36 27  loud
: 6248 19 25 ~
: 6277 2 23  and
: 6286 31 25  clear
: 6318 11 27 ~
: 6332 15 23 ~
- 6356
: 6360 2 20 And
: 6366 4 23  I'll
* 6374 2 23  al
* 6377 7 25 ~
* 6387 3 23 ways
: 6391 10 25 ~
: 6408 4 23  be
: 6415 6 26  wait
: 6428 6 23 ing
: 6442 7 20  for
: 6458 16 20  you
- 6484
: 6523 5 18 So
: 6530 5 20  I
: 6537 7 20  look
: 6550 5 18  in
: 6558 8 20  your
: 6571 5 18  di
: 6579 3 23 rec
: 6590 4 20 tion
- 6602
: 6605 3 11 But
: 6610 5 11  you
: 6619 10 20  pay
: 6632 5 18  me
: 6639 12 20  no
: 6653 3 18  at
: 6660 5 23 ten
: 6672 4 20 tion
- 6684
: 6687 3 20 And
: 6692 5 20  you
: 6700 10 20  know
: 6714 5 18  how
: 6721 7 20  much
: 6733 5 18  I
: 6742 5 23  need
: 6753 3 20  ya
- 6765
: 6769 3 20 But
: 6774 5 20  you
: 6783 10 20  ne
: 6795 5 18 ver
: 6805 8 20  e
: 6815 6 18 ven
: 6825 3 20  see
: 6829 8 22 ~
: 6840 18 20  me
E