#TITLE:Nada Que Perder
#ARTIST:Conchita
#MP3:Conchita - Nada Que Perder.mp3
#COVER:Conchita - Nada Que Perder [CO].jpg
#BACKGROUND:Conchita - Nada Que Perder [CO].jpg
#BPM:248
#GAP:16391,13
#ENCODING:UTF8
#LANGUAGE:Spanish
#GENRE:Rock
#EDITION:SingStar - Latino
#YEAR:2007
: 0 4 60 Nun
: 4 3 64 ca
: 9 5 65  se
: 16 4 64  me
: 22 5 65  dio
- 29
: 40 3 60 De
: 44 3 64 ma
: 48 3 65 sia
: 52 4 64 do
: 56 4 65  bien
- 62
: 76 3 60 Po
: 80 3 60 ner
: 84 3 62  las
: 88 3 62  car
: 94 3 60 tas
- 98
: 100 3 60 So
: 104 3 60 bre
: 108 3 60  la
: 112 4 60  me
: 116 4 57 sa
- 122
: 128 4 60 Nun
: 132 3 64 ca
* 137 5 65  se
: 144 4 64  me
: 149 5 65  dio
- 156
: 176 3 60 De
: 180 3 64 ma
: 184 6 65 sia
: 192 4 60 do
: 196 6 60  bien
- 204
: 256 3 60 Y-a-ho
: 260 3 64 ra
: 264 3 65  nos
: 268 4 64  vol
: 272 3 65 ve
: 276 3 64 mos
- 280
: 280 3 65 A-en
: 284 3 64 con
: 288 3 65 trar
- 292
: 292 3 64 Y
: 296 4 65  me
: 304 4 64  pre
: 308 6 64 gun
: 317 10 62 tas
- 329
: 364 4 60 Qué
* 368 4 65  tal
: 372 4 64  me
: 376 4 60  va
- 382
: 476 4 64 Qui
: 480 4 65 sie
: 484 4 64 ra
: 488 4 65  ser
: 494 4 67  ca
: 500 4 69 paz
- 506
: 508 4 65 De
: 512 4 65 cir
: 516 4 64 te
: 520 4 65  la
: 524 4 67  ver
: 528 10 69 dad
- 540
: 548 4 64 De
: 552 4 65 cir
: 556 4 64 te
: 560 4 65  que
: 564 3 64  me
- 568
: 568 4 65 Va
: 574 4 65  real
: 580 4 65 men
: 584 4 64 te
: 590 4 60  mal
- 596
: 604 4 60 No
: 608 4 65  te
: 612 4 65  lo
: 616 4 65 gré-ol
: 622 4 67 vi
: 628 4 65 dar
: 632 6 64 ~
- 640
: 684 4 64 Ni
: 688 4 64  lo-in
: 692 4 62 ten
: 696 4 64 té
: 700 4 65  qui
: 704 8 65 zás
- 714
: 764 3 64 Qui
: 768 4 65 sie
: 772 4 64 ra
: 776 4 65  ser
: 782 4 67  ca
: 788 4 69 paz
- 794
: 796 4 65 Mi
: 800 4 65 rar
: 804 4 64 te-y
: 808 4 65  no
: 814 4 67  tem
: 820 4 67 blar
* 824 6 69 ~
- 832
: 836 4 65 De
: 840 4 65 cir
: 844 4 64 te
: 848 4 65  que
: 852 3 64  aún
: 856 4 65  na
: 860 3 64 die
- 864
: 864 4 65 Me
: 868 4 64  vol
: 872 4 65 vió-a
: 876 4 64  be
: 880 5 64 sar
- 887
: 892 3 64 No
: 896 4 64  te
: 900 4 64  lo
: 904 4 64 gré-ol
: 910 4 65 vi
: 916 4 65 dar
: 920 9 67 ~
- 931
: 940 4 64 Ni
: 944 4 64  lo
: 948 4 62  in
: 952 4 62 ten
: 958 4 64 té
: 964 4 65  qui
: 968 8 67 zás
: 976 8 65 ~
- 986
: 1020 4 64 Y-en
: 1024 4 65  lu
: 1028 4 64 gar
: 1032 5 65  de-e
* 1040 5 67 so
- 1047
: 1052 4 64 Son
: 1056 4 65 río
: 1060 4 64  y
: 1064 4 65  tiem
: 1070 4 67 blo
- 1075
: 1076 4 64 Y-te
: 1080 4 65  cuen
: 1086 2 64 to
: 1088 4 65 ~
- 1094
: 1100 4 60 Que
: 1104 4 65  ya-a
: 1108 4 65 ca
: 1112 4 65 bé
: 1117 4 65  la
: 1124 4 65  fa
: 1128 5 64 cul
: 1134 4 60 tad
- 1140
: 1148 2 60 Me
: 1152 4 65  pu
: 1156 4 65 se-a
: 1160 4 65  tra
: 1164 4 64 ba
: 1168 5 64 jar
: 1173 4 64  y
- 1179
: 1184 4 64 Me
: 1188 4 64  vol
: 1192 4 64 ví-a-e
: 1198 4 65 na
: 1204 4 64 mo
: 1208 6 64 rar
: 1214 6 62 ~
- 1222
: 1276 3 57 Y-en
: 1280 4 65  lu
: 1284 4 64 gar
: 1288 4 65  de-e
: 1294 2 65 so
: 1296 6 67 ~
- 1304
: 1308 4 64 Son
: 1312 4 65 río
: 1316 4 64  y
: 1320 4 65  pien
: 1328 6 67 so
- 1336
: 1364 4 57 Por
: 1368 4 65  qué
: 1374 4 65  no
: 1380 4 65  se
: 1384 4 65 ré
: 1390 4 64  ca
: 1396 4 60 paz
- 1402
* 1404 3 57 De
: 1408 4 65  de
: 1412 4 64 cir
: 1416 4 65  la
: 1420 4 64  ver
: 1424 6 64 dad
- 1432
: 1436 2 60 Te
: 1440 4 65  pier
: 1444 4 64 do
: 1448 6 64  u
: 1454 4 65 na
: 1460 4 64  vez
: 1464 6 64  más
: 1470 6 62 ~
- 1478
: 1500 4 64 Qui
: 1504 4 65 sie
: 1508 4 64 ra
: 1512 4 65  ser
: 1518 4 67  ca
: 1524 4 69 paz
- 1530
: 1532 4 65 De
: 1536 4 65 cir
: 1540 4 64 te
: 1544 4 65  la
: 1548 4 67  ver
: 1552 10 69 dad
- 1564
: 1572 4 64 De
: 1576 4 65 cir
: 1580 4 64 te
: 1584 4 65  que
: 1588 3 64  me
- 1592
: 1592 4 65 Va
: 1598 4 65  real
: 1604 4 65 men
: 1608 4 64 te
: 1614 4 60  mal
- 1620
: 1628 4 60 No
: 1632 4 65  te
: 1636 4 65  lo
: 1640 4 65 gré-ol
: 1646 4 67 vi
: 1652 4 65 dar
: 1656 6 64 ~
- 1664
: 1708 4 64 Ni
: 1712 4 64  lo-in
: 1716 4 62 ten
: 1720 4 64 té
: 1724 4 65  qui
: 1728 8 65 zás
- 1738
: 1788 3 64 Qui
: 1792 4 65 sie
: 1796 4 64 ra
: 1800 4 65  ser
: 1806 4 67  ca
: 1812 4 69 paz
- 1818
: 1820 4 65 Mi
: 1824 4 65 rar
: 1828 4 64 te-y
: 1832 4 65  no
: 1838 4 67  tem
: 1844 4 67 blar
: 1848 6 69 ~
- 1856
: 1860 4 65 De
: 1864 4 65 cir
: 1868 4 64 te
: 1872 4 65  que
: 1876 3 64  aún
: 1880 4 65  na
: 1884 3 64 die
- 1888
: 1888 4 65 Me
: 1892 4 64  vol
: 1896 4 65 vió-a
: 1900 4 64  be
: 1904 5 64 sar
- 1911
: 1916 3 64 No
: 1920 4 64  te
: 1924 4 64  lo
: 1928 4 64 gré-ol
: 1934 4 65 vi
: 1940 4 65 dar
: 1944 9 67 ~
- 1955
: 1964 4 64 Ni
: 1968 4 64  lo
: 1972 4 62  in
: 1976 4 62 ten
: 1982 4 64 té
: 1988 4 65  qui
: 1992 8 67 zás
: 2000 8 65 ~
- 2010
: 2060 4 57 Y-a-ho
: 2064 4 65 ra
: 2068 4 64  me
: 2073 4 65  que
: 2078 7 65 dan
- 2087
: 2092 4 65 Dos
: 2100 4 64  op
* 2104 4 64 cio
: 2108 4 62 nes
- 2114
: 2188 2 60 Que
: 2192 3 65 dar
: 2196 3 65 me
: 2200 3 65  quie
: 2204 3 60 ta
- 2208
: 2208 3 60 O-e
: 2212 3 60 char
: 2216 3 60  a
: 2220 3 62  co
: 2224 6 62 rrer
- 2232
: 2268 4 64 Y
: 2272 4 65  me
: 2276 4 64  pon
: 2280 4 65 go-a
: 2286 4 67  co
: 2292 4 69 rrer
- 2298
: 2300 4 65 Ya
: 2304 4 65  que
: 2308 4 64  pue
: 2312 4 65 do
: 2316 4 67  per
: 2320 8 69 der
: 2328 3 65 ~
- 2332
: 2332 4 65 Ve
: 2336 2 65 rás
: 2340 4 64  es
: 2344 4 65  que
: 2350 4 65  no
- 2355
: 2356 3 65 Me
: 2360 4 65  va
: 2366 4 65  de
: 2372 4 65 ma
: 2376 4 65 sia
: 2380 4 64 do
* 2384 4 65  bien
- 2390
: 2396 4 60 No
: 2400 4 65  te
: 2404 4 65  lo
: 2408 4 65 gré-ol
: 2414 4 65 vi
: 2420 4 65 dar
: 2424 10 64 ~
- 2436
: 2476 4 64 Ni
: 2480 4 64  lo-in
: 2484 4 62 ten
: 2488 4 64 té
: 2492 4 65  qui
: 2496 8 65 zás
- 2506
: 2556 2 60 Y
: 2560 4 65  me
: 2564 4 64  pon
: 2568 4 65 go-a
: 2574 4 67  co
: 2580 4 69 rrer
- 2586
: 2588 4 65 Ya
: 2592 4 65  que
: 2596 4 64  pue
: 2600 4 65 do
: 2604 4 67  per
: 2608 8 69 der
: 2616 3 65 ~
- 2620
: 2620 4 65 Ve
: 2624 3 65 rás
: 2628 4 64  es
: 2632 4 65  que
- 2638
: 2644 3 64 Ya
: 2648 4 69  na
: 2652 4 69 die
: 2656 4 69  me
: 2660 6 70  vol
: 2668 6 69 vió-a
: 2676 4 67  be
: 2680 5 64 sar
- 2687
: 2692 4 64 No
: 2696 4 64  te
: 2700 4 64  lo
: 2704 4 64 gré-ol
: 2708 4 65 vi
: 2712 6 67 dar
- 2720
: 2724 6 67 Ni
: 2736 5 65  lo-in
: 2742 5 64 ten
: 2748 5 64 té
: 2756 4 65  qui
: 2760 10 65 zás
- 2772
: 2816 2 57 Y-a-ho
: 2820 4 64 ra
: 2824 4 65  ya
: 2828 4 64  te
: 2832 4 65  to
: 2836 4 64 ca-a
: 2840 1 65  ti
- 2842
: 2842 2 65 A
: 2844 4 62 ca
: 2848 4 62 bar
: 2852 4 62  con
: 2856 4 62  es
: 2862 4 64 ta-his
: 2868 4 64 to
: 2872 4 65 ~
: 2878 3 62 ria
- 2882
: 2882 2 62 A-ho
: 2884 4 62 ra
: 2888 4 62  ya
: 2892 4 62  te
: 2896 4 62  to
: 2900 4 62 ca-a
: 2904 3 62  ti
- 2908
: 2908 4 60 De
: 2912 4 60 cir
: 2916 4 60  las
: 2920 4 60  co
: 2926 2 60 sas
: 2928 4 62 ~
- 2934
: 2940 2 57 Pon
: 2944 4 64  un
: 2948 4 64  pun
: 2952 4 64 to-y
: 2958 4 65  fi
: 2964 4 65 nal
: 2968 8 67 ~
- 2978
: 2980 4 65 O
: 2988 4 64  bé
: 2996 4 65 sa
* 3000 10 64 me
: 3020 6 65  sin
: 3028 4 67  más
: 3032 10 65 ~
- 3044
: 3072 3 62 Y-a-ho
: 3076 4 64 ra
: 3080 4 65  ya
: 3084 4 64  te
: 3088 3 65  to
: 3092 3 65 ca-a
: 3096 3 65  ti
- 3100
: 3100 4 62 Ya
: 3104 4 62  no
: 3108 4 62  va
: 3112 4 62 le
: 3116 4 64  ca
: 3120 6 65 llar
- 3128
: 3136 2 62 Es
: 3140 4 62 ta
: 3144 4 62  vez
: 3148 4 62  no
: 3152 4 62  vol
: 3156 4 62 ve
: 3160 3 62 ré-a
- 3164
: 3164 4 60 Per
: 3168 4 60 der
: 3172 4 60 te-u
: 3176 4 60 na
: 3180 4 60  vez
: 3184 4 60  más
- 3190
: 3196 2 57 No
* 3200 4 64  me
: 3204 4 64  voy
: 3208 4 64  a
: 3214 4 65  mar
: 3220 4 65 char
: 3224 8 67 ~
- 3234
: 3236 4 65 Sin
: 3244 4 64  sa
: 3252 4 65 ber
: 3256 6 64  el
: 3264 4 65  fi
: 3268 4 67 nal
: 3272 10 65 ~
- 3284
: 3328 4 65 Nun
: 3332 4 65 ca
: 3336 4 65  se
: 3342 4 67  me
: 3348 8 69  dio
: 3356 3 65 ~
- 3360
: 3360 4 65 De
: 3364 4 65 ma
: 3368 4 65 sia
: 3374 4 67 do
: 3380 4 69  bien
: 3388 4 70  po
: 3396 7 65 ner
- 3405
: 3412 3 64 Las
: 3416 4 69  car
: 3422 4 69 tas
* 3428 4 70  so
: 3432 4 70 bre
: 3436 4 70  la
: 3440 6 69  me
: 3448 6 67 sa
- 3456
: 3460 7 64 Nun
: 3468 4 64 ca
: 3472 4 64  se
: 3476 4 65  me
: 3480 6 67  dio
- 3488
: 3492 7 67 No,
: 3504 4 65  de
: 3508 4 65 ma
: 3512 6 64 sia
: 3520 4 65 do
: 3524 6 67  bien
: 3530 6 65 ~
- 3538
: 3584 4 65 Y-a-ho
: 3588 4 65 ra
: 3592 4 65  nos
: 3596 4 65  vol
: 3600 4 65 ve
: 3604 3 67 mos
- 3608
: 3608 4 69 A-en
: 3614 4 70 con
: 3620 3 65 trar
- 3624
: 3624 5 65 Y
: 3630 5 65  me
: 3636 4 64  pre
: 3640 5 64 gun
: 3646 5 65 tas
: 3652 4 65  que
: 3656 5 67 ~
- 3663
: 3676 4 65 Que
: 3684 4 65  qué
: 3688 4 65  tal
: 3696 4 65  me
: 3700 4 65  va
: 3704 4 64 ~
- 3710
: 3712 4 64 Y
: 3716 4 64  yo
: 3720 4 64  ya
: 3724 4 65  no
: 3728 8 67  sé
- 3738
: 3744 4 65 Ya
: 3748 4 65  no
: 3752 4 64  sé
: 3758 4 65  ni
: 3764 2 65  qué
: 3766 6 64 ~
- 3774
: 3804 5 64 Con
: 3812 4 62 tes
: 3816 5 64 tar
: 3821 11 62 ~
E