#TITLE:Anita
#ARTIST:Costa Cordalis
#MP3:Costa Cordalis - Anita.mp3
#VIDEO:Costa Cordalis - Anita [VD#0].avi
#COVER:Costa Cordalis - Anita [CO].jpg
#BPM:340
#GAP:4191,18
#VIDEOGAP:0
#ENCODING:UTF8
#EDITION:SingStar Sch DE
: 0 4 53 Ich
: 6 4 57  fand
: 11 4 55  sie
: 17 3 53  ir
: 21 4 50 gend
: 27 4 53 wo
- 33
: 42 4 56 Al
: 48 5 57 lein
: 53 4 55  in
: 59 4 53  Me
: 64 4 50 xi
: 69 6 53 ko
- 77
: 80 8 62 A
: 91 12 60 ni
: 106 11 52 ta
- 119
: 154 3 52 Schwarz
: 159 3 53  war
: 164 3 54  ihr
: 169 5 55  Haar
- 176
: 190 4 57 Die
: 196 3 58  Au
: 201 3 57 gen
- 205
: 207 3 58 Wie
: 212 3 60  zwei
* 217 25 62  Ster
: 244 3 60 ~
: 249 3 60 ne
: 254 4 62  so
: 259 8 60  klar
- 269
: 338 5 56 Komm
: 344 3 57 ~
: 349 4 55 steig
: 354 4 53  auf
: 360 4 50  dein
: 365 6 53  Pferd
- 373
: 381 4 56 Sag
: 387 3 57 ~
: 391 4 55 te
: 397 4 53  ich
: 402 4 50  zu
* 407 4 53  ihr
- 413
: 417 8 62 A
: 428 11 60 ni
: 444 10 52 ta
- 456
: 490 1 52 Fi
: 492 3 52 es
: 498 4 53 ta
: 504 2 53  ist
: 509 6 55  heut
- 517
: 529 3 57 Die
: 535 4 58  Stadt
: 540 4 57  ist
: 545 4 58  nicht
: 551 5 57  mehr
: 556 5 53  weit
- 563
: 572 5 48 Mach
: 582 5 50  dich
: 588 3 52  schnell
: 593 4 55  be
: 599 6 53 reit
- 607
: 651 4 53 Ich
: 663 6 53  seh
: 674 4 53  dir
: 679 6 62  an
- 687
: 700 3 60 Da
: 705 4 62  schlum
: 711 3 60 mert
: 716 3 58  ein
: 721 4 55  Vul
: 727 4 53 kan
- 733
: 743 3 58 Du
: 748 3 58  war
: 754 3 58 test
- 758
: 759 3 60 Auf
: 764 3 62  die
* 769 25 62  Lie
: 795 5 60 ~
: 800 6 62 ~
: 806 4 60 ~
: 812 7 60 be
- 821
: 864 6 53 Ich
: 875 8 55  will
: 886 3 57  sie
: 892 5 57  we
: 902 6 55 cken
- 910
: 913 4 55 Und
: 919 2 57  al
: 924 4 55 les
: 934 3 55  ent
: 940 3 57 de
: 946 4 55 cken
- 952
: 955 3 55 Was
: 960 4 57  kei
: 966 3 55 ner
: 971 3 57  bis
: 977 4 57 her
: 982 27 60  sah
- 1011
: 1024 5 60 Woah
: 1029 4 62 ~
: 1035 4 57 ~
: 1040 9 60 ~
: 1051 9 62 ~
- 1062
: 1066 3 57 Rei
: 1071 3 55 te
: 1076 4 53  wie
: 1081 4 50  der
: 1087 4 53  Wind
- 1093
: 1103 5 56 Bis
: 1108 3 57 ~
: 1114 3 55 die
: 1119 4 53  Nacht
: 1124 4 50  be
: 1130 6 53 ginnt
- 1138
: 1140 7 62 A
: 1151 11 60 ni
* 1167 11 52 ta
- 1180
: 1216 4 52 Dann
: 1221 3 53  sind
: 1226 3 54  wir
: 1231 5 55  da
- 1238
: 1253 4 57 Und
: 1259 2 58  je
: 1264 3 57 der
: 1269 3 58  soll
: 1274 4 57  es
: 1280 5 53  sehn
- 1287
: 1296 4 48 Das
: 1306 4 48  wir
: 1312 3 52  uns
: 1317 3 55  ver
* 1323 5 53 stehn
- 1330
: 1370 5 65 Yep
- 1377
: 1409 8 64 Mu
: 1420 4 62 si
: 1426 7 64 kan
: 1436 3 62 ten
: 1441 6 65  her
: 1452 11 64 bei
- 1465
: 1495 7 62 Spielt
: 1505 4 60  ein
: 1511 7 62  Lied
: 1521 3 60  für
: 1527 7 62  uns
: 1537 16 60  zwei
- 1555
: 1581 6 64 Bei
: 1591 3 62  Mu
: 1597 6 64 sik
: 1607 3 62  und
: 1612 6 65  bei
: 1623 18 64  Wein
- 1643
: 1666 6 62 Wolln
: 1677 3 62  wir
: 1682 7 62  heut
: 1692 6 64  glück
: 1702 3 65 lich
: 1708 5 64  sein
: 1718 7 62 ~
: 1730 6 60 ~
: 1739 5 58 ~
- 1745
: 1746 4 58 Ich
: 1752 4 57  fand
: 1757 5 55  sie
: 1763 4 53  ir
: 1768 4 50 gend
: 1774 4 53 wo
- 1780
: 1790 5 56 Al
: 1796 3 57 lein
: 1801 4 55  in
: 1806 4 53  Me
: 1812 4 50 xi
: 1817 3 53 ko
- 1822
: 1827 7 62 A
: 1838 11 60 ni
: 1855 12 52 ta
- 1869
: 1904 3 52 Schwarz
: 1909 3 53  war
: 1914 3 54  ihr
: 1919 5 55  Haar
- 1926
: 1940 3 57 Die
: 1945 3 58  Au
: 1951 3 57 gen
- 1955
: 1957 3 58 Wie
: 1962 3 60  zwei
: 1967 24 62  Ster
: 1992 4 60 ~
: 1999 4 60 ne
: 2004 3 62  so
: 2009 8 60  klar
- 2019
: 2089 4 56 Ich
: 2095 3 57  bau
: 2100 4 55  für
: 2105 4 53  uns
: 2111 4 50  ein
* 2116 4 53  Nest
- 2122
: 2132 5 56 Wo's
: 2137 4 57 ~
: 2143 4 55 sich
: 2148 4 53  le
: 2153 4 50 ben
: 2158 5 53  lässt
- 2165
: 2169 8 62 A
: 2180 12 60 ni
: 2197 12 52 ta
- 2211
: 2245 4 52 In
: 2250 3 53  Me
: 2255 3 54 xi
: 2261 5 55 ko
- 2268
: 2282 4 57 Denn
: 2287 4 58  nur
: 2293 3 57  bei
: 2298 4 58  dir
: 2303 4 57  al
: 2309 5 53 lein
- 2316
: 2325 6 48 Will
: 2336 4 50  ich
: 2341 4 52  im
: 2347 3 55 mer
: 2353 7 53  sein
- 2362
: 2405 4 53 Um
: 2417 6 53  uns
: 2428 4 53  he
: 2433 6 62 rum
- 2441
: 2454 3 62 Da
: 2459 4 62  sa
: 2465 3 60 ßen
: 2470 3 58  sie
: 2475 4 55  ganz
: 2481 4 53  stumm
- 2487
: 2497 3 58 Und
: 2502 3 58  mach
: 2508 3 58 ten
- 2512
: 2513 3 60 Gro
: 2518 3 62 ße
* 2523 25 62  Au
: 2550 5 60 ~
: 2555 6 62 ~
: 2561 4 60 ~
: 2567 4 60 gen
- 2573
: 2619 6 53 Die
: 2630 8 55  Com
: 2641 3 57 pa
: 2647 5 57 ńe
: 2657 6 55 ros
- 2665
: 2668 4 55 Mit
: 2674 2 57  ih
: 2679 4 55 ren
: 2689 3 55  Som
: 2695 3 57 bre
: 2701 4 55 ros
- 2707
: 2711 3 55 Denn
: 2716 4 57  nun
: 2722 3 55  ge
: 2727 3 57 hörst
: 2733 4 58  du
: 2738 27 60  mir
- 2767
: 2782 9 62 Woah
: 2793 4 57 ~
: 2798 9 60 ~
: 2809 9 62 ~
- 2820
: 2825 3 56 Heu
: 2830 4 55 te
: 2835 3 53  ist
: 2841 3 52  die
: 2846 4 53  Nacht
- 2852
: 2862 5 56 Nicht
: 2867 4 57 ~
: 2873 3 55 zum
: 2878 4 53  schla
: 2884 4 50 fen
: 2889 5 53  da
- 2896
: 2899 8 62 A
: 2911 11 60 ni
: 2927 4 63 ta
* 2931 7 64 ~
- 2940
: 2976 3 52 Denn
: 2981 4 53  so
: 2986 4 54  ein
* 2992 5 55  Fest
- 2999
: 3012 4 57 Gab
: 3018 4 58  es
: 3023 4 57  noch
: 3028 4 58  nir
: 3034 3 57 gend
: 3039 5 53 wo
- 3046
: 3056 8 48 Hier
: 3066 3 48  in
: 3071 3 52  Me
: 3076 3 55 xi
* 3079 6 53 ko
- 3087
: 3110 8 69 Yey
- 3120
: 3169 7 64 Mu
: 3180 3 62 si
: 3186 7 64 kan
: 3196 3 62 ten
: 3202 6 65  her
: 3212 16 64 bei
- 3230
: 3255 7 62 Spielt
: 3265 3 60  ein
: 3271 7 62  Lied
: 3281 3 60  für
: 3287 6 62  uns
: 3297 14 60  zwei
- 3313
: 3340 6 64 Bei
: 3350 3 62  Mu
: 3357 6 64 sik
: 3366 3 62  und
: 3372 7 65  bei
: 3383 14 64  Wein
- 3399
: 3426 6 62 Wolln
: 3436 3 62  wir
: 3441 6 62  heut
: 3452 7 64  glück
: 3462 3 65 lich
: 3468 7 64  sein
: 3478 6 62 ~
: 3488 7 60 ~
: 3499 3 58 ~
- 3503
: 3505 3 57 Ich
: 3510 3 57  fand
: 3516 3 55  sie
: 3522 3 53  ir
: 3527 3 50 gend
: 3533 4 53 wo
- 3539
: 3549 5 56 Al
: 3554 3 57 lein
: 3559 3 55  in
: 3564 4 53  Me
: 3569 3 50 xi
: 3575 3 53 ko
- 3580
: 3585 7 62 A
: 3596 11 60 ni
: 3612 10 52 ta
- 3624
: 3661 4 52 Schwarz
: 3667 3 53  war
: 3672 3 54  ihr
: 3677 5 55  Haar
- 3684
: 3698 3 57 Die
: 3704 3 58  Au
: 3709 3 57 gen
- 3713
: 3714 3 58 Wie
: 3719 3 60  zwei
: 3725 27 62  Ster
: 3752 4 60 ~
: 3758 5 60 ne
: 3763 3 62  so
: 3767 10 60  klar
E