#TITLE:Lookin' Out My Back Door
#ARTIST:Creedence Clearwater Revival
#MP3:Creedence Clearwater Revival - Lookin' Out My Back Door.mp3
#VIDEO:Creedence Clearwater Revival - Lookin' Out My Back Door.mp4
#COVER:Creedence Clearwater Revival - Lookin' Out My Back Door.jpg
#BPM:221.4
#GAP:17957
#ENCODING:UTF8
#LANGUAGE:English
#GENRE:Southern Rock
#EDITION:Rock Band Store 2010 Vol. 2
#YEAR:1970
: 0 3 -7 Just
: 5 2 -7  got
: 10 2 -7  home
: 14 1 -7  from
: 16 1 -7  Il
: 18 2 -5 ~
: 21 1 -5 li
: 24 5 -7 nois
- 32
: 34 2 -2 Lock
: 38 1 -2  the
: 41 2 -2  front
: 45 3 -2  door
: 49 1 0  oh
: 51 1 2 ~
: 55 6 -2  boy
- 66
* 68 2 7 Got
* 72 2 5  to
* 75 2 7 ~
: 78 2 5  sit
: 81 1 7 ~
: 84 6 5  down
: 93 1 2  take
: 95 2 0 ~
: 98 2 -2  a
: 101 1 -2  rest
: 103 1 0 ~
- 108
: 110 1 0 on
: 112 1 2 ~
: 114 1 2  the
: 117 1 -2  porch
: 119 2 0 ~
- 130
: 134 1 -10 I
: 136 2 -7 mag
: 139 1 -7 i
: 141 3 -7 na
: 146 2 -7 tion
: 150 1 -7  sets
: 152 1 -5 ~
: 156 4 -7  in
- 166
: 168 1 -7 Pret
: 170 1 -2 ~
: 172 1 -2 ty
: 176 2 -2  soon
: 179 3 -2  I'm
: 185 1 0  sing
: 187 2 2 ~
: 190 4 -2 in'
- 200
* 202 2 5 Doo
* 205 4 7 ~
* 211 1 5  doo
: 213 5 7 ~
: 219 6 5  doo
: 227 2 2  look
: 230 2 0 ~
: 233 1 -2 in'
: 235 1 0  out
: 237 2 2 ~
: 240 2 0  my
: 243 2 2 ~
: 247 1 2  back
: 249 2 0 ~
: 253 5 -2  door
- 262
: 264 3 -7 There's
: 268 1 -7  a
: 270 3 -7  gi
: 274 2 -7 ant
: 278 3 -7  do
: 282 1 -7 in'
: 284 1 -7  cart
: 286 2 -5 ~
: 290 5 -7 wheels
- 301
: 303 2 -2 Stat
: 308 2 -2 ue
: 312 3 -2  wear
: 316 1 -2 in'
* 319 1 0  high
* 321 2 2 ~
: 326 5 -2  heels
- 335
* 337 3 7 Look
* 341 2 7  at
: 344 5 7  all
: 350 1 7  the
: 352 4 5  hap
: 357 2 5 py
: 361 1 2  crea
: 363 2 0 ~
: 367 1 -2 tures
- 369
: 371 1 -2 danc
: 373 2 0 ~
: 376 2 0 in'
: 380 1 0  on
: 382 2 2 ~
: 385 1 2  the
: 387 5 0  lawn
- 401
: 404 1 -10 A
: 406 3 -7  di
: 410 1 -7 no
: 413 4 -7 saur
: 419 1 -7  Vic
: 421 1 -7 tro
: 423 3 -5 ~
: 427 2 -7 la
- 435
: 438 2 -2 Lis
: 441 1 -2 ten
: 443 1 -2 in'
: 446 2 -2  to
: 450 2 -2  Buck
: 453 2 0  Ow
: 456 3 2 ~
: 460 4 -2 ens
- 470
: 472 1 5 Doo
: 474 5 7 ~
: 481 1 5  doo
: 483 5 7 ~
: 489 7 5  doo
: 498 1 2  look
: 500 2 0 ~
: 503 1 -2 in'
: 505 1 0  out
: 507 2 2 ~
: 510 2 0  my
: 513 2 2 ~
: 517 1 2  back
: 519 2 0 ~
: 523 6 -2  door
- 537
: 540 1 3 Tam
: 542 1 5 ~
: 544 2 5 bou
: 547 4 5 rines
: 552 2 5  and
: 555 3 5  el
: 559 1 0 e
: 562 3 0 phants
- 567
: 569 2 2 are
: 574 1 2  play
: 576 2 3 ~
: 579 2 3 in'
: 582 3 3  in
: 586 1 3  the
: 588 1 0  band
: 590 4 2 ~
- 599
: 601 1 2 Won't
: 603 1 -7 ~
: 605 1 -7  you
: 607 3 -7  take
: 611 2 -4  a
: 614 5 -2  ride
: 624 2 -2  on
: 627 1 0  the
: 631 2 2  fly
: 634 1 0 ~
: 636 2 -2 in'
: 641 2 -2  spoon
: 644 5 0 ~?
- 654
: 656 1 3 Doo
: 658 1 5 ~
: 661 1 -2  n'
: 663 1 2  doo
: 665 2 0  doo
- 671
: 673 1 -10 A
: 675 2 -7  won
: 678 2 -7 drous
: 682 3 -7  ap
: 686 2 -7 pa
: 689 2 -5 ri
: 693 3 -7 tion
- 702
: 704 1 -7 Pro
: 706 1 -5 vid
: 708 3 -2 ~
: 712 1 -2 ed
: 715 4 -2  by
: 720 1 -2  ma
: 722 1 0 gi
: 724 1 2 ~
: 727 6 -2 cian
- 739
: 741 1 5 Doo
: 743 4 7 ~
: 749 2 5  doo
: 752 3 7 ~
: 758 7 5  doo
: 767 1 2  look
: 769 1 0 ~
: 771 1 -2 in'
: 773 1 0  out
: 775 2 2 ~
: 779 2 0  my
: 782 2 2 ~
: 786 1 2  back
: 788 2 0 ~
: 792 6 -2  door
- 827
: 1076 2 3 Tam
: 1079 2 5 ~
: 1083 2 5 bou
: 1086 3 5 rines
: 1090 2 5  and
: 1093 3 5  el
: 1097 1 2 e
: 1099 4 0 phants
- 1105
: 1107 2 2 are
: 1112 3 3  play
: 1116 2 3 in'
: 1120 3 3  in
: 1124 1 3  the
: 1127 1 0  band
: 1129 4 2 ~
- 1137
: 1139 1 2 Won't
: 1141 1 -2 ~
: 1144 1 -7  you
: 1146 3 -7  take
: 1150 1 -4  a
: 1152 5 -2  ride
: 1162 3 -2  on
: 1166 1 0  the
: 1169 2 2  fly
: 1172 2 0 ~
: 1175 1 -2 in'
: 1179 2 -2  spoon
: 1182 4 0 ~?
- 1191
: 1193 2 3 Doo
: 1196 2 5 ~
: 1200 1 2  n'
: 1203 1 0  doo
: 1205 2 0  doo
- 1210
: 1212 1 -9 Both
: 1214 1 -7 ~
: 1216 2 -7 er
: 1220 3 -7  me
: 1225 1 -7  to
: 1227 1 -7 mor
: 1229 4 -5 ~
: 1234 1 -7 row
- 1239
: 1241 2 -7 To
: 1244 1 -5 day
: 1246 2 -2 ~
: 1249 2 -2  I'll
: 1252 4 -2  buy
: 1257 2 -2  no
: 1261 1 0  sor
: 1263 3 2 ~
: 1267 4 -2 rows
- 1277
* 1279 1 5 Doo
* 1281 5 7 ~
* 1288 1 5  doo
* 1290 3 7 ~
* 1296 7 5  doo
: 1305 1 2  look
: 1307 1 0 ~
: 1309 1 -2 in'
: 1311 1 0  out
: 1313 2 2 ~
: 1318 1 0  my
: 1320 2 2 ~
: 1324 2 2  back
: 1327 2 0 ~
: 1331 8 -2  door
- 1368
: 1547 2 -8 For
: 1550 2 -5 ward
: 1555 3 -5  trou
: 1559 2 -5 bles
: 1563 1 -5  Il
: 1565 1 -3 ~
: 1567 1 -3 li
: 1569 5 -5 nois
- 1577
: 1579 1 -1 Lock
: 1581 1 0 ~
: 1584 1 0  the
: 1586 3 0  front
: 1590 4 0  door
: 1596 1 2  oh
: 1598 1 4 ~
: 1601 5 0  boy
- 1611
* 1613 3 9 Look
* 1617 2 9  at
* 1620 5 9  all
: 1626 1 9  the
: 1628 4 7  hap
: 1633 2 7 py
: 1637 1 4  crea
: 1639 3 2 ~
: 1643 1 0 tures
- 1645
: 1647 1 0 danc
: 1649 2 2 ~
: 1652 2 2 in'
: 1656 1 2  on
: 1658 1 4 ~
: 1660 1 4  the
: 1662 6 2  lawn
- 1678
: 1682 2 -7 Both
: 1685 2 -5 ~
: 1688 2 -5 er
: 1694 3 -5  me
: 1699 2 -5  to
: 1702 2 -5 mor
: 1705 2 -3 ~
: 1708 2 -5 row
- 1718
: 1721 2 -5 To
: 1724 2 -3 day
: 1727 2 0 ~
: 1730 3 0  I'll
: 1736 3 0  buy
* 1741 2 2  no
* 1744 1 4 ~
: 1749 3 4  sor
: 1753 1 2 ~
: 1755 4 0 rows
- 1768
: 1771 1 7 Doo
: 1773 6 9 ~
: 1782 1 7  doo
: 1784 7 9 ~
: 1793 8 7  doo
: 1803 2 4  look
: 1806 2 2 ~
: 1810 2 0 in'
: 1813 2 0  out
: 1816 2 4 ~
: 1820 2 2  my
: 1823 4 4 ~
: 1829 2 4  back
: 1832 2 2 ~
: 1837 9 0  door
E