#TITLE:Died In Your Arms
#ARTIST:Cutting Crew
#LANGUAGE:Englisch
#EDITION:SingStar Rock Ballads
#GENRE:Pop
#YEAR:1987
#MP3:Cutting Crew - Died In Your Arms.mp3
#COVER:Cutting Crew - Died In Your Arms [CO].jpg
#VIDEO:Cutting Crew - Died In Your Arms [VD#0].avi
#VIDEOGAP:0
#BPM:248,4
#GAP:18236,71
: 0 5 54 Oh
: 8 8 66  I
- 18 19
: 27 4 64 I
: 32 2 66  just
: 36 4 66  died
: 40 3 67 ~
- 44
: 44 2 67 In
: 48 3 67  your
: 52 9 66  arms
: 64 3 62  to
: 68 11 64 night
- 81 82
: 99 4 57 It
: 103 3 66  must
: 107 2 66  have
: 111 4 66  been
- 117
: 119 3 66 Some
: 123 2 64 thin'
: 127 2 62  you
: 132 5 62  said
: 137 4 59 ~
- 143 144
: 154 4 62 I
: 159 3 62  just
: 164 3 66  died
: 167 4 67 ~
- 172
: 172 3 67 In
: 176 2 67  your
: 180 10 66  arms
: 192 2 62  to
* 196 36 64 night
- 234 375
: 395 2 54 I
: 399 3 59  keep
: 407 4 59  look
: 411 2 57 in'
- 414
: 415 2 54 For
: 419 5 59  some
: 427 2 57 thin'
: 431 2 59  I
: 435 5 62  can't
: 443 4 59  get
- 449 450
: 463 3 59 Bro
: 467 3 57 ken
: 471 4 59  hearts
- 477
: 483 3 59 Lie
* 487 5 64  all
: 495 2 62  a
: 499 6 61 round
: 507 3 62  me
- 511
: 511 2 62 And
: 515 7 62  I
: 523 3 61  don't
: 531 4 61  see
- 537
: 543 3 59 An
: 547 6 59  ea
: 556 4 57 sy
: 563 3 57  way
- 568
: 571 2 55 To
: 575 2 55  get
: 579 4 55  out
: 583 2 54  of
: 587 2 54  this
- 591 623
: 643 2 54 Her
: 647 4 57  dia
: 651 5 59 ry
: 659 2 59  sits
- 663
: 667 2 59 By
: 671 2 59  the
: 675 2 59  bed
: 683 5 59 side
: 691 7 62  ta
: 699 2 59 ble
- 703
: 707 2 54 The
: 711 4 57  cur
: 715 2 59 tains
: 719 2 59  are
: 723 6 59  closed
- 731
: 739 2 57 The
: 743 2 64  cat's
: 747 2 64  in
: 751 2 62  the
: 755 8 61  cra
: 763 2 62 dle
- 767
: 771 7 62 Who
: 779 2 61  would
: 783 2 61 've
* 787 3 61  thought
- 792
: 795 3 59 That
: 799 2 59  a
: 803 4 59  boy
: 807 3 57 ~
: 811 2 57 like
: 819 3 57  me
- 824 825
: 835 2 52 Could
: 839 2 54  come
: 843 2 54  to
: 847 3 54  this
- 852 853
: 875 4 66 Oh
: 879 3 64 ~
: 883 3 61 ~
: 888 5 66 ~
- 895
: 903 7 66 I
- 912 913
: 923 2 64 I
: 927 2 66  just
: 931 4 66  died
: 935 2 67 ~
- 938
: 939 2 67 In
: 943 2 67  your
: 947 9 66  arms
: 959 2 62  to
: 963 7 64 night
- 972 973
: 995 2 57 It
: 999 2 66  must
: 1003 2 66 've
: 1007 5 66  been
- 1013
: 1015 2 66 Some
: 1019 2 64 thin'
: 1023 2 62  you
: 1027 5 62  said
: 1032 4 59 ~
- 1038 1039
: 1051 3 61 I
: 1055 2 62  just
: 1059 4 66  died
: 1063 3 67 ~
- 1067
: 1067 2 67 In
: 1071 2 67  your
: 1075 11 66  arms
: 1087 2 62  to
: 1091 10 64 night
- 1103 1104
: 1131 4 66 Oh
: 1135 4 64 ~
: 1139 3 61 ~
: 1143 6 66 ~
- 1151
: 1156 2 54 Cos
* 1159 4 66  I
: 1163 5 59 ~
- 1170 1171
: 1179 2 62 I
: 1183 2 62  just
: 1187 4 66  died
: 1191 3 67 ~
- 1195
: 1195 2 67 In
: 1199 2 67  your
: 1203 10 66  arms
: 1215 2 62  to
: 1219 7 64 night
- 1228 1229
: 1251 2 57 It
: 1255 2 66  must
: 1259 2 66 've
: 1263 5 66  been
- 1269
: 1271 2 66 Some
: 1275 2 64  kind
: 1279 2 62  of
: 1283 3 62  kiss
: 1287 4 59 ~
- 1293 1294
: 1315 2 62 I
: 1319 6 67  should
: 1327 2 67 've
: 1331 11 66  walked
: 1343 3 62  a
* 1347 17 64 way
- 1366 1367
: 1387 3 59 I
: 1391 3 66  should
: 1395 2 65 've
: 1399 3 66  walked
: 1403 2 65  a
: 1406 8 66 way
: 1414 4 59 ~
- 1420 1579
: 1599 2 54 Is
: 1603 3 54  there
: 1607 4 57  a
: 1611 2 59 ny
: 1615 2 59  just
: 1623 5 59  cause
- 1630
: 1635 2 54 For
: 1639 4 57  feel
: 1643 2 59 ing
: 1647 2 59  like
: 1655 4 62  this?
- 1661 1662
: 1679 2 59 On
: 1683 2 59  the
: 1687 2 59  sur
: 1691 2 59 face
- 1694
: 1695 3 59 I'm
: 1699 2 59  a
: 1703 2 64  name
: 1707 2 64  on
: 1711 2 62  a
: 1715 2 61  list
- 1719
: 1723 2 62 I
: 1731 10 62  try
: 1743 2 61  to
: 1747 6 61  be
: 1759 2 59  dis
: 1763 6 59 creet
- 1771 1772
: 1788 2 55 But
: 1791 4 55  then
- 1797
* 1799 2 55 Blow
: 1802 2 54  it
: 1804 1 54  a
: 1805 4 54 gain
- 1811 1832
: 1852 3 59 I
: 1855 3 59  have
: 1859 5 66  lost
: 1867 5 64  and
: 1875 4 62  found
: 1879 2 59 ~
- 1882
: 1883 2 59 It's
: 1887 2 59  my
: 1891 5 66  fi
: 1899 3 66 nal
: 1903 2 64  mis
: 1907 4 59 take
- 1913 1914
: 1923 2 59 She's
: 1927 2 66  lov
: 1931 3 66 ing
: 1935 4 64  by
: 1941 3 59  pro
: 1947 3 59 xy
- 1952
: 1955 2 57 No
* 1959 3 66  give
: 1963 2 66  and
: 1967 4 64  all
: 1971 3 62 ~
: 1975 4 62 take
- 1981
: 1983 2 62 Cos
: 1987 7 62  I've
: 1999 2 61  been
: 2003 9 61  thrilled
- 2013
: 2015 2 59 To
: 2019 3 59  fan
: 2023 2 57 ta
: 2027 2 57 sy
- 2031 2032
: 2043 2 55 One
: 2051 2 55  too
: 2055 3 55  ma
: 2059 2 54 ny
: 2063 4 54  times
- 2069 2070
: 2091 3 66 Oh
: 2095 3 64 ~
: 2099 2 61 ~
: 2103 7 66 ~
- 2112
: 2119 5 66 I
- 2126 2127
: 2139 4 64 I
: 2143 2 66  just
: 2147 4 66  died
: 2151 3 67 ~
- 2155
: 2155 2 67 In
: 2159 2 67  your
: 2163 10 66  arms
: 2175 2 62  to
: 2179 8 64 night
- 2189 2190
: 2211 2 54 It
: 2215 2 66  must
: 2219 2 66 've
: 2223 5 66  been
- 2229
: 2231 3 66 Some
: 2235 3 64 thin'
: 2239 2 62  you
: 2243 4 62  said
: 2247 4 59 ~
- 2253 2254
: 2267 2 62 I
: 2271 3 62  just
: 2275 6 67  died
- 2282
: 2283 2 67 In
: 2287 2 67  your
: 2291 11 66  arms
: 2303 2 62  to
: 2307 10 64 night
- 2319 2343
: 2363 4 66 Oh
: 2368 3 64 ~
: 2371 3 61 ~
: 2375 4 66 I
: 2379 5 59 ~
- 2386 2387
: 2395 2 61 I
: 2399 3 62  just
: 2403 7 67  died
- 2411
: 2411 3 67 In
: 2415 3 67  your
: 2419 9 66  arms
: 2431 2 62  to
: 2435 8 64 night
- 2445 2446
: 2467 2 57 It
: 2471 2 66  must
: 2475 2 66 've
: 2479 4 66  been
- 2485
: 2487 3 66 Some
: 2491 3 64  kind
: 2495 2 62  of
: 2499 6 62  kiss
: 2505 5 59 ~
- 2512 2513
: 2531 2 62 I
: 2535 5 67  should
: 2543 2 67 've
: 2547 9 66  walked
: 2559 2 62  a
: 2563 19 64 way
- 2584 2585
: 2603 3 62 I
: 2607 3 66  should
: 2611 4 65 've
: 2615 4 66  walked
: 2619 4 65  a
: 2623 6 65 way
: 2631 4 59 ~
- 2637 2638
: 2650 4 57 It
: 2654 4 59  was
: 2658 4 57  a
: 2662 5 59  long
: 2670 3 59  hot
: 2678 6 62  night
- 2686
: 2694 2 57 But
: 2698 3 57  she
: 2702 3 59  made
: 2705 2 57  it
: 2707 3 59  ea
: 2713 3 54 sy
- 2718
: 2722 2 59 She
: 2726 3 64  made
: 2730 3 64  it
: 2734 6 62  feel
: 2742 4 61  right
: 2746 2 59 ~
- 2750 2751
: 2762 4 58 But
: 2766 3 59  now
: 2770 3 58  it's
: 2774 3 59  o
: 2778 2 55 ver
- 2782
: 2786 3 58 The
: 2790 2 59  mo
: 2794 3 59 ment
: 2798 4 59  is
: 2802 7 62  gone
- 2811
: 2818 3 57 I
: 2822 3 66  fol
: 2826 3 66 lowed
: 2830 3 66  my
* 2834 6 66  hands
- 2841
: 2842 2 66 Not
: 2846 2 66  my
: 2850 6 66  head
: 2856 3 64 ~
- 2861
: 2866 3 66 I
: 2870 3 66  know
: 2874 2 64  I
: 2878 2 62  was
: 2882 8 62  wrong
: 2890 5 59 ~
- 2897 3113
: 3133 6 54 Oh
: 3141 8 66  I
- 3151 3152
: 3162 4 64 I
: 3166 2 66  just
: 3170 4 66  died
: 3174 3 67 ~
- 3178
: 3178 2 67 In
: 3182 3 67  your
: 3186 9 66  arms
: 3198 2 62  to
: 3202 5 64 night
- 3209 3210
: 3234 3 57 It
: 3238 3 66  must
: 3242 2 66  have
: 3246 5 66  been
- 3252
: 3254 3 66 Some
: 3258 3 64 thin'
: 3262 2 62  you
: 3266 4 62  said
: 3270 4 59 ~
- 3276 3277
: 3290 2 62 I
: 3294 3 62  just
: 3298 6 67  died
- 3305
: 3306 2 67 In
: 3310 2 67  your
* 3314 10 66  arms
: 3326 2 62  to
: 3330 26 64 night
- 3358 3370
: 3390 5 54 Oh
: 3398 6 66  I
: 3404 6 59 ~
- 3412
: 3418 2 61 I
: 3422 2 62  just
: 3426 4 66  died
* 3430 2 67 ~
- 3433
: 3434 2 67 In
: 3438 2 67  your
: 3442 10 66  arms
: 3454 2 62  to
: 3458 7 64 night
- 3467 3468
: 3489 2 57 It
: 3494 2 66  must
: 3498 2 66  have
: 3502 5 66  been
- 3508
: 3510 2 66 Some
: 3514 2 64  kind
: 3518 2 62  of
: 3522 4 62  kiss
: 3526 8 59 ~
- 3536 3537
: 3554 2 62 I
: 3558 7 67  should
: 3566 2 67 've
: 3570 9 66  walked
: 3582 2 62  a
: 3586 18 64 way
- 3606 3607
: 3626 2 66 I
: 3630 3 66  should
: 3634 3 65 've
: 3638 3 66  walked
: 3642 4 65  a
: 3646 6 66 way
: 3653 5 59 ~
E
