#TITLE:My Heart Will Go On
#ARTIST:Céline Dion
#LANGUAGE:Englisch
#EDITION:[SC]-Songs
#MP3:Céline Dion - My Heart Will Go On.mp3
#COVER:Céline Dion - My Heart Will Go On [CO].jpg
#BACKGROUND:Céline Dion - My Heart Will Go On [BG].jpg
#BPM:192
#GAP:19950
: 0 10 16 E
: 11 3 16 very
: 15 7 16  night
: 24 6 16  in
: 32 6 15  my
: 39 9 16  dreams,
- 50
: 55 4 16 I
: 62 7 15  see
: 70 10 16  you,
: 88 4 18  I
* 94 10 20  fe
* 104 2 18 el
: 108 9 18  you
- 119
: 126 8 16 That
: 136 2 16  is
: 140 6 16  how
: 148 6 16  I
: 156 6 15  know
: 164 9 16  you
- 175
: 179 3 16  go
: 183 3 11 ~
: 187 23 11  on
- 212
: 250 10 16 Far
: 261 2 16  a
: 264 6 16 cross
: 272 5 16  the
: 279 6 15  dis
: 287 9 16 tance
- 298
: 305 5 16 and
: 312 6 15  spa
: 319 11 16 ces
: 334 6 18  bet
* 341 11 20 we
* 352 2 18 en
: 356 9 18  us
- 367
: 374 8 16 You
: 384 3 16  have
: 388 6 16  come
: 395 7 16  to
: 404 6 15  show
: 412 10 16  you
: 432 3 16  go
: 436 30 11  on
- 468
: 498 19 16 Near,
: 528 18 18  far,
: 552 7 11  wher
: 560 13 23 e
: 574 6 21 ver
: 582 3 20  you
: 586 12 18  are
- 600
: 606 8 20 I
: 616 4 21  be
: 621 13 20 lieve
: 636 6 18  that
: 647 4 16  the
: 652 6 15  heart
: 660 12 16  does
: 676 6 15  go
: 684 30 13  o
: 715 14 11 ~n
- 731
: 746 24 16 Once
: 776 19 18  more,
: 800 6 11  you
* 808 13 23  o
: 823 6 21 pened
: 831 3 20  the
: 835 11 18  door
- 848
: 855 5 20 And
: 862 6 21  you're
: 870 12 20  here
: 884 6 18  in
: 892 6 16  my
: 900 6 15  heart
- 907
: 908 10 16 and
: 924 6 15  my
: 931 7 15  heart
: 939 13 16  will
: 954 6 18  go
: 962 14 20  on
: 978 6 18  a
: 985 7 16 ~nd
: 994 20 16  on
- 1016
: 1119 8 16 Love
: 1129 3 16  can
: 1133 6 16  touch
: 1141 6 16  us
: 1148 6 15  one
: 1156 10 16  time
- 1168
: 1174 4 16 and
: 1180 6 15  last
: 1188 12 16  for
: 1203 6 18  a
* 1210 14 20  life
: 1226 8 18 time
- 1236
: 1246 6 16 And
: 1254 4 16  ne
: 1258 4 16 ver
: 1265 5 16  let
: 1272 6 15  go
: 1280 12 16  till
: 1298 4 16  we're
: 1304 22 11  gone
- 1328
: 1367 9 16 Love
: 1378 3 16  was
: 1382 6 16  when
: 1389 5 16  I
: 1397 5 15  loved
: 1404 11 16  you
- 1417
: 1420 6 16 One
: 1428 6 15  true
: 1436 11 16  time
: 1452 4 18  I
* 1460 12 20  hold
: 1474 10 18  to
- 1486
: 1492 8 16 In
: 1502 3 16  my
: 1506 5 16  life
: 1513 5 16  we'll
: 1521 6 15  al
: 1529 11 16 ways
: 1544 3 16  go
: 1548 4 18 ~
: 1553 37 11  on
- 1592
: 1616 22 16 Near,
: 1646 20 18  far,
: 1668 7 11  wher
* 1676 14 23 e
: 1691 6 21 ver
: 1699 3 20  you
: 1703 4 20  a
: 1707 9 18 ~re
- 1718
: 1722 10 20 I
: 1734 4 21  be
: 1739 13 20 lieve
: 1754 6 18  that
: 1765 3 16  the
: 1769 6 15  heart
: 1777 14 16  does
: 1797 3 15  go
: 1801 28 13  o
: 1830 20 11 ~n
- 1852
: 1864 22 16 Once
: 1894 18 18  more
: 1916 6 11  you
* 1924 15 23  o
: 1940 6 21 pened
: 1948 3 20  the
: 1952 14 18  door
- 1968
: 1972 5 20 And
: 1979 5 21  you're
: 1986 14 20  here
: 2002 6 18  in
: 2010 6 16  my
: 2018 7 15  heart
- 2026
: 2026 14 16 and
: 2042 4 15  my
: 2048 6 15  heart
: 2056 12 16  will
: 2071 8 18  go
: 2080 14 20  on
: 2096 6 18  a
: 2103 11 16 ~nd
: 2116 34 16  on
- 2152
: 2358 30 20 You're
: 2390 16 22  here,
: 2413 6 15  there's
* 2421 14 27  no
: 2436 6 25 thing
: 2444 4 24  I
: 2449 12 22  fear
- 2463
: 2470 3 24 And
: 2474 3 25  I
: 2479 17 24  know
: 2498 5 22  that
: 2505 4 20  my
: 2511 8 19  heart
: 2521 12 20  will
: 2539 6 19  go
: 2546 28 17  o
: 2575 14 15 ~n
- 2591
: 2610 24 20 We'll
: 2638 20 22  stay
: 2661 6 15  for
* 2668 15 27 e
: 2684 6 25 ver
: 2692 3 24  this
: 2696 14 22  way
- 2712
: 2716 6 24 You
: 2724 5 25  are
: 2731 13 24  safe
: 2746 6 22  in
: 2754 6 20  my
: 2762 6 19  heart
- 2770
: 2772 12 20 and
: 2786 5 19  my
: 2793 6 19  heart
: 2801 13 20  will
: 2816 4 22  go
* 2822 15 24  on
: 2839 15 22  and
: 2856 53 20  on
- 2911
: 2972 10 22 Hm
: 2983 2 24 ~
: 2985 4 22 ~
: 2990 96 20 m
: 3089 35 22  hmm
: 3128 72 20  hmm
E
