#TITLE:It´s All Coming Back To Me Now
#ARTIST:Céline Dion
#MP3:Céline Dion - It's All Coming Back To Me Now.mp3
#COVER:MI0001617441.jpg
#VIDEO:Céline Dion - It's All Coming Back To Me Now.mp4
#BPM:363.68
#GAP:49010
: -3 3 16 There 
: 1 3 17 were 
: 5 8 19 Nights
- 15
: 17 6 17 When 
: 24 5 16 the 
: 31 12 19 Wind 
- 45
: 48 6 19 Was 
: 55 12 24 so 
: 71 9 21 co-
: 81 8 19 ~
: 90 7 17 ld 
- 99
: 129 5 14 That 
: 137 4 16 my 
: 142 8 17 Body 
: 154 11 17 froze 
: 166 6 17 in 
: 174 8 17 Bed
- 184
: 186 4 16 If 
: 193 6 16 I 
: 200 6 16 just 
: 210 8 16 list
: 218 7 14 ened 
: 227 5 14 to 
: 237 6 12 it
- 245
: 248 6 14 Right 
: 255 6 16 out-
: 262 9 14 side 
: 278 4 12 the 
: 283 7 12 Win-
: 291 29 9 dow
- 322
: 382 4 16 There 
: 387 4 17 were 
: 393 8 19 Days
- 402
: 404 5 17 When 
: 410 4 16 the
: 416 13 19 Sun 
- 431
: 433 7 19 Was 
: 441 14 24 so 
: 457 7 21 cruel
: 465 6 19 ~
: 472 5 17 ~
: 478 3 14 ~
: 482 4 12 ~
- 488
: 521 3 16 all 
: 525 3 17 the 
: 530 7 17 tears 
: 538 6 17 turned 
: 547 5 17 to 
: 555 14 17 Dust
- 571
: 576 3 16 And 
: 581 4 16 I 
: 588 6 16 just 
: 597 8 16 knew 
- 606
: 606 6 14 My 
: 615 5 14 Eyes 
: 624 4 12 were 
: 630 8 14 dry-
: 639 9 16 ing 
: 649 6 14 up 
- 657
: 660 5 12 For-
: 666 5 12 ever...
: 672 23 9 ~
- 697
: 782 5 19 I 
: 788 8 19 fi
: 797 6 19 nished 
: 806 9 21 cry
: 816 6 21 ing 
: 825 6 21 In 
: 832 4 21 the 
: 837 8 21 In-
: 846 7 19 stant 
: 856 6 19 that 
: 863 5 19 you 
: 869 13 19 left
- 884
: 897 4 16 And 
: 901 4 17 I 
: 908 5 19 can't 
: 914 4 19 re
: 920 7 19 mem
: 928 6 19 ber 
: 938 10 21 where 
: 949 6 21 or 
: 956 8 21 when 
: 965 7 21 or 
: 973 19 21 how
: 992 19 19 ~
- 1013
: 1031 3 16 And 
: 1034 3 17 I 
: 1041 6 19 ba
: 1048 5 19 nished 
: 1056 3 19 ev
: 1061 4 19 ery 
: 1066 11 21 mem
: 1077 11 21 ory
- 1090
: 1087 9 21 You 
: 1097 4 21 and 
: 1102 7 21 I 
: 1111 8 17 had 
: 1120 8 23 e
: 1129 7 19 ver
: 1139 36 24 made
- 1177
: 1295 4 19 But 
: 1300 3 19 when 
: 1304 3 19 you 
: 1309 7 19 touch 
: 1320 7 24 me 
: 1329 6 23 like 
: 1339 12 24 this 
- 1353
: 1380 2 19 And 
: 1383 2 19 you 
: 1387 6 19 hold 
: 1397 7 24 me 
: 1409 7 23 like 
: 1418 12 24 that
- 1432
: 1457 3 28 I 
: 1461 3 29 just 
: 1465 7 31 have 
: 1474 7 29 to 
: 1483 7 28 ad
: 1491 18 33 mit
- 1511
: 1515 4 31 That 
: 1520 4 29 it's 
: 1529 8 28 all 
: 1541 11 29 co
: 1553 9 28 ming 
: 1563 12 26 back 
: 1581 7 24 to 
: 1589 20 23 me 
- 1611
: 1605 4 19 When 
: 1610 4 19 I 
: 1615 11 19 touch 
: 1627 4 24 you 
: 1634 8 23 like 
: 1643 18 24 this
- 1663
: 1682 3 19 And 
: 1686 3 19 I 
: 1690 9 19 hold 
: 1700 9 24 you 
: 1710 7 23 like 
: 1718 18 24 that 
- 1738
: 1755 5 28 It's 
: 1761 4 29 so 
: 1766 6 31 hard 
: 1773 6 29 to 
: 1782 7 28 be
: 1791 17 33 lieve
- 1810
: 1814 4 31 But 
: 1819 4 29 it's 
: 1825 12 28 all 
: 1841 6 29 co
: 1848 10 28 ming
: 1859 11 26 back 
: 1876 8 24 to 
: 1888 12 23 me
- 1902
: 1904 4 16 It's 
: 1909 5 16 all 
: 1916 7 16 co
: 1924 7 16 ming 
: 1932 16 17 back 
- 1949
: 1949 3 16 It's 
: 1953 4 14 all 
: 1958 7 12 co
: 1966 8 12 ming 
: 1976 6 14 back 
: 1984 7 16 to 
: 1993 10 17 me 
: 2004 10 16 no
: 2016 5 14 w
: 2022 12 12 ~
- 2035
: 2036 4 16 There 
: 2041 3 17 were 
: 2045 8 19 mo
: 2054 7 19 ments 
: 2062 7 19 of 
: 2070 15 21 Gold 
- 2086
: 2086 6 19 And 
: 2093 7 19 there 
: 2101 6 16 were 
: 2108 6 21 Fla
: 2115 7 19 shes 
: 2124 6 19 of 
: 2131 4 16 Light
: 2136 3 14 ~
: 2140 6 12 ~
- 2148
: 2165 4 16 There 
: 2170 4 17 were 
: 2175 8 19 Things 
: 2184 6 19 I'd 
: 2191 3 19 ne
: 2194 3 19 ver 
: 2198 3 19 do 
: 2203 3 19 a
: 2207 6 21 gain
- 2214
: 2214 6 19 But 
: 2222 6 19 then 
: 2230 9 16 they'd 
: 2240 5 21 al
: 2246 5 19 ways 
: 2253 8 19 seemed 
: 2262 4 16 right
: 2267 4 14 ~
: 2272 7 12 ~
- 2281
: 2295 5 21 There 
: 2301 3 23 were 
: 2305 8 24 Nights 
: 2314 6 24 of 
: 2321 4 24 end
: 2326 7 23 less 
: 2334 8 23 Plea
: 2343 13 21 sure
- 2358
: 2360 4 21 It 
: 2365 4 23 was 
: 2370 6 24 more 
: 2378 9 24 than 
: 2388 4 24 a
: 2393 7 23 ny 
: 2401 16 26 laws 
: 2418 8 24 al
: 2428 13 26 low
: 2442 4 24 ~
: 2446 37 21 ~
- 2485
: 2522 8 28 Ba
: 2531 11 28 by, 
: 2543 9 28 Ba
: 2553 10 26 by!
- 2565
: 2567 6 21 If 
: 2575 7 19 I 
: 2585 10 19 kiss 
: 2596 8 24 you 
: 2605 8 23 like 
: 2615 24 24 this
- 2641
: 2649 2 21 And 
: 2652 2 21 if 
: 2657 3 19 you 
: 2661 4 19 whis
: 2667 8 24 per 
: 2676 7 23 like 
: 2684 17 24 that
- 2703
: 2720 4 16 It 
: 2725 4 17 was 
: 2730 5 19 lost 
: 2736 7 17 long 
: 2744 8 16 a
: 2753 14 21 go
- 2768
: 2769 9 19 But 
: 2779 5 17 it's 
: 2785 12 16 all 
: 2800 8 17 co
: 2809 8 16 ming 
: 2818 13 14 back 
: 2832 9 12 to 
: 2842 6 11 me
- 2850
: 2852 4 19 If 
: 2857 3 19 you 
: 2861 7 19 want 
: 2869 8 24 me 
: 2878 7 23 like 
: 2886 11 24 this
- 2899
: 2916 3 19 And 
: 2920 2 19 if 
: 2923 4 19 you 
: 2928 5 19 need 
: 2935 7 24 me 
: 2943 5 23 like 
: 2949 23 24 that
- 2974
: 2984 3 16 It 
: 2988 4 17 was 
: 2993 8 19 dead 
: 3002 6 17 long 
: 3009 6 16 a
: 3016 14 21 go
- 3032
: 3034 6 19 But 
: 3041 4 17 it's 
: 3047 16 16 all 
: 3064 8 17 co
: 3073 4 16 ming 
: 3079 13 14 back 
: 3093 8 12 to 
: 3102 7 11 me 
- 3110
: 3112 3 16 It's 
: 3116 3 17 so 
: 3120 4 19 hard 
: 3127 8 17 to 
: 3136 5 16 re
: 3142 10 21 sist
- 3154
: 3162 5 19 And 
: 3168 5 17 it's 
: 3175 14 16 all 
: 3190 8 17 co
: 3199 6 16 ming 
: 3206 14 14 back 
: 3221 7 12 to 
: 3229 5 11 me
- 3236
: 3240 3 16 I 
: 3243 3 17 can 
: 3247 5 19 bare
: 3253 7 17 ly 
: 3261 8 16 re
: 3270 14 21 call 
- 3286
: 3288 4 19 That 
: 3293 5 21 it's 
: 3299 13 24 all 
: 3316 8 21 com
: 3325 7 19 ing 
: 3333 13 26 back
- 3347
: 3349 7 24 To 
: 3357 5 23 me 
* 3363 101 24 now
- 3466
: 3592 2 12 But 
: 3595 3 14 it's 
: 3599 6 16 all 
: 3606 6 14 co
: 3613 6 12 ming 
* 3620 18 14 back
* 3639 11 9 ~
* 3651 8 12 ~
- 3661
: 3937 4 19 There 
: 3942 3 17 were 
: 3946 6 16 those 
: 3953 6 19 em
: 3960 6 17 pty 
: 3967 8 16 Threats 
: 3977 7 17 and 
: 3985 9 19 hol
: 3995 12 24 low 
: 4008 12 21 Lies
: 4021 8 19 ~
: 4030 9 17 ~
- 4041
: 4081 3 14 And 
: 4085 3 16 when
: 4089 3 17 e
: 4093 3 17 ver 
: 4098 5 17 you 
: 4104 9 17 try 
: 4114 4 17 to 
: 4123 9 17 hurt 
: 4133 8 16 me
- 4142
: 4142 5 16 I 
: 4148 8 16 just 
: 4157 8 16 hurt 
: 4166 7 14 you 
: 4174 8 14 even 
: 4183 6 12 ~
: 4190 9 14 worse
- 4201
: 4203 3 16 And 
: 4207 6 14 so 
: 4217 9 12 much 
: 4227 7 12 deep
: 4235 24 9 er
- 4261
: 4324 4 16 There 
: 4329 4 17 were 
: 4334 6 19 Hou
: 4340 6 17 rs 
: 4347 7 16 that 
: 4355 10 17 just 
: 4366 9 19 went 
: 4376 8 19 on 
: 4385 8 24 for 
: 4394 6 21 Days
: 4401 17 19 ~
: 4419 5 17 ~
- 4426
: 4463 3 14 When 
: 4467 3 16 a
: 4471 7 17 lone 
: 4479 4 17 at 
: 4484 8 17 last 
: 4494 8 17 we'd 
: 4503 9 17 count 
: 4513 8 16 up 
: 4522 6 16 all 
: 4529 4 16 the 
: 4535 8 16 Chan
: 4544 10 14 ces 
- 4555
: 4557 6 14 That 
: 4564 7 12 were 
: 4572 7 14 lost 
: 4582 6 16 to 
: 4590 6 14 us 
: 4602 6 12 for
* 4608 8 12 ev
* 4616 25 9 er
- 4643
: 4728 5 19 But 
: 4734 7 19 you 
: 4742 7 19 were 
: 4750 16 21 history 
- 4767
: 4768 6 21 With 
: 4775 3 21 the 
: 4779 11 21 slam
: 4791 8 19 ming 
: 4801 4 19 of 
: 4807 4 19 the 
* 4812 24 19 door
- 4838
: 4841 4 28 And 
: 4846 3 29 I 
: 4851 6 31 made 
: 4858 4 31 my
: 4866 7 36 self 
: 4875 6 36 so 
: 4884 8 36 strong 
: 4893 3 33 a
: 4897 10 33 gain 
: 4909 8 33 some
* 4918 14 33 how
* 4933 24 31 ~
- 4959
: 4972 4 28 And 
: 4977 4 29 I 
: 4982 3 31 ne
: 4986 9 31 ver 
: 4997 7 31 was
: 5005 8 31 ted 
: 5014 4 33 a
: 5018 12 33 ny
- 5032
: 5034 4 21 of 
: 5039 8 21 my 
: 5048 10 21 time 
: 5059 6 17 on 
: 5067 8 23 you 
: 5076 9 19 since 
* 5086 58 24 then
- 5146
: 5237 3 19 But 
: 5241 3 19 if 
: 5245 3 19 I 
: 5251 9 19 touch 
: 5263 7 24 you 
: 5272 6 23 like 
: 5279 17 24 this
- 5298
: 5317 3 31 And 
: 5321 3 31 if 
: 5325 3 31 you 
: 5331 7 31 kiss 
: 5340 7 36 me 
: 5348 8 35 like 
: 5360 16 36 that 
- 5378
: 5399 4 28 It 
: 5404 4 29 was 
: 5410 7 31 so 
: 5418 9 29 long 
: 5429 5 28 a
: 5435 17 33 go
- 5453
: 5455 7 19 But 
: 5463 7 17 it's 
: 5475 11 16 all 
: 5487 8 17 co
: 5496 6 16 ming 
: 5505 16 14 back 
: 5524 5 12 to 
: 5532 15 11 me 
- 5548
: 5550 3 19 If 
: 5553 4 19 you 
: 5558 10 19 touch 
: 5569 8 24 me 
: 5578 8 23 like 
: 5587 20 24 this
- 5609
: 5620 4 19 And 
: 5625 3 19 if 
: 5629 4 19 I 
: 5635 7 19 kiss 
: 5643 7 24 you 
: 5652 9 23 like 
: 5663 19 24 that
- 5684
: 5698 4 28 It 
: 5703 5 29 was 
: 5709 7 31 gone 
: 5717 7 29 with 
: 5726 7 28 the 
: 5735 18 33 wind 
- 5753
: 5753 8 19 But 
: 5762 6 17 it's 
: 5771 11 16 all 
: 5785 7 17 co
: 5793 7 16 ming 
: 5801 15 14 back 
: 5817 7 12 to 
: 5825 15 11 me
- 5841
: 5842 4 24 It's 
: 5848 5 28 all 
: 5855 7 28 co
: 5863 6 28 ming 
: 5872 11 29 back 
- 5884
: 5886 4 16 It's 
: 5891 6 16 all 
: 5898 8 14 co
: 5907 7 12 ming 
: 5915 7 14 back 
: 5924 7 16 to 
: 5933 6 17 me 
: 5942 12 16 no
: 5955 4 14 w
: 5960 17 12 ~
- 5979
: 5975 4 28 There 
: 5980 3 29 were 
: 5984 7 31 mo
: 5992 7 31 ments 
: 6000 7 31 of 
* 6008 17 33 gold 
- 6026
: 6028 5 31 And 
: 6034 6 31 there 
: 6041 5 28 were 
: 6047 9 33 Fla
: 6057 6 31 shes 
: 6064 7 31 of 
: 6072 4 28 Light
: 6077 4 26 ~
: 6082 10 24 ~
- 6094
: 6105 3 28 There 
: 6109 3 29 were 
: 6114 7 31 Things 
: 6123 4 31 we'd 
: 6129 3 31 ne
: 6133 3 31 ver 
: 6137 3 31 do 
: 6141 2 31 a
: 6144 8 33 gain
- 6153
: 6154 7 31 But 
: 6162 7 31 then 
: 6170 7 28 they'd 
: 6178 7 33 al
: 6186 4 31 ways 
: 6192 7 31 seemed 
: 6200 6 28 right
: 6207 3 26 ~
: 6211 12 24 ~
- 6225
: 6233 4 21 There 
: 6238 3 23 were 
: 6243 7 24 Nights 
: 6251 4 24 of 
: 6256 6 24 end
: 6263 6 23 less 
: 6272 7 23 plea
: 6280 11 21 sure
- 6293
: 6299 3 21 It 
: 6303 4 23 was 
: 6308 7 24 more 
: 6316 7 24 than 
: 6324 5 24 all 
: 6330 7 23 your 
: 6338 16 26 laws 
: 6355 7 24 al
* 6363 13 26 low
* 6377 3 24 ~
* 6381 28 21 ~
- 6411
* 6440 10 28 Ba
* 6451 7 28 by, 
* 6459 10 28 Ba
* 6470 7 28 by, 
* 6478 10 28 Ba
* 6491 10 26 by!
- 6502
: 6502 9 19 When 
: 6512 10 19 you 
: 6523 9 19 touch 
: 6533 9 24 me 
: 6543 8 23 like 
* 6552 22 24 this
- 6576
: 6583 3 19 And 
: 6587 3 19 when 
: 6591 3 19 you 
: 6595 8 19 hold 
: 6604 7 24 me 
: 6612 7 23 like 
* 6620 22 24 that
- 6644
: 6652 4 16 It 
: 6657 3 17 was 
: 6661 6 19 gone 
: 6668 6 17 with 
: 6675 7 16 the 
: 6683 17 21 wind
- 6700
: 6700 7 19 But 
: 6708 9 17 it's 
: 6718 14 16 all 
: 6733 6 17 co
: 6740 9 16 ming 
: 6750 13 14 back 
: 6764 6 12 to 
: 6771 10 11 me
- 6781
: 6781 4 19 When 
: 6786 2 19 you 
: 6789 9 19 see 
: 6799 4 24 me 
: 6805 9 23 like 
* 6815 20 24 this
- 6837
: 6844 3 19 And 
: 6848 3 19 when 
: 6852 2 19 I 
: 6855 8 19 see 
: 6864 7 24 you 
: 6872 7 23 like 
: 6880 20 24 that
- 6902
: 6914 3 16 Then 
: 6918 3 17 we 
: 6922 8 19 see 
: 6931 6 17 what 
: 6939 6 16 we 
: 6947 15 21 want 
: 6963 4 19 to 
: 6969 7 17 see
- 6978
: 6980 14 16 All 
: 6995 7 17 co
: 7003 7 16 ming 
: 7011 13 14 back 
: 7026 6 12 to 
: 7034 9 11 me
- 7045
: 7047 3 17 The 
: 7051 6 19 Flesh 
: 7058 5 17 and 
: 7065 7 16 the 
: 7073 15 21 fan
: 7089 6 19 ta
: 7096 7 17 sies
- 7104
: 7105 13 16 All 
: 7119 8 17 com
: 7128 7 16 ing 
: 7136 12 14 back 
: 7149 9 12 to 
: 7159 8 11 me 
- 7167
: 7167 3 19 I 
: 7171 4 19 can 
: 7176 6 19 bare
: 7183 7 17 ly 
: 7191 6 16 re
: 7199 15 21 call
- 7215
: 7215 7 19 but 
: 7223 7 21 it's 
: 7231 13 24 all 
: 7245 7 21 com
: 7253 8 19 ing 
: 7262 14 26 back 
: 7278 5 24 to 
: 7284 7 23 me 
* 7293 70 24 now 
* 7363 55 24 ~
- 7420
: 7913 4 19 If 
: 7918 3 19 you 
: 7922 5 19 for
: 7928 13 19 give 
: 7944 15 24 me 
: 7961 12 23 all 
: 7974 19 24 this 
- 7995
: 8012 3 19 If 
: 8016 3 19 I 
: 8020 3 19 for
: 8024 9 19 give 
: 8034 9 24 you 
: 8044 11 23 all 
: 8056 15 24 that
- 8073
: 8100 4 16 We 
: 8105 3 17 for
: 8109 11 19 give 
: 8121 5 17 and 
: 8127 8 16 for
: 8136 20 21 get
- 8158
: 8160 5 19 And 
: 8166 10 17 it's 
: 8177 14 16 all 
: 8192 9 17 co
: 8202 9 16 ming 
: 8212 13 14 back 
: 8227 11 12 to 
: 8239 11 11 me
- 8252
: 8257 4 19 When 
: 8262 3 19 you 
: 8267 10 19 see 
: 8278 9 24 me 
: 8288 8 23 like 
* 8298 12 24 this
- 8312
: 8332 3 19 And 
: 8336 3 19 when 
: 8340 3 19 I 
: 8346 11 19 see 
: 8358 9 26 you 
: 8368 7 26 like 
: 8376 21 24 that
- 8399
: 8417 3 16 We 
: 8421 6 17 see 
: 8428 7 19 just 
: 8436 8 17 what 
: 8445 9 16 we 
: 8455 17 21 want 
: 8473 6 19 to 
: 8480 9 17 see
- 8491
: 8494 14 16 All 
: 8509 7 17 co
: 8517 7 16 ming 
: 8525 18 14 back 
: 8544 6 12 to 
: 8552 9 11 me
- 8563
: 8569 3 17 The 
: 8573 7 19 Flesh 
: 8581 7 17 and 
: 8589 7 16 the 
: 8597 15 21 fan
: 8613 6 19 ta
: 8620 9 17 sies
- 8630
: 8632 13 16 All 
: 8646 8 17 com
: 8655 7 16 ing 
: 8663 12 14 back 
: 8677 9 12 to 
: 8687 8 11 me 
- 8696
: 8697 3 19 I 
: 8701 4 19 can 
: 8706 6 19 bare
: 8713 7 17 ly 
: 8721 7 16 re
: 8729 17 21 call
- 8748
: 8752 6 19 but 
: 8759 7 17 it's 
: 8767 13 16 all 
: 8782 7 17 com
: 8791 12 16 ing 
: 8804 16 14 back 
: 8821 8 12 to 
: 8832 13 11 me 
* 8864 66 12 now 
- 8932
: 9024 3 19 And 
: 9028 3 19 when 
: 9032 3 19 you 
: 9036 10 19 kiss 
: 9047 8 24 me 
: 9056 8 23 like 
: 9065 24 24 this
- 9091
: 9184 3 19 And 
: 9188 3 19 when 
: 9192 3 19 I 
: 9196 9 19 touch 
: 9207 8 24 you 
: 9216 8 23 like
: 9225 31 24  that
- 9258
: 9352 3 19 And 
: 9356 3 19 if 
: 9360 3 19 you 
: 9364 10 19 do 
: 9375 9 24 it 
: 9385 6 23 like 
: 9393 31 24 this
- 9426
: 9538 4 19 And 
: 9543 3 19 if 
: 9547 8 19 we...
E
