#TITLE:Daddy DJ
#ARTIST:Daddy DJ
#MP3:Daddy DJ - Daddy DJ.mp3
#VIDEO:Daddy DJ - Daddy DJ.mp4
#COVER:Daddy DJ - Daddy DJ [CO].jpg
#BACKGROUND:Daddy DJ - Daddy DJ [BG].jpg
#BPM:270.25
#GAP:85
#VIDEOGAP:2.97
#ENCODING:UTF8
#LANGUAGE:English
#GENRE:Electronic
#YEAR:2000
#AUTHOR:Redeemer
: 0 3 -5 Dad
: 4 3 -2 dy
: 8 5 0  D
: 14 4 -5 J,
: 19 3 -5  please
: 23 3 -5  take
: 27 3 -2  me
: 31 3 -5  to
: 35 4 -2  the
: 40 5 0  par
: 46 4 -4 ty
- 50
: 51 3 -4 And
: 55 3 -5  let
: 59 3 -2  me
: 63 3 -5  dance
: 67 3 -2  a
: 71 6 -2 long,
: 83 3 -2  un
: 87 3 -5 til
: 91 3 -2  the
: 95 3 -5  lights
: 99 3 -2  are
: 103 8 -2  on
- 318
: 523 4 -5 You
: 528 3 -5  leave
: 532 3 -5  me
: 536 7 -5  once
: 544 2 -7  a
: 547 4 -9 gain
: 552 2 -7  home
: 555 3 -5  a
: 559 12 -5 lone
- 580
: 588 2 -5 The
: 591 5 -5  fridge
: 597 2 -5  is
: 600 7 -5  full
: 608 3 -5  but
: 612 2 -5  my
: 615 8 -5  heart
: 624 7 -5  is
: 632 7 -7  a
: 640 9 -9 chin'
- 650
: 652 3 -5 You
: 656 3 -5  think
: 660 3 -5  I
: 664 7 -2  can
: 672 3 -7  make
: 676 3 -9  it
: 680 2 -7  on
: 683 4 -9  my
: 688 8 -5  own
- 707
: 719 4 -5 Just
: 724 3 -5  a
: 728 8 -5  kiss
: 740 3 -9  and
: 744 3 -7  you
: 748 3 -5  are
: 752 8 -5  gone
- 772
: 781 2 -5 An
: 784 3 -5 o
: 788 3 -5 ther
: 792 7 -5  night
: 800 3 -7  like
: 804 2 -9  a
: 807 4 -7  mil
: 812 3 -9 lion
: 816 5 -5  be
: 822 6 -5 fore
- 838
: 844 3 -5 An
: 848 3 -5 o
: 852 3 -5 ther
: 856 3 -5  par
: 860 2 -5 ty
: 863 5 -5  where
: 869 2 -5  I'm
: 872 7 -5  not
: 880 7 -5  in
: 888 7 -7 vi
: 896 3 -9 ted
- 905
: 907 4 -5 As
: 912 3 -5  al
: 916 3 -5 ways
: 920 7 -2  you'll
: 928 3 -7  heat
: 932 3 -9  the
: 936 6 -5  dance
: 943 6 -5  floor
- 962
: 972 3 -5 In
: 976 3 -5  front
: 980 3 -5  of
: 984 3 -5  your
: 988 3 -7  turn
: 992 3 -7 ta
: 996 3 -9 bles
: 1000 3 -7  go
: 1004 3 -5 ing
: 1008 6 -5  mad
- 1019
: 1020 3 3 Why
: 1024 3 2  don't
: 1028 3 -2  you
: 1032 9 -5  keep
: 1052 3 3  me
: 1056 3 2  close
: 1060 3 -2  to
: 1064 8 -4  you
- 1078
: 1084 3 -4 I'm
: 1088 3 -4  not
: 1092 3 -4  a
: 1096 2 -5 ny
: 1099 4 -5 more
: 1104 7 -2  the
: 1112 8 -5  kid
: 1121 6 -2  you
: 1128 6 -7  knew
- 1142
: 1148 3 3 Why
: 1152 3 2  should
: 1156 2 -2  I
: 1159 8 -5  stay
: 1180 3 3  deep
: 1184 3 2  in
: 1188 3 -2  the
: 1192 6 -4  blue
- 1206
: 1212 3 -4 I
: 1216 2 -4  wan
: 1219 4 -4 na
: 1224 7 -5  move
: 1232 7 -2  my
: 1240 7 -5  bo
: 1248 7 -2 dy
: 1256 9 -7  too
- 1271
: 1280 4 -5 Dad
: 1285 3 -2 dy
: 1289 5 0  D
: 1295 4 -5 J,
: 1300 3 -5  please
: 1304 2 -5  take
: 1307 4 -2  me
: 1312 3 -5  to
: 1316 4 -2  the
: 1321 5 0  par
: 1327 4 -4 ty
- 1331
: 1332 3 -4 And
: 1336 3 -5  let
: 1340 4 -2  me
: 1345 3 -5  dance
: 1349 2 -2  a
: 1352 7 -2 long,
: 1364 3 -2  un
: 1368 3 -5 til
: 1372 3 -2  the
: 1376 4 -5  lights
: 1381 3 -2  are
: 1385 6 -2  on
- 1401
: 1408 3 -5 Dad
: 1412 4 -2 dy
: 1417 5 0  D
: 1423 5 -5 J,
: 1429 2 -5  please
: 1432 3 -5  take
: 1436 3 -2  me
: 1440 2 -5  to
: 1443 5 -2  the
: 1449 5 0  par
: 1455 5 -4 ty
- 1460
: 1460 3 -4 And
: 1464 3 -5  let
: 1468 3 -2  the
: 1472 2 -5  mu
: 1475 4 -2 sic
: 1480 5 -2  play,
: 1491 5 -2  un
: 1497 3 -5 til
: 1501 3 -2  the
: 1505 3 -5  break
: 1509 3 -2  of
: 1513 5 -2  day
- 1662
: 1805 3 -5 We've
: 1809 3 -5  been
: 1813 1 -5  a
: 1815 8 -5 side
: 1824 4 -7  since
: 1829 2 -9  I
: 1832 4 -7  meant
: 1837 4 -5  to
: 1842 6 -5  be
- 1856
: 1869 2 -5 A
: 1872 4 -5  part
: 1877 3 -5  of
: 1881 6 -5  you
: 1888 5 -5  that
: 1894 2 -5  was
: 1897 7 -5  just
: 1905 7 -5  a
: 1913 7 -7 wa
: 1921 5 -9 king
- 1930
: 1932 2 -5 My
: 1935 6 -5  life
: 1942 3 -5  with
: 1946 6 -2  you
: 1953 4 -7  is
: 1958 1 -9  a
: 1960 4 -7  fan
: 1965 2 -9 ta
: 1968 6 -5 sy
- 1986
: 1997 2 -5 I
: 2000 4 -5  am
: 2005 3 -5  your
: 2009 7 -5  prince
: 2017 3 -7  and
: 2021 3 -9  you
: 2025 3 -7  are
: 2029 3 -5  my
: 2033 7 -5  king
- 2059
: 2061 2 -5 You
: 2064 5 -5  say
: 2070 2 -5  your
: 2073 7 -5  thing
: 2081 4 -7  drives
: 2086 2 -9  some
: 2089 4 -7 times
: 2094 3 -9  you
: 2098 5 -5  in
: 2104 8 -5 sane
- 2118
: 2125 3 -5 You
: 2129 3 -5  think
: 2133 3 -5  you're
: 2137 3 -5  no
: 2141 3 -5  good
: 2145 3 -5  fa
: 2149 3 -5 ther
: 2153 6 -5  and
: 2160 8 -5  so
: 2169 4 -5  you're
: 2174 1 -7  a
: 2176 8 -9 shamed
- 2187
: 2188 4 -5 But
: 2193 3 -5  all
: 2197 3 -5  I
: 2201 7 -2  want
: 2209 3 -7  is
: 2213 1 -9  to
: 2215 5 -7  share
: 2221 3 -9  your
: 2225 7 -5  pain
- 2244
: 2253 3 -5 Club
: 2257 3 -5 bin'
: 2261 3 -5  the
: 2265 4 -5  night
: 2270 3 -7  a
: 2274 3 -7 long
: 2278 3 -9  and
: 2282 2 -7  ha
: 2285 2 -5 ving
: 2288 8 -5  fun
- 2299
: 2301 3 3 Why
: 2305 3 2  don't
: 2309 3 -2  you
: 2313 6 -5  keep
: 2333 3 3  me
: 2337 3 2  close
: 2341 3 -2  to
: 2345 6 -4  you
- 2359
: 2366 2 -4 I'm
: 2369 3 -4  not
: 2373 3 -4  a
: 2377 2 -5 ny
: 2380 3 -5 more
: 2384 8 -2  the
: 2393 7 -5  kid
: 2401 7 -2  you
: 2409 7 -7  knew
- 2423
: 2430 2 3 I
: 2433 3 2  wan
: 2437 2 -2 na
: 2440 7 -5  feel
: 2461 3 3  this
: 2465 3 2  part
: 2469 4 -2  of
: 2474 6 -4  you
- 2487
: 2493 2 -4 I
: 2496 5 -4  wan
: 2502 2 -4 na
: 2505 8 -5  move
: 2514 6 -2  my
: 2521 8 -5  bo
: 2530 6 -2 dy
: 2537 8 -7  too
- 2552
: 2561 4 -5 Dad
: 2566 3 -2 dy
: 2570 5 0  D
: 2576 4 -5 J,
: 2581 3 -5  please
: 2585 2 -5  take
: 2588 4 -2  me
: 2593 3 -5  to
: 2597 4 -2  the
: 2602 5 0  par
: 2608 4 -4 ty
- 2612
: 2613 3 -4 And
: 2617 3 -5  let
: 2621 4 -2  me
: 2626 3 -5  dance
: 2630 2 -2  a
: 2633 7 -2 long,
: 2645 3 -2  un
: 2649 3 -5 til
: 2653 3 -2  the
: 2657 4 -5  lights
: 2662 3 -2  are
: 2666 6 -2  on
- 2682
: 2689 3 -5 Dad
: 2693 4 -2 dy
: 2698 5 0  D
: 2704 5 -5 J,
: 2710 2 -5  please
: 2713 3 -5  take
: 2717 3 -2  me
: 2721 2 -5  to
: 2724 5 -2  the
: 2730 5 0  par
: 2736 5 -4 ty
- 2741
: 2741 3 -4 And
: 2745 3 -5  let
: 2749 3 -2  the
: 2753 2 -5  mu
: 2756 4 -2 sic
: 2761 5 -2  play,
: 2772 5 -2  un
: 2778 3 -5 til
: 2782 3 -2  the
: 2786 3 -5  break
: 2790 3 -2  of
: 2794 5 -2  day
- 2808
: 2817 4 -5 Dad
: 2822 3 -2 dy
: 2826 5 0  D
: 2832 4 -5 J,
: 2837 3 -5  please
: 2841 2 -5  take
: 2844 4 -2  me
: 2849 3 -5  to
: 2853 4 -2  the
: 2858 5 0  par
: 2864 4 -4 ty
- 2868
: 2869 3 -4 And
: 2873 3 -5  let
: 2877 4 -2  me
: 2882 3 -5  dance
: 2886 2 -2  a
: 2889 7 -2 long,
: 2901 3 -2  un
: 2905 3 -5 til
: 2909 3 -2  the
: 2913 4 -5  lights
: 2918 3 -2  are
: 2922 6 -2  on
- 2938
: 2945 3 -5 Dad
: 2949 4 -2 dy
: 2954 5 0  D
: 2960 5 -5 J,
: 2966 2 -5  please
: 2969 3 -5  take
: 2973 3 -2  me
: 2977 2 -5  to
: 2980 5 -2  the
: 2986 5 0  par
: 2992 5 -4 ty
- 2997
: 2997 3 -4 And
: 3001 3 -5  let
: 3005 3 -2  the
: 3009 2 -5  mu
: 3012 4 -2 sic
: 3017 5 -2  play,
: 3028 5 -2  un
: 3034 3 -5 til
: 3038 3 -2  the
: 3042 3 -5  break
: 3046 3 -2  of
: 3050 5 -2  day
- 3255
: 3458 4 -5 Dad
: 3463 3 -2 dy
: 3467 5 0  D
: 3473 4 -5 J
- 3558
: 3586 4 -5 Dad
: 3591 3 -2 dy
: 3595 5 0  D
: 3601 4 -5 J
- 3659
: 3714 4 -5 Dad
: 3719 3 -2 dy
: 3723 5 0  D
: 3729 5 -5 J,
: 3735 3 -5  please
: 3739 2 -5  take
: 3742 3 -2  me
: 3746 4 -5  to
: 3751 3 -2  the
: 3755 5 0  par
: 3761 5 -4 ty
- 3765
: 3766 3 -4 And
: 3770 3 -5  let
: 3774 3 -2  me
: 3778 3 -5  dance
: 3782 4 -2  a
: 3787 6 -2 long,
: 3798 3 -2  un
: 3802 4 -5 til
: 3807 3 -2  the
: 3811 3 -5  lights
: 3815 3 -2  are
: 3819 10 -2  on
E