#TITLE:Diva (Israel 1998)
#ARTIST:Dana International
#MP3:Dana International - Diva (Israel 1998).mp3
#VIDEO:Dana International - Diva (Israel 1998) [VD#-0,9].avi
#COVER:Dana International - Diva (Israel 1998) [CO].jpg
#BACKGROUND:Dana International - Diva (Israel 1998) [BG].jpg
#BPM:134
#GAP:6740
#VIDEOGAP:-0,9
#ENCODING:UTF8
#LANGUAGE:English
#GENRE:Disco
#EDITION:Ultrastar Eurovision Edition Vol.1
#START:0,9
: 0 3 11 She 
: 4 1 19 is 
: 6 6 19 all 
- 14
: 20 3 11 You'll 
: 24 4 12 e
: 28 2 11 ver 
: 32 2 11 dream 
: 36 1 9 to 
: 38 8 9 find, 
- 48
: 64 2 9 On 
: 68 1 18 her 
: 70 6 18 stage 
- 78
: 84 1 9 She 
: 86 2 9 si
: 88 2 11 ngs 
: 92 1 9 her 
: 94 5 9 glo 
: 100 2 7 - 
: 102 1 7 ry 
: 103 2 9 - 
: 105 7 7 -, 
- 114
: 128 2 11 Pain 
: 132 1 19 and 
: 134 6 19 hurt 
- 142
: 148 2 11 Will 
: 152 3 12 steal 
: 156 2 11 her 
: 160 2 9 heart 
: 164 2 18 a
* 166 6 18 light, 
- 174
: 192 2 9 Like 
: 196 1 18 a 
: 198 4 18 queen 
- 204
: 212 1 18 In 
: 214 4 19 all 
: 220 1 18 her 
: 222 4 18 glo 
: 226 5 16 - 
: 231 2 18 ry
: 233 11 16 -, 
- 246
: 250 1 7 And 
: 252 1 9 when 
: 254 1 11 she 
: 256 3 11 cri
: 260 1 12 es 
- 262
: 262 2 12 Di
: 266 1 6 va 
: 268 1 9 is 
: 270 1 12 an 
: 272 3 12 an
: 276 3 11 gel, 
- 281
: 284 1 11 When 
: 286 1 14 she 
: 288 2 14 la
: 291 5 16 ughs, 
: 300 1 16 she's 
: 302 1 18 a 
: 304 3 16 de
: 308 4 14 vil, 
- 316
: 316 1 16 She 
: 318 1 18 is 
: 320 4 19 all 
- 326
: 336 10 19 Beau
: 346 2 18 ty 
: 349 2 16 and 
: 352 2 18 lo 
: 354 1 16 - 
* 355 23 18 ve, 
- 380
: 384 2 19 Vi
: 386 1 18 va 
: 388 2 19 Ma
: 390 2 18 ri 
: 392 2 16 - 
: 394 2 16 a, 
- 400
: 400 2 19 Vi
: 402 1 18 va 
: 404 2 19 Vic
: 406 2 18 to 
: 408 2 16 - 
: 410 2 16 ria, 
- 416
: 416 3 18 Aph
: 420 2 16 ro
: 422 4 15 di
: 426 12 18 ta, 
- 440
: 448 2 21 Vi
: 450 1 19 va 
: 452 1 21 la 
: 454 2 19 Di 
: 456 2 18 - 
: 458 2 18 va, 
- 464
: 464 2 21 Vi
: 466 1 19 va 
: 468 2 21 Vic
: 470 2 19 to 
: 472 2 18 - 
: 474 2 18 ria, 
- 480
: 480 4 19 Cle
: 484 2 18 o
: 486 4 16 pat
: 490 14 19 ra, 
- 506
: 512 3 11 Si
: 516 2 19 lent 
* 520 6 19 tears, 
- 528
: 532 2 11 Drop 
: 536 3 12 from 
: 540 3 11 these 
: 544 2 9 e
: 546 1 11 yes 
: 548 2 9 to
: 550 2 9 ni 
: 552 2 11 - 
: 554 8 9 ght, 
- 564
: 576 3 9 Tears 
: 580 1 18 of 
: 583 4 18 prayer, 
- 589
: 596 1 18 For 
: 598 4 19 a
: 602 1 18 ll 
: 604 1 18 those 
: 607 3 18 a 
: 610 2 16 - 
: 612 1 16 ching 
: 614 12 16 hearts, 
- 628
: 634 1 7 And 
: 636 1 9 when 
: 638 1 11 she 
: 640 3 11 cri
: 644 1 12 es 
- 646
: 646 2 12 Di
: 650 1 6 va 
: 652 1 9 is 
: 654 1 12 an 
: 656 3 12 an
: 660 3 11 gel, 
- 665
: 668 1 11 When 
: 670 1 14 she 
: 672 2 14 la
* 675 5 16 ughs, 
: 684 1 16 she's 
: 686 1 18 a 
: 688 3 16 de
: 692 4 14 vil, 
- 700
: 700 1 16 She 
: 702 1 18 is 
: 704 4 19 all 
- 710
: 720 10 19 Beau
: 730 2 18 ty 
: 733 2 16 and 
: 736 2 18 lo 
: 738 1 16 - 
: 739 23 18 ve, 
- 764
: 768 2 19 Vi
: 770 1 18 va 
: 772 2 19 Ma
: 774 2 18 ri 
: 776 2 16 - 
: 778 2 16 a, 
- 784
: 784 2 19 Vi
: 786 1 18 va 
: 788 2 19 Vic
: 790 2 18 to 
: 792 2 16 - 
: 794 2 16 ria, 
- 800
: 800 3 18 Aph
: 804 2 16 ro
: 806 4 15 di
: 810 12 18 ta, 
- 824
: 832 2 21 Vi
: 834 1 19 va 
: 836 1 21 la 
* 838 2 19 Di 
: 840 2 18 - 
: 842 2 18 va, 
- 848
: 848 2 21 Vi
: 850 1 19 va 
: 852 2 21 Vic
: 854 2 19 to 
: 856 2 18 - 
: 858 2 18 ria, 
- 864
: 864 4 19 Cle
: 868 2 18 o
: 870 4 16 pat
: 874 6 19 ra
: 880 8 18 -, 
- 890
: 896 2 19 Vi
: 898 1 18 va 
: 900 2 19 Ma
: 902 2 18 ri 
: 904 2 16 - 
: 906 2 16 a, 
- 912
: 912 2 19 Vi
: 914 1 18 va 
: 916 2 19 Vic
: 918 2 18 to 
: 920 2 16 - 
: 922 2 16 ria, 
- 928
: 928 3 18 Aph
: 932 2 16 ro
: 934 4 15 di
: 938 12 18 ta, 
- 952
: 960 2 21 Vi
: 962 1 19 va 
: 964 1 21 la 
* 966 2 19 Di 
: 968 2 18 - 
: 970 2 18 va, 
- 976
: 976 2 21 Vi
: 978 1 19 va 
: 980 2 21 Vic
: 982 2 19 to 
: 984 2 18 - 
: 986 2 18 ria, 
- 992
: 992 4 19 Cle
: 996 2 18 o
: 998 4 16 pat
: 1002 16 19 ra, 
- 1020
: 1030 20 14 Hey, 
: 1052 4 12 a-
: 1056 12 11 a, 
: 1074 3 16 a-
: 1077 1 14 a-
: 1078 14 12 a-
: 1092 2 14 a-
: 1094 5 12 a-
: 1099 9 11 ah, 
- 1110
: 1116 3 19 A 
: 1119 1 18 - 
: 1120 16 16 h, 
: 1138 2 19 a 
: 1140 1 18 - 
: 1141 15 16 h, 
: 1159 2 18 a-
: 1161 1 16 a-
: 1162 26 18 ah! 
- 1190
: 1195 2 16 Di
: 1197 2 16 va! 
- 1201
: 1211 2 19 Di
* 1213 2 19 va! 
- 1217
: 1227 2 21 Di
: 1229 2 21 va! 
- 1233
: 1243 2 23 Di
: 1245 2 23 va! 
- 1249
: 1275 2 19 Vi
: 1277 1 18 va 
: 1279 2 19 Ma
: 1281 2 18 ri 
: 1283 2 16 - 
: 1285 2 16 a, 
- 1291
: 1291 2 19 Vi
: 1293 1 18 va 
: 1295 2 19 Vic
: 1297 2 18 to 
: 1299 2 16 - 
: 1301 2 16 ria, 
- 1307
: 1307 3 18 Aph
: 1311 2 16 ro
: 1313 4 15 di
* 1317 12 18 ta, 
- 1331
: 1339 2 21 Vi
: 1341 1 19 va 
: 1343 1 21 la 
: 1345 2 19 Di 
: 1347 2 18 - 
: 1349 2 18 va, 
- 1355
: 1355 2 21 Vi
: 1357 1 19 va 
: 1359 2 21 Vic
: 1361 2 19 to 
: 1363 2 18 - 
: 1365 2 18 ria, 
- 1371
: 1371 4 19 Cle
: 1375 2 18 o
: 1377 4 16 pat
: 1381 6 19 ra
: 1387 7 18 -, 
- 1396
: 1403 2 19 Vi
: 1405 1 18 va 
: 1407 2 19 Ma
: 1409 2 18 ri 
: 1411 2 16 - 
: 1413 2 16 a, 
- 1419
: 1419 2 19 Vi
: 1421 1 18 va 
: 1423 2 19 Vic
: 1425 2 18 to 
: 1427 2 16 - 
: 1429 2 16 ria, 
- 1435
: 1435 3 18 Aph
: 1439 2 16 ro
: 1441 4 15 di
: 1445 12 18 ta, 
- 1459
: 1467 2 21 Vi
: 1469 1 19 va 
: 1471 1 21 la 
* 1473 2 19 Di 
: 1475 2 18 - 
: 1477 2 18 va, 
- 1483
: 1483 2 21 Vi
: 1485 1 19 va 
: 1487 2 21 Vic
: 1489 2 19 to 
: 1491 2 18 - 
: 1493 2 18 ria, 
- 1499
: 1499 2 19 Vi
: 1501 2 19 va! 
E