#TITLE:Gino E L'alfetta
#ARTIST:Daniele Silvestri
#MP3:Daniele Silvestri - Gino E L'alfetta.mp3
#COVER:Daniele Silvestri - Gino E L'alfetta [CO].jpg
#BACKGROUND:Daniele Silvestri - Gino E L'alfetta [BG].jpg
#BPM:264,64
#GAP:3400,85
#ENCODING:UTF8
#LANGUAGE:Italian
#EDITION:Singstar - Italian Party
: 0 9 36 Yeah
- 11
: 62 4 36 Go
- 68
: 314 4 59 Ehi,
: 322 5 59  ehi
- 328
: 330 2 59 So
: 332 2 59 no
: 334 2 59  gay,
: 338 2 59  so
: 340 2 59 no
: 342 5 59  gay
- 349
: 354 3 59 Non
: 358 2 59  so
: 360 2 59 no
: 362 2 59  gay,
: 366 2 59  non
: 370 2 59  so
: 372 2 59 no
: 374 3 59  gay
- 378
: 378 4 59 Ehi,
: 386 5 59  ehi
- 392
: 394 2 59 So
: 396 2 59 no
: 398 2 59  gay,
: 402 2 59  so
: 404 2 59 no
: 406 5 59  gay
- 413
: 502 4 61 Va
: 506 4 59 do
: 510 3 61  di
: 514 3 66  fret
: 521 4 64 ta
- 527
: 533 3 61 Va
: 537 3 59 do
: 541 2 61  di
: 545 4 66  fret
: 553 4 64 ta
- 559
: 565 3 61 Non
: 569 2 59  ho
: 573 2 61  piů
* 578 4 61  tem
: 585 5 54 po
- 591
: 593 4 54 Da
: 601 3 57 te
: 605 3 59 mi
: 609 3 61  ret
: 617 5 54 ta
- 624
: 629 3 54 Gi
: 633 3 57 no
: 637 2 59  mi~ as
: 641 5 61 pet
: 649 5 64 ta
- 656
: 661 2 61 Den
: 665 3 59 tro~ un'
: 669 2 57 al
: 674 4 61 fet
: 681 3 59 ta
- 686
: 693 3 59 Pie
: 697 3 57 na
: 701 3 60  di
: 706 4 59  muf
: 713 3 57 fa
- 718
: 757 4 61 Va
: 761 4 59 do
: 765 3 61  di
: 769 3 66  cor
: 777 4 64 sa
- 783
: 789 3 61 Va
: 793 3 59 do~ a~ u
: 797 2 61 na
: 801 4 69  fes
: 809 4 68 ta
- 815
: 817 6 65 Pie
: 825 3 60 na
: 829 2 59  di
: 834 4 61  gen
: 841 5 54 te
- 847
: 849 4 54 Mol
: 857 3 57 to~ en
: 861 3 59 tu
: 865 3 61 sias
: 873 5 54 ta
- 880
: 885 3 54 O
: 889 3 57 ra
: 893 2 59  non
: 897 5 61  pos
* 905 5 64 so
- 912
: 917 2 61 Va
: 921 3 59 do
: 925 2 57  di
: 930 4 61  pre
: 937 3 59 scia
- 942
: 949 3 59 For
: 953 3 57 se
: 957 3 60  ri
: 962 4 59 tor
: 969 3 57 no
- 973
: 973 3 59 Ma
: 977 4 57  non
: 981 3 59  č~ u
: 985 3 57 na
: 989 3 54  pro
: 993 4 59 mes
: 1001 4 57 sa
- 1007
: 1013 4 57 Va
: 1017 4 59 do
: 1021 3 57  di
: 1025 3 66  fret
: 1033 4 64 ta
- 1039
: 1045 3 61 Va
: 1049 3 59 do
: 1053 2 61  di
: 1057 4 69  cor
: 1065 4 68 sa
- 1071
: 1077 3 68 Quel
: 1081 3 68 lo
: 1085 2 68  che
: 1089 4 68  ser
: 1097 3 66 ve~ č
- 1101
: 1101 3 66 Tut
: 1105 3 66 to
: 1109 3 66  den
: 1113 3 63 tro~ al
: 1117 3 58 la
: 1121 3 56  bor
: 1129 3 54 sa~ e
- 1133
: 1133 3 54 Per
: 1137 3 51  a
: 1141 3 54 des
: 1145 2 51 so
* 1149 2 54  mi
- 1153
: 1157 8 59 Bas
: 1165 2 57 ~
: 1169 9 54 ta
- 1180
: 1231 3 36 Good
: 1235 6 36  evening
- 1242
: 1242 4 36 Ladies
: 1246 2 36  and
: 1249 9 36  gentlemen
- 1260
: 1293 3 61 Ma
: 1297 5 61 ri
: 1305 2 56 a
: 1309 2 56  sei
: 1313 4 56  sem
: 1321 4 57 pre
: 1325 3 56 ~
: 1329 6 56  mi
: 1337 2 49 a
- 1340
: 1341 3 56 Sei
: 1345 3 57  l'u
: 1349 3 56 ni
: 1353 4 54 ca
- 1359
: 1373 3 56 Pos
: 1377 3 57 si
: 1381 2 54 bi
: 1383 2 54 le
- 1387
: 1401 3 57 Ma
: 1405 4 59  di
: 1409 6 61  Gi
: 1417 4 64 no
- 1423
: 1433 3 61 Io
: 1437 3 60  mi
* 1441 5 61  fi
: 1449 5 59 do~ un
: 1457 5 57  po'
: 1465 4 56  di
: 1473 5 54  piů
- 1480
: 1525 4 61 Lui
: 1529 4 59  mi
: 1533 3 61  con
: 1537 3 66 quis
: 1545 4 64 ta
- 1551
: 1557 3 61 E
: 1561 3 59  mi
: 1565 2 61  ri
: 1569 4 69 las
: 1577 4 68 sa
- 1583
: 1585 6 65 Gi
: 1593 3 60 no~ ha~ i
: 1597 2 59  miei
: 1602 4 68  stes
: 1609 5 66 si
- 1615
: 1617 4 66 Pun
: 1625 3 63 ti
: 1629 3 58  di
: 1633 3 56  vis
: 1641 3 54 ta~ e
- 1645
: 1645 3 54 Per
: 1649 3 51  a
: 1653 3 54 des
: 1657 3 51 so
: 1661 5 54  mi
- 1668
: 1677 3 59 Bas
: 1681 3 61 ~
: 1685 4 59 ~
: 1689 6 57 ~
: 1697 8 59 ~
: 1705 6 57 ~
: 1713 4 59 ~
: 1717 4 57 ~
: 1725 4 54 ta
- 1731
: 1850 5 57 Ehi,
: 1857 5 59  ehi
- 1863
: 1865 1 59 So
: 1867 1 59 no
: 1869 3 59  gay,
: 1873 1 59  so
: 1875 1 59 no
* 1877 3 59  gay
- 1882
: 1889 2 59 Non
: 1893 2 59  so
: 1895 1 59 no
: 1897 2 59  gay,
: 1901 2 59  non
: 1905 1 59  so
: 1907 1 59 no
: 1909 2 59  gay
- 1912
: 1913 1 59 So
: 1915 1 59 no
: 1917 2 59  gay
- 1920
: 1921 1 59 So
: 1923 1 59 no
: 1925 2 59  co
: 1927 2 59 me
: 1929 3 61  vuoi
: 1933 1 59  og
: 1935 1 59 gi
: 1937 1 57  so
: 1939 1 57 no
: 1941 2 59  lu
: 1943 1 59 i
- 1945
: 1945 1 54 Da
: 1947 1 54  do
: 1949 1 59 ma
: 1951 2 59 ni
: 1953 2 57  poi
- 1956
: 1957 2 59 Se
: 1959 2 59  lo
: 1961 2 54  vuoi
: 1965 1 59  sa
: 1967 1 59 rň
: 1969 2 59  lei
- 1973
: 1977 1 57 Sa
: 1979 1 57 rň
: 1981 2 57  so
: 1983 2 59 lo
: 1985 3 59  lei
- 1990
: 1993 2 57 Mi
: 1995 2 59  di
: 1997 3 59 rai
: 2001 2 59  co
: 2003 1 59 me
: 2005 3 56  fai
: 2009 1 59  co
: 2011 2 59 me
: 2013 3 59  mai
- 2017
: 2017 2 57 Non
: 2019 2 57  lo
: 2021 2 57  sai
: 2025 1 54  co
: 2027 2 54 sa
: 2029 3 57  sei
: 2033 2 54  sei
: 2035 2 54  di
: 2037 2 57 ver
: 2041 1 54 so
- 2043
: 2043 2 54 Da
: 2045 2 57  noi
: 2049 2 54  ma
: 2051 1 54  che
: 2053 2 57  vuoi
: 2057 1 57  so
: 2059 2 57 no
: 2061 2 57  gay
- 2064
: 2065 1 57 Fat
: 2067 1 57 ti
* 2069 2 57  miei
- 2073
: 2081 2 57 Che
: 2083 2 57  dis
: 2085 2 56 tur
: 2089 1 56 bo
: 2091 2 56  ne
: 2093 2 57  hai
- 2096
: 2097 2 54 Qua
: 2099 1 54 le~ e
: 2101 2 60 nor
: 2105 1 61 me
: 2107 2 61  di
: 2109 2 59 sa
: 2113 1 59 gio
: 2115 2 59  ne
: 2117 2 57  trai
- 2120
: 2121 2 57 So
: 2123 2 59 no
: 2125 2 56  gay,
: 2129 1 56  so
: 2131 2 56 no
: 2133 2 56  gay
: 2137 2 56  si
: 2141 2 57  so
: 2143 2 57 no
: 2145 3 56  gay
- 2149
: 2151 2 56 Non
: 2153 2 57  so
: 2155 2 57 no
: 2157 3 56  gay
- 2162
: 2169 2 57 Ma
: 2171 2 57  vor
: 2173 4 56 rei
- 2179
: 2185 1 57 Ma
: 2187 2 57  lo
* 2189 4 56  sai
- 2195
: 2201 2 54 Quan
: 2203 2 54 ti
: 2205 2 54  ge
: 2209 2 54 ni~ ed
: 2211 2 54  e
: 2213 2 54 roi
: 2217 1 54  so
: 2219 2 54 no
: 2221 2 54  gay
- 2224
: 2225 1 54 Non
: 2227 1 54  lo
: 2229 3 54  sai?
- 2234
: 2241 2 54 O
: 2243 2 54  non
: 2245 2 54  vuoi
: 2249 1 54  ri
: 2251 1 54 cor
: 2253 3 54 da
: 2257 3 54 re
- 2262
: 2265 1 54 Pre
: 2267 1 54 fe
: 2269 1 54 ri
: 2273 1 54 sci
: 2275 1 54  pen
: 2277 2 54 sa
: 2281 1 54 re
- 2283
: 2283 1 54 Che~ un
: 2285 2 54  gay
: 2289 1 54  sia~ u
: 2291 1 54 na
- 2293
: 2293 2 54 Sor
: 2297 1 54 ta
: 2299 1 54  di~ er
: 2301 1 54 ro
: 2305 1 54 re~ un
: 2307 1 54 a
- 2309
: 2309 3 54 Co
: 2313 2 54 sa~ im
: 2315 1 54 mo
: 2317 2 54 ra
: 2321 2 54 le
- 2325
: 2329 2 54 O
: 2331 1 54  nel
: 2333 2 54  ca
: 2337 1 54 so
: 2339 1 54  mi
: 2341 3 54 glio
: 2345 3 54 re
- 2350
: 2353 1 54 Un
: 2355 1 54  giul
: 2357 3 54 la
: 2361 1 54 re~ un
: 2363 1 54  fe
: 2365 3 54 no
: 2369 1 54 me
: 2371 1 54 no
- 2373
: 2373 2 54 Da
: 2377 1 54  ba
: 2379 1 54 rac
: 2381 3 54 co
: 2385 3 54 ne
- 2390
: 2393 2 59 E
: 2395 2 59  lo
: 2397 3 59  tol
: 2401 2 59 le
: 2403 2 59 re
: 2405 3 59 rai
- 2409
: 2409 2 59 So
: 2411 1 59 lo~ in
: 2413 3 58  quan
: 2417 2 58 to~ ec
: 2419 2 58 ce
: 2421 4 58 zio
: 2425 2 54 ne
- 2429
: 2441 2 59 So
: 2443 2 59 lo~ in
: 2445 4 59  te
: 2449 2 59 le
: 2451 2 57 vi
: 2453 3 59 sio
: 2457 1 57 ne
- 2459
: 2459 2 56 Lo
* 2461 2 56  chia
: 2464 2 57 ma
: 2467 2 59 no
: 2469 5 59  gay
- 2476
: 2481 2 55 E
: 2483 2 55  tu
: 2485 4 55  pen
: 2489 1 55 si
: 2491 1 55  ric
: 2493 4 54 chio
: 2497 3 54 ne
- 2502
: 2509 3 61 Ma
: 2513 5 61 ri
: 2521 2 56 a
: 2525 2 56  sei
: 2529 4 56  sem
: 2537 4 57 pre
: 2541 3 56 ~
: 2545 4 56  mi
: 2553 2 49 a
- 2556
: 2557 3 56 Sei
: 2561 3 57  l'u
: 2565 3 56 ni
: 2569 4 54 ca
- 2575
: 2589 3 56 Pos
: 2593 3 57 si
* 2597 2 54 bi
: 2599 2 54 le
- 2603
: 2617 3 57 Ma
: 2621 4 59  di
: 2625 6 61  Gi
: 2633 4 64 no
- 2639
: 2649 3 61 Io
: 2653 3 60  mi
: 2657 5 61  fi
: 2665 5 59 do~ un
: 2673 5 57  po'
: 2681 4 56  di
: 2689 5 54  piů
- 2696
: 2741 4 61 Lui
: 2745 4 59  mi
: 2749 3 61  con
: 2753 3 66 quis
: 2761 4 64 ta
- 2767
: 2773 3 61 E
: 2777 3 59  mi
: 2781 2 61  ri
: 2785 4 69 las
: 2793 4 68 sa
- 2799
: 2801 6 65 Gi
: 2809 3 60 no~ ha~ i
: 2813 2 59  miei
: 2818 4 68  stes
: 2825 5 66 si
- 2831
: 2833 4 66 Pun
: 2841 3 63 ti
: 2845 3 58  di
: 2849 3 56  vis
: 2857 3 54 ta~ e
- 2861
: 2861 3 54 Per
: 2865 3 51  a
: 2869 3 54 des
: 2873 3 51 so
: 2877 5 54  mi
- 2884
: 2893 3 59 Bas
: 2897 3 61 ~
: 2901 4 59 ~
: 2905 6 57 ~
* 2913 8 59 ~
: 2921 6 57 ~
: 2929 4 59 ~
: 2933 4 57 ~
: 2941 4 54  ta
E