#TITLE:L'Aziza
#ARTIST:Daniel Balavoine
#MP3:Daniel Balavoine - L'Aziza.mp3
#VIDEO:Daniel Balavoine - L'Aziza.avi
#COVER:Daniel Balavoine - L'Aziza.jpg
#BPM:370,23
#GAP:15948
#VIDEOGAP:0
#ENCODING:UTF8
#LANGUAGE:French
#GENRE:Pop
#YEAR:1989
: 0 3 14 Pe
: 6 3 17 ti
: 12 5 17 te
: 24 9 17  rue
: 36 2 15  de
* 42 6 19  cas
: 53 5 15 bah
- 67
: 71 6 7 Au
: 83 5 10  mi
: 90 8 12 lieu
: 100 7 15  de
- 117
: 131 3 17 Ca
: 137 6 17 sa
- 153
: 191 3 14 Pe
: 198 2 17 ti
: 204 4 17 te
: 214 10 17  brune
: 227 4 14  en
: 233 10 15 rou
: 245 5 14 lée
: 251 4 12  d'un
: 258 6 10  drap
- 273
: 276 3 12 Court
: 281 3 10  au
: 288 4 12 tour
: 293 3 14  de
: 299 6 10  moi
- 329
: 383 3 14 Ses
: 389 5 17  yeux
: 396 6 17  rem
: 407 11 17 plis
: 420 2 14  de
* 427 4 19  pour
: 437 6 15 quoi
- 452
: 456 5 7 Cher
: 466 2 7 chent
: 469 3 10  u
: 474 6 12 ne
: 486 5 15  ré
* 498 4 20 ponse
* 503 7 21 ~
: 514 4 19  en
: 521 5 17  moi
: 527 5 19 ~
: 533 2 17 ~
- 545
: 575 3 14 Elle
: 581 5 17  veut
: 588 7 17  vrai
: 599 5 17 ment
: 611 3 14  que
: 616 6 15  rien
: 630 2 14  ne
: 635 3 12  soit
: 642 4 10  sûr
- 655
: 659 4 12 Dans
: 665 2 10  tout
: 672 2 12  ce
: 677 2 14  qu'elle
: 683 4 10  croit
: 689 2 12 ~
: 692 3 10 ~
- 705
: 732 10 22 Oh
: 743 10 19  oh
: 755 6 17  oh
- 771
: 780 10 22 Oh
: 791 5 19  oh
: 797 3 14  ta
: 803 4 15  cou
: 809 4 17 leur
: 822 3 14  et
: 828 3 15  tes
: 834 6 17  mots
: 846 4 19  tout
* 852 4 20  me
: 858 6 19  va
- 874
: 893 3 19 Que
: 899 4 22  tu
: 906 7 22  vi
: 914 6 20 ves
: 922 2 20  i
: 930 9 15 ci
: 942 3 17  ou
* 947 4 19  là-
* 953 6 17 bas
* 960 5 19 ~
* 966 3 17 ~
- 993
: 1037 4 15 Danse
: 1044 3 17  a
: 1049 3 19 vec
: 1055 9 19  moi
- 1074
: 1086 3 19 Si
: 1091 2 22  tu
: 1097 8 22  crois
: 1106 4 20 ~
: 1115 2 20  que
: 1121 4 15  ta
: 1133 5 17  vie
: 1140 4 19  est
: 1145 6 17  là
: 1152 4 19 ~
: 1157 3 17 ~
- 1170
: 1182 3 14 Ce
: 1187 2 15  n'est
: 1193 5 17  pas
: 1199 4 17 ~
: 1206 3 17  un
: 1213 2 17  pro
: 1217 9 17 blème
: 1232 3 19  pour
: 1236 2 19 ~
: 1240 4 17  moi
: 1245 4 15 ~
: 1250 2 12 ~
- 1262
: 1289 2 14 Oh
: 1292 2 16 ~
: 1295 3 14 ~
- 1308
: 1325 4 19 L'A
: 1331 4 17 zi
: 1338 9 19 za
- 1357
: 1373 4 19 Je
: 1380 3 22  te
* 1386 9 22  veux
* 1396 3 20 ~
: 1403 3 20  si
: 1410 9 15  tu
: 1421 4 17  veux
: 1427 3 19  de
: 1433 13 19  moi
: 1447 3 17 ~
- 1499
: 1632 3 14 Et
: 1637 3 17  quand
: 1645 4 17  tu
: 1655 5 17  mar
: 1667 4 15 ches
: 1674 5 19  le
: 1685 6 15  soir
- 1700
: 1704 5 7 Ne
: 1715 5 10  trem
: 1722 7 12 ble
: 1732 11 15  pas
: 1750 4 17  ah
: 1756 6 17 ~
: 1765 7 17 ~
: 1774 4 17 ~
- 1788
: 1822 4 14 Lais
: 1830 2 17 se
: 1835 5 17  glis
: 1847 6 17 ser
: 1859 3 14  les
: 1865 6 15  mau
: 1877 4 14 vais
: 1883 3 12  re
: 1889 6 10 gards
- 1904
: 1907 2 12 Qui
: 1913 4 10  pè
: 1920 2 12 sent
: 1926 2 14  sur
: 1932 5 10  toi
- 1961
* 1991 4 14 L'A
* 1997 4 17 zi
* 2004 6 17 za
- 2014
: 2016 3 14 Ton
: 2022 2 17  é
: 2027 5 17 toile
: 2039 4 17  jaune
: 2051 4 15  c'est
* 2058 5 19  ta
: 2068 4 15  peau
- 2084
: 2088 2 7 Tu
: 2099 3 10  n'as
: 2106 6 12  pas
: 2117 5 15  le
* 2129 8 20  choix
: 2138 6 19 ~
: 2145 6 17 ~
: 2154 10 19 ~
: 2165 3 17 ~
- 2178
: 2207 3 14 Ne
: 2213 3 17  la
: 2218 3 17  por
: 2225 2 14 te
: 2231 7 17  pas
: 2243 3 19  comme
* 2249 7 22  on
: 2261 4 20  porte
: 2267 3 19  un
: 2274 5 17  far
: 2285 6 15 deau
- 2294
: 2296 3 15 Ta
* 2303 6 20  for
* 2314 5 19 ce
: 2327 3 15  c'est
: 2333 2 17  ton
: 2339 4 17  droit
: 2344 4 17 ~
- 2359
: 2363 11 22 Oh
: 2375 11 19  oh
: 2387 5 17  oh
- 2402
: 2412 10 22 Oh
: 2423 4 19  oh
: 2430 3 14  ta
: 2436 4 15  cou
: 2442 4 17 leur
: 2453 3 14  et
: 2460 3 15  tes
: 2466 5 17  mots
: 2478 2 19  tout
: 2484 4 20  me
: 2490 4 19  va
: 2495 3 19 ~
- 2508
: 2525 3 19 Que
: 2532 3 22  tu
* 2538 8 22  vi
* 2547 6 20 ves
: 2555 2 20  i
: 2562 5 15 ci
: 2573 5 17  ou
: 2579 4 19  là-
: 2585 5 17  bas
: 2591 6 19 ~
: 2598 3 17 ~
- 2625
: 2669 4 15 Danse
: 2676 3 17  a
: 2681 2 19 vec
: 2687 9 19  moi
- 2706
: 2718 2 19 Si
: 2724 2 22  tu
: 2730 9 22  crois
: 2740 3 20 ~
: 2747 2 20  que
: 2754 3 15  ta
: 2765 6 17  vie
: 2773 2 19  est
: 2777 5 17  là
: 2783 4 19 ~
: 2788 4 17 ~
- 2802
: 2813 4 14 Ce
: 2819 2 15  n'est
: 2825 6 17  pas
: 2837 3 17  un
: 2844 2 17  pro
: 2848 8 17 blème
: 2865 4 19  pour
: 2873 3 17  moi
: 2877 4 15 ~
: 2882 3 12 ~
- 2895
: 2921 7 15 Oh
: 2929 7 14  oh
- 2946
: 2957 4 19 L'A
: 2964 2 17 zi
: 2969 9 19 za
- 2988
: 3005 4 19 Je
: 3011 4 22  te
* 3018 5 22  veux
* 3024 3 20 ~
: 3035 3 20  si
: 3041 9 15  tu
: 3053 4 17  veux
: 3059 3 19  de
: 3065 6 17  moi
: 3072 5 19 ~
: 3078 4 17 ~
- 3131
: 3870 3 19 L'A
: 3876 4 17 zi
: 3883 11 19 za
- 3904
: 3917 4 19 Ta
: 3925 3 22  cou
: 3930 11 22 leur
: 3947 4 20  tes
: 3953 6 15  mots
: 3966 4 17  tout
: 3972 4 19  me
: 3978 5 17  va
: 3984 6 19 ~
: 3991 6 17 ~
- 4021
: 4061 4 15 Danse
: 4068 3 17  a
: 4073 2 19 vec
: 4079 4 19  moi
: 4084 3 17 ~
: 4088 3 15 ~
- 4101
: 4109 3 19 Que
* 4116 4 22  tu
: 4122 10 22  vi
: 4133 4 20 ves
: 4139 2 20  i
: 4146 10 15 ci
: 4157 4 17  ou
: 4164 3 19  là-
: 4169 6 17  bas
: 4176 5 19 ~
: 4182 5 17 ~
- 4197
: 4205 4 14 Ce
: 4211 3 15  n'est
: 4217 8 17  pas
: 4229 3 17  un
: 4236 2 17  pro
: 4240 7 17 blème
: 4255 4 19  pour
* 4264 4 17  moi
* 4269 3 15 ~
* 4273 3 12 ~
- 4286
: 4301 5 15 Oh
: 4312 5 14  oh
- 4327
: 4349 3 19 L'A
: 4355 3 17 zi
: 4361 10 19 za
- 4381
: 4397 3 19 Je
: 4402 5 22  te
: 4410 6 22  veux
: 4417 5 20 ~
* 4427 3 20  si
: 4434 9 15  tu
: 4445 5 17  veux
: 4452 2 19  de
: 4457 5 17  moi
: 4463 5 19 ~
: 4469 6 17 ~
- 4499
: 4541 4 19 L'A
: 4547 3 17 zi
: 4554 11 19 za
- 4575
: 4589 3 19 Si
: 4595 3 22  tu
: 4602 8 22  crois
: 4611 4 20 ~
: 4620 2 20  que
: 4627 8 15  ta
: 4638 4 17  vie
: 4645 3 19  est
: 4649 5 17  là
: 4655 5 19 ~
: 4661 6 17 ~
- 4677
: 4685 4 14 Il
: 4692 3 15  n'y
: 4697 9 17  a
: 4710 3 17  pas
: 4716 2 17  de
: 4720 8 17  loi
: 4732 2 17  con
: 4738 2 19 tre
: 4744 3 17  ça
: 4748 4 15 ~
: 4753 5 12 ~
- 4768
: 4781 4 15 Oh
: 4793 9 14  oh
- 4812
: 4829 4 19 L'A
: 4835 3 17 zi
: 4841 10 19 za
- 4861
: 4878 4 19 Fille
: 4883 2 22  en
: 4890 5 22 fant
: 4896 3 22 ~
: 4906 2 20  du
: 4913 5 15  pro
: 4925 3 17 phète
: 4930 3 19 ~
: 4938 4 17  roi
: 4943 6 19 ~
: 4950 4 17 ~
- 4978
: 5051 10 22 Oh
: 5063 9 19  oh
: 5074 6 17  oh
- 5090
: 5098 8 22 Oh
: 5109 2 22  oh
- 5116
: 5118 3 14 Ta
: 5124 4 15  cou
: 5130 10 17 leur
: 5142 3 14  et
: 5148 3 15  tes
: 5154 7 17  mots
: 5167 3 19  tout
: 5171 4 20  me
: 5178 5 19  va
: 5184 4 19 ~
- 5198
: 5213 3 19 Que
: 5219 4 22  tu
: 5226 6 22  vi
: 5233 3 20 ves
: 5238 3 20  i
: 5249 8 15 ci
: 5261 3 17  ou
: 5267 3 19  là-
: 5273 5 17  bas
: 5279 5 19 ~
: 5285 6 17 ~
- 5315
: 5356 5 15 Danse
: 5364 2 17  a
: 5368 2 19 vec
: 5373 4 19  moi
: 5378 6 17 ~
- 5394
: 5405 3 19 Si
: 5411 3 22  tu
: 5418 7 22  crois
: 5426 3 20 ~
: 5434 2 20  que
: 5442 8 15  ta
: 5454 4 17  vie
: 5459 4 19  est
: 5465 5 17  là
: 5471 5 19 ~
: 5477 4 17 ~
- 5491
: 5502 3 14 Ce
: 5508 2 15  n'est
: 5513 9 17  pas
: 5526 2 17  un
: 5532 1 17  pro
: 5536 8 17 blème
: 5551 4 19  pour
: 5560 4 17  moi
: 5565 4 15 ~
: 5570 4 12 ~
- 5598
: 5645 4 19 L'A
: 5652 3 17 zi
: 5658 9 19 za
- 5677
: 5693 3 19 Je
: 5699 3 22  te
: 5705 10 22  veux
: 5716 3 20 ~
: 5723 3 20  si
: 5730 9 15  tu
: 5741 4 17  veux
: 5748 2 19  de
: 5754 5 17  moi
: 5760 4 19 ~
: 5765 4 17 ~
E