#TITLE:Sauver l'amour
#ARTIST:Daniel Balavoine
#MP3:Daniel Balavoine - Sauver l'amour.mp3
#VIDEO:Daniel Balavoine - Sauver l'amour.mp4
#COVER:Daniel Balavoine - Sauver l'amour [CO].jpg
#BPM:322.68
#GAP:23910
#ENCODING:UTF8
#LANGUAGE:French
#GENRE:Pop
#YEAR:1985
: 0 3 12 Par
: 8 2 11 tir
: 11 2 12  ef
: 14 5 14 fa
: 21 4 12 cer
: 28 4 11  sur
: 33 3 9  le
: 38 6 12  Gan
: 45 7 9 ge
- 57
: 59 4 7 La
* 66 9 12  dou
* 77 5 9 leur
* 83 3 7 ~
- 96
: 105 2 11 Pou
: 108 3 12 voir
: 113 5 14  par
: 119 3 12 ler
: 123 5 11  ŕ
: 129 4 9  un
: 134 9 12  an
: 144 3 12 ge
- 153
: 156 4 9 En
: 161 9 12  dou
: 173 5 14 ceur
: 179 8 12 ~
- 197
: 201 2 12 Lui
: 204 2 11  mon
: 207 3 12 trer
: 211 2 14  la
: 214 3 12  bles
: 219 5 11 sure
: 225 2 9  é
: 229 14 9 trange
- 250
: 253 3 7 La
: 258 10 12  dou
: 270 4 9 leur
: 275 2 7 ~
- 287
: 296 3 12 D'un
: 300 2 11  hom
: 303 2 12 me
: 306 3 13  qui
: 310 3 12  vou
: 314 5 11 drait
: 321 3 9  trou
: 326 8 12 ver
- 343
: 347 4 9 En
: 353 8 12  dou
: 364 9 14 ceur
- 380
: 383 3 14 Au
: 388 6 14  fond
: 396 2 14  de
: 399 7 14  lui
: 407 4 12  un
: 412 6 11  res
: 420 2 9 te
: 424 5 9  de
- 439
: 443 4 11 Lu
: 449 7 8 eur
- 466
: 478 6 14 L'es
: 487 4 14 poir
: 492 3 14  de
: 496 6 14  voir
: 503 2 12  en
: 507 8 11 fin
: 516 2 9  un
: 519 7 12  jour
- 536
: 540 3 9 Un
: 545 5 16  mon
: 551 3 14 de
: 557 3 12  meil
: 561 4 14 leur
- 568
: 570 4 12 Qu'est-ce
: 575 2 12  qui
: 579 3 12  pour
: 583 2 12 rait
* 587 5 12  sau
: 594 5 12 ver
: 605 7 7  l'a
: 616 11 9 mour?
- 637
: 665 5 12 Qu'est-ce
: 671 2 12  qui
: 675 4 12  pour
: 680 2 12 rait
: 683 5 12  sau
: 689 4 12 ver
: 702 6 7  l'a
: 712 11 9 mour?
- 733
* 762 4 23 Et
* 768 3 23  com
* 772 4 23 ment
* 777 2 23  re
* 780 5 23 trou
* 786 12 23 ver
: 799 8 19  le
: 811 4 21  goűt
: 816 7 21  de
: 826 6 17  la
: 834 10 19  vie
- 853
* 857 5 23 Qui
* 863 3 23  pour
* 867 3 23 ra
* 872 3 23  rem
* 876 3 23 pla
* 881 8 23 cer
: 891 11 19  le
: 904 5 21  be
: 911 7 21 soin
- 921
: 923 6 19 Par
: 930 5 21  l'en
: 936 4 23 vie
- 950
: 983 10 19 Ah
: 994 14 17  ah
- 1018
: 1031 5 16 Oů
: 1037 4 14  est
: 1042 2 12  le
: 1047 5 14  sau
: 1053 10 16  veur
- 1073
: 1080 5 12 Ah
: 1092 10 12  ah
- 1123
: 1151 4 12 Et
: 1156 5 11  cha
: 1163 3 12 que
: 1167 7 14  nuit
: 1175 2 12  le
: 1180 3 11  peu
: 1186 3 9 ple
: 1190 5 12  dan
: 1196 10 9 se
- 1209
: 1211 4 7 En
: 1217 11 12  dou
: 1229 5 9 ceur
: 1235 3 7 ~
- 1248
: 1256 2 11 Croît
: 1260 4 12  qu'il
: 1265 3 14  peut
: 1270 3 12  e
: 1275 5 11 xor
: 1282 4 9 ci
: 1287 8 12 ser
- 1304
: 1308 3 9 La
: 1313 10 12  dou
* 1325 5 14 leur
* 1331 4 12 ~
- 1345
: 1353 2 12 Puis
: 1356 3 11  len
: 1360 2 12 te
: 1363 3 14 ment
: 1367 3 12  quit
: 1371 3 11 te
: 1377 2 9  les
: 1381 15 9  transes
- 1401
: 1403 4 7 En
: 1410 10 12  dou
: 1421 7 9 ceur
: 1429 2 7 ~
- 1441
: 1448 2 12 A
: 1451 3 11 lors
: 1455 2 12  re
: 1458 5 14 vient
: 1464 3 12  dans
: 1468 5 11  sa
: 1474 3 9  cons
: 1478 16 12 cience
- 1498
: 1500 3 9 La
: 1506 10 12  dou
: 1517 10 14 leur
- 1533
: 1535 4 14 Au
: 1541 5 14  fond
: 1547 3 14  de
: 1551 6 14  lui
: 1559 4 12  sent
: 1566 4 11  cet
: 1571 2 9 te
: 1576 11 9  peur
- 1593
: 1595 4 11 Im
: 1601 13 8 mense
- 1624
: 1632 4 14 De
: 1638 4 14  voir
* 1644 2 14  mou
* 1647 6 14 rir
: 1655 3 12  ce
: 1660 4 11  sen
: 1666 4 9 ti
: 1671 4 12 ment
: 1676 4 9 ~
- 1689
: 1692 3 9 D'a
: 1696 5 16 mour
: 1702 2 14  in
: 1706 7 12 ten
: 1714 6 14 se
- 1721
: 1723 3 12 Qu'est-ce
: 1727 3 12  qui
: 1731 4 12  pour
: 1736 2 12 rait
: 1739 6 12  sau
: 1746 7 12 ver
: 1758 7 7  l'a
: 1767 13 9 mour?
- 1790
: 1817 5 12 Qu'est-ce
: 1823 2 12  qui
: 1826 3 12  pour
: 1830 3 12 rait
: 1835 5 12  sau
: 1841 6 12 ver
: 1852 9 7  l'a
: 1863 12 9 mour?
- 1885
: 1913 4 23 Et
: 1919 2 23  com
: 1922 4 23 ment
: 1928 2 23  re
: 1932 4 23 trou
: 1938 7 23 ver
: 1949 7 19  le
* 1961 6 21  goűt
: 1968 6 21  de
: 1979 5 17  la
: 1985 11 19  vie
- 2005
* 2009 4 23 Qui
: 2014 4 23  pour
: 2019 3 23 ra
: 2024 3 23  rem
: 2028 3 23 pla
: 2033 9 23 cer
: 2043 11 19  le
: 2056 5 21  be
: 2062 6 21 soin
- 2073
: 2075 4 19 Par
* 2080 7 21  l'en
: 2088 4 23 vie
- 2102
: 2135 10 19 Ah
: 2146 12 17  ah
- 2168
: 2184 5 16 Oů
: 2190 3 14  est
: 2194 2 12  le
: 2199 7 14  sau
: 2207 7 16 veur?
- 2224
: 2232 5 12 Ah
: 2244 6 12  ah
: 2251 2 9 ~
- 2296
: 3084 7 24 Ah
: 3092 7 23  ah
: 3104 4 19  ah
: 3109 5 21 ~
- 3124
: 3131 6 24 Ah
: 3138 8 23  ah
: 3150 5 21  ah
: 3156 6 19 ~
: 3163 4 17 ~
: 3168 3 16 ~
: 3172 2 14 ~
- 3217
: 3271 7 24 Ah
: 3280 8 23  ah
: 3289 6 19  ah
: 3296 7 21 ~
- 3313
: 3323 6 24 Ah
: 3330 7 23  ah
: 3341 4 21  ah
: 3347 10 19 ~
: 3358 2 17 ~
: 3361 2 16 ~
: 3364 2 14 ~
- 3409
: 3467 7 24 Ah
: 3475 10 23  ah
: 3487 4 19  ah
: 3492 5 21 ~
- 3507
: 3515 6 24 Ah
: 3522 11 23  ah
: 3534 5 21  ah
: 3540 10 19 ~
: 3552 2 17 ~
: 3555 2 16 ~
: 3558 1 14 ~
- 3602
: 3659 7 24 Ah
: 3667 9 23  ah
: 3679 4 19  ah
: 3685 5 21 ~
- 3700
: 3707 6 24 Ah
: 3714 11 23  ah
: 3726 7 21  ah
: 3734 9 19 ~
: 3744 2 17 ~
: 3747 2 16 ~
: 3750 1 14 ~
- 3772
: 3834 4 12 Qu'est-ce
: 3839 3 12  qui
: 3843 5 12  pour
: 3849 2 12 rait
: 3852 5 12  sau
: 3858 6 12 ver
* 3869 9 7  l'a
* 3879 14 9 mour?
- 3903
: 3929 5 12 Qu'est-ce
: 3935 3 12  qui
: 3939 3 12  pour
: 3943 2 12 rait
: 3947 5 12  sau
: 3953 6 12 ver
: 3965 8 7  l'a
: 3976 12 9 mour?
- 3998
: 4025 4 23 Et
* 4031 3 23  com
* 4035 4 23 ment
: 4041 2 23  re
: 4044 4 23 trou
: 4050 7 23 ver
: 4061 6 19  le
: 4072 6 21  goűt
: 4080 6 21  de
: 4089 6 17  la
: 4097 11 19  vie
- 4117
: 4121 4 23 Qui
: 4127 3 23  pour
: 4131 3 23 ra
: 4136 3 23  rem
* 4141 3 23 pla
: 4146 6 23 cer
: 4154 10 19  le
: 4168 5 21  be
: 4175 6 21 soin
- 4186
: 4188 4 19 Par
: 4193 6 21  l'en
: 4200 5 23 vie
- 4214
: 4218 4 12 Qu'est-ce
: 4223 2 12  qui
: 4226 3 12  pour
: 4230 3 12 rait
: 4235 5 12  sau
: 4242 6 12 ver
: 4253 6 7  l'a
: 4264 12 9 mour?
- 4286
: 4314 4 12 Qu'est-ce
: 4319 3 12  qui
: 4323 3 12  pour
: 4327 2 12 rait
* 4331 5 12  sau
: 4338 5 12 ver
: 4350 8 7  l'a
: 4360 11 9 mour?
- 4381
: 4409 4 23 Et
: 4415 3 23  com
* 4419 4 23 ment
: 4424 2 23  re
: 4428 5 23 trou
: 4435 6 23 ver
: 4444 8 19  le
: 4456 5 21  goűt
: 4463 7 21  de
: 4472 7 17  la
: 4482 10 19  vie
- 4501
: 4505 5 23 Qui
: 4512 3 23  pour
: 4516 3 23 ra
: 4520 3 23  rem
: 4524 3 23 pla
* 4529 8 23 cer
: 4540 7 19  le
: 4553 4 21  be
: 4558 6 21 soin
- 4570
: 4572 4 19 Par
: 4577 6 21  l'en
* 4584 4 23 vie
- 4597
: 4601 5 12 Qu'est-ce
: 4607 2 12  qui
: 4611 3 12  pour
: 4615 3 12 rait
: 4619 4 12  sau
: 4626 4 12 ver
: 4637 6 7  l'a
: 4650 9 9 mour?
- 4665
: 4667 11 19 Ah
: 4680 6 17  ah
- 4695
: 4698 4 12 Qu'est-ce
: 4703 2 12  qui
: 4707 3 12  pour
: 4711 3 12 rait
: 4716 5 12  sau
: 4722 6 12 ver
: 4734 5 7  l'a
: 4745 13 9 mour?
- 4768
: 4792 4 23 Et
: 4800 2 23  com
: 4803 3 23 ment
: 4808 3 23  re
: 4813 4 23 trou
: 4819 5 23 ver
: 4827 8 19  le
: 4840 6 21  goűt
: 4849 5 21  de
: 4858 5 17  la
: 4866 10 19  vie
- 4885
: 4889 5 23 Qui
: 4896 2 23  pour
: 4899 4 23 ra
: 4904 3 23  rem
: 4908 3 23 pla
: 4913 7 23 cer
: 4923 7 19  le
: 4936 5 21  be
: 4942 6 21 soin
- 4954
: 4956 4 19 Par
: 4961 6 21  l'en
: 4968 4 23 vie
- 4982
: 4986 4 12 Qu'est-ce
: 4991 2 12  qui
: 4995 3 12  pour
: 4999 2 12 rait
: 5004 4 12  sau
: 5009 5 12 ver
: 5023 5 7  l'a
: 5033 11 9 mour?
E