#TITLE:Le chanteur
#ARTIST:Daniel Balavoine
#MP3:Daniel Balavoine - Le chanteur.mp3
#VIDEO:Daniel Balavoine - Le chanteur.avi
#COVER:Daniel Balavoine - Le chanteur.jpg
#BPM:248.53
#GAP:10030
#ENCODING:UTF8
#LANGUAGE:French
#GENRE:Pop
#YEAR:1978
: 0 3 1 J'me
: 6 3 4  pré
: 10 3 4 sente
- 19
: 22 3 1 Je
: 26 3 2  m'ap
: 31 3 1 pelle
: 35 2 -1  Hen
: 38 7 1 ri
- 55
: 65 4 1 J'vou
: 70 3 4 drais
: 75 3 4  bien
- 84
: 87 4 1 ré
: 92 2 2 us
: 96 2 1 sir
: 100 3 -1  ma
: 104 6 1  vie
: 112 3 -3  ętre
: 116 2 -3  ai
: 119 3 4 mé
: 123 4 6 ~
: 128 4 4 ~
- 148
: 177 2 1 ę
: 180 2 4 tre
: 185 2 4  beau
: 188 3 6 ~
: 193 2 6  ga
: 197 2 6 gner
* 200 2 8  de
* 203 4 9 ~
: 209 1 9  l'ar
: 212 3 6 gent
: 216 1 4 ~
: 218 2 2 ~
- 230
: 240 2 2 Puis
: 244 2 4  sur
: 249 2 4 tout
: 252 3 5 ~
: 257 3 5  ętre
: 261 2 5  in
: 264 2 8 tel
: 267 4 9 ~
: 272 2 9 li
: 277 4 5 gent
: 282 2 2 ~
- 294
: 304 3 -3 Mais
: 309 1 -1  pour
: 312 5 1  tout
: 320 4 4  ça
- 333
: 336 3 1 Il
: 341 2 4  fau
: 344 6 6 drait
: 352 3 9  que
: 356 1 6 ~
: 360 3 6  j'bosse
: 364 2 4 ~
: 369 2 4  ŕ
: 374 1 -3  plein
: 377 6 0  temps
: 384 2 0 ~
: 387 1 2 ~
- 421
: 483 2 4 J'suis
: 487 3 4  chan
: 491 3 4 teur
: 495 1 1 ~
: 499 2 1  je
: 504 2 1  chante
: 508 2 2  pour
: 512 2 1  mes
: 515 3 -1  co
: 519 2 1 pains
: 522 2 2 ~
- 534
: 543 2 4 J'veux
: 548 2 4  faire
: 552 2 4  des
: 556 3 4  tubes
: 563 2 1  et
: 568 1 1  que
: 572 2 2  ça
: 576 3 1  tour
: 580 2 -1 ne
: 584 2 1  bien
: 587 2 2 ~
- 591
: 593 2 -3 Tour
: 596 2 -3 ne
: 600 3 4  bien
: 604 4 6 ~
: 609 3 4 ~
- 628
: 657 4 2 J'veux
: 662 1 4  é
: 666 2 4 crire
: 669 4 6 ~
: 674 1 6  une
: 678 2 6  chan
: 682 5 9 son
: 689 2 9  dans
: 693 2 6  l'vent
: 696 1 4 ~
: 698 2 2 ~
- 710
: 721 3 2 Un
: 725 2 4  air
: 730 2 4  gai
: 733 2 5 ~
: 738 2 5  chic
: 742 2 5  et
: 745 1 7  en
: 747 3 9 ~
: 753 3 9 traî
: 758 2 5 nant
: 761 1 4 ~
: 763 2 2 ~
- 775
: 785 2 -3 Pour
: 789 3 -1  faire
: 793 6 1  dan
: 802 2 4 ser
- 813
: 817 3 1 Dans
: 821 1 4  les
: 825 7 6  soi
* 833 3 9 rées
: 840 2 9  de
: 844 2 9  mon
: 849 2 6 sieur
: 853 2 -3  Du
: 856 7 0 rand
: 864 1 -1 ~
: 866 2 0 ~
- 884
: 931 2 13 Et
: 936 2 13  par
: 940 3 13 tout
: 944 3 11  dans
: 948 2 9  la
: 951 2 11  rue
: 954 4 9 ~
- 961
: 963 2 9 J'veux
: 967 2 9  qu'on
: 972 2 9  par
: 976 2 8 le
: 980 2 6  de
: 983 4 6  moi
- 990
: 992 1 8 Que
: 994 2 9 ~
: 998 3 9  les
: 1004 2 11  fil
: 1007 2 9 les
: 1012 2 8  soient
: 1015 2 9  nues
: 1018 1 8 ~
: 1020 1 6 ~
- 1022
: 1024 1 8 Qu'elles
: 1026 1 9 ~
: 1031 2 9  se
: 1035 3 9  jet
: 1040 1 8 tent
: 1044 2 6  sur
: 1048 3 6  moi
- 1055
: 1057 2 9 Qu'elles
: 1062 2 9  m'ad
: 1067 4 9 mirent
: 1074 2 8  qu'elles
: 1079 2 6  me
* 1083 13 12  tuent
* 1098 8 9 ~
- 1115
: 1119 1 6 Qu'elles
: 1121 2 9 ~
: 1127 2 9  s'ar
: 1130 2 9 rachent
: 1133 2 8 ~
: 1141 2 8  ma
: 1144 3 6  ver
* 1149 12 13 tu
: 1163 9 9 ~
- 1180
: 1183 3 8 Pour
: 1187 2 8  les
: 1190 2 8  an
: 1195 2 11 ciennes
: 1199 2 9  de
: 1202 2 8  l'é
: 1206 3 9 cole
: 1210 1 8 ~
: 1212 1 6 ~
- 1214
: 1216 1 8 De
: 1218 1 9 ~
: 1221 3 9 ve
: 1226 3 9 nir
: 1230 3 8  une
: 1234 2 6  i
: 1237 4 6 dole
- 1247
: 1249 2 9 J'veux
: 1253 2 9  que
: 1257 3 11  tou
: 1262 2 9 tes
: 1265 2 8  les
: 1269 2 9  nuits
: 1272 1 8 ~
: 1274 1 6 ~
- 1276
: 1278 2 9 Es
: 1285 1 9 souf
: 1290 3 9 flées
: 1294 3 8  dans
: 1298 2 6  leur
: 1302 3 6  lit
- 1311
: 1313 2 9 Elles
: 1318 5 9  trompent
: 1326 5 8  leur
: 1335 2 6  ma
: 1338 10 12 ri
: 1350 8 9 ~
- 1370
: 1374 1 8 Dans
: 1376 2 9 ~
: 1380 3 9  leurs
: 1386 4 9  rę
: 1392 3 8 ves
: 1399 2 6  mau
* 1402 14 13 dits
: 1418 10 9 ~
: 1430 8 8 ~
- 1471
: 1601 3 4 Puis
: 1605 2 4  a
: 1609 4 4 prčs
- 1619
: 1621 2 1 Je
: 1626 3 2  f'rai
: 1630 2 1  des
: 1634 3 -1  ga
: 1638 2 1 las
: 1641 1 2 ~
: 1643 1 1 ~
- 1654
: 1665 2 4 Mon
: 1670 3 4  pu
: 1674 3 4 blic
- 1683
: 1686 2 1 Se
: 1691 2 2  pros
: 1695 3 1 ter
: 1699 3 -1 ne
: 1703 7 1 ra
: 1711 3 -3  de
: 1715 2 -3 vant
: 1719 3 4  moi
: 1723 4 6 ~
: 1728 2 4 ~
- 1746
: 1776 2 1 Des
: 1780 2 4  con
: 1784 3 4 certs
: 1788 3 6 ~
: 1793 1 6  de
: 1797 2 6  cent
: 1800 5 9  mille
: 1808 2 9  per
: 1813 1 6 sonnes
: 1815 1 4 ~
: 1817 2 2 ~
- 1829
: 1841 2 2 Ou
: 1844 3 4  męme
: 1849 2 4  le
: 1852 2 5 ~
: 1856 2 5  tout
: 1860 4 5  Pa
: 1865 1 8 ris
: 1867 2 9 ~
: 1872 2 9  s'é
* 1877 1 5 tonne
* 1879 1 4 ~
: 1881 3 2 ~
- 1894
: 1905 1 -3 Et
: 1909 1 -1  se
: 1912 7 1  lčve
: 1920 2 4 ~
- 1932
: 1936 1 1 Pour
: 1940 2 4  pro
: 1944 5 6 lon
: 1952 5 9 ger
- 1965
: 1968 2 6 Le
: 1974 1 -3  com
: 1976 7 0 bat
: 1984 2 0 ~
: 1987 1 2 ~
- 2004
* 2051 2 13 Et
: 2055 1 13  par
: 2060 2 13 tout
: 2063 3 11  dans
: 2067 2 9  la
: 2071 1 11  rue
: 2073 2 9 ~
- 2079
: 2081 2 9 J'veux
: 2086 1 6  qu'on
: 2090 3 9  par
: 2094 3 8 le
: 2098 3 6  de
: 2102 4 6  moi
- 2108
: 2110 1 6 Que
: 2112 2 9 ~
: 2116 3 9  les
* 2122 2 11  fil
* 2126 1 9 les
: 2131 2 8  soient
: 2135 1 9  nues
: 2137 1 8 ~
: 2139 1 6 ~
- 2141
: 2143 1 6 Qu'elles
: 2145 1 9 ~
: 2150 2 9  se
: 2154 4 9  jet
: 2159 1 8 tent
: 2163 2 6  sur
: 2167 3 6  moi
- 2174
: 2176 2 9 Qu'elles
: 2181 3 9  m'ad
: 2187 3 9 mirent
: 2192 3 8  qu'elles
: 2199 1 6  me
: 2202 13 12  tuent
* 2217 7 9 ~
- 2234
: 2238 2 8 Qu'elles
: 2241 2 9 ~
: 2248 2 9  s'ar
: 2251 3 9 rachent
: 2260 2 8  ma
: 2263 1 6  ver
: 2267 13 13 tu
: 2282 10 9 ~
- 2299
: 2302 1 8 Puis
: 2306 2 8  quand
: 2310 3 8  j'en
: 2314 3 11  au
: 2318 2 9 rai
: 2321 2 8  as
: 2325 2 9 sez
: 2328 1 8 ~
: 2330 1 6 ~
- 2332
: 2334 1 8 De
: 2336 2 9 ~
: 2340 2 9  res
: 2345 2 9 ter
: 2349 3 8  leur
: 2354 1 6  i
: 2356 4 6 dole
- 2366
: 2369 2 9 Je
: 2372 1 9  re
: 2375 2 11 mon
: 2380 2 9 t'rai
: 2385 1 8  sur
: 2390 1 9  scčne
: 2392 2 8 ~
: 2395 1 6 ~
- 2397
: 2399 2 9 Comme
: 2404 3 9  dans
: 2408 3 9  les
: 2412 3 8  an
: 2416 1 6 nées
: 2420 4 6  folles
- 2429
: 2431 2 9 Je
* 2437 2 9  f'rai
: 2442 3 9  pleu
: 2447 2 8 rer
: 2451 2 6  mes
: 2456 12 12  yeux
: 2470 7 9 ~
- 2489
: 2493 1 6 Je
: 2495 1 9 ~
: 2501 3 9  fe
: 2505 3 9 rai
: 2511 3 8  mes
: 2517 2 6  a
: 2522 12 13 dieux
* 2536 10 9 ~
: 2547 1 8 ~
- 2556
: 2559 1 6 Et
: 2561 1 8 ~
: 2566 2 8  puis
: 2569 3 11  l'an
: 2573 2 9 née
: 2576 2 8  d'a
: 2581 2 9 prčs
: 2584 1 8 ~
: 2586 1 6 ~
- 2588
: 2590 1 8 Je
: 2592 1 9 ~
: 2595 2 9  re
: 2600 3 9 com
: 2604 2 8 men
: 2609 3 6 ce
: 2613 3 6 rai
- 2620
* 2622 2 13 Et
* 2628 3 13  puis
: 2632 3 11  l'an
: 2636 2 11 née
: 2640 1 11  d'a
: 2644 1 9 prčs
: 2646 1 8 ~
: 2648 1 6 ~
- 2651
: 2653 1 6 Je
: 2655 2 9 ~
: 2660 1 9  re
: 2664 3 9 com
: 2668 2 8 men
: 2674 1 6 ce
: 2676 3 6 rai
- 2685
: 2687 2 9 Je
: 2691 1 9  me
: 2696 3 9  pros
: 2703 1 8 ti
: 2706 2 6 tue
: 2709 10 12 rai
: 2721 15 9 ~
- 2746
: 2750 2 8 Pour
: 2753 2 9 ~
: 2757 1 9  la
: 2760 3 9  pos
: 2768 2 8 té
: 2771 1 6 ri
: 2774 13 13 té
: 2789 12 9 ~
: 2803 7 8 ~
- 2814
: 2816 2 8 Les
: 2820 1 8  nou
: 2822 4 11 velles
: 2829 2 9  de
: 2832 1 8  l'é
: 2836 1 9 cole
: 2838 1 8 ~
: 2840 2 6 ~
- 2844
: 2846 2 9 Di
: 2849 3 9 ront
: 2855 1 9  que
: 2860 2 8  j'suis
* 2866 3 6  pé
* 2870 3 6 dé
- 2877
: 2879 2 9 Que
: 2882 2 9  mes
: 2886 3 11  yeux
: 2892 2 9  puent
: 2895 2 8  l'al
: 2900 1 9 cool
: 2902 1 8 ~
: 2904 1 6 ~
- 2906
: 2908 1 6 Que
: 2910 1 9 ~
: 2915 2 9  j'fais
: 2919 3 9  bien
: 2924 2 8  d'ar
: 2927 1 6 rę
: 2930 3 6 ter
- 2939
: 2942 3 9 Brűle
: 2947 1 9 rons
: 2950 4 9  mon
: 2955 2 8  au
: 2959 2 6 ré
: 2963 14 12 ole
: 2979 13 9 ~
- 3002
: 3006 2 9 Sa
: 3009 1 9 li
: 3011 4 9 rons
: 3018 3 8  mon
: 3023 2 6  pas
: 3029 11 13 sé
: 3042 15 9 ~
: 3058 4 8 ~
- 3067
: 3069 2 8 A
: 3072 2 9 lors
* 3077 2 11  je
: 3082 2 9  se
: 3085 2 8 rai
: 3090 2 9  vieux
: 3093 1 8 ~
: 3095 2 6 ~
: 3099 2 9  et
: 3105 1 9  je
: 3109 2 9  pour
: 3113 4 8 rai
: 3121 4 6  cre
: 3127 3 6 ver
- 3132
: 3134 1 9 Je
: 3136 1 9  me
* 3140 1 9  cher
* 3142 2 11 ~
: 3147 2 9 cherai
: 3150 2 8  un
: 3154 1 9  dieu
: 3156 1 8 ~
: 3158 2 6 ~
- 3166
: 3168 1 9 Pour
: 3171 1 9  tout
: 3173 4 9  me
: 3179 2 8  par
: 3184 2 6 don
: 3187 5 6 ner
- 3198
: 3200 2 9 J'veux
: 3203 2 9  mou
: 3206 3 9 rir
: 3212 3 8  mal
: 3216 2 6 heu
: 3219 12 12 reux
: 3233 14 9 ~
- 3256
: 3259 2 9 Pour
: 3263 2 9  ne
: 3266 2 9  rien
: 3269 3 8 ~
: 3275 1 9  re
: 3277 1 8 ~
: 3280 5 6 gret
: 3287 10 13 ter
: 3299 14 9 ~
: 3315 5 8 ~
- 3322
: 3324 4 8 J'veux
: 3330 2 8  mou
: 3333 3 11 rir
: 3341 2 9  mal
: 3344 2 8 heu
: 3348 7 9 reux
: 3356 4 8 ~
E