#TITLE:Suzette
#ARTIST:Dany Brillant
#MP3:Dany Brillant - Suzette.mp3
#VIDEO:Dany Brillant - Suzette.avi
#COVER:Dany Brillant - Suzette.jpg
#BPM:314,76
#GAP:5147
#ENCODING:UTF8
#LANGUAGE:French
#GENRE:Retro
#YEAR:1992
: 0 2 4 Le
: 4 2 2  jour
: 7 2 0  ou
: 12 2 2  j'lai
: 19 3 4  ren
* 24 2 5 con
: 29 3 4 trée
- 44
: 48 3 2 Dans
: 53 2 0  u
: 56 2 -1 ne
: 64 2 0  de
: 68 1 2  ces
* 72 4 4  soi
: 77 3 2 rées
- 91
: 95 2 2 J'ai
: 98 2 0  męme
: 103 1 -1  pas
: 107 6 0  pu
: 115 3 2  la
: 119 5 4  r'gar
: 125 5 2 der
- 140
: 144 2 -1 Tel
: 148 2 0 l'ment
: 155 2 -1  ses
: 159 3 -3  yeux
: 163 2 -4  me
: 167 5 -3  brű
: 173 2 -1 laient
- 185
: 192 2 4 A
: 195 4 2 lors
: 202 2 0  je
: 205 2 0  lui
: 208 1 2  ai
: 211 3 4  pris
: 215 2 5  la
: 220 3 5  main
: 224 1 4 ~
- 236
: 240 2 2 Les
: 243 2 0  yeux,
: 247 1 -1  le
: 252 7 0  corps
: 263 1 2  et
: 265 1 4  les
: 270 4 2  seins
- 284
: 288 3 2 Elle
: 293 2 0  me
: 297 2 -1  dit:
: 305 2 0  "fais
: 309 2 2 -moi
: 312 2 4  du
: 316 6 2  bien"
- 333
: 337 2 3 Je
: 340 1 3  lui
: 343 2 3  dis:
: 346 3 3  "oui
- 356
: 359 2 4 Sans
: 364 1 4  pro
: 367 2 4 blč
: 371 2 4 me"
- 382
: 385 2 9 Dans
: 389 1 4  sa
: 394 4 9  chambre
: 399 4 4  on
: 405 2 9  est
: 409 3 10  al
: 414 4 9 lé
- 429
: 433 2 9 Sous
: 436 2 7  les
: 439 3 5  draps
: 444 2 7  on
: 447 2 4 ~
: 453 2 2  s'est
: 457 2 4  glis
: 462 3 5 sé
- 476
: 480 2 11 Il
: 483 1 6  a
: 487 2 11  fal
: 491 3 6 lu
: 498 4 11  m'ra
: 504 2 6 ni
: 508 8 11 mer
- 525
: 528 2 14 Dans
: 533 2 12  ses
: 537 5 11  yeux
: 545 3 9  j'm'é
: 550 2 8 tais
: 554 3 9  no
: 559 9 11 yé
- 571
: 573 2 4 Et
: 577 2 4  elle
: 582 1 2  se
: 585 2 0  serre
: 591 2 2  tout
: 596 2 4  con
: 601 2 5 tre
: 606 2 4  moi
- 620
: 624 2 2 Je
: 627 1 0  me
: 632 4 -1  crois
: 638 2 0  au
: 646 2 2  ci
: 649 2 4 né
: 653 3 2 ma
- 668
: 672 1 2 Je
: 674 2 0  me
: 679 2 -1  prends
: 684 4 0  pour
: 695 2 2  Ca
: 698 1 4 ry
: 701 7 2  Grant
- 717
: 720 2 15 Et
: 725 2 15  puis
: 728 4 15  on
: 734 2 11  é
: 740 4 16 teint
: 745 3 16  la
: 749 4 16  lam
: 756 2 16 pe
- 762
: 764 3 16 J'ai
: 773 3 16  per
: 777 2 16 du
: 780 2 16  la
: 786 3 17  tę
: 792 2 16 te
- 801
: 804 1 16 De
: 809 2 16 puis
: 812 2 17  que
: 817 4 16  j'ai
: 823 2 14  vu
: 829 2 12  Su
: 835 4 14 zet
: 846 4 11 te
- 857
: 860 4 14 Je
: 869 2 14  perds
: 872 3 14  la
: 877 2 14  rai
: 881 5 14 son
- 896
: 900 2 16 Cha
: 905 2 17 que
: 908 2 16  fois
: 912 2 14  que
: 919 3 12  j'vois
: 926 2 11  Su
: 930 4 9 zon
- 944
: 956 3 16 J'ai
: 966 2 16  per
: 969 2 16 du
: 972 2 16  la
: 977 3 17  tę
: 983 3 16 te
- 992
: 995 2 16 De
: 1000 2 16 puis
: 1004 2 17  que
: 1010 3 16  j'ai
: 1014 4 14  vu
: 1022 2 12  Su
: 1028 7 16 zet
: 1038 5 14 te
- 1049
: 1052 5 14 Je
: 1061 2 14  perds
: 1065 2 14  la
: 1069 1 14  rai
: 1073 3 14 son
- 1087
: 1091 2 16 Cha
: 1097 2 17 que
: 1100 2 16  fois
: 1105 2 14  que
: 1111 3 12  j'vois
: 1118 2 11  Su
: 1122 9 9 zon
- 1141
: 1153 1 5 Je
: 1155 2 5  ne
: 1160 4 5  fais
: 1170 2 5  que
: 1173 2 7  d'l'em
: 1176 2 9 bras
: 1181 4 7 ser
- 1197
: 1201 1 4 Cette
: 1205 2 4  fille
: 1208 4 4 -lŕ
: 1219 1 -3  me
: 1222 2 5  fait
: 1226 2 7  rę
: 1230 4 5 ver
- 1243
: 1247 2 2 Elle
: 1250 1 2  a
: 1253 3 2  vrai
: 1257 6 2 ment
: 1268 2 4  quel
: 1272 2 5 que
: 1277 3 4  cho
: 1282 2 2 se
- 1293
: 1297 2 0 Ca
: 1301 2 0  lui
: 1304 2 0  vient
: 1313 2 0  sű
: 1316 2 1 re
: 1319 2 1 ment
: 1322 2 2  des
: 1325 5 4  roses
- 1340
: 1344 1 5 Un
: 1349 5 5  seul
: 1356 3 5  de
: 1364 3 11  ses
: 1369 2 11  bai
: 1373 6 9 sers
- 1389
: 1393 1 7 Peut
: 1397 1 7  suf
: 1401 3 7 fire
: 1405 5 7  ŕ
: 1412 2 12  en
: 1417 2 11 flam
: 1421 5 9 mer
- 1436
: 1440 2 6 Le
: 1444 2 6  coeur
: 1448 2 6  de
: 1452 3 6  l'hu
: 1459 3 6 ma
: 1463 2 6 ni
: 1469 10 6 té
- 1485
: 1488 1 9 Oů
: 1490 1 9  les
: 1493 2 9  gars
: 1505 2 9  de
: 1508 1 8  mon
: 1511 2 9  quar
: 1517 12 11 tier
- 1533
: 1535 2 16 Elle
: 1538 2 14  a
: 1543 2 12  un
: 1549 3 14  p'tit
: 1556 3 16  goűt
: 1561 3 17  d'o
: 1565 3 16 ran
: 1570 2 16 ge
- 1581
: 1584 3 14 De
: 1589 2 12  miel
: 1592 2 11  et
: 1598 1 12  de
: 1603 3 14  cho
: 1610 3 16 co
: 1614 4 14 lat
- 1628
: 1632 1 14 Elle
: 1634 2 12  a
: 1638 2 11 dou
: 1643 3 12 cit
: 1653 3 14  mon
: 1657 2 16  er
: 1660 5 14 ran
: 1668 5 14 ce
- 1678
: 1680 2 12 A
: 1683 4 12 vant
: 1691 2 11  je
: 1694 1 9  n'e
: 1699 4 8 xis
: 1705 2 9 tais
: 1710 10 11  pas
- 1726
: 1728 2 16 Toute
: 1733 1 14  la
: 1737 2 12  sa
: 1741 3 14 li
: 1748 2 16 ve
: 1754 2 17  que
: 1758 4 16  j'u
: 1763 3 16 se
- 1774
: 1777 4 17 Pour
: 1782 2 16  me
: 1785 2 14  don
: 1789 5 16 ner
: 1796 3 17  de
: 1800 1 19  l'é
: 1805 6 19 clat
: 1815 4 17 ~
- 1821
: 1823 4 14 Elle
: 1828 2 12  a
: 1833 2 11  pas
: 1838 2 12  b'soin
: 1844 2 14  d'ca
: 1849 3 16  ma
: 1853 4 14  mu
: 1859 3 14 se
- 1870
: 1873 2 15 Pour
: 1876 2 15  mettre
: 1881 2 15  le
: 1884 6 11  monde
: 1892 4 16  en
: 1897 2 16  é
: 1901 5 16 moi
- 1916
: 1920 3 16 L'a
: 1925 2 14 mour
: 1928 3 13  et
: 1932 4 9  la
: 1940 3 13  vé
: 1944 2 14 ri
: 1950 3 16 té
- 1965
: 1969 2 17 L'i
: 1973 3 16 vresse
: 1978 1 14  et
: 1982 5 9  puis
: 1989 2 14  la
: 1994 2 16  beau
: 1999 3 17 té
- 2013
: 2017 2 15 Tout
: 2021 2 15  ce
: 2025 2 15  qu'en
: 2030 3 11  vain
: 2036 1 15  j'ai
: 2040 2 16  cher
: 2046 12 18 ché
- 2063
* 2065 2 20 Dans
* 2070 2 20  ses
* 2073 5 20  yeux
: 2083 2 16  je
: 2086 2 16  l'ai
: 2091 2 16  trou
: 2095 10 16 vé
- 2146
: 2285 9 16 Ouais,
: 2300 5 16  j'ai
: 2309 2 9  per
: 2313 2 16 du
: 2316 1 9  la
: 2321 3 17  tę
: 2327 5 16 te
- 2338
: 2340 2 16 De
: 2345 2 16 puis
: 2348 3 17  que
: 2354 3 16  j'ai
: 2360 2 14  vu
: 2366 2 12  Su
: 2372 6 12 zet
: 2382 3 11 te
- 2394
: 2397 5 14 Je
: 2406 2 14  perds
: 2409 2 14  la
: 2413 2 14  rai
: 2417 7 14 son
- 2432
* 2435 3 16 Cha
* 2441 2 17 que
: 2444 2 16  fois
: 2448 2 14  que
: 2454 4 12  j'vois
: 2461 2 11  Su
: 2466 12 9 zon
- 2488
: 2497 2 5 Au
: 2500 2 5 tour
: 2503 2 5  d'un
: 2509 3 5  p'tit
: 2520 1 7  ca
: 2524 1 9 fé
: 2527 2 7  crč
: 2530 2 5 me
- 2544
: 2548 1 4 Sur
: 2550 1 4  un
: 2553 1 4  des
: 2558 5 4  quais
: 2570 1 5  de
: 2572 1 7  la
: 2576 3 5  Sei
: 2581 2 7 ne
- 2591
: 2594 2 2 Dans
: 2597 1 2  le
: 2603 5 2  froid
: 2611 1 2  du
: 2613 2 4  ma
: 2616 2 5 tin
: 2620 4 4  blč
: 2626 2 4 me
- 2634
: 2636 1 0 Un
: 2640 4 0  jour
- 2652
: 2655 2 0 J'lui
: 2658 2 -1  di
: 2661 1 0 rais
: 2665 1 2  que
: 2670 3 4  j'l'ai
: 2676 2 4 me
- 2685
: 2688 2 5 On
: 2693 1 5  par
: 2696 2 5 ti
: 2700 4 5 ra
: 2712 1 11  tous
: 2714 2 11  les
: 2718 5 9  deux
- 2732
: 2736 3 7 Vers
: 2740 2 7  un
: 2744 4 7  mon
: 2749 2 7 de
: 2755 4 12  mer
: 2761 3 11 veil
: 2765 11 9 leux
- 2782
: 2784 1 6 Le
: 2789 2 6  ciel
: 2795 1 6  se
: 2797 3 6 ra
: 2804 2 6  tout
: 2809 3 6  o
: 2813 3 6 ran
: 2819 2 6 ge
- 2829
: 2832 2 9 On
* 2837 1 9  se
* 2839 2 9 ra
: 2844 4 11  deux
: 2852 2 8  pe
: 2858 2 8 tits
: 2861 4 8  an
: 2866 4 8 ges
- 2876
: 2879 4 12 Dans
: 2885 1 9  u
: 2887 2 12 ne
: 2893 4 9  chambre
: 2898 3 12  au
: 2905 2 9  si
: 2909 5 12 xič
: 2915 2 9 me
- 2925
: 2928 2 14 Je
: 2933 2 12  lui
: 2936 3 11  li
: 2940 6 12 rai
* 2948 2 14  des
: 2954 3 12  po
: 2958 4 11 č
: 2963 2 11 mes
- 2973
: 2976 2 14 On
* 2979 2 14  s'ai
* 2983 4 14 m'ra
: 2993 1 14  sans
: 2997 2 14  tra
: 3001 3 16 vail
: 3006 3 14 ler
- 3017
: 3020 1 15 Je
: 3025 1 15  peux
: 3029 2 11  car
: 3032 2 12  je
: 3037 2 11  suis
: 3044 4 4  fou
: 3050 2 8  ŕ
: 3054 3 11  lier
- 3063
* 3066 6 16 Elle
* 3073 2 16  est
* 3080 3 16  celle
: 3086 2 16  que
: 3092 2 16  j'at
: 3097 3 16 ten
: 3101 6 16 dais
- 3113
: 3116 2 17 De
: 3122 2 17 puis
: 3127 3 17  qu'j'ai
: 3134 4 17  quinze
: 3140 2 17  ans
* 3144 2 19  pas
* 3150 5 17 sés
* 3157 3 14 ~
- 3166
: 3168 2 14 C'est
: 3172 3 14  elle
: 3178 2 14  que
: 3183 2 14  j'i
: 3188 3 14 ma
: 3193 4 13 gi
: 3198 4 14 nais
- 3212
: 3216 3 15 Dans
: 3222 1 15  mon
: 3224 2 15  lit
: 3230 3 11  quand
: 3235 4 16  j'm'en
: 3241 4 16 nu
: 3246 4 16 yais
- 3260
: 3264 2 16 Main
: 3269 2 14 te
: 3272 3 13 nant
: 3280 2 9  j'la
: 3285 2 13  suis
: 3289 2 14  par
: 3294 4 16 tout
- 3309
: 3313 2 17 Plus
: 3317 2 16  fi
: 3320 3 17 dč
: 3324 4 14 le
: 3332 2 14  qu'un
: 3337 1 16  tou
: 3342 6 17 tou
- 3357
: 3360 2 15 Elle
: 3365 2 15  veut
: 3368 2 15  ja
: 3372 3 11 mais
* 3379 3 15  s'ar
* 3384 2 16 rę
* 3389 11 18 ter
- 3406
* 3408 2 20 Je
* 3413 2 20  sens
* 3417 3 20  bien
* 3423 2 20  que
* 3428 3 23  j'vais
* 3434 3 23  cra
* 3441 6 23 quer
- 3450
: 3452 7 16 J'ai
: 3462 2 16  per
: 3465 2 16 du
: 3468 3 16  la
: 3474 3 17  tę
: 3480 2 16 te
- 3489
: 3492 2 16 De
: 3498 2 16 puis
: 3501 2 17  que
: 3505 4 16  j'ai
: 3512 2 14  vu
: 3519 3 12  Su
: 3524 7 12 zet
: 3534 5 11 te
- 3546
: 3549 5 14 Je
: 3558 2 14  perds
: 3561 3 14  la
: 3565 2 14  rai
: 3570 6 14 son
- 3585
: 3588 2 16 Cha
: 3593 2 17 que
: 3597 2 16  fois
: 3602 2 14  que
: 3607 4 12  j'vois
: 3614 2 11  Su
: 3618 4 9 zon
- 3632
: 3636 3 16 Ouais,
: 3643 5 16  j'ai
: 3652 2 9  per
: 3657 2 16 du
: 3660 1 16  la
: 3666 2 17  tę
: 3671 4 16 te
- 3681
: 3684 2 16 De
: 3689 2 16 puis
: 3692 3 17  que
: 3697 4 16  j'ai
: 3704 2 14  vu
: 3710 3 12  Su
: 3716 7 12 zet
* 3726 4 11 te
- 3738
: 3741 4 14 Je
: 3750 2 14  perds
: 3753 2 14  la
: 3757 1 14  rai
: 3762 7 14 son
- 3777
: 3780 2 16 Cha
: 3786 2 17 que
: 3789 1 16  fois
: 3794 2 14  que
: 3799 3 12  j'vois
: 3806 2 11  Su
: 3810 5 9 zon
- 3820
: 3822 15 16 Ouais,
: 3840 4 16  j'ai
: 3846 2 9  per
: 3849 2 16 du
: 3856 1 9  la
: 3860 7 17  tę
: 3871 4 16 te
- 3884
: 3888 2 16 J'ai
: 3894 2 9  per
: 3897 3 16 du
: 3902 2 9  la
: 3908 7 17  tę
: 3919 2 16 te
- 3928
: 3931 2 16 J'ai
: 3939 2 17  per
: 3944 3 16 du
- 3953
: 3955 2 16 J'ai
: 3961 2 16  per
: 3966 3 16 du,
: 3971 6 16  Ouais
- 3982
: 3984 2 20 J'ai
: 3989 3 16  per
: 3993 2 18 du
: 3996 2 20  la
* 4002 3 23  tę
* 4006 3 21 ~
* 4010 1 14 ~
* 4012 2 12 ~
* 4017 2 11 te,
: 4022 3 9  oui
- 4030
: 4032 2 16 J'ai
: 4037 3 16  per
: 4041 2 16 du
: 4044 3 16  la
: 4050 3 17  tę
: 4055 2 16 te
- 4066
: 4069 2 16 De
: 4074 1 16 puis
: 4076 3 17  que
: 4082 3 16  j'ai
: 4089 2 14  vu
: 4095 3 12  Su
: 4101 6 12 zet
: 4110 6 11 te
- 4122
: 4124 6 14 Je
* 4134 1 14  perds
: 4136 3 16  la
: 4141 2 17  rai
* 4146 6 16 son
- 4158
: 4160 3 16 Cha
: 4164 4 16 que
: 4172 3 16  fois
: 4178 3 16  que
: 4183 4 18  j'vois
* 4191 2 20  Su
* 4194 9 21 zon
E