#TITLE:Just A Gigolo - Ain't Got Nobody
#ARTIST:David Lee Roth
#LANGUAGE:Englisch
#EDITION:SingStar Party
#GENRE:Pop
#YEAR:1985
#MP3:David Lee Roth - Just A Gigolo - Ain't Got Nobody.mp3
#COVER:David Lee Roth - Just A Gigolo - Ain't Got Nobody [CO].jpg
#BACKGROUND:David Lee Roth - Just A Gigolo - Ain't Got Nobody [BG].jpg
#VIDEO:David Lee Roth - Just A Gigolo - Ain't Got Nobody [VD#0].avi
#VIDEOGAP:0
#BPM:249,4
#GAP:31515,64
: 0 3 63 I'm
: 3 5 72  just
: 9 3 72  a
: 12 2 72  gi
: 14 2 72 go
: 17 9 72 lo
- 28
: 32 3 63 And
: 35 4 70  ev
: 40 3 70 ery
: 43 3 70 where
: 46 3 70  I
: 49 8 70  go
- 59
: 67 5 68 Peo
: 72 3 68 ple
: 75 5 68  know
: 80 3 68  the
: 83 7 70  part
: 91 7 67  I'm
: 99 5 65  play
: 104 4 63 in'
- 110 111
: 131 5 73 Pay
: 136 3 73  for
: 139 3 73  eve
: 142 2 73 ry
: 144 8 73  dance
- 154 155
: 163 3 68 Sell
: 166 3 68 ing
: 169 5 73  each
: 174 3 68  ro
: 179 7 67 mance
- 188 189
: 203 16 70 Ooh
: 219 5 67  what
: 224 3 67  they're
: 227 6 65  say
: 233 8 63 in'
- 243
: 251 5 75 There
: 256 3 75  will
: 259 3 75  come
: 262 3 75  a
: 265 5 75  day
- 272 273
: 289 2 63 When
: 292 3 73  youth
: 297 2 73  will
: 300 3 73  pass
: 305 2 73  a
: 308 10 73 way
- 320 321
: 340 3 65 What
: 344 2 69  will
: 346 2 72  they
* 348 6 75  say
: 354 2 72  a
: 356 4 75 bout
: 362 6 73  me
- 370 371
: 380 6 70 When
: 386 2 72  the
: 388 6 73  end
: 394 4 73  comes
: 399 5 73  I
: 404 6 73  know
- 411
: 412 6 72 I
: 418 2 70  was
: 420 6 72  just
: 426 2 72  a
: 428 3 72  gi
: 431 3 72 go
: 434 9 72 lo
- 445 446
: 458 2 75 Life
: 464 5 73  goes
: 469 5 72  on
: 481 3 67  with
: 484 5 70 out
: 489 8 68  me
- 499 500
: 513 3 63 I'm
: 516 5 72  just
: 522 3 72  a
: 525 2 72  gi
: 527 2 72 go
: 530 8 75 lo
- 540
: 545 3 63 And
: 548 4 70  ev
: 553 3 70 ery
: 556 6 70 where
: 562 5 75  I
: 567 8 70  go
- 577
: 584 2 68 Peo
: 586 2 68 ple
: 588 2 68  know
: 590 3 68  the
: 593 9 70  part
: 604 7 67  Dave's
: 612 5 65  play
: 617 4 63 in'
- 623 624
: 644 5 73 Pay
: 649 3 73  for
: 652 3 73  ev
: 655 2 73 ery
: 657 7 73  dance
- 666 667
: 676 3 68 Sell
: 679 3 68 ing
: 682 5 73  each
: 687 3 68  ro
: 690 6 67 mance
- 698 699
: 716 16 70 Ooh
: 732 5 67  what
: 737 3 67  they're
: 740 6 65  say
: 746 8 63 in'
- 756
: 764 5 75 There
: 769 3 75  will
: 772 3 75  come
: 775 3 75  a
* 778 8 78  day
- 788 789
: 802 2 65 When
: 805 3 77  youth
: 810 2 77  will
: 813 3 77  pass
: 818 2 77  a
: 821 8 77 way
- 830
: 832 1 72 Bid
: 833 1 71 dle
: 834 1 70  id
: 835 1 68 dle
: 836 1 67  ee
: 837 1 65  um
- 840 841
: 852 3 65 What
: 855 3 69  will
: 858 2 72  they
: 860 6 77  say
: 866 2 72  a
: 868 4 75 bout
: 874 7 73  me
- 883 884
: 892 6 70 When
: 898 2 72  the
: 900 6 73  end
: 906 5 73  comes
: 911 5 73  I
: 916 6 73  know
- 923
: 924 6 72 I
: 930 2 70  was
: 932 6 72  just
: 938 2 72  a
: 940 3 72  gi
: 943 3 72 go
: 946 7 75 lo
- 955 956
: 970 2 75 Life
: 977 5 73  goes
: 982 6 72  on
: 994 3 67  with
: 997 5 70 out
: 1002 6 68  me
- 1010
: 1015 6 63 'Cause
- 1023 1024
: 1032 40 75 I
: 1072 8 74  ain't
: 1080 8 73  got
: 1088 8 72  no
* 1096 29 72 bo
: 1125 3 72 dy
: 1128 5 65 ~
- 1135
: 1143 8 72 No
: 1151 3 68 bo
: 1154 4 65 dy
- 1160
: 1167 7 68 Cares
: 1178 7 68  for
: 1186 3 72  me
- 1191
: 1199 7 68 No
: 1210 8 68 bo
: 1218 5 72 dy
- 1225
: 1231 5 68 No
: 1241 8 68 bo
: 1250 5 65 dy
- 1257
: 1263 6 68 Cares
: 1273 7 68  for
: 1281 4 65  me
- 1287
* 1289 38 75 I'm
: 1331 8 74  so
: 1339 8 73  sad
: 1347 9 72  and
: 1356 28 72  lone
: 1384 8 65 ly
- 1394
: 1399 3 72 Sad
: 1402 3 72  and
: 1405 5 72  lone
: 1410 3 65 ly
- 1414
: 1415 3 72 Sad
: 1418 3 72  and
: 1421 4 72  lone
: 1425 4 65 ly
- 1430
: 1432 3 72 Won't
: 1438 6 72  some
: 1444 7 72  sweet
: 1451 5 72  ma
: 1456 3 72 ma
- 1460
: 1462 2 72 Come
: 1464 3 72  and
: 1467 3 72  take
: 1470 3 72  a
: 1473 5 77  chance
: 1480 4 77  with
: 1484 7 72  me
- 1493
: 1496 3 68 'Cause
: 1499 5 68  I
: 1504 6 70  ain't
: 1510 5 68  so
: 1515 8 67  bad
- 1525
: 1528 2 68 You
: 1530 2 68 ~
: 1532 2 68 know
: 1539 2 68  ba
: 1544 4 68 by
- 1550 1551
: 1561 4 68 It's
: 1567 3 68  so
: 1570 5 65 ~
: 1575 8 68 lone
: 1583 9 68 some
- 1594 1604
: 1624 15 68 All
: 1639 2 63  of
: 1641 3 61  the
: 1644 12 56  time
- 1658 1659
: 1672 2 68 E
: 1674 2 65 ven
: 1676 2 68  on
: 1678 3 65  the
: 1681 6 68  beat
- 1689
: 1696 3 68 On
: 1699 2 65 ly
: 1701 4 68  on
: 1705 3 65 ly
: 1708 3 68  on
: 1711 3 65  the
: 1714 8 68  beat
- 1724 1725
: 1740 2 72 Bap
- 1744 1745
: 1757 3 63 Boz
: 1762 2 65 dee
: 1765 3 68  bo
: 1770 2 72 zee
: 1773 3 75  bap
- 1778
: 1785 2 73 Zid
: 1787 2 72 dy
: 1789 2 70  bap
- 1793 1794
: 1804 39 75 I
: 1845 8 74  ain't
: 1853 8 73  got
: 1861 8 72  no
: 1869 29 72 bo
: 1898 3 72 dy
: 1901 5 65 ~
- 1908
: 1915 8 72 No
: 1923 3 68 bo
: 1926 5 65 dy
- 1933
: 1939 6 68 Cares
: 1950 7 68  for
: 1958 3 72  me
- 1963
: 1971 5 68 No
* 1982 8 68 bo
: 1990 5 72 dy
- 1997
: 2004 5 68 No
: 2014 8 68 bo
: 2023 5 65 dy
- 2030 2743
: 2763 3 75 Hum
: 2766 2 75 ma
: 2768 2 75 la
: 2771 2 75  bee
: 2773 2 75 ba
: 2775 2 75 la
- 2778
: 2778 2 75 Zee
: 2780 2 75 ba
: 2783 2 75 la
: 2786 2 75  boo
: 2788 2 75 ba
: 2790 2 75 la
- 2793
: 2793 3 75 Hum
: 2796 2 75 ma
: 2798 2 75 la
: 2801 2 75  bee
: 2803 2 75 ba
: 2805 2 75 la
- 2808
: 2808 2 75 Zee
: 2810 2 75 ba
: 2812 2 75 la
: 2817 2 75  bap
- 2821
: 2826 39 75 I
: 2866 8 74  ain't
: 2874 8 73  got
: 2882 8 72  no
: 2890 28 72 bo
: 2918 4 72 dy
: 2922 6 65 ~
- 2930
: 2935 7 72 No
: 2942 4 72 bo
: 2946 4 65 dy
- 2952
: 2959 6 72 No
* 2967 4 72 bo
: 2972 4 65 dy
- 2978 2979
: 2991 8 68 Cares
: 3002 8 68  for
: 3010 7 72  me
- 3019
: 3023 7 68 No
: 3034 7 68 bo
: 3042 6 65 dy
- 3050
: 3055 7 68 No
: 3066 7 68 bo
: 3073 5 65 dy
- 3079
: 3081 40 75 I'm
: 3121 8 74  so
: 3129 8 73  sad
: 3137 9 72  and
: 3146 30 72  lone
: 3176 6 65 ly
- 3184
: 3191 3 72 Sad
: 3194 3 72  and
: 3197 5 72  lone
: 3202 3 65 ly
- 3206
: 3207 3 72 Sad
: 3210 3 72  and
: 3213 4 72  lone
: 3217 4 65 ly
- 3222
: 3224 5 72 Won't
: 3230 6 72  some
: 3236 7 72  sweet
: 3243 5 72  ma
: 3248 3 72 ma
- 3252
: 3254 2 72 Come
: 3256 3 72  and
: 3259 2 72  take
: 3261 2 72  a
* 3263 7 77  chance
: 3270 4 77  with
: 3274 7 72  me
- 3283
: 3287 3 68 'Cause
: 3290 5 68  I
: 3295 6 70  ain't
: 3301 5 68  so
: 3306 8 67  bad
- 3316
: 3319 3 68 You
: 3322 2 65 ~
: 3324 4 68 know
: 3330 7 68  it's
: 3337 8 68  so
- 3347 3348
: 3367 3 68 Ba
: 3370 4 65 by
: 3374 6 68  lone
* 3382 19 68 some
- 3403 3404
: 3414 15 68 All
: 3429 3 63  of
: 3432 2 61  the
: 3434 10 58  time
- 3446 3447
: 3460 4 68 E
: 3464 3 65 ven
: 3467 2 68  on
: 3469 3 65  the
: 3472 5 68  beat
- 3479
: 3485 2 68 John
: 3487 4 65 ny
: 3491 3 68  John
: 3494 4 65 ny
: 3498 2 68  on
: 3500 2 65  the
* 3502 6 68  beat
- 3510 3511
: 3524 3 65 Get
: 3527 7 68  low
- 3536
: 3541 6 68 So
- 3549 3550
: 3560 5 68 Dol
: 3565 4 68 ly
- 3571
: 3574 5 68 Ma
: 3579 5 68 ma
- 3586
: 3591 4 68 Ba
: 3595 4 68 by
- 3601
: 3607 5 68 Said
: 3612 4 68  he's
- 3618
: 3623 5 68 Got
- 3630 3631
: 3639 6 60 No
: 3655 8 68 bo
: 3663 7 65 dy
- 3672
: 3679 8 60 I
: 3687 5 68  know
: 3692 7 67 ~
* 3699 8 65 ~
- 3708
: 3708 6 60 Say
: 3714 4 60  now
- 3720
: 3722 4 68 No
: 3726 5 68 bo
: 3731 3 68 dy
- 3736 3737
: 3754 4 68 No
: 3758 4 68 bo
: 3762 3 68 dy
- 3767 3768
: 3782 5 68 No
: 3787 3 68 bo
: 3790 3 68 dy
- 3795 3796
: 3810 5 68 No
: 3815 5 68 bo
: 3820 3 68 dy
: 3823 6 65 ~
- 3831 3832
: 3850 4 68 No
: 3854 4 68 bo
: 3858 7 68 dy
- 3867 3868
: 3877 5 63 No
: 3884 5 61 bo
: 3889 3 61 dy
: 3892 7 60  cares
: 3901 7 60  for
: 3908 5 56  me
E
