#TITLE:Changes
#ARTIST:David Bowie
#LANGUAGE:Englisch
#EDITION:Singstar Amped
#MP3:David Bowie - Changes.mp3
#COVER:David Bowie - Changes [CO].jpg
#BACKGROUND:David Bowie - Changes [BG].jpg
#BPM:220
#GAP:13632,73
: 0 6 62 Hmm
- 8
: 110 3 52 Still
: 114 2 52  don't
: 118 4 52  know
: 124 2 50  what
: 126 3 52  I
: 130 2 55  was
- 134
: 142 2 59 Wait
: 144 2 55 ing
: 149 4 55  for
- 155
: 162 2 59 And
: 164 2 60  my
: 168 9 60  time
: 180 2 57  was
: 191 1 55  run
: 193 1 55 ning
: 196 6 57  wild
- 204
: 206 1 50 A
: 208 2 50  mill
: 211 2 52 ion
: 215 1 52  dead
: 217 3 52 end
: 222 3 52  streets
: 228 4 48  and
- 234
: 240 2 52 Ev
: 242 2 50 ery
: 245 5 52  time
: 251 2 52  I
: 254 4 52  thought
: 259 3 55  I'd
- 264
: 269 2 57 Got
: 272 2 60  it
: 276 7 59  made
- 284
: 284 2 55 It
: 288 5 57  seemed
: 294 1 60  the
: 296 4 60  taste
- 302
: 307 2 57 Was
: 311 2 60  not
: 317 3 64  so
* 323 3 64  sweet
- 328
: 353 2 64 So
: 355 2 65  I
: 359 6 67  turned
: 367 5 64  my
: 375 6 62 self
- 382
: 383 2 62 To
: 387 2 59  face
: 393 5 57  me
- 400
: 417 2 60 But
: 420 7 60  I've
- 429
: 431 1 60 Ne
: 433 2 60 ver
: 436 2 60  caught
: 439 2 60  a
: 442 3 64  glimpse
- 447
: 480 2 64 How
: 483 2 65  the
: 486 2 67  o
: 490 6 64 thers
- 497
: 499 2 60 Must
: 503 7 64  see
: 511 1 64  the
* 514 2 60  fa
: 518 6 57 ker
- 526
: 539 2 60 I'm
: 543 2 60  much
: 547 2 60  too
: 551 6 60  fast
- 558
: 560 2 57 To
: 564 3 60  take
: 569 2 64  that
: 574 3 64  test
- 579
: 587 1 65 Ch
: 591 1 65 ch
: 595 1 65 ch
: 599 1 65 ch
: 603 5 67 chan
: 611 2 64 ges
- 614
: 615 10 64 Turn
: 627 2 64  and
: 631 4 67  face
: 638 2 69  the
: 642 7 60  strange
- 650
: 650 1 64 Ch
: 654 1 64 ch
: 658 6 69 chan
: 666 3 67 ges
: 670 4 64 ~
- 676
: 689 2 60 Don't
: 692 1 60  want
: 694 2 60  to
: 697 2 60  be
: 700 4 60  a
: 705 2 62  ri
: 708 2 62 cher
* 711 5 64  man
- 718
: 727 1 65 Ch
: 731 1 65 ch
: 735 1 65 ch
: 739 1 65 ch
: 743 5 67 chan
: 751 2 64 ges
- 754
: 754 11 64 Turn
: 766 2 64  and
: 770 5 67  face
: 778 2 69  the
: 782 5 60  strange
- 788
: 789 1 64 Ch
: 793 1 64 ch
: 797 5 69 chan
: 804 3 67 ges
: 808 5 64 ~
- 815
: 827 2 57 Just
: 830 1 60  gon
: 832 2 60 na
: 835 1 60  have
: 837 2 57  to
: 840 1 60  be
- 842
: 842 2 60 A
: 845 2 62  diff
: 848 2 62 'rent
: 851 7 64  man
- 860
: 862 6 64 Time
: 870 4 64  may
: 877 6 60  change
: 885 8 65  me
- 895
: 905 2 64 But
: 909 5 64  I
: 917 4 62  can't
: 925 4 60  trace
: 933 13 55  time
- 948
: 1039 9 62 Ooh
: 1049 2 62  yeah
: 1051 2 61 ~
: 1053 2 59 ~
- 1057
: 1117 2 48 I
: 1121 2 52  watch
: 1126 2 50  the
: 1129 2 52  rip
: 1133 7 55 ples
- 1142
: 1145 6 59 Change
: 1153 2 55  their
: 1157 8 52  size
- 1167
: 1174 2 59 But
* 1178 2 60  ne
: 1182 7 60 ver
: 1194 5 57  leave
: 1202 2 55  the
: 1206 6 57  stream
- 1213
: 1215 2 50 Of
: 1218 3 50  warm
: 1222 2 50  im
: 1225 3 52 per
: 1229 1 50 ma
: 1231 2 50 nence
: 1235 3 48  and
- 1240
: 1248 3 52 So
: 1252 2 50  the
: 1254 5 52  days
: 1264 3 55  float
- 1269
: 1272 4 59 Through
: 1278 5 62  my
: 1283 10 62  eyes
- 1294
: 1296 2 60 But
: 1302 8 60  still
: 1311 1 60  the
: 1313 5 60  days
- 1320
: 1322 4 60 Seem
: 1328 1 60  the
: 1332 5 64  same
- 1339
: 1362 1 64 And
: 1364 2 65  these
* 1368 5 67  child
: 1375 14 64 ren
- 1390
: 1390 2 62 That
: 1395 5 62  you
: 1404 2 59  spit
: 1407 6 57  on
- 1414
: 1415 3 57 As
: 1421 4 60  they
- 1427
: 1434 6 60 Try
: 1441 2 57  to
: 1445 9 60  change
: 1457 2 64  their
: 1461 7 64  worlds
- 1470
: 1481 3 64 Are
: 1485 3 65  im
: 1490 7 67 mune
- 1499
: 1502 3 64 To
: 1506 4 64  your
: 1512 3 65  con
: 1517 3 64 sul
: 1522 3 62 ta
: 1528 7 59 tions
: 1535 7 57 ~
- 1543
: 1545 2 55 They're
: 1549 2 57  quite
: 1552 1 57  a
: 1554 5 60 ware
- 1561
: 1564 3 60 What
: 1569 3 55  they're
: 1573 1 57  go
: 1575 2 57 ing
: 1580 5 57  through
- 1587
: 1591 1 65 Ch
: 1595 1 65 ch
: 1599 1 65 ch
: 1603 1 65 ch
: 1607 5 67 chan
: 1615 2 64 ges
- 1618
: 1619 10 64 Turn
: 1631 2 64  and
: 1635 4 67  face
: 1642 2 69  the
: 1646 7 60  strange
- 1654
: 1654 1 64 Ch
: 1658 1 64 ch
: 1662 6 69 chan
: 1670 3 67 ges
: 1674 4 64 ~
- 1680
: 1684 2 60 Don't
: 1688 1 60  tell
: 1690 3 60  them
: 1694 2 57  to
: 1697 4 60  grow
: 1702 2 60  up
- 1705
: 1706 3 57 And
: 1712 2 62  out
: 1715 2 62  of
: 1718 5 64  it
- 1725
: 1730 1 65 Ch
: 1734 1 65 ch
: 1738 1 65 ch
: 1742 1 65 ch
: 1746 5 67 chan
: 1754 2 64 ges
- 1757
: 1757 11 64 Turn
: 1769 2 64  and
: 1773 5 67  face
: 1781 2 69  the
: 1785 6 60  strange
- 1792
: 1792 1 64 Ch
: 1796 1 64 ch
: 1800 5 69 chan
: 1807 3 67 ges
: 1811 5 64 ~
- 1817
: 1819 3 60 Where's
: 1823 1 57  your
: 1826 2 60  shame?
- 1829
: 1830 1 57 You've
: 1832 3 60  left
: 1836 2 57  us
: 1839 2 60  up
- 1842
: 1843 1 60 To
: 1845 3 60  our
: 1849 2 62  necks
: 1853 1 62  in
: 1855 4 64  it
- 1861
: 1865 5 64 Time
: 1873 5 64  may
: 1880 6 60  change
: 1888 8 65  me
- 1898
: 1909 1 64 But
: 1911 5 64  you
: 1919 4 62  can't
: 1927 5 60  trace
: 1937 7 52  time
- 1946
* 1967 10 62 Strange
: 1979 9 60  fas
: 1991 6 59 ci
: 1998 9 62 na
: 2010 7 60 tion
- 2019
: 2021 4 59 Fas
: 2028 3 62 c'na
: 2032 3 60 ting
: 2039 8 52  me
- 2049
: 2081 6 64 Ah
- 2088
: 2089 9 62 Chan
: 2101 9 60 ges
: 2112 6 59  are
: 2121 7 62  tak
: 2131 7 60 ing
- 2140
: 2146 2 62 The
: 2150 4 64  pace
: 2157 5 64  I'm
: 2165 4 65  go
: 2170 4 65 ing
* 2176 4 65  through
- 2181
: 2183 1 65 Ch
: 2187 1 65 ch
: 2191 1 65 ch
: 2195 1 65 ch
: 2199 6 67 chan
: 2207 2 64 ges
- 2210
: 2210 10 64 Turn
: 2221 2 64  and
* 2225 6 67  face
: 2233 2 69  the
: 2237 7 60  strange
- 2245
: 2245 1 64 Ch
: 2249 1 64 ch
: 2253 5 69 chan
: 2260 3 67 ges
: 2264 4 64 ~
- 2270
: 2275 3 60 Ooh
: 2279 1 60  look
: 2281 5 60  out
- 2288
: 2290 2 60 You
: 2293 2 60  rock
: 2295 2 57  'n
: 2299 2 62  rol
: 2302 6 64 lers
- 2310
: 2320 1 65 Ch
: 2324 1 65 ch
: 2328 1 65 ch
: 2332 1 65 ch
* 2337 4 67 chan
: 2344 2 64 ges
- 2347
: 2347 10 64 Turn
: 2358 2 64  and
: 2362 6 67  face
: 2370 2 69  the
: 2374 6 60  strange
- 2381
: 2381 1 64 Ch
: 2385 1 64 ch
: 2389 5 69 chan
: 2396 3 67 ges
: 2400 4 64 ~
- 2406
: 2408 1 64 Pret
: 2410 1 62 ty
: 2412 3 64  soon
: 2417 6 64  now
- 2424
: 2424 1 60 You're
: 2426 3 60  gon
: 2430 1 60 na
: 2432 2 60  get
: 2435 3 62  ol
: 2439 5 64 der
- 2446
: 2452 6 64 Time
: 2460 5 64  may
: 2468 5 60  change
: 2476 8 65  me
- 2486
: 2494 3 64 But
: 2498 5 64  I
: 2506 4 62  can't
: 2514 5 60  trace
: 2522 7 55  time
- 2531
: 2534 1 55 I
: 2537 2 57  said
: 2541 2 60  that
: 2545 5 64  time
: 2553 4 64  may
: 2560 5 60  change
: 2568 8 65  me
- 2578
: 2586 2 64 But
: 2590 6 64  I
: 2599 5 62  can't
: 2607 5 60  trace
* 2615 32 55  time
E
