#TITLE:Du Wichser
#ARTIST:Deliah
#MP3:Deliah - Du Wichser.mp3
#COVER:Deliah - Du Wichser [CO].jpg
#BACKGROUND:Deliah - Du Wichser [BG].jpg
#BPM:194
#GAP:11150
#ENCODING:UTF8
: 1 4 65 Heu
: 5 4 66 te
: 9 6 67  habe
: 15 3 67  ich
: 18 4 67  dich
: 22 4 67  seit
: 26 3 67  lan
: 29 2 67 ger
: 31 5 67  Zeit
- 38
: 52 9 68  mal
: 61 3 67  wie
: 64 3 67 der
: 67 2 67  ge
: 69 7 66 sehen,
- 78
: 136 6 66 gingst
: 142 3 67  an
: 145 4 67  mir
: 149 4 67  vor
: 153 5 67 bei
- 160
: 172 6 68  als
: 178 5 67  wä
: 183 3 67 re
: 186 8 67  nichts
: 194 2 67  ge
: 196 10 66 schehen
- 210
: 254 3 64 und
: 257 3 65  ich
: 260 3 65  sah
: 263 2 65  dich
: 265 3 65  an
: 274 6 64  und
: 281 3 65  ir
: 284 3 65 gend
: 287 7 65 wie
- 297
: 309 6 66  dach
: 315 3 66 te
: 318 4 65  ich
: 322 10 66  dann
: 336 4 65  wie
: 340 5 66  schön
: 345 3 65  es
: 348 6 66  wär',
- 361
: 361 3 69 dir
: 364 5 70  auf
: 369 5 70  die
: 374 5 72  Fres
: 379 2 72 se
: 381 3 68  zu
: 384 12 66  hauen,
- 399
: 425 5 69 dir
: 430 5 68  den
: 435 8 70  Hals
: 443 3 69  um
: 446 5 68 zu
: 451 8 66 drehen,
- 461
: 488 5 71 dir
: 493 5 71  den
: 498 7 72  Tag
: 505 4 71  zu
: 509 4 71  ver
: 513 12 70 sauen
- 528
: 550 5 72 und
: 555 8 73  dann
: 566 4 72  ab
: 570 3 72 zu
: 573 9 71 hauen.
- 584
: 622 4 70 Du
: 626 6 72  Wich
: 632 5 68 ser,
- 640
: 668 3 70  du
: 672 3 72  dum
: 675 4 73 me
: 679 2 72  a
: 681 3 71 ro
: 684 4 72 gan
: 688 3 72 te
: 691 9 73  Sau.
- 702
: 748 5 64 Du
: 753 4 64  Wich
: 757 7 65 ser,
- 766
: 788 4 69  hab
: 792 4 69  ich
: 796 3 69  dir
: 799 3 69  je
: 802 8 67 mals
: 813 3 65  ver
: 816 12 67 traut?
- 830
: 875 5 70 Du
: 880 4 72  Wich
: 884 6 68 ser,
- 892
: 915 4 76 das
: 919 4 78  Lied
: 923 4 76  ist
: 927 3 78  ei
: 930 3 76 gent
: 933 4 78 lich
: 937 3 80  zu
: 940 8 82  scha
: 948 4 80 de
: 952 6 79  für
: 958 9 78  dich,
- 969
: 999 7 70 Du
: 1006 4 72  Wich
: 1010 7 68 ser
: 1041 3 69  und
: 1044 3 69  weißt
: 1047 2 67  du
: 1049 8 68  was,
- 1060
: 1063 3 68 ich
: 1066 3 68  bin
: 1069 3 66  es
: 1073 7 64  auch!!
- 1091
: 1139 7 65 Hab
: 1146 3 66  dir
: 1149 4 67  tau
: 1153 3 67 send
: 1156 3 67  mal
: 1159 2 65  ge
: 1161 9 66 glaubt
- 1173
: 1191 6 68  und
: 1200 3 67  wuss
: 1203 2 67 te
: 1205 3 66  es
: 1208 7 65  doch
- 1217
: 1274 5 68 Tau
: 1279 4 68 send
: 1283 6 68  mal
: 1289 2 66  be
: 1291 6 70 lo
: 1297 5 68 gen,
- 1304
: 1312 3 68 du
: 1315 3 68  lä
: 1318 8 68 chelst
: 1327 2 67  im
: 1329 3 66 mer
: 1332 8 65  noch
- 1343
: 1393 4 69 Wenn
: 1397 2 69  ich
: 1399 3 69  dich
: 1402 4 69  jetzt
: 1407 3 68  so
: 1410 5 68  seh
: 1417 4 67  glaube
: 1423 3 67  ich
: 1426 7 65  kaum,
- 1435
: 1445 4 69 das
: 1449 4 70  ich
: 1453 4 70  mich
: 1457 3 72  ir
: 1460 2 70 gend
: 1462 7 72 wie
- 1471
: 1478 2 70  zu
: 1480 4 72 rück
: 1484 4 72  hal
: 1488 5 72 ten
: 1493 4 74  kann,
- 1499
: 1501 6 72 dir
: 1507 5 72  dein
: 1512 4 74  Grin
: 1516 5 75 sen
: 1521 3 72  zu
: 1524 11 70  klauen,
- 1536
: 1565 5 72 dir
: 1570 5 72  den
: 1575 7 74  Hals
: 1582 4 74  um
: 1586 3 72 zu
: 1589 10 70 drehn
- 1601
: 1629 4 70 dir
: 1633 6 70  den
: 1639 6 70  Tag
: 1645 4 70  zu
: 1649 5 70  ver
: 1654 11 70 sauen
- 1666
: 1690 5 74  und
: 1695 7 75  dann
: 1707 4 72  ab
: 1711 3 70 zu
: 1714 8 71 hauen!
- 1726
: 1760 5 70 Du
: 1765 5 72  Wich
: 1770 7 68 ser,
- 1799
: 1808 5 70 Du
: 1813 2 72  dum
: 1815 6 70 me
: 1821 1 72  a
: 1822 3 71 ro
: 1825 4 72 gan
: 1829 3 72 te
: 1832 9 74  Sau
- 1844
: 1887 5 72 Du
: 1892 5 74  Wich
: 1897 7 70 ser,
- 1912
: 1929 4 74 hab
: 1933 4 76  ich
: 1937 4 74  dir
: 1941 3 74  je
: 1944 8 74 mals
: 1953 3 74  ver
: 1956 13 72 traut?
- 1972
: 2015 5 71 Du
: 2020 5 73  Wich
: 2025 9 69 ser,
- 2037
: 2056 3 76 Das
: 2059 5 79  Lied
: 2064 4 76  ist
: 2068 3 79  ei
: 2071 2 79 gent
: 2073 5 79 lich
: 2078 4 76  zu
: 2082 8 79  Scha
: 2090 4 76 de
: 2094 6 77  für
: 2100 12 76  dich
- 2114
: 2142 6 76 Du
: 2148 4 76  Wich
: 2152 7 74 ser
: 2183 3 74  und
: 2186 3 74  weißt
: 2189 3 72  du
: 2192 7 72  was,
- 2202
: 2204 4 72 ich
: 2208 3 71  bin
: 2211 3 71  es
: 2214 8 70  auch!!
- 2227
: 2302 3 76 Ver
: 2305 6 78 piss
: 2311 10 76  dich,
- 2323
: 2340 5 76  hau
: 2345 3 77  ab
: 2348 3 76  ich
: 2351 3 77  kann
: 2354 3 76  dich
: 2357 4 77  nicht
: 2361 10 79  mehr
: 2371 11 79  seh'n
- 2387
: 2428 5 76 Du
: 2433 5 78  Wich
: 2438 8 74 ser,
- 2448
: 2467 6 79  nur
: 2473 3 76  einen
: 2476 2 79  Ge
: 2478 4 76 fal
: 2482 3 76 len
: 2485 3 74  bit
: 2488 7 74 te
: 2495 11 74  ich'
- 2508
: 2554 5 74 Du
: 2559 5 76  Wich
: 2564 8 72 ser,
- 2574
: 2595 4 76 ich
: 2599 4 76  hab
: 2603 3 74  dein
: 2606 5 76  Kram
: 2611 3 73  noch
: 2614 5 76  nicht
: 2619 7 75  mal
- 2627
: 2628 4 74  weg
: 2632 5 72 ge
: 2637 17 70 räumt
- 2657
: 2681 6 72 Du
: 2687 5 72  Wich
: 2692 8 74 ser
- 2702
: 2725 3 72  wa
: 2728 3 72 rum
: 2731 4 72  machst
: 2735 6 72  du's
: 2741 4 72  mir
: 2745 19 72  so
: 2764 14 69  schwer?
E