#TITLE:Get Back
#ARTIST:Demi Lovato
#MP3:Demi Lovato - Get Back.mp3
#VIDEO:Demi Lovato - Get Back.avi
#COVER:Demi Lovato - Get Back.jpg
#BPM:300
#GAP:480
#ENCODING:UTF8
#LANGUAGE:English
#EDITION:Sing It Pop Hits
#YEAR:2008
: 127 7 65 Don't
: 135 3 65  walk
: 139 6 64  a
: 146 3 62 way
: 150 3 64 ~
: 154 4 62  like
- 160
: 162 3 60 you
: 166 5 60  al
: 172 5 62 ways
: 181 7 59  do
- 197
: 201 4 62 this
: 210 4 62  time
: 215 6 64 ~
- 231
: 254 3 65 ba
: 258 3 65 by
: 262 3 65  you're
: 266 5 64  the
: 273 3 62  on
: 277 4 64 ~
: 282 3 62 ly
- 287
: 289 7 60 thing
: 297 1 60  that's
: 299 4 62 ~
: 305 1 62  been
: 307 1 61 ~
: 308 1 60 ~
: 309 4 59 ~
- 325
: 329 2 62 on
: 332 3 62  my
* 336 3 62  mind
* 340 8 64 ~
- 358
: 380 1 65 e
: 383 2 65 ver
: 387 2 65  since
: 392 4 64  you've
: 399 2 62  left
: 402 1 64 ~
- 405
: 407 5 62 I've
: 415 5 62  been
: 423 2 60  a
: 426 3 62 ~
: 431 4 59  mess
- 437
: 439 3 60 you
: 443 5 60  won't
: 451 4 60  ans
: 457 4 60 wer
: 464 4 59  your
: 471 9 67  phone
- 490
: 502 2 65 I'll
: 506 3 65  say
: 510 3 65  it
: 514 2 65  once
: 518 3 65  and
: 522 1 65  I'll
- 524
: 526 5 65 leave
: 533 4 64  you
: 538 2 64  a
: 541 5 64 lone
- 548
: 550 2 67 but
: 554 2 67  I
: 558 3 67  got
: 562 4 69 ~
: 567 2 69 ta
- 571
: 573 1 71 let
: 575 3 69 ~
: 581 3 67  you
: 585 3 66 ~
: 589 2 67  know
: 592 5 66 ~
- 608
: 612 4 65 I
: 617 2 67  wan
: 620 2 67 na
* 626 4 71  get
: 633 3 67  back
: 637 4 65 ~
- 643
: 645 3 67 to
: 649 2 62  the
: 652 6 65  old
: 661 3 65  days
: 665 5 67 ~
- 675
: 677 2 67 when
: 681 1 62  the
: 684 6 65  phone
: 691 2 65  would
: 696 2 65  ring
: 699 4 67 ~
- 705
: 707 3 67 and
: 711 3 67  I
: 715 7 70  knew
: 723 2 70  it
: 727 3 70  was
: 732 2 67  you
: 735 1 65 ~
- 738
: 740 2 65 I
: 743 3 67  wan
: 747 2 67 na
: 751 5 71  talk
: 759 3 67  back
: 763 3 65 ~
- 769
: 771 2 67 and
: 775 3 62  get
: 779 4 65  yelled
: 786 3 65  at
: 790 5 67 ~
- 800
: 802 3 65 fight
: 806 3 62  for
: 810 5 65  no
: 818 3 65 thing
: 822 4 67 ~
- 832
: 835 2 67 like
: 839 3 67  we
: 843 2 74  used
: 846 2 72 ~
* 851 1 70  to
* 853 2 72 ~
* 856 1 74 ~
* 858 2 72 ~
- 866
: 868 7 67 oh
: 878 4 71  kiss
: 885 6 74  me
- 895
: 897 2 71 like
: 901 3 67  you
: 905 9 69  mean
* 915 4 74  it
* 920 5 76 ~
- 927
: 929 3 69 like
: 933 3 71  you
: 937 6 69  miss
: 945 5 67  me
- 958
: 961 2 67 'cause
: 965 3 67  I
: 969 3 72  know
: 973 3 74 ~
: 977 1 74  that
: 980 4 74  you
: 985 2 72  do
: 988 1 70 ~
- 990
: 992 3 65 I
: 996 3 67  wan
: 1000 2 67 na
: 1004 4 70  get
: 1012 4 67  back
- 1022
: 1024 4 74 get
: 1032 5 72  back
- 1047
: 1056 4 74 with
: 1064 3 72  you
: 1068 4 70 ~
- 1082
* 1091 2 65 ah
* 1095 1 77 ~
* 1097 2 79 ~
* 1100 1 77 ~
* 1102 3 74 ~
* 1106 2 77  yeah
* 1109 2 73 ~
* 1112 1 72 ~
* 1114 3 69 ~
* 1118 2 71 ~
- 1140
: 1197 2 62 don't
: 1200 2 65  look
: 1204 2 65  at
: 1208 3 65  me
: 1212 3 64  that
: 1216 1 64  way
- 1218
: 1220 2 64 I
: 1225 3 64  see
: 1229 4 62  it
: 1236 7 60  in
: 1244 4 60  your
: 1249 5 62 ~
: 1255 1 61 ~
: 1257 1 60 ~
: 1259 6 59 ~
- 1275
: 1283 2 59 eyes
: 1286 3 64 ~
: 1292 3 67 ~
: 1299 2 70 ~
: 1302 13 71 ~
- 1324
: 1327 7 65 don't
: 1335 3 65  wor
: 1339 3 64 ry
: 1343 2 64  a
: 1347 6 64 bout
: 1355 5 62  me
- 1362
: 1364 4 60 I've
: 1372 3 60  been
: 1376 6 62 ~
: 1383 1 61 ~
: 1385 1 60 ~
: 1387 8 59 ~
- 1406
: 1410 5 64 fine
: 1418 3 67 ~
: 1425 3 69 ~
: 1429 5 71 ~
: 1435 4 69 ~
- 1446
: 1449 3 62 I'm
: 1453 5 65  not
: 1462 3 65  gon
: 1466 6 65 na
: 1474 3 65  lie
- 1479
: 1481 3 64 I've
: 1488 7 62  been
: 1496 4 60  a
: 1505 9 59  mess
- 1524
: 1537 4 64 since
: 1545 5 67  you've
: 1554 2 70  left
: 1557 2 71 ~
: 1560 1 70 ~
: 1562 2 69 ~
- 1573
: 1576 2 62 and
: 1581 1 67  e
: 1583 2 69 very
: 1588 2 69  time
: 1591 4 69  I
- 1597
: 1599 6 69 see
: 1607 5 67  you
: 1615 4 67  it
: 1622 5 67  gets
- 1629
: 1631 2 67 more
: 1634 4 69 ~
: 1639 5 69 and
: 1647 2 67  more
: 1650 5 69 ~
: 1656 3 67  in
: 1663 3 67 tense
: 1667 5 66 ~
- 1681
: 1685 4 65 I
: 1690 2 67  wan
: 1693 2 67 na
: 1699 4 71  get
: 1706 3 67  back
: 1710 4 65 ~
- 1716
: 1718 3 67 to
: 1722 2 62  the
: 1725 6 65  old
: 1734 3 65  days
: 1738 5 67 ~
- 1748
: 1750 3 65 when
: 1754 2 62  the
: 1758 6 65  phone
: 1765 2 65  would
: 1770 2 65  ring
: 1773 4 67 ~
- 1779
: 1781 2 67 and
: 1784 3 67  I
: 1788 7 70  knew
: 1796 2 70  it
: 1800 3 70  was
: 1805 2 67  you
: 1808 1 65 ~
- 1811
: 1813 2 65 I
: 1816 3 67  wan
: 1820 2 67 na
: 1824 5 71  talk
: 1832 3 67  back
: 1836 3 65 ~
- 1842
: 1844 2 67 and
: 1848 3 62  get
: 1852 5 65  yelled
: 1860 3 65  at
: 1864 5 67 ~
- 1874
: 1876 2 65 fight
: 1880 2 62  for
: 1883 5 65  no
: 1891 3 65 thing
: 1895 4 67 ~
- 1905
: 1908 2 67 like
: 1912 3 67  we
: 1916 2 74  used
: 1919 2 72 ~
: 1924 1 70 to
: 1926 2 72 ~
: 1929 1 74 ~
: 1931 2 72 ~
- 1940
* 1943 5 67 oh
* 1951 5 71  kiss
* 1959 6 74  me
- 1969
: 1971 2 71 like
: 1975 3 67  you
: 1979 9 69  mean
: 1989 4 74  it
: 1994 4 76 ~
- 2000
: 2002 3 69 like
: 2006 3 71  you
: 2010 6 69  miss
: 2018 5 67  me
- 2031
: 2034 2 67 'cause
: 2038 3 67  I
: 2042 3 72  know
: 2046 3 74 ~
: 2050 2 74 that
: 2053 5 74  you
: 2059 2 72  do
: 2062 1 70 ~
- 2064
: 2066 3 65 I
: 2070 3 67  wan
: 2074 2 67 na
: 2078 3 70  get
: 2085 4 67  back
- 2095
: 2097 4 74 get
: 2105 5 72  back
- 2120
: 2129 4 74 with
: 2137 3 72  you
: 2141 4 70 ~
- 2185
: 2276 3 65 you
: 2281 2 65  were
: 2286 4 65  the
: 2293 8 65  on
: 2302 5 64 ly
: 2309 5 62  one
- 2316
: 2318 6 60 I
: 2327 5 62  want
: 2334 8 59 ed
- 2362
: 2395 3 62 and
: 2401 7 69  you
: 2409 2 69  were
: 2412 4 69  the
: 2421 4 69  first
: 2429 4 67  one
- 2435
: 2437 4 67 I
: 2444 5 67  fell
: 2453 4 67  for
: 2458 3 69 ~
: 2462 8 71 ~
- 2490
: 2528 2 77 you're
: 2532 2 77  the
: 2536 2 77  on
: 2540 6 77 ly
: 2547 3 77  one
- 2552
: 2554 6 76 that
: 2561 1 74  I've
: 2563 1 76 ~
: 2565 4 74 ~
: 2571 6 72  been
: 2578 2 72  need
: 2581 4 71 ~
: 2586 20 71 ing
- 2626
: 2650 2 65 and
: 2653 3 77  I
: 2657 2 77  don't
: 2660 3 77  wan
: 2664 4 77 na
- 2671
: 2673 6 77 be
: 2681 2 76  lone
: 2684 4 74 ~
: 2689 3 74 ly
: 2693 4 72 ~
: 2698 2 72  a
: 2701 2 72 ny
: 2704 2 72 more
* 2707 23 74 ~
* 2731 3 71 ~
- 2744
: 2761 2 65 I
: 2764 2 67  wan
: 2767 2 67 na
: 2773 4 71  get
: 2780 2 67  back
: 2783 4 65 ~
- 2789
: 2791 3 67 to
: 2795 2 62  the
: 2798 6 65  old
: 2807 3 65  days
: 2811 5 67 ~
- 2821
: 2823 3 67 when
: 2827 2 62  the
: 2831 6 65  phone
: 2838 2 65  would
: 2843 2 65  ring
: 2846 4 67 ~
- 2852
: 2854 3 67 and
: 2858 3 67  I
: 2862 7 70  knew
: 2870 2 70  it
: 2874 3 70  was
: 2879 1 67  you
: 2881 1 65 ~
- 2884
: 2886 2 65 I
: 2889 3 67  wan
: 2893 2 67 na
* 2899 2 71  talk
: 2905 3 67  back
: 2909 3 65 ~
- 2915
: 2917 2 67 and
: 2921 3 62  get
: 2925 5 65  yelled
: 2933 3 65  at
: 2937 5 67 ~
- 2947
: 2949 3 65 fight
: 2953 3 62  for
: 2957 5 65  no
: 2965 3 65 thing
: 2969 4 67 ~
- 2979
: 2981 2 67 like
: 2985 3 67  we
: 2989 2 74  used
: 2992 2 72 ~
: 2997 1 70  to
: 2999 2 72 ~
: 3002 1 74 ~
: 3004 2 72 ~
- 3013
: 3016 5 67 oh
: 3024 6 71  kiss
: 3032 6 74  me
- 3042
: 3044 2 71 like
: 3048 3 67  you
: 3052 10 69  mean
: 3063 4 74  it
: 3068 5 76 ~
- 3075
: 3077 2 69 like
: 3081 2 71  you
: 3084 5 69  miss
: 3092 5 67  me
- 3105
: 3108 2 67 'cause
: 3112 3 67  I
: 3116 3 72  know
: 3120 3 74 ~
: 3124 2 74  that
: 3127 5 74  you
: 3133 2 72  do
: 3136 1 70 ~
- 3138
: 3140 3 65 I
: 3144 3 67  wan
: 3148 2 67 na
: 3152 4 70  get
: 3160 4 67  back
- 3170
: 3172 4 74 get
: 3180 4 72  back
- 3194
: 3203 4 74 with
: 3211 3 72  you
: 3215 4 70 ~
- 3231
: 3235 2 72 get
: 3238 3 74 ~
: 3242 8 72  back
- 3270
: 3297 2 72 get
: 3300 3 74 ~
: 3305 3 72  back
: 3309 4 70 ~
- 3333
: 3361 5 74 get
: 3369 3 76  back
: 3373 4 77 ~
- 3397
: 3424 5 74 get
: 3432 2 72  back
: 3435 5 70 ~
- 3450
: 3459 5 67 oh
: 3467 4 71  kiss
: 3475 5 74  me
- 3484
: 3486 2 71 like
: 3490 3 67  you
: 3494 10 69  mean
: 3505 4 74  it
: 3510 4 76 ~
- 3516
: 3518 3 69 like
: 3522 3 71  you
: 3526 1 69  miss
: 3528 1 70 ~
: 3530 2 69 ~
: 3534 5 67  me
- 3547
: 3550 2 67 'cause
: 3554 3 67  I
: 3558 3 72  know
: 3562 3 74 ~
: 3566 2 74  that
: 3569 5 74  you
: 3575 2 72  do
: 3578 1 70 ~
- 3579
: 3581 3 65 I
: 3585 3 67  wan
: 3589 2 67 na
: 3593 4 70  get
: 3601 4 67  back
- 3611
: 3613 4 74 get
: 3621 5 72  back
- 3636
: 3644 3 65 I
: 3648 3 67  wan
: 3652 2 67 na
: 3656 4 70  get
: 3664 4 67  back
- 3674
: 3676 3 74 get
* 3683 6 77  back
* 3690 5 74 ~
* 3696 1 72 ~
* 3698 1 74 ~
* 3700 1 72 ~
* 3702 1 70 ~
* 3704 1 67 ~
- 3706
: 3708 3 65 I
: 3712 3 67  wan
: 3716 2 67 na
: 3720 4 70  get
: 3728 4 67  back
- 3738
: 3740 4 74 get
: 3748 5 72  back
- 3763
: 3771 4 77 get
: 3776 2 74 ~
* 3780 6 79  back
* 3787 2 77 ~
* 3790 1 74 ~
- 3793
* 3795 3 74 yeah
* 3799 1 72 ~
* 3801 1 74 ~
* 3803 1 72 ~
* 3805 5 70 ~
* 3811 1 72  yeah
* 3813 1 73 ~
* 3815 1 72 ~
* 3817 1 70 ~
* 3819 1 67 ~
- 3820
* 3822 1 70 back
* 3824 3 67 ~
* 3828 1 65 ~
* 3830 2 67 ~
* 3833 1 65 ~
* 3835 1 62 ~
* 3837 3 60 ~
* 3841 2 62 ~
* 3844 2 60 ~
* 3847 9 58 ~
- 3866
: 3890 10 77 wow
E