#TITLE:Survivor
#ARTIST:Destiny's Child
#LANGUAGE:Englisch
#EDITION:SingStar Party
#GENRE:Urban
#YEAR:2001
#MP3:Destiny's Child - Survivor.mp3
#COVER:Destiny's Child - Survivor [CO].jpg
#BACKGROUND:Destiny's Child - Survivor [BG].jpg
#VIDEO:Destiny's Child - Survivor [VD#0].avi
#VIDEOGAP:0
#BPM:161,2
#GAP:27450,37
: 0 3 68 Now
: 4 2 68  that
: 6 2 70  you're
: 8 2 71  out
: 10 2 70  of
: 12 2 68  my
: 14 3 68  life
- 18
: 18 3 66 I'm
: 21 2 68  so
: 23 2 70  much
: 25 2 71  bet
: 27 2 68 ter
- 30
: 30 2 63 You
: 32 2 68  thought
: 34 2 68  that
: 36 2 68  I'd
: 38 2 68  be
: 40 3 67  weak
: 44 2 67  with
: 46 4 67 out
: 50 1 67  you
- 52
: 52 2 67 But
: 54 3 68  I'm
: 57 2 70  stron
: 59 2 68 ger
- 62
: 62 2 63 You
: 64 2 68  thought
: 66 2 68  that
: 68 2 68  I'd
: 70 2 70  be
* 72 2 71  broke
: 74 2 70 ~
: 76 2 68 with
: 78 3 68 out
: 82 1 66  you
- 84
: 84 2 68 But
: 86 2 70  I'm
: 88 2 71  ri
: 90 2 68 cher
- 93
: 94 2 63 You
: 96 2 68  thought
: 98 2 68  that
: 100 2 68  I'd
: 102 2 68  be
: 104 4 67  sad
: 108 2 67  with
: 110 3 67 out
: 114 1 67  you
- 116
: 116 3 67 I
: 119 2 68  laugh
: 121 2 70  har
: 123 2 68 der
- 126
: 128 2 68 Thought
: 130 2 68  I
: 132 2 68  would
: 134 1 70 n't
: 136 2 71  grow
: 138 2 70 ~
: 140 1 68 with
: 142 4 68 out
: 146 1 68  you
- 148
: 148 2 68 Now
: 150 2 68  I'm
* 152 4 73  wi
: 156 2 71 ser
- 159
: 160 2 68 Thought
: 162 2 68  that
: 164 2 68  I'd
: 166 2 68  be
: 168 2 67  help
: 170 2 67 less
: 172 2 67  with
: 174 4 67 out
: 178 1 67  you
- 180
: 180 2 67 But
: 182 2 68  I'm
: 184 2 70  smar
: 186 2 68 ter
- 189
: 190 2 63 You
: 192 2 68  thought
: 194 2 68  that
: 196 2 68  I'd
: 198 2 70  be
: 200 2 71  stressed
: 204 2 68  with
: 206 4 71 out
: 210 1 68  you
- 212
: 212 2 68 But
: 214 2 68  I'm
: 216 2 71  chil
: 218 2 68 lin'
- 221
: 222 2 63 You
: 224 2 68  thought
: 226 2 68  I
: 228 2 68  would
: 230 2 68 n't
: 232 4 67  sell
: 236 2 67  with
: 238 4 67 out
: 242 1 67  you
- 244
: 244 3 67 Sold
: 247 2 68  nine
: 249 2 70  mil
: 251 2 68 lion
- 254
: 256 3 68 I'm
: 259 3 68  a
: 262 2 68  sur
* 264 4 71 vi
: 268 2 68 vor
- 271
: 272 3 68 I'm
: 275 3 68  not
: 278 2 68  gon'
: 280 4 71  give
: 284 2 68  up
- 287
: 288 3 68 I'm
: 291 3 68  not
: 294 2 68  gon'
: 297 2 67  stop
- 301
: 304 3 67 I'm
: 307 3 67  gon'
: 310 2 68  work
: 312 4 70  har
: 316 2 68 der
- 319
: 320 3 68 I'm
: 323 3 68  a
: 326 2 68  sur
: 328 4 71 vi
: 332 2 68 vor
- 335
: 336 3 68 I'm
* 339 3 68  gon
: 342 2 68 na
: 344 4 71  make
: 348 2 68  it
- 351
: 352 3 68 I
: 355 3 68  will
: 358 2 68  sur
: 360 3 67 vive
- 365
: 368 3 67 Keep
: 371 3 67  on
: 374 2 68  sur
: 376 4 70 vi
: 380 2 68 ving
- 383
: 384 3 68 I'm
: 387 3 68  a
: 390 2 68  sur
: 392 4 71 vi
: 396 2 68 vor
- 399
: 400 3 68 I'm
: 403 3 68  not
: 406 2 68  gon'
: 408 4 71  give
: 412 2 68  up
- 415
: 416 3 68 I'm
: 419 3 68  not
: 422 2 68  gon'
: 425 2 67  stop
- 429
: 432 3 67 I'm
: 435 3 67  gon'
: 438 2 68  work
: 440 4 70  har
: 444 2 68 der
- 447
: 448 3 68 I'm
: 451 3 68  a
: 454 2 68  sur
: 456 4 71 vi
: 460 2 68 vor
- 463
: 464 3 68 I'm
: 467 3 68  gon
: 470 2 68 na
: 472 4 71  make
: 476 2 68  it
- 479
: 480 3 68 I
: 483 3 68  will
: 486 2 68  sur
: 488 3 67 vive
- 493
: 496 3 67 Keep
: 499 3 67  on
: 502 2 68  sur
: 504 4 70 vi
: 508 2 68 ving
- 511
: 512 2 68 Thought
: 514 2 68  I
: 516 1 68  could
: 518 2 70 n't
: 520 2 71  breath
: 522 2 70 ~
: 524 2 68 with
: 526 4 68 out
: 530 1 68  you
- 532
: 532 2 68 I'm
: 534 2 70  in
: 536 2 71 ha
: 538 2 68 ling
- 541
: 542 2 63 You
: 544 2 68  thought
: 546 2 68  I
: 548 2 68  could
: 550 2 68 n't
* 552 4 67  see
: 556 2 67  with
: 558 3 67 out
: 562 1 67  your
- 564
: 564 2 67 Per
: 566 2 68 fect
: 569 2 70  vi
: 571 2 68 sion
- 574
: 574 2 63 You
: 576 2 68  thought
: 578 2 68  I
: 580 2 68  could
: 582 2 70 n't
: 584 2 71  last
: 586 2 70 ~
: 588 2 68 with
: 590 4 68 out
: 594 1 66  you
- 596
: 596 2 68 But
: 598 2 70  I'm
* 600 1 71  last
: 603 2 68 in'
- 606
: 606 2 63 You
: 608 2 68  thought
: 610 2 68  that
: 612 2 68  I
: 614 2 68  would
: 616 4 67  die
: 620 2 67  with
: 622 4 67 out
: 626 1 67  you
- 628
: 628 2 67 But
: 630 2 68  I'm
: 632 2 70  li
: 634 2 68 ving
- 638
: 640 2 68 Thought
: 642 2 68  that
: 644 2 68  I
: 646 2 68  would
* 648 2 73  fail
: 650 2 71 ~
: 652 2 68 with
: 654 4 68 out
: 658 1 66  you
- 660
: 660 2 68 But
: 662 3 70  I'm
: 665 2 71  on
: 668 3 70  top
- 672
: 672 2 68 Thought
: 674 2 68  it
: 676 2 68  would
: 678 2 68  be
: 680 2 67  o
: 682 2 67 ver
: 684 2 67  by
: 686 4 67  now
- 691
: 692 2 67 But
: 694 2 68  it
: 696 3 70  won't
: 699 2 68  stop
- 702
: 704 2 71 Thought
: 706 2 70  that
: 708 2 68  I
: 710 2 70  would
: 712 3 71  self
: 716 2 68  des
: 718 4 71 truct
- 723
: 724 2 68 But
: 726 2 70  I'm
: 728 2 71  still
: 730 2 68  here
- 734
: 736 2 68 E
: 738 2 68 ven
: 740 2 68  in
: 742 2 68  my
: 744 4 70  years
: 748 2 70  to
: 750 3 70  come
- 754
: 754 2 70 I'm
: 756 2 70  still
: 758 2 71  gon'
* 761 2 73  be
: 763 2 71  here
- 766
: 768 3 68 I'm
: 771 3 68  a
: 774 2 68  sur
: 776 4 71 vi
: 780 2 68 vor
- 783
: 784 3 68 I'm
: 787 3 68  not
: 790 2 68  gon'
: 792 4 71  give
: 796 2 68  up
- 799
: 800 3 68 I'm
: 803 3 68  not
: 806 2 68  gon'
* 809 2 67  stop
- 813
: 816 3 67 I'm
: 819 3 67  gon'
: 822 2 68  work
: 824 4 70  har
: 828 2 68 der
- 831
: 832 3 68 I'm
: 835 3 68  a
: 838 2 68  sur
: 840 4 71 vi
: 844 2 68 vor
- 847
: 848 3 68 I'm
: 851 3 68  gon
: 854 2 68 na
: 856 4 71  make
: 860 2 68  it
- 863
: 864 3 68 I
: 867 3 68  will
: 870 2 68  sur
: 872 3 67 vive
- 877
: 880 3 67 Keep
: 883 3 67  on
: 886 2 68  sur
* 888 4 70 vi
: 892 2 68 ving
- 895
: 896 3 68 I'm
: 899 3 68  a
: 902 2 68  sur
: 904 4 71 vi
: 908 2 68 vor
- 911
: 912 3 68 I'm
: 915 3 68  not
: 918 2 68  gon'
: 920 4 71  give
: 924 2 68  up
- 927
: 928 3 68 I'm
: 931 3 68  not
: 934 2 68  gon'
: 937 2 67  stop
- 941
: 944 3 67 I'm
: 947 3 67  gon'
: 950 2 68  work
: 952 4 70  har
: 956 2 68 der
- 959
: 960 3 68 I'm
: 963 3 68  a
: 966 2 68  sur
: 968 4 71 vi
: 972 2 68 vor
- 975
: 976 3 68 I'm
: 979 3 68  gon
: 982 2 68 na
: 984 4 71  make
: 988 2 68  it
- 991
: 992 3 68 I
: 995 3 68  will
: 998 2 68  sur
: 1000 3 67 vive
- 1005
: 1008 3 67 Keep
: 1011 3 67  on
: 1014 2 68  sur
: 1016 4 70 vi
: 1020 2 68 ving
- 1024
: 1032 4 63 Wish
: 1036 2 63 ing
: 1038 4 63  you
: 1042 3 68  the
* 1045 4 68  best
- 1050
: 1052 2 63 Pray
: 1054 2 63  that
: 1056 3 63  you
: 1059 3 68  are
: 1062 4 68  blessed
- 1067
: 1068 2 63 Much
: 1070 2 63  suc
: 1072 3 63 cess
: 1076 2 63  no
: 1078 3 63  stress
- 1082
: 1082 2 63 And
: 1084 2 63  lots
: 1086 2 64  of
: 1088 2 63  hap
* 1090 2 61 pi
: 1092 1 59 ness
- 1094
: 1094 2 71 I'm
: 1096 2 70  bet
: 1098 2 68 ter
: 1100 2 68  than
: 1102 2 68  that
- 1105
: 1106 2 63 I'm
: 1108 2 63  not
: 1110 1 63  gon
: 1111 1 63 na
: 1112 3 68  blast
: 1115 2 68  you
- 1118
: 1118 1 63 On
: 1119 1 63  the
: 1120 2 64  ra
: 1122 2 64 di
: 1124 1 64 o
- 1126
: 1126 2 71 I'm
: 1128 2 70  bet
: 1130 2 68 ter
: 1132 2 68  than
: 1134 2 68  that
- 1137
: 1138 2 63 I'm
: 1140 2 63  not
: 1142 1 63  gon
: 1143 1 63 na
: 1144 2 68  lie
: 1146 1 68  on
: 1147 2 68  you
- 1150
: 1150 1 63 Or
: 1151 1 63  your
: 1152 2 68  fa
: 1154 2 68 mily
: 1156 1 68  yo
- 1158
: 1158 2 71 I'm
: 1160 2 70  bet
: 1162 2 68 ter
: 1164 2 68  than
: 1166 2 68  that
- 1169
: 1170 2 63 I'm
: 1172 2 63  not
: 1174 1 63  gon
: 1175 1 63 na
: 1176 2 68  hate
: 1178 1 68  on
: 1179 2 68  you
- 1182
: 1182 1 63 In
: 1183 1 63  the
: 1184 2 64  ma
: 1186 2 64 ga
: 1188 1 63 zines
- 1190
: 1190 2 71 I'm
: 1192 2 70  bet
: 1194 2 68 ter
: 1196 2 68  than
: 1198 1 68  that
- 1200
: 1200 2 63 Not
: 1202 1 63  gon
: 1203 1 63 na
: 1204 2 63  com
: 1206 2 63 pro
: 1208 3 68 mise
: 1211 2 68  my
- 1214
: 1214 1 63 Chris
: 1215 1 63 ti
: 1216 2 68 an
: 1218 2 68 i
: 1220 1 68 ty
- 1222
: 1222 2 71 I'm
: 1224 2 70  bet
: 1226 2 68 ter
: 1228 1 68  than
- 1230
* 1230 2 68 You
: 1232 2 71  know
: 1234 2 68  I'm
: 1236 2 71  not
: 1238 2 68  gon'
: 1240 2 71  diss
: 1242 2 68  you
- 1245
: 1246 1 68 On
: 1247 1 68  the
: 1248 1 68  in
: 1249 1 63 ter
: 1250 4 63 net
- 1256
: 1260 2 63 'Cause
: 1262 2 63  my
: 1264 2 63  ma
: 1266 2 63 ma
: 1268 2 63  taught
: 1270 1 70  me
- 1272
* 1272 2 70 Bet
: 1274 2 68 ter
: 1276 2 68  than
: 1278 1 68  that
- 1280
: 1280 3 68 I'm
: 1283 3 68  a
: 1286 2 68  sur
: 1288 4 71 vi
: 1292 2 68 vor
- 1295
: 1296 3 68 I'm
: 1299 3 68  not
: 1302 2 68  gon'
: 1304 4 71  give
: 1308 2 68  up
- 1311
: 1312 3 68 I'm
: 1315 3 68  not
: 1318 2 68  gon'
: 1321 2 67  stop
- 1325
: 1328 3 67 I'm
: 1331 3 67  gon'
: 1334 2 68  work
: 1336 4 70  har
: 1340 2 68 der
- 1343
: 1344 3 68 I'm
: 1347 3 68  a
: 1350 2 68  sur
: 1352 4 71 vi
: 1356 2 68 vor
- 1359
: 1360 3 68 I'm
: 1363 3 68  gon
: 1366 2 68 na
: 1368 4 71  make
: 1372 2 68  it
- 1375
: 1376 3 68 I
: 1379 3 68  will
: 1382 2 68  sur
: 1384 3 67 vive
- 1389
: 1392 3 67 Keep
: 1395 3 67  on
: 1398 2 68  sur
: 1400 4 70 vi
: 1404 2 68 ving
- 1407
: 1408 3 68 I'm
: 1411 3 68  a
: 1414 2 68  sur
: 1416 4 71 vi
: 1420 2 68 vor
- 1423
: 1424 3 68 I'm
: 1427 3 68  not
: 1430 2 68  gon'
: 1432 4 71  give
: 1436 2 68  up
- 1439
: 1440 3 68 I'm
: 1443 3 68  not
: 1446 2 68  gon'
: 1449 2 67  stop
- 1453
: 1456 3 67 I'm
: 1459 3 67  gon'
: 1462 2 68  work
: 1464 4 70  har
: 1468 2 68 der
- 1471
: 1472 3 68 I'm
: 1475 3 68  a
: 1478 2 68  sur
: 1480 4 71 vi
: 1484 2 68 vor
- 1487
: 1488 3 68 I'm
: 1491 3 68  gon
: 1494 2 68 na
: 1496 4 71  make
: 1500 2 68  it
- 1503
: 1504 3 68 I
: 1507 3 68  will
: 1510 2 68  sur
: 1512 3 67 vive
- 1517
: 1520 3 67 Keep
: 1523 3 67  on
: 1526 2 68  sur
: 1528 4 70 vi
: 1532 2 68 ving
- 1536
: 1544 3 63 Oh
: 1547 1 61 ~
: 1548 3 59 ~
- 1552
: 1552 3 63 Oh
: 1555 1 61 ~
: 1556 3 59 ~
- 1560
: 1560 3 64 Oh
: 1563 1 63 ~
: 1564 3 61 ~
- 1568
: 1568 3 64 Oh
: 1571 1 63 ~
: 1572 3 61 ~
- 1576
: 1576 7 67 Oh
- 1584
: 1584 7 67 Oh
- 1592
* 1592 7 70 Oh
- 1600
: 1600 7 70 Oh
- 1608
: 1608 1 71 Oh
: 1609 1 70 ~
: 1610 1 68 ~
: 1612 1 68 woh
: 1613 1 66 ~
: 1614 1 63 ~
- 1616
: 1616 1 71 Oh
: 1617 1 70 ~
: 1618 1 68 ~
: 1620 1 68 woh
: 1621 1 66 ~
: 1622 1 63 ~
- 1624
: 1624 1 71 Oh
: 1625 1 70 ~
: 1626 1 68 ~
: 1628 1 68 woh
: 1629 1 66 ~
: 1630 1 63 ~
- 1632
: 1632 1 71 Oh
: 1633 1 70 ~
: 1634 1 68 ~
: 1636 1 68 woh
: 1637 1 66 ~
: 1638 1 63 ~
- 1640
: 1640 4 63 Oh
: 1644 2 61 ~
: 1646 1 59 ~
- 1648
: 1648 4 63 Oh
: 1652 2 61 ~
: 1654 1 59 ~
- 1656
: 1656 2 68 Oh
: 1658 2 71 ~
: 1660 4 70 ~
: 1664 4 71 ~
: 1668 1 70 ~
: 1669 1 68 ~
: 1670 2 63 ~
- 1674
: 1682 3 68 Af
: 1685 3 68 ter
: 1688 3 71  all
: 1691 3 70  of
: 1694 2 68  the
: 1696 3 71  dark
: 1699 2 70 ness
- 1702
: 1702 2 68 And
: 1704 5 70  sad
* 1709 6 70 ness
- 1716
: 1718 2 68 Soon
: 1720 3 70 ~
: 1723 4 71 comes
: 1727 3 70  hap
: 1730 2 68 pi
: 1732 8 68 ness
- 1742
: 1746 2 68 If
: 1748 2 68  I
: 1750 2 68  sur
: 1752 2 71 round
: 1755 2 68  my
: 1758 2 68 self
: 1760 1 68  with
- 1762
: 1762 3 68 Po
: 1765 1 70 si
: 1766 3 71 tive
: 1769 6 70  things
- 1776
: 1778 2 68 I'll
: 1781 3 68  gain
: 1784 4 71  pros
* 1788 2 73 pe
: 1791 3 71 ri
: 1794 2 68 ty
- 1797
: 1798 2 68 Sur
: 1800 4 71 vi
: 1804 2 68 vor
- 1807
: 1808 3 68 I'm
: 1811 3 68  not
: 1814 2 68  gon'
: 1816 4 71  give
: 1820 2 68  up
- 1823
: 1824 3 68 I'm
: 1827 3 68  not
: 1830 2 68  gon'
: 1833 2 67  stop
- 1837
: 1840 3 67 I'm
: 1843 3 67  gon'
: 1846 2 68  work
: 1848 4 70  har
* 1852 2 68 der
- 1855
: 1856 3 68 I'm
: 1859 3 68  a
: 1862 2 68  sur
: 1864 4 71 vi
: 1868 2 68 vor
- 1871
: 1872 3 68 I'm
: 1875 3 68  gon
: 1878 2 68 na
: 1880 4 71  make
: 1884 2 68  it
- 1887
: 1888 3 68 I
: 1891 3 68  will
: 1894 2 68  sur
: 1896 3 67 vive
- 1901
: 1904 3 67 Keep
: 1907 3 67  on
: 1910 2 68  sur
: 1912 4 70 vi
: 1916 2 68 ving
- 1919
: 1920 3 68 I'm
: 1923 3 68  a
: 1926 2 68  sur
: 1928 4 71 vi
: 1932 2 68 vor
- 1935
: 1936 3 68 I'm
: 1939 3 68  not
: 1942 2 68  gon'
: 1944 4 71  give
: 1948 2 68  up
- 1951
: 1952 3 68 I'm
: 1955 3 68  not
: 1958 2 68  gon'
: 1961 2 67  stop
- 1965
: 1968 3 67 I'm
: 1971 3 67  gon'
: 1974 2 68  work
: 1976 4 70  har
: 1980 2 68 der
- 1983
: 1984 3 68 I'm
: 1987 3 68  a
: 1990 2 68  sur
: 1992 4 71 vi
: 1996 2 68 vor
- 1999
: 2000 3 68 I'm
: 2003 3 68  gon
: 2006 2 68 na
: 2008 4 71  make
: 2012 2 68  it
- 2015
: 2016 3 68 I
: 2019 3 68  will
: 2022 2 68  sur
: 2024 3 67 vive
- 2029
: 2032 3 67 Keep
: 2035 3 67  on
: 2038 2 68  sur
: 2040 4 70 vi
: 2044 2 68 ving
- 2047
: 2048 3 68 I'm
: 2051 3 68  a
: 2054 2 68  sur
: 2056 4 71 vi
: 2060 2 68 vor
- 2063
: 2064 3 68 I'm
: 2067 3 68  not
: 2070 2 68  gon'
: 2072 4 71  give
: 2076 2 68  up
- 2079
: 2080 3 68 I'm
: 2083 3 68  not
: 2086 2 68  gon'
: 2089 2 67  stop
- 2093
: 2096 3 67 I'm
* 2099 3 67  gon'
: 2102 2 68  work
: 2104 4 70  har
: 2108 2 68 der
- 2111
: 2112 3 68 I'm
: 2115 3 68  a
: 2118 2 68  sur
: 2120 4 71 vi
: 2124 2 68 vor
- 2127
: 2128 3 68 I'm
: 2131 3 68  gon
: 2134 2 68 na
: 2136 4 71  make
: 2140 2 68  it
- 2143
: 2144 3 68 I
: 2147 3 68  will
: 2150 2 68  sur
: 2152 3 67 vive
- 2157
: 2160 3 67 Keep
: 2163 3 67  on
: 2166 2 68  sur
: 2168 4 70 vi
: 2172 2 68 ving
- 2175
: 2176 3 68 I'm
: 2179 3 68  a
: 2182 2 68  sur
: 2184 4 71 vi
: 2188 2 68 vor
- 2191
: 2192 3 68 I'm
: 2195 3 68  not
: 2198 2 68  gon'
: 2200 4 71  give
: 2204 2 68  up
- 2207
: 2208 3 68 I'm
: 2211 3 68  not
: 2214 2 68  gon'
: 2217 2 67  stop
- 2221
: 2224 3 67 I'm
: 2227 3 67  gon'
: 2230 2 68  work
: 2232 4 70  har
: 2236 2 68 der
- 2239
: 2240 3 68 I'm
: 2243 3 68  a
: 2246 2 68  sur
: 2248 4 71 vi
: 2252 2 68 vor
- 2255
: 2256 3 68 I'm
: 2259 3 68  gon
: 2262 2 68 na
: 2264 4 71  make
: 2268 2 68  it
- 2271
: 2272 3 68 I
: 2275 3 68  will
: 2278 2 68  sur
: 2280 3 67 vive
- 2285
: 2288 3 67 Keep
: 2291 3 67  on
: 2294 2 68  sur
: 2296 4 70 vi
: 2300 2 68 ving
E
