#TITLE:DJ
#ARTIST:Diam's
#MP3:Diam's - DJ.mp3
#VIDEO:Diam's - DJ [VD#0].avi
#COVER:Diam's - DJ.jpg
#BACKGROUND:Diam's - DJ.jpg
#BPM:246,1
#GAP:15359,61
#VIDEOGAP:0
#ENCODING:UTF8
#GENRE:Rap
#EDITION:SingStar Pop Hits
#YEAR:2003
: 0 2 64 Lais
: 4 2 64 se-
: 8 1 64 moi
: 10 1 64  kif
: 12 1 64 fer
: 14 1 64  la
: 16 3 64  vibe
- 19
: 20 1 64 A
: 22 1 64 vec
: 24 1 64  mon
: 28 2 64  mec
- 30
: 32 1 64 J'ai
: 40 1 64  pas
: 42 1 64  de
: 44 1 64  temps
: 46 1 64  ŕ
: 48 3 64  perdre
- 51
: 53 1 64 Dans
: 55 1 64  des
: 57 1 64  prises
: 61 1 64  de
: 65 2 64  tęte
- 68
: 70 1 64 Pour
: 72 1 64 quoi
: 74 1 64  tu
: 76 1 64  m'ob
: 80 4 64 serves
- 84
: 86 1 64 Pour
: 88 1 64 quoi
: 90 1 64  tu
: 92 1 64  me
: 94 1 64  re
: 96 4 64 gardes?
- 100
: 102 1 64 Tu
: 104 1 64  veux
: 106 1 64  mon
: 108 1 64  mec
: 112 1 64  ou
: 114 2 64  quoi?
- 116
: 118 1 64 J'te
: 120 1 64  mets
: 122 1 64  en
: 124 3 64  garde
- 127
: 128 1 66 On
: 132 2 66  touche
: 136 1 66  pas
: 138 1 66  ŕ
: 140 1 66  ça
- 142
: 144 1 66 On
: 148 2 66  baisse
: 152 1 66  les
: 156 3 66  yeux
- 159
: 160 2 66 T'as
: 164 1 66  cru
: 166 1 66  t'a
: 168 1 66 vais
: 170 1 66  du
: 172 2 66  style
- 174
: 176 1 66 Dans
: 178 1 66  ton
: 180 1 66  peau
: 182 1 66  de
: 184 2 66  pęche
: 188 3 66  bleu
- 191
: 192 2 66 Mais
: 196 2 66  meuf
: 200 2 66  j'ai
: 204 2 66  l'męme
- 210
: 212 1 66 On
: 214 1 66  a
: 216 2 66  toutes
: 220 2 66  le
: 224 4 66  męme
- 228
: 230 1 66 Car
: 232 1 66  on
: 234 1 66  va
: 236 1 66  toutes
- 238
: 240 1 66 Se
: 242 1 66  rui
: 244 1 66 ner
: 246 1 66  chez
: 248 3 66  H
: 252 2 66  et
: 256 2 66  M
- 265
: 268 1 67 J'sais
: 269 1 67  que
: 270 1 67  je
: 271 1 67  suis
: 272 1 67  pas
: 274 1 67  une
: 276 1 67  bombe
: 280 2 67  la
: 284 4 67 tine
- 294
: 296 2 67 Ni
: 299 1 67  que
: 300 1 67  je
: 302 1 67  suis
: 304 1 67  pas
: 306 1 67  une
: 308 1 67  blonde
: 312 1 67  pla
: 316 2 67 tine
- 318
: 320 1 67 J'sais
: 322 1 67  que
: 324 1 67  tu
: 326 1 67  veux
- 327
: 328 1 67 Pas
: 330 1 67  que
: 332 1 67  j't'é
: 336 2 67 gra
: 340 3 67 tigne
- 343
: 344 1 67 Tu
: 346 1 67  ga
: 348 1 67 lčres?
- 350
: 352 2 67 Bein
: 356 2 67  viens
: 360 1 67  j'te
: 362 1 67  pré
: 364 1 67 sente
: 366 1 67  le
: 368 2 67  D
: 372 1 67 J
- 373
: 375 1 67 Der
: 376 1 67 ri
: 377 1 67 čre
: 378 1 67  les
: 380 1 67  pla
: 384 1 67 tines
- 393
: 396 1 68 J'sais
: 398 1 68  que
: 399 1 68  j'suis
: 400 1 68  pas
: 402 1 68  une
: 404 1 67  bombe
: 408 1 67  la
: 412 5 68 tine
- 422
: 424 1 69 Ni
: 426 1 64  une
: 428 2 68  blonde
: 432 2 69  pla
: 436 6 67 tine,
* 444 2 69  D
: 448 2 68 J!
- 457
: 460 1 68 J'sais
: 462 1 68  que
: 463 1 68  j'suis
: 464 1 68  pas
: 466 1 68  une
: 468 1 67  bombe
: 472 1 67  la
: 476 5 68 tine
- 486
: 488 1 69 Ni
: 490 1 64  une
: 492 2 68  blonde
: 496 2 69  pla
: 500 6 67 tine,
: 508 2 69  D
: 512 2 68 J!
- 518
: 520 2 64 Laisse-
: 524 2 64 moi
: 528 2 64  kif
: 532 2 64 fer
: 536 2 64  la
: 540 2 64  vibes
- 542
: 544 2 64 A
: 548 5 65 vec
: 556 3 64  mon
: 560 9 62  mec
- 574
: 576 2 62 J'suis
: 580 4 65  pas
: 586 4 64  d'hu
: 592 4 62 meur
- 598
: 600 3 64 Ŕ
: 604 3 64  c'qu'on
: 608 2 62 ~
: 612 4 64 m'prenne
: 618 3 62  la
* 624 9 60  tęte
- 644
: 648 2 60 J'ai
: 652 2 60  mes
: 656 2 60  sou
: 660 2 60 cis
- 662
: 664 2 60 Donc
: 668 2 60  s'il-
: 672 3 60 te-
: 676 4 62 plaît
: 682 3 60  ar
: 688 9 59 ręte
- 702
: 704 2 59 Laisse-
: 708 4 62 moi
: 714 3 60  kif
: 720 4 59 fer
- 726
: 728 2 62 La
: 732 3 60  vibes
: 736 2 59  a
: 740 3 60 vec
: 746 3 59  ceux
: 752 9 57  qu'j'aime
- 772
: 776 2 64 Laisse-
: 780 2 64 moi
: 784 2 64  kif
: 788 2 64 fer
: 792 2 64  la
: 796 2 64  vibes
- 798
: 800 2 64 A
* 804 5 65 vec
: 812 3 64  mon
: 816 9 62  mec
- 830
: 832 2 62 J'suis
: 836 4 65  pas
: 842 4 64  d'hu
: 848 4 62 meur
- 854
: 856 3 64 Ŕ
: 860 3 64  c'qu'on-
: 864 2 62 ~
: 868 4 64  m'prenne
: 874 3 62  la
: 880 9 60  tęte
- 900
: 904 2 60 J'ai
: 908 2 60  mes
: 912 2 60  sou
: 916 2 60 cis
- 918
: 920 2 60 Donc
: 924 2 60  s'il-
: 928 3 60 te-
: 932 4 62 plaît
: 938 3 60  ar
: 944 9 59 ręte
- 958
: 960 2 59 Laisse-
: 964 4 62 moi
: 970 3 60  kif
: 976 4 59 fer
- 982
: 984 2 62 La
: 988 3 60  vibes
: 992 2 59  a
: 996 3 60 vec
: 1002 3 59  ceux
: 1008 7 57  qu'j'aime
- 1031
: 1056 2 64 J'suis,
: 1060 2 64  j'suis
: 1064 1 64  pas
: 1066 1 64  d'hu
: 1068 1 64 meur
- 1069
: 1070 1 64 Ŕ
: 1071 1 64  ce
: 1072 1 64  qu'on
: 1074 1 64  me
: 1076 5 64  saoűle,
: 1084 2 64  D
: 1088 2 64 J
- 1094
: 1096 1 64 Y
: 1097 1 64  a
: 1098 1 64  de
: 1099 1 64  la
: 1100 2 64  foule
- 1102
: 1104 1 64 Donc
: 1106 1 64  mets-
: 1108 1 64 nous
: 1110 1 64  un
: 1112 2 64  son
: 1116 3 64  d'fou
- 1124
: 1126 1 64 Pour
: 1128 1 64 quoi
: 1130 1 64  tu
: 1132 1 64  fais
: 1136 2 64  genre
- 1140
: 1142 1 64 J'te
: 1144 2 64  vois
: 1147 1 64  ve
: 1148 4 64 nir
- 1152
: 1154 1 64 A
: 1156 1 64 vec
: 1158 1 64  tes
: 1160 2 64  belles
: 1164 2 64  jambes
- 1166
: 1168 1 64 Tu
: 1170 1 64  t'crois
: 1172 2 64  tout
: 1176 2 64  per
: 1180 3 64 mis
- 1183
: 1184 2 66 Mais
: 1188 2 66  baisse
: 1192 2 66  les
: 1196 4 66  yeux
- 1206
: 1208 2 66 Trouve-
: 1212 1 66 toi
: 1214 1 66  un
: 1216 1 66  autre
: 1220 2 66  mec
: 1224 1 66  c'est
: 1228 3 66  mieux
- 1231
: 1232 1 66 Laisse
: 1234 1 66  tom
: 1236 1 66 ber
: 1238 1 66  le
: 1240 3 66  mien
: 1244 1 66  sé
: 1246 1 66 ri
: 1248 1 66 eux
- 1250
: 1252 2 66 Rien
: 1256 2 66  qu'tu
: 1260 4 66  ris
- 1266
: 1268 2 66 Rien
: 1272 2 66  qu'tu
: 1276 4 66  tises
- 1282
: 1284 2 66 Rien
: 1288 1 66  qu'tu
: 1290 1 66  te
: 1292 2 66  prends
- 1294
: 1296 1 66 Pour
: 1298 1 66  A
: 1300 1 66 li
: 1304 1 66 cia
: 1308 4 66  Keys
- 1319
: 1322 1 67 Y-a
: 1324 1 67  trop
: 1326 1 67  de
: 1328 2 67  co
: 1332 2 67 quines
- 1334
: 1336 1 67 Trop
: 1338 1 67  de
: 1340 2 67  pâles
: 1344 1 67  co
: 1346 2 67 pies
- 1348
: 1350 1 67 De
: 1352 2 67  stars
: 1356 1 67  qui
: 1358 1 67  se
: 1360 2 67  la
- 1362
: 1364 2 67 Pę
: 1366 1 67 tent
: 1368 1 67  ent
: 1370 1 67 re
: 1372 2 67  co
: 1376 2 67 pines
- 1382
: 1384 1 68 Trop
: 1386 1 68  de
: 1388 1 68  mi
: 1390 2 68 nettes
- 1392
: 1394 1 68 Qui
: 1396 1 68  veu
: 1397 1 68 lent
: 1398 1 68  se
: 1400 1 68  faire
: 1402 1 68  re
: 1404 1 68 mar
: 1408 1 68 quer
- 1410
: 1412 1 68 Trop
: 1414 1 68  de
: 1416 1 68  fil
: 1418 1 68 lettes
- 1420
: 1422 1 68 Qui
: 1424 1 68  font
: 1426 1 68  les
: 1428 1 68  belles
- 1429
: 1430 1 68 Ŕ
: 1432 1 68  peine
: 1434 1 68  dé
: 1436 1 68 bar
: 1440 2 68 quées
- 1442
: 1444 3 69 Moi
- 1450
: 1452 1 68 J'sais
: 1454 1 68  que
: 1455 1 68  j'suis
: 1456 1 68  pas
: 1458 1 68  une
: 1460 1 67  bombe
: 1464 1 67  la
: 1468 5 68 tine
- 1478
: 1480 1 69 Ni
: 1482 1 64  une
: 1484 2 68  blonde
: 1488 2 69  pla
: 1492 6 67 tine,
: 1500 2 69  D
: 1504 2 68 J!
- 1513
: 1516 1 68 J'sais
: 1518 1 68  que
: 1519 1 68  j'suis
: 1520 1 68  pas
: 1522 1 68  une
: 1524 1 67  bombe
: 1528 1 67  la
: 1532 5 68 tine
- 1542
: 1544 1 69 Ni
: 1546 1 64  une
: 1548 2 68  blonde
: 1552 2 69  pla
: 1556 6 67 tine,
: 1564 2 69  D
: 1568 2 68 J!
- 1574
: 1576 2 64 Laisse-
: 1580 2 64 moi
: 1584 2 64  kif
: 1588 2 64 fer
: 1592 2 64  la
: 1596 2 64  vibes
- 1598
: 1600 2 64 A
: 1604 5 65 vec
: 1612 3 64  mon
: 1616 9 62  mec
- 1630
: 1632 2 62 J'suis
: 1636 4 65  pas
: 1642 4 64  d'hu
: 1648 4 62 meur
- 1654
: 1656 3 64 Ŕ
: 1660 3 64  c'qu'on
: 1664 2 62 ~
: 1668 4 64 m'prenne
: 1674 3 62  la
: 1680 9 60  tęte
- 1700
: 1704 2 60 J'ai
: 1708 2 60  mes
: 1712 2 60  sou
: 1716 2 60 cis
- 1718
: 1720 2 60 Donc
: 1724 2 60  s'il-
: 1728 3 60 te-
: 1732 4 62 plaît
: 1738 3 60  ar
: 1744 9 59 ręte
- 1758
: 1760 2 59 Laisse-
: 1764 4 62 moi
: 1770 3 60  kif
: 1776 4 59 fer
- 1782
: 1784 2 62 La
: 1788 3 60  vibes
: 1792 2 59  a
: 1796 3 60 vec
: 1802 3 59  ceux
: 1808 9 57  qu'j'aime
- 1828
: 1832 2 64 Laisse-
: 1836 2 64 moi
: 1840 2 64  kif
: 1844 2 64 fer
: 1848 2 64  la
: 1852 2 64  vibes
- 1854
: 1856 2 64 A
: 1860 5 65 vec
: 1868 3 64  mon
: 1872 9 62  mec
- 1886
: 1888 2 62 J'suis
: 1892 4 65  pas
: 1898 4 64  d'hu
: 1904 4 62 meur
- 1910
: 1912 3 64 Ŕ
: 1916 3 64  c'qu'on
: 1920 2 62 ~
: 1924 4 64 m'prenne
: 1930 3 62  la
: 1936 9 60  tęte
- 1956
: 1960 2 60 J'ai
: 1964 2 60  mes
: 1968 2 60  sou
: 1972 2 60 cis
- 1974
: 1976 2 60 Donc
: 1980 2 60  s'il-
: 1984 3 60 te-
* 1988 4 62 plaît
: 1994 3 60  ar
: 2000 9 59 ręte
- 2014
: 2016 2 59 Laisse-
: 2020 4 62 moi
: 2026 3 60  kif
: 2032 4 59 fer
- 2038
: 2040 2 62 La
: 2044 3 60  vibes
: 2048 2 59  a
: 2052 3 60 vec
: 2058 3 59  ceux
: 2064 9 57  qu'j'aime
- 2089
: 2112 1 64 J'suis,
: 2116 2 64  j'suis
: 2120 1 64  pas
: 2122 1 64  d'hu
: 2124 1 64 meur
- 2125
: 2126 1 64 Ŕ
: 2128 3 64  c'qu'on
: 2132 3 64  m'prenne
: 2136 2 64  la
: 2140 2 64  tęte
: 2144 1 64  non
- 2150
: 2152 1 64 Ni
: 2154 1 64  d'hu
: 2156 1 64 meur
: 2158 1 64  ŕ
: 2160 3 64  c'qu'on
: 2164 2 64  drague
: 2168 2 64  mon
: 2172 2 64  mec
- 2174
: 2176 2 65 Tu
: 2180 1 65  con
: 2182 1 65 nais
: 2184 1 65  ni
: 2186 1 65  mon
: 2188 1 65  his
: 2192 2 65 toire
- 2194
: 2196 1 65 Ni
: 2198 1 65  mes
: 2200 2 65  prob
: 2204 3 65 lčmes
- 2207
: 2208 2 65 Cherche-
: 2212 1 65 toi
: 2214 1 65  un
: 2216 1 65  mo
: 2220 2 65 tard
- 2222
: 2224 1 65 Ou
: 2226 1 65  un
: 2228 1 65  mec
: 2232 2 65  o
: 2236 2 65 pen
- 2244
: 2246 1 66 Fais
: 2248 1 66  pas
: 2250 1 66  le
: 2252 3 66  manne
: 2256 1 66 quin
- 2262
: 2264 1 66 J'i
: 2266 1 66 ma
: 2268 2 66 gine
: 2272 1 66  dé
: 2274 2 66 jŕ
: 2278 1 66  la
: 2280 2 66  tęte
- 2282
: 2284 1 66 Que
: 2286 1 66  tu
: 2288 1 66  dois
: 2290 1 66  a
: 2292 1 66 voir
: 2294 1 66  le
: 2296 3 66  ma
: 2300 2 66 tin
- 2302
: 2304 2 66 Donc
: 2308 2 66  res
: 2312 1 66 te
: 2314 3 66  sage
- 2318
: 2320 1 66 Ne
: 2322 1 66  me
: 2324 2 66  tes
: 2328 1 66 te
: 2330 2 66  pas
- 2332
: 2334 1 67 Laisse-
: 2336 2 67 moi
: 2340 2 67  kif
: 2344 1 67 fer
: 2346 1 67  la
: 2348 2 67  vibe
- 2350
: 2352 1 67 Ne
: 2354 1 67  me
: 2356 4 67  stresse
: 2362 2 67  pas
- 2364
: 2366 1 68 Tu
: 2368 1 68  fais
: 2370 1 68  la
: 2372 3 68  meuf
: 2378 4 68  ''in''
- 2384
: 2386 1 68 Mais
: 2388 1 68  nous
: 2390 1 68  on
: 2392 1 68  le
: 2394 1 68  sait
: 2398 1 68  que
: 2400 1 68  t'as
- 2402
: 2404 2 68 Pom
: 2408 1 68 pé
: 2410 1 68  ton
: 2412 1 68  style
: 2416 1 68  sur
: 2420 2 68  Be
: 2422 1 68 yon
: 2426 2 68 cé
- 2444
: 2466 1 69 J'suis
: 2468 1 69  pas
: 2470 1 69  une
: 2472 2 69  bombe
: 2476 1 69  la
: 2478 2 69 tine
- 2480
: 2482 1 69 Mais
: 2484 1 69  moi
: 2486 1 69  le
: 2488 1 69  D
: 2492 2 69 J
- 2494
: 2496 2 69 Passe
: 2500 1 69  mon
: 2502 1 69  vin
: 2506 2 69 yl
: 2510 1 69  sur
: 2514 1 69  ses
: 2516 1 69  pla
: 2520 3 69 tines
- 2532
: 2536 1 68 J'sais
: 2538 1 68  que
: 2539 1 68  j'suis
: 2540 1 68  pas
: 2542 1 68  une
: 2544 1 67  bombe
: 2548 1 67  la
* 2552 5 68 tine
- 2562
: 2564 1 69 Ni
: 2566 1 64  une
: 2568 2 68  blonde
: 2572 2 69  pla
: 2576 6 67 tine,
: 2584 2 69  D
: 2588 2 68 J!
- 2597
: 2600 1 68 J'sais
: 2602 1 68  que
: 2603 1 68  j'suis
: 2604 1 68  pas
: 2606 1 68  une
: 2608 1 67  bombe
: 2612 1 67  la
: 2616 5 68 tine
- 2626
: 2628 1 69 Ni
: 2630 1 64  une
: 2632 2 68  blonde
: 2636 2 69  pla
: 2640 6 67 tine,
: 2648 2 69  D
: 2652 2 68 J!
- 2658
: 2660 2 64 Laisse-
: 2664 2 64 moi
: 2668 2 64  kif
: 2672 2 64 fer
: 2676 2 64  la
: 2680 2 64  vibes
- 2682
: 2684 2 64 A
: 2688 5 65 vec
: 2696 3 64  mon
: 2700 9 62  mec
- 2714
: 2716 2 62 J'suis
: 2720 4 65  pas
: 2726 4 64  d'hu
: 2732 4 62 meur
- 2738
: 2740 3 64 Ŕ
: 2744 3 64  c'qu'on
: 2748 2 62 ~
: 2752 4 64 m'prenne
: 2758 3 62  la
: 2764 9 60  tęte
- 2784
: 2788 2 60 J'ai
: 2792 2 60  mes
: 2796 2 60  sou
: 2800 2 60 cis
- 2802
: 2804 2 60 Donc
: 2808 2 60  s'il-
: 2812 3 60 te-
: 2816 4 62 plaît
: 2822 3 60  ar
* 2828 9 59 ręte
- 2842
: 2844 2 59 Laisse-
: 2848 4 62 moi
: 2854 3 60  kif
: 2860 4 59 fer
- 2866
: 2868 2 62 La
: 2872 3 60  vibes
: 2876 2 59  a
: 2880 3 60 vec
: 2886 3 59  ceux
: 2892 9 57  qu'j'aime
- 2912
: 2916 2 64 Laisse-
: 2920 2 64 moi
: 2924 2 64  kif
: 2928 2 64 fer
: 2932 2 64  la
: 2936 2 64  vibes
- 2938
: 2940 2 64 A
: 2944 5 65 vec
: 2952 3 64  mon
: 2956 9 62  mec
- 2970
: 2972 2 62 J'suis
: 2976 4 65  pas
: 2982 4 64  d'hu
: 2988 4 62 meur
- 2994
: 2996 3 64 Ŕ
: 3000 3 64  c'qu'on
: 3004 2 62 ~
: 3008 4 64 m'prenne
: 3014 3 62  la
: 3020 9 60  tęte
- 3040
: 3044 2 60 J'ai
: 3048 2 60  mes
: 3052 2 60  sou
: 3056 2 60 cis
- 3058
: 3060 2 60 Donc
: 3064 2 60  s'il-
: 3068 3 60 te-
: 3072 4 62 plaît
: 3078 3 60  ar
: 3084 9 59 rete
- 3098
: 3100 2 59 Laisse-
: 3104 4 62 moi
: 3110 3 60  kif
: 3116 4 59 fer
- 3122
: 3124 2 62 La
: 3128 3 60  vibes
: 3132 2 59  a
: 3136 3 60 vec
: 3142 3 59  ceux
: 3148 5 57  qu'j'aime
E