#TITLE:Don't Leave Home
#ARTIST:Dido
#MP3:Dido - Don't Leave Home.mp3
#VIDEO:Dido - Don't Leave Home.mp4
#COVER:Dido - Don't Leave Home.jpg
#BPM:344.80
#GAP:14573
#ENCODING:UTF8
#LANGUAGE:English
#GENRE:Pop
#YEAR:2004
#CREATOR:mustangfred and PatTwo
: 0 5 -1 Like
: 8 1 3  a
* 12 4 1  ghost
: 24 5 1  don't
: 32 6 1  need
: 41 1 1  a
: 46 5 -4  key
- 61
: 95 6 -2 Your
: 104 6 1  best
: 120 6 -1  friend
- 136
: 151 4 -4 I've
: 160 4 -4  come
: 167 2 -6  to
: 173 6 -6  be
- 201
: 256 4 6 Please
* 264 5 6  don't
: 272 4 6  think
: 280 1 5  of
: 285 7 5  get
: 293 5 3 ting
: 300 3 1  up
: 308 2 1  for
: 312 3 -2 ~
: 317 3 1  me
- 330
: 352 4 -2 You
: 357 6 1  don't
: 365 4 1  e
: 370 2 -1 ~
: 374 4 -1 ven
- 388
: 416 4 -6 Need
: 424 1 -6  to
: 431 6 -6  speak
- 459
: 509 1 -6 When
: 511 3 -1  I've
: 517 9 3  been
: 528 6 1  here
: 538 1 -2  for
: 542 3 1  just
: 549 4 1  one
: 554 2 3 ~
* 563 4 -2  day
* 569 3 1 ~
- 582
: 604 2 1 You'll
: 607 7 1  al
: 615 2 1 read
: 618 2 1 y
: 623 1 1  miss
: 632 2 -1  me
- 644
: 665 2 -4 If
: 669 2 -6  I
: 672 6 -4  go
: 680 1 -6  a
: 682 6 -2 way
- 710
: 765 1 6 So
: 768 5 6  close
: 777 1 6  the
: 781 4 6  blinds
: 786 4 5 ~
: 795 4 3  and
: 802 3 1  shut
: 809 1 3  the
: 814 4 -4  door
: 819 1 -2 ~
- 830
: 861 2 1 You
: 865 5 1  won't
: 873 5 1  need
: 880 4 1  oth
: 885 2 -2 er
: 894 4 -1  friends
- 908
: 931 1 -4 An
: 933 2 -6 y
: 939 5 -6 more
- 966
: 1010 28 -1 Oh
: 1039 1 1 ~
: 1057 4 1  don't
: 1062 2 -1 ~
: 1066 5 -2  leave
* 1075 3 -2  home
* 1079 1 1 ~
- 1102
: 1138 27 -1 Oh
: 1166 1 1 ~
: 1186 4 1  don't
: 1192 6 -2  leave
: 1203 9 3  home
- 1222
: 1250 2 1 If
: 1254 8 3  you're
* 1267 37 6  cold
: 1306 3 8  I'll
: 1310 1 6 ~
: 1315 3 5  keep
: 1322 7 6  you
: 1331 7 6  warm
: 1339 4 5 ~
: 1344 2 3 ~
- 1356
: 1377 2 1 If
: 1382 9 3  you're
: 1395 28 6  low
: 1424 2 8 ~
: 1443 4 8  just
: 1451 3 8  hold
: 1456 2 6 ~
* 1460 7 6  on
* 1469 35 8 ~
- 1512
: 1515 4 1 Cause
: 1523 7 8  I
: 1531 14 10 ~
* 1547 6 10  will
: 1556 21 8  be
: 1579 8 8  your
: 1588 1 11 ~
: 1595 10 6  safe
: 1606 2 8 ~
: 1618 10 6 ty
- 1638
: 1651 6 -2 Oh
: 1659 9 1  oh
: 1670 4 6  oh
- 1684
: 1699 4 -2 Don't
: 1706 6 -2  leave
: 1713 6 -4 ~
: 1723 9 -4  home
- 1754
: 1795 1 -6 And
: 1797 3 -1  I
: 1802 4 3  ar
: 1808 6 1 rived
: 1820 5 1  when
: 1827 6 1  you
: 1835 2 3  were
: 1841 4 -2  weak
- 1855
: 1887 3 1 I'll
: 1892 3 1  make
: 1899 4 1  you
: 1905 2 1  weak
: 1912 3 -1 er
- 1925
: 1955 2 -4 Like
: 1958 3 -6 ~
: 1964 1 -6  a
: 1969 9 -6  child
- 2000
: 2044 6 6 Now
: 2052 6 6  all
: 2060 4 6  your
: 2068 3 6  love
: 2072 3 5 ~
: 2077 3 5  you
: 2084 2 3  give
: 2087 1 1 ~
: 2093 2 1  to
: 2097 7 1  me
- 2114
: 2149 5 -2 When
: 2156 10 1  your
: 2173 6 -1  heart
- 2189
: 2204 1 -4 Is
: 2208 5 -4  all
: 2214 4 -6 ~
: 2220 5 -6  I
: 2228 7 -6  need
- 2257
: 2293 27 -1 Oh
: 2321 1 1 ~
: 2340 4 1  don't
: 2345 2 -1 ~
: 2349 5 -1  leave
: 2358 3 -2  home
: 2362 2 1 ~
- 2386
: 2421 27 -1 Oh
: 2449 1 1 ~
: 2469 3 1  don't
: 2475 5 -2  leave
: 2486 6 3  home
- 2502
: 2533 1 1 If
: 2537 8 3  you're
: 2550 38 6  cold
: 2590 2 8  I'll
: 2593 2 6 ~
: 2598 3 5  keep
: 2605 7 6  you
* 2614 7 6  warm
* 2623 2 5 ~
* 2627 1 3 ~
- 2638
: 2660 2 1 If
: 2665 9 3  you're
: 2678 28 6  low
: 2707 2 8 ~
: 2726 4 8  just
* 2734 4 8  hold
* 2739 2 6 ~
: 2743 6 6  on
: 2751 35 8 ~
- 2795
: 2799 3 1 Cause
: 2806 8 8  I
: 2815 13 10 ~
: 2830 6 10  will
: 2838 22 8  be
: 2862 9 8  your
: 2872 1 11 ~
: 2878 11 6  safe
: 2890 1 8 ~
: 2901 10 6 ty
- 2921
: 2934 6 -2 Oh
: 2942 9 1  oh
: 2953 4 6  oh
- 2967
: 2982 5 -2 Don't
: 2989 7 -2  leave
: 2997 5 -4 ~
: 3007 6 -4  home
- 3035
: 3078 3 -2 Oh
: 3083 3 3  how
: 3090 5 3  quiet
- 3106
: 3110 6 5 Quiet
: 3119 3 6  the
: 3124 4 5  world
: 3132 4 3  can
: 3140 6 -2  be
- 3168
: 3206 4 5 When
: 3211 2 3  it's
: 3219 5 5  just
- 3234
: 3238 3 6 You
: 3243 5 6  and
: 3250 3 5  lit
: 3254 4 3 tle
: 3260 6 6  me
- 3288
: 3327 2 5 Eve
: 3331 2 3 ry
: 3336 2 5 thing
: 3340 2 3  is
: 3348 6 5  clear
- 3361
: 3364 2 -4 And
: 3367 4 6  eve
: 3373 2 6 ry
: 3380 3 5 thing
: 3384 3 3  is
: 3392 5 -2  new
- 3419
: 3446 4 -6 So
: 3452 5 -4  you
: 3459 6 -2  won't
: 3471 5 3  be
* 3479 3 1  leav
* 3483 2 -6 ~
* 3487 2 -6 ing
- 3499
: 3503 3 -6 Will
: 3508 2 -4 ~
: 3512 6 -4  you?
- 3528
: 3560 1 1 If
: 3564 7 3  you're
: 3577 37 6  cold
: 3616 2 8  I'll
: 3619 1 6 ~
* 3624 3 5  keep
: 3632 6 6  you
: 3640 7 6  warm
: 3649 2 5 ~
: 3653 2 3 ~
- 3665
: 3686 2 1 If
: 3691 9 3  you're
: 3704 29 6  low
: 3734 1 8 ~
: 3752 4 8  just
: 3761 5 8  hold
: 3769 7 6  on
: 3778 34 8 ~
- 3821
: 3825 3 1 Cause
: 3832 10 8  I
: 3843 11 10 ~
: 3856 6 10  will
: 3864 22 8  be
: 3888 8 8  your
: 3898 1 11 ~
: 3905 11 6  safe
: 3917 1 8 ~
: 3928 10 6 ty
- 3948
: 3960 6 -2 Oh
: 3968 9 1  oh
: 3979 4 6  oh
- 3993
: 4008 5 -2 Don't
: 4016 6 -2  leave
: 4023 5 -4 ~
: 4033 6 -4  home
- 4049
: 4081 4 1 Cause
: 4088 10 8  I
: 4099 12 10 ~
: 4113 6 10  will
: 4122 21 8  be
: 4145 8 8  your
: 4154 1 11 ~
: 4161 10 6  safe
: 4172 1 8 ~
: 4186 9 6 ty
- 4205
: 4213 3 1 And
: 4218 18 10  I
: 4238 3 10  will
: 4242 2 13 ~
: 4250 20 8  be
: 4272 9 8  your
: 4283 1 11 ~
: 4289 12 6  safe
: 4302 1 8 ~
: 4313 15 8 ty
- 4338
: 4345 1 1 And
: 4348 16 10  I
: 4366 4 10  will
: 4371 3 8 ~
: 4378 21 8  be
: 4401 9 8  your
: 4411 1 11 ~
: 4417 12 6  safe
: 4430 1 8 ~
: 4442 10 6 ty
- 4462
: 4474 6 -2 Oh
: 4482 9 1  oh
: 4493 3 6  oh
- 4506
: 4522 5 -2 Don't
: 4529 6 -2  leave
: 4536 5 -4 ~
: 4547 5 -4  home
E