#TITLE:Manchmal haben Frauen
#ARTIST:Die Ärzte
#EDITION:Die Ärzte
#MP3:Die Ärzte - Manchmal haben Frauen.mp3
#COVER:Die Ärzte - Manchmal haben Frauen [CO].jpg
#BACKGROUND:Die Ärzte - Manchmal haben Frauen [BG].jpg
#VIDEO:Die Ärzte - Manchmal haben Frauen [VD#16].mpg
#VIDEOGAP:16
#BPM:117
#GAP:17150
: 0 2 54 In 
: 2 2 61 ein
: 4 2 61 er 
: 6 2 61 Bar 
: 12 2 57 sprach 
: 14 2 59 er 
: 16 2 59 mich 
: 18 4 59 an,
- 26
: 32 2 57 er 
: 34 2 57 war 
: 36 2 57 be
: 38 2 57 trun
: 40 2 57 ken 
: 42 2 57 und 
: 44 2 57 er 
: 46 2 59 roch 
: 48 2 61 nach 
: 50 2 57 Schweiß
- 53
: 56 2 57 Er 
: 58 2 57 sag
: 60 2 49 te: 
: 64 2 66 "Jun
: 66 2 66 ge, 
: 76 2 64 hör 
: 78 2 64 mir 
: 80 4 66 zu,
- 90
: 96 2 57 da 
: 98 2 57 gibt 
: 100 2 57 es 
: 102 2 57 et
: 104 2 57 was 
: 106 2 57 das 
: 108 2 57 ich 
: 110 2 59 bes
: 112 2 61 ser 
: 114 2 57 weiß
- 117
: 120 2 66 Die 
: 122 2 66 E
: 124 2 66 man
: 126 2 66 zi
: 128 4 61 pa
: 132 4 61 tion 
: 136 2 61 ist 
: 138 2 61 der 
: 140 2 61 ge
: 142 4 59 rech
: 146 2 57 te 
: 148 4 59 Lohn,
- 154
: 160 2 54 für 
: 162 2 57 die 
: 164 2 57 ver
: 166 4 57 weich
: 170 2 57 lich
: 172 2 57 te 
: 174 2 59 Män
: 176 2 61 ner
: 178 2 57 schaft
- 181
: 184 2 61 Doch 
: 186 2 64 du 
: 188 4 64 kannst 
: 192 2 61 mir 
: 194 2 61 ver
: 196 4 61 traun,
- 199
: 202 2 59 zwisch
: 204 2 57 en 
: 206 2 59 Män
: 208 2 59 nern 
: 210 2 57 und 
: 212 4 61 Fraun
- 215
: 218 2 59 gibt 
: 220 2 61 es 
: 222 2 57 ein
: 224 2 57 en 
: 226 2 57 Un
: 228 2 57 ter
: 230 2 57 schied
- 231
: 232 2 57 der 
: 234 2 57 ganz 
: 236 2 57 ge
: 238 2 59 wal
: 240 2 61 tig 
: 242 2 57 klaft"
- 246
: 252 2 57 Und 
: 254 2 59 was 
: 256 2 59 ich 
: 258 2 57 dann 
: 260 2 59 hör
: 262 2 59 te
- 264
: 266 2 59 was 
: 268 2 57 mich 
: 270 2 59 to
: 272 2 59 tal 
: 274 2 57 em
: 276 2 61 pör
: 278 2 52 te
- 281
: 284 2 52 es 
: 286 2 59 wie
: 288 2 59 der
: 290 2 57 zu
: 292 2 59 ge
: 294 2 59 ben 
: 296 2 59 fehlt 
: 298 2 57 mir 
: 300 2 59 fast 
: 304 2 61 die 
: 308 2 62 Kraft
- 310
: 312 2 52 Er 
: 314 2 52 sag
: 316 2 52 te: 
: 318 4 61 "Manch
: 322 4 64 mal, 
: 328 2 61 a
: 330 2 64 ber 
: 332 2 64 nur 
: 334 4 61 manch
: 338 4 59 mal,
- 342
: 346 2 52 ha
: 348 2 52 ben 
: 350 2 61 Frau
: 352 2 61 en 
: 354 2 61 ein 
: 356 2 57 klei
: 358 2 57 nes 
: 360 2 59 biß
: 362 2 57 chen 
: 364 2 62 Hau
: 366 2 61 e 
: 368 4 57 gern
- 375
: 382 4 61 Manch
: 386 4 64 mal, 
: 392 2 61 a
: 394 2 64 ber 
: 396 2 64 nur 
: 398 4 61 manch
: 402 4 59 mal,
- 406
: 410 2 52 ha
: 412 2 52 ben 
: 414 2 61 Frau
: 416 2 61 en 
: 418 2 61 ein 
: 420 2 57 klei
: 422 2 57 nes 
: 424 2 59 biß
: 426 2 57 chen 
: 428 2 62 Hau
: 430 2 61 e 
: 432 4 57 gern
- 450
: 568 2 54 Ich 
: 570 2 54 sag
: 572 2 52 te: 
: 576 2 66 "Laß 
: 578 2 66 mich 
: 580 2 66 in 
: 582 4 66 Ruh',
- 584
: 586 2 66 ich 
: 588 2 62 hör 
: 590 2 64 dir 
: 592 2 64 nicht 
: 594 2 64 mehr 
: 596 4 66 zu,
- 603
: 608 2 57 du 
: 610 2 57 stink
: 612 2 57 be
: 614 2 57 sof
: 616 2 57 fen
: 618 2 57 es 
: 620 2 59 Ma
: 622 2 61 cho-
: 624 2 57 Schwein!"
- 628
: 632 2 66 Das 
: 634 2 66 hör
: 636 2 61 te 
: 638 2 64 er 
: 640 4 66 nicht 
: 644 4 66 gern,
- 647
: 650 2 66 er 
: 652 2 61 fing 
: 654 2 64 an 
: 656 2 64 an 
: 658 2 64 mir 
: 660 2 64 zu 
: 662 4 66 zerrn',
- 668
: 672 2 57 kurz 
: 674 2 57 da
: 676 4 57 rauf 
: 680 2 57 fing 
: 682 2 57 ich 
: 684 2 57 mir 
: 686 2 59 Ein
: 688 2 61 e 
: 690 4 57 ein
- 693
: 696 2 66 Er 
: 698 2 66 schrie: 
: 700 2 64 "Stell 
: 702 2 64 dich 
: 704 2 61 nicht 
: 708 4 61 blind,
- 712
: 714 2 61 du 
: 716 2 61 bist 
: 718 2 59 doch 
: 720 4 57 kein 
: 724 4 61 Kind
- 730
: 736 2 57 Ich 
: 738 2 57 mach 
: 740 2 57 dich 
: 742 2 57 al
: 744 2 57 le, 
: 746 2 57 dann 
: 748 2 57 weißt 
: 750 2 59 du 
: 752 2 61 be
: 754 2 57 scheid"
- 757
: 760 2 66 Doch 
: 762 2 66 statt 
: 764 2 64 mir 
: 766 2 64 noch 
: 768 2 61 Ei
: 770 2 61 ne 
: 772 2 61 zu 
: 774 2 61 zim
: 775 2 61 mern,
- 778
: 780 2 57 fing 
: 782 2 59 er 
: 784 2 59 an 
: 786 2 57 zu 
: 788 1 61 wim
: 789 4 61 mern
- 795
: 800 2 57 Jetzt 
: 802 2 57 tat 
: 804 2 57 der 
: 806 4 57 Typ 
: 810 2 57 mir 
: 812 2 59 plötz
: 814 2 61 lich 
: 816 4 57 leid
- 822
: 828 2 57 Er 
: 830 2 59 fing 
: 832 2 59 an 
: 834 2 57 zu 
: 836 2 59 flehn,
- 838
: 840 2 59 ich 
: 842 2 59 soll
: 844 2 57 te 
: 846 2 59 end
: 848 2 59 lich 
: 850 2 57 ver
: 852 4 61 stehn
- 858
: 860 2 57 Sein 
: 862 2 59 Mund
: 864 4 59 ge
: 868 4 59 ruch 
: 872 2 59 brach
: 874 2 59 te 
: 876 2 59 mir 
: 878 2 59 Ü
: 880 4 61 bel
: 884 2 62 keit
- 886
: 888 2 52 Er 
: 890 2 52 sag
: 892 2 52 te: 
: 894 4 61 "Manch
: 898 4 64 mal, 
: 904 2 61 a
: 906 2 64 ber 
: 908 2 64 nur 
: 910 4 61 manch
: 914 4 59 mal,
- 918
: 922 2 52 ha
: 924 2 52 ben 
: 926 2 61 Frau
: 928 2 61 en 
: 930 2 61 ein 
: 932 2 57 klei
: 934 2 57 nes 
: 936 2 59 biß
: 938 2 57 chen 
: 940 2 62 Hau
: 942 2 61 e 
: 944 4 57 gern
- 952
: 958 4 61 Manch
: 962 4 64 mal, 
: 968 2 61 a
: 970 2 64 ber 
: 972 2 64 nur 
: 974 4 61 manch
: 978 4 59 mal,
- 982
: 986 2 52 ha
: 988 2 52 ben 
: 990 2 61 Frau
: 992 2 61 en 
: 994 2 61 ein 
: 996 2 57 klei
: 998 2 57 nes 
: 1000 2 59 biß
: 1002 2 57 chen 
: 1004 2 62 Hau
: 1006 2 61 e 
: 1008 4 57 gern
- 1022
: 1232 2 54 Ich 
: 1234 2 61 stieß 
: 1236 2 61 ihn 
: 1238 2 61 weg
- 1240
: 1242 2 61 und 
: 1244 2 57 ich 
: 1246 2 59 rann
: 1248 2 59 te 
: 1250 2 57 nach 
: 1252 4 59 Haus',
- 1260
: 1264 2 57 dass 
: 1266 2 57 muß
: 1268 2 57 te 
: 1270 2 57 ich 
: 1272 2 57 mei
: 1274 2 57 ner 
: 1276 2 57 Freun
: 1278 2 59 din 
: 1280 2 61 er
: 1282 4 57 zähln
- 1288
: 1292 2 54 Ich 
: 1294 2 61 ließ 
: 1296 2 61 nichts 
: 1300 2 61 aus,
- 1302
: 1304 2 61 es 
: 1306 2 61 spru
: 1308 2 57 del
: 1310 2 59 te 
: 1312 2 59 aus 
: 1314 2 57 mir 
: 1316 4 59 raus
- 1324
: 1328 2 57 Die 
: 1330 2 57 Un
: 1332 2 57 ge
: 1334 2 57 wiss
: 1336 2 57 heit 
: 1338 2 57 fing 
: 1340 2 57 an 
: 1342 2 59 mich 
: 1344 2 61 zu 
: 1346 2 57 quäln'
- 1349
: 1352 2 64 Das 
: 1354 2 64 war 
: 1356 2 64 mir 
: 1358 2 61 noch 
: 1360 2 61 nie 
: 1362 2 61 pas
: 1364 4 61 siert,
- 1368
: 1370 2 61 ich 
: 1372 2 57 war 
: 1374 2 59 trau
: 1376 2 59 ma
: 1378 2 57 ti
: 1380 4 61 siert
- 1386
: 1392 2 57 und 
: 1394 2 57 et
: 1396 2 57 was 
: 1398 4 57 neu
: 1402 2 57 gier
: 1404 2 57 ig 
: 1406 2 59 war 
: 1408 2 61 ich 
: 1410 2 57 auch
- 1415
: 1420 2 64 Da 
: 1422 2 64 läch
: 1424 2 61 el
: 1426 2 61 te 
: 1428 2 61 sie
- 1431
: 1434 2 57 und 
: 1436 4 57 hob 
: 1440 4 59 ihr 
: 1444 2 61 Knie
- 1450
: 1452 2 56 und 
: 1454 2 57 ramm
: 1456 2 57 te 
: 1458 2 57 es 
: 1460 2 57 mit 
: 1462 2 57 vol
: 1464 2 57 ler 
: 1466 2 57 Wucht
- 1467
: 1468 2 57 in 
: 1470 2 59 mei
: 1472 2 61 nen 
: 1474 2 57 Bauch
- 1478
: 1480 2 57 Als 
: 1482 2 57 ich 
: 1484 2 56 nach 
: 1486 2 59 At
: 1488 4 59 em 
: 1492 2 59 rang'
- 1494
: 1496 2 59 und 
: 1498 2 59 ih
: 1500 2 57 re 
: 1502 2 59 Stim
: 1504 2 59 me 
: 1506 2 57 er
: 1508 2 61 klang
- 1512
: 1516 2 57 um
: 1518 2 59 weh
: 1520 4 59 te 
: 1524 4 59 sie 
: 1528 4 59 ein 
: 1532 4 59 ei
: 1536 2 59 si
: 1538 2 61 ger 
: 1540 2 62 Hauch
- 1542
: 1544 2 52 Sie 
: 1546 2 52 sag
: 1548 2 52 te: 
: 1550 4 73 "Manch
: 1554 4 76 mal, 
: 1560 2 76 a
: 1562 2 78 ber 
: 1564 2 76 nur 
: 1566 4 73 manch
: 1570 4 71 mal,
- 1574
: 1578 2 64 ha
: 1580 2 64 ben 
: 1582 2 73 Frau
: 1584 2 73 en 
: 1586 2 73 ein 
: 1588 2 69 klei
: 1590 2 69 nes 
: 1592 2 71 biß
: 1594 2 69 chen 
: 1596 2 74 Hau
: 1598 2 73 e 
: 1600 4 69 gern
- 1607
: 1614 4 73 Manch
: 1618 4 76 mal, 
: 1624 2 76 a
: 1626 2 78 ber 
: 1628 2 76 nur 
: 1630 4 73 manch
: 1634 4 71 mal,
- 1638
: 1642 2 69 ha
: 1644 2 71 ben 
: 1646 2 73 Frau
: 1648 2 73 en 
: 1650 2 73 ein 
: 1652 2 69 klei
: 1654 2 69 nes 
: 1656 2 71 biß
: 1658 2 69 chen 
: 1660 2 74 Hau
: 1662 2 73 e 
: 1664 4 69 gern
- 1672
: 1678 4 73 Im
: 1682 4 76 mer, 
: 1688 2 76 ja 
: 1690 2 78 wirk
: 1692 2 76 lich 
: 1694 4 73 im
: 1698 4 71 mer,
- 1702
: 1706 2 71 ha
: 1708 2 69 ben 
: 1710 2 73 Ty
: 1712 2 73 pen 
: 1714 2 73 wie 
: 1716 4 69 du
- 1718
: 1720 2 69 was 
: 1722 2 71 auf 
: 1724 2 69 die 
: 1726 2 73 Fres
: 1728 2 73 se 
: 1730 2 69 ver
: 1732 4 71 dient
- 1738
: 1742 4 73 Im
: 1746 4 76 mer, 
: 1752 2 76 ja 
: 1754 2 78 wirk
: 1756 2 76 lich 
: 1758 4 73 im
: 1762 4 71 mer,
- 1766
: 1770 2 69 ha
: 1772 2 71 ben 
: 1774 2 73 Ty
: 1776 2 73 pen 
: 1778 2 73 wie 
: 1780 4 69 du
- 1782
: 1784 2 69 was 
: 1786 2 71 auf 
: 1788 2 69 die 
: 1790 2 73 Fres
: 1792 2 73 se 
: 1794 2 69 ver
: 1796 4 71 dient
E

corrected by Muni
