#TITLE:Bitte Bitte...
#ARTIST:Die Ärzte
#EDITION:Die Ärzte
#MP3:Die Ärzte - Bitte Bitte....mp3
#COVER:Die Ärzte - Bitte Bitte... [CO].jpg
#BACKGROUND:Die Ärzte - Bitte Bitte... [BG].jpg
#BPM:150
#GAP:6000
#RESOLUTION:16
: 0 2 57 Bit
: 2 2 57 te 
: 4 2 55 Bit
: 6 2 57 te... 
-22
: 32 2 57 Bit
: 34 2 57 te 
: 36 2 55 Bit
: 38 2 57 te...
-150
: 160 4 57 Ich 
: 164 4 64 ha
: 168 4 64 be 
: 172 4 62 ein 
: 176 4 60 Ge
: 180 4 62 schenk 
: 184 2 60 für 
: 186 4 62 di
: 190 4 64 ch. 
-214
: 224 4 64 "Ich 
: 228 4 64 lie
: 232 2 57 be 
: 234 4 57 dich" 
-240
: 240 4 57 Ich 
: 244 4 62 schenk 
: 248 2 60 dir 
: 250 4 64 mich!
-282
: 292 4 64 Frag´ 
: 296 4 64 mich 
: 300 4 62 nicht 
: 304 4 60 du 
: 308 4 62 weißt 
: 312 2 60 wa
: 314 4 64 rum. 
-342
: 352 4 64 Ab 
: 356 4 67 heut 
: 360 4 64 bin 
: 364 4 62 ich 
: 368 4 60 dein 
: 372 4 64 Ei
: 376 2 57 gen
: 378 6 57 tum!
-406
: 416 4 64 Du 
: 420 4 64 tust 
: 424 4 64 mir 
: 428 4 62 weh,
-432
: 432 4 60 was 
: 436 2 62 will 
: 438 4 60 ich 
: 442 4 64 mehr?
-448
: 448 4 57 Ich 
: 452 4 57 bin 
: 456 4 57 dein 
: 460 2 60 Die
: 462 4 57 ner,
-468 
: 468 4 60 du 
: 472 2 62 der 
: 474 4 57 Herr
-480
: 480 4 57 Ab 
: 484 4 64 heut´ 
: 488 4 64 ge
: 492 4 62 hör 
: 496 4 60 ich 
: 500 4 62 dir 
: 504 2 60 al
: 506 4 64 lein.
-516
: 516 2 57 Bit
: 518 2 57 te 
: 520 4 57 lass 
: 524 4 57 mich...
-534
: 544 2 55 Bit
: 546 2 55 te 
: 548 2 57 Bit
: 550 2 57 te 
: 552 4 57 lass 
: 556 4 57 mich...
-566
: 576 2 55 Bit
: 578 2 55 te 
: 580 2 57 Bit
: 582 2 57 te 
: 584 4 57 lass 
: 588 4 57 mich... 
-606
: 616 4 62 lass 
: 620 4 62 mich 
: 624 4 64 dein 
: 628 4 60 Skla
: 632 2 59 ve 
: 634 4 57 sein! 
-640
: 640 4 57 Was 
: 644 4 64 im
: 648 4 64 mer 
: 652 4 62 du 
: 656 4 60 be
: 660 4 62 fiehlst,
-664
: 664 2 60 ich 
: 666 4 64 tuhs! 
-694
: 704 4 57 Ich 
: 708 4 64 küss 
: 712 4 64 die 
: 716 4 62 spit
: 720 4 60 ze, 
: 724 4 62 dei
: 728 2 60 nes 
: 730 4 57 Schuhs
-758
: 768 4 57 und 
: 772 4 64 wenn 
: 776 4 64 du 
: 780 4 62 mir 
: 784 4 60 die 
: 788 4 62 kn
: 792 2 60 ute 
: 794 4 64 giebst, 
-826
: 836 4 64 weiß´ 
: 840 4 64 ich 
: 844 4 62 dass 
: 848 4 60 auch 
: 852 4 62 du 
: 856 2 60 mich 
: 858 6 57 liebst.
-894
: 904 4 64 Ich 
: 908 4 62 bin 
: 912 4 60 nicht 
: 916 4 62 mehr 
: 920 2 60 zu 
: 922 4 62 ret
: 926 4 64 ten,
-932
: 932 4 64 peitsch 
: 936 4 57 mich 
: 940 4 57 aus,
-944 
: 944 4 57 leg 
: 948 4 62 mich 
: 952 2 62 in 
: 954 4 60 Ket
: 958 4 57 ten!
-962
: 962 2 57 Ab 
: 964 4 64 heut´ 
: 968 4 64 ge
: 972 4 62 hör 
: 976 4 60 ich 
: 980 4 62 dir 
: 984 2 60 al
: 986 4 64 lein. 
-996
: 996 2 57 Bit
: 998 2 57 te 
: 1000 4 57 lass 
: 1004 4 57 mich...
-1014
: 1024 2 55 Bit
: 1026 2 55 te 
: 1028 2 57 Bit
: 1030 2 57 te 
: 1032 4 57 lass 
: 1036 4 57 mich...
-1046
: 1056 2 55 Bit
: 1058 2 55 te 
: 1060 2 57 Bit
: 1062 2 57 te 
: 1064 4 57 lass 
: 1068 4 57 mich...
-1078
: 1088 2 55 Bit
: 1090 2 55 te 
: 1092 2 57 Bit
: 1094 2 57 te 
: 1096 4 57 lass 
: 1100 4 57 mich...
-1114
: 1124 2 57 Bit
: 1126 2 57 te 
: 1128 4 57 lass 
: 1132 4 57 mich...
-1142
: 1152 2 55 Bit
: 1154 2 55 te 
: 1156 2 57 Bit
: 1158 2 57 te 
: 1160 4 57 lass 
: 1164 4 57 mich...
-1174
: 1184 2 55 Bit
: 1186 2 55 te 
: 1188 2 57 Bit
: 1190 2 57 te 
: 1192 4 57 lass 
: 1196 4 57 mich... 
-1214
: 1224 4 62 lass 
: 1228 4 62 mich 
: 1232 4 64 dein 
: 1236 4 60 Skla
: 1240 2 59 ve 
: 1242 4 57 sein 
-1306
: 1316 2 57 Bit
: 1318 2 57 te 
: 1320 4 57 lass 
: 1324 4 57 mich...
-1334
: 1344 2 55 Bit
: 1346 2 55 te 
: 1348 2 57 Bit
: 1350 2 57 te 
: 1352 4 57 lass 
: 1356 4 57 mich...
-1366
: 1376 2 55 Bit
: 1378 2 55 te 
: 1380 2 57 Bit
: 1382 2 57 te 
: 1384 4 57 lass 
: 1388 4 57 mich... 
-1406
: 1416 4 62 lass 
: 1420 4 62 mich 
: 1424 4 64 dein 
: 1428 4 60 Skla
: 1432 2 59 ve 
: 1434 4 57 sein 
-1444
: 1444 2 57 Bit
: 1446 2 57 te 
: 1448 4 57 lass 
: 1452 4 57 mich...
-1462
: 1472 2 55 Bit
: 1474 2 55 te 
: 1476 2 57 Bit
: 1478 2 57 te 
: 1480 4 57 lass 
: 1484 4 57 mich...
-1494
: 1504 2 55 Bit
: 1506 2 55 te 
: 1508 2 57 Bit
: 1510 2 57 te 
: 1512 4 57 lass 
: 1516 4 57 mich... 
-1534
: 1544 4 62 lass 
: 1548 4 62 mich 
: 1552 4 64 dein 
: 1556 4 60 Skla
: 1560 2 59 ve 
: 1562 4 57 sein 
-1568
: 1572 2 57 Bit
: 1574 2 57 te 
: 1576 4 57 lass 
: 1580 4 57 mich... 
-1590
: 1600 2 55 Bit
: 1602 2 55 te 
: 1604 2 57 Bit
: 1606 2 57 te 
: 1608 4 57 lass 
: 1612 4 57 mich...
-1622
: 1632 2 55 Bit
: 1634 2 55 te 
: 1636 2 57 Bit
: 1638 2 57 te 
: 1640 4 57 lass 
: 1644 4 57 mich... 
-1662
: 1672 4 62 lass 
: 1676 4 62 mich 
: 1680 4 64 dein 
: 1684 4 60 Skla
: 1688 2 59 ve 
: 1690 4 57 sein 
-1696
: 1700 2 57 Bit
: 1702 2 57 te 
: 1704 4 57 lass 
: 1708 4 57 mich...
-1718
: 1728 2 55 Bit
: 1730 2 55 te 
: 1732 2 57 Bit
: 1734 2 57 te 
: 1736 4 57 lass 
: 1740 4 57 mich... 
-1750
: 1760 2 55 Bit
: 1762 2 55 te 
: 1764 2 57 Bit
: 1766 2 57 te 
: 1768 4 57 lass 
: 1772 4 57 mich...
-1790
: 1800 4 62 lass 
: 1804 4 62 mich 
: 1808 4 64 dein 
: 1812 4 60 Skla
: 1816 2 59 ve 
: 1818 4 57 sein
E
