#TITLE:Freunde
#ARTIST:Die Toten Hosen
#MP3:Die Toten Hosen - Freunde.mp3
#VIDEO:Die Toten Hosen - Freunde [VD#0].avi
#COVER:Die Toten Hosen - Freunde [CO].jpg
#BPM:340
#GAP:13897,06
#ENCODING:UTF8
#LANGUAGE:Deutsch
#GENRE:Pop
#YEAR:2004
: 0 4 59 Mit
: 8 3 63  fünf
: 14 4 64 zehn
: 21 4 62  schrie
: 25 4 60 ben
: 31 5 62  wir
: 38 5 64  noch
- 45
: 54 6 59 Pa
: 60 4 62 ro
: 67 4 64 len
: 74 3 62  an
: 78 4 60  die
* 84 5 56  Wand
- 91
: 107 4 55 Die
: 114 4 62  kei
: 121 3 62 ner
: 127 2 62  von
: 131 3 62  uns
: 137 3 62  da
: 143 4 62 mals
- 149
: 160 3 54 So
: 167 4 62  ganz
: 174 4 64  ge
: 178 4 62 nau
: 184 4 60  ver
: 191 5 62 stand
- 198
: 211 2 57 Wir
: 214 3 57  waren
: 217 2 55  mit
: 221 3 57  zwan
: 227 3 57 zig
- 232
: 234 3 57 Klar
: 238 3 57  da
: 244 4 57 ge
: 251 3 57 gen
- 256
: 267 5 57 E
: 273 4 56 gal
: 280 5 54  was
: 287 3 56  es
: 292 4 56  grad
* 298 6 56  war
- 306
: 327 4 55 Haupt
: 333 4 59 sa
: 340 4 59 che
: 347 2 59  zu
: 351 8 59 sam
: 359 3 59 men
: 362 4 59  und
- 367
: 368 4 57 Mit
: 374 4 59  dem
: 380 4 59  Kopf
- 386
: 394 3 59 Durch
: 400 2 60  die
: 404 2 60  Wand
: 407 6 57 ~
- 415
: 420 9 64 U
: 433 53 64 hu
: 487 12 59 hu
- 501
: 527 6 64 U
: 540 53 64 hu
: 593 16 57 hu
- 611
: 640 4 56 Das
: 647 5 59  Le
: 654 4 59 ben
: 660 3 59  kam
: 664 4 60  oft
: 670 4 59  an
: 677 4 57 ders
- 683
: 693 3 52 Und
: 700 4 57  sel
: 707 4 57 ten
: 713 4 59  wie
: 720 3 57  ge
: 723 6 59 dacht
- 731
: 746 2 59 Wir
: 748 4 58  hab'n
: 753 4 59  all
: 761 4 59  die
: 767 4 59  Kom
: 773 4 59 pro
: 780 2 59 mis
: 784 6 59 se
- 792
: 807 5 59 Nie
: 813 3 60  mit
: 817 4 59  uns
* 824 6 57  ge
: 831 6 57 macht
- 839
: 852 2 63 Wir
: 854 3 64  wür
: 857 2 64 den
: 861 3 64  für
: 867 4 64 ei
: 873 4 64 nan
: 877 3 64 der
: 883 4 64  lü
* 890 5 64 gen
- 897
: 914 3 62 Not
: 918 4 64 falls
: 923 4 62  auch
: 930 4 60  vor
: 936 6 57  Gott
- 944
: 958 2 62 Wir
: 960 3 61  ha
: 963 2 58 ben
: 967 4 62  nie
: 974 4 62  drü
: 980 3 62 ber
: 986 3 62  ge
: 991 4 62 re
: 997 6 62 det
- 1005
: 1007 3 60 Doch
: 1013 4 62  wir
: 1020 4 64  hal
: 1027 5 64 ten
: 1034 4 64  un
: 1039 4 60 ser
: 1044 8 64  Wort
- 1054
: 1088 25 59 Oh
: 1114 13 62  oh
: 1128 13 64  oh
: 1141 12 62  oh
: 1154 12 59  oh
: 1167 13 62  oh
: 1181 11 57  oh
- 1193
: 1194 5 57 Al
: 1200 5 55 les
: 1207 12 57  weil
: 1221 12 59  wir
: 1234 5 57  Freun
: 1241 5 55 de
: 1247 9 52  sind
- 1258
: 1300 27 59 Oh
: 1327 13 62  oh
: 1341 13 64  oh
: 1355 12 62  oh
: 1367 13 59  oh
: 1380 13 62  oh
: 1393 13 57  oh
- 1407
: 1407 11 57 Weil
: 1420 12 57  wir
: 1434 8 59  noch
: 1447 3 57  Freun
: 1454 3 55 de
: 1460 8 52  sind
- 1470
: 1607 5 60 Man
: 1613 5 63 che
: 1620 4 62  sind
: 1625 5 60  ge
: 1631 5 62 stor
: 1638 6 64 ben
- 1646
: 1660 5 62 An
: 1667 4 64 d're
: 1673 3 62  gin
: 1677 3 59 gen
: 1684 4 56  weg
- 1690
: 1706 4 55 Doch
: 1713 4 62  wir
: 1720 4 62  hier
: 1727 5 62  ha
: 1733 5 62 ben
: 1740 6 62  ein
: 1747 5 62 fach
- 1753
: 1754 2 62 Im
: 1757 5 62 mer
: 1768 2 64  al
: 1771 4 64 les
: 1780 3 62  ü
: 1784 5 60 ber
: 1791 4 63 lebt
- 1797
: 1811 2 57 Wir
: 1814 2 57  sind
: 1821 2 57  an
: 1827 3 57 ders
: 1834 3 57  als
: 1841 3 57  die
: 1844 3 57  an
: 1850 4 57 dern
- 1856
: 1860 3 57 Auch
: 1866 3 57  wenn's
: 1875 4 56  kei
: 1880 3 55 ne
: 1886 3 55  an
: 1892 4 55 dern
: 1899 3 56  gibt
: 1902 4 52 ~
- 1908
: 1921 4 57 Wir
: 1927 3 59  schwören
: 1933 3 59  uns
: 1940 3 59  im
: 1944 4 59 mer
: 1950 6 59  wie
: 1959 7 59 der
- 1967
: 1967 3 57 Dass
: 1973 3 59  das
: 1981 3 59  Bes
: 1987 4 60 te
: 1994 3 59  vor
: 2000 3 60  uns
: 2005 3 60  liegt
: 2008 4 57 ~
- 2014
: 2027 5 64 Die
: 2034 4 63  Jah
: 2041 3 64 re
: 2047 2 64  lie
: 2051 3 64 ßen
: 2058 7 64  Spuren
- 2067
: 2080 5 60 Man
: 2087 3 62  kann
: 2093 4 64  sie
: 2098 3 62  deut
: 2104 5 60 lich
: 2112 5 56  sehen
- 2119
: 2131 2 62 Wir
: 2134 3 62  wür
: 2138 3 62 den
: 2141 3 62  uns
: 2147 3 62  das
: 2153 3 62  so
: 2159 3 62  nie
: 2166 4 62  sa
: 2172 4 62 gen
- 2178
: 2193 4 64 Weil
: 2200 4 64  wir
: 2207 5 62  Freun
: 2214 3 60 de
: 2218 8 64  sind
- 2228
: 2253 5 64 Wir
: 2259 5 64  strei
: 2267 4 62 ten
: 2274 6 64  uns
- 2282
: 2307 4 64 Ver
: 2314 6 64 tra
: 2320 4 62 gen
: 2328 6 64  uns
- 2336
: 2367 5 62 Al
: 2374 4 60 les
* 2380 8 62  weil
: 2394 6 64  wir
: 2407 5 62  Freun
: 2414 4 60 de
: 2420 7 57  sind
- 2429
: 2465 3 62 Wir
: 2468 4 64  sind
: 2474 3 64  im
: 2480 4 62 mer
: 2487 7 64  da
- 2496
: 2522 4 64 Auch
: 2528 4 64  oh
: 2534 4 62 ne
: 2541 6 64  Grund
- 2549
: 2580 10 62 Weil
: 2594 12 62  wir
: 2608 6 64  noch
: 2621 3 62  Freun
: 2628 3 60 de
: 2634 6 57  sind
- 2642
: 3320 5 64 Wenn
: 3327 5 64  wir
: 3333 5 62  ver
: 3340 5 64 lieren
- 3347
: 3374 4 64 Bauen
: 3381 6 64  wir
: 3388 3 62  uns
: 3395 6 64  auf
- 3403
: 3434 7 62 Al
: 3442 4 60 les
: 3448 10 62  weil
: 3461 10 64  wir
: 3474 6 62  Freun
: 3481 6 60 de
* 3488 8 57  sind
- 3498
: 3534 5 64 Der
: 3540 5 64  Rest
: 3547 4 62  der
: 3553 8 64  Welt
- 3563
: 3587 3 67 Wir
: 3593 6 66  schei
: 3600 6 64 ßen
* 3607 7 64  drauf
- 3616
: 3647 9 62 Weil
: 3660 9 62  wir
: 3673 8 64  noch
: 3686 5 62  Freun
: 3693 5 60 de
: 3700 8 57  sind
- 3710
: 3754 27 59 Oh
: 3781 13 62  oh
: 3794 13 64  oh
: 3807 13 62  oh
: 3820 14 59  oh
: 3834 13 62  oh
: 3847 13 57  oh
- 3861
: 3861 6 57 Al
: 3867 6 55 les
: 3874 10 57  weil
: 3888 10 59  wir
: 3901 5 57  Freun
: 3907 3 55 de
: 3915 7 52  sind
- 3924
: 3967 26 59 Oh
: 3993 13 62  oh
: 4007 14 64  oh
: 4021 13 62  oh
: 4034 14 59  oh
: 4048 13 62  oh
: 4061 6 57  oh
- 4069
: 4074 9 57 Weil
: 4087 12 57  wir
: 4101 11 59  noch
: 4114 4 57  Freun
: 4121 5 55 de
: 4128 4 52  sind
- 4134
: 4174 4 62 Wenn
: 4180 5 64  wir
: 4187 4 62  ver
: 4193 8 64 lieren
- 4203
: 4227 5 64 Was
: 4233 3 64  macht
: 4240 3 62  es
: 4247 6 64  aus
- 4255
: 4281 3 62 So
: 4287 4 62 lan
: 4294 3 60 ge
: 4300 8 62  wir
* 4313 7 64  noch
: 4326 5 62  Freun
: 4333 5 60 de
: 4340 8 57  sind
- 4350
: 4388 3 64 Der
: 4394 4 64  Rest
: 4401 5 62  der
: 4408 7 64  Welt
- 4417
: 4440 5 67 Wir
* 4447 3 66  schei
: 4453 4 64 ßen
: 4460 7 64  drauf
- 4469
: 4500 8 66 Weil
: 4512 10 66  wir
: 4526 10 67  noch
: 4539 5 66  Freun
: 4546 4 64 de
: 4553 7 64  sind
- 4562
: 4603 10 67 Wir
: 4616 11 66  blei
: 4629 8 64 ben
- 4639
: 4655 10 67 Wir
: 4669 11 66  sie
: 4682 10 64 gen
- 4694
: 4708 7 66 Weil
: 4722 10 66  wir
: 4734 11 67  noch
: 4746 6 66  Freun
: 4754 4 64 de
: 4760 10 64  sind
- 4772
* 4813 11 67 Nichts
: 4826 10 66  wird
: 4839 12 64  uns
- 4853
: 4866 11 67 Tot
: 4878 12 66 krie
: 4891 12 64 gen
- 4905
: 4917 9 66 Weil
: 4930 12 66  wir
: 4957 5 66  Freun
: 4963 4 64 de
: 4970 9 64  sind
E