#TITLE:Pushed Again
#ARTIST:Die Toten Hosen
#LANGUAGE:Englisch
#EDITION:SingStar Die Toten Hosen
#GENRE:Pop
#YEAR:1998
#MP3:Die Toten Hosen - Pushed Again.mp3
#COVER:Die Toten Hosen - Pushed Again [CO].jpg
#BACKGROUND:Die Toten Hosen - Pushed Again [BG].jpg
#VIDEO:Die Toten Hosen - Pushed Again [VD#0].avi
#VIDEOGAP:0
#BPM:224
#GAP:8638,39
: 0 2 52 Whis
: 4 2 52 per
: 8 4 52 ing
: 16 4 57  voi
: 24 5 57 ces
- 30
: 32 6 55 In
: 40 5 55  my
: 48 4 55  head
: 52 5 54 ~
- 59
: 64 5 52 Sounds
: 72 5 52  like
* 80 5 52  they're
- 87 88
: 96 4 52 Cal
: 100 2 50 ling
: 104 3 52  my
: 108 5 52  name
- 115 116
: 124 2 47 A
: 129 4 52  hea
: 133 6 52 vy
: 141 11 57  hand
: 153 2 57  is
- 157
: 160 3 55 Shak
: 164 3 55 ing
: 168 4 55  my
: 176 4 55  bed
: 180 4 54 ~
- 186
: 189 2 52 I'm
: 193 2 55  wak
: 196 8 55 ing
: 205 2 55  up
- 209
: 216 3 55 And
: 220 2 52  I
: 225 6 55  feel
: 232 2 55  the
: 236 4 55  strain
: 240 3 54 ~
- 244
: 244 2 52 I'm
: 248 2 52  feel
: 252 2 52 ing
: 257 2 55  pushed
: 264 3 52  a
: 268 7 52 gain
- 277 288
: 308 3 52 I'm
: 312 2 52  feel
: 316 2 52 ing
: 320 3 55  pushed
: 328 3 52  a
: 332 3 52 gain
- 337 364
: 384 3 52 Why
: 388 3 52  should
: 392 5 52  I
: 400 6 57  go
: 408 5 57  where
- 414
: 416 3 55 Ev
: 420 2 54 ery
: 424 4 55 one
: 432 4 55  goes?
: 436 4 54 ~
- 442
* 448 3 52 Why
: 452 3 52  should
: 456 4 52  I
: 464 7 52  do
: 472 2 52  what
- 476
: 480 4 52 Ev
: 484 2 50 ery
: 488 2 52 one
: 492 7 52  does?
- 501 502
: 512 3 52 I
: 516 4 52  don't
: 524 4 57  like
: 531 2 57  it
: 536 2 57  when
: 540 3 57  you
- 544
: 544 3 55 Get
: 552 3 55  too
: 560 4 55  close
: 564 4 54 ~
- 570
: 572 2 52 I
: 576 4 55  don't
: 584 4 55  wan
: 588 2 52 na
: 592 5 55  be
- 599 600
: 608 3 55 Un
: 612 2 55 der
: 616 2 52  your
: 620 4 55  thumb
: 624 2 54 ~
- 627
: 628 2 52 I'm
: 632 2 52  feel
: 636 2 52 ing
: 640 2 55  pushed
: 648 3 52  a
: 652 7 52 gain
- 661 662
: 672 2 55 Pushed
: 680 2 52  a
: 684 4 52 gain
- 690
: 692 2 52 I'm
: 696 2 52  feel
: 700 2 52 ing
* 704 2 55  pushed
: 712 3 52  a
: 716 3 52 gain
- 721 722
: 736 5 67 Pushed
: 744 5 67  a
: 752 4 67 gain
: 756 7 64 ~
- 765
: 767 4 64 Why
: 774 4 64  can't
: 781 4 64  you
: 788 4 64  just
- 794
: 796 3 64 Leave
: 800 3 62  me
: 804 4 64  a
: 810 4 64 lone?
: 814 4 62 ~
- 820
: 826 3 64 So
: 830 5 64 li
: 837 5 64 tude
: 844 2 62  is
: 848 2 64  a
- 851
: 852 3 64 Faith
: 859 3 62 ful
: 867 4 62  friend
- 873 874
: 885 5 64 Turn
: 893 5 64  the
: 901 3 64  lights
: 909 3 64  off
- 914
: 916 5 64 I'm
: 923 4 64  not
: 931 4 64  home
: 935 4 62 ~
- 941
: 947 3 64 Can't
: 951 3 64  you
: 958 3 64  see
- 963
: 965 2 67 I
: 968 5 67  don't
: 977 4 67  need
: 984 6 64  your
: 992 8 64  help?
- 1002 1107
: 1127 2 50 You're
: 1130 3 52  go
: 1134 4 52 in'
: 1142 4 57  fast
- 1148
: 1154 3 57 When
: 1157 2 54  I
: 1161 4 55  wan
: 1165 2 54 na
: 1169 5 55  go
: 1177 4 55  slow
: 1181 3 54 ~
- 1186
: 1189 3 64 You
: 1193 3 64  make
: 1201 7 59  me
: 1209 3 59  run
: 1216 2 59  when
: 1220 2 59  I
- 1223
: 1224 5 60 Want
: 1232 3 62  to
: 1236 3 60  walk
: 1239 3 59 ~
- 1244
: 1251 2 50 You're
: 1255 2 52  send
: 1259 2 52 ing
: 1263 3 52  me
: 1271 6 57  down
: 1278 3 57  a
- 1283
: 1286 3 55 Roc
: 1290 4 55 ky
: 1297 4 55  road
: 1301 3 54 ~
- 1305
: 1305 2 62 I
: 1309 2 64  get
: 1313 2 64  con
: 1317 4 67 fused
: 1325 4 64  when
: 1333 4 64  you
- 1339 1340
* 1348 5 60 Start
: 1356 2 60  to
: 1360 3 60  talk
: 1363 3 59 ~
- 1367
: 1367 2 52 I'm
: 1371 3 52  feel
: 1375 2 52 ing
: 1379 3 55  pushed
: 1387 3 52  a
: 1391 4 52 gain
- 1397
: 1403 3 52 Feel
: 1407 2 52 ing
: 1411 3 55  pushed
: 1419 2 52  a
: 1422 4 54 gain
- 1428
: 1430 2 52 I'm
: 1434 4 55  feel
: 1438 2 52 ing
: 1442 3 55  pushed
: 1449 4 52  a
: 1454 5 52 gain
- 1461 1462
: 1473 3 67 Pushed
: 1481 4 67  a
: 1488 5 67 gain
: 1493 6 64 ~
- 1501
: 1504 4 64 Why
: 1511 4 64  can't
: 1518 4 64  you
: 1525 4 64  just
- 1531
: 1533 3 64 Leave
: 1537 3 62  me
: 1541 4 64  a
: 1547 4 64 lone?
: 1551 4 62 ~
- 1557
: 1559 3 64 You're
* 1563 3 64  drag
: 1567 5 64 gin'
: 1574 3 64  me
- 1579
: 1585 3 64 Right
: 1593 3 64  to
: 1596 8 62  the
: 1605 4 62  edge
- 1611
: 1619 2 64 I've
: 1623 2 64  got
: 1626 6 64 ta
: 1634 3 64  go
- 1639
: 1646 3 64 When
: 1649 2 62  you
: 1653 4 64  jerk
: 1661 5 64  my
: 1668 3 64  rope
: 1671 5 62 ~
- 1678
: 1683 3 64 I
: 1687 4 64  don't
: 1695 3 64  know
- 1700
: 1706 3 67 Where
: 1710 2 64  the
: 1714 3 67  good
: 1720 5 64  times
: 1728 4 64  went
- 1733
: 1734 2 64 And
: 1736 3 67  I'm
: 1743 4 64  sick
: 1747 4 62 ~
- 1753 1754
: 1762 2 62 Of
: 1766 4 67  this
: 1773 4 64  pain
: 1777 4 62 ~
- 1783 1784
: 1792 4 66 In
: 1796 7 67  my
: 1804 24 64  head
- 1830 1831
: 1854 2 64 And
: 1857 3 67  I'm
: 1864 4 64  scared
: 1868 4 62 ~
- 1874 1875
: 1883 2 62 I'm
: 1887 2 67  be
: 1889 3 67 ing
: 1894 4 64  pushed
: 1898 4 62 ~
- 1904 1905
: 1916 5 66 A
: 1924 27 66 gain
- 1953 2203
: 2223 2 50 It's
: 2227 3 52  get
: 2231 7 52 tin'
* 2240 9 57  more
: 2250 4 57  than
- 2255
: 2255 3 55 I
: 2262 3 55  can
: 2269 4 55  take
: 2273 3 54 ~
- 2277
: 2278 2 64 It's
: 2281 2 64  like
: 2284 2 64  a
: 2288 3 64  band
: 2296 4 59  tight
: 2303 2 59 'ning
- 2306
: 2308 6 59 A
: 2315 5 60 round
: 2323 7 62  my
: 2331 3 60  head
: 2334 4 59 ~
- 2340
: 2347 1 50 If
: 2351 2 52  you
: 2358 3 52  keep
: 2364 2 57  push
: 2368 2 57 ing
- 2371
: 2372 2 57 Some
: 2376 2 54 thing's
: 2380 4 55  gon
: 2384 4 55 na
* 2392 3 55  break
: 2395 2 54 ~
- 2399
: 2407 2 66 It's
: 2411 2 67  mak
: 2415 2 67 ing
: 2419 2 67  me
: 2426 3 67  think
- 2431
: 2434 2 67 I'd
: 2438 2 67  be
: 2442 3 67  bet
: 2445 4 67 ter
: 2449 2 67  off
: 2453 6 67  dead
- 2461 2462
: 2472 4 64 Why
: 2479 4 64  can't
: 2486 4 64  you
: 2493 4 64  just
- 2499
: 2501 3 64 Leave
: 2505 3 62  me
: 2509 4 64  a
: 2515 4 64 lone?
: 2519 4 62 ~
- 2525
: 2531 3 64 So
: 2535 5 64 li
: 2542 5 64 tude
: 2549 2 62  is
: 2554 2 64  a
- 2557
: 2558 3 64 Faith
: 2565 3 62 ful
: 2573 4 62  friend
- 2579
: 2587 2 64 I'll
: 2591 5 64  sort
: 2599 5 64  my
: 2607 3 64  life
: 2615 3 64  out
- 2620
: 2622 5 64 On
: 2629 4 64  my
: 2637 4 64  own
: 2641 4 62 ~
- 2647
: 2653 3 64 I
: 2657 3 64  just
: 2664 3 64  want
: 2675 4 67  this
- 2681
: 2683 3 67 Pres
: 2686 2 64 sure
: 2690 4 64  to
: 2694 4 64  end
- 2700
: 2702 2 64 And
: 2705 3 67  I'm
: 2712 4 64  sick
: 2716 4 62 ~
- 2722 2723
: 2731 2 62 Of
: 2735 4 67  this
: 2742 4 64  pain
: 2746 4 62 ~
- 2752 2753
: 2761 4 66 In
* 2765 7 67  my
: 2773 23 64  head
- 2798 2799
: 2822 2 64 And
: 2826 3 67  I'm
: 2833 4 64  scared
: 2837 4 62 ~
- 2843 2844
: 2852 2 62 I'm
: 2856 2 67  be
: 2858 3 67 ing
: 2863 4 64  pushed
: 2867 4 62 ~
- 2873 2874
: 2885 5 66 A
* 2893 27 66 gain
: 2920 4 64 ~
: 2924 4 66 ~
: 2928 4 64 ~
: 2932 5 63 ~
- 2939
: 2943 2 66 Yes
: 2947 3 67  I'm
: 2953 4 64  sick
: 2957 4 62 ~
- 2963 2964
: 2972 2 62 Of
: 2976 4 67  this
: 2983 4 64  pain
: 2987 4 62 ~
- 2993 2994
: 3002 4 66 In
: 3006 7 67  my
: 3014 22 64  head
- 3038 3039
: 3063 2 64 And
: 3067 3 67  I'm
* 3074 4 64  scared
: 3078 4 62 ~
- 3084 3085
: 3093 2 62 I'm
: 3097 2 67  be
: 3099 3 67 ing
: 3104 4 64  pushed
: 3108 4 62 ~
- 3114 3115
: 3126 5 66 A
: 3134 27 66 gain
: 3163 32 59 ~
E
