#TITLE:Radio brennt (Deja Vu-Version)
#ARTIST:Die Ärzte
#MP3:Die Ärzte - Radio brennt (Deja Vu-Version).mp3
#COVER:Die Ärzte - Radio brennt (Deja Vu-Version) [CO].jpg
#BACKGROUND:Die Ärzte - Radio brennt (Deja Vu-Version) [BG].jpg
#BPM:420
#GAP:25000
#ENCODING:UTF8
#LANGUAGE:Deutsch
#EDITION:[SC]-Songs
: 0 6 10 Je
: 8 4 10 des
: 14 8 10  Mal,
: 22 2 10  wenn
: 26 6 10  ich
: 34 6 10  bei
: 42 4 10  dir
: 46 10 10  bin,
- 58
: 66 4 10 schal
: 70 4 10 test
: 76 2 10  du
: 78 4 10  das
: 84 6 10  Ra
: 90 3 10 di
: 93 2 11 o
: 96 8 10  ein
- 106
: 132 4 11 Im
: 136 4 11 mer
: 144 6 11  dann,
: 152 4 11  wenn
: 156 4 11  ich
: 160 4 11  dich
: 166 4 13  küs
: 170 6 11 sen
: 178 10 11  will,
- 189
: 190 6 11 lass
: 198 4 11  ich
: 204 6 11  es
: 212 6 11  lie
: 220 2 13 ber
: 224 14 11  sein
- 240
: 256 4 11 Sie
: 262 4 10  spiel
: 266 2 10 en
: 270 2 10  ü
: 273 3 10 ber
: 279 5 10 all
: 286 4 10  das
: 290 6 11 sel
: 298 8 10 be,
- 308
: 328 5 10 Fal
: 335 5 10 cos
: 342 4 10  neu
: 346 4 10 e
: 351 6 11  L
: 358 9 10 P
- 369
: 387 4 11 Ich
: 392 7 11  hör
: 399 4 11  Ma
: 405 6 11 don
: 411 4 11 na
: 416 5 11  und
: 422 8 11  Chris
: 431 4 13  de
: 437 9 11  Burgh,
- 447
: 448 4 11 und
: 452 5 11  die
: 458 5 13  Ärz
: 465 6 13 te
: 472 5 13  so
: 479 5 15 wie
: 486 6 13 so
- 494
: 498 6 13 Und
: 505 8 15  da
: 514 9 17 rum
* 538 9 18  tret
* 548 8 13  ich
: 562 5 13  dein
: 568 7 13  Ra
: 576 3 15 di
: 580 5 13 o
: 587 9 11  ein
- 598
: 629 7 13 Und
: 637 7 15  da
: 645 6 17 rum
: 652 7 18  hack
: 660 7 13  ich
- 669
: 688 4 13 dein
: 694 5 13  Ra
: 701 4 15 di
: 706 4 13 o
: 713 13 11  klein
- 728
: 764 4 13 Und
: 768 4 15  da
: 772 4 17 rum
: 777 10 18  schmeiß
: 788 9 13  ich
- 799
: 810 4 13 dein
: 814 6 13  Ra
: 820 4 13 di
: 824 4 13 o
: 828 4 15  an
: 832 4 13  die
: 836 7 11  Wand
- 845
: 881 6 13 Und
: 887 8 15  da
: 896 6 17 rum
: 904 8 18  zünd
: 914 8 13  ich
- 924
: 941 5 13 dein
: 947 6 13  Ra
: 954 3 15 di
: 958 6 13 o
: 965 11 11  an
- 978
: 1004 2 8 dein
: 1007 9 10  Ra
: 1017 3 10 di
: 1021 7 8 o
: 1029 18 6  brennt
- 1049
: 1128 3 8 Dein
: 1132 6 10  Ra
: 1139 6 10 di
: 1146 6 8 o
: 1154 12 6  brennt
- 1168
: 1272 3 10 Ich
: 1275 3 10  er
: 1279 4 10 in
: 1284 3 10 ne
: 1287 2 10 re
: 1291 4 10  mich
: 1297 12 10  noch
: 1310 7 10  ganz
: 1318 4 11  ge
: 1323 9 10 nau
- 1334
: 1338 4 10 an
: 1343 4 10  un
: 1348 3 10 se
: 1351 3 10 re
: 1358 7 10  ers
: 1367 4 11 te
: 1372 10 10  Nacht
- 1384
: 1402 4 11 Wir
: 1406 4 11  la
: 1410 3 11 gen
: 1413 5 11  stock
: 1418 3 11 be
: 1421 3 11 sof
: 1424 4 11 fen
: 1428 6 11  auf
: 1434 3 11  dem
: 1437 5 13  Rück
: 1443 6 11 sitz,
- 1449
: 1449 7 11 dann
: 1457 4 11  hast
: 1462 2 11  du
: 1464 3 11  das
: 1469 4 11  Ra
: 1473 6 11 di
: 1479 5 11 o
: 1485 7 11  an
: 1492 4 13 ge
: 1496 11 11 macht
- 1509
: 1526 3 11 Sie
: 1530 7 10  spiel
: 1538 2 10 ten
: 1542 9 10  gra
: 1551 4 10 de
: 1555 5 10  dein
: 1561 6 11  Lieb
: 1568 8 10 lings
: 1577 9 6 lied
- 1588
: 2163 6 10 Je
: 2171 4 10 des
: 2177 8 10  Mal,
: 2185 2 10  wenn
: 2189 6 10  ich
: 2197 6 10  bei
: 2205 4 11  dir
: 2209 10 10  bin,
- 2221
: 2227 4 10 schal
: 2231 4 10 test
: 2237 2 10  du
: 2239 4 10  das
: 2245 4 10  Ra
: 2249 2 11 di
: 2251 2 11 o
: 2257 8 10  ein
- 2267
: 2292 4 11 Im
: 2296 4 11 mer
: 2304 5 11  dann,
: 2312 3 11  wenn
: 2315 3 11  ich
: 2318 5 11  dich
: 2323 5 13  küs
: 2328 8 11 sen
: 2337 8 11  will,
- 2347
: 2349 6 11 lass
: 2357 4 11  ich
: 2363 6 11  es
: 2371 6 11  lie
: 2379 2 13 ber
: 2383 15 11  sein
- 2400
: 2413 4 11 Sie
: 2419 4 10  spiel
: 2423 2 10 en
: 2427 2 10  ü
: 2430 3 10 ber
: 2436 4 10 all
: 2440 5 10  das
: 2445 7 11 sel
: 2453 10 10 be,
- 2465
: 2479 6 10 Fal
: 2487 7 10 cos
: 2495 3 10  neu
: 2498 4 10 e
: 2504 5 11  L
: 2511 8 10 P
- 2521
: 2538 4 11 Ich
: 2543 7 11  hör
: 2551 4 11  Ma
: 2557 5 11 don
: 2564 4 11 na
: 2569 4 11  und
: 2575 7 11  Chris
: 2583 4 13  de
: 2589 9 11  Burgh,
- 2599
: 2599 4 11 nur
: 2603 4 11  die
: 2608 6 13  Ärz
: 2615 6 13 te
: 2622 4 13  hör
: 2628 5 15  ich
: 2636 7 13  nie
- 2645
: 2649 6 13 Und
: 2656 6 15  da
: 2663 10 17 rum
* 2687 7 18  tret
* 2695 9 13  ich
: 2709 4 13  dein
: 2714 7 13  Ra
: 2722 3 15 di
: 2726 4 13 o
: 2732 10 11  ein
- 2744
: 2775 5 13 Und
: 2781 6 15  da
: 2788 7 17 rum
: 2796 8 18  hack
: 2805 8 13  ich
- 2815
: 2834 5 13 dein
: 2840 6 13  Ra
: 2847 3 15 di
: 2851 5 13 o
: 2858 14 11  klein
- 2874
: 2908 4 13 Und
: 2913 3 15  da
: 2916 3 17 rum
: 2921 10 18  schmeiß
: 2932 11 13  ich
- 2945
: 2955 4 13 dein
: 2960 4 13  Ra
: 2964 4 13 di
: 2968 3 13 o
: 2971 4 15  an
: 2975 4 13  die
: 2980 11 11  Wand
- 2993
: 3026 4 13 Und
: 3031 7 15  da
: 3039 5 17 rum
: 3046 7 18  zünd
: 3056 11 13  ich
- 3069
: 3085 4 13 dein
: 3090 6 13  Ra
: 3097 3 15 di
: 3101 5 13 o
: 3108 13 11  an
- 3123
: 3147 3 8 dein
: 3151 6 10  Ra
: 3158 5 10 di
: 3164 6 8 o
: 3172 20 6  brennt
- 3194
: 3271 4 8 Dein
: 3276 6 10  Ra
: 3283 4 10 di
: 3288 5 8 o
: 3295 16 6  brennt
- 3313
: 3412 3 10 Ich
: 3416 5 10  er
: 3421 4 10 in
: 3425 4 10 ne
: 3429 3 10 re
: 3433 3 10  mich
: 3438 11 10  noch
: 3451 6 10  ganz
: 3458 4 11  ge
: 3463 9 10 nau
- 3474
: 3478 4 10 an
: 3483 4 10  un
: 3487 3 10 se
: 3490 6 10 re
: 3498 6 10  ers
: 3505 4 11 te
: 3511 11 10  Nacht
- 3524
: 3540 4 11 Wir
: 3544 6 11  la
: 3550 2 11 gen
: 3553 3 11  stock
: 3556 3 11 be
: 3559 5 11 sof
: 3564 2 11 fen
: 3567 3 11  auf
: 3570 3 11  dem
: 3574 5 13  Rück
: 3580 6 11 sitz,
- 3587
: 3588 3 11 dann
: 3592 4 11  hast
: 3597 3 11  du
: 3601 3 11  das
: 3605 5 11  Ra
: 3611 3 11 di
: 3614 3 11 o
: 3619 8 11  an
: 3628 3 13 ge
: 3632 10 11 macht
- 3644
: 3661 3 11 Sie
: 3665 7 10  spiel
: 3673 2 10 ten
: 3677 6 10  gra
: 3683 4 10 de
: 3688 5 10  dein
: 3695 7 11  Lieb
: 3703 8 10 lings
: 3712 9 6 lied:
- 3723
: 4301 6 10 Je
: 4308 4 10 des
: 4313 5 10  Mal,
: 4319 4 10  wenn
: 4324 4 10  ich
: 4330 7 10  bei
: 4338 5 11  dir
: 4344 12 10  bin,
- 4358
: 4361 5 10 schal
: 4366 4 10 test
: 4371 2 10  du
: 4373 4 10  das
: 4379 4 10  Ra
: 4384 2 11 di
: 4386 2 11 o
: 4392 8 10  aus
- 4402
: 4426 4 11 Im
: 4430 4 11 mer
: 4437 8 11  dann,
: 4445 4 11  wenn
: 4449 3 11  ich
: 4453 4 11  dich
: 4458 5 13  küs
: 4463 4 11 sen
: 4469 11 11  will,
- 4481
: 4482 4 11 lass
: 4488 5 11  ich
: 4494 6 11  es
: 4502 8 11  lie
: 4511 4 13 ber
- 4517
: 4544 4 11 Sie
: 4550 4 10  spiel
: 4554 2 10 en
: 4558 2 10  ü
: 4561 4 10 ber
: 4567 6 10 all
: 4573 3 10  das
: 4577 5 11 sel
: 4584 10 10 be,
- 4596
: 4610 6 10 Fal
: 4618 7 10 cos
: 4626 3 10  neu
: 4629 4 10 e
: 4635 5 11  L
: 4642 8 10 P
- 4652
: 4669 4 11 Ich
: 4674 6 11  hör
: 4682 4 11  Ma
: 4687 5 11 don
: 4693 4 11 na
: 4698 5 11  und
: 4704 6 11  Chris
: 4711 5 13  de
: 4717 9 11  Burgh,
- 4726
: 4726 4 11 und
: 4731 3 11  die
: 4735 6 13  Ärz
: 4743 5 13 te
: 4749 4 13  hör
: 4756 4 15  ich
: 4763 7 13  nie
- 4772
: 4775 6 13 Und
: 4782 6 15  da
: 4790 10 17 rum
* 4814 7 18  tret
* 4822 9 13  ich
: 4836 4 13  dein
: 4841 7 13  Ra
: 4849 3 15 di
: 4853 5 13 o
: 4860 9 11  ein
- 4871
: 4901 5 13 Und
: 4908 6 15  da
: 4915 7 17 rum
: 4923 8 18  hack
: 4932 8 13  ich
- 4942
: 4960 5 13 dein
: 4966 6 13  Ra
: 4973 3 15 di
: 4977 5 13 o
: 4984 14 11  klein
- 5000
: 5034 4 13 Und
: 5039 3 15  da
: 5042 3 17 rum
: 5048 9 18  schmeiß
: 5059 11 13  ich
- 5072
: 5081 4 13 dein
: 5086 3 13  Ra
: 5090 4 13 di
: 5094 3 13 o
: 5098 3 15  an
: 5102 3 13  die
: 5106 11 11  Wand
- 5119
: 5148 4 13 Und
: 5156 7 15  da
: 5164 5 17 rum
: 5171 7 18  zünd
: 5180 12 13  ich
- 5194
: 5207 4 13 dein
: 5212 6 13  Ra
: 5219 3 15 di
: 5223 6 13 o
: 5231 12 11  an
- 5245
: 5268 3 8  dein
: 5273 6 10  Ra
: 5280 5 10 di
: 5286 6 8 o
: 5294 20 6  brennt
- 5316
: 5392 4 8 Dein
: 5397 5 10  Ra
: 5403 3 10 di
: 5408 6 8 o
: 5416 16 6  brennt
- 5434
: 5509 3 10 Ich
: 5522 11 10  er
: 5540 3 10 in
: 5543 3 10 ne
: 5546 3 10 re
: 5550 6 10  mich
: 5559 10 10  noch
: 5570 6 10  ganz
: 5577 3 11  ge
: 5581 12 10 nau
- 5594
: 5594 4 10 an
: 5599 4 10  un
: 5603 3 10 se
: 5606 5 10 re
: 5612 9 10  ers
: 5622 4 11 te
: 5627 12 10  Nacht
- 5641
: 5655 4 11 Wir
: 5659 5 11  la
: 5664 4 11 gen
: 5668 4 11  stock
: 5672 2 11 be
: 5674 5 11 sof
: 5679 2 11 fen
: 5682 3 11  auf
: 5685 3 11  dem
: 5689 5 13  Rück
: 5695 6 11 sitz,
- 5702
: 5703 3 11 dann
: 5707 4 11  hast
: 5712 3 11  du
: 5716 3 11  das
: 5720 5 11  Ra
: 5726 3 11 di
: 5729 3 11 o
: 5735 7 11  an
: 5743 3 13 ge
: 5747 10 11 macht
- 5759
: 5773 3 11 Sie
: 5777 7 10  spiel
: 5785 4 10 ten
: 5790 7 10  gra
: 5797 3 10 de
: 5801 5 10  dein
: 5808 7 11  Lieb
: 5816 8 10 lings
: 5825 7 6 lied
- 5832
: 5832 5 10 Mir
: 5839 6 11  wur
: 5845 3 11 de
: 5851 9 11  schlecht,
: 5861 7 11  du
: 5869 8 11  zogst
: 5878 4 11  dich
: 5883 7 11  aus
- 5891
: 5892 8 11 dann
: 5901 7 13  lief
: 5909 5 13  ich
: 5915 6 15  schrei
: 5922 8 13 end
: 5931 6 13  weg
- 5938
: 5940 4 13 Und
: 5948 6 15  da
: 5955 8 17 rum
* 5979 7 18  tret
* 5988 9 13  ich
: 6002 5 13  dein
: 6008 6 13  Ra
: 6015 3 15 di
: 6018 6 13 o
: 6025 11 11  ein
- 6038
: 6063 7 13 Und
: 6071 7 15  da
: 6079 5 17 rum
: 6085 8 18  hack
: 6094 6 13  ich
- 6102
: 6121 4 13 dein
: 6126 6 13  Ra
: 6133 4 15 di
: 6138 6 13 o
: 6145 8 11  klein
- 6155
: 6193 3 13 Und
: 6197 3 15  da
: 6201 3 17 rum
* 6218 9 18  schmeiß
* 6229 5 13  ich
- 6236
: 6239 4 13 dein
: 6244 4 13  Ra
: 6249 3 13 di
: 6252 3 13 o
: 6255 4 15  an
: 6260 3 13  die
: 6265 8 11  Wand
- 6275
: 6307 4 13 Und
: 6312 4 15  da
: 6318 7 17 rum
* 6327 7 18  zünd
: 6337 6 13  ich
- 6345
: 6365 3 13 dein
: 6369 6 13  Ra
: 6376 4 15 di
: 6381 4 13 o
: 6386 6 11  an
- 6394
: 6424 4 8 Dein
: 6429 6 10  Ra
: 6436 4 10 di
: 6441 5 8 o
: 6448 10 6  brennt
- 6460
: 6485 4 8 Dein
: 6490 5 10  Ra
: 6496 4 10 di
: 6501 6 8 o
: 6508 8 6  brennt
- 6518
: 6545 5 8 Dein
: 6551 5 10  Ra
: 6557 4 10 di
: 6562 6 8 o
: 6570 7 6  brennt
- 6579
: 6607 3 8 Dein
: 6611 7 10  Ra
: 6619 3 10 di
: 6623 7 8 o
: 6631 6 6  brennt
- 6639
: 6666 4 13 Dein
: 6671 7 13  Ra
: 6679 3 13 di
: 6683 7 13 o
* 6692 9 15  brennt
- 6703
: 6727 3 15 Dein
: 6731 7 15  Ra
: 6739 3 13 di
: 6743 7 15 o
: 6751 8 13  brennt
- 6761
: 6787 3 13 Dein
: 6791 7 13  Ra
: 6799 4 13 di
: 6804 6 13 o
* 6812 8 15  brennt
- 6822
: 6848 3 15 Dein
: 6852 7 15  Ra
: 6860 3 15 di
: 6864 6 15 o
* 6872 26 17  brennt
- 6900
: 6906 7 13 Und
: 6914 7 15  da
: 6922 6 17 rum
- 6930
: 7522 5 13 Und
: 7528 5 15  da
: 7534 7 17 rum
* 7556 5 18  tret
* 7564 8 13  ich
: 7580 2 13 dein
: 7583 6 13  Ra
: 7590 4 15 di
: 7595 6 13 o
: 7603 7 11  ein
- 7612
: 7641 6 13 Und
: 7648 5 15  da
: 7654 6 17 rum
: 7662 7 18  hack
: 7670 8 13  ich
- 7680
: 7697 4 13 dein
: 7702 5 13  Ra
: 7708 5 15 di
: 7714 5 13 o
: 7721 8 11  klein
- 7731
: 7768 3 13 Und
: 7772 3 15  da
: 7775 3 17 rum
: 7781 8 18  schmeiß
: 7792 6 13  ich
- 7800
: 7810 2 13 dein
: 7814 5 13  Ra
: 7819 6 13 di
: 7825 3 13 o
: 7828 3 15  an
: 7832 3 13  die
: 7837 7 11  Wand
- 7846
: 7879 3 13 Und
: 7883 3 15  da
: 7890 6 17 rum
: 7899 7 18  zünd
: 7911 7 13  ich
- 7920
: 7936 5 13 dein
: 7942 6 13  Ra
: 7949 3 15 di
: 7953 4 13 o
: 7958 7 11  an
- 7967
: 7991 3 8 Und
: 7995 3 8  dein
: 7999 7 10  Ra
: 8007 4 10 di
: 8012 5 8 o
: 8019 9 6  brennt
- 8030
: 8115 3 8 Dein
: 8119 6 10  Ra
: 8126 4 10 di
: 8131 5 8 o
: 8139 9 6  brennt
E