#TITLE:Zehn Kleine Jägermeister
#ARTIST:Die Toten Hosen
#LANGUAGE:Deutsch
#EDITION:SingStar Die Toten Hosen
#GENRE:Pop
#YEAR:1996
#MP3:Die Toten Hosen - Zehn Kleine Jägermeister.mp3
#COVER:Die Toten Hosen - Zehn Kleine Jägermeister [CO].jpg
#BACKGROUND:Die Toten Hosen - Zehn Kleine Jägermeister [BG].jpg
#VIDEO:Die Toten Hosen - Zehn Kleine Jägermeister [VD#0].avi
#VIDEOGAP:0
#BPM:350
#GAP:2100
: 0 13 55 Ein
: 19 10 55  klei
: 30 9 55 ner
: 41 8 55  Jä
: 52 6 50 ger
: 61 5 50 meis
: 71 7 50 ter
- 79
: 81 10 55 War
: 94 6 55  nicht
: 106 13 57  gern
: 120 11 57  al
: 133 21 59 lein
- 156 157
: 173 9 59 Drum
: 185 10 60  lud
: 198 9 60  er
: 213 7 57  sich
- 222
: 228 8 57 Zum
: 239 12 59  Weih
: 252 6 59 nachts
: 264 6 55 fest
- 272 273
: 294 12 55 Neun
: 310 11 57  Jä
: 323 10 57 ger
: 339 10 54 meis
: 356 15 54 ter
: 375 24 55  ein
- 401 631
: 651 9 55 Zehn
: 665 9 55  klei
: 676 3 55 ne
: 680 4 55  Jä
: 687 3 50 ger
: 694 3 50 meis
: 701 4 50 ter
- 706
: 708 3 55 Rauch
: 715 4 55 ten
: 722 6 57  ei
: 729 2 57 nen
: 736 9 59  Joint
- 747 748
: 757 3 59 Den
* 764 7 60  ei
: 772 2 60 nen
: 779 2 57  hat
: 786 2 57  es
: 793 3 59  um
: 799 4 59 ge
: 806 7 55 haun
- 814
: 814 4 55 Da
: 821 6 57  wa
: 828 3 57 ren's
: 835 5 54  nur
: 842 3 54  noch
: 849 9 55  neun
- 860 861
: 877 12 55 Neun
: 892 10 55  klei
: 903 2 55 ne
: 906 5 55  Jä
: 913 3 50 ger
: 920 3 50 meis
: 927 4 50 ter
- 932
: 934 5 55 Woll
: 942 4 55 ten
: 949 5 57  ger
: 956 4 57 ne
: 963 6 59  er
: 971 5 59 ben
- 978
: 984 3 59 Da
: 991 3 59 mit
: 998 2 60  es
: 1005 2 57  was
: 1012 3 57  zu
: 1019 4 59  er
: 1026 3 59 ben
: 1033 6 55  gab
- 1041
: 1047 3 57 Muss
: 1054 5 57 te
: 1061 5 54  ei
: 1068 3 54 ner
* 1075 7 55  ster
: 1083 4 55 ben
- 1089 1090
: 1103 5 55 Acht
: 1118 10 55  klei
: 1129 2 55 ne
: 1132 5 55  Jä
: 1139 4 50 ger
: 1146 3 50 meis
: 1153 4 50 ter
- 1158
: 1160 6 55 Fuh
: 1167 2 55 ren
: 1174 6 57  ger
: 1181 2 57 ne
: 1188 9 59  schnell
- 1199 1200
: 1218 5 60 Sie
: 1224 3 60 ben
: 1231 5 57  fuhr'n
: 1238 3 57  nach
: 1245 4 59  Düs
: 1253 4 59 sel
: 1260 4 55 dorf
- 1265
: 1267 3 55 Und
: 1274 6 57  ei
: 1281 3 57 ner
: 1288 5 54  fuhr
: 1294 3 54  nach
: 1302 10 55  Köln
- 1314 1315
: 1329 6 62 Ei
: 1336 8 64 ner
: 1348 5 62  für
: 1354 11 64  al
: 1366 7 62 le
- 1375
: 1378 5 62 Al
: 1384 6 64 le
: 1395 5 62  für
: 1401 5 62  ei
: 1407 5 57 nen
- 1414 1415
: 1423 5 60 Wenn
: 1429 9 62  ei
: 1440 3 60 ner
: 1446 5 62  fort
: 1453 5 62  ist
- 1460
: 1463 5 60 Wer
: 1469 4 62  wird
: 1476 6 62  denn
: 1486 3 60  gleich
: 1492 6 59  wei
: 1499 8 55 nen?
- 1509
: 1515 6 62 Ein
: 1522 7 64 mal
: 1533 3 62  trifft's
: 1540 9 64  je
: 1550 6 62 den
- 1558
* 1562 6 67 Är
: 1569 9 67 ger
: 1579 4 66  dich
: 1587 6 64  nicht
- 1595 1596
: 1610 5 60 So
: 1616 5 62  geht's
: 1627 3 60  im
: 1632 10 62  Le
: 1643 9 60 ben
- 1654
: 1656 7 59 Du
: 1664 9 59  o
: 1674 4 57 der
: 1680 6 55  ich
- 1688 1773
: 1793 6 55 Sie
: 1800 3 55 ben
: 1807 6 55  klei
: 1814 7 55 ne
: 1822 6 55  Jä
* 1829 4 50 ger
: 1836 3 50 meis
: 1843 5 50 ter
- 1849
: 1850 4 55 War'n
: 1857 4 55  beim
: 1864 6 57  Ren
: 1871 4 57 dez
: 1878 7 59 vous
- 1887 1888
: 1899 6 57 Bei
: 1906 7 60  ei
: 1914 2 60 nem
: 1921 4 57  kam
: 1928 2 57  ganz
: 1935 3 59  un
: 1942 6 59 ver
: 1949 3 55 hofft
- 1954
: 1956 4 55 Der
: 1963 6 57  E
: 1970 3 57 he
: 1977 5 54 mann
: 1984 3 54  hin
: 1991 9 55 zu
- 2002 2003
: 2019 5 55 Sechs
: 2034 10 55  klei
: 2045 2 55 ne
: 2048 5 55  Jä
: 2055 3 50 ger
: 2062 3 50 meis
: 2069 4 50 ter
- 2074
: 2076 5 55 Woll
: 2084 2 55 ten
: 2091 3 57  Steu
: 2095 4 57 ern
* 2105 8 59  spar'n
- 2115 2116
: 2133 6 60 Ei
: 2140 4 60 ner
: 2147 5 57  wur
: 2154 3 57 de
: 2161 5 59  ein
: 2168 4 59 ge
: 2175 2 55 locht
- 2179
: 2182 2 55 Fünf
: 2189 4 57  durf
: 2196 4 57 ten
: 2203 4 54  nach
: 2210 3 54 be
: 2217 10 55 zahl'n
- 2229 2230
: 2246 5 55 Fünf
: 2260 10 55  klei
: 2271 2 55 ne
: 2274 5 55  Jä
: 2281 4 50 ger
: 2288 3 50 meis
: 2295 5 50 ter
- 2301
: 2302 6 55 Wur
: 2309 3 55 den
: 2316 5 57  kon
: 2323 6 57 trol
: 2330 8 59 liert
- 2340 2341
: 2351 3 57 Ein
: 2360 2 60  Po
: 2363 4 60 li
: 2372 3 57 zist
: 2379 4 57  nahm's
: 2387 2 59  zu
: 2390 4 59  ge
: 2396 9 55 nau
- 2406
: 2407 5 55 Da
: 2414 4 57  war'n
: 2422 4 57  sie
: 2428 4 54  noch
: 2435 4 54  zu
: 2443 8 55  viert
- 2453 2454
: 2470 7 62 Ei
: 2478 8 64 ner
: 2490 5 62  für
: 2496 11 64  al
: 2508 7 62 le
- 2517
: 2520 5 62 Al
: 2526 6 64 le
: 2537 5 62  für
: 2543 5 62  ei
: 2549 5 57 nen
- 2556 2557
: 2565 5 60 Wenn
: 2571 9 62  ei
: 2582 3 60 ner
: 2588 5 62  fort
: 2595 5 62  ist
- 2602
: 2605 5 60 Wer
: 2611 4 62  wird
: 2618 6 62  denn
: 2628 3 60  gleich
: 2634 6 59  wei
: 2641 8 55 nen?
- 2651
: 2657 6 62 Ein
: 2664 7 64 mal
: 2675 3 62  trifft's
: 2682 9 64  je
: 2692 6 62 den
- 2700
: 2704 6 67 Är
: 2711 9 67 ger
: 2721 4 66  dich
: 2729 6 64  nicht
- 2737 2738
: 2752 5 60 So
: 2758 5 62  geht's
: 2769 3 60  im
: 2774 10 62  Le
: 2785 9 60 ben
- 2796
: 2798 7 59 Du
: 2806 9 59  o
: 2816 4 57 der
: 2822 6 55  ich
- 2830 2831
: 2843 8 67 Ein
: 2855 17 67 mal
: 2877 6 64  muss
: 2889 10 62  je
: 2900 5 64 der
: 2906 10 62  geh'n
- 2918
: 2923 6 67 Und
: 2934 6 69  wenn
: 2944 9 69  dein
: 2956 6 67  Herz
: 2967 6 66  zer
: 2974 6 67 bricht
- 2982 2983
: 3000 7 64 Da
: 3011 7 66 von
: 3022 8 67  wird
: 3033 6 67  die
: 3040 11 67  Welt
- 3053
: 3056 5 64 Nicht
: 3067 6 62  un
: 3078 4 64 ter
: 3084 7 62 geh'n
- 3093
: 3100 6 67 Mensch
: 3111 15 69  är
: 3128 14 67 ger
: 3144 6 66  dich
: 3156 7 67  nicht
- 3165 3355
: 3375 9 55 Vier
: 3389 9 55  klei
: 3400 3 55 ne
: 3404 4 55  Jä
: 3411 3 50 ger
: 3418 3 50 meis
: 3425 4 50 ter
- 3430
: 3432 3 55 Bei
: 3439 4 55  der
: 3446 6 57  Bun
: 3453 2 57 des
: 3460 9 59 wehr
- 3471 3472
: 3481 3 59 Sie
* 3488 7 60  tran
: 3496 2 60 ken
: 3503 2 57  um
: 3510 2 57  die
: 3517 3 59  Wet
: 3523 6 55 te
- 3531
: 3537 4 55 Den
: 3544 3 57  Bes
: 3551 3 57 ten
: 3558 4 54  gibt's
: 3565 3 54  nicht
: 3572 8 55  mehr
- 3582 3583
: 3600 12 55 Drei
: 3615 10 55  klei
: 3626 2 55 ne
: 3629 5 55  Jä
: 3636 3 50 ger
: 3643 3 50 meis
: 3650 4 50 ter
- 3655
: 3657 2 55 Gin
: 3660 5 55 gen
: 3670 3 57  ins
: 3677 4 57  Lo
: 3684 9 59 kal
- 3695 3696
: 3705 3 59 Dort
: 3712 3 60  gab's
: 3719 2 60  zwei
: 3727 2 57  Steaks
: 3734 3 57  mit
: 3741 4 59  Boh
: 3748 4 55 nen
- 3754
: 3761 3 55 Und
: 3769 3 57  eins
: 3776 5 57  mit
: 3783 5 54  Rin
: 3790 3 54 der
* 3797 8 55 wahn
- 3807 3808
: 3824 9 55 Zwei
: 3839 10 55  klei
: 3850 2 55 ne
: 3853 5 55  Jä
: 3860 4 50 ger
: 3867 3 50 meis
: 3874 4 50 ter
- 3879
: 3881 5 55 Ba
: 3888 3 55 ten
: 3895 6 57  um
: 3902 4 57  A
: 3909 10 59 syl
- 3921 3922
: 3937 6 60 Ei
: 3944 3 60 ner
: 3950 5 57  wur
: 3957 3 57 de
: 3964 4 59  an
: 3970 4 59 ge
: 3976 5 55 nomm'
- 3982
: 3983 5 55 Der
: 3990 6 57  an
: 3997 5 57 d're
: 4004 5 54  war
: 4011 4 54  zu
: 4018 10 55  viel
- 4030 4031
* 4047 10 62 Ei
: 4058 9 64 ner
: 4073 8 62  für
: 4082 12 64  al
: 4095 8 62 le
- 4105
: 4111 7 62 Al
: 4119 9 64 le
: 4132 6 62  für
: 4139 7 62  ei
: 4147 7 57 nen
- 4156 4157
: 4167 5 60 Wenn
: 4174 11 62  ei
: 4186 5 60 ner
: 4193 6 62  fort
: 4201 6 62  ist
- 4209
: 4213 4 60 Wer
: 4220 5 62  wird
: 4227 6 62  denn
: 4238 4 60  gleich
: 4245 7 59  wei
: 4253 5 55 nen?
- 4260 4261
: 4269 5 62 Ein
: 4276 8 64 mal
: 4287 2 62  trifft's
: 4293 13 64  je
: 4307 4 62 den
- 4313
: 4317 6 67 Är
: 4324 9 67 ger
: 4334 4 66  dich
: 4340 5 64  nicht
- 4347 4348
: 4362 5 60 So
: 4368 7 62  geht's
: 4379 2 60  im
: 4384 10 62  Le
: 4396 6 60 ben
- 4404
: 4407 5 59 Du
: 4413 9 59  o
: 4424 4 57 der
: 4429 4 55  ich
- 4435 4436
: 4451 8 67 Ein
: 4461 15 67 mal
: 4481 5 64  muss
: 4492 9 62  je
: 4502 2 64 der
: 4508 7 62  geh'n
- 4517
: 4522 6 67 Und
: 4532 7 69  wenn
: 4542 6 69  dein
: 4552 5 67  Herz
: 4562 5 66  zer
: 4568 5 67 bricht
- 4575 4576
: 4591 6 64 Da
: 4601 5 66 von
: 4611 6 67  wird
: 4620 6 67  die
: 4627 7 67  Welt
- 4636
: 4641 6 64 Nicht
: 4651 6 62  un
: 4661 5 64 ter
: 4667 6 62 geh'n
- 4675
: 4681 6 67 Mensch
: 4691 14 69  är
: 4706 12 67 ger
: 4720 5 66  dich
: 4730 8 67  nicht
- 4740 4741
* 4768 5 62 Ei
: 4775 6 64 ner
: 4785 3 62  für
: 4789 8 64  al
: 4798 9 62 le
- 4808
: 4809 5 62 Al
: 4815 6 64 le
: 4824 4 62  für
: 4829 5 62  ei
: 4835 7 57 nen
- 4844
: 4849 3 60 Wenn
: 4855 5 62  wir
: 4864 2 60  mal
: 4868 4 62  fort
: 4875 6 62  sind
- 4882
: 4884 2 60 Wer
: 4888 4 62  wird
: 4894 5 62  denn
: 4903 3 60  gleich
: 4908 5 59  wei
: 4915 5 55 nen?
- 4922
: 4928 4 62 Ein
: 4934 7 64 mal
: 4944 2 62  trifft's
: 4949 8 64  je
: 4958 6 62 den
- 4966
: 4968 5 67 Är
: 4975 8 67 ger
: 4984 3 66  dich
: 4989 5 64  nicht
- 4996 4997
: 5008 5 60 So
: 5014 5 62  geht's
: 5023 3 60  im
: 5028 9 62  Le
: 5038 6 60 ben
- 5046
: 5048 5 59 Du
: 5054 8 59  o
: 5064 3 57 der
: 5068 6 55  ich
- 5076 5077
: 5087 8 67 Ein
: 5098 16 67 mal
: 5118 4 64  muss
: 5128 9 62  je
: 5137 5 64 der
: 5143 6 62  geh'n
- 5151
: 5156 7 67 Und
: 5167 6 69  wenn
: 5177 7 69  dein
: 5186 5 67  Herz
: 5196 5 66  zer
: 5202 5 67 bricht
- 5209 5210
: 5225 6 64 Da
: 5234 6 66 von
: 5245 5 67  wird
: 5254 4 67  die
: 5259 9 67  Welt
- 5270
: 5274 5 64 Nicht
: 5284 5 62  un
: 5293 4 64 ter
: 5299 8 62 geh'n
- 5309
: 5313 6 67 Mensch
: 5324 13 69  är
: 5340 11 67 ger
: 5353 5 66  dich
: 5363 6 67  nicht
- 5370
: 5372 10 64 Ja
: 5383 6 65  da
: 5392 7 66 von
: 5402 7 67  wird
: 5412 5 67  die
: 5418 8 67  Welt
- 5428
: 5431 6 64 Nicht
: 5441 6 62  un
: 5450 5 64 ter
: 5456 6 62 geh'n
- 5464
: 5470 7 67 Mensch
: 5481 16 69  är
: 5499 15 67 ger
: 5516 7 66  dich
: 5531 24 67  nicht
- 5557 5741
: 5761 10 57 Ein
: 5775 9 57  klei
: 5785 4 57 ner
: 5790 5 57  Jä
: 5796 4 52 ger
: 5803 3 52 meis
: 5810 5 52 ter
- 5816
: 5817 5 57 War
: 5824 3 57  nicht
: 5831 6 59  gern
: 5838 6 59  al
: 5846 7 61 lein
- 5855 5856
: 5867 3 61 Drum
: 5874 3 62  lud
: 5881 4 62  er
: 5888 2 59  sich
- 5892
: 5895 3 59 Zum
: 5901 4 61  Os
: 5909 3 61 ter
: 5915 2 57 fest
- 5919
: 5923 5 57 Neun
: 5931 7 59  ne
: 5939 4 59 ue
: 5946 4 56  Meis
: 5954 7 56 ter
* 5965 18 57  ein
E
