#TITLE:MFG
#ARTIST:Die Fantastischen Vier
#LANGUAGE:Deutsch
#MP3:Die Fantastischen Vier - MFG.mp3
#COVER:Die Fantastischen Vier - MFG.jpg
#VIDEO:Die Fantastischen Vier - MFG.flv
#BPM:92
#GAP:24000
: 0 1 0 A
: 1 1 2 R
: 2 2 -5 D
: 4 1 -5  Z
: 5 1 2 D
: 6 2 -5 F
: 10 1 2  C
: 11 1 2 &
: 12 1 2 A
- 14
: 16 1 2  B
: 17 1 2 R
: 18 2 5 D
: 20 1 4  D
: 21 1 3 D
: 22 2 2 R
: 26 1 0  und
: 27 1 2  U
: 28 1 2 S
: 29 1 2 A
- 31
: 33 1 0  B
: 34 1 2 S
: 35 1 -5 E
: 37 1 0  H
: 38 1 2 I
: 39 1 -5 V
: 42 1 -5  und
: 43 1 2  D
: 44 1 -5 R
: 45 2 2 K
- 48
: 49 1 2  G
: 50 1 2 b
: 51 1 5 R
: 52 1 5  G
: 53 1 4 m
: 54 1 4 b
: 55 1 3 H
: 58 1 0  ihr
: 59 1 2  könnt
: 60 1 0  -
: 61 1 -2 mich
: 62 2 -2  mal
- 65
: 65 1 0  T
: 66 1 2 H
: 67 2 -5 X
: 69 1 0  V
: 70 1 2 H
: 71 2 -5 S
: 74 1 -5  und
: 75 1 2  F
: 76 2 -5 S
: 78 2 2 K
- 81
: 81 1 2  R
: 82 1 2 A
: 83 2 5 F
: 85 1 5  L
: 86 1 5 S
: 87 2 2 D
: 90 1 0  und
: 91 2 2  F
: 93 1 -2 K
: 94 2 -2 K
- 97
: 97 1 0  D
: 98 1 2 V
: 99 1 -5 U
: 101 1 0  A
: 102 1 2 K
: 103 2 -5 W
: 106 1 -5  und
: 107 2 2  K
: 109 1 2 K
: 110 2 2 K
- 113
: 113 1 2  R
: 114 1 2 H
: 115 2 5 P
: 118 1 4  U
: 119 1 4 S
: 120 1 3 W
: 123 1 0  L
: 124 1 2 M
: 125 1 -2 A
: 126 2 -2 A
- 129
: 129 1 0  P
: 130 1 2 L
: 131 2 -5 Z
: 133 1 0  U
: 134 1 2 P
: 135 2 -5 S
: 139 1 -5  und
: 140 1 0  D
: 141 1 2 P
: 142 1 2 D
- 144
: 146 1 2  B
: 147 1 2 M
: 148 2 5 X
: 150 1 4  B
: 151 1 4 P
: 152 1 3 M
: 155 1 3  und
: 156 1 2 X
: 157 1 2 T
: 158 3 2 C
- 162
: 162 1 0  E
: 163 1 2 M
: 164 1 -5 I
: 166 1 0  C
: 167 1 2 B
: 168 2 -5 S
: 171 1 -5  und
: 172 1 0  B
: 173 1 2 M
: 174 2 2 G
- 177
: 177 1 2  A
: 178 1 2 D
: 179 1 2 A
: 180 1 2 C
: 181 1 5  D
: 182 1 5 L
: 183 1 4 R
: 184 2 4 G
: 187 1 0  o
: 188 1 2 je
: 189 1 2 mi
: 190 2 2 ne
- 193
: 194 1 0  E
: 195 1 2 K
: 196 2 -5 Z
: 198 1 0  R
: 199 1 2 T
: 200 1 -5 L
: 203 1 -5  und
: 204 1 0  D
: 205 1 2 F
: 206 2 2 B
- 209
: 210 1 2  A
: 211 1 2 B
: 212 2 5 S
: 214 1 4  T
: 215 1 3 Ü
: 216 2 3 V
: 220 1 -5  und
: 221 1 0  B
: 222 1 2 M
: 223 1 2 W
- 225
: 226 1 0  K
: 227 1 2 M
: 228 2 -5 H
: 231 1 0  I
: 232 1 2 C
: 233 1 -5 E
: 236 1 -5  und
: 237 1 0  E
: 238 1 2 sche
: 239 2 2 de
- 242
: 243 1 2  P
: 244 1 2 V
: 245 1 5 C
: 246 1 5  F
: 247 1 5 C
: 248 1 5 K
: 249 2 3 W
: 252 1 0  is´
: 253 2 0  nich´
: 255 1 2  o.
: 256 1 2 k.
- 259
: 277 1 2  M
: 278 2 2 f
: 280 3 2 g
- 284
: 284 1 -2  mit
: 285 1 2  freund
: 286 1 0 li
: 287 1 -2 chen
: 288 2 2  Grüs
: 290 2 -2 sen
- 292
: 292 1 -2  die
: 293 1 0  Welt
: 294 1 0  liegt
: 295 1 0  uns
: 296 1 0  zu
: 297 1 0  Füs
: 298 1 0 sen
- 299
: 299 1 0  denn
: 300 1 -2  wir
: 301 1 2  ste
: 302 2 0 hen
: 304 2 -2  drauf
- 307
: 307 1 -2  wir
: 308 2 2  gehen
: 310 2 0  darauf
: 312 1 0  für
: 313 1 -2 ein
: 314 1 0  Leben
- 315
: 315 1 0  vol
: 316 1 -2 ler
: 317 2 2  Schall
: 319 1 0  und
: 320 3 -2  Rauch
- 325
: 327 1 0  Be
: 328 1 0 vor
: 329 1 -2  wir
: 330 1 0 fallen,
: 331 2 0  fallen
: 333 1 -2  wir
: 334 1 2  lie
: 335 1 0 ber
: 336 3 -2  auf.
- 340
: 342 1 2  M
: 343 2 2 f
: 345 3 2 g
- 349
: 349 1 -2  mit
: 350 1 2  freund
: 351 1 0 li
: 352 1 -2 chen
: 353 1 2  Grüs
: 354 3 -2 sen
- 357
: 357 1 -2  die
: 358 1 0  Welt
: 359 1 0  liegt
: 360 1 0  uns
: 361 1 0  zu
: 362 1 0  Füs
: 363 1 0 sen
- 364
: 364 1 0  denn
: 365 1 -2  wir
: 366 1 2  ste
: 367 1 0 hen
: 368 3 -2  drauf
- 371
: 371 1 -2  wir
: 372 2 2  gehen
: 374 2 0  darauf
- 376
: 376 1 0  für
: 377 1 -2 ein
: 378 2 0  Leben
: 380 1 0  vol
: 381 1 -2 ler
: 382 1 2  Schall
: 383 1 0  und
: 384 4 -2  Rauch
- 389
: 391 1 0  Be
: 392 1 0 vor
: 393 1 -2  wir
: 394 3 0  fallen,
: 398 2 0  fallen
: 400 1 -2  wir
: 401 1 0  lie
: 402 1 -2 ber
: 403 3 0  auf.
- 408
: 453 1 0  H
: 454 1 2 N
: 455 2 -5 O
: 457 1 -5  E
: 458 1 -5 K
: 459 2 2 G
: 462 1 -5  und
: 463 1 2  A
: 464 2 2 O
: 466 2 2 K
- 469
: 469 1 2  L
: 470 1 2 B
: 471 2 5 S
: 473 1 4  W
: 474 1 3 K
: 475 2 2 D
: 478 1 0  und
: 479 1 2  I
: 480 2 2 H
: 482 2 2 K
- 485
: 486 1 0  U
: 487 1 2 K
: 488 1 -5 W
: 490 1 0  N
: 491 1 2 D
: 492 1 -5 W
: 495 1 -5  und
: 496 1 2  Hu
: 497 2 -5 bert
: 499 2 2  Kah
- 502
: 502 1 2  B
: 503 1 2 T
: 504 1 5 M
: 506 1 5  B
: 507 1 4 K
: 508 1 4 A
: 511 1 3  Ha
: 512 1 2 ha
: 513 1 2 ha
: 514 2 2 ha
- 517
: 518 1 0 L
: 519 1 2 T
: 520 1 -5 U
: 522 1 0  T
: 523 1 2 N
: 524 1 -5 T
: 527 1 -5  und
: 528 1 2  I
: 529 2 -5 R
: 531 1 2 A
- 533
: 534 1 2  N
: 535 1 2 T
: 536 2 5 V
: 538 1 5  T
: 539 1 5 H
: 540 1 2 W
: 543 1 0  und
: 544 1 2  D
: 545 2 -2 P
: 547 2 -2 A
- 550
: 550 1 0  H
: 551 1 2 &
: 552 2 -5 M
: 554 1 0  B
: 555 1 2 S
: 556 2 -5 B
: 560 1 -5  und
: 561 1 2  F
: 562 1 2 D
: 563 2 2 H
- 566
: 566 1 2  S
: 567 1 2 O
: 568 2 5 S
: 570 1 4  1
: 571 2 4 1
: 573 2 3 0
: 576 1 0  ta
: 577 1 2 tü
: 578 1 -2 ta
: 579 2 -2 ta
- 582
: 583 1 0  S
: 584 1 2 E
: 585 1 -5 D
: 587 1 0  F
: 588 1 2 D
: 589 2 -5 J
: 592 1 -5  und
: 593 1 0  K
: 594 1 2 D
: 595 1 2 W
- 597
: 599 1 2  F
: 600 1 2 A
: 601 1 5 Z
: 603 1 4  B
: 604 1 4 W
: 605 2 3 L
: 608 1 0  und
: 609 1 2  F
: 610 1 2 D
: 611 2 2 P
- 614
: 615 1 0  E
: 616 1 2 D
: 617 2 -5 V
: 619 1 0  I
: 620 1 2 B
: 621 1 -5 M
: 624 1 -5  und
: 625 1 0  w
: 626 2 2 w
: 628 2 2 w
- 631
: 631 1 2  H
: 632 1 2 S
: 633 2 5 V
: 635 1 4  V
: 636 1 4 f
: 637 1 3 B
: 640 1 0  o
: 641 1 2 lé
: 642 1 0  o
: 643 2 2 lé
- 646
: 647 1 0  A
: 648 1 2 B
: 649 1 2 C
: 651 1 0  D
: 652 1 2 A
: 653 1 -5 F
: 656 1 -5  und
: 657 1 0  O
: 658 1 2 M
: 659 2 2 D
- 662
: 663 1 2  T
: 664 1 2 M
: 665 2 5 3
: 667 1 4  A
: 668 1 4 &
: 669 1 3 O
: 673 1 -5  und
: 674 1 0  A
: 675 1 2 E
: 676 2 2 G
- 679
: 680 1 0  T
: 681 1 2 U
: 682 1 -5 I
: 684 1 0  U
: 685 1 2 V
: 686 1 -5 A
: 689 1 -5  und
: 690 1 0  U
: 691 1 2 V
: 692 2 2 B
- 695
: 696 1 2  T
: 697 1 2 H
: 698 1 5 C
: 699 1 5  in
: 700 1 5 O
: 701 1 5 C
: 702 1 3 B
: 705 1 0  is´
: 706 2 0  was
: 708 1 2  ich
: 709 3 2  dreh´
- 714
: 730 1 2  M
: 731 2 2 f
: 733 3 2 g
- 737
: 737 1 -2  mit
: 738 1 2  freund
: 739 1 0 li
: 740 1 -2 chen
: 741 2 2  Grüs
: 743 2 -2 sen
- 745
: 745 1 -2  die
: 746 1 0  Welt
: 747 1 0  liegt
: 748 1 0  uns
: 749 1 0  zu
: 750 1 0  Füs
: 751 1 0 sen
- 752
: 752 1 0  denn
: 753 1 -2  wir
: 754 1 2  ste
: 755 1 0 hen
: 756 3 -2  drauf
- 760
: 760 1 -2  wir
: 761 2 2  gehen
: 763 1 0  darauf
- 764
: 764 1 0  für
: 765 1 -2 ein
: 766 2 0  Leben
: 768 1 0  vol
: 769 1 -2 ler
: 770 1 2  Schall
: 771 1 0  und
: 772 3 -2  Rauch
- 777
: 779 1 0  Be
: 780 1 0 vor
: 781 1 -2  wir
: 782 2 0 fallen,
: 784 2 0  fallen
: 786 1 -2  wir
: 787 1 2  lie
: 788 1 0 ber
: 789 2 -2  auf.
- 793
: 795 1 2  M
: 796 2 2 f
: 798 4 2 g
- 802
: 802 1 -2  mit
: 803 1 2  freund
: 804 1 0 li
: 805 1 -2 chen
: 806 2 2  Grüs
: 808 1 -2 sen
- 810
: 810 1 -2  die
: 811 1 0  Welt
: 812 1 0  liegt
: 813 1 0  uns
: 814 1 0  zu
: 815 1 0  Füs
: 816 1 0 sen
- 817
: 817 1 0  denn
: 818 1 -2  wir
: 819 1 2  ste
: 820 1 0 hen
: 821 2 -2  drauf
- 824
: 824 1 -2  wir
: 825 2 2  gehen
: 827 2 0  darauf
: 829 1 0  für
: 830 1 -2 ein
: 831 1 0  Leben
- 833
: 833 1 0  vol
: 834 1 -2 ler
: 835 1 2  Schall
: 836 1 0  und
: 837 4 -2  Rauch
- 842
: 844 1 0  Be
: 845 1 0 vor
: 846 1 -2  wir
: 847 3 0  fallen,
: 851 1 0  fallen
: 852 1 -2  wir
: 853 1 0  lie
: 854 1 -2 ber
: 855 3 0  auf.
- 859
: 860 1 2  M
: 861 2 2 f
: 863 3 2 g
- 867
: 867 1 -2  mit
: 868 1 2  freund
: 869 1 0 li
: 870 1 -2 chen
: 871 1 -2  Grüs
: 872 2 -2 sen
- 875
: 875 1 0  Die
: 876 1 0 Welt
: 877 1 0  liegt
: 878 1 0  uns
: 879 1 0  zu
: 880 1 0  Füs
: 881 1 0 sen
- 882
: 882 1 0  denn
: 883 1 -2  wir
: 884 1 2  ste
: 885 1 0 hen
: 886 2 -2  drauf
- 889
: 889 1 -2  wir
: 890 2 2  gehen
: 892 2 0  darauf
: 894 1 0  für
: 895 1 -2 ein
: 896 2 0  Leben
- 898
: 898 1 0  vol
: 899 1 -2 ler
: 900 1 2  Schall
: 901 1 0  und
: 902 3 -2  Rauch
- 907
: 909 1 0  Be
: 910 1 0 vor
: 911 1 -2  wir
: 912 2 0 fallen,
: 914 1 0  fallen
: 915 1 -2  wir
: 916 1 2  lie
: 917 1 0 ber
: 918 3 -2  auf.
- 922
: 924 1 2  M
: 925 2 2 f
: 927 3 2 g
- 931
: 931 1 -2  mit
: 932 1 2  freund
: 933 1 0 li
: 934 1 -2 chen
: 935 2 2  Grüs
: 937 2 -2 sen
- 939
: 939 1 -2  die
: 940 1 0  Welt
: 941 1 0  liegt
: 942 1 0  uns
: 943 1 0  zu
: 944 1 0  Füs
: 945 1 0 sen
- 946
: 946 1 0  denn
: 947 1 -2  wir
: 948 1 2  ste
: 949 1 0 hen
: 950 3 -2  drauf
- 953
: 953 1 -2  wir
: 954 2 2  gehen
: 956 2 0  darauf
: 958 1 0  für
: 959 1 -2  ein
: 960 2 0  Leben
- 962
: 962 1 0  vol
: 963 1 -2 ler
: 964 2 2  Schall
: 966 1 0  und
: 967 3 -2  Rauch
- 972
: 974 1 0  Be
: 975 1 0 vor
: 976 1 -2  wir
: 977 2 0  fallen,
: 980 2 0  fallen
: 982 1 -2  wir
: 983 1 0  lie
: 984 1 -2 ber
: 985 3 0  auf.
E
