#TITLE:Erna Kommt
#ARTIST:Dieter De
#EDITION:SS Mallorca P
#MP3:Dieter De - Erna Kommt.mp3
#COVER:Dieter De - Erna Kommt [CO].jpg
#BACKGROUND:Dieter De - Erna Kommt [BG].jpg
#VIDEO:Dieter De - Erna Kommt [VD#0].avi
#VIDEOGAP:0
#BPM:270
#GAP:2500
F 0 7 53 Hallo
F 8 7 53  Freunde
F 16 3 53  hier
F 20 4 53  ist
F 26 5 53  Dieter
F 32 5 53  D
- 38
F 40 5 53 Und
F 46 3 53  hier
F 50 3 53  ist
F 54 2 53  die
F 64 38 53  Erna
- 103
: 104 5 63 Er
: 112 3 63 na,
: 120 5 63  Er
: 128 3 63 na,
: 136 5 63  Er
: 144 3 63 na,
: 152 5 63  Er
: 160 3 63 na,
- 165
: 168 5 63 Er
: 176 3 63 na,
: 184 5 63  Er
: 192 3 63 na,
: 200 5 63  Er
: 208 3 63 na,
: 216 5 63  Er
: 224 3 63 na,
- 229
: 232 5 63 Er
: 240 3 63 na,
: 248 5 63  Er
: 256 3 63 na,
: 264 5 63  Er
: 272 3 63 na,
: 280 5 63  Er
: 288 3 63 na,
: 296 5 63  Er
: 304 3 63 na
- 308
: 308 6 60 Er
: 316 4 60 na
: 320 6 58  kommt
- 328 329
: 340 6 60 Er
: 348 4 60 na
: 352 3 58  kommt
: 356 6 60  wie
: 364 4 60 der
: 368 3 58  mal
- 372
: 372 6 58 Er
: 380 3 58 na
: 384 8 56  kommt
- 394 395
: 404 7 58 Heut
: 412 4 58  ist
: 416 4 56  der
: 420 6 58  Tag
: 428 4 58  an
: 432 3 56  dem
- 436
: 436 6 60 Er
: 444 4 60 na
: 448 8 58  kommt
- 458 459
: 468 6 60 Und
: 476 4 60  wenn
: 480 4 58  sie
: 484 5 60  sagt
: 490 4 60  sie
: 494 4 58  kommt
- 499
: 500 5 58 Kommt
: 508 4 58  sie
: 512 8 56  prompt
- 522 523
F 536 28 51 Oh
- 566
: 568 3 51 Oh
: 572 4 51  mein
: 576 4 53  Gott
: 580 3 51  ich
: 584 8 56  schäm
: 592 3 53  mich
- 596
: 596 3 48 Denn
: 600 3 51  ges
: 604 4 51 tern
: 608 4 53  war
: 612 4 51  ich
* 616 8 56  näm
: 624 3 53 lich
- 628
: 628 3 48 Zu
: 632 3 51  lus
: 636 6 51 tig
- 644 645
F 664 6 63 Lus
F 672 5 63 tig
- 679 680
: 696 3 51 Dass
: 700 4 51  ich
: 704 4 53  heu
: 708 3 51 te
: 712 7 56  down
: 720 3 53  bin
: 724 3 48  und
- 728
: 728 3 51 Schreck
: 732 3 51 lich
- 736
: 736 4 53 An
: 740 3 51 zus
: 744 8 56 chaun
: 752 3 53  bin
: 756 3 49  das
- 760
: 760 4 48 Wusst
: 764 8 51  ich
- 774 802
: 822 6 53 Ab
: 828 3 56  und
: 832 3 56  zu
: 836 3 56  pas
: 840 8 58 siert
: 848 3 56  das
- 852
: 852 8 53 A
: 860 3 56 ber
: 864 3 56  mich
: 868 3 53  ge
: 872 8 58 niert
: 880 3 56  das
- 884
: 884 8 48 Mäch
: 892 5 51 tig
- 899 932
: 952 4 53 Nie
: 956 3 56  mehr
: 960 3 56  so'n
: 964 4 56  I
: 968 8 58 diot
: 976 3 56  sein
- 980
* 980 8 53 Dann
: 988 3 56  schon
: 992 3 56  lie
: 996 4 56 ber
: 1000 8 58  tot
: 1008 3 56  sein
- 1012
: 1012 7 48 Möcht
: 1020 5 51  ich
- 1027 1052
: 1072 3 51 Und
: 1076 3 51  das
: 1080 8 53  Al
: 1088 5 56 ler
: 1094 8 56 schlimm
: 1102 4 58 ste
: 1108 60 58  ist
: 1168 3 60 ~
- 1172
: 1174 5 60 Er
: 1180 4 60 na
: 1184 7 58  kommt
- 1193 1194
: 1204 7 60 Er
: 1212 4 60 na
: 1216 3 58  kommt
: 1220 7 60  wie
: 1228 4 60 der
: 1232 3 58  mal
- 1236
: 1236 7 58 Er
: 1244 4 58 na
: 1248 6 56  kommt
- 1256 1257
: 1268 7 58 Heut
: 1276 4 58  ist
: 1280 4 56  der
: 1284 7 58  Tag
: 1292 4 58  an
: 1296 4 56  dem
- 1301
: 1301 6 60 Er
: 1308 4 60 na
: 1312 6 58  kommt
- 1320 1321
: 1332 6 60 Und
: 1340 4 60  wenn
: 1344 3 58  sie
: 1348 7 60  sagt
: 1356 3 60  sie
: 1360 3 58  kommt
- 1364
: 1364 7 58 Kommt
: 1372 4 58  sie
: 1376 4 56  prompt
- 1382 1383
: 1396 7 58 Er
: 1404 4 58 na
: 1408 3 56  kommt
: 1412 7 58  wie
: 1420 4 58 der
: 1424 3 56  mal
- 1428
: 1428 7 60 Er
: 1436 4 60 na
: 1440 6 58  kommt
- 1448 1449
: 1460 7 60 Er
: 1468 4 60 na
: 1472 3 58  kommt
: 1476 7 60  wie
: 1484 4 60 der
: 1488 3 58  mal
- 1492
: 1492 7 58 Er
: 1500 4 58 na
: 1504 6 56  kommt
- 1512 1513
* 1524 7 58 Heut
: 1532 4 58  ist
: 1536 3 56  der
: 1540 7 58  Tag
: 1548 4 58  an
: 1552 3 56  dem
- 1556
: 1556 7 60 Er
: 1564 4 60 na
: 1568 7 58  kommt
- 1577 1578
: 1588 7 60 Und
: 1596 4 60  wenn
: 1600 4 58  sie
: 1604 6 60  sagt
: 1612 4 60  sie
: 1616 4 58  kommt
- 1621
: 1621 5 58 Kommt
: 1628 4 58  sie
: 1632 8 56  prompt
- 1642 1668
: 1688 3 51 Ord
: 1692 4 51 nung
: 1696 3 53  muss
: 1699 4 51  ins
: 1704 8 56  Zim
: 1712 4 53 mer
: 1716 3 48  die
- 1720
: 1720 3 51 Er
: 1724 4 51 na
: 1728 4 53  war
: 1732 4 51  schon
: 1736 7 56  im
: 1744 4 53 mer
: 1748 3 48  sehr
- 1752
: 1752 3 51 Häus
: 1756 6 51 lich
- 1764 1796
: 1816 3 51 Und
: 1820 4 51  ich
: 1824 4 53  res
: 1828 4 51 tau
: 1832 8 56 rier
: 1840 4 53  mich
: 1844 6 51  wasch
- 1851
: 1852 4 51 Und
: 1856 4 53  par
: 1860 4 51 fü
: 1864 8 56 mier
: 1872 4 53  mich
: 1876 3 51  ganz
- 1880
: 1880 6 48 Scheuß
: 1886 6 51 lich
- 1894 1910
: 1930 9 56 Mmh
: 1940 4 56  'ne
: 1944 4 53  Zi
: 1948 3 56 ga
: 1952 4 56 ret
: 1956 4 53 te
: 1960 8 58  rauch
: 1968 3 56  ich
- 1972
: 1972 7 53 Und
: 1980 3 56  zum
: 1984 3 56  Fit
: 1988 3 56  sein
: 1992 8 58  brauch
: 2000 3 56  ich
- 2004
* 2004 8 48 Mok
: 2012 7 51 ka
- 2021 2022
F 2032 3 63 Mok
F 2036 3 63 ka
F 2040 3 63  mok
F 2044 4 63 ka
- 2050 2051
: 2072 4 53 Dann
: 2076 3 56  mach
: 2080 3 56  ich
: 2084 4 56  gym
: 2088 8 58 nas
: 2096 3 56 tisch
- 2100
: 2100 8 53 Mei
: 2108 3 56 nen
: 2112 3 56  Leib
: 2116 4 56  e
: 2120 8 58 las
: 2128 4 56 tisch
: 2132 8 48  lo
: 2140 5 51 cker
- 2147 2172
: 2192 3 51 Und
: 2196 4 51  dann
: 2200 8 53  freu
: 2208 7 56  ich
: 2216 8 56  mich
: 2224 5 58  auf
* 2230 58 58  sie
: 2288 3 60 ~
- 2292
: 2294 5 60 Er
: 2300 4 60 na
: 2304 9 58  kommt
- 2315 2316
: 2324 7 60 Er
: 2332 4 60 na
: 2336 3 58  kommt
: 2340 4 58  wie
: 2344 3 60 ~
: 2348 4 60 der
: 2352 3 58  mal
- 2356
: 2356 7 58 Er
: 2364 4 58 na
: 2368 8 56  kommt
- 2378 2379
: 2388 7 58 Heut
: 2396 4 58  ist
: 2400 4 56  der
: 2404 7 58  Tag
: 2412 4 58  an
: 2416 4 56  dem
- 2421
: 2422 5 60 Er
: 2428 4 60 na
: 2432 6 58  kommt
- 2440 2441
: 2452 6 60 Und
: 2460 4 60  wenn
: 2464 3 58  sie
: 2468 7 60  sagt
: 2476 3 60  sie
: 2480 3 58  kommt
- 2484
: 2484 7 58 Kommt
: 2492 4 58  sie
: 2496 7 56  prompt
- 2505 2506
: 2516 7 58 Er
: 2524 4 58 na
: 2528 3 56  kommt
: 2532 7 58  wie
: 2540 4 58 der
: 2544 3 56  mal
- 2548
: 2548 7 60 Er
: 2556 4 60 na
: 2560 7 58  kommt
- 2569 2570
: 2580 7 60 Er
: 2588 4 60 na
: 2592 3 58  kommt
: 2596 7 60  wie
: 2604 4 60 der
: 2608 3 58  mal
- 2612
: 2612 7 58 Er
: 2620 4 58 na
: 2624 6 56  kommt
- 2632 2633
: 2644 7 58 Heut
: 2652 4 58  ist
: 2656 3 56  der
: 2660 7 58  Tag
: 2668 4 58  an
: 2672 3 56  dem
- 2676
: 2676 7 60 Er
: 2684 4 60 na
: 2688 8 58  kommt
- 2698 2699
: 2708 7 60 Und
: 2716 4 60  wenn
: 2720 4 58  sie
: 2724 6 60  sagt
: 2732 4 60  sie
: 2736 5 58  kommt
- 2742
: 2742 5 58 Kommt
: 2748 4 58  sie
: 2752 8 56  prompt
- 2762 2786
: 2806 7 60 Er
: 2814 6 60 na
: 2820 9 58  kommt
- 2831 2832
: 2848 9 60 Er
: 2858 6 60 na
* 2864 3 58  kommt
: 2868 9 60  wie
: 2879 5 60 der
: 2884 3 58  mal
- 2888
: 2888 9 58 Er
: 2898 6 58 na
: 2904 9 56  kommt
- 2915 2916
: 2928 9 58 Heut
: 2938 4 58  ist
: 2942 5 56  der
: 2948 6 58  Tag
: 2956 6 58  an
: 2962 3 56  dem
- 2966
: 2966 9 60 Er
: 2976 4 60 na
: 2980 7 58  kommt
- 2989 2990
: 3004 7 60 Und
: 3012 5 60  wenn
: 3017 5 58  sie
: 3022 6 60  sagt
: 3030 4 60  sie
: 3034 4 58  kommt
- 3039
: 3040 6 58 Kommt
: 3048 6 58  sie
: 3054 5 56  prompt
- 3061 3062
: 3076 4 56 Er
: 3080 3 58 na
: 3084 4 58  kommt
: 3088 5 56  wie
: 3094 7 58 ~
: 3102 4 58 der
: 3106 4 56  mal
- 3111
: 3112 5 60 Er
: 3118 4 60 na
: 3122 8 58  kommt
- 3132 3133
: 3142 7 60 Er
: 3150 4 60 na
: 3154 3 58  kommt
: 3158 4 58  wie
: 3162 3 60 ~
: 3166 4 60 der
: 3170 3 58  mal
- 3174
: 3174 7 58 Er
: 3182 4 58 na
: 3186 6 56  kommt
- 3194 3195
: 3206 7 58 Heut
: 3214 4 58  ist
: 3218 4 56  der
: 3222 7 58  Tag
: 3230 4 58  an
: 3234 4 56  dem
- 3239
: 3239 6 60 Er
: 3246 4 60 na
: 3250 8 58  kommt
- 3260 3261
: 3270 2 58 Und
: 3272 5 60 ~
: 3278 4 60 wenn
: 3282 3 58  sie
: 3286 7 60  sagt
: 3294 3 60  sie
: 3298 3 58  kommt
- 3302
: 3302 7 58 Kommt
: 3310 4 58  sie
* 3314 6 56  prompt
- 3322 3323
F 3338 5 63 Eine
F 3346 5 63  zwei
F 3354 5 63  drei
F 3362 4 63  vier
- 3367
: 3368 7 61 Er
: 3376 4 61 na
: 3380 5 59  kommt
- 3387 3388
: 3400 7 61 Er
* 3408 4 61 na
: 3412 4 59  kommt
: 3416 5 61  wie
: 3422 4 61 der
: 3426 4 59  mal
- 3431
: 3432 7 59 Er
: 3440 4 59 na
: 3444 6 57  kommt
- 3452 3453
: 3464 5 59 Heut
: 3470 5 59  ist
: 3475 4 57  der
: 3480 6 59  Tag
: 3488 4 59  an
: 3492 3 57  dem
- 3496
: 3496 7 61 Er
: 3504 4 61 na
: 3508 6 59  kommt
- 3516 3517
: 3528 5 61 Und
: 3534 4 61  wenn
: 3538 3 59  sie
* 3542 7 61  sagt
: 3550 4 61  sie
: 3554 2 59  kommt
- 3557
: 3558 6 59 Kommt
: 3566 4 59  sie
: 3570 7 57  prompt
- 3579 3580
: 3592 7 59 Er
: 3600 4 59 na
: 3604 3 57  kommt
: 3608 7 59  wie
: 3616 3 59 der
: 3619 3 57  mal
- 3623
: 3624 7 61 Er
: 3632 4 61 na
: 3636 7 59  kommt
- 3645 3646
: 3656 7 61 Er
: 3664 4 61 na
: 3668 4 59  kommt
: 3672 5 61  wie
: 3678 4 61 der
: 3682 4 59  mal
- 3687
: 3688 7 59 Er
: 3696 4 59 na
: 3700 6 57  kommt
- 3708 3709
: 3720 5 59 Heut
: 3726 5 59  ist
: 3731 4 57  der
* 3736 6 59  Tag
: 3744 4 59  an
: 3748 3 57  dem
- 3752
: 3752 7 61 Er
: 3760 4 61 na
: 3764 6 59  kommt
- 3772 3773
: 3784 5 61 Und
: 3790 4 61  wenn
: 3794 3 59  sie
: 3798 7 61  sagt
: 3806 4 61  sie
: 3810 2 59  kommt
- 3813
: 3814 6 59 Kommt
: 3822 4 59  sie
: 3826 7 57  prompt
E
