#TITLE:Lass jetzt los
#ARTIST:Disneys Die Eiskönigin
#MP3:Die Eiskönigin - Lass jetzt los.mp3
#VIDEO:Die Eiskönigin - Lass jetzt los.mp4
#COVER:frozen.jpg
#BPM:264
#GAP:14500
#ENCODING:UTF8
#LANGUAGE:Deutsch
#GENRE:Soundtrack
#YEAR:2013
#AUTHOR:mulf2
: 5 1 10 Der
: 8 4 12  Schnee
: 16 4 12  glänzt
: 24 4 12  weiß
: 32 2 12  auf
: 36 2 12  den
: 40 1 12  Be
: 42 1 12 r
: 44 1 10 gen
: 47 3 8  heut'
: 50 4 8  Nacht
- 56
: 64 2 9 kei
: 67 1 9 ne
: 70 2 11  Spu
: 74 7 11 ren
: 88 2 9  sind
: 92 2 8  zu
: 96 16 6  seh'n
- 114
: 130 1 11 Ein
: 132 2 13  ein
: 136 2 13 sam
: 140 2 13 es
: 144 6 13  Kö
: 154 2 16 nig
: 158 4 16 rei
: 166 6 13 ch
- 174
: 184 2 9 und
: 188 2 9  ich
: 192 2 11  bin
: 196 8 13  die
: 212 2 11  Kö
: 216 1 9 ni
: 220 6 11 gin
- 228
: 265 2 13 Der
: 268 3 13  Wind
: 274 3 16  er
: 282 4 18  heult
: 290 4 16  so 
: 298 4 13  wie
- 304
: 308 2 16 der
: 312 4 16  Stu
: 320 4 16 rm
: 328 4 14  ganz
: 336 6 13  Tief
: 344 2 14  in
: 348 8 13  mir
- 358
: 388 2 13 mich
: 392 2 13  zu
: 396 2 11  kon
: 400 4 9 trol
: 406 2 11 liern'
: 416 2 13  ich
: 420 2 13  hab
: 424 4 11  es
: 432 8 9  ver
: 448 14 6 sucht
- 464
: 510 2 11 lass
: 514 3 11  sie
: 520 4 16  nicht
: 528 4 16  rein
: 536 4 11  lass
: 544 4 11  sie
: 552 4 18  nicht
: 558 6 18  seh'n
- 566
: 570 2 18 wie
: 574 2 16  du
: 578 2 18  bist
: 583 4 18  nein
: 589 2 16  das
: 593 2 18  darf
: 596 4 20  nie
: 605 4 21 mals
: 613 4 20  ge
: 618 6 20 scheh'n
- 626
: 632 2 11 Du
: 636 4 11  darfst
: 644 4 16  nichts
: 650 4 16  fühl'n
: 662 2 11  zeig
: 666 4 11  ihn
: 674 4 18 en
: 682 46 18  nicht
- 730
: 742 2 16 dein
: 747 2 18  wah
: 754 4 20 res
* 764 24 21  ich
- 790
: 800 2 18 Ich
: 804 2 20  lass
: 808 12 21  los
: 830 2 16  lass
: 834 2 16  jetzt
: 838 14 23  los
- 854
: 864 4 21 die
: 872 2 18  Kraft
: 876 2 18  sie
: 880 4 18  ist
: 886 3 18  gren
: 890 2 20 zen
: 898 12 21 los
- 912
: 924 2 18 ich
: 928 2 20  lass
: 932 14 21  los
: 952 2 16  lass
: 956 2 25  jetzt
: 960 4 25  lo
: 966 10 26 ~s
- 978
: 984 2 23 und
: 988 2 24  ich
: 992 6 25  schlag
: 1000 2 25  die
: 1008 4 26  Tü
: 1018 2 25 ren
: 1026 4 23  zu
: 1030 14 21 ~
- 1046
: 1060 4 28 es
: 1068 4 25  ist
: 1080 12 23  Zeit
: 1104 4 21  nun
: 1110 4 21  bin
: 1118 3 28  ich
: 1130 6 25  be
: 1140 10 21 reit
- 1152
: 1172 2 21 und
: 1176 2 21  ein
: 1180 6 20  Sturm
: 1192 6 16  zieht
: 1204 28 16  auf
- 1234
: 1241 2 9 die
: 1244 4 14  Käl
: 1250 2 14 te
: 1254 2 13  sie
: 1258 2 14  ist
: 1262 2 13  nun
: 1266 2 14  ein
: 1270 2 14  Teil
: 1273 2 13  von
: 1276 4 9  mir!
- 1282
: 1371 2 9 Es
: 1375 3 13  ist
: 1380 2 13  schon
: 1384 4 13  ei
: 1392 4 13 gen
: 1398 6 13 ar
: 1404 6 9 tig
- 1412
: 1420 4 9 wie
: 1428 4 16  klein
: 1434 2 16  jetzt
: 1440 4 14  al
: 1448 4 13 les
: 1456 14 11  scheint
- 1472
: 1482 2 9 und
: 1486 2 11  die
: 1490 4 13  Ängs
: 1498 2 13 te
: 1502 4 13  die
: 1510 4 16  in
: 1518 4 18  mir
: 1528 8 16  war'n
- 1538
: 1544 4 16 komm'
: 1552 4 21  nicht
: 1558 2 21  mehr
: 1564 4 20  an
: 1572 4 18  mich
: 1580 26 18  ran
- 1608
: 1620 2 11 was
: 1624 4 11  ich
: 1632 4 16  wohl
: 1640 4 16  al
- 1646
: 1648 4 11 les
: 1656 4 11  ma
: 1664 4 16 chen
: 1672 6 18  kann
- 1680
: 1682 2 16 die
: 1686 4 18  Kraft
: 1694 2 16  in
: 1700 4 18  mir
: 1708 4 20  treibt
: 1716 4 21  mich
: 1724 6 23  vor
: 1734 6 16 an
- 1742
: 1744 2 11 was
: 1748 4 11  hin
: 1756 4 16 ter
: 1764 4 16  mir
- 1770
: 1772 4 11 liegt
: 1780 4 16  ist
: 1786 2 11  vor
: 1790 6 18 bei
: 1796 4 17 ~
: 1800 12 18 ~
: 1819 6 20  endlich
* 1828 44 21  frei
- 1874
: 1881 2 18 ich
: 1885 2 20  lass
: 1890 11 21  los
: 1909 2 16  lass
: 1913 2 16  jetzt
: 1917 11 23  los
- 1930
: 1940 2 21 nun
: 1944 2 20  bin
: 1948 4 18  ich
: 1956 2 18  end
: 1960 2 18 ~
: 1964 4 18 lich
: 1972 4 20  so
: 1980 6 21  we
: 1986 4 23 ~
: 1990 10 21 it
- 2002
: 2005 2 18 ich
: 2009 2 20  lass
: 2013 12 21  los
: 2033 2 16  lass
: 2037 2 25  jetzt
: 2041 6 25  los
: 2047 14 23 ~
- 2063
: 2068 2 23 doch
: 2072 4 25  Trä
: 2080 4 25 nen
: 2088 6 26  seht
: 2096 4 25  ihr
: 2100 4 23 ~
: 2109 3 23  nicht
: 2113 11 21 ~
- 2126
: 2136 6 28 hier
: 2148 6 25  bin
* 2160 16 23  ich
: 2192 4 21  und
: 2200 6 28  blei
: 2212 4 25 be
* 2224 16 21  hier
- 2242
: 2252 2 21 und
: 2256 2 21  ein
: 2261 6 20  Sturm
: 2272 6 16  zieht
: 2282 30 16  auf
- 2314
: 2452 2 14 ich
: 2456 4 13  spü
: 2464 4 14 re
: 2472 4 16  die
: 2480 4 18 se
: 2488 4 19  Kraft
: 2496 4 21  sie
: 2504 4 24  ist
: 2511 4 23  ein
: 2518 4 21  Teil
: 2526 4 19  von
* 2534 32 21  mir
- 2568
: 2576 2 14 sie
: 2580 4 13  fließt
: 2588 4 14  in
: 2596 4 16  mei
: 2604 4 18 ne
: 2612 4 19  See
: 2620 4 21 le
: 2628 4 24  und
: 2634 5 23  in
: 2642 4 21  all
: 2650 4 19  die
: 2655 6 24  Schön
: 2663 5 23 heit
: 2668 4 21  hier
: 2672 4 23 ~
: 2676 16 21 ~
- 2694
: 2700 2 16 nur
: 2704 4 15  ein
: 2712 4 16  Ge
: 2719 4 18 dan
: 2726 4 20 ke
: 2734 4 21  und
: 2742 4 23  die
: 2750 4 26  Welt
: 2758 2 25  wird
: 2766 4 23  ganz
: 2772 4 21  aus
* 2780 26 23  Eis
- 2808
: 2824 2 25 ich
: 2828 4 25  geh'
: 2834 4 25  nie
: 2844 4 25  mehr
: 2850 2 21  zu
: 2856 12 21 rück
- 2870
: 2874 2 21 das
: 2878 4 23  ist
: 2884 2 21  Ver
: 2888 4 23 gang
: 2896 4 25 en
* 2904 48 26 heit
- 2954
: 2959 2 26 ich
: 2963 2 26  bin
: 2967 4 26  frei
: 2971 12 25 ~
: 2991 2 16  end
: 2995 2 16 lich
: 2999 14 23  frei
- 3015
: 3020 2 21 und
: 3024 2 20  ich
: 3028 4 18  fühl'
: 3036 2 18  mich
: 3040 2 18  wie
: 3044 4 18  neu
: 3052 4 20 ge
: 3060 6 21 bo
: 3066 3 23 ~
: 3069 5 21 ren
- 3076
: 3085 2 18 ich
: 3089 2 20  bin
: 3093 12 21  frei
: 3113 2 16  end
: 3117 2 25 lich
: 3121 4 25  frei
: 3127 2 25 ~
: 3129 8 23 ~
- 3139
: 3149 2 21 was
: 3153 4 25  war
: 3159 4 25  ist
: 3169 6 26  jetzt
: 3180 2 25  vor
: 3187 4 23 bei
: 3191 14 21 ~
- 3207
: 3219 6 28 hier
: 3229 6 25  bin
: 3239 12 23  ich
: 3263 4 21  in
: 3269 4 21  dem
: 3278 6 28  hel
: 3289 4 25 len
: 3299 4 26  Licht
: 3305 6 25 ~
: 3314 5 23 ~
: 3319 32 21 ~
- 3353
: 3364 2 21 und
: 3368 2 21  ein
: 3372 6 20  Sturm
: 3384 6 21  zieht
* 3396 54 28  auf
- 3452
: 3462 2 9 die
: 3466 3 14  Käl
: 3472 2 14 te
: 3476 2 13  sie
: 3480 2 14  ist
: 3484 2 13  nun
: 3488 2 14  ein
: 3492 2 14  Teil
: 3496 2 13  von
: 3500 6 9  mir!
E