#TITLE:Not Ready To Make Nice
#ARTIST:Dixie Chicks
#MP3:Dixie Chicks - Not Ready To Make Nice.mp3
#VIDEO:Dixie Chicks - Not Ready To Make Nice [VD#0].avi
#COVER:Dixie Chicks - Not Ready To Make Nice [CO].jpg
#BPM:336
#GAP:11160,71
#VIDEOGAP:0
#ENCODING:UTF8
#EDITION:SingStar Pop Vol. 2
: 0 4 54 For
: 8 17 66 give
- 27
: 69 12 54 Sounds
: 85 16 65  good
- 103
: 136 6 49 For
: 145 12 61 get
- 159
: 186 4 58 I'm
: 191 3 61  not
: 199 6 61  sure
: 207 1 54  I
: 213 3 61  could
: 216 7 63 ~
- 225
: 270 5 59 They
: 279 12 61  say
- 293
: 320 11 58 ''Time
: 332 11 61  heals
* 346 10 63  ev
: 359 2 61 ery
: 366 2 58 thing''
: 368 10 56 ~
- 380
: 399 3 46 But
: 404 3 58  I'm
: 411 7 56  still
: 420 8 56  wait
: 429 9 58 ing
- 440
: 538 4 54 I'm
: 546 10 66  through
- 558
: 595 8 66 With
: 603 4 68 ~
: 612 8 65 doubt
- 622
: 681 1 49 There's
: 684 2 61  no
: 689 3 61 thing
: 696 3 61  left
: 704 2 58  for
: 709 5 61  me
- 716
: 736 1 58 To
: 741 11 63  fi
: 754 3 61 gure
: 760 4 54  out
- 766
: 797 5 66 I've
: 806 10 63  paid
- 818
: 862 4 66 A
: 871 2 63  price
: 873 6 61 ~
- 881
: 924 3 61 And
: 928 6 70  I'll
: 937 3 68  keep
: 944 5 68  pay
: 949 3 66 ~
: 955 12 63 in'
- 969
: 1057 6 66 I'm
: 1065 5 68  not
: 1072 4 68  rea
: 1077 3 70 dy
: 1081 3 70  to
: 1085 7 70  make
* 1097 12 70  nice
- 1111
: 1121 5 66 I'm
: 1129 5 68  not
: 1137 3 68  rea
: 1141 3 68 dy
: 1145 2 68  to
: 1149 3 68  back
: 1152 5 70 ~
: 1161 14 68 down
- 1177
: 1190 1 61 I'm
: 1194 4 68  still
: 1201 4 68  mad
: 1206 3 70  as
: 1213 9 70  hell
- 1223
: 1223 2 68 And
: 1226 3 66  I
: 1230 8 68  don't
: 1239 3 68  have
: 1246 6 70  time
- 1253
: 1254 2 68 To
: 1257 3 68  go
: 1260 4 66 ~
: 1266 4 66 round
: 1270 3 68 ~
: 1274 2 68 'n'
: 1278 7 68  round
: 1286 4 70  'n'
: 1293 11 66  round
- 1306
: 1313 3 66 It's
: 1321 4 68  too
: 1325 3 70 ~
: 1329 5 70 late
- 1335
: 1337 3 68 To
: 1342 5 70  make
: 1347 3 68 ~
: 1351 2 68 it
: 1355 8 70  right
: 1363 7 68 ~
- 1372
: 1381 2 61 I
: 1385 4 70  prob
: 1391 5 68 'ly
: 1397 2 68  would
: 1401 2 68 n't
: 1406 3 68  if
: 1412 4 66  I
: 1419 7 70  could
: 1426 10 68 ~
- 1438
: 1446 1 66 'Cause
: 1450 4 68  I'm
: 1457 4 68  mad
: 1463 2 70  as
: 1469 7 70  hell
: 1476 4 68 ~
- 1481
: 1482 2 68 Can't
: 1487 4 68  bring
: 1494 3 68  my
: 1502 5 70 self
- 1508
: 1510 2 68 To
: 1514 4 68  do
: 1518 4 66 ~
: 1523 3 66 what
: 1526 3 68 ~
: 1530 4 66 it
: 1535 4 66  is
: 1539 4 68 ~
- 1545
: 1547 2 66 You
: 1551 9 68  think
: 1563 11 70  I
* 1580 42 66  should
- 1624
: 1633 7 66 I
: 1643 13 63  know
- 1658
: 1699 4 66 You
: 1708 3 63  said
: 1711 5 61 ~
- 1718
: 1811 7 58 ''Can't
: 1819 2 61  you
: 1824 2 61  just
: 1831 4 61  get
: 1836 5 61  o
: 1841 5 63 ~
: 1848 3 61 ver
: 1854 3 54  it?''
- 1859
: 1891 4 59 It
: 1898 10 61  turned
: 1908 2 63 ~
- 1912
: 1939 10 58 My
: 1951 10 61  whole
: 1962 7 61  world
: 1969 6 63 ~
: 1976 3 66 a
: 1981 2 61 round
: 1983 2 58 ~
: 1985 3 56 ~
- 1990
: 2011 2 49 And
: 2015 3 58  I
: 2022 6 58  kind
: 2029 3 56 a
: 2034 6 56  like
: 2042 3 56  it
: 2045 4 58 ~
- 2051
: 2158 1 54 I
: 2161 3 59  made
: 2165 5 61  my
: 2172 8 61  bed
- 2181
: 2181 3 61 And
: 2185 1 58  I
: 2190 3 61  sleep
: 2197 2 61  like
: 2201 1 61  a
: 2205 8 63  ba
: 2214 2 61 by
- 2217
: 2217 2 61 With
: 2221 6 61  no
: 2229 4 61  re
: 2237 4 61 grets
- 2243
: 2245 3 61 And
: 2249 1 58  I
: 2252 7 61  don't
: 2261 4 61  mind
: 2268 4 61  say
: 2272 4 63 ~
: 2276 3 66 in'
- 2280
: 2280 2 66 It's
: 2284 1 66  a
: 2288 4 66  sad,
: 2295 4 66  sad
: 2303 3 66  sto
: 2307 3 64 ry
- 2311
: 2311 3 66 When
: 2315 2 64  a
: 2319 2 66  mo
: 2323 3 66 ther
: 2327 1 66  will
: 2331 6 68  teach
: 2339 2 66  her
- 2343
* 2348 6 69 Daugh
: 2355 2 68 ter
: 2359 2 68  that
: 2363 3 66  she
: 2367 3 68  ought
: 2371 3 66 a
: 2375 2 68  hate
- 2378
: 2378 3 66 A
: 2382 3 68  per
: 2387 3 70 fect
: 2394 6 68  stran
: 2402 3 66 ger
- 2406
: 2406 2 66 And
: 2411 6 70  how
: 2417 4 68 ~
: 2422 3 68 in
: 2426 3 66  the
: 2430 6 68  world
- 2437
: 2438 2 68 Can
: 2442 2 66  the
: 2446 3 68  words
: 2451 2 66  that
: 2454 3 70  I
: 2461 6 68  said
- 2469
: 2477 5 73 Send
: 2486 2 70  some
: 2491 6 70 bo
: 2498 2 68 dy
- 2501
: 2502 6 68 So
: 2509 4 68  o
: 2514 2 68 ver
: 2517 4 66  the
: 2523 4 70  edge
- 2528
: 2530 3 68 That
: 2534 3 66  they'd
: 2542 3 68  write
: 2547 2 68  me
: 2550 2 66  a
: 2554 3 68  let
: 2558 3 66 ter
- 2563
: 2570 6 68 Say
: 2577 2 68 in'
: 2581 3 68  that
: 2585 3 66  I
: 2589 2 68  bet
: 2592 3 66 ter
- 2597
* 2604 4 75 Shut
: 2608 3 70 ~
: 2612 2 70 up
: 2615 2 70  and
: 2622 6 70  sing
- 2629
: 2629 3 68 Or
: 2633 3 66  my
: 2638 4 68  life
: 2644 3 68  will
: 2648 4 66  be
: 2653 5 68  o
: 2661 5 68 ver?
: 2666 59 70 ~
: 2725 5 68 ~
: 2730 50 66 ~
- 2782
: 2970 6 66 I'm
: 2977 4 68  not
: 2981 3 70 ~
: 2985 3 70 rea
: 2989 3 70 dy
: 2993 4 70  to
: 2998 7 70  make
: 3010 11 70  nice
- 3023
: 3034 5 66 I'm
: 3042 5 68  not
: 3050 3 68  rea
: 3054 3 68 dy
: 3058 2 68  to
: 3062 4 68  back
: 3066 4 70 ~
: 3074 15 68 down
- 3091
: 3103 1 61 I'm
: 3107 4 68  still
: 3114 4 68  mad
: 3119 2 70  as
* 3126 7 70  hell
- 3134
: 3134 3 68 And
: 3138 3 66  I
: 3142 7 68  don't
: 3150 4 68  have
: 3157 7 70  time
- 3165
: 3166 2 68 To
: 3170 3 68  go
: 3173 4 66 ~
: 3178 3 66 round
: 3181 4 68 ~
: 3186 3 68 'n'
: 3191 7 68  round
: 3199 4 70  'n'
: 3206 10 66  round
- 3218
: 3226 2 66 It's
: 3234 4 68  too
: 3238 2 70 ~
: 3241 6 70 late
- 3248
: 3250 3 68 To
: 3254 4 70  make
: 3258 3 68 ~
: 3262 2 68 it
: 3266 9 70  right
: 3275 7 68 ~
- 3284
: 3293 2 61 I
: 3297 3 70  prob
: 3301 5 68 'ly
: 3307 3 68  would
: 3311 3 68 n't
: 3317 4 68  if
: 3323 4 66  I
: 3330 7 70  could
: 3337 9 68 ~
- 3348
: 3358 1 66 'Cause
: 3362 3 68  I'm
: 3369 3 68  mad
: 3374 3 70  as
: 3381 7 70  hell
: 3388 4 68 ~
- 3393
: 3394 2 68 Can't
: 3398 4 68  bring
: 3405 3 68  my
: 3413 6 70 self
- 3420
: 3421 2 68 To
: 3425 4 68  do
: 3429 4 66 ~
: 3434 4 66 what
: 3438 3 68 ~
: 3442 3 66 it
: 3447 3 66  is
: 3450 4 68 ~
- 3456
: 3458 2 66 You
: 3463 8 68  think
: 3473 8 70  I
: 3490 45 66  should
- 3537
: 3545 6 70 I'm
: 3553 3 70  not
: 3556 3 68 ~
: 3560 3 68 rea
: 3564 3 68 dy
: 3568 3 68  to
: 3573 7 68  back
: 3585 4 68  down
: 3589 5 70 ~
: 3594 6 68 ~
- 3602
: 3613 1 61 I'm
: 3617 4 68  still
: 3625 4 68  mad
: 3630 2 70  as
: 3637 8 70  hell
- 3646
: 3646 2 68 And
: 3649 2 66  I
: 3654 7 68  don't
: 3662 3 68  have
: 3669 7 70  time
- 3677
: 3677 2 68 To
: 3681 3 68  go
: 3684 4 66 ~
: 3689 3 66 round
: 3692 4 68 ~
: 3697 3 68 'n'
: 3702 6 68  round
: 3710 4 70  'n'
* 3717 10 66  round
- 3729
: 3737 2 66 It's
: 3744 4 68  too
: 3748 2 70 ~
: 3752 6 70 late
- 3759
: 3760 3 68 To
: 3765 4 70  make
: 3769 3 68 ~
: 3773 2 68 it
: 3777 9 70  right
: 3786 7 68 ~
- 3795
: 3804 2 61 I
: 3808 3 70  prob
: 3813 5 73 'ly
* 3819 3 73  would
: 3824 3 71 n't
: 3830 3 71  if
: 3836 2 70  I
: 3842 6 70  could
: 3848 12 68 ~
- 3862
: 3869 1 66 'Cause
: 3873 3 68  I'm
: 3880 3 68  mad
: 3885 3 70  as
: 3892 8 70  hell
: 3900 2 68 ~
- 3903
: 3905 2 68 Can't
: 3909 4 68  bring
: 3916 3 68  my
: 3924 6 70 self
- 3931
: 3932 2 68 To
: 3936 4 68  do
: 3940 3 66 ~
: 3944 4 66 what
: 3948 4 68 ~
: 3953 3 66 it
: 3957 4 66  is
: 3961 4 68 ~
- 3967
: 3969 2 66 You
: 3973 9 68  think
: 3984 10 70  I
: 4001 55 66  should
- 4058
: 4071 7 63 What
: 4079 3 61  it
: 4083 9 63  is
: 4095 3 61  you
: 4100 10 63  think
: 4112 27 66  I
: 4145 31 63  should
- 4178
: 4207 4 65 Ooh
: 4211 5 66 ~
: 4216 4 65 ~
: 4220 4 66 ~
- 4226
: 4256 24 63 Mmm
- 4282
: 4377 6 54 For
* 4386 19 66 give
- 4407
: 4445 11 54 Sounds
: 4461 17 65  good
- 4480
: 4513 6 49 For
: 4522 12 61 get
- 4536
: 4564 4 58 I'm
: 4569 3 61  not
: 4577 6 61  sure
: 4585 2 54  I
: 4592 2 61  could
* 4594 8 63 ~
- 4604
: 4647 6 59 They
: 4658 9 61  say
- 4669
: 4698 11 58 ''Time
: 4711 11 61  heals
: 4726 4 61  ev
: 4730 6 63 ~
: 4739 2 65 ery
: 4748 2 56 thing''
- 4752
: 4778 3 49 But
: 4782 3 58  I'm
: 4790 7 56  still
: 4798 9 56  wait
: 4808 6 56 ing
: 4814 16 58 ~
E