#TITLE:Warum nur
#ARTIST:Dornroeschen
#MP3:Dornroeschen - Warum nur.mp3
#VIDEO:Dornroeschen - Warum nur [VD#0].avi
#COVER:Dornroeschen - Warum nur [CO].jpg
#BACKGROUND:Dornroeschen - Warum nur [BG].jpg
#BPM:240
#GAP:1562,5
#VIDEOGAP:0
#ENCODING:UTF8
#LANGUAGE:German
#EDITION:SingStar - Best of Disney
: 0 9 68 Mm
* 11 7 75  hmm
: 21 20 68  mm
- 43
: 60 10 68 Mm
: 71 11 73  hmm
: 83 37 68  mm
- 122
: 147 9 68 Wa
* 157 8 75 rum
: 167 26 68  nur?
- 195
: 200 10 68 Wa
: 210 8 73 rum
: 219 18 68  nur?
- 239
: 254 7 70 Gilt
: 262 8 68  im
: 270 8 63 mer
: 279 8 70  der
: 287 7 68  Sing
: 295 5 63 vö
: 301 4 70 gel
: 305 9 68  Lied
: 314 2 67 ~
: 316 2 66 ~
- 319
: 321 7 64 Ei
: 329 5 65 nem
* 337 8 60  an
: 348 5 61 der'n?
- 355
: 364 5 68 Sie
: 370 6 75  brin
* 381 19 68 gen
- 402
: 411 7 68 Ihr
: 422 6 73  Sin
: 432 20 68 gen
- 454
: 463 3 68 Als
: 466 13 72  zärt
: 480 3 70 li
: 484 3 68 che
- 488
: 489 13 67 Glücks
: 503 6 73 me
: 509 6 72 lo
* 518 22 65 die
: 540 3 66 ~
: 543 3 67 ~
: 546 21 68 ~
- 569
: 580 9 68 Wa
: 591 7 75 rum
: 602 23 68  nur?
- 627
* 633 5 67 Wa
: 641 10 73 rum
: 652 22 68  nur?
- 676
: 680 7 70 Kann
: 688 8 68  mein
: 696 8 63  Sehn
: 706 6 70 suchts
: 712 7 68 lie
: 719 8 63 den
- 729
: 735 6 70 Hi
: 743 8 68 naus
: 751 10 64  sich
* 761 9 65  nicht
: 770 9 60  schwin
: 779 10 61 gen?
- 791
: 795 6 68 Da
: 802 8 75 mit
: 812 3 67  er
* 815 27 68 ~
- 844
: 846 9 68 Mich
: 856 9 73  fin
: 867 27 68 det
- 896
* 901 9 68 Und
: 912 13 70  schickt
: 926 8 66  dann
: 935 10 70  sein
: 947 15 72  Lied
- 963
: 963 21 68 Her
: 986 25 75  zu
: 1011 2 75  mir
* 1013 54 73 ~
E