#TITLE:Hungry Like The Wolf
#ARTIST:Duran Duran
#LANGUAGE:Englisch
#EDITION:SingStar Party
#GENRE:Pop
#YEAR:1982
#MP3:Duran Duran - Hungry Like The Wolf.mp3
#COVER:Duran Duran - Hungry Like The Wolf [CO].jpg
#VIDEO:Duran Duran - Hungry Like The Wolf [VD#0].avi
#VIDEOGAP:0
#BPM:253,6
#GAP:11238,17
: 0 4 64 Dark
: 4 4 64 en
: 8 4 64  the
: 12 4 64  ci
: 16 8 56 ty
- 26
: 28 4 57 Night
: 32 4 56  is
: 36 4 57  a
: 40 10 59  wire
- 52 53
: 64 4 64 Steam
: 68 4 64  in
: 72 4 64  the
: 76 4 64  sub
: 80 8 56 way
- 90
: 92 4 57 Earth
: 96 4 56  is
: 100 4 57  a
: 104 4 59 fire
- 110
: 112 3 64 Do
: 118 3 64  do
: 124 6 64  do
: 130 3 62  do
: 136 3 62  do
: 141 5 62  do
: 146 3 61  do
: 152 3 61  do
- 156
: 157 5 61 Do
: 162 3 59  do
: 168 3 59  do
: 173 6 59  do
: 179 3 57  do
: 185 4 59  do
: 193 15 59  do
- 210 236
: 256 4 64 Wo
: 260 4 64 man,
: 264 4 64  you
: 268 4 64  want
: 272 8 56  me
- 282
: 284 4 57 Give
: 288 4 56  me
: 292 4 57  a
* 296 10 59  sign
- 308 309
: 320 4 64 And
: 324 4 64  catch
: 328 4 64  my
: 332 4 64  breath
: 336 2 56 ing
- 339
: 340 4 56 E
: 344 4 56 ven
: 348 4 57  clo
: 352 4 56 ser
: 356 4 57  be
: 360 4 59 hind
- 366
: 368 3 64 Do
: 374 3 64  do
: 380 6 64  do
: 386 3 62  do
: 391 3 62  do
: 397 5 62  do
: 402 3 61  do
: 407 3 61  do
- 411
: 412 6 61 Do
: 418 3 59  do
: 424 3 59  do
: 429 5 59  do
: 434 3 57  do
: 440 3 59  do
: 448 12 59  do
- 462 500
: 520 4 55 In
: 524 4 64  touch
: 528 4 64  with
: 532 4 64  the
: 536 10 62  ground
- 548
: 556 4 62 I'm
: 560 4 62  on
: 564 4 62  the
: 568 8 60  hunt
: 576 6 60  I'm
: 584 6 60  af
: 592 6 60 ter
: 600 8 60  you
- 610 611
: 620 4 64 Smell
: 624 4 64  like
: 628 4 64  I
: 632 10 64  sound
- 644
: 648 4 57 I'm
: 652 4 64  lost
: 656 4 64  in
: 660 4 64  a
: 664 10 62  crowd
- 676
: 680 8 62 And
: 688 4 62  I'm
: 696 12 60  hun
: 708 4 60 gry
: 712 6 60  like
: 720 8 60  the
: 728 12 62  wolf
- 742
: 748 4 64 Strad
: 752 4 64 dle
: 756 4 64  the
: 760 10 64  line
- 772
: 776 4 57 In
: 780 4 64  dis
: 784 4 64 cord
: 788 4 64  and
* 792 10 62  rhyme
- 804
: 812 4 62 I'm
: 816 4 62  on
: 820 4 62  the
: 824 8 60  hunt
: 832 6 60  I'm
: 840 6 60  af
: 848 6 60 ter
: 856 8 60  you
- 866 867
: 876 4 64 Mouth
: 880 4 64  is
: 884 4 64  a
: 888 10 64 live
- 900
: 908 4 64 Jui
: 912 4 64 ces
: 916 4 64  like
: 920 10 62  wine
- 932
: 936 8 62 And
: 944 8 62  I'm
: 954 10 60  hun
: 964 4 60 gry
: 968 6 60  like
: 976 8 60  the
: 984 26 62  wolf
- 1012 1068
: 1088 4 64 Stalked
: 1092 4 64  in
: 1096 4 64  the
: 1100 4 64  fo
: 1104 6 56 rest
- 1112
: 1116 4 57 Too
: 1120 4 56  close
: 1124 4 57  to
: 1128 10 59  hide
- 1140 1141
: 1152 4 64 I'll
: 1156 4 64  be
: 1160 4 64  u
: 1164 4 64 pon
: 1168 3 56  you
- 1172
: 1172 4 56 By
: 1176 4 56  the
: 1180 4 57  moon
: 1184 6 56 light
: 1192 6 59  side
- 1199
: 1200 4 64 Do
: 1206 3 64  do
: 1212 6 64  do
: 1218 3 62  do
: 1223 3 62  do
: 1228 6 62  do
: 1234 3 61  do
: 1239 3 61  do
- 1243
: 1244 6 61 Do
: 1250 3 59  do
: 1256 3 59  do
: 1260 6 59  do
: 1266 3 57  do
: 1272 3 59  do
* 1280 10 59  do
- 1292 1324
: 1344 4 64 High
: 1352 4 64  blood
: 1356 4 64  drum
: 1360 3 56 ming
- 1364
: 1364 4 56 On
: 1368 4 56  your
: 1372 4 57  skin,
: 1376 4 56  it's
: 1380 4 57  so
: 1384 10 59  tight
- 1396 1397
: 1408 4 64 You
: 1412 4 64  feel
: 1416 4 64  my
: 1420 3 64  heat
- 1424
: 1424 4 56 I'm
: 1428 4 56  just
: 1432 4 56  a
: 1436 4 57  mo
: 1440 4 56 ment
: 1444 4 57  be
: 1448 4 59 hind
- 1454
: 1456 4 64 Do
: 1462 3 64  do
: 1468 6 64  do
: 1474 3 62  do
: 1479 3 62  do
: 1484 6 62  do
: 1490 3 61  do
: 1495 3 61  do
- 1499
: 1500 6 61 Do
: 1506 3 59  do
: 1512 3 59  do
: 1516 6 59  do
: 1522 3 57  do
: 1528 3 59  do
: 1536 12 59  do
- 1550 1588
: 1608 4 55 In
: 1612 4 64  touch
: 1616 4 64  with
: 1620 4 64  the
: 1624 10 62  ground
- 1636
: 1644 4 62 I'm
: 1648 4 62  on
: 1652 4 62  the
: 1656 8 60  hunt
: 1664 6 60  I'm
: 1672 6 60  af
: 1680 6 60 ter
: 1688 8 60  you
- 1698 1699
: 1707 4 64 Scent
: 1711 4 64  and
: 1715 4 64  a
* 1719 11 64  sound
- 1732
: 1735 4 57 I'm
: 1739 4 64  lost
: 1743 4 64  and
: 1747 4 64  I'm
: 1751 9 62  found
- 1762
: 1768 8 62 And
: 1776 8 62  I'm
: 1786 10 60  hun
: 1796 4 60 gry
: 1800 6 60  like
: 1808 8 60  the
: 1816 10 62  wolf
- 1828
: 1835 4 64 Strut
: 1839 4 64  on
: 1843 4 64  a
: 1847 11 64  line
- 1860
: 1863 4 57 It's
: 1867 4 64  dis
: 1871 4 64 cord
: 1875 4 64  and
: 1879 10 62  rhyme
- 1891
: 1895 4 62 I
: 1899 4 62  howl
: 1903 4 62  and
: 1907 4 62  I
: 1911 8 60  whine,
: 1919 6 60  I'm
: 1927 6 60  af
: 1935 6 60 ter
: 1943 8 60  you
- 1953 1954
: 1963 4 64 Mouth
: 1967 4 64  is
: 1971 4 64  a
: 1975 10 64 live
- 1987
: 1991 4 57 All
: 1995 4 64  run
: 1999 4 64 ning
: 2003 4 64  in
: 2007 10 62 side
- 2019
: 2023 8 62 And
: 2031 8 62  I'm
: 2041 10 60  hun
: 2051 4 60 gry
: 2055 6 60  like
: 2063 8 60  the
* 2071 24 62  wolf
- 2097 2343
F 2363 6 57 Hungry
F 2370 2 57  like
F 2373 2 57  the
F 2375 2 57  wolf
- 2379 2380
F 2395 6 57 Hungry
F 2402 2 57  like
F 2405 2 57  the
F 2407 2 57  wolf
- 2411 2412
F 2427 6 57 Hungry
F 2434 2 57  like
F 2437 2 57  the
F 2439 2 57  wolf
- 2443 2583
: 2603 4 64 Burn
: 2607 4 64 ing
: 2611 4 64  the
: 2615 8 64  ground
- 2625
: 2631 4 64 I
: 2635 4 64  break
: 2639 4 64  from
: 2643 4 64  the
: 2647 8 62  crowd
- 2657 2658
: 2667 4 62 I'm
: 2671 4 62  on
: 2675 4 62  the
: 2679 8 60  hunt,
: 2687 6 60  I'm
: 2695 6 60  af
: 2703 6 60 ter
* 2711 8 60  you
- 2721
: 2727 4 60 I
: 2731 4 64  smell
: 2735 4 64  like
: 2739 4 64  I
: 2743 10 64  sound
- 2755
: 2759 4 55 I'm
: 2763 4 64  lost
: 2767 4 64  and
: 2771 4 64  I'm
: 2775 9 62  found
- 2786
: 2791 8 62 And
: 2799 8 62  I'm
* 2810 9 60  hun
: 2819 4 60 gry
: 2823 6 60  like
: 2832 8 60  the
: 2840 10 62  wolf
- 2852
: 2859 4 64 Strut
: 2863 4 64  on
: 2867 4 64  a
: 2871 8 64  line
- 2881
: 2887 4 64 It's
: 2891 4 64  dis
: 2895 4 64 cord
: 2899 4 64  and
: 2903 8 62  rhyme
- 2913 2914
: 2923 4 62 I'm
: 2927 4 62  on
: 2931 4 62  the
: 2935 8 60  hunt,
: 2943 6 60  I'm
: 2951 6 60  af
: 2959 6 60 ter
: 2967 8 60  you
- 2977 2978
: 2987 4 64 Mouth
: 2991 4 64  is
: 2995 4 64  a
: 2999 10 64 live
- 3011
: 3019 4 64 Jui
: 3023 4 64 ces
: 3027 4 64  like
: 3031 10 62  wine
- 3043
: 3047 8 62 And
: 3055 8 62  I'm
: 3066 9 60  hun
: 3075 4 60 gry
: 3079 6 60  like
: 3087 8 60  the
* 3095 11 62  wolf
- 3108
: 3115 4 64 Burn
: 3119 4 64 ing
: 3123 4 64  the
* 3127 10 64  ground
- 3139
: 3143 4 64 I
: 3147 4 64  break
: 3151 4 64  from
: 3155 4 64  the
: 3159 8 62  crowd
- 3169 3170
: 3179 4 62 I'm
: 3183 4 62  on
: 3187 4 62  the
: 3191 8 60  hunt,
: 3199 6 60  I'm
: 3207 6 60  af
: 3215 6 60 ter
: 3223 8 60  you
- 3233 3234
: 3243 4 64 Scent
: 3247 4 64  and
: 3251 4 64  a
: 3255 9 64  sound
- 3266
: 3271 4 55 I'm
* 3275 4 64  lost
: 3279 4 64  and
: 3283 4 64  I'm
: 3287 9 62  found
- 3298
: 3303 8 62 And
: 3311 8 62  I'm
: 3322 9 60  hun
: 3331 4 60 gry
: 3335 6 60  like
: 3343 8 60  the
: 3351 12 62  wolf
E
