#TITLE:Ordinary World
#ARTIST:Duran Duran
#LANGUAGE:Englisch
#EDITION:Singstar Rock Ballads
#MP3:Duran Duran - Ordinary World.mp3
#COVER:Duran Duran - Ordinary World [CO].jpg
#BACKGROUND:Duran Duran - Ordinary World [BG].jpg
#BPM:280,14
#GAP:14885,41
: 0 5 56 Came
: 8 4 61  in
: 16 4 63  from
- 22
: 24 3 61 A
: 28 7 63  rai
: 40 3 61 ny
: 44 4 63  Thurs
: 48 4 61 ~
: 56 5 61 day
- 62
: 64 5 63 On
: 72 5 61  the
: 80 3 61  a
: 84 2 63 ve
* 88 8 56 nue
- 98
: 128 6 56 Thought
: 136 5 61  I
: 144 5 61  heard
: 152 2 61  you
- 155
: 156 10 63 Talk
: 168 4 64 ing
: 173 4 63  soft
: 183 11 61 ly
- 196
: 256 5 56 I
: 264 4 61  turned
: 272 3 63  on
: 275 3 61 ~
: 280 2 61  the
: 284 5 63  lights
- 291
: 296 2 61 The
: 300 5 63  T
: 308 7 61  V
- 317
: 320 2 63 And
: 328 5 61  the
: 336 3 61  ra
: 340 2 63 di
: 344 8 56 o
- 354
: 384 5 56 Still
: 392 5 61  I
: 400 5 61  can't
: 408 2 61  es
* 412 7 63 cape
- 421
: 424 3 64 The
: 428 5 63  ghost
: 440 4 61  of
: 444 3 59 ~
: 448 4 61  you
: 452 7 59 ~
- 461
: 512 5 56 What
: 520 5 61  has
: 528 7 61  hap
: 536 2 61 pened
- 539
: 540 4 63 To
: 544 3 61 ~
: 547 3 61  it
: 552 7 61  all?
- 561
: 576 6 56 Cra
: 584 5 61 zy
: 592 4 63  some
: 596 2 61  are
: 600 3 63  say
* 604 10 63 ing
- 616
: 640 6 61 Where
: 648 4 61  is
: 656 7 61  the
: 664 9 61  life
- 675
: 680 7 59 That
: 688 6 63  I
: 696 4 61  re
: 700 3 63 cog
: 706 14 59 nise?
- 722
: 752 3 59 Gone
: 756 3 61  a
: 760 8 59 way
- 770
: 780 4 59 But
: 784 3 63  I
: 788 6 66  won't
: 800 5 66  cry
- 806
: 808 3 66 For
: 812 10 64  yes
: 824 3 63 ter
: 828 10 61 day
- 840
: 848 5 61 There's
: 856 3 59  an
: 860 10 61  or
: 872 3 59 di
: 876 10 61 na
: 888 2 64 ry
: 892 13 64  world
- 907
: 912 3 61 Some
: 916 7 64 how
: 924 18 64  I
- 943
: 944 7 64 Have
: 952 2 66  to
: 956 34 66  find
- 992
: 1036 3 59 And
: 1040 2 63  as
: 1044 7 66  I
: 1056 5 66  try
- 1062
: 1064 2 66 To
: 1068 7 64  make
: 1076 10 63  my
: 1088 9 61  way
- 1099
: 1104 6 61 To
: 1112 2 59  the
: 1116 9 61  or
: 1128 2 59 di
: 1132 9 61 na
: 1144 2 64 ry
: 1148 12 64  world
- 1162
: 1168 4 61 I
: 1172 4 64  will
: 1180 12 64  learn
- 1194
: 1200 7 64 To
: 1208 2 66  sur
* 1212 45 66 vive
- 1259
: 1409 5 56 Pas
: 1417 5 61 sion
: 1425 5 63  or
: 1433 3 61  co
: 1437 4 63 in
: 1445 3 61 ci
: 1449 6 63 dence
- 1457
: 1465 5 61 Once
: 1473 4 61  promp
: 1481 4 61 ted
: 1489 4 61  you
: 1493 3 63  to
: 1497 10 56  say
- 1509
: 1537 5 56 ''Pride
: 1545 5 61  will
: 1553 5 61  tear
: 1561 4 61  us
- 1567
: 1569 5 63 Both
: 1577 3 64  a
: 1581 4 63 part
: 1585 9 61 ~
- 1596
: 1641 6 59 Well
: 1649 4 58  now
: 1657 9 56  pride's
: 1673 4 61  gone
- 1679
: 1681 3 63 Out
: 1689 3 61  the
: 1693 4 63  win
: 1701 6 61 dow
- 1709
: 1713 5 63 'Cross
: 1721 3 61  the
: 1725 5 63  roof
: 1733 6 61 tops
- 1741
: 1749 4 61 Run
: 1753 3 63  a
: 1757 8 56 way
- 1767
: 1793 5 56 Left
: 1801 5 61  me
: 1809 3 63  in
: 1817 3 61  the
: 1822 4 63  va
: 1831 8 64 cuum
- 1840
: 1841 4 63 Of
: 1849 4 61  my
: 1853 4 59 ~
: 1857 4 61  heart
: 1861 9 59 ~
- 1872
: 1921 6 56 What
: 1929 4 61  is
: 1937 4 63  hap
: 1945 3 61 'ning
: 1949 4 63  to
: 1957 7 61  me?
- 1966
: 1985 8 56 Cra
: 1993 4 61 zy
: 2001 4 63  some
: 2005 4 61  are
: 2009 5 63  say
: 2014 5 63 ing
- 2021
: 2049 6 61 Where
: 2057 3 61  is
: 2065 3 61  my
: 2074 9 61  friend
- 2085
: 2089 5 59 When
: 2097 4 63  I
* 2106 5 61  need
: 2115 3 63  you
: 2119 8 59  most?
- 2129
: 2162 4 59 Gone
: 2166 4 61  a
: 2170 8 59 way
- 2180
: 2190 4 59 But
: 2194 4 63  I
: 2198 5 66  won't
: 2210 6 66  cry
- 2217
: 2218 3 66 For
: 2222 9 64  yes
: 2234 3 63 ter
: 2238 9 61 day
- 2249
: 2258 5 61 There's
: 2266 3 59  an
: 2270 8 61  or
: 2282 3 59 di
: 2286 10 61 na
: 2298 3 64 ry
: 2302 11 64  world
- 2315
: 2322 3 61 Some
: 2326 6 64 how
: 2334 19 64  I
- 2354
: 2354 4 64 Have
: 2362 2 66  to
: 2366 39 66  find
- 2407
: 2446 3 59 And
: 2450 2 63  as
: 2454 6 66  I
: 2466 5 66  try
- 2472
: 2474 2 66 To
: 2478 6 64  make
: 2486 9 63  my
: 2498 8 61  way
- 2508
: 2514 6 61 To
: 2522 3 59  the
: 2526 9 61  or
: 2538 3 59 di
: 2542 10 61 a
: 2554 4 64 ry
: 2558 11 64  world
- 2571
: 2578 4 61 I
: 2582 6 64  will
: 2590 17 64  learn
- 2608
: 2610 7 64 To
: 2618 2 66  sur
: 2622 44 66 vive
- 2668
: 2738 7 68 Ooh
: 2746 3 63 ~
: 2750 11 66 ~
: 2762 8 68 ~
- 2772
: 2802 4 63 Ah
: 2806 4 61 ~
: 2810 3 56 ~
: 2814 20 59 ~
- 2836
: 2922 2 59 Just
: 2930 3 59  blow
: 2934 3 61  a
: 2938 7 59 way
- 2946
: 2946 55 71 Ah
- 3002
: 3002 3 69 Hey
: 3006 3 66 ~
: 3010 4 69 ~
: 3014 3 64 ~
: 3018 3 65 ~
: 3022 8 64 ~
: 3030 4 62 ~
: 3034 7 64 ~
- 3043
: 3070 4 65 Oh
: 3074 4 64 ~
: 3078 4 62 ~
: 3082 12 59 ~
- 3096
: 3202 6 54 Pa
: 3210 5 61 pers
: 3218 3 63  in
: 3226 3 61  the
: 3231 4 63  road
: 3242 5 61 side
- 3249
: 3251 5 63 Tell
: 3259 3 61  of
: 3266 3 63  suf
: 3272 4 61 fer
: 3278 5 61 ing
: 3286 4 63  and
: 3291 10 56  greed
- 3303
: 3330 5 56 Fear
: 3338 3 61  to
* 3342 6 63 day
- 3350
: 3358 4 61 For
: 3362 4 63 got
: 3370 4 64  to
: 3374 3 63 mor
: 3378 8 61 row
- 3388
: 3435 8 59 Ooh
: 3443 5 58 ~
: 3451 6 56  here
- 3459
: 3467 4 61 Be
: 3475 4 63 side
: 3483 3 61  the
: 3487 9 63  news
- 3497
: 3499 4 61 Of
: 3507 5 63  ho
: 3515 3 61 ly
: 3519 5 63  war
: 3524 6 61 ~
- 3531
: 3531 3 61 And
: 3539 5 61  ho
: 3547 2 63 ly
: 3551 11 56  need
- 3564
: 3587 6 56 Ours
: 3595 4 61  is
: 3603 4 61  just
- 3609
: 3615 2 61 A
: 3619 3 63  lit
* 3622 5 64 tle
- 3629
: 3635 3 63 Sor
: 3639 8 61 rowed
- 3649
: 3651 3 61 Talk
: 3654 10 59 ~
- 3666
: 3727 4 59 And
: 3731 4 63  I
: 3735 6 66  don't
- 3743
: 3747 6 66 Cry
: 3755 3 66  for
: 3759 10 64  yes
: 3771 2 63 ter
: 3775 10 61 day
- 3787
: 3795 6 61 There's
: 3803 2 59  an
: 3807 9 61  or
: 3819 3 59 di
: 3823 11 61 na
: 3835 2 64 ry
: 3839 13 64  world
- 3854
: 3859 4 61 Some
: 3863 6 64 how
: 3871 14 64  I
- 3887
: 3891 6 64 Have
: 3899 2 66  to
* 3903 36 66  find
- 3941
: 3983 4 59 And
: 3987 4 63  as
: 3991 8 66  I
: 4003 5 66  try
- 4009
: 4011 3 66 To
: 4015 7 64  make
: 4023 11 63  my
: 4035 12 61  way
- 4049
: 4051 5 61 To
: 4059 2 59  the
: 4063 10 61  or
: 4075 3 59 di
: 4079 11 61 na
: 4091 2 64 ry
: 4095 12 64  world
- 4109
: 4115 3 61 I
: 4119 6 64  will
: 4127 11 64  learn
- 4140
: 4147 7 64 To
: 4155 3 66  sur
: 4159 29 66 vive
- 4190
: 4211 2 68 Ev
: 4215 7 71 ery
: 4223 4 71 one
: 4227 55 73 ~
: 4283 3 71 ~
: 4287 3 68 ~
: 4291 10 71 ~
- 4303
: 4340 3 66 Is
* 4344 6 69  my
: 4352 19 71  world
- 4372
: 4372 3 61 I
: 4376 4 64  will
: 4383 13 64  learn
- 4398
: 4404 8 64 To
: 4412 3 66  sur
: 4416 36 66 vive
- 4454
: 4468 3 68 A
: 4472 3 71 ny
* 4476 64 73 one
: 4540 4 75 ~
: 4544 4 71 ~
: 4548 9 73 ~
- 4559
: 4596 2 66 Is
: 4600 6 69  my
: 4608 19 71  world
- 4628
: 4628 3 61 I
: 4632 5 64  will
: 4639 13 64  learn
- 4654
: 4660 6 64 To
: 4668 2 66  sur
: 4672 40 66 vive
- 4714
: 4724 4 68 A
: 4728 4 71 ny
: 4732 3 73 one
: 4736 4 74 ~
: 4740 7 73 ~
: 4748 48 71 ~
: 4796 3 69 ~
: 4800 4 66 ~
: 4804 9 69 ~
E
