#TITLE:Shape Of You
#ARTIST:Ed Sheeran
#MP3:Ed Sheeran - Shape Of You.mp3
#VIDEO:Ed Sheeran - Shape Of You.mp4
#COVER:Ed Sheeran - Shape Of You[CO].jpg
#BPM:383,95
#GAP:10195
#MedleyStartBeat:516
#MedleyEndBeat:1286
#ENCODING:UTF8
#PREVIEWSTART:30,354
#LANGUAGE:English
#GENRE:Pop
#YEAR:2017
: 0 1 -1 The
: 4 5 4  club
: 12 1 4  i
: 16 1 4 sn't
: 19 1 4  the
: 25 2 4  best
: 33 3 4  place
: 39 1 4  to
: 44 3 4  find
: 49 1 4  a
: 53 1 4  lo
: 56 1 4 ver
- 58
: 60 1 4 So
: 63 1 4  the
: 69 4 4  bar
: 77 2 4  is
: 84 3 8  where
: 90 2 8  I
* 98 6 8  go
- 106
: 132 2 11 Me
: 135 1 8  and
: 139 2 8  my
: 146 3 8  friends
: 152 2 8  at
: 159 1 8  the
: 164 2 6  ta
: 168 1 6 ble
: 173 1 6  do
: 176 1 8 ing
: 181 3 6  shots
- 186
: 188 1 4 Drin
: 192 1 4 king
: 197 2 6  fas
: 203 1 6 ter
: 205 1 6  and
: 208 1 6  then
: 211 1 6  we
: 217 2 4  talk
: 225 3 1  slow
- 230
: 257 2 1 Come
: 262 1 6  o
: 267 1 8 ver
: 269 1 8  and
: 273 1 8  start
: 276 1 8  up
: 279 1 8  a
: 285 1 8  con
: 288 1 8 ver
: 292 2 8 sa
: 297 1 8 tion
: 300 2 8  with
: 305 2 8  just
: 314 3 8  me
- 318
: 319 2 8 And
: 325 2 11  trust
: 332 2 8  me
: 336 2 8  I'll
: 341 2 6  give
: 344 1 6  it
: 347 1 4  a
* 355 11 8  chance
: 372 2 6  now
: 376 2 4 ~
- 380
: 382 1 4 Take
: 384 1 4  my
: 389 5 4  hand,
* 400 4 11  stop
- 406
: 408 1 8 Put
: 412 2 8  Van
: 416 1 8  The
: 420 2 6  Man
: 424 1 6  on
: 427 1 6  the
: 433 2 6  juke
: 441 2 6 box
- 445
: 449 2 6 And
: 454 3 6  then
: 461 1 6  we
: 468 5 6  start
: 476 1 4  to
: 481 3 1  dance
- 485
: 487 2 1 And
: 492 1 -4  now
: 495 1 -4  I'm
: 500 2 1  sin
: 504 1 1 ging
: 508 4 1  like
- 514
* 516 4 1 Girl,
: 525 2 1  you
: 532 3 1  know
: 540 3 -1  I
: 549 3 1  want
: 557 3 8  your
: 565 5 6  love
- 572
: 580 2 6 Your
: 586 3 6  love
: 592 1 8  was
: 597 3 6  hand
: 604 3 4 made
: 613 3 1  for
: 621 2 4  some
: 628 2 8 bo
: 632 2 6 dy
: 638 4 6  like
: 645 4 1  me
- 651
* 661 2 11 Come
: 664 1 8  on
: 669 3 8  now,
: 676 2 6  fo
: 680 2 4 llow
: 685 3 4  my
: 692 5 1  lead
- 699
: 707 2 6 I
: 713 5 6  may
: 721 1 8  be
: 726 3 6  cra
: 732 3 4 zy,
: 741 3 6  don't
: 748 4 4  mind
: 756 2 1  me
- 760
: 764 3 1 Say,
* 773 4 1  boy,
: 788 3 1  let's
: 796 3 -1  not
: 805 4 1  talk
: 813 3 8  too
: 821 5 6  much
- 828
: 836 2 6 Grab
: 841 3 6  on
: 848 2 8  my
: 853 2 6  waist
: 859 3 4  and
: 868 4 1  put
: 876 4 4  that
* 884 2 8  bo
* 889 2 6 dy
: 894 3 6  on
: 901 4 1  me
- 907
: 916 2 11 Come
: 920 1 8  on
: 925 3 8  now,
: 932 2 6  fo
: 936 2 4 llow
: 941 3 4  my
: 950 2 1  lead
- 954
* 957 3 1 Come,
* 964 2 11  come
: 968 1 8  on
: 973 4 8  now,
: 981 2 6  fo
: 984 1 4 llow
: 989 2 4  my
: 998 2 1  lead
- 1002
* 1007 3 -4 Mhh
* 1014 5 -1 ~
* 1022 3 1 ~
- 1027
: 1052 1 4 I'm
: 1056 1 6  in
* 1060 5 8  love
: 1068 1 6  with
: 1071 1 4  the
: 1077 3 4  shape
: 1083 5 6  of
: 1093 2 6  you
- 1097
: 1111 2 4 We
: 1116 1 4  push
: 1120 1 6  and
: 1125 4 8  pull
: 1132 2 6  like
: 1136 1 4  a
: 1140 3 4  mag
: 1148 4 6 net
* 1157 3 1  do
- 1162
: 1177 1 1 Al
: 1180 2 4 though
: 1184 1 6  my
: 1188 5 8  heart
: 1196 1 1  is
: 1204 4 4  fa
: 1212 3 6 lling
: 1221 3 6  too
- 1226
: 1244 2 4 I'm
: 1249 1 6  in
: 1253 5 8  love
: 1260 1 6  with
: 1264 2 4  your
* 1270 9 6  bo
: 1283 3 1 dy
- 1288
: 1305 1 6 And
: 1309 2 6  last
* 1316 4 8  night
: 1324 1 11  you
: 1328 2 8  were
: 1332 2 6  in
: 1341 3 4  my
: 1349 4 6  room
- 1355
: 1368 1 4 And
: 1372 2 4  now
: 1376 2 6  my
: 1381 3 8  bed
: 1388 2 6 sheets
: 1396 3 4  smell
: 1405 3 6  like
: 1412 3 1  you
- 1417
: 1420 2 1 Eve
: 1424 1 1 ry
: 1428 2 1  day
: 1432 1 1  dis
: 1436 1 4 co
: 1440 2 6 ve
* 1445 2 8 ring
: 1452 2 1  some
: 1460 2 4 thing
: 1468 5 6  brand
: 1476 3 6  new
- 1481
: 1500 2 4 I'm
: 1505 1 6  in
: 1511 3 8  love
: 1516 2 6  with
: 1521 2 4  your
: 1527 7 6  bo
: 1537 2 1 dy
- 1540
* 1540 6 1 Oh
: 1549 2 1  i
: 1556 6 4  oh
: 1565 2 4  i
: 1573 5 6  oh
: 1581 2 6  i
: 1589 4 8  oh
: 1597 2 8  i
- 1601
: 1627 2 4 I'm
: 1632 1 6  in
: 1637 3 8  love
: 1643 2 6  with
: 1648 2 4  your
: 1654 7 6  bo
: 1665 2 1 dy
- 1668
: 1668 6 1 Oh
: 1677 2 1  i
: 1684 6 4  oh
: 1693 2 4  i
: 1701 5 6  oh
: 1709 2 6  i
: 1717 5 8  oh
: 1725 2 8  i
- 1729
: 1755 2 4 I'm
: 1760 1 6  in
: 1766 3 8  love
: 1771 2 6  with
: 1776 2 4  your
: 1782 7 6  bo
: 1792 2 1 dy
- 1795
: 1796 6 1 Oh
: 1805 2 1  i
: 1812 6 4  oh
: 1821 2 4  i
: 1829 5 6  oh
: 1837 2 6  i
: 1845 5 8  oh
: 1853 2 8  i
- 1857
: 1883 2 4 I'm
: 1888 1 6  in
* 1894 3 8  love
: 1899 2 6  with
: 1904 2 4  your
: 1910 7 6  bo
: 1920 2 1 dy
- 1924
: 1932 2 1 Eve
: 1936 1 1 ry
: 1940 2 1  day
: 1944 1 1  dis
: 1948 1 4 co
: 1952 2 6 ve
: 1957 2 8 ring
: 1964 2 1  some
: 1972 2 4 thing
: 1980 5 6  brand
: 1988 3 6  new
- 1993
: 2012 2 4 I'm
: 2016 2 6  in
: 2021 4 8  love
: 2028 1 6  with
: 2032 1 4  the
* 2036 3 4  shape
: 2045 4 6  of
: 2052 1 1  you
- 2053
: 2053 2 4 One
: 2057 2 4  week
: 2063 3 4  in
: 2071 2 4  we
: 2075 1 4  let
: 2078 1 4  the
: 2084 1 4  sto
: 2087 1 4 ry
: 2091 1 4  be
: 2096 2 4 gin
- 2100
: 2104 1 4 We're
: 2108 2 4  go
: 2113 2 4 ing
: 2118 3 4  out
: 2125 2 4  on
: 2131 2 8  our
: 2137 3 8  first
: 2145 5 8  date
- 2152
: 2172 2 8 You
: 2176 1 8  and
: 2180 1 11  me
: 2186 2 6  are
: 2192 2 8  thrif
: 2199 1 8 ty
- 2202
: 2204 1 6 So
: 2208 1 6  go
: 2212 1 6  all
: 2215 1 6  you
: 2220 1 6  can
: 2224 3 6  eat
- 2229
: 2232 2 6 Fill
: 2235 1 6  up
: 2239 1 6  your
: 2244 4 6  bag
: 2252 2 6  and
: 2256 1 8  I
: 2260 1 6  fill
: 2264 1 4  up
: 2267 1 4  a
: 2273 5 4  plate
- 2280
: 2296 1 8 We
: 2300 1 8  talk
: 2303 1 8  for
* 2307 3 13  ho
: 2312 2 13 urs
: 2316 2 13  and
: 2320 2 13  ho
: 2324 1 13 urs
: 2328 1 13  a
: 2332 1 11 bout
: 2335 1 6  the
: 2340 2 11  sweet
: 2345 1 6  and
: 2347 1 6  the
: 2352 2 6  so
: 2357 2 6 ur
- 2360
: 2360 2 6 And
: 2364 1 6  how
: 2367 1 6  your
: 2371 2 6  fa
: 2376 1 6 mi
: 2380 1 6 ly
: 2383 1 6  is
: 2388 2 6  do
: 2392 2 6 ing
: 2396 2 8  o
: 2402 3 8 kay
- 2407
: 2427 2 4 Leave
: 2431 1 4  and
: 2435 2 4  get
: 2439 2 4  in
: 2442 1 4  a
* 2448 2 8  ta
* 2456 2 8 xi,
: 2464 1 4  then
: 2468 1 4  kiss
: 2472 1 4  in
: 2475 1 4  the
: 2481 3 8  back
: 2488 2 8 seat
- 2491
: 2493 1 8 Tell
: 2496 1 8  the
: 2500 2 6  dri
: 2504 1 6 ver
: 2508 2 6  make
: 2512 1 8  the
: 2516 2 6  ra
: 2521 1 4 di
: 2523 1 4 o
: 2529 3 4  play
- 2534
* 2537 4 -4 And
: 2544 1 -4  I'm
: 2548 2 1  sin
: 2552 1 1 ging
: 2557 4 1  like
- 2563
: 2565 4 1 Girl,
: 2575 3 1  you
: 2582 3 1  know
: 2590 3 -1  I
: 2597 3 1  want
: 2607 3 8  your
: 2615 5 6  love
- 2622
: 2628 2 6 Your
: 2634 3 6  love
: 2640 1 8  was
* 2645 3 6  hand
* 2652 3 4 made
: 2661 3 1  for
: 2669 2 4  some
: 2676 2 8 bo
: 2680 2 6 dy
: 2686 4 6  like
: 2693 4 1  me
- 2699
: 2709 2 11 Come
: 2712 1 8  on
: 2717 3 8  now,
: 2724 2 6  fo
: 2728 2 4 llow
: 2733 3 4  my
: 2740 5 1  lead
- 2747
: 2756 2 6 I
: 2761 4 6  may
: 2768 1 8  be
: 2773 3 6  cra
: 2779 3 4 zy,
: 2788 3 6  don't
: 2795 4 4  mind
: 2803 2 1  me
- 2807
: 2813 3 1 Say,
: 2822 4 1  boy,
: 2837 3 1  let's
: 2845 3 -1  not
: 2854 4 1  talk
: 2862 3 8  too
: 2870 5 6  much
- 2877
: 2885 2 6 Grab
: 2890 3 6  on
: 2897 2 8  my
: 2901 2 6  waist
: 2908 3 4  and
: 2917 4 1  put
: 2925 4 4  that
: 2932 2 8  bo
: 2937 2 6 dy
: 2942 3 6  on
: 2949 4 1  me
- 2955
: 2964 2 11 Come
: 2968 1 8  on
: 2974 3 8  now,
: 2980 2 6  fo
: 2984 2 4 llow
: 2989 3 4  my
: 2998 2 1  lead
- 3002
: 3004 3 1 Come,
: 3012 1 11  come
: 3016 1 8  on
: 3021 4 8  now,
: 3029 2 6  fo
: 3032 1 4 llow
: 3037 2 4  my
: 3046 3 1  lead
- 3051
* 3053 3 -4 Mhh
* 3062 5 -1 ~
* 3071 3 1 ~
- 3076
: 3100 1 4 I'm
: 3104 1 6  in
: 3108 5 8  love
: 3116 1 6  with
: 3119 1 4  the
: 3125 3 4  shape
: 3131 5 6  of
: 3141 2 6  you
- 3145
: 3159 1 4 We
: 3164 1 4  push
: 3168 1 6  and
: 3173 4 8  pull
: 3180 2 6  like
: 3184 1 4  a
* 3188 3 4  mag
* 3196 4 6 net
: 3205 3 1  do
- 3210
: 3224 1 4 Al
: 3227 2 4 though
: 3231 1 6  my
: 3235 5 8  heart
: 3245 1 1  is
: 3251 4 4  fa
: 3259 3 6 lling
: 3268 3 6  too
- 3273
: 3292 2 4 I'm
: 3297 1 6  in
: 3301 5 8  love
: 3308 1 6  with
: 3312 2 4  your
: 3318 9 6  bo
: 3331 3 1 dy
- 3336
: 3357 2 6 Last
: 3364 4 8  night
: 3372 1 11  you
: 3376 2 8  were
: 3380 2 4  in
: 3389 3 4  my
: 3397 4 6  room
- 3403
: 3416 1 4 And
: 3420 2 4  now
: 3424 2 6  my
: 3429 3 8  bed
: 3436 2 6 sheets
: 3444 3 4  smell
: 3453 3 6  like
: 3460 3 1  you
- 3465
: 3468 2 1 Eve
: 3472 1 1 ry
: 3476 2 1  day
: 3480 1 1  dis
: 3484 1 4 co
: 3488 2 6 ve
: 3493 2 8 ring
: 3500 2 1  some
: 3508 2 4 thing
: 3516 5 6  brand
: 3524 3 6  new
- 3529
: 3548 2 4 I'm
: 3553 1 6  in
: 3558 3 8  love
: 3564 1 6  with
: 3568 2 4  your
: 3574 7 6  bo
: 3584 2 1 dy
- 3587
* 3587 6 1 Oh
* 3596 2 1  i
: 3603 6 4  oh
: 3612 2 4  i
: 3620 5 6  oh
: 3628 2 6  i
: 3636 4 8  oh
: 3644 2 8  i
- 3648
: 3676 2 4 I'm
: 3681 1 6  in
: 3686 3 8  love
: 3691 2 6  with
: 3696 2 4  your
: 3702 7 6  bo
: 3712 2 1 dy
- 3715
: 3715 6 1 Oh
: 3724 2 1  i
: 3731 6 4  oh
: 3740 2 4  i
: 3748 5 6  oh
: 3756 2 6  i
: 3764 5 8  oh
: 3772 2 8  i
- 3776
: 3803 2 4 I'm
: 3808 1 6  in
: 3814 3 8  love
: 3819 2 6  with
: 3824 2 4  your
: 3830 7 6  bo
: 3840 2 1 dy
- 3843
: 3844 6 1 Oh
: 3853 2 1  i
: 3860 6 4  oh
: 3869 2 4  i
: 3877 5 6  oh
: 3885 2 6  i
: 3893 5 8  oh
: 3901 2 8  i
- 3905
: 3930 2 4 I'm
: 3935 1 6  in
: 3941 3 8  love
: 3946 2 6  with
: 3951 2 4  your
: 3957 7 6  bo
: 3967 2 1 dy
- 3971
: 3979 2 1 Eve
: 3983 1 1 ry
: 3987 2 1  day
: 3991 1 1  dis
: 3996 1 4 co
: 3999 2 6 ve
: 4004 2 8 ring
: 4011 2 1  some
: 4019 2 4 thing
: 4027 5 6  brand
: 4035 3 6  new
- 4040
: 4059 2 4 I'm
: 4063 2 6  in
: 4069 3 8  love
: 4075 1 6  with
: 4079 1 4  the
: 4083 3 4  shape
: 4092 4 6  of
: 4099 2 1  you
- 4103
: 4107 2 8 Come
: 4112 4 8  on,
: 4120 3 6  be
: 4127 2 4  my
: 4134 3 6  ba
: 4141 3 8 by,
: 4149 3 1  come
: 4156 4 1  on
- 4162
: 4172 2 8 Come
: 4177 4 8  on,
: 4185 3 6  be
: 4192 2 4  my
* 4199 3 6  ba
* 4206 3 4 by,
: 4214 3 1  come
: 4221 4 1  on
- 4227
: 4236 2 8 Come
: 4241 4 8  on,
: 4249 3 6  be
: 4256 2 4  my
: 4263 3 6  ba
: 4270 3 8 by,
: 4278 3 1  come
: 4285 4 1  on
- 4291
: 4300 2 8 Come
: 4305 4 8  on,
: 4313 3 6  be
: 4320 2 4  my
: 4327 3 6  ba
: 4334 3 4 by,
* 4342 3 1  come
* 4349 4 1  on
- 4355
: 4364 2 8 Come
: 4369 4 8  on,
: 4376 3 6  be
: 4384 2 4  my
: 4391 3 6  ba
: 4398 3 8 by,
: 4406 3 1  come
: 4413 4 1  on
- 4419
: 4429 2 8 Come
: 4434 4 8  on,
: 4441 3 6  be
: 4448 2 4  my
: 4455 3 6  ba
: 4462 3 4 by,
: 4469 3 1  come
: 4476 4 1  on
- 4482
: 4492 2 8 Come
: 4497 4 8  on,
: 4504 3 6  be
: 4512 2 4  my
: 4519 3 6  ba
: 4526 3 8 by,
: 4534 3 1  come
: 4541 4 1  on
- 4547
: 4557 2 8 Come
: 4562 4 8  on,
: 4569 3 6  be
: 4577 2 4  my
: 4583 3 6  ba
: 4590 3 4 by,
: 4598 3 1  come
: 4605 4 1  on
- 4611
: 4637 1 4 I'm
: 4641 1 6  in
: 4645 5 8  love
: 4653 1 6  with
: 4656 1 4  the
: 4662 3 4  shape
: 4668 5 6  of
: 4678 2 6  you
- 4682
: 4700 1 4 Push
: 4704 1 6  and
: 4709 4 8  pull
: 4716 2 6  like
: 4720 1 4  a
: 4724 3 4  mag
: 4732 4 6 net
: 4741 3 1  do
- 4746
: 4761 1 4 Al
: 4764 2 4 though
: 4768 1 6  my
: 4772 5 8  heart
: 4780 1 1  is
: 4788 4 4  fa
: 4796 3 6 lling
: 4805 3 6  too
- 4810
: 4828 2 4 I'm
: 4833 1 6  in
: 4837 5 8  love
: 4844 1 6  with
: 4848 2 4  your
: 4854 9 6  bo
: 4867 3 1 dy
- 4872
: 4893 2 6 Last
: 4900 4 8  night
: 4908 1 11  you
: 4912 2 8  were
: 4916 2 4  in
: 4925 3 4  my
: 4933 4 6  room
- 4939
: 4952 1 4 And
: 4956 2 4  now
: 4960 2 6  my
: 4965 3 8  bed
: 4972 2 6 sheets
: 4980 3 4  smell
: 4989 3 6  like
: 4996 3 1  you
- 5001
: 5004 2 1 Eve
: 5008 1 1 ry
: 5012 2 1  day
: 5016 1 1  dis
: 5020 1 4 co
: 5024 2 6 ve
: 5029 2 8 ring
: 5036 2 1  some
: 5044 2 4 thing
: 5052 5 6  brand
: 5060 3 6  new
- 5065
: 5083 2 4 I'm
: 5088 1 6  in
: 5094 3 8  love
: 5099 2 6  with
: 5104 2 4  your
: 5110 7 6  bo
: 5120 2 1 dy
- 5124
: 5132 2 8 Come
: 5137 4 8  on,
: 5144 3 6  be
: 5152 2 4  my
: 5159 3 6  ba
: 5166 3 8 by,
: 5174 3 1  come
: 5181 4 1  on
- 5187
: 5211 2 4 I'm
: 5216 1 6  in
: 5222 3 8  love
: 5227 2 6  with
: 5232 2 4  your
* 5240 6 6  bo
* 5248 2 4 ~
* 5251 2 1 ~
* 5256 2 4 ~
* 5261 2 1 dy
- 5265
: 5272 3 6 Be
: 5280 2 4  my
: 5287 3 6  ba
: 5294 3 8 by,
: 5302 3 1  come
: 5309 4 1  on
- 5315
: 5340 2 4 I'm
: 5345 1 6  in
: 5351 3 8  love
* 5356 2 11  with
* 5360 2 11  your
* 5365 1 6  bo
* 5369 2 4 ~
* 5373 1 1 ~
* 5376 3 1 dy
- 5381
* 5413 16 13 By
* 5431 1 11 ~
* 5434 4 8 ~
- 5440
: 5451 2 8 Come
: 5456 4 8  on,
: 5463 3 6  be
: 5471 2 4  my
: 5478 3 6  ba
: 5485 3 4 by,
: 5493 3 1  come
: 5500 4 1  on
- 5506
: 5516 2 1 Eve
: 5520 1 1 ry
: 5524 2 1  day
: 5528 1 1  dis
: 5532 1 4 co
: 5536 2 6 ve
: 5541 2 8 ring
: 5548 2 1  some
: 5556 2 4 thing
: 5564 5 6  brand
: 5572 3 6  new
- 5577
: 5597 1 4 I'm
: 5601 1 6  in
: 5605 5 8  love
: 5612 1 6  with
: 5615 1 4  the
* 5620 5 6  shape
* 5628 5 6  of
* 5640 8 1  you
E