#TITLE:On My Mind
#ARTIST:Ellie Goulding
#MP3:Ellie Goulding - On My Mind.mp3
#VIDEO:Ellie Goulding - On My Mind.mp4
#COVER:Ellie Goulding - On My Mind.jpg
#BPM:309.96
#GAP:2200
#ENCODING:UTF8
#LANGUAGE:English
#GENRE:Pop
#YEAR:2015
#AUTHOR:Coppo
: 572 3 7 Oh
: 576 3 9 ~
: 580 3 7 ~
: 584 3 5 ~
- 607
: 668 3 7 Oh
: 672 5 12 ~,
: 680 3 7  oh,
: 688 3 7  oh
: 692 5 9 ~,
: 700 5 9  oh
- 715
: 744 5 5 Eh
- 759
: 780 1 4 It's
: 782 3 5 ~
: 788 2 5  a
: 792 3 5  lit
: 796 2 5 tle
: 800 3 5  dirt
: 804 1 5 y
- 806
: 808 3 5 How
: 812 2 5  the
: 816 5 5  whole
: 824 5 5  thing
: 832 3 5  start
: 836 1 5 ed
: 838 3 9 ~
- 842
: 844 1 4 I
: 846 3 5 ~
: 852 2 5  don't
: 856 3 5  e
: 860 2 5 ven
: 864 3 5  real
: 868 2 5 ly
: 872 1 5  know
- 874
: 876 2 5 What
: 880 5 5  you
: 888 5 5  in
: 896 3 5 tent
: 900 1 5 ed
: 902 3 9 ~
- 906
: 908 1 4 Thought
: 910 3 5 ~
: 916 2 5  that
: 920 3 5  you
: 924 2 5  were
: 928 1 5  cute
- 930
: 932 2 5 And
: 936 3 5  you
: 940 2 5  could
: 944 5 5  make
: 952 5 5  me
: 960 3 5  jea
: 964 1 5 lous
: 966 3 9 ~
- 970
: 972 1 4 Poured
: 974 3 5 ~
: 980 1 5  it
: 982 3 7 ~
: 988 5 2  down
- 994
: 996 3 5 So
: 1000 2 2  I
: 1004 1 4  poured
: 1006 3 5 ~
: 1012 1 5  it
: 1014 3 7 ~
: 1020 9 2  down
- 1034
: 1036 1 4 Next
: 1038 3 5 ~
: 1044 2 5  thing
: 1048 3 5  that
: 1052 2 5  I
: 1056 1 5  know
- 1058
: 1060 2 5 I'm
: 1064 3 5  in
: 1068 2 5  the
: 1072 5 5  ho
: 1080 5 5 tel
: 1088 3 5  with
: 1092 1 5  you
: 1094 3 9 ~
- 1098
: 1100 1 4 You
: 1102 3 5 ~
: 1108 2 5  were
: 1112 3 5  talk
: 1116 2 5 ing
: 1120 1 5  deep
- 1122
: 1124 2 5 Like
: 1128 3 5  it
: 1132 2 5  was
: 1136 5 5  mad
: 1144 5 5  love
: 1152 3 5  to
: 1156 1 5  you
: 1158 3 9 ~
- 1162
: 1164 1 4 You
: 1166 3 5 ~
: 1172 2 5  want
: 1176 3 5 ed
: 1180 2 5  my
: 1184 1 5  heart
- 1186
: 1188 2 5 But
: 1192 3 5  I
: 1196 2 5  just
: 1200 5 5  liked
: 1208 5 5  your
: 1216 3 5  tat
: 1220 1 5 toos
: 1222 3 9 ~
- 1226
: 1228 1 4 Poured
: 1230 3 5 ~
: 1236 1 5  it
: 1238 3 7 ~
: 1244 5 2  down
- 1250
: 1252 3 5 So
* 1256 2 2  I
* 1260 1 4  poured
* 1262 3 5 ~
* 1268 1 5  it
* 1270 3 7 ~
* 1276 5 2  down
- 1282
: 1284 3 2 And
: 1288 2 2  now
: 1292 1 12  I
: 1294 3 14 ~
: 1300 5 12  don't
: 1308 1 7  un
: 1310 5 9 ~
: 1316 5 7 der
: 1324 7 7 stand
: 1332 1 7  it
: 1334 3 9 ~
- 1345
: 1348 3 2 You
: 1352 2 2  don't
: 1356 1 12  mess
: 1358 3 14 ~
: 1364 5 12  with
: 1372 1 7  love
: 1374 3 9 ~
- 1378
: 1380 5 7 You
: 1388 5 7  mess
* 1396 3 9  with
* 1400 2 2  the
* 1404 3 5  truth
* 1408 1 2 ~
- 1410
: 1412 3 2 And
: 1416 2 2  I
: 1420 1 12  know
: 1422 3 14 ~
: 1428 5 12  I
: 1436 1 7  should
: 1438 5 9 ~
: 1444 5 7 n't
: 1452 7 7  say
: 1460 1 7  it
: 1462 3 9 ~
- 1473
: 1476 3 2 But
: 1480 2 2  my
: 1484 1 12  heart
: 1486 3 14 ~
: 1492 5 12  don't
: 1500 1 7  un
: 1502 5 9 ~
: 1508 5 7 der
: 1516 5 7 stand
- 1522
: 1524 3 7 Why
: 1528 3 7  I
: 1532 3 7  got
: 1536 3 7  you
: 1540 3 7  on
: 1544 3 7  my
: 1548 3 7  mind
: 1552 5 9 ~
- 1567
: 1588 3 7 Why
: 1592 3 7  I
: 1596 3 7  got
: 1600 3 7  you
: 1604 3 7  on
: 1608 3 7  my
: 1612 3 7  mind
: 1616 5 9 ~
- 1631
: 1652 3 7 Why
: 1656 3 7  I
: 1660 3 7  got
: 1664 3 7  you
: 1668 3 7  on
: 1672 3 7  my
: 1676 3 7  mind
: 1680 5 9 ~
- 1695
: 1716 3 7 Why
: 1720 3 7  I
: 1724 3 7  got
: 1728 1 7  you
- 1730
: 1732 3 2 But
* 1736 2 2  my
* 1740 1 12  heart
* 1742 3 14 ~
: 1748 5 12  don't
: 1756 1 7  un
: 1758 5 9 ~
: 1764 5 7 der
: 1772 5 7 stand
- 1778
: 1780 3 7 Why
: 1784 3 7  I
: 1788 3 7  got
: 1792 3 7  you
: 1796 3 7  on
: 1800 3 7  my
: 1804 3 7  mind
: 1808 5 9 ~
- 1823
: 1844 3 7 Why
: 1848 3 7  I
: 1852 3 7  got
: 1856 3 7  you
: 1860 3 7  on
: 1864 3 7  my
: 1868 3 7  mind
: 1872 5 9 ~
- 1887
: 1908 3 7 Why
: 1912 3 7  I
: 1916 3 7  got
: 1920 3 7  you
: 1924 3 7  on
: 1928 3 7  my
: 1932 3 7  mind
: 1936 5 9 ~
- 1951
: 1972 3 7 Why
: 1976 3 7  I
: 1980 3 7  got
: 1984 3 7  you
: 1988 3 7  on
: 1992 3 7  my
: 1996 3 7  mind
: 2000 5 9 ~
- 2025
: 2060 1 4 Now
: 2062 3 5 ~
: 2068 2 5  I
: 2072 3 5  al
: 2076 2 5 ways
: 2080 5 5  hear
- 2086
: 2088 3 5 Al
: 2092 2 5 ways
: 2096 5 5  hear
: 2104 5 5  them
: 2112 3 5  talk
: 2116 1 5 ing
: 2118 3 9 ~
- 2122
: 2124 1 4 Talk
: 2126 3 5 ~
: 2132 2 5 ing
: 2136 3 5  'bout
: 2140 2 5  a
: 2144 5 5  girl
- 2150
: 2152 3 5 'Bout
: 2156 2 5  a
: 2160 5 5  girl
: 2168 5 5  with
: 2176 3 5  my
: 2180 1 5  name
: 2182 3 9 ~
- 2186
: 2188 1 4 Say
: 2190 3 5 ~
: 2196 2 5 ing
: 2200 3 5  that
: 2204 2 5  I
: 2208 3 5  hurt
: 2212 1 5  you
- 2214
: 2216 3 5 But
: 2220 2 5  I
: 2224 5 5  still
: 2232 5 5  don't
: 2240 3 5  get
: 2244 1 5  it
- 2246
: 2248 2 2 You
: 2252 1 4  did
: 2254 3 5 n't
: 2260 1 5  love
: 2262 3 7 ~
: 2268 5 2  me
- 2274
: 2276 3 5 No
: 2280 2 2 ~,
: 2284 1 4  not
: 2286 3 5 ~
: 2292 1 5  real
: 2294 5 7 ~
: 2300 9 2 ly
- 2314
: 2316 11 5 Wait
- 2337
: 2348 2 5 I
: 2352 3 5  could
: 2356 2 5  have
* 2360 3 5  real
* 2364 2 5 ly
* 2368 3 5  liked
* 2372 1 5  you
* 2374 3 9 ~
- 2385
: 2388 2 5 I'll
: 2392 3 5  bet,
: 2396 2 5  I'll
: 2400 3 5  bet
: 2404 2 5  that's
: 2408 1 5  why
- 2410
: 2412 2 5 I
: 2416 3 5  keep
: 2420 2 5  on
: 2424 3 5  think
: 2428 2 5 ing
: 2432 3 5  'bout
: 2436 1 9  you
- 2438
* 2440 1 2 It's
* 2442 1 2  a
* 2444 7 5  shame
* 2452 1 4 ~
* 2454 3 2 ~
- 2468
: 2472 2 2 You
: 2476 5 5  said
: 2484 3 5  I
: 2488 2 2  was
: 2492 5 5  good
- 2498
: 2500 3 5 So
: 2504 2 2  I
: 2508 1 4  poured
: 2510 3 5 ~
: 2516 1 5  it
: 2518 3 7 ~
: 2524 5 2  down
- 2530
: 2532 3 5 So
: 2536 2 2  I
: 2540 1 4  poured
: 2542 3 5 ~
: 2548 1 5  it
: 2550 3 7 ~
: 2556 5 2  down
- 2562
: 2564 3 2 And
: 2568 2 2  now
: 2572 1 12  I
: 2574 3 14 ~
: 2580 5 12  don't
: 2588 1 7  un
: 2590 5 9 ~
: 2596 5 7 der
: 2604 7 7 stand
: 2612 1 7  it
: 2614 3 9 ~
- 2625
: 2628 3 2 You
: 2632 2 2  don't
: 2636 1 12  mess
: 2638 3 14 ~
: 2644 5 12  with
: 2652 1 7  love
: 2654 3 9 ~
- 2658
: 2660 5 7 You
: 2668 5 7  mess
: 2676 3 9  with
: 2680 2 2  the
: 2684 3 5  truth
: 2688 1 2 ~
- 2690
: 2692 3 2 And
: 2696 2 2  I
: 2700 1 12  know
: 2702 3 14 ~
* 2708 5 12  I
* 2716 1 7  should
* 2718 5 9 ~
* 2724 5 7 n't
* 2732 7 7  say
* 2740 1 7  it
* 2742 3 9 ~
- 2753
: 2756 3 2 But
: 2760 2 2  my
: 2764 1 12  heart
: 2766 3 14 ~
: 2772 5 12  don't
: 2780 1 7  un
: 2782 5 9 ~
: 2788 5 7 der
: 2796 5 7 stand
- 2802
: 2804 3 7 Why
: 2808 3 7  I
: 2812 3 7  got
: 2816 3 7  you
: 2820 3 7  on
: 2824 3 7  my
: 2828 3 7  mind
: 2832 5 9 ~
- 2847
: 2868 3 7 Why
: 2872 3 7  I
: 2876 3 7  got
: 2880 3 7  you
: 2884 3 7  on
: 2888 3 7  my
: 2892 3 7  mind
: 2896 5 9 ~
- 2911
: 2932 3 7 Why
: 2936 3 7  I
: 2940 3 7  got
: 2944 3 7  you
: 2948 3 7  on
: 2952 3 7  my
: 2956 3 7  mind
: 2960 5 9 ~
- 2975
: 2996 3 7 Why
: 3000 3 7  I
: 3004 3 7  got
: 3008 1 7  you
- 3010
: 3012 3 2 But
: 3016 2 2  my
: 3020 1 12  heart
: 3022 3 14 ~
: 3028 5 12  don't
: 3036 1 7  un
: 3038 5 9 ~
: 3044 5 7 der
: 3052 5 7 stand
- 3058
: 3060 3 7 Why
: 3064 3 7  I
: 3068 3 7  got
: 3072 3 7  you
: 3076 3 7  on
: 3080 3 7  my
: 3084 3 7  mind
: 3088 1 9 ~
- 3090
: 3092 3 2 You
: 3096 3 5  think
: 3100 3 7  you
: 3104 7 12  know
: 3112 7 7  some
: 3120 1 7 body
- 3122
: 3124 3 7 Why
: 3128 3 7  I
: 3132 3 7  got
: 3136 3 7  you
: 3140 3 7  on
: 3144 3 7  my
: 3148 3 7  mind
: 3152 1 9 ~
- 3154
: 3156 3 2 You
: 3160 3 5  think
: 3164 3 7  you
: 3168 7 12  know
: 3176 7 7  some
: 3184 1 7 body
- 3186
: 3188 3 7 Why
: 3192 3 7  I
: 3196 3 7  got
: 3200 3 7  you
: 3204 3 7  on
: 3208 3 7  my
: 3212 3 7  mind
: 3216 1 9 ~
- 3218
: 3220 3 2 You
: 3224 3 5  think
: 3228 3 7  you
: 3232 7 12  know
: 3240 7 7  some
: 3248 1 7 body
- 3250
: 3252 3 7 Why
: 3256 3 7  I
: 3260 3 7  got
: 3264 3 7  you
: 3268 3 7  on
: 3272 3 7  my
: 3276 3 7  mind
: 3280 3 9 ~
: 3284 3 7 ~
: 3288 3 5 ~
: 3292 3 7 ~
: 3296 3 5 ~
: 3300 3 4 ~
* 3304 3 5 ~
* 3308 3 4 ~
* 3312 3 2 ~
* 3316 3 4 ~
* 3320 3 5 ~
* 3324 3 7 ~
* 3328 3 7 ~
* 3332 3 9 ~
* 3336 5 7 ~
- 3342
: 3344 19 5 You
: 3364 3 5  got
: 3368 3 7  your
: 3372 15 2 self
- 3393
: 3396 3 2 In
: 3400 3 5  a
: 3404 23 9  dan
: 3428 3 7 ger
: 3432 3 5 ous
: 3436 15 7  zone
- 3457
: 3460 3 5 'Cause
: 3464 3 4  we
: 3468 23 5  both
* 3492 3 5  have
* 3496 3 7  the
* 3500 15 2  fear
- 3521
: 3524 3 1 Fear
: 3528 3 5  of
: 3532 23 9  be
: 3556 3 7 ing
: 3560 3 5  a
: 3564 15 7 lone
- 3585
: 3588 3 2 And
: 3592 2 2  I
: 3596 1 12  still
: 3598 3 14 ~
: 3604 5 12  don't
: 3612 1 7  un
: 3614 5 9 ~
: 3620 5 7 der
: 3628 7 7 stand
: 3636 1 7  it
: 3638 3 9 ~
- 3649
: 3652 3 2 You
: 3656 2 2  don't
: 3660 1 12  mess
: 3662 3 14 ~
: 3668 5 12  with
: 3676 1 7  love
: 3678 3 9 ~
- 3682
: 3684 5 7 You
: 3692 5 7  mess
: 3700 3 9  with
: 3704 2 2  the
: 3708 3 5  truth
: 3712 1 2 ~
- 3714
: 3716 3 2 And
: 3720 2 2  my
: 3724 1 12  heart
: 3726 3 14 ~
: 3732 5 12  don't
: 3740 1 7  un
: 3742 5 9 ~
: 3748 5 7 der
: 3756 7 7 stand
: 3764 1 7  it
: 3766 3 9 ~
- 3770
* 3772 1 7 Un
* 3774 5 9 ~
* 3780 5 7 der
* 3788 7 7 stand
* 3796 1 7  it
* 3798 3 9 ~
- 3802
: 3804 1 7 Un
: 3806 5 9 ~
: 3812 5 7 der
: 3820 7 7 stand
: 3828 1 7  it
: 3830 89 9 ~
- 3929
: 3956 3 7 Why
: 3960 3 7  I
: 3964 3 7  got
: 3968 3 7  you
: 3972 3 7  on
: 3976 3 7  my
: 3980 3 7  mind
: 3984 1 9 ~
- 3986
: 3988 3 2 You
: 3992 3 5  think
: 3996 3 7  you
: 4000 7 12  know
: 4008 7 7  some
: 4016 1 7 body
- 4018
: 4020 3 7 Why
: 4024 3 7  I
: 4028 3 7  got
: 4032 3 7  you
: 4036 3 7  on
: 4040 3 7  my
: 4044 3 7  mind
: 4048 1 9 ~
- 4050
: 4052 3 2 You
: 4056 3 5  think
: 4060 3 7  you
: 4064 7 12  know
: 4072 7 7  some
: 4080 1 7 body
- 4082
: 4084 3 7 Why
: 4088 3 7  I
: 4092 3 7  got
: 4096 3 7  you
: 4100 3 7  on
: 4104 3 7  my
: 4108 3 7  mind
: 4112 1 9 ~
- 4114
: 4116 3 2 You
: 4120 3 5  think
: 4124 3 7  you
: 4128 7 12  know
: 4136 7 7  some
: 4144 1 7 body
- 4146
: 4148 3 7 Why
: 4152 3 7  I
: 4156 3 7  got
: 4160 1 7  you
- 4162
: 4164 3 2 But
: 4168 2 2  my
: 4172 1 12  heart
: 4174 3 14 ~
: 4180 5 12  don't
: 4188 1 7  un
: 4190 5 9 ~
: 4196 5 7 der
: 4204 5 7 stand
- 4210
: 4212 3 7 Why
: 4216 3 7  I
: 4220 3 7  got
: 4224 3 7  you
: 4228 3 7  on
: 4232 3 7  my
: 4236 3 7  mind
: 4240 1 9 ~
- 4242
: 4244 3 2 You
: 4248 3 5  think
: 4252 3 7  you
: 4256 7 12  know
: 4264 7 7  some
: 4272 1 7 body
- 4274
: 4276 3 7 Why
: 4280 3 7  I
: 4284 3 7  got
: 4288 3 7  you
: 4292 3 7  on
: 4296 3 7  my
: 4300 3 7  mind
: 4304 1 9 ~
- 4306
: 4308 3 2 You
: 4312 3 5  think
: 4316 3 7  you
: 4320 7 12  know
: 4328 7 7  some
: 4336 1 7 body
- 4338
: 4340 3 7 Why
: 4344 3 7  I
: 4348 3 7  got
: 4352 3 7  you
: 4356 3 7  on
: 4360 3 7  my
: 4364 3 7  mind
: 4368 1 9 ~
- 4370
: 4372 3 2 You
: 4376 3 5  think
: 4380 3 7  you
: 4384 7 12  know
: 4392 7 7  some
: 4400 1 7 body
- 4402
: 4404 3 7 Why
: 4408 3 7  I
: 4412 3 7  got
: 4416 1 7  you
- 4418
: 4420 3 2 But
: 4424 2 2  my
: 4428 1 12  heart
: 4430 3 14 ~
: 4436 5 12  don't
: 4444 1 7  un
: 4446 5 9 ~
: 4452 5 7 der
: 4460 5 7 stand
- 4466
: 4468 3 7 Why
: 4472 3 7  I
: 4476 3 7  got
: 4480 3 7  you
* 4484 3 7  on
* 4488 3 7  my
* 4492 3 7  mind
* 4496 1 9 ~
- 4498
: 4500 3 2 You
: 4504 3 5  think
: 4508 3 7  you
: 4512 7 12  know
: 4520 7 7  some
: 4528 11 7 bo
: 4540 3 9 dy
- 4553
: 4564 3 2 You
: 4568 3 5  think
: 4572 3 7  you
: 4576 7 12  know
: 4584 7 7  some
: 4592 1 7 body
- 4594
: 4596 3 7 Why
: 4600 3 7  I
: 4604 3 7  got
: 4608 3 7  you
: 4612 3 7  on
: 4616 3 7  my
: 4620 3 7  mind
- 4626
: 4628 3 2 You
: 4632 3 5  think
: 4636 3 7  you
: 4640 7 12  know
: 4648 7 7  some
: 4656 11 7 bo
: 4668 3 9 dy
- 4681
: 4688 5 9 Ah
- 4698
: 4700 5 9 Ah
- 4710
: 4712 5 9 Ah
- 4722
: 4724 5 9 Ah
- 4734
: 4736 13 12 Oh
- 4750
: 4752 11 9 Ah.
E