#TITLE:Lisa
#ARTIST:Endstufe
#MP3:Endstufe - Lisa.mp3
#COVER:Endstufe - Lisa [CO].jpg
#BACKGROUND:Endstufe - Lisa [BG].jpg
#RESOLUTION:16
#BPM:132
#GAP:3500
: 32 3 65 Des 
: 36 2 74 Morg
: 38 3 74 ens,
- 41
: 41 2 69 Des 
: 43 1 72 Mor
: 44 2 70 gens 
: 46 2 69 um 
: 48 1 67 halb 
: 49 2 65 vie
: 51 2 65 re,
- 54
: 54 2 62 Ja 
: 56 2 67 vie
: 58 2 67 re,
- 61
: 61 2 62 Da 
: 63 3 65 kommt 
: 66 4 65 der 
: 70 3 67 Unter
: 73 2 65 of
: 75 4 70 fizier.
- 88
: 88 3 65 He
: 91 1 74 ra
: 92 2 74 us,
- 97
: 97 1 69 Her
: 98 2 72 aus 
: 100 1 70 ihr 
: 101 1 69 fau
: 102 2 67 len 
: 104 2 65 Tie
: 106 2 65 re,
- 110
: 110 1 62 Ja 
: 111 2 67 Tie
: 113 2 67 re,
- 116
: 116 2 62 Und 
: 118 4 65 rei
: 122 3 65 nigt 
: 125 4 67 das 
: 129 3 65 Re
: 132 3 70 vier.
- 144
: 144 2 65 Aber 
: 146 2 74 im
: 148 2 74 mer,
- 151
: 151 2 69 Mit 
: 153 2 72 frisch
: 155 2 70 em, 
: 157 2 69 fro
: 159 1 67 hen 
: 160 2 65 Mut,
- 163
: 163 3 77 Oi! 
: 166 4 77 Oi!
- 171
: 171 3 70 Ja 
: 174 4 69 Mut,
- 178
: 178 3 77 Oi! 
: 181 4 77 Oi!
- 184
: 184 4 69 Ja 
: 188 3 70 Mut,
- 191
: 191 3 77 Oi! 
: 195 3 77 Oi!
- 198
: 198 3 65 Aber 
: 201 2 74 im
: 203 3 74 mer,
- 206
: 206 2 69 Mit 
: 208 2 72 frisch
: 210 2 70 em, 
: 212 1 69 fro
: 213 2 67 hen 
: 215 3 65 Mut,
- 219
: 219 2 77 Oi!  
: 222 2 77 Oi!
- 225
: 225 4 70 Ziehn 
: 229 3 69 wir 
: 232 4 72 der 
: 236 3 75 Hei
: 239 3 74 mat 
: 242 8 70 zu. 
- 255
: 255 8 67 Li
: 263 7 75 sa,
- 273
: 273 5 74 Li
: 278 4 70 sa,
- 283
: 283 3 72 Schenk 
: 286 4 72 dem 
: 290 1 74 Re
: 291 2 74 ser
: 293 3 72 ve
: 296 2 70 mann 
: 298 2 70 noch 
: 300 5 67 einen 
: 305 4 65 ein,
- 312
: 312 7 67 Li
: 319 6 75 sa,
- 327
: 327 6 74 Li
: 333 5 70 sa,
- 339
: 339 2 72 Schenk 
: 341 3 72 der 
: 344 2 72 Re
: 346 2 74 ser
: 348 3 72 ve 
: 351 2 72 noch 
: 353 2 70 ein.
- 363
: 363 3 65 Der 
: 366 2 74 Haupt
: 368 4 74 mann,
- 372
: 372 1 69 der 
: 373 2 72 Haupt
: 375 1 70 mann 
: 376 2 69 kam 
: 378 2 67 ge
: 380 2 65 rit
: 382 3 65 ten,
- 386
: 386 1 62 ge
: 387 2 67 rit
: 389 3 67 ten
- 392
: 392 2 62 Auf 
: 394 3 65 ei
: 397 3 65 nem 
: 400 4 67 Zie
: 404 3 65 gen
: 407 3 70 bock.
- 418
: 418 3 65 Da 
: 421 2 74 dach
: 423 3 74 ten,
- 426
: 426 2 69 da 
: 428 2 72 dach
: 430 1 70 ten 
: 431 2 69 die 
: 433 2 67 Re
: 435 2 65 kru
: 437 3 65 ten,
- 440
: 440 2 62 Re
: 442 2 67 kru
: 444 3 67 ten
- 447
: 447 2 62 Es 
: 449 3 65 sei 
: 452 4 65 der 
: 456 4 67 lie
: 460 2 65 be 
: 462 3 70 Gott.
- 474
: 474 3 65 Aber 
: 477 1 74 im
: 478 2 74 mer,
- 482
: 482 1 69 Mit 
: 483 2 72 frisch
: 485 2 70 em, 
: 487 2 69 fro
: 489 2 67 hen 
: 491 2 65 Mut,
- 494
: 494 3 77 Oi! 
: 497 3 77 Oi!
- 501
: 501 3 70 Ja 
: 504 3 69 Mut,
- 508
: 508 3 77 Oi! 
: 511 3 77 Oi!
- 514
: 514 3 69 Ja 
: 518 2 70 Mut,
- 521
: 521 3 77 Oi! 
: 524 3 77 Oi!
- 528
: 528 3 65 Aber 
: 531 1 74 im
: 532 2 74 mer,
- 536
: 536 1 69 Mit 
: 537 2 72 frisch
: 539 2 70 em, 
: 541 2 69 fro
: 543 1 67 hen 
: 544 3 65 Mut,
- 547
: 547 4 77 Oi! 
: 551 3 77 Oi!
- 554
: 554 5 70 Ziehn 
: 559 3 69 wir 
: 562 3 72 der 
: 565 3 75 Hei
: 568 3 74 mat 
: 571 8 70 zu.
- 585
: 585 8 67 Li
: 593 7 75 sa,
- 601
: 601 6 74 Li
: 607 6 70 sa,
- 613
: 613 3 72 Schenk 
: 616 3 72 dem 
: 619 1 74 Re
: 620 2 74 ser
: 622 3 72 ve
: 625 2 70 mann 
: 627 3 70 noch 
: 630 4 67 einen 
: 634 3 65 ein,
- 641
: 641 7 67 Li
: 648 6 75 sa,
- 656
: 656 5 74 Li
: 661 6 70 sa,
- 668
: 668 2 72 Schenk 
: 670 3 72 der 
: 673 2 72 Re
: 675 2 74 ser
: 677 3 74 ve 
: 680 2 72 noch 
: 682 3 70 ein.
- 693
: 693 2 65 Der 
: 695 2 74 Pos
: 697 3 74 ten,
- 700
: 700 1 69 der 
: 701 2 72 Pos
: 703 2 70 ten 
: 705 2 69 ist 
: 707 1 67 er
: 708 3 65 fro
: 711 2 65 ren,
- 714
: 714 1 62 er
: 715 2 67 fro
: 717 2 67 ren,
- 719
: 719 3 62 In 
: 722 4 65 ei
: 726 3 65 ner 
: 729 3 67 Win
: 732 3 65 ter
: 736 3 70 nacht.
- 747
: 747 3 65 Es 
: 750 2 74 fror 
: 752 3 74 ihn,
- 755
: 755 1 69 es 
: 756 3 72 fror 
: 759 1 70 ihn 
: 760 1 69 an 
: 761 2 67 den 
: 763 2 65 Oh
: 765 3 65 ren,
- 768
: 768 2 62 ja 
: 770 2 67 Oh
: 772 3 67 ren,
- 775
: 775 2 62 Das 
: 777 4 65 hat 
: 781 3 65 ihn 
: 784 3 67 um
: 787 3 65 ge
: 791 5 70 bracht.
- 802
: 802 2 65 Aber 
: 804 2 74 im
: 806 3 74 mer,
- 809
: 809 2 69 Mit 
: 811 2 72 frisch
: 813 1 70 em, 
: 814 3 69 fro
: 817 1 67 hen 
: 818 3 65 Mut,
- 821
: 821 3 77 Oi! 
: 824 4 77 Oi!
- 829
: 829 3 70 Ja 
: 832 3 69 Mut,
- 836
: 836 2 77 Oi! 
: 838 3 77 Oi!
- 841
: 841 4 69 Ja 
: 845 3 70 Mut,
- 849
: 849 3 77 Oi! 
: 852 3 77 Oi!
- 855
: 855 3 65 Aber 
: 858 2 74 im
: 860 2 74 mer,
- 864
: 864 1 69 Mit 
: 865 2 72 frisch
: 867 1 70 em,
: 868 2 69 fro
: 870 2 67 hen 
: 872 2 65 Mut,
- 876
: 876 2 77 Oi! 
: 878 3 77 Oi!
- 881
: 881 4 70 Ziehn 
: 885 4 69 wir 
: 889 3 72 der 
: 892 4 75 Hei
: 896 3 74 mat 
: 899 8 70 zu.
- 913
: 913 7 67 Li
: 920 6 75 sa,
- 929
: 929 5 74 Li
: 934 4 70 sa,
- 940
: 940 3 72 Schenk 
: 943 3 72 dem 
: 946 2 74 Re
: 948 2 74 ser
: 950 3 72 ve
: 953 2 70 mann 
: 955 2 70 noch 
: 957 5 67 einen 
: 962 3 65 ein,
- 968
: 968 7 67 Li
: 975 6 75 sa,
- 984
: 984 5 74 Li
: 989 5 70 sa,
- 995
: 995 2 72 Schenk 
: 997 3 72 der 
: 1000 2 72 Re
: 1002 2 74 ser
: 1004 2 74 ve 
: 1006 3 72 noch 
: 1009 4 70 ein.
- 1022
: 1022 7 67 Li
: 1029 6 75 sa,
- 1037
: 1037 7 74 Li
: 1044 4 70 sa,
- 1049
: 1049 3 72 Schenk 
: 1052 3 72 dem 
: 1055 2 74 Re
: 1057 2 74 ser
: 1059 3 72 ve
: 1062 2 70 mann 
: 1064 2 70 noch 
: 1066 5 67 einen 
: 1071 3 65 ein,
- 1073
: 1077 7 67 Li
: 1084 6 75 sa,
- 1091
: 1093 5 74 Li
: 1098 5 70 sa,
- 1104
: 1104 3 72 Schenk 
: 1107 3 72 der 
: 1110 2 72 Re
: 1112 2 74 ser
: 1114 2 74 ve 
: 1116 2 72 noch 
: 1118 4 70 ein!
E
