#TITLE:Se Bastasse Una Bella Canzone
#ARTIST:Eros Ramazotti
#MP3:Eros Ramazotti - Se Bastasse Una Bella Canzone.mp3
#COVER:Eros Ramazotti - Se Bastasse Una Bella Canzone [CO].jpg
#BACKGROUND:Eros Ramazotti - Se Bastasse Una Bella Canzone [BG].jpg
#BPM:86
#GAP:17200
: 0 2 74 Se
: 2 1 74  bas
: 3 2 74 tas
: 5 2 71 se
: 7 2 71  una
: 9 3 71  bel
: 12 2 69 la
: 14 2 69  can
: 16 2 69 zo
: 18 3 67 ne
- 24
: 30 2 69 a
: 32 2 69  far
: 34 1 69  pio
: 35 2 67 ve
: 37 1 67 re
: 38 2 64  amo
: 40 2 62 re
- 45
: 48 2 74 si
: 50 2 74  po
: 52 2 74 treb
: 54 2 71 be
: 56 2 71  can
: 58 2 71 tar
: 60 1 69 la
: 61 1 69  un
: 62 3 69  milio
: 65 4 71 ne
- 72
: 78 2 69 un
: 80 2 69  mil
: 82 2 69 io
: 84 2 67 ne
: 86 2 67  di
: 88 2 64  vol
: 90 3 62 te
- 93
: 94 2 62 bas
: 96 2 64 tas
: 98 1 67 se
: 99 4 67  giŕ
- 106
: 118 2 62 bas
: 120 2 64 tas
: 122 3 67 se
: 125 5 67  giŕ
- 133
: 142 1 62 non
: 143 2 64  ci
: 145 3 67  vor
: 148 2 67 reb
: 150 2 64 be
: 152 2 62  poi
: 154 2 67  tan
: 156 1 64 to
- 157
: 157 3 62 a impa
: 160 2 71 rare
: 162 3 76  ad
: 165 1 71  ama
: 166 1 67 re
: 167 6 69  di
: 173 5 67  piů
- 181
: 192 2 76 se
: 194 2 76  bas
: 196 2 76 tas
: 198 1 73 se
: 199 3 73  una
: 202 2 73  ve
: 204 2 71 ra
: 206 2 71  can
: 208 2 71 zo
: 210 4 73 ne
- 217
: 222 2 71 per
: 224 2 71  con
: 226 2 71 vin
: 228 3 69 cere
: 231 1 69  gli
: 232 2 66  al
: 234 3 64 tri
- 238
: 240 2 76 si
: 242 2 76  po
: 244 2 76 treb
: 246 2 73 be
: 248 2 73  can
: 250 2 73 tar
: 252 2 71 la
: 254 2 71  piů
: 256 2 71  for
: 258 3 73 te
- 264
: 270 2 71 vis
: 272 1 71 to
: 273 2 71  che
: 275 3 73  sono
: 278 2 71  in
: 280 2 66  tan
: 282 3 64 ti
- 285
: 286 2 64 fos
: 288 2 66 se
: 290 2 69  co
: 292 3 69 sě`
- 298
: 309 2 73 fos
: 311 1 78 se
: 312 4 73  co
: 316 5 71 si`
- 324
: 334 2 64 non
: 336 2 66  si
: 338 2 69  do
: 340 2 69 vreb
: 342 2 64 be
: 344 2 66  lo
: 346 2 69 tta
: 348 2 64 re
: 350 2 66  per
: 352 1 73  far
: 353 1 76 si
: 354 4 78  sen
: 358 1 73 ti
: 359 1 69 re
: 360 4 71  di
: 364 4 69  piů
- 371
: 384 2 77 se
: 386 2 77  bas
: 388 2 77 tas
: 390 1 74 se
: 391 2 74  una
: 393 3 74  buo
: 396 2 72 na
: 398 2 72  can
: 400 2 72 zo
: 402 3 74 ne
- 408
: 414 1 72 a
: 415 2 72  far
: 417 2 72  da
: 419 2 70 re
: 421 3 70  una
: 424 1 67  ma
: 425 3 65 no
- 430
: 432 2 77 si
: 434 2 77  po
: 436 2 77 treb
: 438 2 74 be
: 440 2 74  tro
: 442 2 74 var
: 444 2 72 la
: 446 2 72  nel
: 448 2 72  cuo
: 450 3 74 re
- 456
: 462 1 72 sen
: 463 2 72 za
: 465 2 72  an
: 467 1 74 da
: 468 2 72 re
: 470 3 67  lonta
: 473 2 65 no
- 476
: 478 2 65 bas
: 480 2 67 tas
: 482 2 70 se
: 484 3 70  giŕ
- 490
: 502 1 74 ba
: 503 1 77 stas
: 504 4 79 se
: 508 5 74  giŕ
- 516
: 526 2 65 non
: 528 1 67  ci
: 529 3 70  sa
: 532 2 70 reb
: 534 2 65 be
: 536 2 67  bi
: 538 2 70 so
: 540 2 65 gno
: 542 2 67  di
: 544 1 74  chie
: 545 1 77 de
: 546 3 79 re
: 549 2 74  la
: 551 1 70  car
: 552 5 72 i
: 557 4 70 tŕ
- 564
: 584 1 65 De
: 585 1 67 di
: 586 1 70 cato
: 587 1 67  a
: 588 1 70  tu
: 589 1 67 tti
: 590 1 70 que
: 591 1 67 lli
: 592 5 72  che
- 601
: 610 2 70 so
: 612 1 72 no
: 613 3 74  allo
: 616 2 70  sban
: 618 3 67 do
- 624
: 632 1 65 de
: 633 1 67 di
: 634 1 70 cato
: 635 1 67  a
: 636 1 70  tu
: 637 1 67 tti
: 638 1 70  que
: 639 1 67 lli
: 640 4 72  che
- 646
: 649 3 77 non
: 652 1 77  han
: 653 1 75 no
: 654 1 75  avu
: 655 1 74 to
: 656 1 74  anc
: 657 2 72 ora
: 659 2 72  nien
: 661 2 70 te
- 666
: 674 1 77 e
: 675 2 77  so
: 677 1 75 no
: 678 1 75  ai
: 679 1 74  mar
: 680 1 74 gini
: 681 1 70  da
: 682 2 72  sem
: 684 4 74 pre
- 691
: 704 1 65 de
: 705 1 67 di
: 706 1 70 cato
: 707 1 67  a
: 708 1 70  tu
: 709 1 67 tti
: 710 1 70  que
: 711 1 67 lli
: 712 4 72  che
- 719
: 729 3 70 stanno
: 732 1 72  as
: 733 4 74 pe
: 737 2 70 ttan
: 739 3 67 do
- 745
: 752 1 65 de
: 753 1 67 di
: 754 1 70 cato
: 755 1 67  a
: 756 1 70  tu
: 757 1 67 tti
: 758 1 70  que
: 759 1 67 lli
: 760 4 72  che
- 767
: 769 3 77 ri
: 772 1 77 ma
: 773 1 75 n
: 774 1 75 go
: 775 1 74 no
: 776 1 74  dei
: 777 1 72  so
: 778 1 72 gna
: 779 4 70 tori
- 786
: 792 4 77 per
: 796 1 78  que
: 797 1 75 sto
: 798 2 75  sem
: 800 1 74 pre
: 801 1 74  piů
: 802 1 70  da
: 803 1 72  so
: 804 3 74 li
- 810
: 839 2 79 se
: 841 2 79 bas
: 843 2 79 tas
: 845 2 76 se
: 847 2 76  una
: 849 2 76  gran
: 851 2 74 de
: 853 2 74  can
: 855 2 74 zo
: 857 4 76 ne
- 864
: 870 2 74 per
: 872 2 74  par
: 874 1 74 la
: 875 2 72 re
: 877 2 72  di
: 879 2 69  pa
: 881 3 67 ce
- 886
: 888 2 79 si
: 890 2 79  po
: 892 2 79 treb
: 894 2 76 be
: 896 2 76  chia
: 898 2 76 mar
: 900 2 74 la
: 902 2 74  per
: 904 1 74  no
: 905 4 76 me
- 912
: 918 2 74 ag
: 920 1 74 giun
: 921 2 74 gen
: 923 2 76 do
: 925 2 74  una
: 927 2 69  vo
: 929 3 67 ce
- 933
: 934 1 67 e
: 935 3 69  un'alt
: 938 1 72 ra
: 939 4 72  poi
- 946
: 958 1 76 e
: 959 2 79  un'
: 961 3 81 altra
: 964 1 76  p
: 965 3 74 o
: 968 1 72 i
- 972
: 982 1 67 fin
: 983 3 69 chč
: 986 3 72  dive
: 989 2 72 nta
: 991 1 67  di
: 992 1 69  un
: 993 2 72  so
: 995 2 67 lo
: 997 3 69  col
: 1000 2 76 ore
- 1002
: 1003 1 79 piů
: 1004 1 81  vi
: 1005 1 76 vo
: 1006 6 72  che
: 1012 6 74  mai
- 1021
: 1040 1 67 de
: 1041 1 69 di
: 1042 1 72 cato
: 1043 1 69  a
: 1044 1 72  tu
: 1045 1 69 tti
: 1046 1 72  que
: 1047 1 69 lli
: 1048 4 74  che
- 1055
: 1066 1 72 so
: 1067 1 74 no
: 1068 3 76  allo
: 1071 3 72  sban
: 1074 3 69 do
- 1080
: 1088 1 67 de
: 1089 1 69 di
: 1090 1 72 cato
: 1091 1 69  a
: 1092 1 72  tu
: 1093 1 69 tti
: 1094 1 72  que
: 1095 1 69 lli
: 1096 4 74  che
- 1102
: 1105 2 79 han
: 1107 2 79 no
: 1109 2 77  prova
: 1111 1 77 to
: 1112 1 76  ad
: 1113 1 74  inven
: 1114 2 74 ta
: 1116 3 72 re
- 1122
: 1128 3 79 u
: 1131 2 79 na
: 1133 2 77  can
: 1135 1 77 zo
: 1136 1 76 ne
: 1137 1 76  per
: 1138 1 72  cam
: 1139 2 74 bia
: 1141 5 76 re
- 1149
: 1160 1 67 de
: 1161 1 69 di
: 1162 1 72 cato
: 1163 1 69  a
: 1164 1 72  tu
: 1165 1 69 tti
: 1166 1 72  que
: 1167 1 69 lli
: 1168 5 74  che
- 1176
: 1185 2 79 stan
: 1187 1 77 no
: 1188 2 76  aspet
: 1190 1 74 tan
: 1191 3 72 do
- 1197
: 1207 1 67 de
: 1208 1 69 di
: 1209 1 72 cato
: 1210 1 69  a
: 1211 1 72  tu
: 1212 1 69 tti
: 1213 1 72  que
: 1214 1 69 lli
: 1215 4 74  che
- 1222
: 1225 2 79 ve
: 1227 2 79 nu
: 1229 1 77 ti
: 1230 1 77  sů
: 1231 1 76  con
: 1232 2 76  trop
: 1234 1 74 po
: 1235 1 74  ven
: 1236 4 72 to
- 1243
: 1248 1 79 qu
: 1249 3 79 el
: 1252 1 77  tem
: 1253 1 77 po
: 1254 1 76  gli č
: 1255 1 72  ri
: 1256 3 74 masto
: 1259 1 76  den
: 1260 4 76 tro
- 1267
: 1306 2 76 in
: 1308 1 76  og
: 1309 1 76 ni
: 1310 3 77  sen
: 1313 2 77 so
- 1316
: 1317 2 72 han
: 1319 2 73 no
: 1321 2 74  cre
: 1323 2 73 du
: 1325 2 72 to
: 1327 2 74  cer
: 1329 2 73 ca
: 1331 1 72 to
- 1332
: 1332 3 74 e vo
: 1335 1 73 lu
: 1336 1 72 to
: 1337 4 74  che
: 1341 2 76  fosse
: 1343 6 75  co
: 1349 6 74 si`
- 1358
: 1363 3 74 che
: 1366 2 76  fosse
: 1368 1 75  co
: 1369 3 74 si`
- 1375
: 1389 2 72 han
: 1391 2 73 no
: 1393 2 74  cre
: 1395 2 73 du
: 1397 2 72 to
: 1399 2 74  cer
: 1401 2 73 ca
: 1403 1 72 to
- 1404
: 1404 3 74 e vo
: 1407 1 73 lu
: 1408 2 72 to
: 1410 3 74  che
: 1413 2 76  fosse
: 1415 5 75  co
: 1420 8 74 si`
E
