#TITLE:Lithium
#ARTIST:Evanescence
#MP3:Evanescence - Lithium.mp3
#COVER:Evanescence - Lithium [CO].jpg
#VIDEO:Evanescence - Lithium [VD#0].avi
#BPM:118
#GAP:328
: 2 10 65 Li
: 13 11 68 thi
: 26 2 66 ~
: 28 2 65 ~
: 30 4 66 um
- 36
: 41 1 63 Don't
: 43 1 65  wan
: 45 1 63 na
: 47 3 66  lock
: 51 3 65  me
: 55 3 63  up
: 60 1 61  in
: 62 1 65 side
- 63
: 65 14 65 Li
: 81 15 68 thi
: 98 6 66 um
- 106
: 107 1 63 Don't
: 109 1 63  wan
: 111 1 65 na
: 113 1 63  for
: 115 1 66 get
- 118
: 119 1 65 how
: 122 1 63  it
: 124 2 65  feels
: 128 1 60  with
: 130 2 61 out
- 133
: 135 13 65 Li
: 150 13 68 thi
: 167 4 66 um
- 173
: 178 1 63 I
: 180 1 65  want
: 182 1 63  to
: 184 3 66  stay
: 188 3 65  in
- 191
: 192 3 63 love
: 197 1 61  with
: 199 1 65  my
: 203 3 65  sor
: 207 3 58 row
- 212
: 218 1 58 Oh
: 220 4 60 ~
: 226 2 58 ~
: 228 1 61 ~
: 230 3 60 ~
: 234 8 58 ~
- 244
F 248 2 66 Oh
F 250 2 66  but
F 252 2 66  God
- 254
: 257 1 58 I
: 259 1 58  wan
: 261 1 58 na
: 263 1 61  let
: 265 1 60  it
- 268
* 270 14 58 go
- 304
: 336 8 65 Come
: 348 2 63  to
: 350 2 66  bed
: 354 2 65  don't
: 358 2 63  make
: 362 2 65  me
- 365
: 366 10 66 sleep
: 380 2 61  a
: 382 4 61 lone
- 398
: 400 2 68 could
: 402 2 70 'nt
: 406 4 70  hide
: 412 1 68  the
: 414 4 70  emp
: 418 1 68 ti
: 420 1 70 ness
- 421
: 422 1 68 you
* 424 2 73  let
: 427 2 72  it
: 430 3 70  show
* 433 1 68 ~
: 434 6 65 ~
- 444
: 464 8 65 Ne
: 474 2 63 ver
: 478 4 66  wan
: 484 1 65 ted
: 486 1 63  it
: 490 2 65  to
- 493
: 494 10 66 be
: 506 2 61  so
: 510 4 61  cold
- 516
: 524 2 68 Just
: 528 1 68  did
: 530 2 70 'nt
: 534 4 70  drink
- 538
: 540 1 68 e
: 542 2 70 nough
: 546 2 66  to
: 548 2 66  say
: 550 2 66  you
: 552 2 66  love
: 554 2 65  me
- 558
: 560 4 65 I
: 566 4 61  can't
: 572 3 60  hold
- 576
: 576 4 63 on
: 582 4 61  to
: 588 3 63  me
- 592
: 592 4 65 Won
: 598 4 61 der
: 604 2 60  what's
- 608
: 608 4 63 wrong
: 614 4 65  with
: 620 3 66  me
- 624
: 624 12 65 Li
: 638 10 68 thi
: 650 1 66 ~
: 652 1 65 ~
: 654 5 66 um
- 660
: 664 2 63 don't
: 666 2 65  wan
: 668 2 63 na
: 670 2 66  lock
: 674 2 65  me
: 678 2 63  up
: 682 1 61  in
: 684 2 65 side
- 687
: 688 12 65 Li
: 702 12 68 thi
* 716 1 70 ~
: 718 4 66 um
- 724
: 726 1 63 Don't
: 728 2 63  wan
: 730 2 65 na
: 732 2 63  for
: 734 2 66 get
- 736
: 738 2 65 how
: 740 2 63  it
: 742 2 65  feels
: 746 2 60  with
: 748 2 61 out
- 752
: 752 10 65 Li
: 766 10 68 thi
: 780 2 66 ~
: 782 6 66 um
- 788
: 792 2 63 I
: 794 2 65  wan
: 796 2 63 na
: 798 2 66  stay
: 802 2 65  in
: 806 2 63  love
- 809
: 810 2 61 with
: 812 2 65  my
: 816 3 65  sor
: 820 3 58 row
- 828
: 830 8 72 I
: 838 2 70 ~
: 840 2 73 ~
: 842 4 72 ~
: 846 14 70 ~
- 864
: 866 2 70 don't
: 868 2 70  wan
: 870 2 70 na
: 872 2 72  let
: 874 2 73  it
- 877
* 880 6 72 lay
: 888 6 70  me
: 896 6 68  down
: 904 4 72  this
- 909
* 910 26 70 time
- 940
: 944 6 68 Drown
: 952 6 66  my
: 960 6 65  will
: 968 4 70  to
- 973
: 974 12 65 fly
: 988 2 63 ~
: 990 10 61 ~
- 1002
: 1008 4 66 Here
: 1014 4 65  in
: 1020 4 63  the
: 1024 4 66  dark
: 1030 4 65 ness
: 1036 2 63  I
- 1040
: 1040 4 66 know
: 1046 4 65  my
: 1052 10 61  self
- 1064
: 1072 6 66 Can't
: 1080 5 70  break
: 1086 2 72  free
: 1090 2 70  un
: 1092 2 72 til
: 1094 2 70  I
: 1096 2 72  let
: 1098 2 73  it
- 1101
: 1102 22 70 go
- 1126
: 1132 1 73 let
: 1134 2 72  me
* 1138 22 72  go
- 1164
: 1168 2 63 Dar
: 1170 8 65 ~
: 1178 2 63 ling
- 1181
: 1182 4 66 I
: 1188 2 65  for
: 1190 3 63 give
: 1194 2 65  you
- 1197
: 1198 2 65 af
: 1200 10 66 ~
: 1212 1 61 ter
: 1214 4 61  all
- 1220
: 1232 2 68 A
: 1234 4 70 ny
: 1238 4 70 thing
: 1244 2 68  is
- 1246
: 1246 4 70 bet
: 1250 2 68 ter
: 1252 2 70  than
: 1254 2 68  to
- 1256
: 1256 2 73 be
: 1259 2 72  a
: 1262 14 70 lone
- 1278
: 1292 3 68 and
: 1296 2 68  i
: 1298 8 70 ~n
: 1308 2 73  the
* 1310 4 72  end
- 1314
: 1316 2 70 I
: 1318 2 72  guess
: 1322 2 73  I
- 1325
: 1326 4 72 had
: 1332 1 70  to
: 1334 8 70  fall
: 1342 12 68 ~
- 1356
: 1360 2 68 Al
: 1362 3 70 ways
: 1366 3 70  find
: 1370 3 72  my
- 1373
: 1374 3 73 place
: 1378 2 72  a
: 1380 2 72 mong
: 1382 1 70  the
: 1384 1 70  ash
: 1386 4 68 es
- 1391
: 1392 4 70 I
: 1398 4 65  can't
: 1404 3 68  hold
- 1408
: 1408 4 68 on
: 1414 4 66  to
: 1420 3 68  me
- 1424
: 1424 4 70 won
: 1430 4 68 der
: 1436 3 72  what's
- 1440
: 1440 4 72 wrong
: 1446 4 73  with
: 1452 3 72  me
- 1456
: 1456 12 73 Li
: 1470 10 72 thi
* 1482 2 73 ~
* 1484 2 72 ~
* 1486 6 73 um
- 1493
: 1496 2 63 Don't
: 1498 2 65  wan
: 1500 2 63 na
: 1502 3 66  lock
: 1506 3 65  me
: 1510 3 68  up
: 1514 2 63  in
: 1516 2 65 side
- 1519
: 1520 2 72 Li
: 1522 10 73 ~
: 1534 2 73 thi
: 1536 10 75 ~
: 1546 2 73 ~
: 1548 2 72 ~
: 1550 2 73 um
- 1553
: 1558 2 63 Don't
: 1560 2 63  wan
: 1562 2 65 na
: 1564 2 63  for
: 1566 2 66 get
- 1569
: 1570 2 65 how
: 1572 2 63  it
: 1574 2 65  feels
: 1578 2 60  with
: 1580 2 61 out
- 1584
: 1584 2 72 Li
: 1586 10 73 ~
: 1598 12 75 thi
: 1610 2 73 ~
: 1612 2 72 ~
* 1614 4 78 ~
* 1618 4 77 um
- 1624
: 1630 3 66 Stay
: 1634 3 65  in
: 1638 4 63  love
: 1644 2 61  with
: 1646 8 65  you
- 1656
: 1662 6 72 I
: 1670 2 70 ~
: 1672 2 73 ~
: 1674 3 72 ~
: 1678 14 70 ~
- 1696
: 1698 2 66 I'm
: 1700 2 66  gon
: 1702 2 66 na
: 1704 2 66  let
: 1706 2 65  it
: 1710 8 65  go
E
