#TITLE:Le monde est stone (Starmania)
#ARTIST:Fabienne Thibeault
#MP3:Fabienne Thibeault - Le monde est stone (Starmania).mp3
#VIDEO:Fabienne Thibeault - Le monde est stone (Starmania).avi
#COVER:Fabienne Thibeault - Le monde est stone (Starmania).jpg
#BPM:226.29
#GAP:57426
#ENCODING:UTF8
#LANGUAGE:French
#GENRE:Starmania
#YEAR:1978
#CREATOR:mustangfred
: 0 2 10 J'ai
: 3 1 12 ~
: 5 1 12  la
: 8 5 12  tęte
: 14 2 12  qui
: 17 1 12  é
* 20 12 12 clate
- 35
: 37 3 11 J'vou
: 41 4 11 drais
* 47 3 11  seul'
* 52 2 7 ment
: 56 4 4  dor
: 61 3 7 mir
: 65 10 9 ~
- 81
: 84 2 7 M'é
: 88 7 7 ten
: 96 2 7 dre
: 100 2 7  sur
: 103 2 7  l'as
: 108 12 7 phalte
- 127
: 130 4 4 Et
: 135 3 4  me
: 139 3 4  lais
: 146 4 5 ser
: 151 1 5  mou
: 153 1 7 ~
: 155 21 7 rir
- 184
: 187 2 11 Stone
: 190 30 12 ~
- 228
: 231 5 11 Le
: 238 6 7  monde
: 246 6 4  est
: 255 1 9  stone
: 257 1 11 ~
: 259 12 9 ~
- 281
: 294 2 4 Je
: 298 6 7  cherche
: 308 5 4  le
: 316 3 0  so
: 320 10 5 leil
- 340
: 354 2 5 Au
: 357 1 4  mi
: 359 2 5 ~
* 363 1 7 lieu
* 365 3 9 ~
: 375 2 4  de
: 378 2 5  la
: 381 11 2  nuit
- 402
: 417 1 5 J'sais
: 419 1 7 ~
: 421 7 7  pas
: 430 3 7  si
: 436 3 9  c'est
: 440 1 11  la
: 443 1 11  terre
: 445 18 12 ~
- 475
: 479 1 9 Qui
: 481 1 11 ~
: 485 4 11  tourne
: 491 6 7 ~
: 499 3 7  ŕ
: 503 3 4  l'en
* 507 1 9 vers
* 509 1 11 ~
: 511 14 9 ~
- 535
: 545 2 7 Oů
: 548 8 7  bien
: 561 2 4  si
: 566 4 0  c'est
: 572 4 4  moi
: 577 5 5 ~
- 592
: 604 3 4 Qui
: 610 5 5  m'fait
: 616 1 7  du
: 618 1 9 ~
: 624 3 4  ci
: 628 3 5 né
: 632 15 2 ma
- 657
: 671 2 2 Qui
: 676 4 4  m'fait
: 681 1 5  mon
: 683 3 7 ~
: 689 3 2  ci
: 693 3 3 né
: 697 20 0 ma
- 747
: 954 1 5 Je
: 956 1 7 ~
: 961 5 8  cher
: 970 3 12 che
: 974 3 7  le
: 979 3 8  so
: 983 8 5 leil
- 1001
: 1017 4 7 Au
: 1022 5 8  mil
: 1028 1 10 ieu
: 1030 7 12 ~
: 1038 5 7  de
: 1045 3 8  ma
: 1049 23 5  nuit
: 1073 16 7 ~
- 1119
: 1233 3 11 Stone
: 1237 31 12 ~
: 1271 1 12  le
: 1274 3 11 ~
: 1278 2 7 ~
: 1282 2 7  monde
: 1285 2 5 ~
: 1288 3 4 ~
: 1292 4 4  est
: 1303 26 9  stone
- 1344
: 1365 26 5 Ah
: 1392 1 4 ~
: 1394 1 5 ~
: 1396 12 4 ~
- 1418
: 1431 43 7 Ah
- 1484
: 1495 27 12 Ah
: 1523 2 11 ~
: 1526 1 12 ~
: 1528 16 11 ~
- 1554
: 1561 26 9 Ah
: 1588 2 7 ~
: 1591 2 9 ~
: 1594 19 7 ~
- 1621
: 1624 27 5 Ah
: 1652 1 4 ~
: 1654 1 5 ~
: 1656 8 4 ~
- 1673
: 1676 9 9 Ah
: 1686 33 9 ~
- 1725
: 1728 4 9 Ah
: 1734 3 9 ~
: 1738 3 9 ~
: 1742 3 9 ~
: 1746 32 9 ~
: 1779 3 9 ~
: 1783 2 9 ~
: 1786 18 9 ~
- 1813
: 1816 29 9 Ah
: 1846 3 9 ~
: 1850 16 9 ~
: 1867 3 9 ~
: 1871 4 9 ~
: 1876 31 9 ~
: 1908 3 9 ~
- 1921
: 1941 31 9 Ah
- 1984
: 1988 3 9 Ah
: 1992 2 9 ~
: 1996 3 9 ~
: 2000 3 9 ~
- 2007
: 2009 43 9 Oh
- 2062
: 2076 2 7 J'ai
: 2079 1 8 ~
: 2081 3 7  plus
: 2085 4 5  en
: 2090 3 8 vie
: 2094 2 10  d'me
: 2097 3 12  battre
: 2101 29 17 ~
- 2137
: 2140 1 7 J'ai
: 2142 1 8 ~
: 2144 3 8  plus
: 2148 2 8  en
: 2151 3 12 ~
: 2155 3 7 vie
: 2161 1 7  d'cou
: 2163 2 8 ~
: 2167 2 5 ~
: 2170 20 5 rir
- 2201
: 2205 1 7 Comme
: 2207 1 8 ~
: 2210 3 8  tous
: 2216 3 5  ces
: 2221 3 8  au
: 2225 2 12 to
* 2228 2 12 mates
: 2231 24 17 ~
- 2261
: 2264 3 7 Qui
: 2268 3 8  bâ
: 2273 1 10 tissent
: 2275 8 12 ~
: 2287 5 7  des
: 2294 1 7  em
: 2296 2 8 ~
: 2300 12 5 pires
- 2322
: 2331 3 7 Que
: 2335 2 8  le
* 2339 1 10  vent
* 2341 7 12 ~
: 2351 4 7  peut
: 2356 2 7  dé
: 2359 2 8 ~
: 2363 24 5 truire
- 2394
: 2397 3 7 Comme
: 2402 4 8  des
* 2409 2 10  châ
* 2412 2 12 ~
* 2416 8 7 teaux
: 2426 1 8  de
: 2428 37 5  cartes
- 2495
: 2618 2 10 Stone
: 2621 29 12 ~
- 2660
: 2664 5 11 Le
: 2672 4 7  monde
: 2678 4 4 ~
: 2683 3 4  est
* 2689 1 9  stone
* 2691 1 11 ~
* 2693 13 9 ~
- 2736
: 2851 2 6 Lais
: 2854 1 7 ~
: 2857 3 7 sez-
: 2861 6 7 moi
: 2869 3 9  me
* 2873 2 11  dé
* 2876 2 12 battre
: 2879 33 16 ~
- 2918
* 2921 2 12 Ve
* 2925 2 14 nez
* 2928 3 14  pas
* 2932 2 12 ~
: 2936 2 12  m'se
: 2940 3 11 cou
: 2944 1 11 rir
: 2946 29 12 ~
- 2982
* 2985 1 9 Ve
* 2987 1 11 ~
* 2990 2 11 nez
: 2994 3 11  plu
: 3000 3 9 tôt
: 3004 3 7  m'a
: 3009 1 7 battre
: 3011 6 9 ~
: 3018 1 7 ~
: 3020 10 5 ~
- 3042
: 3046 3 4 Pour
: 3050 3 5  m'em
: 3055 1 7 pę
: 3057 2 9 ~
: 3061 1 4 cher
: 3063 1 5 ~
: 3066 2 5  d'souf
: 3070 1 5 frir
: 3072 27 7 ~
- 3108
: 3111 2 7 J'ai
: 3114 2 7  la
: 3118 8 7  tęte
: 3129 3 9  qui
: 3133 3 11  é
* 3137 3 14 clate
* 3141 1 16 ~
* 3143 1 14 ~
* 3145 19 12 ~
- 3172
: 3175 2 12 J'vou
: 3178 3 14 drais
: 3184 1 12  seul'
: 3186 3 14 ~
: 3190 3 12 ment
: 3194 2 11 ~
* 3197 1 11  dor
* 3199 1 12 ~
: 3202 1 11 mir
: 3204 25 12 ~
- 3235
: 3237 1 9 M'é
: 3239 1 11 ~
: 3241 13 11 tendre
: 3257 2 9  sur
: 3261 2 7  l'as
: 3266 1 7 phalte
: 3268 4 9 ~
: 3273 1 7 ~
: 3275 2 5 ~
: 3278 1 7 ~
: 3280 4 9 ~
- 3295
: 3299 3 4 Et
: 3303 3 5  me
: 3307 1 7  lais
: 3309 2 9 ~
: 3314 3 4 ser
: 3319 3 5  mou
: 3323 1 5 rir
: 3325 25 7 ~
- 3380
: 3423 2 7 Lais
: 3426 2 9 ~
: 3430 3 9 sez-
: 3435 6 9 moi
: 3442 4 11  me
* 3447 3 13  dé
* 3451 2 13 battre
: 3454 29 18 ~
: 3484 3 16 ~
: 3488 3 14 ~
- 3494
: 3496 3 14 Ve
: 3500 2 16 nez
: 3504 2 16  pas
: 3507 1 14 ~
: 3512 2 14  m'se
: 3515 3 13 cou
: 3519 2 13 rir
: 3522 29 14 ~
- 3557
: 3560 1 11 Ve
: 3562 1 13 ~
: 3564 2 13 nez
: 3567 4 13  plu
: 3573 3 11 tôt
: 3578 2 9  m'a
: 3582 1 9 battre
: 3584 6 11 ~
* 3591 1 9 ~
* 3593 2 7 ~
* 3596 1 9 ~
: 3598 19 11 ~
- 3620
: 3622 3 6 Pour
: 3626 3 7  m'em
* 3631 1 9 pę
* 3633 2 11 ~
: 3638 2 6 cher
: 3642 2 7  d'souf
: 3647 1 7 frir
: 3649 17 9 ~
- 3676
: 3686 1 7 J'ai
: 3688 1 9 ~
: 3690 2 9  la
: 3694 8 9  tęte
: 3704 3 11  qui
: 3708 3 13  é
: 3712 2 16 clate
: 3715 18 18 ~
: 3734 1 16 ~
: 3736 11 14 ~
- 3753
: 3756 2 14 J'vou
: 3759 2 16 drais
: 3764 1 14  seul'
: 3766 3 16 ~
: 3770 2 14 ment
: 3773 2 13 ~
: 3776 4 13  dor
: 3782 2 13 mir
: 3785 21 14 ~
- 3814
: 3817 2 13 M'é
: 3821 11 13 tendre
: 3834 2 11  sur
: 3838 2 9  l'as
: 3842 2 9 phalte
: 3845 3 11 ~
: 3849 1 9 ~
: 3851 2 7 ~
: 3854 1 9 ~
: 3856 12 11 ~
- 3876
: 3879 3 6 Et
: 3883 3 7  me
: 3888 1 9  lais
: 3890 1 11 ~
: 3894 3 6 ser
: 3899 1 6  mou
: 3901 1 7 ~
: 3903 1 7 rir
: 3905 31 9 ~
- 3946
: 3950 4 4 Et
: 3955 3 6  me
: 3960 1 7  lais
: 3962 3 9 ~
: 3967 12 4 ser
: 3982 2 4  mou
: 3986 2 6 ~
: 3989 2 4 ~
: 3992 3 2 ~
: 3997 31 2 rir
E