#TITLE:Easy
#ARTIST:Faith No More
#EDITION:SingStar Summer Party
#MP3:Faith No More - Easy.mp3
#COVER:Faith No More - Easy [CO].jpg
#BACKGROUND:Faith No More - Easy [BG].jpg
#VIDEO:Faith No More - Easy [VD#0].avi
#VIDEOGAP:0
#BPM:252
#GAP:17023,81
: 0 3 60 Know
: 5 1 60  it
: 8 5 60  sounds
: 16 4 60  fun
: 21 2 60 ny
- 24
: 24 3 60 But
: 29 2 60  I
: 32 2 60  just
: 37 4 60  can't
* 44 10 58  stand
: 56 2 56  the
: 60 11 58  pain
- 73 112
: 132 2 56 Girl
: 135 3 56  I'm
: 139 9 60  leav
: 150 3 63 in'
: 155 5 60  you
- 161
: 162 2 58 To
: 166 3 56 mor
* 171 5 53 row
: 177 2 54 ~
: 179 4 53 ~
: 183 3 51 ~
: 186 5 53 ~
- 193 234
: 254 6 60 Seems
: 263 2 60  to
: 267 6 60  me
: 275 6 60  girl
- 282
: 282 2 60 You
: 285 4 60  know
: 290 2 60  I
: 294 3 60  done
: 298 10 58  all
: 310 2 56  I
: 314 10 58  can
- 326 366
: 386 2 56 You
: 389 3 56  see
: 394 2 56  I
: 397 4 60  begged
* 405 10 63  stole
- 416
: 417 2 60 And
: 420 2 58  I
: 424 5 56  bor
: 431 6 53 rowed
: 437 2 54 ~
: 439 8 53 ~
: 447 4 51 ~
: 451 6 53 ~
- 459 460
: 485 8 58 Yeah
: 493 4 53 ~
- 499 500
: 517 11 65 Ooh
- 530 531
: 539 1 56 That's
: 542 3 56  why
: 546 2 56  I'm
: 550 11 58  ea
: 563 13 60 sy
- 578 632
: 652 2 51 I'm
: 656 3 59  ea
: 660 3 59 sy
: 664 3 58  like
: 671 3 56  Sun
: 676 2 53 day
* 680 7 58  morn
: 687 3 56 ~
: 691 25 56 ing
- 717
: 717 2 58 Yeah
: 720 13 60 ~
: 733 7 58 ~
: 741 3 56 yeah
: 745 4 58 ~
: 749 2 59 ~
: 751 4 58 ~
: 755 9 56 ~
- 766 776
: 796 2 56 That's
: 800 3 56  why
: 804 3 56  I'm
: 808 27 65  ea
: 838 13 65 sy
: 852 12 63 ~
* 866 2 59 yeah
: 870 4 59 ~
: 874 9 58 ~
: 885 10 56 ~
- 897 898
: 910 2 51 I'm
: 913 2 58  ea
: 918 2 59 sy
: 921 3 58  like
: 928 3 56  Sun
: 933 7 53 day
- 941
: 942 10 58 Mor
: 952 2 59 ~
: 954 17 58 ~
: 971 21 56 ~
: 992 4 51 ~
: 996 4 56 ~
: 1001 9 56 ~
: 1013 36 56 ning
- 1051
: 1059 2 56 I
: 1062 4 56  wan
: 1067 2 60 na
: 1070 5 63  be
* 1077 17 65  high
- 1096 1110
: 1130 5 60 So
: 1135 4 56 ~
: 1141 11 58 high
- 1154 1165
: 1185 2 56 I
: 1188 4 56  wan
: 1193 2 60 na
: 1196 6 63  be
: 1204 7 65  free
: 1213 3 66  to
: 1218 9 65  know
- 1228
: 1229 2 66 The
: 1234 5 65  things
: 1242 5 66  I
: 1250 6 61  do
: 1257 5 58  are
: 1264 6 63  right
* 1270 2 64 ~
: 1272 2 63 ~
: 1276 2 61 ~
: 1278 9 63 ~
: 1287 9 65 ~
- 1298 1299
: 1312 2 68 I
: 1316 3 68  wan
: 1320 2 65 na
: 1323 2 65  be
: 1328 4 65  free
: 1332 3 63 ~
: 1335 12 65 ~
- 1349 1364
: 1384 5 60 Just
: 1389 3 56 ~
: 1396 11 58 me
- 1409 1410
: 1425 5 58 Oh
: 1430 2 59 ~
: 1432 12 58 ~
: 1447 3 56 ba
* 1452 6 58 by
- 1460 1588
F 1608 12 62 Ew
- 1622 2109
: 2129 8 58 Whoa
: 2139 8 53  oh
- 2149 2150
: 2163 10 65 Ooh
- 2175 2176
* 2185 1 56 That's
: 2188 3 56  why
: 2192 2 56  I'm
: 2196 10 58  ea
: 2209 17 60 sy
- 2228 2277
: 2297 2 51 I'm
: 2301 3 59  ea
: 2305 3 59 sy
: 2309 3 58  like
: 2316 3 56  Sun
: 2321 2 53 day
: 2325 7 58  morn
: 2332 3 56 ~
: 2337 24 56 ing
- 2362
: 2362 2 58 Yeah
: 2365 13 60 ~
: 2378 7 58 ~
: 2386 3 56 yeah
: 2390 4 58 ~
: 2394 2 59 ~
: 2396 4 58 ~
: 2400 2 56 ~
: 2402 3 58 ~
: 2405 9 56 ~
- 2416 2417
: 2442 2 56 That's
: 2445 3 56  why
: 2449 3 56  I'm
: 2453 28 65  ea
: 2481 2 67 ~
* 2485 11 68 sy
: 2496 3 67 ~
: 2500 13 63 ~
: 2513 2 60 ~
: 2517 7 65 yeah
: 2526 5 58 ~
: 2531 7 56 ~
- 2540 2541
: 2555 2 51 I'm
: 2558 3 58  ea
: 2563 2 59 sy
: 2566 4 58  like
: 2574 3 56  Sun
: 2579 6 53 day
- 2586
: 2588 10 58 Mor
: 2598 2 59 ~
: 2600 17 58 ~
: 2617 21 56 ~
: 2638 4 51 ~
: 2642 5 56 ~
: 2648 11 56 ~
: 2660 42 56 ning
E
