#TITLE:Criticar por criticar
#ARTIST:Fangoria
#MP3:Fangoria - Criticar Por Criticar.ogg
#COVER:Fangoria - Criticar Por Criticar [CO].jpg
#BACKGROUND:Fangoria - Criticar Por Criticar [BG].jpg
#EDITION:SingStar - Pop Hits ESP
#BPM:270
#GAP:15400
: 0 4 50 La en
: 4 3 55 vi
: 8 4 57 dia 
: 12 4 58 es 
-19
: 20 5 57 Co
: 25 4 55 mo un 
: 33 4 50 pu
: 40 5 51 ńal 
-56
: 72 3 53 żA 
: 76 2 60 quién 
: 81 2 60 se 
: 85 4 60 lo 
: 89 3 58 voy 
-93
: 93 4 60 A 
: 97 2 60 cla
: 99 2 62 
: 104 4 58 var?
: 109 5 55 
-122
: 129 4 50 Aun
: 133 4 55 que 
: 137 3 57 re
: 140 3 58 cuer
: 145 4 58 do 
: 149 3 57 que 
-153
: 153 3 55 La 
: 160 4 50 mal
: 168 4 51 dad
: 172 3 53 
-186
: 204 2 60 Siem
: 208 4 60 pre 
: 217 3 58 se 
: 220 7 60 vuel
: 228 3 62 ve 
-242
: 256 3 50 Pa
: 260 3 55 la
: 264 3 57 bre
: 268 4 58 rí
: 272 5 57 a 
-279
: 280 5 55 Y ob
: 288 6 50 se
: 297 3 51 sión
: 300 4 53 
-315
: 328 3 53 Pro
: 332 2 60 du
: 337 2 60 cen 
: 340 3 60 muy 
-344
: 344 3 58 Ma
: 348 4 60 la im
: 353 3 62 pre
: 360 4 58 sión
: 364 5 55 
-380
: 389 3 55 Te 
: 392 3 57 co
: 396 5 58 men
: 404 3 57 to 
-408
: 408 3 55 Que in
: 416 3 50 sul
: 424 5 53 tar 
-440
: 456 4 53 No 
: 460 2 60 es 
: 464 2 60 nin
: 468 4 60 gu
: 472 2 58 na 
-475
: 476 4 60 No
: 480 4 58 ve
: 489 3 60 dad
: 492 11 62 
: 504 8 60 
-523
: 552 4 53 Mal
: 556 3 62 gas
: 564 2 62 to 
: 569 5 62 mi 
-578
: 580 4 60 Ta
: 585 4 63 len
: 593 4 62 to 
: 600 7 60 des
: 612 3 57 tro
: 616 5 60 zan
: 628 3 58 do a 
-632
: 632 6 58 Los 
: 640 5 57 de
: 648 8 50 más 
-667
: 677 3 50 Pro
: 681 3 50 pa
: 685 4 51 gan
: 693 3 53 do 
-697
: 697 5 55 Mil 
: 704 2 55 men
: 706 2 58 
: 712 7 58 ti
: 720 5 53 ras 
-733
: 740 2 53 Dis
: 744 3 53 fra
: 748 4 62 zan
: 755 3 60 do 
-759
: 760 4 60 La 
: 768 10 58 ver
: 780 11 62 dad
: 792 4 60 
-803
: 808 4 53 Es
: 812 3 62 toy 
: 820 2 62 per
: 824 5 62 dien
: 832 4 60 do un 
-839
: 840 4 63 Tiem
: 852 4 62 po 
: 856 6 60 que 
-867
: 871 3 57 No 
: 876 5 60 voy 
: 884 3 58 a 
: 889 6 58 re
: 897 5 57 co
: 905 8 50 brar 
-924
: 936 3 50 Pa
: 940 3 51 re
: 945 3 53 ce 
: 952 5 55 que 
: 960 3 58 mi
: 969 7 58 vi
: 976 5 53 da 
-992
: 1001 3 53 No 
: 1004 4 62 da 
: 1009 3 60 pa
: 1012 4 58 ra 
: 1016 4 60 más 
-1031
: 1104 4 60 Uh 
: 1112 3 58 uh 
: 1120 4 57 uh 
: 1128 5 50 uh 
-1144
: 1164 4 57 Ai
: 1168 4 58  
: 1172 4 57 ai
: 1176 4 58  
: 1180 4 57 ai
: 1184 4 58  
: 1188 4 57 ai
: 1192 3 58  
: 1196 4 55 ah 
-1211
: 1232 4 60 Uh 
: 1240 4 58 uh 
: 1248 4 57 uh 
: 1256 4 50 uh 
-1271
: 1292 4 57 Ai
: 1296 4 58  
: 1300 4 57 ai
: 1304 4 58  
: 1308 4 57 ai
: 1312 4 58  
: 1316 4 57 ai
: 1320 4 58  
: 1324 5 55 ah 
-1337
: 1344 4 50 Yo 
: 1348 3 55 soy 
: 1351 3 57 la 
-1355
: 1356 4 58 San
: 1363 5 57 ta in
: 1368 4 55 qui
: 1377 4 50 si
: 1383 3 51 ción
: 1386 3 53 
-1400
: 1419 4 62 So
: 1424 2 60 lo 
: 1428 4 60 lla
: 1432 3 58 mo 
-1436
: 1436 4 60 La a
: 1440 2 60 ten
: 1442 2 62 
: 1447 4 58 ción
: 1451 5 55 
-1465
: 1472 4 50 De 
: 1476 4 55 quien 
: 1480 3 57 no 
: 1484 5 58 tie
: 1490 4 57 ne 
-1495
: 1496 3 55 De 
: 1503 4 50 qué ha
: 1511 5 50 blar
: 1516 3 53 
-1530
: 1545 2 53 De 
: 1548 2 62 tres 
: 1553 4 60 a
: 1560 3 58 bu
: 1564 7 60 rri
: 1572 3 60 das
: 1575 2 62 
-1588
: 1604 3 55 Me 
: 1608 3 57 pa
: 1613 2 58 re
: 1617 3 58 ce 
-1621
: 1621 3 57 Que en 
: 1624 5 55 rea
: 1632 6 51 li
: 1641 3 51 dad
: 1644 4 53 
-1659
: 1676 2 62 Ya 
: 1680 2 60 no 
: 1684 4 60 sé 
: 1688 3 58 có
: 1692 4 60 mo a
: 1696 3 62 ca
: 1704 4 58 bar
: 1708 3 55 
-1720
: 1728 3 50 Lo 
: 1733 3 55 que em
: 1736 3 57 pe
: 1740 5 58 cé 
-1747
: 1748 4 57 Por 
: 1752 3 55 al
: 1760 3 50 can
: 1768 5 51 zar
: 1773 2 53 
-1786
: 1800 4 53 Un 
: 1804 2 60 po
: 1808 2 60 co 
: 1812 4 60 de 
: 1816 2 58 ce
: 1820 4 60 le
: 1824 4 58 bri
: 1833 4 60 dad
: 1837 11 62 
: 1848 8 60 
-1867
: 1896 4 53 Mal
: 1900 3 62 gas
: 1908 2 62 to 
: 1913 5 62 mi 
-1922
: 1924 4 60 Ta
: 1928 4 63 len
: 1936 4 62 to 
: 1944 7 60 des
: 1956 3 57 tro
: 1960 5 60 zan
: 1972 3 58 do a 
-1976
: 1976 6 58 Los 
: 1984 5 57 de
: 1992 8 50 más 
-2011
: 2020 3 50 Pro
: 2024 3 50 pa
: 2028 4 51 gan
: 2036 3 53 do 
-2040
: 2040 5 55 Mil 
: 2047 3 55 men
: 2050 2 58 
: 2055 7 58 ti
: 2063 5 53 ras 
-2077
: 2084 2 53 Dis
: 2088 3 53 fra
: 2092 4 62 zan
: 2100 3 60 do 
-2104
: 2105 4 60 La 
: 2113 4 58 ver
: 2124 11 62 dad
: 2136 9 60 
-2149
: 2151 4 53 Es
: 2155 3 62 toy 
: 2163 2 62 per
: 2168 5 62 dien
: 2176 4 60 do un 
-2183
: 2184 4 63 Tiem
: 2195 4 62 po 
: 2200 7 60 que 
-2212
: 2216 3 57 No 
: 2221 5 60 voy 
: 2229 3 58 a 
: 2233 4 58 re
: 2241 5 57 co
: 2248 8 50 brar 
-2267
: 2281 3 50 Pa
: 2284 4 51 re
: 2289 3 53 ce 
: 2297 5 55 que 
: 2304 3 58 mi 0 
: 2312 7 58 vi
: 2319 5 53 da 
-2335
: 2345 3 53 No 
: 2348 4 62 da 
: 2353 3 60 pa
: 2356 4 58 ra 
: 2360 4 60 más 
-2375
: 2436 2 62 Cri
: 2440 2 65 ti
: 2444 3 65 car
: 2447 3 63  
: 2452 2 63 por 
: 2456 3 63 cri
: 2464 3 62 ti
: 2472 3 58 car 
-2486
: 2508 4 57 Ai
: 2512 4 58  
: 2516 4 57 ai
: 2520 4 58  
: 2524 4 57 ai
: 2528 4 58  
: 2532 4 57 ai
: 2536 4 58  
: 2540 6 55 ah 
-2556
: 2564 2 62 Cri
: 2568 2 65 ti
: 2572 3 65 car
: 2575 2 63  
: 2580 2 63 por 
: 2584 2 63 cri
: 2592 4 62 ti
: 2600 4 58 car 
-2615
: 2636 4 57 Ai
: 2640 4 58  
: 2644 4 57 ai
: 2648 4 58  
: 2652 4 55 ah 
-2661
: 2664 4 53 Mal
: 2668 3 62 gas
: 2676 2 62 to 
: 2681 5 62 mi 
-2690
: 2692 4 60 Ta
: 2697 4 63 len
: 2705 4 62 to 
: 2712 7 60 des
: 2724 3 57 tro
: 2728 5 60 zan
: 2740 3 58 do a 
-2744
: 2744 6 58 Los 
: 2752 5 57 de
: 2760 8 50 más 
-2779
: 2789 3 50 Pro
: 2793 3 50 pa
: 2797 4 51 gan
: 2805 3 53 do 
-2809
: 2809 5 55 Mil 
: 2816 3 58 men
: 2824 7 58 ti
: 2832 5 53 ras 
-2845
: 2852 2 53 Dis
: 2856 3 53 fra
: 2860 4 62 zan
: 2868 3 60 do 
-2872
: 2873 4 60 La 
: 2880 6 58 ver
: 2893 11 62 dad
: 2904 6 60 
-2916
: 2920 4 53 Es
: 2924 3 62 toy 
: 2932 2 62 per
: 2936 5 62 dien
: 2944 4 60 do un 
-2951
: 2952 4 63 Tiem
: 2963 4 62 po 
: 2968 7 60 que 
-2980
: 2984 3 57 No 
: 2989 5 60 voy 
: 2997 3 58 a 
: 3001 6 58 re
: 3009 5 57 co
: 3016 8 50 brar 
-3035
: 3048 3 50 Pa
: 3052 4 51 re
: 3057 3 53 ce 
: 3064 5 55 que 
: 3072 3 58 mi
: 3080 7 58 vi
: 3088 5 53 da 
-3103
: 3112 3 53 No 
: 3116 4 62 da 
: 3120 3 60 pa
: 3123 4 58 ra 
: 3128 4 60 más 
-3143
: 3216 4 60 Uh 
: 3225 4 58 uh 
: 3232 4 57 uh 
: 3240 7 50 uh 
-3258
: 3276 4 57 Ai
: 3280 4 58  
: 3284 4 57 ai
: 3288 4 58  
: 3292 4 57 ai
: 3296 4 58  
: 3300 4 57 ai
: 3304 4 58  
: 3308 6 55 ah 
-3325
: 3344 3 60 Uh 
: 3352 3 58 uh 
: 3360 3 57 uh 
: 3368 5 50 uh 
-3384
: 3404 4 57 Ai
: 3408 4 58  
: 3412 4 57 ai
: 3416 4 58  
: 3420 4 57 ai
: 3424 4 58  
: 3428 4 57 ai
: 3432 4 58  
: 3436 6 55 ah 
E
