#TITLE:Kein Zurück
#ARTIST:Farin Urlaub
#LANGUAGE:Deutsch
#EDITION:[SC]-Songs
#MP3:Farin Urlaub - Kein Zurück.mp3
#COVER:Farin Urlaub - Kein Zurück [CO].jpg
#VIDEO:Farin Urlaub - Kein Zurück [VD#0].flv
#VIDEOGAP:0
#BPM:297,5
#GAP:20450
: 1 3 3  Du
: 7 3 3  stehst
: 13 3 3  am
: 19 3 6  Fen
: 25 2 6 ster
- 28
: 30 3 6  und
: 35 3 6  du
: 41 4 5  schaust
: 50 2 5  hi
: 53 3 5 naus
- 58
: 60 3 5  Und
: 68 4 5  drau
: 74 2 5 ßen
: 78 3 6  scheint
: 84 3 5  die
: 90 4 6  Son
: 96 2 3 ne
- 100
: 105 2 6  doch
: 108 3 3  in
: 114 3 6  dir
: 120 4 3  herrscht
: 129 4 6  tie
: 135 2 8 fe
: 138 3 5  Nacht
- 143 176
: 196 3 3  Wenn
: 202 3 3  nicht
: 208 3 3  ein
: 214 3 6  letz
: 220 2 6 ter
: 224 3 6  Rest
- 228
: 230 3 6  von
: 237 4 5  Zwei
: 243 4 5 fel
: 250 2 5  in
: 254 3 3  dir
: 260 5 5  wä
: 267 2 5 re
- 270
: 272 4 6  Hät
: 278 2 5 test
: 284 3 6  du
: 290 3 3  schon
: 297 4 6  längst
- 303
: 306 3 3  den
: 312 3 6  letz
: 318 2 3 ten
: 324 3 6  Schritt
: 330 2 8  ge
: 333 3 5 macht
- 338 365
: 385 17 11 Nie
: 407 10 8 mand!
- 419 420
* 435 17 11 Nie
: 455 11 8 mand!
- 468 469
: 483 2 11  Nie
: 487 3 11 mand
: 494 3 11  da
: 501 3 11  der
: 507 3 13  dich
: 513 2 11  ver
: 517 3 10 steht
- 522
: 526 3 11  Und
: 532 4 10  weiß
: 538 3 10  was
: 544 2 10  in
: 547 2 10  dir
: 553 3 11  vor
: 559 3 10  sich
: 566 4 10  geht
- 572 573
: 587 3 3  Geh
: 593 3 3  durch
: 599 3 3  die
: 605 4 6  Stra
: 611 2 6 ßen
: 615 3 6  und
: 621 3 6  du
: 627 4 5  siehst:
- 633
: 636 3 5  Um
: 642 2 5  dich
: 646 3 5  her
: 651 2 5 um
: 657 3 5  da
: 663 2 6  tobt
: 669 3 5  das
: 675 5 6  Le
: 683 2 3 ben
- 687
: 690 2 6  Doch
: 695 2 3  in
: 700 3 6  dir
: 706 3 3  tobt
: 715 2 6  nur
: 718 3 8  der
: 725 4 5  Tod
- 731 762
: 782 3 3  Du
: 788 4 3  wür
: 794 2 3 dest
: 801 2 6  al
: 804 2 6 les
: 810 3 6  für
: 816 2 6  nen
: 822 4 5  Not
: 828 3 5 aus
: 835 4 5 gang
- 841
: 843 2 5  aus
: 849 3 5  die
: 853 2 5 sem
* 859 4 6  Le
: 865 2 5 ben
: 871 4 6  ge
: 877 2 3 ben
- 881
: 887 3 6  O
: 891 2 3 der
: 898 2 6  für
: 902 2 3  ein
: 910 2 6  Ret
: 914 3 8 tungs
: 923 5 5 boot
- 930 952
: 972 16 11 Hilf
: 993 10 8 los!
- 1005 1006
* 1021 16 11 Hilf
: 1041 12 8 los!
- 1055
: 1063 2 8  Du
: 1069 3 11  weißt
: 1075 3 11  nicht
: 1081 3 11  mehr
: 1087 3 11  wo
: 1091 2 13 hin
: 1097 2 11  mit
: 1103 4 10  dir
- 1109
: 1112 3 11  Du
: 1118 3 10  willst
: 1124 3 10  ü
: 1128 2 10 ber
: 1134 3 10 all
: 1140 4 10  sein
: 1148 3 22  bloß
: 1154 3 20  nicht
* 1160 5 22  hier
- 1167
: 1172 3 18  Nie
: 1178 4 18  wie
: 1184 2 18 der
: 1190 4 17  Lie
: 1196 2 17 bes
: 1200 3 15 kum
: 1206 2 13 mer
: 1212 4 15  nie
: 1221 4 13  wie
: 1227 2 13 der
: 1230 4 15  al
: 1237 4 10 lein
- 1243 1244
: 1270 4 6  Nie
: 1276 4 6  wie
: 1282 2 6 der
: 1288 3 5  Pech
: 1294 2 5  nie
: 1299 3 3  wie
: 1304 2 1 der
* 1310 11 3  Glück
- 1323 1348
: 1368 3 6  Kein
: 1374 4 6  Kuss
: 1380 3 6  im
: 1386 4 5  Re
: 1392 2 5 gen
: 1396 3 3  und
: 1402 3 1  kein
- 1407
: 1410 3 3  Son
: 1415 2 1 nen
: 1421 3 1 un
: 1427 3 3 ter
: 1433 4 -2 gang
- 1439
: 1447 3 8  Mach
: 1453 2 6  dir
: 1460 12 8  klar
- 1474 1475
: 1496 2 11  es
: 1500 2 11  ist
* 1507 4 11  wa
* 1512 6 10 ~hr
- 1520 1521
: 1537 2 3  Es
: 1540 2 3  gibt
: 1546 3 3  kein
: 1552 2 6  zu
: 1555 3 3 rück
- 1560 1739
: 1759 2 3  Mit
: 1765 4 3  ei
: 1771 2 3 ner
: 1777 3 6  Waf
: 1782 2 6 fe
- 1785
: 1787 3 6  an
: 1792 3 6  der
: 1798 6 5  Schlä
: 1807 3 5 fe
: 1813 3 5  willst
: 1819 3 5  du
: 1825 3 5  dich
- 1829
: 1831 2 5  Für
: 1835 4 6  al
: 1841 2 5 le
: 1847 4 6  E
: 1853 3 3 wig
: 1860 3 6 keit
- 1865
: 1868 3 3  von
: 1875 3 6  dei
: 1879 2 3 nem
: 1887 3 6  Schmerz
: 1896 2 8  be
: 1902 3 5 freien
- 1907 1934
: 1954 3 3  Soll
: 1960 3 3  denn
: 1966 3 3  das
: 1972 3 6  Zu
: 1976 3 6 cken
- 1981
: 1985 3 6  dei
: 1990 2 6 nes
: 1997 4 6  Zei
: 2003 3 5 ge
: 2010 2 5 fin
: 2013 3 5 gers
: 2021 3 5  tat
: 2027 3 5 säch
: 2033 3 6 lich
- 2037
: 2039 2 5  Der
: 2043 3 6  letz
: 2050 2 3 te
: 2055 4 6  Akt
- 2061
: 2063 3 3  in
: 2070 3 6  dei
: 2074 3 3 nem
: 2081 3 6  Le
: 2086 2 8 ben
: 2094 5 5  sein?
- 2101 2124
* 2144 17 11 Ster
: 2165 11 8 ben!
- 2178 2179
: 2192 16 11 Ster
: 2213 12 8 ben!
- 2227
: 2234 3 8  Die
: 2240 4 11  ei
: 2247 2 11 g'nen
: 2253 3 11  Schmer
: 2259 2 11 zen
: 2262 4 13  en
: 2268 3 11 den
: 2275 3 10  zwar
- 2280
: 2284 3 11  Doch
: 2290 3 10  mach
: 2296 3 10  dir
: 2302 3 10  bit
: 2306 2 10 te
: 2312 4 11  Ei
: 2318 3 10 nes
: 2324 4 10  klar:
- 2330 2331
: 2345 3 6  Du
: 2351 3 6  hast
: 2357 3 6  dein
: 2363 4 5  Leid
: 2369 2 5  nur
- 2372
: 2372 3 3  ge
: 2378 2 1 gen
: 2384 5 3  An
: 2392 2 1 d'res
: 2398 3 1  ein
: 2404 2 3 ge
: 2408 5 -2 tauscht
- 2415 2428
: 2448 3 6  Nichts
: 2453 2 6  ist
: 2459 3 5  bes
: 2463 2 5 ser
: 2469 3 3  nicht
: 2475 4 1  ein
* 2484 5 3  Stück
- 2491 2519
: 2539 3 6  Die
: 2545 3 6  dich
: 2552 3 6  ver
: 2558 4 5 lier'n
- 2563
: 2564 3 3  wer
: 2569 2 3 den
: 2574 3 1  den
: 2580 5 3  Schmerz
: 2589 2 1  für
: 2594 3 1  im
: 2598 2 3 mer
: 2604 7 -2  spür'n
- 2613
: 2616 3 8  Wenn
: 2622 3 6  du
: 2628 11 8  gehst
- 2641 2642
: 2667 2 10  du
: 2671 2 11  ver
: 2677 4 11 steh
: 2684 7 10 ~st:
- 2693 2694
: 2707 2 3  Es
: 2710 3 3  gibt
: 2716 4 3  kein
: 2723 2 6  Zu
: 2726 4 3 rück
- 2732 2911
: 2931 3 3 Du
: 2937 3 3  siehst
: 2943 3 3  an
: 2949 2 6  Al
: 2953 2 6 lem
- 2956
: 2958 3 6  nur
: 2964 3 6  die
: 2970 4 6  ne
: 2976 3 5 ga
: 2982 4 5 ti
: 2988 2 3 ven
: 2994 4 5  Sei
: 3000 3 3 ten
- 3005
: 3009 3 5  Schwimmst
: 3016 2 3  in
: 3019 4 6  ei
: 3025 2 3 nem
- 3029
: 3034 3 6  tie
: 3038 3 3 fen
: 3045 3 6  Meer
: 3051 3 3  von
: 3058 3 6  Trau
: 3062 3 8 rig
: 3071 4 5 keit
- 3077 3105
: 3125 3 3  Tat
: 3132 3 3 sa
: 3136 2 3 che
: 3142 2 6  ist
: 3149 3 6  zwar
- 3154
: 3156 3 6  dass
: 3162 2 6  wir
: 3168 2 6  al
: 3172 2 5 le
: 3178 3 5  ster
: 3184 2 3 ben
: 3190 3 5  müs
: 3196 2 5 sen
- 3200
: 3205 2 6  Nur
: 3210 2 3  die
: 3215 4 6  Meis
: 3222 2 3 ten
- 3226
: 3229 2 6  hät
: 3233 2 3 ten
: 3241 4 6  ger
: 3247 2 3 ne
: 3251 3 6  noch
: 3257 3 8  mehr
: 3266 5 5  Zeit
- 3273 3294
* 3314 18 11 Le
: 3336 9 8 ben!
- 3347 3348
: 3364 16 11 Le
: 3384 10 8 ben!
- 3396 3397
: 3406 3 8  Wir
: 3412 3 11  ha
: 3418 2 11 ben
: 3422 2 11  nur
: 3428 3 11  dies
: 3434 3 13  ei
: 3440 2 11 ne
: 3446 5 10  Le
: 3453 2 11 ben
- 3455
: 3455 3 11  Ein
: 3461 4 10  Zwei
: 3467 3 10 tes
: 3473 4 10  kann
: 3479 3 10  dir
: 3485 4 11  kei
: 3491 2 10 ner
: 3495 5 10  ge
: 3502 2 10 ben
- 3506 3507
: 3516 3 6  Nie
: 3522 5 6  wie
: 3528 2 6 der
: 3534 4 5  Sor
: 3540 2 5 gen
: 3544 4 3  ha
: 3550 2 1 ben
- 3554
: 3556 5 3  nie
: 3565 4 1  wie
: 3571 2 1 der
: 3575 3 3  ver
: 3581 4 -2 lieren
- 3587 3588
: 3613 3 6  Nie
: 3619 4 6  wie
: 3625 3 6 der
: 3632 4 5  Pech
- 3637
: 3639 2 5  Nie
: 3643 4 3  wie
: 3648 3 1 der
* 3655 14 3  Glück
- 3671 3685
: 3705 4 6 Kei
: 3711 2 6 ne
: 3718 4 6  zwei
: 3724 2 6 te
: 3730 4 5  Chan
: 3736 2 3 ce
- 3739
: 3740 3 3  und
: 3746 3 1  erst
: 3752 5 3  recht
: 3761 3 1  kein
: 3767 3 1  Hap
: 3771 2 3 py
: 3776 3 -2  End
- 3781
: 3788 3 8  Mach
: 3794 3 6  dir
: 3802 7 8  klar
: 3811 2 6 ~
: 3814 7 3 ~
- 3823 3824
: 3840 2 10  es
: 3844 2 11  ist
* 3851 4 11  wahr
* 3857 10 10 ~:
- 3869 3870
: 3880 2 6  Es
: 3883 2 6  gibt
: 3889 3 6  kein
: 3895 2 9  Zu
: 3898 3 6 rück!
E

