#TITLE:System Addict
#ARTIST:Five Star
#EDITION:SingStar Summer Party
#MP3:Five Star - System Addict.mp3
#COVER:Five Star - System Addict [CO].jpg
#BACKGROUND:Five Star - System Addict [BG].jpg
#VIDEO:Five Star - System Addict [VD#0].avi
#VIDEOGAP:0
#BPM:253
#GAP:22885,38
: 0 2 66 Take
: 4 2 67  a
: 8 2 66  look
: 12 2 67  at
: 16 3 66  me
- 21 40
: 60 6 61 Wired
: 68 3 62  to
: 72 2 61  a
: 76 1 62  ma
: 80 3 59 chine
- 85 105
: 125 6 66 Ne
: 132 2 67 ver
: 136 2 66  would
: 140 3 67  be
: 144 2 67 lieve
* 146 4 69 ~
: 154 6 66 it
- 162 163
: 185 1 62 This
: 189 4 61  can't
: 196 2 62  be
: 200 2 61  hap
: 204 3 62 pen
: 208 3 59 in'
- 213 236
: 256 2 66 Box
: 261 1 67 es
: 264 2 66  that
: 268 2 67  go
: 273 3 69  beep
- 278 297
: 317 6 61 Lit
: 325 3 62 tle
: 329 2 61  lights
: 333 2 62  that
* 337 2 59  leap
- 341 365
: 385 2 66 Tap
: 389 3 67 pin'
: 393 3 66  on
: 397 2 67  a
: 401 2 67  key
: 403 5 69 ~
: 410 8 66 board
- 420 421
: 437 2 62 What's
: 445 6 61  hap
: 453 3 62 pen
: 457 3 61 in'
: 461 2 62  to
: 465 3 59  me?
- 470 496
: 516 3 69 And
: 520 3 69  when
: 524 2 69  the
* 528 7 69  e
: 536 3 62 lec
: 545 1 69 tri
: 548 1 69 ci
: 552 4 69 ty
- 558 559
: 577 9 74 Starts
: 589 8 73  to
: 601 14 69  flow
- 617 618
: 644 2 69 The
: 648 2 69  fuse
: 652 2 69  that's
: 656 6 69  on
: 665 3 62  my
: 673 2 69  sa
: 677 2 69 ni
: 681 4 69 ty
- 687 688
* 705 10 74 Got
: 717 8 73  to
: 725 2 69 ~
: 729 15 69 blow
- 746
: 753 1 66 Sys
: 761 5 69 tem
: 769 7 71  ad
: 776 4 69 ~
: 781 2 69 dict
- 785 809
: 829 2 66 I
: 833 3 66  ne
: 837 2 66 ver
: 841 5 64  can
: 849 7 62  get
: 857 3 61  e
: 861 4 59 nough
- 867 868
: 881 2 66 Sys
: 889 6 69 tem
* 899 6 71  ad
: 905 3 69 ~
: 909 2 69 dict
- 913 941
: 961 3 67 Ne
: 965 2 67 ver
: 969 5 67  can
: 977 7 67  give
: 985 3 69  it
: 991 3 66  up
- 996 997
: 1011 10 64 Oh
: 1021 2 62 ~
- 1025 1055
: 1075 10 61 No
: 1085 3 59 ~
- 1090 1133
: 1153 3 66 Beau
: 1157 3 67 ty
: 1161 3 66  or
: 1165 3 67  a
: 1169 3 66  beast
- 1174 1195
* 1215 6 61 Don't
: 1222 3 62  know
: 1226 1 61  which
: 1230 2 62  I
: 1238 2 61  see
: 1240 4 59 ~
- 1246 1262
: 1282 3 66 Still
: 1286 3 67  I
: 1290 3 66  could
: 1294 2 67 n't
: 1298 2 67  leave
: 1300 4 69 ~
: 1306 8 66 it
- 1316 1317
: 1334 1 62 Fas
: 1338 2 62 ci
: 1342 5 61 na
: 1350 1 62 tion
: 1354 2 61  won't
: 1356 3 62 ~
: 1362 4 59 cease
- 1368 1393
: 1413 3 69 You
: 1417 3 69  know
: 1421 2 69  it's
: 1425 3 69  got
- 1430
: 1433 4 62 The
: 1442 1 69  best
: 1446 1 69  of
: 1450 2 69  me
- 1454 1455
: 1474 10 74 Sight
: 1486 7 73  and
: 1498 14 69  sound
- 1514 1515
: 1541 3 69 I'm
: 1545 3 69  tang
: 1549 4 69 led
: 1554 5 69  in
- 1560
: 1562 3 62 Com
: 1570 2 69 plex
: 1574 2 69 i
: 1578 3 69 ty
- 1583 1584
* 1602 11 74 All
: 1614 7 73  a
: 1621 3 69 ~
: 1626 16 69 round
- 1644
: 1650 2 66 Sys
: 1658 6 69 tem
: 1667 7 71  ad
: 1674 3 69 ~
: 1678 2 69 dict
- 1682 1706
: 1726 2 66 I
: 1730 3 66  ne
: 1734 2 66 ver
: 1738 5 64  can
: 1746 7 62  get
: 1754 3 61  e
: 1758 4 59 nough
- 1764 1765
: 1777 2 66 Sys
: 1785 6 69 tem
: 1795 7 71  ad
: 1802 3 69 ~
: 1806 2 69 dict
- 1810 1837
: 1857 3 67 Ne
: 1861 3 67 ver
: 1865 5 67  can
: 1873 7 67  give
: 1882 3 69  it
: 1887 4 66  up
- 1893 1894
: 1907 10 64 No
: 1917 18 62 ~
: 1935 2 64 ~
: 1937 3 62 ~
: 1940 2 59 ~
- 1944 1966
* 1986 12 74 Ah
: 1998 11 73 ~
: 2009 14 69 ~
- 2025 2094
: 2114 8 74 Ah
: 2122 4 73 ~
: 2126 7 69 ~
- 2135 2238
: 2258 2 59 Sys
: 2266 3 57 tem
: 2270 7 59  ad
: 2278 1 57 dict
- 2281 2290
: 2310 2 59 You've
: 2314 2 59  got
: 2318 2 62  the
: 2322 5 61  hard
: 2330 3 57 ware
: 2334 7 59  ha
: 2342 2 62 bit
- 2346 2386
: 2406 3 69 And
: 2410 3 69  when
: 2414 2 69  it
: 2418 3 69  gets
- 2423
: 2427 3 62 To
: 2434 2 69  be
: 2438 3 69  too
: 2442 3 69  much
- 2447 2448
: 2466 10 74 Can't
: 2478 8 73  go
: 2486 2 69 ~
: 2491 15 69 on
- 2508 2509
: 2534 3 69 I
: 2538 3 69  real
: 2542 3 69 ly
: 2546 5 69  need
- 2553
: 2555 3 62 The
: 2562 2 69  hu
: 2566 2 69 man
: 2570 3 69  touch
- 2575 2576
: 2586 3 69 But
: 2590 2 69  I'm
: 2594 11 74  too
: 2606 8 73  far
: 2614 2 69 ~
* 2618 31 69 ~
- 2650
: 2650 2 59 No
: 2654 2 61  I
: 2658 5 62  can't
: 2666 5 61  go
- 2672
: 2674 2 66 Sys
: 2682 6 69 tem
: 2690 8 71  ad
: 2698 3 69 ~
: 2702 2 69 dict
- 2706 2730
: 2750 2 66 I
: 2754 3 66  ne
: 2758 2 66 ver
: 2762 5 64  can
: 2770 7 62  get
: 2778 3 61  e
: 2782 4 59 nough
- 2788 2789
: 2802 2 66 Sys
: 2810 5 69 tem
: 2818 8 71  ad
: 2826 3 69 ~
: 2830 2 69 dict
- 2834 2862
: 2882 3 67 Ne
: 2886 2 67 ver
: 2890 5 67  can
: 2898 7 67  give
: 2906 3 69  it
: 2910 6 66  up
- 2918 2919
: 2930 2 68 Sys
: 2938 5 71 tem
: 2946 8 73  ad
: 2954 3 71 ~
: 2958 2 71 dict
- 2962
: 2966 1 61 You've
: 2970 1 61  got
: 2974 2 64  the
: 2980 4 63  hard
: 2986 3 59 ware
: 2990 7 61  ha
: 2998 2 64 bit
- 3002
: 3006 2 68 I
: 3010 3 68  ne
: 3014 2 68 ver
: 3018 5 66  can
: 3026 7 64  get
: 3034 3 63  e
: 3038 4 61 nough
- 3044 3045
: 3059 2 68 Sys
: 3066 5 71 tem
: 3075 7 73  ad
: 3082 3 71 ~
: 3086 3 71 dict
- 3091
: 3095 1 61 You've
: 3099 1 61  got
: 3103 2 64  the
: 3108 5 63  hard
: 3115 3 59 ware
: 3119 7 61  ha
: 3127 2 64 bit
- 3131
: 3139 3 68 Ne
: 3143 2 68 ver
: 3147 5 66  can
: 3155 7 64  give
: 3163 3 63  it
: 3167 3 61  up
- 3172 3173
: 3187 2 68 Sys
: 3195 4 71 tem
: 3203 8 73  ad
: 3211 3 71 ~
: 3215 2 71 dict
- 3219
: 3223 1 61 You've
: 3227 1 61  got
: 3231 2 64  the
: 3236 5 63  hard
: 3243 3 59 ware
: 3247 7 61  ha
: 3255 2 64 bit
- 3259
: 3262 2 68 I
: 3266 3 68  ne
: 3270 2 68 ver
: 3274 5 66  can
: 3282 7 64  get
- 3291
: 3298 2 68 Ne
: 3302 2 68 ver
: 3306 6 66  can
: 3315 6 64  get
: 3322 2 63  e
: 3327 4 64 nough
: 3331 3 63 ~
: 3334 3 61 ~
- 3339 3340
: 3351 4 68 Mmm
: 3359 4 66  hmm
- 3365 3375
: 3395 3 68 Ne
: 3399 2 68 ver
: 3403 5 66  can
: 3411 7 64  give
: 3419 3 63  it
: 3423 2 61  up
- 3427 3428
* 3443 2 68 Sys
: 3451 3 71 tem
: 3459 8 73  ad
: 3467 3 71 ~
: 3471 2 71 dict
- 3475
: 3479 1 56 You've
: 3483 1 61  got
: 3487 2 64  the
: 3491 6 63  hard
: 3499 3 59 ware
: 3503 7 61  ha
: 3511 2 64 bit
- 3515
: 3519 2 68 I
: 3523 3 68  ne
: 3527 2 68 ver
: 3531 5 66  can
: 3539 7 64  get
- 3548
: 3551 2 68 Ne
: 3555 4 69 ver
: 3559 4 68 ~
: 3563 4 66 ~
: 3567 5 64 ~
: 3572 2 66 ~
: 3574 2 64 ~
: 3576 2 66 ~
: 3578 2 64 ~
: 3580 2 61 ~
E
