#TITLE:Go Your Own Way
#ARTIST:Fleetwood Mac
#LANGUAGE:English
#EDITION:Rock Band 2
#GENRE:Classic Rock
#YEAR:1977
#MP3:Fleetwood Mac - Go Your Own Way.mp3
#COVER:Fleetwood Mac - Go Your Own Way [CO].jpg
#BACKGROUND:Fleetwood Mac - Go Your Own Way [BG].jpg
#BPM:270,07
#GAP:7687
#ALBUM:Rumours
: 0 4 17 Lov
: 4 4 19 ing
: 9 7 21  you
: 17 5 19 ~
: 33 3 17  is
: 36 4 19 n't
: 41 7 21  the
: 48 4 21  right
: 52 8 22 ~
: 65 2 21  thing
: 68 4 19 ~
: 73 2 19  to
: 77 17 19  do
- 94
: 128 4 22 How
: 133 3 24  can
: 137 9 26  I
: 146 4 24 ~
: 160 3 22  ev
: 164 2 24 er
: 168 6 26  change
: 177 3 29  things
: 181 9 22 ~
: 192 3 24  that
: 196 2 24  I
: 200 3 26  feel?
: 204 20 24 ~
- 224
* 256 2 17 If
* 260 2 19  I
* 265 7 21  could
* 273 5 19 ~
* 289 3 17  ba
* 292 4 19 by
* 296 5 21  I'd
* 304 3 21  give
* 308 9 22 ~
* 320 2 21  you
* 324 4 19 ~
* 329 5 19  my
* 335 28 19  world
- 363
: 382 3 22 How
: 387 2 24  can
: 391 8 26  I
: 400 5 24 ~
: 414 2 22  when
: 418 4 24  you
: 422 6 26  won't
: 430 4 29  take
: 435 2 22 ~
: 439 6 22  it
: 447 4 24  from
: 455 2 26  me?
: 457 24 24 ~
- 481
* 518 4 33 You
* 522 3 31  can
* 526 8 33  go
* 535 5 36  your
* 543 5 29  own
* 551 2 29  way
* 554 33 31 ~
- 587
: 590 6 34 Go
: 598 2 31  your
: 601 4 29 ~
: 606 7 28  own
: 614 8 29  way
: 622 4 28 ~
: 626 10 26 ~
- 636
: 646 3 33 You
: 650 2 31  can
: 654 7 33  call
: 662 3 36  it
: 670 5 29  an
: 678 3 29 oth
: 681 16 31 ~
: 698 3 29  er
: 702 3 31  lone
: 706 2 29 ly
: 710 7 33  day
: 717 5 31 ~
- 722
: 773 2 33 You
: 777 3 31  can
: 782 6 33  go
: 790 4 36  your
: 798 4 29  own
: 805 2 29  way
: 808 32 31 ~
- 840
: 845 5 34 Go
: 853 3 31  your
: 856 3 29 ~
: 861 6 28  own
: 869 10 29  way
- 879
: 894 3 17 Tell
: 897 2 19  me
: 901 7 21  why
: 909 5 19 ~
: 944 3 22  ev
: 949 2 22 ery
: 953 2 22 thing
: 958 3 21  turned
: 961 3 19 ~
: 965 2 19  a
: 969 20 19 round
- 989
: 1021 3 22 Pack
: 1025 2 24 in'
: 1029 8 26  up
: 1037 3 24 ~
: 1053 3 22  shack
: 1057 2 24 in'
: 1061 4 26  up's
: 1068 4 29  all
: 1074 9 22  you
: 1084 4 24  wan
: 1088 2 26 na
: 1093 2 26  do
: 1095 24 24 ~
- 1119
* 1149 2 17 If
* 1153 2 19  I
* 1158 5 21  could
* 1164 4 19 ~
* 1181 3 17  ba
* 1185 3 19 by
* 1189 5 21  I'd
* 1197 3 21  give
* 1202 9 22 ~
* 1213 2 21  you
* 1217 4 19 ~
* 1222 6 19  my
* 1229 17 19  world
- 1246
: 1277 3 22 O
: 1281 3 24 pen
: 1285 8 26  up
: 1294 2 24 ~
: 1309 2 22  ev
: 1313 1 24 ery
: 1317 6 26 thing's
: 1326 3 29  wait
: 1330 3 22 ~
: 1334 6 22  ing
: 1342 4 24  for
: 1349 2 26  you
: 1351 28 24 ~
- 1379
* 1414 3 33 You
* 1418 2 31  can
* 1422 6 33  go
* 1430 4 36  your
* 1437 6 29  own
* 1446 3 29  way
* 1449 29 31 ~
* 1478 2 29 ~
- 1480
: 1486 5 34 Go
: 1494 2 31  your
: 1497 3 29 ~
: 1501 7 28  own
: 1510 7 29  way
: 1518 4 28 ~
: 1522 6 26 ~
- 1528
: 1542 2 33 You
: 1546 2 31  can
: 1551 7 33  call
: 1559 2 36  it
: 1566 5 29  an
: 1574 3 29 oth
: 1577 16 31 ~
: 1595 3 29  er
: 1599 3 31  lone
: 1602 2 29 ly
: 1607 2 31  day
: 1609 5 33 ~
: 1614 5 31 ~
- 1619
* 1671 2 33 You
* 1675 2 31  can
* 1679 6 33  go
* 1687 4 36  your
* 1695 5 29  own
* 1703 2 29  way
* 1706 28 31 ~
* 1735 2 29 ~
- 1737
: 1743 5 34 Go
: 1751 2 31  your
: 1754 4 29 ~
: 1759 5 28  own
: 1767 10 29  way
- 1777
: 2310 2 31 You
: 2314 2 31  can
: 2318 6 33  go
: 2327 3 36  your
: 2335 5 29  own
: 2342 2 29  way
: 2345 29 31 ~
: 2375 2 29 ~
- 2377
: 2383 6 34 Go
: 2391 2 31  your
: 2393 3 29 ~
: 2399 7 28  own
: 2407 7 29  way
: 2415 3 28 ~
: 2419 8 26 ~
- 2427
: 2439 2 33 You
: 2443 2 31  can
: 2447 7 33  call
: 2455 3 36  it
: 2463 6 29  an
: 2471 3 29 oth
: 2474 16 31 ~
: 2491 3 29  er
: 2495 3 31  lone
: 2499 2 29 ly
: 2503 7 33  day
: 2510 4 31 ~
- 2514
: 2518 2 29 An
: 2522 3 31 oth
: 2527 3 29 er
: 2531 2 31  lone
: 2534 4 33 ~
: 2539 3 31  ly
: 2543 3 29 ~
: 2548 3 29  day
: 2551 4 26 ~
: 2556 4 24 ~
- 2560
: 2568 2 33 You
: 2571 2 31  can
: 2575 5 33  go
: 2584 3 36  your
: 2591 5 29  own
: 2600 2 29  way
: 2602 29 31 ~
: 2631 2 29 ~
- 2633
: 2639 5 34 Go
: 2648 2 31  your
: 2651 3 29 ~
: 2656 6 28  own
: 2664 7 29  way
: 2671 4 28 ~
: 2676 8 26 ~
- 2684
* 2695 3 33 You
* 2699 2 31  can
* 2704 7 33  call
* 2712 4 36  it
* 2719 5 29  an
* 2727 3 29 oth
* 2731 15 31 ~
* 2747 3 29  er
* 2751 3 31  lone
* 2755 2 29 ly
* 2759 2 31  day
* 2762 4 33 ~
* 2767 5 31 ~
- 2772
* 3464 3 33 You
* 3468 2 31  can
* 3472 7 33  go
* 3480 6 36  your
* 3488 6 29  own
* 3497 3 29  way
* 3500 53 31 ~
- 3553
: 3592 3 33 You
: 3596 2 31  can
: 3601 8 33  call
: 3609 4 36  it
: 3617 6 29  an
: 3625 3 29 oth
: 3628 15 31 ~
: 3644 3 29  er
: 3648 3 31  lone
: 3653 3 29 ly
: 3656 2 31  day
: 3659 4 33 ~
: 3664 5 31 ~
- 3669
: 3720 3 33 You
: 3724 2 31  can
: 3729 7 33  go
: 3737 6 36  your
: 3745 6 29  own
: 3753 3 29  way
: 3757 52 31 ~
- 3809
: 3849 3 33 You
: 3852 2 31  can
: 3857 7 33  call
: 3865 4 36  it
: 3873 6 29  an
: 3881 3 29 oth
: 3884 16 31 ~
: 3900 3 29  er
: 3905 3 31  lone
: 3909 2 29 ly
: 3912 2 31  day
: 3915 5 33 ~
: 3920 5 31 ~
E
