#ARTIST:Frans
#TITLE:If I Were Sorry
#MP3:Frans - If I Were Sorry.mp3
#COVER:frans-if_i_were_sorry_s.jpg
#VIDEO:Frans - If I Were Sorry.mp4
#EDITION:Eurovision Song Contest 2016
#YEAR:2016
#LANGUAGE:English
#BPM:209.91
#GAP:44967
: -2 2 -5 Id
: 2 2 -3  crawl
: 6 1 -3  through
: 8 1 -5  the
: 11 2 -3  de
: 15 1 -3 sert
: 17 1 -3  on
: 20 1 -5  my
: 23 3 -3  hands
: 27 1 -5  and
: 30 3 -3  knees
- 39
: 41 1 -5 Re
: 43 1 -3 hear
: 46 1 -3 sin
: 48 1 -3  my
: 52 2 -3  pret
: 55 3 0 ty
: 62 4 0  please
- 72
: 75 2 -2 Climb
: 78 1 -3  the
: 81 2 -5  high
: 84 1 -7 est
: 90 3 -2  moun
: 94 2 -3 tain
- 100
: 102 2 -7 If
: 106 4 -7  I
: 114 3 -3  were
: 120 5 -3  sor
: 126 2 -5 ry
- 128
* 130 2 -3 Shout
* 135 1 -5  it
: 138 2 -3  from
: 142 1 -5  the
: 144 2 -3  top
- 151
: 153 2 -3 Swim
: 157 2 -3  un
: 160 1 -3 der
: 163 2 -3  wa
: 166 1 -3 ter
: 168 1 -3  un
: 170 1 -3 til
: 174 1 -3  my
: 177 2 -3  lungs
: 181 2 -3  ex
: 184 3 0 ~
: 190 4 0 plod
: 196 2 0 ed
- 201
: 203 2 -2 Walk
: 207 1 -3  in
: 210 1 -5 to
: 213 1 -7  the
: 216 2 -2  fi
: 219 2 -3 re
- 227
: 230 2 -7 If
: 234 4 -7  I
: 242 3 -3  were
: 248 5 -3  sor
: 254 2 -5 ry
- 261
: 263 1 -3 Id
: 266 1 -3  run
: 269 1 -3  a
: 273 3 -3  thou
: 277 1 -5 sand
: 280 5 -2  miles
- 291
: 294 1 -2 Would
: 296 1 -2 nt
* 299 3 -2  stop
* 303 1 -3  un
* 306 1 -5 til
: 309 1 -7  I
: 312 3 -7  dropped
- 323
: 326 1 0 Would
: 328 1 0 nt
: 331 2 0  take
: 335 1 -2  a
: 337 2 0  break
: 343 1 -2  to
: 346 4 2  breathe
: 352 2 0  un
: 355 1 0 til
: 358 3 -3  I
- 364
: 366 1 -5 got
: 370 2 -5  close
: 374 1 -7  e
: 376 3 -7 nough
- 388
: 391 1 -5 Then
: 393 1 -3  Id
: 397 2 -3  do
: 400 1 -3  it
: 402 1 -3  all
: 405 1 -5  a
: 408 4 -2 gain
- 418
: 421 1 -2 If
: 423 1 -2  I
: 427 2 -2  real
: 430 1 -3 ly
: 432 2 -5  had
: 436 1 -7  the
: 439 4 -7  chance
- 452
: 455 1 -3 But
* 457 1 0  I
* 460 2 0  know
* 464 2 0  deep
* 467 2 0  in
* 471 5 2 side
: 480 1 0  for
: 482 1 0  you
: 485 1 -3  its
: 489 3 -3  just
: 494 2 -5  a
: 497 2 -5 noth
: 500 2 -7 er
: 514 5 -7  dance
- 533
: 550 2 -7 If
: 554 4 -7  I
: 563 3 -3  were
: 569 5 -3  sor
: 575 2 -5 ry
- 591
: 614 2 -3 Id
: 619 2 -3  give
: 622 1 -3  you
: 624 1 -3  all
: 626 3 -5 ~
: 631 1 -5  the
: 633 5 -5  glo
: 639 2 -5 ry
- 651
: 655 2 -7 If
: 659 2 -5  I
: 663 2 -7  were
: 667 5 -7  sor
: 673 2 -10 ry
- 676
: 678 2 -7 If
: 683 4 -7  I
: 691 3 -3  were
: 696 5 -3  sor
: 702 2 -5 ry
- 718
: 743 1 -5 It
: 745 1 -3  would
: 747 2 -3  be
: 751 1 -3  a
: 753 2 -3  diff
: 757 5 0 erent
: 766 6 0  sto
: 773 2 0 ry
- 781
: 783 2 -3 If
: 787 2 0  I
: 791 2 -3  were
: 795 5 -2  sor
: 801 2 -3 ry
- 804
: 806 2 -7 If
: 810 4 -7  I
: 819 3 -3  were
: 824 5 -3  sor
: 830 2 -5 ry
: 839 3 -7  oh
- 852
: 870 1 -5 Id
: 872 1 -3  hold
: 874 1 -5  my
* 877 2 -3  breath
* 880 1 -3  'til
* 882 1 -5  my
* 884 2 -3  face
: 888 1 -5  turned
: 891 4 -3  blue
- 900
: 902 1 -3 Id
: 904 1 -3  rob
: 906 1 -3  a
: 908 2 -3  bank
: 911 1 -3  and
: 914 1 -3  the
: 916 2 -3  post
: 920 2 -3  off
: 923 2 0 ice
: 928 4 0  too
- 937
: 939 2 -2 Swim
* 942 1 -3  a
* 944 3 -5 cross
: 951 2 -7  the
: 954 1 -2  o
: 957 4 -3 cean
- 966
: 968 2 -7 If
: 972 4 -7  I
: 980 3 -3  were
: 985 5 -3  sor
: 991 2 -5 ry
- 995
: 997 2 -3 Id
: 1000 2 -3  take
: 1003 1 -3  a
: 1006 3 -3  vow
: 1010 1 -5  of
: 1013 3 -3  si
: 1017 2 -3 lence
- 1027
: 1030 1 -3 I
: 1032 1 -3  would
: 1034 1 -3 nt
: 1037 2 -3  say
: 1041 1 -3  a
: 1043 2 -3  sing
: 1047 5 0 le
: 1054 5 0  word
- 1061
: 1063 1 -3 Un
: 1065 2 -3 til
: 1069 1 -3  you
: 1072 2 -2  real
: 1075 1 -3 ly
: 1078 1 -5  heard
: 1080 2 -7 ~
- 1091
: 1094 2 -7 If
: 1099 4 -7  I
: 1107 3 -3  were
: 1112 5 -3  sor
: 1118 2 -5 ry
- 1125
: 1127 2 -3 Id
: 1131 2 -3  run
: 1135 1 -3  a
: 1137 3 -3  thou
: 1142 1 -5 sand
: 1144 4 -2  miles
- 1155
: 1158 1 -2 Would
: 1160 1 -2 nt
: 1164 3 -2  stop
: 1170 1 -3  un
: 1172 1 -5 til
: 1174 1 -7  I
: 1177 3 -7  dropped
- 1188
: 1191 1 0 Would
: 1193 1 0 nt
: 1196 2 0  take
: 1200 1 -2  a
: 1202 2 0  break
: 1208 1 -2  to
: 1210 4 2  breathe
: 1216 1 0  un
: 1218 1 0 til
: 1221 3 -3  I
- 1227
* 1229 1 -3 I
* 1232 1 -3  got
* 1235 2 -3  close
* 1238 4 -5 ~
* 1256 2 -7  e
: 1259 3 -7 nough
- 1272
: 1287 2 -7 If
: 1291 4 -7  I
: 1300 3 -3  were
: 1305 5 -3  sor
: 1311 2 -5 ry
- 1327
: 1350 2 -3 Id
: 1356 1 -3  give
: 1358 1 -3  you
: 1360 1 -3  all
: 1362 3 -5 ~
: 1368 1 -5  the
: 1370 5 -5  glo
: 1376 2 -5 ry
- 1388
: 1392 2 -7 If
: 1396 2 -5  I
: 1400 2 -7  were
: 1404 5 -7  sor
: 1410 2 -10 ry
- 1414
: 1416 2 -7 If
: 1420 4 -7  I
: 1428 3 -3  were
: 1433 5 -3  sor
: 1439 2 -5 ry
- 1455
: 1480 1 -5 It
: 1482 1 -3  would
: 1485 1 -3  be
: 1487 1 -3  a
: 1489 2 -3  diff
: 1494 5 0 erent
: 1503 5 0  sto
: 1509 2 0 ry
- 1517
: 1520 2 -3 If
: 1524 2 0  I
* 1528 2 -3  were
* 1532 5 -2  sor
* 1538 2 -3 ry
: 1548 3 -7  oh
- 1561
: 1568 2 -3 Now
: 1572 1 -3  did
: 1574 1 -3  you
: 1578 2 -3  e
: 1582 1 -5 ver
: 1584 1 -3  re
: 1588 1 -5 a
: 1591 2 -3 lise
- 1602
: 1606 1 -5 That
: 1608 1 -5  your
: 1610 1 -5  mis
: 1612 2 -5 take
: 1616 2 -3  had
: 1619 2 -5  a
: 1623 4 -3  prize
- 1636
: 1639 1 -2 Oh
: 1641 2 -2  you
: 1647 2 -2  threw
: 1651 1 -3  it
: 1653 2 -5  all
: 1656 1 -7  a
: 1658 2 -7 way
- 1667
: 1670 2 -2 Youre
: 1674 2 -2  the
: 1678 2 -2  de
: 1681 1 -3 vil
: 1684 1 -5  in
: 1687 1 -5  dis
: 1691 3 -3 guise
- 1697
: 1699 1 -3 Now
: 1702 1 -3  would
: 1704 1 -3  you
: 1707 2 -3  e
: 1710 1 -5 ver
: 1713 2 -3  re
: 1716 2 -5 a
: 1719 2 -3 lise
- 1730
: 1733 1 -3 The
: 1735 2 -5  con
: 1738 1 -3 se
: 1740 2 -3 quen
: 1743 1 -5 ces
: 1747 2 -3  of
: 1750 2 -3  your
: 1753 2 -3  lies
- 1763
: 1766 1 -3 And
: 1768 1 -3  would
: 1770 1 -3  you
* 1774 2 -2  save
* 1778 1 -2  the
* 1781 2 -2  fall
* 1784 1 0 ing
: 1790 3 2  tear
: 1794 1 0  or
: 1797 1 0  act
: 1800 1 0  as
: 1803 2 -3  if
: 1807 2 -5  theres
: 1811 2 -5  noth
: 1814 3 -7 ing
- 1822
: 1830 4 -7  there
- 1848
: 1863 2 -7 If
: 1868 4 -7  I
: 1877 3 -3  were
: 1882 5 -3  sor
: 1888 2 -5 ry
- 1904
: 1929 2 -7 If
: 1933 4 -7  I
: 1940 3 -3  were
: 1946 5 -3  sor
: 1952 2 -5 ry
- 1968
: 1992 2 -7 If
: 1996 4 -7  I
: 2004 3 -3  were
: 2010 5 -3  sor
: 2016 2 -5 ry
- 2032
: 2056 2 -7 If
: 2060 4 -7  I
: 2068 3 -3  were
: 2074 5 -3  sor
: 2080 2 -5 ry
- 2096
: 2120 2 -7 If
* 2124 1 2  I
* 2126 3 0 ~
: 2132 3 0  were
: 2138 5 0  sor
: 2144 2 0 ry
- 2151
: 2153 2 -3 Id
: 2156 2 0  take
: 2159 1 0  a
: 2161 3 0  vow
: 2166 1 -3  of
: 2168 3 -2  si
: 2172 2 -3 lence
- 2181
: 2184 1 0 Would
: 2186 1 0 nt
: 2190 2 0  say
: 2194 1 -2  a
* 2196 3 2  sing
* 2200 3 0 le
* 2208 4 0  word
- 2214
: 2216 2 -7 If
: 2221 4 -7  I
: 2228 3 -3  were
: 2234 5 -3  sor
: 2240 2 -5 ry
- 2246
: 2248 2 -7 If
: 2252 1 2  I
: 2254 3 0 ~
: 2260 3 0  were
: 2266 5 0  sor
: 2272 2 0 ry
- 2280
: 2282 2 -2 Id
: 2286 1 0  be
: 2288 2 0  on
: 2291 2 0  my
: 2294 2 0  hands
: 2298 1 -3  and
: 2300 2 -2  knees
: 2303 2 -3 ~
- 2314
: 2318 1 0 Beg
: 2320 1 0 gin'
: 2324 1 2  pret
: 2326 3 0 ty
: 2332 3 0  please
- 2348
: 2352 2 -2 If
: 2356 2 0  I
: 2360 2 -3  were
: 2364 5 -2  sor
: 2370 2 -3 ry
- 2374
: 2376 2 -7 But
: 2380 2 -7  Im
* 2386 2 -5  not
* 2392 5 -3  sor
* 2398 2 -5 ry,
* 2408 3 -7  no 

