#TITLE:On se retrouvera
#ARTIST:Francis Lalanne
#MP3:Francis Lalanne - On se retrouvera.mp3
#VIDEO:Francis Lalanne - On se retrouvera.avi
#COVER:Francis Lalanne - On se retrouvera.jpg
#BPM:400
#GAP:3430
#ENCODING:UTF8
#LANGUAGE:French
#GENRE:Variété
#YEAR:1986
#CREATOR:thoun
: 1 4 17 Pro
: 6 4 20 mets-
: 12 4 20 m
: 17 6 22 oi
: 37 5 22  si
: 45 4 22  tu
: 51 3 22  me
: 58 4 20  su
: 63 6 22 r
: 72 11 20 vis
- 93
: 101 5 20 Dę
: 107 3 17 tre
: 114 4 22  plus
: 122 16 22  fort
: 152 2 22  que
: 157 5 20  ja
: 163 9 20 mais
- 182
: 203 3 17 Je
: 209 7 20  se
: 219 4 20 rai
: 224 4 22 ~
: 231 7 22  tou
: 240 4 20 jou
: 247 5 22 rs
: 254 7 22  dans
: 265 3 20  ta
: 270 6 22 ~
: 279 9 20  vie
- 298
* 309 4 13 Prčs
: 316 3 12  de
: 322 5 10  toi
: 328 4 12 ~
- 342
: 356 3 8 Je
: 360 3 8  te
: 370 5 8  pro
: 376 3 10 ~
: 381 10 10 mets
- 401
: 408 3 17 Et
: 414 3 20  si
: 420 6 22  la
: 428 3 20  m
: 432 12 22 ort
: 455 3 22  nous
: 466 6 22  pro
: 473 6 20 gram
: 480 6 22 ~
: 488 5 20 me
- 503
: 510 7 20 Sur
: 520 8 17  son
: 531 5 20  grand
: 537 7 22 ~
: 547 4 20  or
: 552 8 22 ~
: 560 6 22 di
: 567 5 20 na
: 574 13 20 teur
- 597
: 614 2 17 De
: 617 2 20  ne
: 623 3 20  pas
: 627 7 22 ~
: 640 5 22  en
: 647 4 20  faire
: 652 7 22 ~
: 662 8 22  un
: 672 5 20  dra
: 678 10 22 ~
: 689 8 20 me
- 707
* 711 4 12 De
* 716 5 13 ~
: 725 8 12  ne
: 737 3 10  pas
: 741 6 12 ~
: 751 5 10  en
: 760 6 10  a
: 769 12 8 voir
* 790 3 6  peur
* 795 7 8 ~
- 809
: 812 7 13 Pense
: 821 4 15  ŕ
: 827 4 15  moi
: 832 6 17 ,
: 849 4 15  com
: 854 8 17 me
: 865 6 17  je
: 875 4 17  tai
: 880 8 18 ~
: 891 4 15 me
: 896 8 17 ~
: 905 4 15 ~
- 913
: 915 3 13 Et
: 920 4 15 ~
: 927 5 13  tu
: 934 8 15  me
: 946 6 13  dé
: 953 5 15 li
: 959 5 13 vre
: 966 4 15 ras
: 971 3 17 ~
: 976 2 15 ~
: 980 4 17 ~
- 994
: 1019 7 10 Tu
: 1029 6 12  bri
: 1038 4 12 se
: 1044 4 13 ~
: 1054 10 13 ras
: 1072 5 12  la
: 1078 6 13 na
: 1086 5 13 thč
: 1092 4 15 ~
: 1097 6 13 ~
: 1104 9 13 me
- 1122
: 1125 5 12 Qui
: 1131 4 13  me
: 1137 5 13  ti
: 1143 6 15 ens
: 1152 7 13  loin
: 1160 5 15 ~
: 1175 5 15  de
: 1184 5 13  tes
: 1192 5 13  bras
: 1199 4 15 ~
: 1205 5 13 ~
- 1220
: 1224 10 13 Pense
: 1235 6 15  ŕ
: 1244 4 15  moi
: 1249 3 17 ,
: 1266 4 15  com
: 1272 5 17 me
: 1280 4 17  je
: 1285 5 17  tai
: 1291 7 18 ~
: 1304 4 15 me
: 1309 7 17 ~
- 1322
: 1325 9 15 Rien
: 1337 3 13  ne
: 1342 6 15  nous
: 1349 4 20 ~
: 1355 6 13  sé
: 1363 6 15 pa
: 1370 5 13 re
: 1376 3 15 ra
: 1379 4 17 ~
: 1384 2 15 ~
: 1387 5 17 ~
- 1402
: 1434 5 10 Mę
: 1440 3 12 me
: 1446 13 13  pas
: 1476 4 13  les
: 1484 8 12  chry
: 1493 10 13 san
: 1504 6 13 thč
: 1512 6 15 ~
: 1519 5 13 ~
: 1524 7 13 mes
- 1539
: 1542 5 12 Tu
: 1549 7 13  ver
: 1558 3 8 ras
: 1563 12 10 ,
: 1584 3 8  on
: 1588 11 10 ~
: 1608 3 8  se
: 1612 9 10 ~
: 1638 4 8  re
: 1648 10 5 trou
: 1662 3 1 ve
: 1666 2 3 ~
: 1669 10 1 ~
* 1682 39 1 ra
- 1774
: 1846 3 17 Nou
: 1850 5 20 blie
: 1857 3 20  p
: 1861 6 22 as
: 1869 3 22  ce
: 1874 4 20  que
: 1879 7 22 ~
: 1887 3 22  je
: 1892 4 20  t'
: 1896 2 22 ai
: 1901 5 20  dit
: 1910 6 14 ~
- 1926
: 1933 6 20 La
: 1944 10 17 mour
: 1967 3 20  est
: 1972 4 22 ~
: 1978 7 22  plus
: 1989 12 20  fort
: 2004 5 20  que
: 2017 4 20  tout
: 2023 6 17 ~
- 2039
: 2047 6 17 Ni
: 2054 8 20  len
: 2067 2 20 fer
: 2071 3 22 ~
: 2075 4 20 ~
: 2086 6 20  ni
: 2093 9 20  leur
: 2106 5 17  pa
: 2113 6 20 ra
: 2121 4 15 dis
: 2126 6 17 ~
- 2141
: 2145 3 12 Ne
: 2149 4 13 ~
: 2157 7 12  se
: 2169 6 10  met
: 2175 4 12 ~
: 2182 7 10 tront
: 2195 4 8  en
: 2201 5 10 ~
: 2209 5 8 tre
: 2215 3 10 ~
: 2221 4 8  nous
: 2227 6 10 ~
- 2243
: 2253 3 17 Et
: 2259 5 20  si
: 2266 6 22  la
: 2274 3 20  m
: 2278 7 22 ort
: 2299 6 22  nous
: 2309 7 22  pro
: 2318 3 20 gram
: 2322 9 22 ~
: 2332 4 20 me
- 2347
: 2351 9 20 Sur
: 2363 6 17  son
: 2375 4 20  grand
: 2381 3 22 ~
: 2390 3 20  or
: 2393 3 22 ~
: 2396 7 20 ~
: 2404 7 20 di
: 2413 10 20 na
: 2426 3 18 t
: 2431 11 20 eur
- 2452
: 2460 4 20 Elle
: 2465 5 22  ne
: 2473 4 20  pren
: 2478 5 22 ~
: 2485 4 20 dra
: 2490 5 22 ~
: 2505 4 20  que
: 2510 4 22 ~
: 2517 6 22  mon
: 2527 2 20  â
: 2530 6 22 ~
: 2537 6 20 me
- 2553
: 2557 13 13 Mais
: 2576 8 12  elle
: 2585 2 10  n
: 2588 5 12 au
: 2595 5 10 ra
: 2607 3 8  pas
: 2611 5 10 ~
: 2617 4 8 ~
: 2624 6 8  mon
: 2633 15 8  cur
- 2657
: 2661 7 13 Pense
: 2670 5 15  ŕ
: 2676 4 15  moi
: 2680 4 17 ,
: 2698 3 15  com
: 2702 8 17 me
: 2714 3 17  je
: 2720 4 17  tai
: 2725 6 18 ~
: 2738 4 15 me
: 2743 5 17 ~
- 2757
: 2760 3 13 Et
: 2764 3 15 ~
: 2774 4 13  tu
: 2779 7 15  me
: 2790 6 13  dé
: 2798 6 15 li
: 2805 4 13 vre
: 2811 3 15 ras
: 2815 4 17 ~
: 2820 2 15 ~
: 2823 6 17 ~
- 2839
: 2863 7 10 Tu
: 2876 5 12  bri
: 2883 3 12 se
: 2887 3 13 ~
: 2893 4 12 ras
: 2898 9 13 ~
: 2914 6 12  la
: 2921 7 13 na
: 2931 3 13 thč
: 2935 5 15 ~
: 2941 6 13 ~
: 2949 6 13 me
- 2967
: 2971 5 12 Qui
: 2977 3 13  me
: 2982 4 13  ti
: 2987 7 15 ens
: 2999 4 13  loin
: 3004 8 15 ~
: 3016 7 15  de
: 3027 6 13  tes
: 3037 4 13  bras
: 3042 6 15 ~
: 3050 6 13 ~
- 3065
: 3069 10 13 Pense
: 3082 5 15  ŕ
: 3089 3 15  moi
: 3093 3 17 ,
: 3111 3 15  com
: 3115 5 17 me
: 3124 4 17  je
: 3130 5 17  tai
: 3136 6 18 ~
: 3148 4 15 me
: 3153 3 17 ~
- 3165
: 3169 8 15 Rien
: 3199 4 13  ne
: 3204 5 15  nous
: 3211 7 13  sé
: 3221 7 15 pa
: 3229 5 13 re
: 3235 3 15 ra
: 3239 5 17 ~
: 3245 2 15 ~
: 3248 3 17 ~
- 3261
: 3280 3 10 Mę
: 3284 3 12 me
: 3291 11 13  pas
: 3323 6 13  les
: 3335 7 12  chry
: 3344 9 13 san
: 3355 4 13 thč
: 3360 2 15 ~
: 3363 10 13 ~
: 3376 5 13 mes
- 3384
: 3386 7 12 Tu
: 3396 4 12  ver
: 3401 5 13 ~
: 3407 3 10 ~
: 3412 8 10 ras,
: 3428 3 8  on
: 3432 22 10 ~
: 3458 3 8  se
: 3462 3 10 ~
: 3466 4 8 ~
: 3475 8 8  re
: 3486 6 5 trou
: 3494 8 1 ~
: 3504 17 1 ve
* 3523 47 1 ra
E