#TITLE:Living On My Own
#ARTIST:Freddie Mercury
#MP3:Freddie Mercury - Living On My Own.mp3
#VIDEO:Freddie Mercury - Living On My Own.avi
#COVER:Freddie Mercury - Living On My Own [CO].jpg
#BPM:247,76
#GAP:5600
#MedleyStartBeat:1276
#MedleyEndBeat:1583
#ENCODING:UTF8
#PREVIEWSTART:84,790
#LANGUAGE:Englisch
#GENRE:Pop
#YEAR:1993
: 0 3 16 Some
: 4 3 16 times
: 8 3 16  I
: 12 3 16  feel
: 16 3 16  I'm
: 20 3 16  gon
: 24 3 16 na
: 28 3 17  break
: 32 3 16  down
: 36 3 14  and
: 40 5 16  cr
: 46 5 12 y
- 53
: 64 3 16 No
: 68 3 16 where
: 72 3 16  to
: 76 3 16  go,
: 80 3 16  no
: 84 3 16 thing
: 88 3 16  to
: 92 3 17  do
: 96 3 19  with
: 100 3 21  my
: 104 7 16  time
- 112
: 112 3 14 I
: 116 7 12  get
: 124 11 14  lone
: 136 11 11 ly,
: 180 7 16  so
: 188 11 14  lone
: 200 11 9 ly,
: 236 3 14  li
: 240 3 14 ving
: 244 3 12  on
: 248 3 11  my
: 252 11 9  own
- 265
: 364 3 9 Come 
: 368 3 9 on 
: 372 7 9 baby!
- 381
: 704 3 16 Some
: 708 3 16 times
: 712 3 16  I
: 716 3 16  feel
: 720 3 16  I'm
: 724 3 16  gon
: 728 3 16 na
: 732 3 17  break
: 736 3 16  down
: 740 3 14  and
: 744 5 16  cr
: 750 5 12 y
- 757
: 768 3 16 No
: 772 3 16 where
: 776 3 16  to
: 780 3 16  go,
: 784 3 16  no
: 788 3 16 thing
: 792 3 16  to
: 796 3 17  do
: 800 3 19  with
: 804 3 21  my
: 808 7 16  time
- 816
: 816 3 14 I
: 820 7 12  get
: 828 11 14  lone
: 840 11 11 ly,
: 884 7 16  so
: 892 11 14  lone
: 904 11 9 ly,
: 940 3 14  li
: 944 3 14 ving
: 948 3 12  on
: 952 3 11  my
: 956 3 9  own
- 960
: 960 3 16 Some
: 964 3 16 times
: 968 3 16  I
: 972 3 16  feel
: 976 3 16  I'm
: 980 3 16  al
: 984 3 16 ways
: 988 3 17  wal
: 992 3 16 king
: 996 3 14  too
: 1000 5 16  fa
: 1006 5 12 st
- 1013
: 1024 3 16 And
: 1028 3 16  e
: 1032 3 16 very
: 1036 3 16 thing
: 1040 3 16  is
: 1044 3 16  co
: 1048 3 16 ming
: 1052 3 21  down
: 1056 3 16  on
: 1060 3 16  me,
- 1064
: 1064 3 21 down
: 1068 3 16  on
: 1072 3 16  me
: 1076 3 14  I
: 1080 3 12  go
: 1084 11 14  cra
: 1096 11 11 zy,
: 1132 7 16  oh
: 1140 7 16  so
: 1148 11 14  cra
: 1160 11 16 zy
- 1173
: 1196 3 14 Li
: 1200 3 14 ving
: 1204 3 12  on
: 1208 3 11  my
: 1212 7 9  own
- 1221
* 1276 3 16 Dee
* 1280 3 16  do
* 1284 3 19  de
* 1288 3 16  de,
: 1308 3 14  dee
: 1312 3 14  do
: 1316 3 19  de
: 1320 3 14  de
- 1325
: 1332 3 14 I
: 1336 3 16  don't
: 1340 7 17  have
: 1348 3 17  no
: 1352 11 17  time
: 1364 3 16  for
: 1368 3 16  no
: 1372 7 16  mon
: 1380 3 14 key
: 1384 3 14  busi
: 1388 7 16 ness
- 1397
: 1404 3 16 Dee
: 1408 3 16  do
: 1412 3 19  de
: 1416 3 16  de,
* 1436 3 14  dee
* 1440 3 14  do
* 1444 3 19  de
* 1448 3 14  de
- 1453
: 1456 3 14 I
: 1460 3 16  get
: 1464 3 18  so
: 1468 7 19  lone
: 1476 3 16 ly,
: 1480 7 19  lone
: 1488 3 16 ly,
: 1492 7 19  lone
: 1500 3 16 ly,
: 1504 7 19  lone
: 1512 3 16 ly,
: 1516 11 19  yeah
- 1529
: 1532 3 18 Got
: 1536 3 18  to
: 1540 3 18  be
: 1544 3 18  some
: 1548 3 18  good
: 1552 3 18  times
: 1556 3 18  a
: 1560 13 15 he
: 1574 9 11 ad
- 1585
: 1600 3 16 Some
: 1604 3 16 times
: 1608 3 16  I
: 1612 3 16  feel
: 1616 3 16  no
: 1620 3 16 bo
: 1624 3 16 dy
: 1628 3 17  gives
: 1632 3 16  me
: 1636 3 14  no
: 1640 13 16  war
: 1654 3 12 ning
- 1659
: 1668 3 16 Find
: 1672 3 16  my
: 1676 3 16  head
: 1680 3 16  is
: 1684 3 16  al
: 1688 3 16 ways
: 1692 3 21  up
: 1696 3 16  in
: 1700 3 16  the
: 1704 7 21  clouds
- 1713
: 1716 3 14 in
: 1720 3 12  a
: 1724 13 14  dream
: 1738 13 11 world,
: 1772 7 16  it's
: 1780 7 16  not
: 1788 11 14  ea
: 1800 7 16 sy
- 1809
: 1836 3 14 Li
: 1840 3 14 ving
: 1844 3 12  on
: 1848 3 11  my
: 1852 7 9  own,
: 1860 3 11  my
: 1864 7 9  own,
: 1872 3 11  my
: 1876 7 9  own
- 1885
* 1916 3 16 Dee
* 1920 3 16  do
* 1924 3 19  de
* 1928 3 16  de,
: 1948 3 14  dee
: 1952 3 14  do
: 1956 3 19  de
: 1960 3 14  de
- 1965
: 1972 3 14 I
: 1976 3 16  don't
: 1980 7 17  have
: 1988 3 17  no
: 1992 11 17  time
: 2004 3 16  for
: 2008 3 16  no
: 2012 7 16  mon
: 2020 3 14 key
: 2024 3 14  busi
: 2028 7 16 ness
- 2037
: 2044 3 16 Dee
: 2048 3 16  do
: 2052 3 19  de
: 2056 3 16  de,
* 2076 3 14  dee
* 2080 3 14  do
* 2084 3 19  de
* 2088 3 14  de
- 2093
: 2096 3 14 I
: 2100 3 16  get
: 2104 3 18  so
: 2108 7 19  lone
: 2116 3 16 ly,
: 2120 7 19  lone
: 2128 3 16 ly,
: 2132 7 19  lone
: 2140 3 16 ly,
: 2144 7 19  lone
: 2152 3 16 ly,
: 2156 15 19  yeah
- 2172
: 2172 3 18 Got
: 2176 3 18  to
: 2180 3 18  be
: 2184 3 18  some
: 2188 3 18  good
: 2192 3 18  times
: 2196 3 18  a
: 2200 11 15 he
: 2212 11 11 ad
- 2225
* 2236 3 16 Dee
* 2240 3 16  do
* 2244 3 19  de
* 2248 3 16  de,
: 2268 3 14  dee
: 2272 3 14  do
: 2276 3 19  de
: 2280 3 14  de
- 2285
: 2292 3 14 I
: 2296 3 16  don't
: 2300 7 17  have
: 2308 3 17  no
: 2312 11 17  time
: 2324 3 16  for
: 2328 3 19  no
: 2332 7 19  mon
: 2340 3 19 key
: 2344 3 14  busi
: 2348 7 16 ness
- 2357
: 2364 3 16 Dee
: 2368 3 16  do
: 2372 3 19  de
: 2376 3 16  de,
* 2396 3 14  dee
* 2400 3 14  do
* 2404 3 19  de
* 2408 3 14  de
- 2413
: 2416 3 14 I
: 2420 3 16  get
: 2424 3 18  so
: 2428 7 19  lone
: 2436 3 16 ly,
: 2440 7 19  lone
: 2448 3 16 ly,
: 2452 7 19  lone
: 2460 3 16 ly,
: 2464 7 19  lone
: 2472 3 16 ly,
: 2476 15 19  yeah
- 2492
: 2492 3 18 Got
: 2496 3 18  to
: 2500 3 18  be
: 2504 3 18  some
: 2508 3 18  good
: 2512 3 18  times
* 2516 3 18  a
* 2520 15 15 he
* 2536 11 11 ad
- 2549
: 3132 3 16 Dee
: 3136 3 16  do
: 3140 3 19  de
: 3144 3 16  de,
: 3164 3 14  dee
: 3168 3 14  do
: 3172 3 19  de
: 3176 3 14  de
- 3181
: 3188 3 14 I
: 3192 3 16  don't
: 3196 7 17  have
: 3204 3 17  no
: 3208 11 17  time
: 3220 3 16  for
: 3224 3 19  no
: 3228 7 19  mon
: 3236 3 19 key
: 3240 3 14  busi
: 3244 7 16 ness
- 3253
: 3260 3 16 Dee
: 3264 3 16  do
: 3268 3 19  de
: 3272 3 16  de,
: 3292 3 14  dee
: 3296 3 14  do
: 3300 3 19  de
: 3304 3 14  de
- 3309
: 3312 3 14 I
: 3316 3 16  guess
: 3320 3 17  I'm
: 3324 7 19  lone
: 3332 3 16 ly,
: 3336 7 19  lone
: 3344 3 16  ly,
: 3348 7 19  lone
: 3356 3 16 ly,
: 3360 7 19  lone
: 3368 3 16 ly,
: 3372 12 19  yeah
- 3386
: 3388 3 18 Got
: 3392 3 18  to
: 3396 3 18  be
: 3400 3 18  some
: 3404 3 18  good
: 3408 3 18  times
: 3412 3 18  a
: 3416 15 15 he
: 3432 10 11 ad
E