#TITLE:Mon coeur te dit je t'aime
#ARTIST:Frederic Francois
#MP3:Frederic Francois - Mon coeur te dit je t'aime.mp3
#VIDEO:Frederic Francois - Mon coeur te dit je t'aime.mp4
#COVER:Frederic Francois - Mon coeur te dit je t'aime.jpg
#BPM:240
#GAP:8870
#ENCODING:UTF8
#LANGUAGE:French
#GENRE:Slow
: 0 1 -9 La
: 2 3 -5  mai
: 6 4 -2 son
: 12 4 -2  a
: 18 1 -2  l'air
: 20 2 -3  plus
: 24 6 0  gran
: 32 7 -2 de
- 44
: 46 4 -5 Sur
: 52 1 -5 tout
: 54 2 -7  la
: 58 4 -4  cham
: 64 4 -5 bre
- 68
: 70 1 -9 Il
: 72 2 -5  ne
: 76 4 -2  res
: 82 2 -2 te
: 86 2 -2  rien
: 90 2 -3  de
: 94 2 0  toi
: 106 4 -2  que
: 112 1 -10  ton
: 114 4 -9  par
: 120 6 -7 fum
- 136
: 140 2 -7 Je
: 144 2 -5  dé
: 148 2 -4 couvre
: 152 4 -4  en
: 158 1 -4  ton
: 160 2 -5  ab
: 164 6 -2 sen
: 172 4 -4 ce
- 183
: 186 4 -7 Un
: 192 2 -7  vide
: 196 2 -8  im
* 200 4 -5 men
* 206 2 -7 se
- 210
: 212 1 -7 En
: 214 2 -5  voy
: 218 2 -4 ant
: 222 2 -4  s'ou
: 226 2 -4 vrir
: 230 2 -5  les
: 234 2 -2  ro
: 238 2 -4 ses
: 250 2 -9  du
: 254 2 -7  jar
: 258 8 -5 din
- 278
: 282 1 -5 Je
: 284 2 -4  vis
: 288 2 -2  prčs
: 292 4 -2  du
: 298 2 -2  té
: 302 2 -3 lé
: 306 4 0 pho
: 312 2 -2 ne
- 323
: 326 4 -5 Mais
: 332 1 -5  quand
: 334 1 -7  il
: 336 4 -4  son
: 342 4 -5 ne
- 346
: 348 2 -9 C'n'est
: 352 2 -5  ja
: 355 5 -2 mais
: 362 2 -2  le
: 366 1 -2  coup
: 368 2 -3  de
: 372 4 0  fil
- 382
: 384 4 -2 que
: 390 2 -10  j'es
: 393 2 -9 pé
: 396 6 -7 rais
- 414
: 418 2 -7 Tu
: 422 3 -5  m'ou
: 426 2 -4 blies
: 430 2 -4  et
: 434 2 -4  moi
: 438 1 -5  je
: 440 6 -2  chan
: 447 7 -4 te
- 460
: 462 4 -7 Mais
: 468 1 -7  si
: 470 2 -8  je
: 474 5 -5  chan
: 480 4 -7 te
- 484
: 486 2 -7 C'est
: 490 2 -5  seul'
: 493 5 -4 ment
: 500 1 -4  pour
: 502 1 -4  me
: 504 4 -5  re
: 509 4 -2 te
: 514 4 -4 nir
- 524
: 526 2 -9 de
: 530 2 -7  pleu
: 533 7 -9 rer
- 550
: 568 1 3 Mon
: 570 4 3  coeur
: 576 1 3  te
: 578 8 3  dit
: 588 8 2  je
: 598 14 5  t'ai
: 614 12 3 me
- 633
: 636 2 3 Il
: 640 4 2  ne
: 646 2 3  sait
: 650 4 0  dire
: 656 8 2  que
: 666 22 -2  ça
- 698
: 708 1 2 Je
: 710 4 2  ne
: 716 2 2  veux
: 720 6 2  pas
: 728 8 0  te
: 738 14 3  per
: 754 13 2 dre
- 773
: 776 2 2 J'ai
: 780 4 0  trop
: 786 2 2  be
: 789 7 0 soin
: 798 6 -2  de
: 806 15 -5  toi
- 831
: 846 2 3 Mon
: 850 2 3  coeur
* 854 2 3  te
: 858 6 3  dit
: 866 8 2  je
: 876 14 5  t'ai
: 892 18 3 me
- 914
: 916 1 3 Il
: 918 4 2  est
: 924 4 3  per
: 929 5 1 du
: 937 8 3  sans
: 948 23 0  toi
- 980
: 984 2 2 Mon
: 988 4 2  coeur
: 994 1 2  te
: 996 6 2  crie
: 1004 8 0  je
: 1014 16 3  t'ai
: 1031 14 2 me
- 1051
: 1054 1 2 A
: 1056 5 0  cha
: 1062 2 2 que
: 1066 8 0  fois
: 1076 6 -2  qu'il
: 1084 26 3  bat
- 1126
: 1148 1 -4 C'est
: 1150 3 -3  sur
: 1154 4 -1 tout
: 1160 4 -1  lors
: 1166 1 -1 que
: 1168 2 -2  je
: 1172 6 1  ren
: 1179 11 -1 tre
- 1192
: 1194 4 -4 Que
: 1200 1 -4  tu
: 1202 2 -6  me
: 1206 5 -3  man
: 1212 4 -4 ques
- 1216
: 1218 1 -8 Il
: 1220 1 -4  faut
: 1222 4 -1  dire
: 1228 4 -1  que
: 1234 2 -1  cha
: 1238 2 -2 que
: 1242 4 1  soir
- 1250
: 1252 4 -1 tu
: 1258 2 -9  m'at
: 1261 3 -8 ten
: 1265 8 -6 dais
- 1282
: 1286 2 -6 Et
: 1290 3 -4  mal
: 1294 2 -3 gré
* 1298 4 -3  ma
: 1303 2 -3  so
: 1306 2 -4 li
: 1310 6 -1 tu
: 1317 6 -3 de
- 1329
: 1332 4 -6 Par
: 1338 2 -6  ha
: 1342 2 -7 bi
: 1345 4 -4 tu
: 1350 4 -6 de
- 1354
: 1356 1 -6 Hier
: 1358 2 -4  en
: 1362 6 -3 core
: 1370 1 -3  je
: 1372 2 -3  t'ai
: 1376 2 -4  fait
: 1380 4 -1  chauf
: 1385 3 -3 fer
- 1392
: 1394 2 -8 du
: 1398 2 -6  ca
: 1401 6 -4 fé
- 1417
: 1426 2 -4 Je
: 1430 2 -3  dois
: 1434 2 -1  perdre
: 1438 4 -1  un
: 1444 2 -1  peu
: 1448 1 -2  la
: 1450 6 1  tę
: 1457 6 -1 te
- 1469
: 1472 4 -4 Dans
: 1478 2 -4  ma
* 1482 2 -6  dé
* 1485 4 -3 fai
: 1490 4 -4 te
- 1496
: 1498 1 -8 Je
: 1500 2 -4  t'in
: 1504 6 -1 vente
: 1512 2 -1  et
: 1516 1 -1  je
: 1518 2 -2  ne
: 1522 4 1  sais
: 1528 4 -1  plus
- 1536
: 1538 2 -9 oů
: 1542 1 -8  j'en
: 1544 9 -6  suis
- 1562
: 1566 1 -6 A
: 1568 3 -4  nou
: 1572 2 -3 veau
: 1576 4 -3  tes
: 1582 2 -3  yeux
: 1586 2 -4  m'é
: 1589 5 -1 clai
: 1595 5 -3 rent
- 1610
: 1614 4 -6 J'ai
: 1620 1 -6  ta
: 1622 2 -7  lu
: 1625 4 -4 mič
: 1630 4 -6 re
- 1634
: 1635 2 -6 En
: 1639 2 -4  cou
: 1642 5 -3 leur
: 1649 2 -3  sur
: 1653 1 -3  tes
: 1655 3 -4  pho
: 1659 4 -1 tos
- 1668
: 1670 4 -6 tu
: 1676 1 -8  me
: 1678 2 -6  sou
: 1681 13 -8 ris
- 1704
* 1718 1 4 Mon
* 1720 4 4  coeur
* 1726 1 4  te
* 1728 8 4  dit
* 1738 8 3  je
* 1748 16 6  t'ai
* 1765 11 4 me
- 1783
: 1786 2 4 Il
: 1790 4 3  ne
: 1796 2 4  sait
: 1800 4 1  dire
: 1806 8 3  que
: 1816 16 -1  ça
- 1842
: 1856 1 3 Je
: 1858 4 3  ne
: 1864 2 3  veux
: 1868 6 3  pas
: 1876 8 1  te
: 1886 16 4  per
: 1903 12 3 dre
- 1921
: 1924 2 3 J'ai
: 1928 4 1  trop
: 1934 2 3  be
: 1936 6 1 soin
: 1944 8 -1  de
: 1954 20 -4  toi
- 1984
: 1994 1 4 Mon
: 1996 4 4  coeur
: 2002 2 4  te
: 2006 6 4  dit
: 2014 8 3  je
: 2024 15 6  t'ai
: 2040 11 4 me
- 2060
: 2064 1 4 Il
: 2066 4 3  est
: 2072 4 4  per
: 2077 5 2 du
: 2084 6 4  sans
: 2092 22 1  toi
- 2124
: 2132 2 3 Mon
: 2136 4 3  coeur
: 2142 1 3  te
: 2144 6 3  crie
: 2152 8 1  je
: 2162 16 4  t'ai
: 2180 10 3 me
- 2199
: 2202 1 3 A
: 2204 5 1  cha
: 2210 2 3 que
: 2214 8 1  fois
: 2224 4 -1  qu'il
: 2230 24 4  bat
- 2266
: 2270 2 4 Mon
: 2274 4 4  coeur
: 2280 1 4  te
: 2282 6 4  dit
: 2290 8 3  je
: 2300 18 6  t'ai
: 2319 12 4 me
- 2337
: 2340 1 4 Il
: 2342 4 3  ne
: 2348 2 4  sait
: 2352 6 1  dire
: 2360 8 3  que
: 2370 17 -1  ça
- 2397
: 2410 1 3 Je
: 2412 4 3  ne
: 2418 1 3  veux
: 2420 8 3  pas
: 2430 8 1  te
: 2440 16 4  per
: 2457 11 3 dre
- 2475
: 2478 2 3 J'ai
: 2482 4 1  trop
: 2488 2 3  be
: 2491 10 1 soin
: 2505 6 -1  de
: 2512 20 -4  toi
- 2542
: 2552 1 4 Mon
: 2554 4 4  coeur
: 2560 2 4  te
: 2564 6 4  dit
: 2572 8 3  je
: 2582 16 6  t'ai
: 2599 11 4 me
- 2617
: 2620 2 4 Il
: 2624 4 3  est
: 2630 4 4  per
: 2634 4 2 du
: 2640 8 4  sans
: 2650 12 1  toi
- 2672
: 2690 1 3 Mon
: 2692 4 3  coeur
: 2698 2 3  te
: 2702 6 3  crie
: 2710 6 1  je
: 2718 16 4  t'ai
: 2736 10 3 me
- 2756
: 2760 1 3 A
: 2762 4 1  cha
: 2768 2 3 que
: 2772 6 1  fois
: 2780 6 -1  qu'il
: 2788 13 4  bat
- 2811
: 2830 1 4 Mon
: 2832 4 4  coeur
: 2838 1 4  te
: 2840 8 4  dit
: 2850 8 3  je
: 2860 16 6  t'ai
: 2877 11 4 me
- 2895
: 2898 2 4 La
: 2902 4 3  la
: 2908 2 4  la
: 2912 4 1  la
: 2918 8 3  la
: 2928 16 -1  la
- 2954
: 2968 1 3 La
: 2970 4 3  la
: 2976 2 3  la
: 2980 6 3  la
* 2988 8 1  la
: 2998 16 4  la
* 3015 12 3  la
- 3033
* 3036 2 3 La
* 3040 4 1  la
: 3045 2 3  la
: 3048 6 1  la
: 3056 8 -1  la
: 3066 20 -4  la
- 3096
: 3108 2 9 Mon
: 3112 4 9  coeur
: 3118 1 9  te
: 3120 8 9  dit
: 3130 6 7  je
: 3138 16 11  t'ai
: 3154 20 9 me
- 3176
: 3178 2 9 La
: 3182 2 7  la
: 3186 2 9  la
: 3190 6 7  la
: 3198 6 9  la
: 3206 36 5  la
E