#TITLE:On Partira
#ARTIST:Frederic Lerner
#MP3:Frederic Lerner - On Partira.mp3
#VIDEO:Frederic Lerner - On Partira [VD#0].avi
#COVER:Frederic Lerner - On Partira [CO].jpg
#BACKGROUND:Frederic Lerner - On Partira [CO].jpg
#BPM:230
#GAP:13695,65
#VIDEOGAP:0
#ENCODING:UTF8
#EDITION:SS Pop Hits 4
: 0 2 10 Il
: 3 3 15  y-a
: 8 2 19  tant
: 12 3 19  de
: 16 3 17  rou
: 20 6 19 tes
: 28 5 17  par
: 36 4 17 fois
: 40 6 19 ~
- 56
: 64 2 19 Qui
: 68 2 22  nous
: 72 3 26  mčnent
: 76 2 26  ŕ
: 80 2 24  l'om
: 84 5 26 bre
: 92 4 24  de
: 100 3 26  soi
: 104 2 24 ~
: 106 5 22 ~
- 121
: 128 3 19 Lŕ
: 132 3 22  oů
: 136 2 24  les
: 139 2 24  an
: 144 3 22 ges
: 148 4 24  ne
: 156 5 27  parlent
* 164 10 24  pas
- 184
: 196 3 7 Oů
: 200 2 19  les
: 204 2 19  va
: 208 5 19 leurs
: 216 3 19  quit
: 220 3 22 tent
: 224 3 19  nos
: 228 3 19  pas
: 232 8 17 ~
- 252
: 256 2 12 Le
: 260 3 15  monde
: 264 2 19  s'ar
: 268 2 19 ręte
: 272 2 17  et
: 276 4 19  le
: 284 4 17  temps
: 290 2 17  passe
* 292 12 19 ~
- 316
: 320 3 19 Il
: 324 3 22  n'en
: 328 2 26  res
: 332 3 26 te
: 336 3 24  que
: 340 5 26  des
: 348 5 24  si
: 354 5 26 lences
: 360 2 24 ~
: 362 7 22 ~
- 380
: 384 3 19 Quand
: 388 2 22  cha
: 392 2 24 que
: 396 2 24  chose
: 400 3 22  est
: 404 5 24  ŕ
- 410
: 412 5 27 Sa
: 419 2 24  place
: 421 2 22 ~
* 423 7 24 ~
- 440
: 452 3 7 On
: 456 2 19  y
: 460 2 19  re
: 464 4 19 trouve
: 472 3 19  nos
: 476 3 22  dif
: 480 3 19 fé
: 483 2 19 rences
: 485 8 17 ~
- 501
: 504 4 19 Toi
: 512 2 17  qui
: 516 3 17  sais
: 520 9 19 ~
- 544
: 568 6 19 Tout
: 576 2 17  de
: 578 3 15 ~
: 584 2 17 moi
: 586 4 15 ~
- 590
: 592 2 19 Lŕ
: 596 6 19  oů
: 604 5 24  je
: 611 8 21  vais
- 629
: 636 4 22 Viens
: 642 4 21  suis-
* 648 36 22 moi
- 686
: 688 2 22 Et
: 692 2 22  on
: 696 4 27  par
: 702 2 26 ti
: 706 8 27 ra
- 724
: 744 5 26 Loin
: 752 2 27  de
: 756 5 29  toutes
: 764 4 31  ces
: 768 3 24 ~
: 772 7 24 lois
- 789
: 796 3 27 Lŕ
: 800 2 24  oů
: 804 8 20  d'autres
- 821
: 824 2 19 Ne
: 828 3 19  se
: 832 2 17 ront
: 836 11 19  pas
- 857
: 868 3 22 Et
: 872 4 22  on
: 880 2 24  s'in
: 884 5 26 ven
: 892 4 27 te
: 896 2 24 ~
* 900 12 24 ra
- 921
: 924 5 24 Une
: 931 3 26  vie
: 935 13 27  ŕ
: 948 2 26 ~
: 952 9 26 deux
- 962
: 964 3 19 Tu
: 968 10 24  vois
- 993
: 1012 3 12 En
: 1016 3 31 semble
: 1020 2 29  on
: 1024 3 29  peut
: 1028 2 27  rę
: 1032 4 29 ver
: 1036 6 27 ~
- 1057
: 1076 2 12 Es
: 1080 3 31 sa
: 1084 2 29 yer
: 1088 3 29  d'e
: 1092 2 27 xis
: 1096 3 29 ter
: 1100 7 27 ~
- 1117
: 1136 2 24 Et
: 1140 2 24  on
: 1144 6 27  par
: 1152 1 26 ti
: 1154 2 26 ra
: 1156 11 24 ~
- 1197
: 1280 2 10 Tous
: 1283 3 15  ces
: 1288 2 19  non-
: 1292 3 19 dits
: 1296 3 17  que
: 1300 6 19  le
: 1308 5 17  vent
: 1316 4 17  souffle
: 1320 6 19 ~
- 1336
: 1344 2 19 Ce
: 1348 2 22  coeur
: 1352 3 26  qui
: 1356 2 26  bat
: 1360 2 24  et
: 1364 5 26  qui
: 1372 4 24  s'es
: 1380 3 26 souffle
: 1384 2 24 ~
: 1386 5 22 ~
- 1401
: 1408 3 19 Ces
: 1412 3 22  gorges
: 1416 2 24  se
: 1419 2 24 rées
: 1424 3 22  qui
: 1428 4 24  pressent
: 1436 5 27  le
: 1444 10 24  pas
- 1464
: 1476 3 7 Et
: 1480 2 19  quand
: 1484 2 19  les
: 1488 3 19  maux
: 1492 7 19  par
: 1500 3 22 lent
: 1504 3 19  tout
: 1508 3 19  bas
* 1512 8 17 ~
- 1532
: 1536 2 12 Le
: 1540 3 15  monde
: 1544 2 19  se
: 1548 2 19  perd
: 1552 2 17  et
: 1556 4 19  le
: 1564 4 17  temps
: 1570 2 17  casse
: 1572 12 19 ~
- 1596
: 1600 3 19 Il
: 1604 3 22  n'en
: 1608 2 26  res
: 1612 3 26 te
: 1616 3 24  que
: 1620 5 26  des
: 1628 5 29  souf
: 1635 3 26 frances
: 1638 2 24 ~
: 1640 2 26 ~
: 1642 2 24 ~
: 1644 7 22 ~
- 1660
: 1664 3 19 Quand
: 1668 2 22  cha
: 1672 2 24 que
: 1676 2 24  chose
- 1678
: 1680 3 22 N'a
: 1684 5 24  plus
: 1692 5 27  sa
: 1699 2 24  place
: 1701 2 22 ~
: 1703 7 24 ~
- 1720
: 1732 3 7 On
: 1736 2 19  y
: 1740 2 19  re
: 1744 7 19 trouve
: 1752 3 19  l'in
: 1756 3 22 dif
: 1760 3 19 fé
: 1763 2 19 rence
* 1765 8 17 ~
- 1781
: 1784 4 19 Toi
: 1792 2 17  qui
: 1796 3 17  sais
: 1800 9 19 ~
- 1824
: 1848 6 19 Tout
: 1856 2 17  sur
: 1858 3 15 ~
: 1864 2 17 moi
: 1866 4 15 ~
- 1870
: 1872 2 19 Lŕ
: 1876 6 19  oů
: 1884 5 24  je
* 1891 8 21  vais
- 1909
: 1916 4 22 Viens
: 1922 4 21  suis-
: 1928 36 22 moi
- 1966
: 1968 2 22 Et
: 1972 2 22  on
: 1976 4 27  par
: 1982 2 26 ti
: 1986 8 27 ra
- 2004
: 2024 5 26 Loin
: 2032 2 27  de
: 2036 5 29  toutes
: 2044 4 31  ces
: 2048 3 24 ~
: 2052 7 24 lois
- 2069
: 2076 3 27 Lŕ
: 2080 2 24  oů
: 2084 8 20  d'autres
- 2101
: 2104 2 19 Ne
: 2108 3 19  se
: 2112 2 17 ront
: 2116 11 19  pas
- 2137
: 2148 3 22 Et
: 2152 4 22  on
: 2160 2 24  s'in
: 2164 5 26 ven
: 2172 4 27 te
: 2176 2 24 ~
: 2180 12 24 ra
- 2201
: 2204 5 24 Une
: 2211 3 26  vie
: 2215 13 27  ŕ
: 2228 2 26 ~
: 2232 9 26 deux
- 2242
: 2244 3 19 Tu
: 2248 10 24  vois
- 2273
: 2292 3 12 Qu'en
: 2296 3 31 semble
: 2300 2 29  on
: 2304 3 29  peut
: 2308 2 27  rę
: 2312 4 29 ver
: 2316 6 27 ~
- 2337
: 2356 2 12 Es
: 2360 3 31 sa
: 2364 2 29 yer
: 2368 3 29  d'e
: 2372 2 27 xis
: 2376 3 29 ter
: 2380 7 27 ~
- 2397
: 2416 2 22 Et
: 2420 2 22  on
: 2424 4 27  par
: 2430 2 26 ti
: 2434 8 27 ra
- 2452
: 2472 5 26 Loin
: 2480 2 27  de
* 2484 5 29  toutes
: 2492 4 31  ces
: 2496 3 24 ~
: 2500 7 24 lois
- 2517
: 2524 3 27 Lŕ
: 2528 2 24  oů
: 2532 8 20  d'autres
- 2549
: 2552 2 19 Ne
: 2556 3 19  se
: 2560 2 17 ront
: 2564 11 19  pas
- 2585
: 2596 3 22 Et
: 2600 4 22  on
: 2608 2 24  s'in
: 2612 5 26 ven
: 2620 4 27 te
: 2624 2 24 ~
: 2628 12 24 ra
- 2649
: 2652 5 24 Une
: 2659 3 26  vie
: 2663 13 27  ŕ
: 2676 2 26 ~
: 2680 9 26 deux
- 2690
: 2692 3 19 Tu
: 2696 10 24  vois
- 2721
: 2740 3 12 Qu'en
: 2744 3 31 semble
: 2748 2 29  on
: 2752 3 29  peut
: 2756 2 27  rę
: 2760 4 29 ver
: 2764 6 27 ~
- 2785
: 2804 2 12 Es
: 2808 3 31 sa
: 2812 2 29 yer
: 2816 3 29  d'e
: 2820 2 27 xis
: 2824 3 29 ter
: 2828 7 27 ~
- 2845
: 2864 2 24 Et
: 2868 2 24  on
: 2872 6 27  par
: 2880 1 26 ti
: 2882 2 26 ra
: 2884 11 24 ~
- 2925
: 2995 3 22 Et
: 2999 2 22  on
: 3002 3 22  par
: 3006 3 22 ti
: 3010 3 22 ra
* 3013 11 24 ~
- 3054
: 3140 2 22 On
: 3144 2 24  par
: 3148 1 22 ti
: 3150 6 24 ra
- 3168
: 3172 2 22 On
: 3176 2 24  par
: 3180 2 22 ti
: 3182 5 24 ra
- 3217
: 3256 3 19 On
: 3260 2 22  par
: 3264 2 22 ti
: 3267 2 22 ra
: 3269 10 24 ~
E