#TITLE:Autour de moi
#ARTIST:Fréro Delavega
#LANGUAGE:French
#GENRE:Folk
#YEAR:2016
#CREATOR:mustangfred and PatTwo
#MP3:Fréro Delavega - Autour de moi.mp3
#COVER:Fréro Delavega - Autour de moi.jpg
#VIDEO:Fréro Delavega - Autour de moi.mp4
#BPM:375.88
#GAP:895
#MEDLEYSTARTBEAT:752
#MEDLEYENDBEAT:1501
#DUETSINGERP1:Jérémy Frérot
#DUETSINGERP2:Flo Delavega
P 1
: 0 2 11 We
: 4 1 11  le
: 7 3 9  la
: 12 2 7  la
: 16 2 9  la
: 23 3 11  tap
: 32 1 7  toup
: 40 7 11  day
- 57
: 64 3 11 We
: 69 1 11  le
: 72 2 9  la
: 76 2 7  la
: 80 2 9  la
: 87 2 9  tap
: 96 5 12  dip
: 103 9 11  da
- 124
: 128 2 11 We
: 132 2 11  le
: 135 3 9  la
: 140 1 7  la
: 143 3 9  la
: 151 2 11  tap
: 160 2 7  toup
: 167 7 11  day
: 176 2 4  ah
: 183 3 4  ta
: 188 5 4  la
: 194 5 4  la
: 200 2 4  ah
: 204 3 6  ah
: 208 8 3  la
- 222
: 224 2 3 Oh
: 231 7 4  oh
- 288
: 439 1 11 Au
: 441 2 11 tour
: 444 2 11  de
: 447 6 9  moi
: 455 7 11 ~
: 464 7 12 ~
* 472 5 11 ~
* 478 3 11  na
* 488 6 11  ah
- 544
: 687 1 11 Au
: 695 2 11  fond
: 699 1 11  de
* 703 7 9  toi
* 712 9 11 ~
* 723 3 12 ~
: 735 2 11  na
: 743 3 11  ah
- 796
: 1008 8 16 Sous
: 1020 7 11  la
* 1028 3 12 ~
: 1036 11 12  pluie
: 1049 1 12  et
: 1056 5 14  sous
: 1063 2 12  le
: 1068 5 11  vent
- 1080
: 1083 1 7 Mon
: 1087 2 11  cur
: 1093 2 11  sa
: 1100 2 12 gite
* 1103 3 14 ~
: 1111 2 11  est-ce
: 1119 2 9  que
: 1125 3 11  ten
: 1133 17 11 tends?
- 1160
: 1176 5 7 Est-ce
: 1182 1 6 ~
: 1189 1 4  que
: 1192 2 4  ten
: 1199 20 4 tends?
: 1221 3 6  oh
: 1225 3 7 ~
: 1229 16 6 ~
- 1255
: 1263 8 16 Sous
: 1276 7 11  la
: 1284 3 12 ~
: 1292 11 12  pluie,
: 1304 1 12  au
: 1311 6 14  fil
: 1319 1 12  du
: 1324 6 11  temps
- 1337
: 1340 1 11 Mon
: 1343 2 11  corps
* 1349 2 11  sé
* 1355 3 11 puise
* 1359 4 14 ~
: 1368 2 11  est-ce
: 1375 3 9  que
: 1381 1 12  tu
: 1389 26 11  sens?
- 1425
: 1433 4 7 Est-ce
: 1438 2 6 ~
: 1446 1 4  que
: 1451 1 4  tu
: 1455 19 4  sens?
: 1476 7 6  oh
: 1484 6 7  ah
: 1491 10 6 ~
- 1511
: 1534 1 -1 Com
: 1536 2 4 bien
: 1539 1 6  de
: 1543 2 7  temps?
- 1546
: 1548 1 7 Com
: 1552 1 7 ment
: 1554 3 9 ~
: 1559 3 7  vont
: 1567 7 6  fleu
: 1576 6 7 rir
- 1591
: 1595 3 -1 Nos
: 1599 2 6  jar
: 1603 1 7 dins
: 1607 1 7  sous
: 1609 2 7  les
: 1617 4 6  fruits
: 1623 5 4  du
: 1630 6 3  ha
: 1639 7 4 sard?
- 1656
: 1664 1 7 Nas-tu
: 1667 2 7  vrai
: 1671 4 7 ment
: 1677 1 7  au
: 1680 1 7 cun
: 1682 2 9 ~
: 1689 1 7  sou
: 1691 3 6 ~
: 1696 6 6 ve
: 1704 3 7 nir
- 1708
: 1710 3 11 Au
: 1719 3 11  fond
: 1723 2 11  de
* 1728 7 9  toi
* 1736 11 11 ~
* 1749 4 12 ~
* 1754 11 9 ~
* 1768 10 11 ~?
- 1786
: 1789 1 -1 Com
: 1792 2 7 bien
: 1795 1 7  de
: 1800 1 7  pleurs?
- 1803
: 1805 1 7 Com
: 1808 2 7 ment
: 1811 2 9 ~
: 1816 3 9  vont
* 1823 6 11  gran
: 1832 8 11 dir
- 1849
: 1852 2 -1 Nos
: 1855 2 4  rę
: 1859 1 7 ves
: 1862 3 7  per
: 1867 1 7 dus
: 1872 2 6  dans
: 1879 3 4  ces
: 1886 6 3  mil
: 1894 9 4 liards?
- 1912
: 1915 1 7 Un
: 1919 1 4  jour
: 1922 2 7  la
: 1926 2 7  vie
: 1930 1 7  te
: 1935 6 9  fe
: 1942 3 7 ra
: 1951 6 6  sou
: 1958 5 7 rire
- 1972
: 1975 6 11 La
: 1983 5 9  la
: 1990 6 11  la
: 1999 10 12  la
: 2012 10 6  ouais!
- 2028
: 2031 8 16 Sous
* 2044 7 11  la
* 2053 2 12 ~
: 2060 10 12  pluie
: 2072 1 12  et
: 2081 5 14  sous
: 2087 1 12  le
: 2092 4 11  vent
- 2104
: 2107 1 11 Mon
: 2111 1 11  cur
: 2116 3 11  sa
: 2124 2 11 gite
: 2127 3 14 ~
: 2135 3 11  est-ce
: 2142 2 9  que
: 2149 3 11  ten
: 2156 18 11 tends?
- 2184
: 2199 7 7 Est-ce
: 2212 2 4  que
: 2216 4 4  ten
: 2224 17 4 tends?
: 2243 3 6  ah
: 2247 3 7 ~
: 2251 19 6 ~
- 2280
: 2287 7 16 Sous
: 2300 7 11  la
: 2308 2 12 ~
: 2315 10 12  pluie
: 2327 1 12  au
: 2336 5 14  fil
: 2343 1 12  du
: 2348 7 11  temps
- 2361
: 2363 1 11 Mon
: 2367 2 11  corps
: 2372 2 11  sé
: 2380 2 15 puise
: 2383 6 14 ~
: 2391 2 15  est-ce
: 2398 2 15  que
: 2404 2 15  tu
: 2411 11 16  sens
: 2423 16 11 ~?
- 2449
: 2457 5 7 Est-ce
: 2463 1 6 ~
: 2469 1 4  que
: 2473 1 4  tu
: 2478 21 4  sens?
: 2501 5 6  oh
: 2507 5 7 ~
: 2513 19 6 ~
- 2582
: 2798 1 7 Je
: 2802 4 7  pleure
: 2810 2 7  tu
: 2814 5 7  nme
: 2824 5 9  vois
: 2837 4 9  pas
- 2891
: 3460 6 11 Sous
: 3476 8 9  la
: 3489 7 9  pluie
: 3509 5 9  sous
: 3516 1 7  le
: 3521 8 7  vent
- 3539
: 3546 1 7 Mon
: 3549 1 7  cur
: 3554 3 7  sa
: 3561 4 9 gite
: 3571 3 6  est-ce
: 3579 3 6  que
: 3586 2 4  ten
: 3593 25 4 tends?
- 3627
: 3630 9 7 Est-ce
: 3643 1 4  que
: 3647 3 4  ten
: 3654 18 4 tends?
: 3674 6 7  ah
: 3682 18 6 ~
- 3710
: 3717 7 16 Sous
: 3730 6 11  la
: 3738 2 12 ~
: 3745 10 12  pluie
: 3757 1 12  au
: 3765 6 14  fil
: 3774 1 12  du
: 3777 6 11  temps
- 3790
: 3793 1 11 Mon
: 3797 2 11  corps
: 3802 2 11  sé
: 3809 2 12 puise
: 3813 4 14 ~
: 3821 2 11  est-ce
: 3828 3 9  que
: 3834 2 9  tu
: 3842 27 11  sens?
- 3879
: 3886 3 7 Est-ce
: 3890 2 6 ~
: 3898 1 4  que
: 3903 1 4  tu
: 3908 20 4  sens?
: 3930 5 6  oh
: 3937 5 7 ~
: 3943 18 6 ~
- 3970
: 3973 9 16 Sous
: 3987 5 11  la
: 3994 3 12 ~
: 4002 9 12  pluie
: 4013 1 12  et
: 4021 6 14  sous
: 4029 1 12  le
: 4033 6 11  vent
- 4045
: 4048 2 11 Mon
: 4053 1 11  cur
: 4058 3 11  sa
: 4065 2 12 gite
: 4069 2 14 ~
: 4076 3 11  est-ce
: 4084 2 9  que
: 4090 3 12  ten
: 4098 26 11 tends?
- 4134
: 4141 3 7 Est-ce
: 4146 2 6 ~
: 4154 1 4  que
: 4159 2 4  ten
: 4166 17 4 tends?
: 4185 6 7  ah
: 4193 19 6 ~
- 4222
: 4229 7 16 Sous
: 4241 7 11  la
: 4249 3 12 ~
: 4257 9 12  pluie
: 4268 1 12  au
: 4277 5 14  fil
: 4284 1 12  du
: 4289 7 11  temps
- 4302
: 4305 1 11 Mon
: 4309 2 11  corps
: 4314 1 11  sé
: 4321 2 11 puise
: 4325 5 15 ~
: 4333 2 15  est-ce
: 4340 2 15  que
: 4346 2 16  tu
: 4353 11 16  sens
: 4365 20 11 ~?
- 4394
: 4397 5 7 Est-ce
: 4403 1 6 ~
: 4410 1 4  que
: 4415 1 4  tu
: 4421 20 4  sens?
* 4443 9 6  oh
: 4454 3 7 ~
: 4459 15 6 ~
- 4484
: 4501 2 11 We
: 4505 1 11  le
: 4508 3 9  la
: 4513 1 7  la
: 4516 2 9  la
: 4524 3 11  tap
: 4533 1 7  toup
: 4541 6 11  day
- 4557
: 4565 2 11 We
: 4569 1 11  le
: 4573 2 9  la
: 4577 2 7  la
: 4581 2 9  la
: 4588 2 9  tap
: 4597 6 12  dip
: 4605 9 11  da
- 4626
: 4630 2 11 We
: 4634 1 11  le
: 4637 3 9  la
: 4641 2 7  la
: 4644 3 9  la
: 4652 2 11  tap
: 4661 1 7  toup
: 4668 7 11  day
: 4677 2 4  ah
: 4684 3 4  ta
: 4689 4 4  la
: 4695 5 4  la
: 4702 2 4  ah
: 4706 2 6  ah
: 4710 7 3  la
P 2
: 0 2 11 We
: 4 1 11  le
: 7 3 9  la
: 12 2 7  la
: 16 2 9  la
: 23 3 11  tap
: 32 1 7  toup
: 40 7 11  day
- 57
: 64 3 11 We
: 69 1 11  le
: 72 2 9  la
: 76 2 7  la
: 80 2 9  la
: 87 2 9  tap
: 96 5 12  dip
: 103 9 11  da
- 124
: 128 2 11 We
: 132 2 11  le
: 135 3 9  la
: 140 1 7  la
: 143 3 9  la
: 151 2 11  tap
: 160 2 7  toup
: 167 7 11  day
: 176 2 4  ah
: 183 3 4  ta
: 188 5 4  la
: 194 5 4  la
: 200 2 4  ah
: 204 3 6  ah
: 208 8 3  la
- 222
: 224 2 3 Oh
: 231 7 4  oh
- 248
: 252 1 -1 Jai
: 256 1 7  cher
: 260 1 7 ché
: 264 1 7  contre
: 268 1 6 ~
: 272 2 7  vents
: 275 2 9 ~
: 280 4 6  et
: 287 6 7  ma
: 295 6 7 rées
- 312
: 316 1 -1 U
: 319 2 7 ne
: 323 3 7  lu
: 328 2 7 mičre
: 333 2 7  pour
: 337 2 6  en
: 344 5 4 fin
: 351 5 3  y
: 358 8 4  voir
- 375
: 379 1 -1 La
: 383 2 7  nuit,
: 387 2 7  le
: 391 3 7  jour
: 396 2 7  non
: 400 5 9  rien
: 408 2 7  na
: 415 7 6  chan
: 424 8 7 gé
- 437
: 439 1 11 Au
: 441 2 11 tour
: 444 2 11  de
* 447 6 9  moi
* 455 7 11 ~
* 464 7 12 ~
* 472 5 11 ~
* 478 3 11  na
* 488 6 11  ah
- 503
: 507 1 -1 Et
: 511 1 7  sous
: 514 4 7  la
: 519 3 7  lune
: 523 1 7  au
: 527 7 9  ciel
: 536 1 9  é
: 544 5 11 toi
: 551 7 11 lé
- 568
: 572 1 7 Non
: 575 2 7  rien,
: 580 1 7  si
: 583 2 7  tu
: 587 2 7  ne
: 591 2 9  veux
: 600 6 4  pas
: 607 2 2  y
: 615 9 4  croire
- 633
: 636 1 -1 Un
: 639 2 7  jour
: 643 3 7  la
: 648 2 7  nuit
: 652 2 7  aura
: 655 3 9 ~
: 663 1 7  tout
: 671 7 7  chan
: 680 4 7 gé
- 685
: 687 1 11 Au
: 695 2 11  fond
: 699 1 11  de
* 703 7 9  toi
* 712 9 11 ~
* 723 3 12 ~
: 735 2 11  na
: 743 3 11  ah
- 750
: 752 8 11 Sous
: 764 7 7  la
: 772 3 9 ~
: 780 4 9  pluie
: 792 1 9  et
: 800 6 9  sous
: 808 2 6  le
: 812 4 7  vent
- 825
: 828 1 7 Mon
: 832 1 7  cur
: 836 3 7  sa
: 844 2 9 gite
: 847 2 11 ~
: 855 2 4  est-ce
: 863 2 3  que
: 868 3 4  ten
: 877 16 4 tends?
- 903
: 910 7 7 Ouais
- 927
: 950 2 11 Est-ce
: 960 3 11  que
: 968 2 11  ten
: 971 2 9 ~
* 977 13 9 tends
* 992 8 11  eh?
- 1006
: 1008 8 16 Sous
: 1020 7 11  la
* 1028 3 12 ~
: 1036 11 12  pluie
: 1049 1 12  et
: 1056 5 14  sous
: 1063 2 12  le
: 1068 5 11  vent
- 1080
: 1083 1 7 Mon
: 1087 2 11  cur
: 1093 2 11  sa
: 1100 2 12 gite
: 1103 3 14 ~
: 1111 2 11  est-ce
: 1119 2 9  que
: 1125 3 11  ten
: 1133 17 11 tends?
- 1200
: 1263 8 16 Sous
: 1276 7 11  la
: 1284 3 12 ~
: 1292 11 12  pluie,
: 1304 1 12  au
: 1311 6 14  fil
: 1319 1 12  du
: 1324 6 11  temps
- 1337
: 1340 1 11 Mon
: 1343 2 11  corps
: 1349 2 11  sé
: 1355 3 11 puise
: 1359 4 14 ~
: 1368 2 11  est-ce
: 1375 3 9  que
: 1381 1 12  tu
: 1389 26 11  sens?
- 1465
: 1710 3 11 Au
: 1719 3 11  fond
: 1723 2 11  de
: 1728 7 9  toi
: 1736 11 11 ~
* 1749 4 12 ~
* 1754 11 9 ~
* 1768 10 11 ~?
- 1828
: 1975 6 11 La
: 1983 5 9  la
* 1990 6 11  la
: 1999 10 12  la
: 2012 10 6  ouais!
- 2028
: 2031 8 16 Sous
: 2044 7 11  la
: 2053 2 12 ~
: 2060 10 12  pluie
: 2072 1 12  et
: 2081 5 14  sous
: 2087 1 12  le
: 2092 4 11  vent
- 2104
: 2107 1 11 Mon
: 2111 1 11  cur
: 2116 3 11  sa
: 2124 2 11 gite
: 2127 3 14 ~
: 2135 3 11  est-ce
: 2142 2 9  que
: 2149 3 11  ten
: 2156 18 11 tends?
- 2224
: 2287 7 16 Sous
: 2300 7 11  la
: 2308 2 12 ~
: 2315 10 12  pluie
: 2327 1 12  au
: 2336 5 14  fil
: 2343 1 12  du
: 2348 7 11  temps
- 2361
: 2363 1 11 Mon
: 2367 2 11  corps
: 2372 2 11  sé
: 2380 2 15 puise
: 2383 6 14 ~
: 2391 2 15  est-ce
: 2398 2 15  que
: 2404 2 15  tu
: 2411 11 16  sens
: 2423 16 11 ~?
- 2489
: 2589 2 4 Lais
: 2597 2 7 sez-
: 2601 2 7 moi
: 2604 3 4 ~,
: 2610 1 4  lais
: 2616 5 6 sez-
: 2623 4 7 moi
- 2636
: 2640 4 7 Lais
: 2650 3 7 sez-
: 2655 5 6 moi,
: 2668 2 3  lais
: 2677 3 4 sez-
: 2691 1 4 moi
- 2693
: 2695 3 4 Lais
: 2703 3 6 sez-
: 2708 2 6 moi
: 2711 2 4 ~,
: 2716 1 4  lais
: 2722 3 6 sez-
: 2730 3 7 moi
- 2744
: 2748 3 6 Lais
: 2757 2 7 sez-
: 2761 6 6 moi
: 2771 4 6  ah
- 2785
: 2798 1 7 Je
: 2802 4 7  pleure
: 2810 2 7  tu
: 2814 5 7  nme
: 2824 5 9  vois
: 2837 4 9  pas
- 2847
: 2850 2 7 Je
: 2857 2 7  crie
: 2864 4 7  tu
: 2870 5 6  nm
: 2878 2 6 en
: 2883 3 6 tends
: 2891 2 6  pas
: 2894 2 7 ~
- 2902
: 2905 1 7 Je
: 2910 1 7  souf
: 2916 1 7 fre
: 2919 2 7  ne
: 2923 3 7  mou
: 2931 5 11 blie
: 2944 5 9  pas
- 2956
: 2959 1 7 Sous
: 2964 2 7  tes
: 2973 5 6  pieds
: 2986 2 6  jus
: 2991 6 6 te
: 2999 4 7  lŕ
- 3009
: 3012 1 7 Je
: 3017 5 11  pleure
: 3026 3 11  tu
: 3031 3 9  ne
: 3040 5 7  vois
: 3051 5 11  pas
- 3063
: 3066 1 7 Je
: 3071 3 11  crie
: 3080 6 14  tu
: 3092 4 9  nmen
: 3099 3 9 tends
: 3107 4 11  pas
- 3117
: 3120 1 11 Je
: 3125 2 11  souf
: 3132 1 11 fre
: 3134 3 11  ne
: 3139 1 9  mou
: 3143 7 7 blie
: 3159 5 7  pas
- 3170
: 3173 1 7 Sous
: 3179 2 7  tes
: 3187 2 7  pieds
: 3190 2 9 ~
: 3201 1 6  jus
: 3207 4 6 te
: 3213 4 7  lŕ
- 3224
: 3227 1 4 Je
: 3232 5 11  pleure
: 3240 3 11  tu
: 3245 4 9  nme
: 3254 5 7  vois
: 3267 4 11  pas
- 3277
: 3280 1 11 Je
: 3286 3 11  crie
: 3294 6 14  tu
: 3308 2 9  nmen
: 3314 2 9 tends
: 3322 4 11  pas
- 3332
: 3335 1 11 Je
: 3339 1 11  souf
: 3344 1 11 fre
: 3347 4 11  ne
: 3353 4 9  mou
: 3361 3 7 blie
: 3374 8 7  pas
- 3386
: 3388 1 7 Jus
: 3393 6 7 te
: 3401 2 7  lŕ
: 3404 6 7 ~
: 3411 5 6 ~
- 3466
: 3717 7 16 Sous
: 3730 6 11  la
: 3738 2 12 ~
: 3745 10 12  pluie
: 3757 1 12  au
: 3765 6 14  fil
: 3774 1 12  du
: 3777 6 11  temps
- 3790
: 3793 1 11 Mon
: 3797 2 11  corps
: 3802 2 11  sé
: 3809 2 12 puise
: 3813 4 14 ~
: 3821 2 11  est-ce
: 3828 3 9  que
: 3834 2 9  tu
: 3842 27 11  sens?
- 3919
: 3973 9 16 Sous
: 3987 5 11  la
: 3994 3 12 ~
: 4002 9 12  pluie
: 4013 1 12  et
: 4021 6 14  sous
: 4029 1 12  le
: 4033 6 11  vent
- 4045
: 4048 2 11 Mon
: 4053 1 11  cur
: 4058 3 11  sa
: 4065 2 12 gite
: 4069 2 14 ~
: 4076 3 11  est-ce
: 4084 2 9  que
: 4090 3 12  ten
: 4098 26 11 tends?
- 4174
: 4229 7 16 Sous
: 4241 7 11  la
: 4249 3 12 ~
: 4257 9 12  pluie
: 4268 1 12  au
: 4277 5 14  fil
: 4284 1 12  du
: 4289 7 11  temps
- 4302
: 4305 1 11 Mon
: 4309 2 11  corps
: 4314 1 11  sé
: 4321 2 11 puise
: 4325 5 15 ~
: 4333 2 15  est-ce
: 4340 2 15  que
: 4346 2 16  tu
: 4353 11 16  sens
: 4365 20 11 ~?
- 4435
: 4501 2 11 We
: 4505 1 11  le
: 4508 3 9  la
: 4513 1 7  la
: 4516 2 9  la
: 4524 3 11  tap
: 4533 1 7  toup
: 4541 6 11  day
- 4557
: 4565 2 11 We
: 4569 1 11  le
: 4573 2 9  la
: 4577 2 7  la
: 4581 2 9  la
: 4588 2 9  tap
: 4597 6 12  dip
: 4605 9 11  da
- 4626
: 4630 2 11 We
: 4634 1 11  le
: 4637 3 9  la
: 4641 2 7  la
: 4644 3 9  la
: 4652 2 11  tap
: 4661 1 7  toup
: 4668 7 11  day
: 4677 2 4  ah
: 4684 3 4  ta
: 4689 4 4  la
: 4695 5 4  la
: 4702 2 4  ah
: 4706 2 6  ah
: 4710 7 3  la
E
