#TITLE:Ton visage
#ARTIST:Fréro Delavega
#LANGUAGE:French
#GENRE:Folk
#YEAR:2015
#CREATOR:mustangfred and PatTwo
#MP3:Fréro Delavega - Ton visage.mp3
#COVER:Fréro Delavega - Ton visage.jpg
#VIDEO:Fréro Delavega - Ton visage.mp4
#BPM:200.10
#GAP:11322
#MEDLEYSTARTBEAT:261
#MEDLEYENDBEAT:565
#DUETSINGERP1:Jérémy Frérot
#DUETSINGERP2:Flo Delavega
P 1
: 0 2 -5 Quand
: 3 2 -5  en
: 6 3 -5  ville,
: 11 1 -5  le
: 13 2 -6  grain
: 17 1 -6  se
: 20 2 -6  lčve
: 23 1 -8 ~
- 30
: 32 1 -10 Vent
: 34 1 -8  de
: 36 1 -8  nerf
: 38 3 -8  a
: 42 1 -8 gi
: 44 4 -6 té
- 50
: 52 2 -6 Que
* 57 1 -6  sé
* 60 2 -5 ter
* 63 1 -8 ~
* 67 3 -8 ni
* 76 1 -10 sent
: 78 2 -8  les
: 81 3 -6  ręves
: 85 1 -5 ~
: 87 1 -6 ~
- 94
: 96 2 4 Dans
: 99 3 4  ma
: 103 1 4  ré
: 105 1 4 a
: 107 1 7 li
: 109 5 6 té
- 140
: 288 1 4 Dans
: 291 1 4  ma
: 294 1 4  ré
: 296 1 4 a
: 299 1 6 li
: 302 1 6 té
- 310
: 313 2 -1 Que
: 316 1 -1  nai-
: 319 6 2 ~
: 326 1 2 je
: 328 1 -1  u
: 330 1 -1 ne
* 332 3 -1  plan
* 336 2 -1 che
: 339 1 -1  de
: 343 1 -1  sa
: 345 3 -2 lut?
- 349
: 351 1 -2 Loin
: 353 1 -2  du
: 355 1 -2  mé
: 357 2 -2 tro,
: 360 2 -2  de
: 364 1 1  son
: 366 1 -1 ~
: 368 2 -1  raf
: 372 1 -1 fut,
: 375 1 -1  les
: 377 2 -1  yeux
: 380 2 6  ri
: 383 1 6 vés
: 385 5 4 ~
- 395
: 397 1 -1 Sur
: 399 2 -1  le
: 402 2 -1  ri
: 405 1 -2 vage
: 408 6 -1 ~,
: 415 1 -2  ou
: 417 1 -2 bli
: 419 1 -2 é
: 421 2 -2  ton
: 424 1 -1  loin
: 426 1 1 ~
: 428 2 1 tain
: 431 1 -1 ~
: 433 2 -1  vi
: 436 2 -1 sage
- 439
: 441 2 -1 Que
: 444 1 -1  nai-
* 446 8 2 ~
: 455 1 2 je
: 457 1 -1  u
: 459 1 -1 ne
: 461 2 -1  plan
: 464 2 -1 che
: 467 1 -1  de
: 470 2 -1  sa
: 473 2 -2 lut?
- 477
: 479 1 -2 Loin
: 481 1 -2  du
: 483 1 -2  mé
: 485 2 -2 tro,
: 488 2 -2  de
: 492 1 1  son
: 494 1 -1 ~
: 496 2 -1  raf
: 501 1 -1 fut,
: 503 1 -1  les
: 505 2 -1  yeux
: 508 2 6  ri
: 511 1 6 vés
: 513 7 4 ~
- 523
: 525 2 -1 Sur
: 528 2 -1  le
: 531 1 -1  ri
: 533 2 -2 vage
: 537 4 -1 ~,
: 543 1 -2  ou
: 545 1 -2 bli
: 547 1 -2 é
: 549 2 -2  ton
: 552 3 -1  loin
: 557 3 -1 tain
: 561 2 -1  vi
: 564 6 -1 sage
- 596
: 671 1 4 Cest
: 673 1 4  un
: 675 1 4  peu
: 677 2 4  vrai
: 681 1 4  mais
: 685 2 6  ça
: 689 2 6  fait
: 693 1 6  tout
- 695
: 697 2 -6 Jveux
: 701 4 -5  plus
: 707 1 -5  de
: 709 4 -5  houle
: 715 2 -3  dans
: 718 2 -5  mon
: 721 2 -6  é
: 726 1 -8 cume
: 728 3 -6 ~
- 733
: 735 1 -8 Et
: 737 2 -8  moins
: 740 1 -8  de
: 743 3 -8  foule
: 748 2 -1  dans
* 751 2 -6  mon
: 754 2 -6  bi
: 757 3 -6 tume
- 761
: 763 1 -6 Ces
: 765 1 -6  pe
: 767 1 -5 tites
: 771 5 -5  choses
: 779 1 -8  qui
: 781 1 -10  nont
: 783 1 -8  au
: 786 5 -6  clair
- 797
: 800 2 -8 De
: 803 2 -8  sens
: 807 2 -8  quune
: 811 1 -8  fois
: 813 2 -6  quon
: 816 1 -6  les
: 818 6 -6  perd
- 825
: 827 1 -6 Ces
: 829 1 -1  pe
: 831 1 -1 tites
: 834 6 -1  choses
: 843 1 2  qui
: 845 2 1  nont
: 848 1 -1  au
: 851 7 -1  clair
- 862
: 864 2 -2 De
: 867 2 -2  sens
: 871 2 -2  quune
: 874 2 -2  fois
: 877 1 -1  quon
: 879 1 -1  les
: 882 4 -1  perd
- 887
: 889 2 -1 Que
: 893 1 -1  nai-
: 896 6 2 ~
: 903 1 2 je
: 905 1 -1  u
: 907 1 -1 ne
: 909 2 -1  plan
: 913 1 -1 che
: 915 1 -1  de
: 919 1 -1  sa
: 921 3 -2 lut?
- 925
: 927 1 -2 Loin
: 929 1 -2  du
: 931 1 -2  mé
: 933 3 -2 tro,
: 937 1 -2  de
: 941 1 1  son
: 943 1 -1 ~
: 945 1 -1  raf
: 949 2 -1 fut,
: 952 1 -1  les
: 954 2 -1  yeux
* 957 1 6  ri
* 959 1 6 vés
* 961 5 4 ~
- 971
: 973 2 -1 Sur
: 976 2 -1  le
: 979 1 -1  ri
: 981 2 -2 vage
: 984 6 -1 ~,
: 991 1 -2  ou
: 993 1 -2 bli
: 995 1 -2 é
: 997 1 -2  ton
: 999 1 -2  loin
: 1001 2 1 ~
: 1004 3 1 tain
: 1009 2 -1  vi
: 1012 2 -1 sage
- 1015
: 1017 2 -1 Que
: 1021 1 1  nai-
: 1023 7 2 ~
: 1031 1 2 je
: 1033 1 -1  u
: 1035 1 -1 ne
: 1037 2 -1  plan
: 1041 1 -1 che
: 1043 1 -1  de
: 1047 1 -1  sa
: 1049 3 -2 lut?
- 1053
: 1055 1 -2 Loin
: 1057 1 -2  du
: 1059 1 -2  mé
: 1061 3 -2 tro,
: 1065 2 -2  de
: 1069 1 1  son
: 1071 1 -1 ~
: 1073 2 -1  raf
: 1076 1 -1 fut,
: 1079 1 -1  les
: 1081 3 -1  yeux
: 1085 1 6  ri
: 1087 1 6 vés
: 1089 6 4 ~
- 1099
: 1101 1 -1 Sur
: 1103 2 -1  le
: 1106 1 -1  ri
: 1108 3 -2 vage
: 1113 5 -1 ~,
: 1120 1 -2  ou
: 1122 1 -2 bli
: 1124 1 -2 é
: 1126 2 -2  ton
: 1129 2 -2  loin
: 1133 3 -1 tain
: 1137 3 -1  vi
: 1141 3 -1 sage
: 1145 1 -1  Oh
: 1147 25 2 ~
- 1185
: 1203 1 -6 Que
: 1205 5 -6  nai-
: 1211 1 -6 je
: 1213 3 -5  a
: 1217 7 -5 lors
- 1233
: 1237 3 -5 U
: 1241 2 -5 ne
: 1245 1 -5  plan
: 1247 2 -3 ~
: 1251 1 -6 che
: 1253 2 -6  de
: 1257 2 -5  sa
: 1260 4 -6 lut?
- 1270
: 1272 1 -6 Pour
: 1276 1 -6  che
: 1278 2 -5 vau
: 1282 6 -5 cher
: 1297 2 -5  mon
: 1301 1 -5  vague
: 1303 1 -3 ~
: 1305 4 -5  ŕ
* 1310 3 -6  lâ
* 1314 2 -5 ~
* 1317 2 -6 ~
* 1320 2 -8 ~
* 1323 9 -6 me
- 1333
: 1335 3 -6 Bel
: 1339 1 -6  o
: 1342 2 -5 cé
: 1345 6 -5 an,
* 1354 6 2  bri
* 1361 7 1 se-
: 1370 2 -6 ta
: 1373 7 -6 lus
- 1390
: 1400 1 -6 Pour
: 1404 1 -5  sé
: 1408 1 -5 cher
: 1410 1 -5  le
: 1413 10 -5  sel
: 1425 2 -5 ~
: 1428 2 -5  de
: 1431 1 -3 ~
: 1433 1 -3  mes
: 1435 1 -5 ~
: 1437 5 -6  larmes
: 1443 1 -5 ~
: 1445 1 -6 ~
: 1447 2 -5 ~
: 1450 11 -6 ~
- 1463
: 1465 3 -1 Que
: 1469 1 -1  nai-
: 1472 5 2 ~
: 1478 1 2 je
: 1480 1 -1  u
: 1482 1 -1 ne
: 1485 2 -1  plan
: 1489 1 -1 che
: 1491 2 -1  de
: 1495 1 -1  sa
: 1497 3 -2 lut?
- 1501
: 1503 1 -2 Loin
: 1505 1 -2  du
: 1507 1 -2  mé
: 1509 3 -2 tro,
: 1513 2 -2  de
: 1517 1 1  son
: 1519 1 -1 ~
: 1521 2 -1  raf
: 1525 1 -1 fut,
: 1527 1 -1  les
: 1529 3 -1  yeux
: 1533 1 6  ri
: 1535 1 6 vés
: 1537 7 4 ~
- 1547
: 1549 2 -1 Sur
: 1552 2 -1  le
: 1555 1 -1  ri
: 1557 2 -2 vage
: 1560 6 -1 ~,
: 1568 1 -2  ou
: 1570 1 -2 bli
: 1572 1 -2 é
: 1574 2 -2  ton
: 1577 1 -1  loin
: 1579 1 1 ~
: 1581 3 1 tain
: 1585 3 -1  vi
: 1589 2 -1 sage
- 1592
: 1594 1 -1 Que
: 1597 1 -1  nai-
: 1600 6 2 ~
: 1608 1 2 je
: 1610 1 -1  u
: 1612 1 -1 ne
: 1614 2 -1  plan
: 1617 1 -1 che
: 1619 2 -1  de
: 1623 1 -1  sa
: 1625 3 -2 lut?
- 1630
: 1632 1 -2 Loin
: 1634 1 -2  du
: 1636 1 -2  mé
: 1638 3 -2 tro,
: 1643 1 -2  de
: 1645 1 1  son
: 1647 1 -1 ~
: 1649 2 -1  raf
: 1653 1 -1 fut,
: 1656 1 -1  les
: 1658 2 -1  yeux
: 1661 1 6  ri
: 1663 1 6 vés
: 1665 7 4 ~
- 1675
: 1677 2 -1 Sur
: 1680 2 -1  le
: 1683 1 -1  ri
: 1685 2 -2 vage
: 1689 5 -1 ~,
: 1696 1 -2  ou
: 1698 1 -2 bli
: 1700 1 -2 é
: 1702 2 -2  ton
: 1705 2 -1  loin
: 1709 3 -1 tain
: 1713 3 -1  vi
: 1717 2 -1 sage
- 1720
: 1722 2 -1 Que
: 1725 1 -1  nai-
: 1727 5 2 ~
: 1733 1 2 je
: 1737 1 -1  u
: 1739 1 -1 ne
: 1741 2 -1  plan
: 1745 1 -1 che
: 1747 2 -1  de
: 1751 1 -1  sa
: 1753 3 -2 lut?
- 1757
: 1759 1 -2 Loin
: 1761 1 -2  du
: 1763 1 -2  mé
: 1765 3 -2 tro,
: 1769 2 -2  de
: 1773 1 1  son
: 1775 1 -1 ~
: 1777 2 -1  raf
: 1781 1 -1 fut,
: 1783 1 -1  les
: 1785 3 -1  yeux
: 1789 2 6  ri
: 1792 1 6 vés
: 1794 6 4 ~
- 1803
: 1805 2 -1 Sur
: 1808 2 -1  le
: 1811 1 -1  ri
: 1813 2 -2 vage
: 1817 5 -1 ~,
: 1824 1 -2  ou
: 1826 1 -2 bli
: 1828 1 -2 é
: 1830 2 -2  ton
: 1833 2 -2  loin
: 1837 1 -2 tain
: 1839 2 -1 ~
: 1842 1 -1  vi
: 1845 12 -1 sage
P 2
: 117 1 -8 Jveux
: 119 1 -6 ~
: 121 2 -6  des
: 124 3 -5  ba
: 128 2 -5 lades
* 133 1 -5  sur
* 135 2 -3 ~
: 139 1 -5  la
: 141 5 -6  grčve
: 149 2 -6  oh
: 152 2 -8 ~
- 158
: 160 1 -8 Un
: 163 2 -8  peu
: 167 1 -8  dhu
: 169 1 -8 ma
: 171 1 -5 ni
: 173 3 -6 té
: 177 1 -6  oh
- 179
: 181 2 -6 Moins
: 184 2 -6  de
* 188 2 -6  bé
* 192 3 -5 ton
: 197 1 -5  plus
: 199 2 -3 ~
: 203 1 -5  de
: 205 3 -6  tręve
: 209 1 -8 ~
- 220
: 224 2 -8 Une
: 228 1 -8  vie
: 230 1 -8  de
: 232 2 -8  qua
: 235 1 -5 li
: 237 3 -6 té
: 241 2 -6  oh
: 244 4 -6  moins
: 249 1 -6  de
* 252 1 -5  bé
* 255 3 -5 tons
- 259
: 261 3 -10 Plus
: 266 2 -8  de
: 269 4 -6  ręve
- 284
: 288 1 4 Dans
: 291 1 4  ma
: 294 1 4  ré
: 296 1 4 a
: 299 1 6 li
: 302 1 6 té
- 310
: 313 2 -1 Que
: 316 1 -1  nai-
: 319 6 2 ~
: 326 1 2 je
: 328 1 -1  u
: 330 1 -1 ne
* 332 3 -1  plan
* 336 2 -1 che
: 339 1 -1  de
: 343 1 -1  sa
: 345 3 -2 lut?
- 349
: 351 1 -2 Loin
: 353 1 -2  du
: 355 1 -2  mé
: 357 2 -2 tro,
: 360 2 -2  de
: 364 1 1  son
: 366 1 -1 ~
* 368 2 -1  raf
* 372 1 -1 fut,
: 375 1 -1  les
: 377 2 -1  yeux
: 380 2 6  ri
: 383 1 6 vés
: 385 5 4 ~
- 395
: 397 1 -1 Sur
: 399 2 -1  le
: 402 2 -1  ri
: 405 1 -2 vage
: 408 6 -1 ~,
: 415 1 -2  ou
: 417 1 -2 bli
: 419 1 -2 é
: 421 2 -2  ton
: 424 1 -1  loin
: 426 1 1 ~
: 428 2 1 tain
: 431 1 -1 ~
: 433 2 -1  vi
: 436 2 -1 sage
- 439
: 441 2 -1 Que
* 444 1 -1  nai-
* 446 8 2 ~
: 455 1 2 je
: 457 1 -1  u
: 459 1 -1 ne
: 461 2 -1  plan
: 464 2 -1 che
: 467 1 -1  de
: 470 2 -1  sa
: 473 2 -2 lut?
- 477
: 479 1 -2 Loin
: 481 1 -2  du
: 483 1 -2  mé
: 485 2 -2 tro,
: 488 2 -2  de
: 492 1 1  son
: 494 1 -1 ~
: 496 2 -1  raf
: 501 1 -1 fut,
: 503 1 -1  les
: 505 2 -1  yeux
* 508 2 6  ri
* 511 1 6 vés
* 513 7 4 ~
- 523
: 525 2 -1 Sur
: 528 2 -1  le
* 531 1 -1  ri
* 533 2 -2 vage
* 537 4 -1 ~,
: 543 1 -2  ou
: 545 1 -2 bli
: 547 1 -2 é
: 549 2 -2  ton
: 552 3 -1  loin
: 557 3 -1 tain
: 561 2 -1  vi
: 564 1 -1 sage
- 566
: 568 2 -8 Jveux
: 571 1 -6  des
: 573 4 -5  lar
: 579 2 -5 mes,
: 584 1 -5  qui
: 586 1 -5  ne
: 588 2 -6  cou
: 592 1 -6 pent
: 595 3 -6  pas
: 599 1 -8 ~
- 605
: 607 1 -8 Et
: 609 1 -8  moins
: 611 1 -10  de
: 613 2 -8  peine
: 617 1 -5  en
: 620 2 -6  4
: 625 1 -6  par
: 629 2 -6  3,
: 633 1 -6  un
: 635 1 -6  bon
: 637 3 -5 heur
- 643
: 645 2 -6 Sim
: 648 1 -8 ple
* 651 1 -3  mais
: 653 1 -6  ŕ
: 655 2 -6  mon
: 658 2 -6  goűt
- 668
: 671 1 4 Cest
: 673 1 4  un
: 675 1 4  peu
: 677 2 4  vrai
: 681 1 4  mais
: 685 2 6  ça
: 689 2 6  fait
: 693 1 6  tout
- 720
: 763 1 -6 Ces
: 765 1 -6  pe
: 767 1 -5 tites
: 771 5 -5  choses
: 779 1 -8  qui
: 781 1 -10  nont
: 783 1 -8  au
: 786 5 -6  clair
- 797
: 800 2 -8 De
: 803 2 -8  sens
: 807 2 -8  quune
: 811 1 -8  fois
: 813 2 -6  quon
: 816 1 -6  les
: 818 6 -6  perd
- 825
: 827 1 -6 Ces
: 829 1 -1  pe
: 831 1 -1 tites
: 834 6 -1  choses
: 843 1 2  qui
: 845 2 1  nont
: 848 1 -1  au
: 851 7 -1  clair
- 862
: 864 2 -2 De
: 867 2 -2  sens
: 871 2 -2  quune
: 874 2 -2  fois
: 877 1 -1  quon
: 879 1 -1  les
: 882 4 -1  perd
- 887
: 889 2 -1 Que
: 893 1 -1  nai-
: 896 6 2 ~
: 903 1 2 je
: 905 1 -1  u
: 907 1 -1 ne
: 909 2 -1  plan
: 913 1 -1 che
: 915 1 -1  de
: 919 1 -1  sa
: 921 3 -2 lut?
- 925
: 927 1 -2 Loin
: 929 1 -2  du
: 931 1 -2  mé
: 933 3 -2 tro,
: 937 1 -2  de
: 941 1 1  son
: 943 1 -1 ~
: 945 1 -1  raf
: 949 2 -1 fut,
: 952 1 -1  les
: 954 2 -1  yeux
* 957 1 6  ri
* 959 1 6 vés
* 961 5 4 ~
- 971
: 973 2 -1 Sur
: 976 2 -1  le
: 979 1 -1  ri
: 981 2 -2 vage
: 984 6 -1 ~,
: 991 1 -2  ou
: 993 1 -2 bli
: 995 1 -2 é
: 997 1 -2  ton
: 999 1 -2  loin
: 1001 2 1 ~
: 1004 3 1 tain
: 1009 2 -1  vi
: 1012 2 -1 sage
- 1015
: 1017 2 -1 Que
: 1021 1 1  nai-
: 1023 7 2 ~
: 1031 1 2 je
: 1033 1 -1  u
: 1035 1 -1 ne
: 1037 2 -1  plan
: 1041 1 -1 che
: 1043 1 -1  de
: 1047 1 -1  sa
: 1049 3 -2 lut?
- 1053
: 1055 1 -2 Loin
: 1057 1 -2  du
: 1059 1 -2  mé
: 1061 3 -2 tro,
: 1065 2 -2  de
: 1069 1 1  son
: 1071 1 -1 ~
: 1073 2 -1  raf
: 1076 1 -1 fut,
: 1079 1 -1  les
: 1081 3 -1  yeux
: 1085 1 6  ri
: 1087 1 6 vés
: 1089 6 4 ~
- 1099
: 1101 1 -1 Sur
: 1103 2 -1  le
: 1106 1 -1  ri
: 1108 3 -2 vage
: 1113 5 -1 ~,
: 1120 1 -2  ou
: 1122 1 -2 bli
: 1124 1 -2 é
: 1126 2 -2  ton
: 1129 2 -2  loin
: 1133 3 -1 tain
: 1137 3 -1  vi
: 1141 3 -1 sage
: 1145 1 -1  Oh
: 1147 25 2 ~
- 1198
: 1354 6 2  bri
: 1361 7 1 se-
- 1394
: 1465 3 -1 Que
: 1469 1 -1  nai-
: 1472 5 2 ~
: 1478 1 2 je
: 1480 1 -1  u
: 1482 1 -1 ne
: 1485 2 -1  plan
: 1489 1 -1 che
: 1491 2 -1  de
: 1495 1 -1  sa
: 1497 3 -2 lut?
- 1501
: 1503 1 -2 Loin
: 1505 1 -2  du
: 1507 1 -2  mé
: 1509 3 -2 tro,
: 1513 2 -2  de
: 1517 1 1  son
: 1519 1 -1 ~
: 1521 2 -1  raf
: 1525 1 -1 fut,
: 1527 1 -1  les
: 1529 3 -1  yeux
: 1533 1 6  ri
: 1535 1 6 vés
: 1537 7 4 ~
- 1547
: 1549 2 -1 Sur
: 1552 2 -1  le
: 1555 1 -1  ri
: 1557 2 -2 vage
: 1560 6 -1 ~,
: 1568 1 -2  ou
: 1570 1 -2 bli
: 1572 1 -2 é
: 1574 2 -2  ton
: 1577 1 -1  loin
: 1579 1 1 ~
: 1581 3 1 tain
: 1585 3 -1  vi
: 1589 2 -1 sage
- 1592
: 1594 1 -1 Que
: 1597 1 -1  nai-
: 1600 6 2 ~
: 1608 1 2 je
: 1610 1 -1  u
: 1612 1 -1 ne
: 1614 2 -1  plan
: 1617 1 -1 che
: 1619 2 -1  de
: 1623 1 -1  sa
: 1625 3 -2 lut?
- 1630
: 1632 1 -2 Loin
: 1634 1 -2  du
: 1636 1 -2  mé
: 1638 3 -2 tro,
: 1643 1 -2  de
: 1645 1 1  son
: 1647 1 -1 ~
: 1649 2 -1  raf
: 1653 1 -1 fut,
: 1656 1 -1  les
: 1658 2 -1  yeux
: 1661 1 6  ri
: 1663 1 6 vés
: 1665 7 4 ~
- 1675
: 1677 2 -1 Sur
: 1680 2 -1  le
: 1683 1 -1  ri
: 1685 2 -2 vage
: 1689 5 -1 ~,
: 1696 1 -2  ou
: 1698 1 -2 bli
: 1700 1 -2 é
: 1702 2 -2  ton
: 1705 2 -1  loin
: 1709 3 -1 tain
: 1713 3 -1  vi
: 1717 2 -1 sage
- 1720
: 1722 2 -1 Que
: 1725 1 -1  nai-
: 1727 5 2 ~
: 1733 1 2 je
: 1737 1 -1  u
: 1739 1 -1 ne
: 1741 2 -1  plan
: 1745 1 -1 che
: 1747 2 -1  de
: 1751 1 -1  sa
: 1753 3 -2 lut?
- 1757
: 1759 1 -2 Loin
: 1761 1 -2  du
: 1763 1 -2  mé
: 1765 3 -2 tro,
: 1769 2 -2  de
: 1773 1 1  son
: 1775 1 -1 ~
: 1777 2 -1  raf
: 1781 1 -1 fut,
: 1783 1 -1  les
: 1785 3 -1  yeux
: 1789 2 6  ri
: 1792 1 6 vés
: 1794 6 4 ~
- 1803
: 1805 2 -1 Sur
: 1808 2 -1  le
: 1811 1 -1  ri
: 1813 2 -2 vage
: 1817 5 -1 ~,
: 1824 1 -2  ou
: 1826 1 -2 bli
: 1828 1 -2 é
: 1830 2 -2  ton
: 1833 2 -2  loin
: 1837 1 -2 tain
: 1839 2 -1 ~
: 1842 1 -1  vi
: 1845 12 -1 sage
E
