#TITLE:Mon petit pays
#ARTIST:Fréro Delavega
#LANGUAGE:French
#GENRE:Pop-Folk
#YEAR:2014
#CREATOR:mustangfred, PatTwo and asb
#MP3:Fréro Delavega - Mon petit pays.mp3
#COVER:Fréro Delavega - Mon petit pays.jpg
#VIDEO:Fréro Delavega - Mon petit pays.mp4
#BPM:384.07
#GAP:8070
#MEDLEYSTARTBEAT:3817
#MEDLEYENDBEAT:4328
#DUETSINGERP1:Jérémy Frérot
#DUETSINGERP2:Flo Delavega
P 1
: 0 3 2 Woua
: 5 1 0  ni
: 8 2 -1  na
: 12 2 0  na
: 16 7 -1  na
- 29
* 31 2 -5 Oh
* 36 1 -3  oh
* 40 3 -1  oh
* 48 14 0  oh
: 64 3 2  woua
: 68 2 0  ni
: 72 2 -1  na
: 76 2 0  na
: 80 24 -1  na
- 114
: 125 2 -8 Un
: 128 2 -1  an
: 133 1 -3  de
: 137 2 -1  plus
: 144 2 -5  que
: 149 1 -5  je
: 152 3 -6  me
: 160 2 -5  cail
: 163 5 -3 ~
: 170 6 -3 le
: 178 2 -5  oh
: 185 6 -6  oh
- 194
: 196 2 -3 Je
: 202 4 -3  meurs
: 208 1 -3  de
: 210 1 -1 ~
: 216 6 -8  froid
: 233 2 -10  oh
: 236 9 -8 ~
- 251
: 253 2 -8 Un
: 256 2 -1  an
: 261 1 -3  de
: 265 3 -1  plus
: 273 2 -5  et
: 277 1 -5  je
: 280 3 -6  me
: 288 3 -5  tail
: 292 4 -3 ~
: 298 2 -5 le
: 303 2 -5  ouais
: 306 2 -6 ~
: 313 2 -6  eh
- 321
: 324 3 -1 Je
: 329 1 -3  ręve
: 331 3 -1 ~
: 337 1 -3  de
: 339 1 -1 ~
: 342 1 -3  te
: 344 2 -3  voir
: 347 9 -1 ~
- 357
: 359 3 -1 Les
: 366 4 -8  nuits
* 377 7 -1  cent
* 389 6 -5  fois
: 409 1 -5  sans
: 411 7 -3 ~
: 422 5 -6  toi
- 433
: 436 2 -10 Moi
: 441 5 -10  jes
: 452 2 -10 pé
: 456 3 -10 rai
: 462 3 -6  tous
: 469 8 -5  bas
- 484
: 487 5 -8 Les
: 496 2 -8  nuits
: 505 7 -1  sans
: 517 6 -5  toi,
: 536 3 -5  cent
: 540 4 -3 ~
: 549 3 -6  fois
- 561
: 565 2 -10 Re
: 569 2 -10 ve
: 573 4 -10 nir
: 584 5 -10  sur
: 592 4 -12  mes
: 600 6 -13  pas
- 614
: 617 6 -8 Ouais
: 624 5 -5  la
: 632 3 -1  vie
: 637 1 -1  nous
* 641 1 -1  sé
: 645 3 -1 pare
: 650 1 -1  mais
: 656 2 -5  j'te
: 661 10 -3  vois
: 673 2 -6  ouais
- 678
: 680 6 -3 Cha
: 688 1 -5 que
: 693 7 -6  fois
: 704 2 -5  plus
: 712 6 -6  proche
: 721 2 -8  de
: 725 2 -6  moi
: 728 5 -5 ~
- 743
: 747 3 -8 Des
: 753 6 -5  heures
: 761 1 -1  des
: 765 2 -1  jours
: 769 2 -1  des
: 773 2 -1  mois
: 777 3 -1  je
: 785 1 -5  n'sais
: 789 2 -5  pas
: 792 3 -3 ~
- 803
: 806 2 -3 Si
: 809 4 -3  loin
: 814 4 -5  de
: 822 2 -5  moi
: 825 3 -6 ~
: 833 2 -6  tes
: 841 2 -5  tou
: 846 4 -3 jours
: 852 3 -3  lŕ
: 856 4 -1 ~
- 869
: 872 6 -8 Ouais
: 880 5 -5  la
: 889 3 2  vie
: 894 1 4  nous
: 897 1 4  sé
: 900 4 4 pare
: 906 1 4  mais
: 912 3 -1  j'te
* 917 2 -1  vois
* 920 6 0 ~
: 928 3 -1  ouais
- 934
: 936 6 0 Cha
: 944 1 0 que
: 949 2 0  fois
: 952 5 2 ~
: 961 2 2  plus
: 968 5 2  proche
: 977 2 -3  de
: 981 2 -3  moi
: 984 4 -1 ~
- 999
: 1003 3 -8 Des
: 1009 6 -5  heures
: 1017 2 -3  des
: 1021 2 -1  jours
: 1025 2 -1  des
: 1029 2 -1  mois
: 1033 3 -1  loin
: 1040 1 -5  de
: 1045 2 -5  toi
: 1048 4 -3 ~
- 1058
: 1061 2 -5 Tes
: 1066 2 -3  tou
: 1071 5 -5 jours
: 1078 2 -5  lŕ
: 1082 2 -6 ~
: 1085 2 -8 ~
: 1088 8 -10 ~
- 1121
* 1152 3 2 Woua
* 1157 1 0  ni
* 1160 2 -1  na
* 1164 2 0  na
* 1168 8 -1  na
- 1180
: 1182 3 -5 Oh
: 1188 1 -3  oh
: 1192 4 -1  oh
: 1200 14 0  oh
: 1216 3 2  woua
: 1220 2 0  ni
: 1224 2 -1  na
: 1228 2 0  na
: 1232 27 -1  na
- 1310
: 1513 4 -8 Les
: 1520 2 -8  nuits
: 1529 1 -3  cent
: 1531 5 -1 ~
: 1540 9 -5  fois
: 1561 2 -5  sans
: 1564 5 -3 ~
: 1573 5 -6  toi
- 1585
: 1588 2 -10 Moi
: 1593 5 -10  jes
: 1605 2 -10 pé
: 1609 2 -10 rai
: 1614 3 -6  tous
: 1620 10 -5  bas
- 1636
: 1639 6 -8 Les
: 1648 2 -8  nuits
: 1657 2 -3  sans
: 1660 4 -1 ~
: 1668 8 -5  toi,
: 1689 2 -5  cent
: 1692 5 -3 ~
: 1702 2 -6  fois
- 1713
: 1717 2 -6 Re
: 1721 3 -6 ve
: 1726 4 -6 nir
: 1736 2 -6  sur
: 1739 3 -5 ~
: 1745 4 -6  mes
: 1753 5 -8  pas
- 1766
: 1769 6 -8 Ouais
: 1776 5 -5  la
: 1785 2 -3  vie
: 1789 1 -1  nous
: 1792 2 -1  sé
: 1796 3 -1 pare
: 1801 1 -1  mais
: 1808 3 -5  j'te
: 1813 2 -5  vois
: 1816 6 -3 ~
: 1824 3 -3  ouais
- 1830
: 1832 6 -3 Cha
: 1840 1 -5 que
: 1845 8 -6  fois
: 1857 2 -5  plus
* 1864 5 -6  proche
: 1873 2 -8  de
: 1877 3 -6  moi
: 1881 3 -5 ~
- 1896
: 1900 3 -8 Des
: 1906 5 -6  heures
: 1913 2 -5  des
: 1917 1 -5  jours
: 1921 2 -5  des
: 1925 2 -5  mois
: 1929 3 -5  je
: 1936 2 -8  n'sais
: 1941 2 -5  pas
: 1944 3 -3 ~
- 1955
: 1958 1 -6 Si
: 1961 3 -6  loin
: 1966 3 -8  de
: 1974 6 -10  moi
: 1985 2 -10  tes
: 1993 2 -8  tou
: 1998 4 -6 jours
: 2004 3 -6  lŕ
: 2008 5 -5 ~
- 2021
: 2024 2 -10 Ouais
: 2027 4 -8 ~
: 2033 4 -5  la
: 2041 2 -3  vie
: 2045 1 -1  nous
: 2049 1 -1  sé
: 2052 3 -1 pare
: 2057 2 -1  mais
: 2064 3 -5  j'te
: 2069 8 -3  vois
: 2080 2 -3  ouais
- 2086
: 2088 6 -3 Cha
: 2096 1 -5 que
: 2102 6 -6  fois
: 2112 3 -5  plus
: 2119 1 -5  proche
: 2121 4 -6 ~
: 2129 2 -8  de
: 2133 7 -5  moi
- 2151
: 2155 4 -8 Des
: 2161 6 -5  heures
: 2169 2 -3  des
: 2173 2 -1  jours
: 2177 2 -1  des
: 2181 2 -1  mois
: 2185 2 -1  loin
: 2188 2 -5 ~
: 2192 1 -5  de
: 2197 2 -5  toi
: 2200 4 -3 ~
- 2210
: 2213 1 -6 Tes
: 2217 2 -6  tou
: 2222 5 -8 jours
: 2229 2 -5  lŕ
: 2232 6 -6 ~
: 2239 2 -8 ~
: 2242 6 -10 ~
- 2299
: 2409 4 -8 Toutes
: 2417 4 -8  ces
: 2425 1 -3  heures
: 2427 1 -1 ~
: 2429 2 -3  ŕ
: 2433 1 -5  te
: 2437 2 -3  cher
: 2442 3 -5 cher
- 2446
: 2448 2 -8 Tęte
: 2452 1 -8  bais
: 2457 1 -1 sé
: 2460 2 -3  les
: 2464 1 -5  yeux
: 2468 3 -3  fer
: 2473 3 -5 més
- 2478
: 2480 2 -8 Sur
: 2484 2 -8  ma
: 2489 2 -1  peau
: 2493 2 -3  gra
: 2497 1 -5 vée
: 2500 3 -3  ŕ
: 2506 1 -5  tout
: 2508 2 -6 ~
: 2513 3 -8  ja
: 2521 7 -5 mais
- 2536
: 2539 2 -10 Plus
: 2542 3 -8 ~
: 2546 4 -6  le
: 2554 4 -6  temps
: 2559 4 -5 ~
: 2564 2 -3 ~
: 2567 10 -5 ~
: 2578 4 -6 ~
: 2586 4 -6  passe
- 2592
: 2594 3 -8 Et
: 2602 3 -9  plus
: 2607 2 -8  je
: 2614 7 -8  sens
* 2633 2 -3  en
* 2636 2 0 ~
* 2639 3 -3 ~
: 2644 5 -5  moi
: 2650 17 -3 ~
- 2671
: 2673 1 -3 Ces
: 2675 2 -1 ~
: 2682 10 0  choses
: 2695 2 2  lŕ
: 2698 3 4 ~
: 2704 2 0  quon
: 2707 2 -1 ~
: 2712 11 -1  ne
: 2729 3 -6  se
: 2734 2 -6  dit
* 2741 2 -5  pas
* 2744 15 -8 ~
* 2761 15 -6  ah
* 2778 14 -5  ah
: 2794 2 -6  ouais
: 2798 5 -8 ~
- 2854
: 3049 5 -8 Ouais
: 3056 5 -5  la
: 3065 2 -3  vie
: 3068 1 -1  nous
: 3072 2 -1  sé
: 3076 3 -1 pare
: 3081 2 -1  mais
: 3087 3 -5  j'te
: 3092 10 -3  vois
: 3104 3 -3  ouais
- 3110
: 3112 2 -1 Cha
: 3115 3 -3 ~
: 3120 1 -5 que
: 3125 8 -6  fois
: 3137 2 -5  plus
: 3144 5 -6  proche
: 3153 2 -8  de
: 3157 3 -6  moi
: 3161 3 -5 ~
- 3173
: 3177 1 -10 Des
: 3179 3 -8 ~
: 3185 5 -5  heures
: 3193 2 -3  des
: 3197 2 -1  jours
: 3201 2 -1  des
: 3205 2 -1  mois
: 3209 3 -1  je
: 3217 2 -5  n'sais
: 3221 2 -5  pas
: 3224 3 -3 ~
- 3235
: 3238 1 -3 Si
: 3241 3 -3  loin
: 3246 3 -5  de
: 3254 2 -5  moi
: 3257 3 -6 ~
: 3265 2 -6  tes
: 3273 2 -5  tou
: 3278 5 -3 jours
: 3285 3 -3  lŕ
: 3289 5 -1 ~
- 3301
: 3304 2 -10 Ouais
: 3307 4 -8 ~
: 3313 4 -5  la
: 3321 2 -3  vie
: 3325 1 -1  nous
: 3329 1 -1  sé
: 3332 3 -1 pare
: 3337 3 -1  mais
: 3344 3 -5  j'te
: 3349 10 -3  vois
: 3361 3 -3  ouais
- 3367
: 3369 5 -3 Cha
: 3377 1 -5 que
: 3382 7 -6  fois
: 3393 3 -5  plus
: 3400 2 -5  proche
: 3403 3 -6 ~
: 3409 2 -8  de
: 3413 2 -6  moi
: 3416 5 -5 ~
- 3430
: 3434 2 -10 Des
: 3437 2 -8 ~
: 3441 6 -5  heures
: 3449 2 -3  des
: 3454 1 -1  jours
: 3457 2 -1  des
: 3461 2 -1  mois
: 3465 5 -1  loin
: 3473 1 -5  de
: 3477 2 -5  toi
: 3480 4 -3 ~
- 3490
: 3493 2 -6 Tes
: 3497 2 -6  tou
: 3502 5 -8 jours
: 3509 3 -5  lŕ
: 3513 3 -6 ~
: 3517 3 -8 ~
: 3521 19 -10 ~
- 3550
: 3561 5 -8 Ouais
: 3568 5 -5  la
: 3576 3 -3  vie
: 3581 1 -1  nous
: 3584 1 -1  sé
: 3588 3 -1 pare
: 3593 2 -1  mais
: 3599 3 -5  j'te
: 3605 9 -3  vois
: 3616 3 -3  ouais
- 3622
: 3624 6 -3 Cha
: 3633 1 -5 que
: 3638 2 -6  fois
: 3641 4 -6 ~
: 3649 2 -5  plus
: 3656 5 -6  proche
: 3665 2 -8  de
: 3669 3 -6  moi
: 3673 3 -5 ~
- 3685
: 3689 5 -8 Des
: 3697 6 -5  heures
: 3705 2 -3  des
: 3709 2 -1  jours
: 3713 2 -1  des
: 3717 2 -1  mois
: 3721 3 -1  je
: 3729 1 -5  n'sais
: 3734 2 -5  pas
: 3737 3 -3 ~
- 3747
: 3750 1 -3 Si
: 3753 3 -3  loin
: 3758 3 -5  de
: 3766 2 -5  moi
: 3769 3 -6 ~
: 3777 2 -6  tes
: 3785 2 -5  tou
: 3790 6 -3 jours
: 3798 2 -3  lŕ
: 3801 4 -1 ~
- 3814
: 3817 2 -10 Ouais
: 3820 3 -8 ~
: 3825 4 -5  la
: 3834 2 -3  vie
: 3837 1 -1  nous
: 3841 1 -1  sé
: 3845 3 -1 pare
: 3850 2 -1  mais
: 3857 2 -5  j'te
: 3862 10 -3  vois
: 3874 2 -3  ouais
- 3880
: 3882 5 -3 Cha
: 3889 1 -5 que
: 3894 7 -6  fois
: 3905 3 -5  plus
: 3913 2 -5  proche
: 3916 2 -6 ~
: 3921 2 -8  de
: 3925 2 -6  moi
: 3928 5 -5 ~
- 3942
: 3946 1 -10 Des
: 3948 3 -8 ~
: 3953 6 -5  heures
: 3961 2 -3  des
: 3965 2 -1  jours
: 3969 2 -1  des
: 3973 2 -1  mois
: 3977 5 -1  loin
: 3984 1 -5  de
: 3989 3 -5  toi
: 3993 4 -3 ~
- 4003
: 4006 1 -6 Tes
: 4010 2 -6  tou
: 4015 3 -8 jours
: 4021 2 -6  lŕ
: 4024 2 -8 ~
: 4027 1 -6 ~
: 4029 1 -8 ~
: 4031 21 -10 ~
- 4062
* 4097 3 2 Woua
* 4101 1 0  ni
* 4104 2 -1  na
* 4108 3 0  na
* 4113 7 -1  na
- 4126
: 4128 2 -5 Oh
: 4133 1 -3  oh
: 4137 3 -1  oh
: 4144 14 0  oh
: 4160 3 2  woua
: 4165 2 0  ni
: 4169 2 -1  na
: 4173 2 0  na
: 4177 26 -1  na
- 4213
: 4224 4 2 Woua
: 4229 2 0  ni
: 4233 2 -1  na
: 4237 2 0  na
: 4241 7 -1  na
- 4254
* 4256 2 -5 Oh
* 4260 2 -3  oh
* 4265 3 -1  oh
: 4273 14 0  oh
: 4289 2 2  woua
: 4294 1 0  ni
: 4297 2 -1  na
: 4301 2 0  na
: 4305 23 -1  na
- 4338
: 4352 3 2 Woua
: 4357 2 0  ni
: 4361 2 -1  na
: 4365 2 0  na
: 4369 7 -1  na
- 4382
: 4384 2 -5 Oh
: 4389 1 -3  oh
: 4393 3 -1  oh
: 4400 14 0  oh
: 4416 4 2  woua
: 4421 2 0  ni
: 4424 2 -1  na
: 4429 2 0  na
: 4433 27 -1  na
- 4470
: 4480 4 2 Woua
: 4485 2 0  ni
: 4488 3 -1  na
: 4493 2 0  na
: 4496 8 -1  na
- 4510
: 4512 2 -5 Oh
: 4516 2 -3  oh
: 4521 2 -1  oh
: 4528 14 0  oh
: 4544 3 2  woua
: 4549 2 0  ni
: 4553 2 -1  na
: 4557 2 0  na
: 4561 27 -1  na
P 2
: 0 3 2 Woua
: 5 1 0  ni
: 8 2 -1  na
: 12 2 0  na
: 16 7 -1  na
- 29
* 31 2 -5 Oh
* 36 1 -3  oh
* 40 3 -1  oh
* 48 14 0  oh
: 64 3 2  woua
: 68 2 0  ni
: 72 2 -1  na
: 76 2 0  na
: 80 24 -1  na
- 155
: 359 3 -1 Les
: 366 4 -8  nuits
* 377 7 -1  cent
* 389 6 -5  fois
: 409 1 -5  sans
: 411 7 -3 ~
: 422 5 -6  toi
- 433
: 436 2 -10 Moi
: 441 5 -10  jes
: 452 2 -10 pé
: 456 3 -10 rai
: 462 3 -6  tous
: 469 8 -5  bas
- 484
: 487 5 -8 Les
: 496 2 -8  nuits
: 505 7 -1  sans
: 517 6 -5  toi,
: 536 3 -5  cent
: 540 4 -3 ~
: 549 3 -6  fois
- 561
: 565 2 -10 Re
: 569 2 -10 ve
: 573 4 -10 nir
: 584 5 -10  sur
: 592 4 -12  mes
: 600 6 -13  pas
- 614
: 617 6 -8 Ouais
: 624 5 -5  la
: 632 3 -1  vie
: 637 1 -1  nous
* 641 1 -1  sé
* 645 3 -1 pare
: 650 1 -1  mais
: 656 2 -5  j'te
: 661 10 -3  vois
: 673 2 -6  ouais
- 678
: 680 6 -3 Cha
: 688 1 -5 que
: 693 7 -6  fois
: 704 2 -5  plus
: 712 6 -6  proche
: 721 2 -8  de
: 725 2 -6  moi
: 728 5 -5 ~
- 743
: 747 3 -8 Des
: 753 6 -5  heures
: 761 1 -1  des
: 765 2 -1  jours
: 769 2 -1  des
: 773 2 -1  mois
: 777 3 -1  je
: 785 1 -5  n'sais
: 789 2 -5  pas
: 792 3 -3 ~
- 803
: 806 2 -3 Si
: 809 4 -3  loin
: 814 4 -5  de
: 822 2 -5  moi
: 825 3 -6 ~
: 833 2 -6  tes
: 841 2 -5  tou
: 846 4 -3 jours
: 852 3 -3  lŕ
: 856 4 -1 ~
- 869
: 872 6 -8 Ouais
: 880 5 -5  la
: 889 3 2  vie
: 894 1 4  nous
: 897 1 4  sé
: 900 4 4 pare
: 906 1 4  mais
: 912 3 -1  j'te
* 917 2 -1  vois
* 920 6 0 ~
: 928 3 -1  ouais
- 934
: 936 6 0 Cha
: 944 1 0 que
: 949 2 0  fois
: 952 5 2 ~
: 961 2 2  plus
: 968 5 2  proche
: 977 2 -3  de
: 981 2 -3  moi
: 984 4 -1 ~
- 999
: 1003 3 -8 Des
: 1009 6 -5  heures
: 1017 2 -3  des
: 1021 2 -1  jours
: 1025 2 -1  des
: 1029 2 -1  mois
: 1033 3 -1  loin
: 1040 1 -5  de
: 1045 2 -5  toi
: 1048 4 -3 ~
- 1058
: 1061 2 -5 Tes
: 1066 2 -3  tou
: 1071 5 -5 jours
: 1078 2 -5  lŕ
: 1082 2 -6 ~
: 1085 2 -8 ~
: 1088 8 -10 ~
- 1121
* 1152 3 2 Woua
* 1157 1 0  ni
* 1160 2 -1  na
* 1164 2 0  na
* 1168 8 -1  na
- 1180
: 1182 3 -5 Oh
: 1188 1 -3  oh
: 1192 4 -1  oh
: 1200 14 0  oh
: 1216 3 2  woua
: 1220 2 0  ni
: 1224 2 -1  na
: 1228 2 0  na
: 1232 27 -1  na
- 1269
: 1278 1 -8 Un
: 1281 2 -1  an
: 1285 1 -3  de
: 1289 2 -1  plus
: 1297 1 -5  et
: 1300 2 -5  mal
: 1305 4 -6 gré
: 1313 2 -6  moi
: 1316 3 -3 ~
- 1325
: 1328 2 -5 Je
: 1331 3 -6 ~
: 1336 5 -6  res
: 1349 2 -3 te
: 1353 6 -3  loin
: 1360 1 -3  de
: 1368 4 -8  toi
: 1377 2 -6  ah
: 1385 7 -5  ah
- 1401
: 1404 1 -8 Un
: 1408 2 -1  an
: 1412 1 -1  de
: 1416 1 0  plus
: 1421 3 -1  ŕ
: 1426 1 -1  u
: 1429 1 -1 ser
: 1432 1 -1  mes
: 1441 4 0  p'tits
* 1447 10 0  doigts
: 1459 2 0  et
: 1463 2 0  rien
: 1466 2 2 ~
- 1477
: 1480 4 2 Rien
: 1488 1 -1  que
* 1490 1 -3  pour
* 1492 2 -1 ~
* 1498 7 -1  toi
- 1511
: 1513 4 -8 Les
: 1520 2 -8  nuits
: 1529 1 -3  cent
: 1531 5 -1 ~
: 1540 9 -5  fois
: 1561 2 -5  sans
: 1564 5 -3 ~
: 1573 5 -6  toi
- 1585
: 1588 2 -10 Moi
: 1593 5 -10  jes
: 1605 2 -10 pé
: 1609 2 -10 rai
: 1614 3 -6  tous
: 1620 10 -5  bas
- 1636
: 1639 6 -8 Les
: 1648 2 -8  nuits
: 1657 2 -3  sans
: 1660 4 -1 ~
: 1668 8 -5  toi,
: 1689 2 -5  cent
: 1692 5 -3 ~
: 1702 2 -6  fois
- 1713
: 1717 2 -6 Re
: 1721 3 -6 ve
: 1726 4 -6 nir
: 1736 2 -6  sur
: 1739 3 -5 ~
: 1745 4 -6  mes
: 1753 5 -8  pas
- 1766
: 1769 6 -8 Ouais
: 1776 5 -5  la
: 1785 2 -3  vie
: 1789 1 -1  nous
: 1792 2 -1  sé
: 1796 3 -1 pare
: 1801 1 -1  mais
: 1808 3 -5  j'te
: 1813 2 -5  vois
: 1816 6 -3 ~
: 1824 3 -3  ouais
- 1830
: 1832 6 -3 Cha
: 1840 1 -5 que
: 1845 8 -6  fois
: 1857 2 -5  plus
* 1864 5 -6  proche
: 1873 2 -8  de
: 1877 3 -6  moi
: 1881 3 -5 ~
- 1896
: 1900 3 -8 Des
: 1906 5 -6  heures
: 1913 2 -5  des
: 1917 1 -5  jours
: 1921 2 -5  des
: 1925 2 -5  mois
: 1929 3 -5  je
: 1936 2 -8  n'sais
: 1941 2 -5  pas
: 1944 3 -3 ~
- 1955
: 1958 1 -6 Si
: 1961 3 -6  loin
: 1966 3 -8  de
: 1974 6 -10  moi
: 1985 2 -10  tes
: 1993 2 -8  tou
: 1998 4 -6 jours
: 2004 3 -6  lŕ
: 2008 5 -5 ~
- 2021
: 2024 2 -10 Ouais
: 2027 4 -8 ~
: 2033 4 -5  la
: 2041 2 -3  vie
: 2045 1 -1  nous
: 2049 1 -1  sé
: 2052 3 -1 pare
: 2057 2 -1  mais
: 2064 3 -5  j'te
: 2069 8 -3  vois
: 2080 2 -3  ouais
- 2086
: 2088 6 -3 Cha
: 2096 1 -5 que
: 2102 6 -6  fois
: 2112 3 -5  plus
: 2119 1 -5  proche
: 2121 4 -6 ~
: 2129 2 -8  de
: 2133 7 -5  moi
- 2151
: 2155 4 -8 Des
: 2161 6 -5  heures
: 2169 2 -3  des
: 2173 2 -1  jours
: 2177 2 -1  des
: 2181 2 -1  mois
: 2185 2 -1  loin
: 2188 2 -5 ~
: 2192 1 -5  de
: 2197 2 -5  toi
: 2200 4 -3 ~
- 2210
: 2213 1 -6 Tes
: 2217 2 -6  tou
: 2222 5 -8 jours
: 2229 2 -5  lŕ
: 2232 6 -6 ~
: 2239 2 -8 ~
: 2242 6 -10 ~
- 2258
: 2280 1 -8 Toutes
: 2289 2 -8  ces
: 2296 3 -3  heures
: 2301 1 -3  ŕ
: 2304 1 -5  te
: 2308 2 -3  cher
: 2314 2 -8 cher
- 2318
: 2320 2 -8 Tęte
: 2325 1 -8  bais
: 2329 2 -3 sé
: 2333 2 -3  Les
: 2337 2 -5  yeux
: 2342 1 -3  fer
: 2346 2 -8 més
- 2351
: 2353 2 -8 Sur
: 2357 1 -8  ma
: 2362 1 -6  peau
: 2365 2 -6  gra
: 2369 3 -6 vée
: 2373 1 -5  ŕ
: 2378 3 -6  tout
: 2385 4 -8  ja
: 2393 6 -5 mais
- 2406
: 2409 4 -8 Toutes
: 2417 4 -8  ces
: 2425 1 -3  heures
: 2427 1 -1 ~
: 2429 2 -3  ŕ
: 2433 1 -5  te
: 2437 2 -3  cher
: 2442 3 -5 cher
- 2446
: 2448 2 -8 Tęte
: 2452 1 -8  bais
: 2457 1 -1 sé
: 2460 2 -3  les
: 2464 1 -5  yeux
: 2468 3 -3  fer
: 2473 3 -5 més
- 2478
: 2480 2 -8 Sur
: 2484 2 -8  ma
: 2489 2 -1  peau
: 2493 2 -3  gra
: 2497 1 -5 vée
: 2500 3 -3  ŕ
: 2506 1 -5  tout
: 2508 2 -6 ~
: 2513 3 -8  ja
: 2521 7 -5 mais
- 2579
: 2809 2 -1 Plus
: 2812 16 0 ~
: 2832 2 0  ja
: 2835 4 -1 ~
: 2841 4 -1 vance
: 2850 3 -1  et
: 2858 3 -1  plus
: 2863 2 -1  je
* 2870 2 2  sens
* 2873 5 4 ~
: 2890 1 -3  en
: 2892 1 -1 ~
: 2894 3 -3 ~
: 2900 3 -5  moi
: 2904 5 -3 ~
- 2918
: 2922 4 -8 Ce
: 2931 2 -6  qu'est
: 2934 3 -6  dę
: 2938 9 -5 ~
* 2953 2 -3 tre
: 2956 4 -1 ~
: 2968 5 -6  loin
: 2985 1 -8  de
: 2990 3 -9  chez
: 3000 18 -8  soi
- 3028
: 3049 5 -8 Ouais
: 3056 5 -5  la
: 3065 2 -3  vie
: 3068 1 -1  nous
: 3072 2 -1  sé
: 3076 3 -1 pare
: 3081 2 -1  mais
: 3087 3 -5  j'te
: 3092 10 -3  vois
: 3104 3 -3  ouais
- 3110
: 3112 2 -1 Cha
: 3115 3 -3 ~
: 3120 1 -5 que
: 3125 8 -6  fois
: 3137 2 -5  plus
: 3144 5 -6  proche
: 3153 2 -8  de
: 3157 3 -6  moi
: 3161 3 -5 ~
- 3173
: 3177 1 -10 Des
: 3179 3 -8 ~
: 3185 5 -5  heures
: 3193 2 -3  des
: 3197 2 -1  jours
: 3201 2 -1  des
: 3205 2 -1  mois
: 3209 3 -1  je
: 3217 2 -5  n'sais
: 3221 2 -5  pas
: 3224 3 -3 ~
- 3235
: 3238 1 -3 Si
: 3241 3 -3  loin
: 3246 3 -5  de
: 3254 2 -5  moi
: 3257 3 -6 ~
: 3265 2 -6  tes
: 3273 2 -5  tou
: 3278 5 -3 jours
: 3285 3 -3  lŕ
: 3289 5 -1 ~
- 3301
: 3304 2 -10 Ouais
: 3307 4 -8 ~
: 3313 4 -5  la
: 3321 2 -3  vie
: 3325 1 -1  nous
: 3329 1 -1  sé
: 3332 3 -1 pare
: 3337 3 -1  mais
: 3344 3 -5  j'te
: 3349 10 -3  vois
: 3361 3 -3  ouais
- 3367
: 3369 5 -3 Cha
: 3377 1 -5 que
: 3382 7 -6  fois
: 3393 3 -5  plus
: 3400 2 -5  proche
: 3403 3 -6 ~
: 3409 2 -8  de
: 3413 2 -6  moi
: 3416 5 -5 ~
- 3430
: 3434 2 -10 Des
: 3437 2 -8 ~
: 3441 6 -5  heures
: 3449 2 -3  des
: 3454 1 -1  jours
: 3457 2 -1  des
: 3461 2 -1  mois
: 3465 5 -1  loin
: 3473 1 -5  de
: 3477 2 -5  toi
: 3480 4 -3 ~
- 3490
: 3493 2 -6 Tes
: 3497 2 -6  tou
: 3502 5 -8 jours
: 3509 3 -5  lŕ
: 3513 3 -6 ~
: 3517 3 -8 ~
: 3521 19 -10 ~
- 3550
: 3561 5 -8 Ouais
: 3568 5 -5  la
: 3576 3 -3  vie
: 3581 1 -1  nous
: 3584 1 -1  sé
: 3588 3 -1 pare
: 3593 2 -1  mais
: 3599 3 -5  j'te
: 3605 9 -3  vois
: 3616 3 -3  ouais
- 3622
: 3624 6 -3 Cha
: 3633 1 -5 que
: 3638 2 -6  fois
: 3641 4 -6 ~
: 3649 2 -5  plus
: 3656 5 -6  proche
: 3665 2 -8  de
: 3669 3 -6  moi
: 3673 3 -5 ~
- 3685
: 3689 5 -8 Des
: 3697 6 -5  heures
: 3705 2 -3  des
: 3709 2 -1  jours
: 3713 2 -1  des
: 3717 2 -1  mois
: 3721 3 -1  je
: 3729 1 -5  n'sais
: 3734 2 -5  pas
: 3737 3 -3 ~
- 3747
: 3750 1 -3 Si
: 3753 3 -3  loin
: 3758 3 -5  de
: 3766 2 -5  moi
: 3769 3 -6 ~
: 3777 2 -6  tes
: 3785 2 -5  tou
: 3790 6 -3 jours
: 3798 2 -3  lŕ
: 3801 4 -1 ~
- 3814
: 3817 2 -10 Ouais
: 3820 3 -8 ~
: 3825 4 -5  la
: 3834 2 -3  vie
: 3837 1 -1  nous
: 3841 1 -1  sé
: 3845 3 -1 pare
: 3850 2 -1  mais
: 3857 2 -5  j'te
: 3862 10 -3  vois
: 3874 2 -3  ouais
- 3880
: 3882 5 -3 Cha
: 3889 1 -5 que
: 3894 7 -6  fois
: 3905 3 -5  plus
: 3913 2 -5  proche
: 3916 2 -6 ~
: 3921 2 -8  de
: 3925 2 -6  moi
: 3928 5 -5 ~
- 3942
: 3946 1 -10 Des
: 3948 3 -8 ~
: 3953 6 -5  heures
: 3961 2 -3  des
: 3965 2 -1  jours
: 3969 2 -1  des
: 3973 2 -1  mois
: 3977 5 -1  loin
: 3984 1 -5  de
: 3989 3 -5  toi
: 3993 4 -3 ~
- 4003
: 4006 1 -6 Tes
: 4010 2 -6  tou
: 4015 3 -8 jours
: 4021 2 -6  lŕ
: 4024 2 -8 ~
: 4027 1 -6 ~
: 4029 1 -8 ~
: 4031 21 -10 ~
- 4062
* 4097 3 2 Woua
* 4101 1 0  ni
* 4104 2 -1  na
* 4108 3 0  na
* 4113 7 -1  na
- 4126
: 4128 2 -5 Oh
: 4133 1 -3  oh
: 4137 3 -1  oh
: 4144 14 0  oh
: 4160 3 2  woua
: 4165 2 0  ni
: 4169 2 -1  na
: 4173 2 0  na
: 4177 26 -1  na
- 4213
: 4224 4 2 Woua
: 4229 2 0  ni
: 4233 2 -1  na
: 4237 2 0  na
: 4241 7 -1  na
- 4254
* 4256 2 -5 Oh
* 4260 2 -3  oh
* 4265 3 -1  oh
: 4273 14 0  oh
: 4289 2 2  woua
: 4294 1 0  ni
: 4297 2 -1  na
: 4301 2 0  na
: 4305 23 -1  na
- 4338
: 4352 3 2 Woua
: 4357 2 0  ni
: 4361 2 -1  na
: 4365 2 0  na
: 4369 7 -1  na
- 4382
: 4384 2 -5 Oh
: 4389 1 -3  oh
: 4393 3 -1  oh
: 4400 14 0  oh
: 4416 4 2  woua
: 4421 2 0  ni
: 4424 2 -1  na
: 4429 2 0  na
: 4433 27 -1  na
- 4470
* 4480 4 2 Woua
* 4485 2 0  ni
* 4488 3 -1  na
* 4493 2 0  na
* 4496 8 -1  na
- 4510
: 4512 2 -5 Oh
: 4516 2 -3  oh
: 4521 2 -1  oh
: 4528 14 0  oh
: 4544 3 2  woua
: 4549 2 0  ni
: 4553 2 -1  na
: 4557 2 0  na
: 4561 27 -1  na
E
