#TITLE:The world is not enough
#ARTIST:Garbage
#MP3:Garbage - The world is not enough.mp3
#COVER:Garbage - The world is not enough [CO].jpg
#BACKGROUND:Garbage - The world is not enough [BG].jpg
#BPM:172,08
#GAP:27200
#ENCODING:UTF8
#EDITION:[SC]-Songs
: 0 4 13 I
: 4 7 13  know
: 12 6 8  how
: 20 2 10  to
: 25 19 12  hurt
- 46
: 64 3 13 I
: 68 4 13  know
: 74 6 15  how
: 86 6 17  to
: 92 12 12  ki~
: 104 6 12 ll
- 112
: 128 2 1 I
: 132 6 10  know
: 138 4 12  what
: 144 4 13  to
: 149 11 6  show
- 160
: 160 2 1 And
: 165 4 6  what
: 170 6 8  to
: 183 3 10  con
: 190 18 12 ceal
- 210
: 256 2 13 I
: 260 10 13  know
: 271 4 12  when
: 278 3 10  to
: 282 22 12  talk
- 306
: 320 2 10 And
: 323 2 12  I
: 326 8 13  know
: 336 6 17  when
: 346 4 12  to
: 351 18 12  touch
- 371
: 384 2 5 No
: 388 6 10  one
: 394 4 12  e
: 399 4 13 ver
: 405 7 6  died
: 415 4 1  from
: 420 4 6  wan
: 424 6 8 ting
: 439 4 12  too
: 447 23 12  much
- 472
: 480 4 12 The
: 484 8 13  world
: 492 6 12  is
: 499 10 19  not
: 511 4 17  e
: 517 14 12 nough
- 533
: 536 4 5 But
: 540 4 7  it
: 544 4 8  is
: 548 4 20  such
: 552 4 19  a
: 556 4 17  per
: 560 4 12 fect
: 564 10 20  place
- 575
: 576 6 19 to
: 582 7 13  start,
: 590 2 12  my
: 592 2 10 ~
: 595 14 12  love
- 611
: 616 4 12 And
: 620 2 13  if
: 623 4 12  you're
: 628 10 19  strong
: 639 4 17  e
: 644 12 12 nough
- 658
: 664 4 5 To
: 668 4 7 ge
: 672 4 8 ther
: 676 4 20  we
: 680 4 19  can
: 684 4 17  take
: 688 4 12  the
: 692 9 20  world
- 702
: 704 4 19 a
: 708 6 13 part,
: 718 2 12  my
: 720 2 10 ~
: 724 28 12  love
- 754
: 772 4 13 Peo
: 776 7 8 ple
: 784 4 10  like
: 791 26 12  us
- 819
: 832 2 13 Know
: 835 4 13  how
: 842 8 17  to
: 854 2 12  sur
: 858 23 12 vive
- 883
: 896 2 5 There's
: 900 6 10  no
: 906 4 12  point
: 911 4 13  in
: 915 3 6  li
: 918 5 6 ving
- 925
: 927 2 1 If
: 929 2 1  you
: 932 4 6  can't
: 938 5 8  feel
: 943 5 10 ~
: 950 2 12  the
: 954 25 12  life
- 981
: 1024 2 13 We
: 1028 8 13  know
: 1038 4 12  when
: 1044 2 10  to
: 1048 24 12  kiss
- 1074
: 1088 2 10 And
: 1090 2 12  we
: 1094 4 13  know
: 1100 9 17  when
: 1113 2 12  to
: 1116 19 12  kill
- 1137
: 1151 2 10 If
: 1153 2 5  you
: 1156 6 10  can't
: 1162 4 12  have
: 1167 4 13  it
: 1172 7 6  all
- 1181
: 1184 2 1 Then
: 1187 4 6  no
: 1192 5 8 bo
: 1197 4 10 dy
: 1203 29 12  will
- 1234
: 1248 4 12 The
: 1252 8 13  world
: 1260 5 12  is
: 1266 10 19  not
: 1279 4 17  e
: 1284 14 12 nough
- 1300
: 1304 4 5 But
: 1308 3 7  it
: 1311 4 8  is
: 1316 4 20  such
: 1320 4 19  a
: 1324 4 17  per
: 1328 4 12 fect
: 1332 9 20  place
- 1342
: 1344 4 19 to
: 1349 9 13  start,
: 1359 2 12  my
: 1361 2 13 ~
: 1363 3 13  lo
: 1366 13 12 ve
- 1381
: 1384 3 12 And
: 1387 2 13  if
: 1391 2 12  you're
: 1395 10 19  strong
: 1407 3 17  e
: 1411 13 12 nough
- 1426
: 1432 3 5 To
: 1435 4 7 ge
: 1439 4 8 ther
: 1444 4 20  we
: 1448 4 19  can
: 1452 4 17  take
: 1456 4 12  the
: 1460 10 20  world
- 1471
: 1472 3 19 a
: 1475 7 13 part,
: 1486 3 12  my
: 1489 2 10 ~
: 1492 21 12  love
- 1515
: 1524 12 13 I~
: 1540 10 13  I~
: 1551 6 12  feel
: 1559 21 12  sick
- 1582
: 1588 12 13 I~
: 1604 10 13  I~
: 1615 6 12  feel
: 1623 23 12  scared
- 1648
: 1652 12 13 I~
: 1668 8 13  I~
: 1678 6 17  feel
: 1685 4 19  rea
: 1690 22 19 dy
- 1714
: 1728 2 20 And
: 1732 6 20  yet
: 1739 4 19  un
: 1744 4 19 pre
: 1750 8 19 pared
- 1759
: 1760 2 20 The
: 1764 9 20  world
: 1775 2 19  is
: 1780 10 19  not
: 1792 4 17  e
: 1798 15 17 nough
- 1814
: 1816 4 5 But
: 1820 3 7  it
: 1823 4 8  is
: 1828 4 20  such
: 1832 4 19  a
: 1836 4 17  per
: 1840 4 12 fect
: 1844 9 20  place
- 1854
: 1856 6 19 to
: 1862 8 13  start,
: 1871 3 15  my
: 1876 2 15  lo
: 1878 13 12 ve
- 1893
: 1896 4 12 And
: 1900 2 13  if
: 1903 4 12  you're
: 1908 10 19  strong
: 1919 4 17  e
: 1924 13 12 nough
- 1939
: 1944 4 5 To
: 1948 3 7 ge
: 1951 4 8 ther
: 1956 4 20  we
: 1960 4 19  can
: 1964 4 17  take
: 1968 4 12  the
: 1972 9 20  world
- 1982
: 1984 3 19 a
: 1987 10 13 part,
: 1999 2 12  my
: 2001 2 10 ~
: 2004 7 12  love
- 2013
: 2016 4 19 The
: 2020 6 20  world
: 2028 6 19  is
: 2036 9 19  not
: 2047 2 17  e
: 2050 16 17 nough...
- 2068
: 2080 4 19 The
: 2084 6 20  world
: 2092 6 19  is
: 2100 10 19  not
: 2111 3 20  e
: 2116 16 17 nough...
- 2134
: 2144 2 12 No,
: 2148 7 20  no
: 2155 6 19 where
: 2164 9 19  near
: 2175 2 17  e
: 2179 14 17 nough...
- 2195
: 2208 2 12 The
: 2212 8 20  world
: 2220 6 19  is
: 2228 10 19  not
: 2239 3 20  e
: 2243 14 17 nough...
E