#TITLE:Why Do You Love Me
#ARTIST:Garbage
#MP3:Garbage - Why Do You Love Me.mp3
#VIDEO:Garbage - Why Do You Love Me.mp4
#COVER:Garbage - Why Do You Love Me[CO].jpg
#BPM:399,21
#GAP:6860
#MedleyStartBeat:964
#MedleyEndBeat:1581
#ENCODING:UTF8
#PREVIEWSTART:43,082
#LANGUAGE:English
#GENRE:Rock
#YEAR:2005
: 0 5 11 I'm
: 11 5 16  no
: 20 4 16  Bar
: 25 4 18 ~
: 31 2 16 bie
: 36 20 11  doll
- 58
: 75 3 7 I'm
: 80 5 11  not
: 90 5 9  your
: 100 8 7  ba
: 110 3 9 by
: 116 21 6  girl
- 139
: 159 5 11 I've
: 170 2 11  done
: 173 6 16 ~
: 181 6 14  ug
: 191 3 16 ly
: 198 11 11  things
- 211
: 236 2 2 I
: 239 2 0 ~
: 242 5 11 ~
: 249 5 9  have
: 260 7 7  made
: 269 4 9  mis
: 276 15 6 takes
- 293
: 314 3 4 And
: 320 7 16  I
: 329 5 18  am
: 339 8 19  not
: 349 5 21  as
: 361 5 19  pret
: 367 7 18 ty
: 375 7 16  as
: 383 4 14 ~
: 389 5 14  those
- 396
: 400 5 16 Girls
: 406 2 11 ~
: 410 5 11  in
: 419 5 11  mag
: 426 3 9 a
: 435 13 11 zines
- 450
: 489 4 16 I
: 494 3 18  am
: 499 3 19  rot
: 504 8 21 ten
: 518 4 19  to
: 524 5 18  my
: 535 4 16  core
: 540 6 14 ~
: 548 4 14  if
- 554
: 559 5 16 They're
: 569 5 11  to
: 578 4 11  be
: 585 4 9  be
: 594 20 11 lieved
- 616
: 634 3 11 So
: 638 4 19  what
: 643 3 18  if
: 648 4 16  I'm
: 654 3 14  no
: 659 8 16  ba
: 669 3 14 by
: 675 7 14  bird
: 683 4 12 ~
: 689 5 12  hang
: 697 7 12 ing
: 705 2 9 ~
- 709
: 711 4 9 Up
: 719 7 11 on
: 729 6 14  your
: 739 1 14  eve
: 742 4 19 ~
: 749 4 7 ry
: 755 19 9  word
- 776
: 798 3 19 Noth
: 803 4 18 ing
: 809 3 16  ev
: 813 2 14 er
: 819 8 16  smells
: 829 3 14  of
: 835 6 14  ros
: 844 8 12 es
: 853 3 9 ~
- 858
: 868 6 9 That
: 878 8 11  ris
: 888 6 14 es
: 898 9 19  out
: 910 2 7  of
: 915 18 9  mud
- 935
: 964 3 19 Why
: 968 4 19  do
: 973 4 16  you
: 979 6 19  love
: 988 6 19  me?
- 996
: 1003 3 19 Why
: 1008 4 19  do
: 1013 4 16  you
: 1019 5 19  love
: 1028 8 19  me?
- 1038
: 1044 3 19 Why
: 1048 3 19  do
: 1052 3 16  you
: 1058 6 19  love
: 1068 4 19  me?
: 1074 2 16  It's
: 1078 4 19  driv
: 1083 3 16 ing
: 1088 3 19  me
: 1094 5 23  cra
: 1103 4 21 zy
: 1108 6 19 ~
- 1116
: 1123 4 19 Why
: 1128 3 19  do
: 1133 4 16  you
: 1139 5 19  love
: 1148 8 19  me?
- 1158
: 1163 3 19 Why
: 1168 3 19  do
: 1173 3 16  you
: 1178 6 19  love
: 1187 8 19  me?
- 1197
: 1203 3 19 Why
: 1208 3 19  do
: 1213 3 16  you
: 1218 6 19  love
: 1227 3 19  me?
: 1232 3 16  It's
: 1238 4 19  driv
: 1243 2 16 ing
: 1247 3 19  me
: 1253 7 23  cra
: 1262 5 21 zy
: 1268 5 19 ~
- 1275
: 1283 3 19 Why
: 1287 4 19  do
: 1293 3 16  you
: 1297 5 19  love
: 1307 7 19  me?
- 1316
: 1323 3 19 Why
: 1327 3 19  do
: 1332 3 16  you
: 1338 6 19  love
: 1347 7 19  me?
- 1356
: 1362 3 19 Why
: 1368 3 19  do
: 1372 3 16  you
: 1378 6 19  love
: 1387 3 19  me?
: 1392 3 16  It's
: 1397 5 19  driv
: 1403 3 16 ing
: 1408 2 19  me
: 1412 8 23  cra
: 1423 3 21 zy
: 1427 6 19 ~
- 1435
: 1447 6 19 Why
: 1456 8 19  do
: 1467 4 19  you
: 1478 3 19  love
: 1482 4 18 ~
: 1492 5 19  me
: 1498 5 18 ~?
- 1505
: 1527 5 19 Why
: 1536 7 19  do
: 1546 6 19  you
: 1557 4 19  love
: 1563 4 18 ~
: 1572 5 19  me
: 1578 3 18 ~?
- 1583
: 1751 4 7 You're
: 1757 5 11  not
: 1767 8 16  some
: 1779 6 14  lit
: 1787 3 16 tle
: 1793 22 11  boy
- 1817
: 1826 4 7 Why
: 1831 4 9  you
: 1836 5 11  act
: 1847 3 9 in'
: 1857 6 7  so
: 1865 3 9  sur
: 1872 20 6 prised?
- 1894
: 1910 2 9 You're
: 1916 6 11  sick
: 1926 7 16  of
: 1936 8 14  all
: 1946 3 16  the
: 1952 14 11  rules
- 1968
: 1986 3 7 Well
: 1990 2 9  I'm
: 1996 8 11  sick
: 2012 2 9  of
: 2016 5 7  all
: 2023 4 9  your
: 2033 16 6  lies
- 2051
: 2071 3 4 Ah,
: 2076 5 16  I've
: 2085 7 18  held
: 2095 7 19  back
: 2105 7 21  a
: 2115 7 19  wealth
: 2126 2 18  of
- 2130
: 2145 6 14 I
: 2157 6 16  think
: 2166 6 11  I'm
: 2176 4 11  gon
: 2183 3 9 na
: 2191 14 11  choke
- 2207
: 2226 4 11 I'm
: 2236 8 16  stand
: 2246 8 18 in'
: 2256 7 19  in
: 2266 4 21  the
: 2276 5 19  shad
: 2283 6 18 ows
- 2291
: 2295 4 16 With
: 2302 3 14  the
: 2311 7 16  words
: 2325 5 11  stuck
: 2335 4 11  in
: 2341 4 9  my
: 2351 13 11  throat
- 2366
: 2384 3 11 Does
: 2389 2 11  it
: 2395 4 19  real
: 2400 2 18 ly
: 2405 4 16  come
: 2410 2 14  as
: 2415 7 16  a
: 2425 3 14  sur
: 2430 9 14 prise
: 2440 1 12 ~
- 2443
: 2445 3 12 When
: 2450 7 12  I
: 2459 2 9 ~
* 2466 7 9  tell
* 2475 7 11  you
* 2485 6 14  I
* 2495 5 19  don't
: 2505 7 7  feel
: 2515 15 9  good
- 2532
: 2555 3 19 Noth
: 2559 4 18 in'
: 2565 3 16  ev
: 2570 2 14 er
: 2574 7 16  came
: 2585 5 14  from
: 2595 4 14  noth
: 2601 3 12 in'
: 2609 7 12  man
- 2618
: 2625 5 9 Oh,
: 2635 4 11  man
: 2640 3 9 ~
: 2645 4 9  ain't
: 2655 6 11  that
: 2664 2 9  the
: 2670 4 9  truth
: 2675 4 7 ~
- 2681
: 2720 3 19 Why
: 2725 4 19  do
: 2730 3 16  you
: 2735 6 19  love
: 2745 9 19  me?
- 2756
: 2760 4 19 Why
: 2765 4 19  do
: 2770 3 16  you
: 2775 5 19  love
: 2785 7 19  me?
- 2794
: 2800 3 19 Why
: 2805 3 19  do
: 2809 3 16  you
: 2815 6 19  love
: 2825 3 19  me?
: 2830 2 16  It's
: 2835 4 19  driv
: 2840 3 16 ing
: 2845 2 19  me
: 2850 7 23  cra
: 2859 5 21 zy
: 2865 6 19 ~
- 2873
: 2881 3 19 Why
: 2885 3 19  do
: 2889 4 16  you
: 2895 6 19  love
: 2904 7 19  me?
- 2913
: 2920 3 19 Why
: 2925 2 19  do
: 2929 4 16  you
: 2935 5 19  love
: 2944 6 19  me?
- 2952
: 2960 3 19 Why
: 2964 3 19  do
: 2969 2 16  you
: 2975 6 19  love
: 2984 3 19  me?
: 2989 3 16  It's
: 2994 4 19  driv
: 3000 2 16 ing
: 3004 3 19  me
: 3009 8 23  cra
: 3019 4 21 zy
: 3024 5 19 ~
- 3031
: 3039 3 19 Why
: 3044 3 19  do
: 3049 3 16  you
: 3055 6 19  love
: 3064 6 19  me?
- 3072
: 3079 3 19 Why
: 3084 3 19  do
: 3089 3 16  you
: 3094 6 19  love
: 3104 8 19  me?
- 3114
: 3119 4 19 Why
: 3124 3 19  do
: 3129 3 16  you
: 3134 6 19  love
: 3144 2 19  me?
: 3148 3 16  It's
: 3154 4 19  driv
: 3159 4 16 ing
: 3165 2 19  me
: 3170 6 23  cra
: 3179 4 21 zy
: 3184 5 19 ~
- 3191
: 3203 5 19 Why
: 3213 7 19  do
: 3223 5 19  you
: 3234 3 19  love
: 3238 5 18 ~
: 3249 6 19  me
: 3256 5 18 ~?
- 3263
: 3283 5 19 Why
: 3293 7 19  do
: 3303 4 19  you
: 3313 4 19  love
: 3318 5 18 ~
: 3328 4 19  me
: 3333 3 18 ~?
- 3338
: 3348 3 16 I
: 3353 5 16  get
: 3363 5 16  back
: 3373 6 16  up
: 3383 3 16  and
: 3388 3 16  I
: 3393 4 16  do
: 3399 3 16  it
: 3403 2 16  a
: 3408 4 18 gain
: 3413 5 19 ~
: 3419 3 18 ~
- 3424
: 3433 6 18 Get
: 3443 6 18  back
: 3453 5 18  up
: 3463 3 18  and
: 3468 2 18  I
: 3472 5 18  do
: 3479 2 18  it
: 3483 2 18  a
: 3489 3 18 gain
: 3493 8 21 ~
- 3503
: 3513 6 19 Get
: 3523 6 19  back
: 3532 6 19  up
: 3543 3 19  and
: 3548 3 19  I
: 3553 4 19  do
: 3559 2 19  it
: 3563 3 19  a
: 3569 3 21 gain
: 3573 9 23 ~
- 3584
: 3593 6 21 Get
: 3603 6 21  back
: 3613 6 21  up
: 3623 3 21  and
: 3628 3 21  I
: 3633 3 21  do
: 3638 3 21  it
- 3643
: 3652 4 23 Do
: 3658 3 23  it
: 3663 2 23  a
: 3669 9 23 gain
: 3679 2 19 ~
: 3682 15 16 ~
- 3699
: 4002 5 13 I
: 4013 5 13  think
: 4022 5 13  you're
: 4032 5 13  sleep
: 4042 6 13 ing
: 4053 5 13  with
: 4063 3 13  a
: 4073 8 13  friend
* 4083 5 14  of
* 4089 4 16 ~
* 4101 5 12  mine
* 4107 6 13 ~
- 4115
: 4152 8 11 I
: 4162 5 13  have
: 4170 4 11  no
: 4181 5 9  proof
- 4188
: 4219 1 6 But
: 4221 4 6  I
* 4231 6 11  think
* 4242 6 13  that
* 4250 4 11  I'm
* 4261 10 9  right
- 4273
: 4322 7 4 You
: 4330 3 13 ~
: 4341 5 13  still
: 4352 5 13  got
: 4362 4 13  the
: 4372 10 13  most
: 4383 2 11 ~
* 4392 7 13  beau
* 4401 5 14 ti
* 4412 3 16 ful
* 4422 6 11  face
* 4429 4 13 ~
- 4435
: 4461 3 6 It
: 4471 5 11  just
: 4480 4 13  makes
: 4490 4 11  me
: 4501 13 9  sad
- 4516
: 4551 4 11 Most
: 4562 4 13  of
: 4571 4 11  the
: 4581 18 9  time
- 4601
: 4625 3 16 I
: 4630 5 16  get
: 4640 6 16  back
: 4650 7 16  up
: 4661 2 16  and
: 4665 3 16  I
: 4670 4 16  do
: 4676 2 16  it
: 4680 3 16  a
: 4686 4 18 gain
: 4691 5 19 ~
: 4697 3 18 ~
- 4702
: 4711 6 18 Get
: 4720 6 18  back
: 4730 6 18  up
: 4741 2 18  and
: 4745 3 18  I
: 4750 5 18  do
: 4757 2 18  it
: 4761 2 18  a
* 4766 4 18 gain
* 4771 9 21 ~
- 4782
: 4791 6 19 Get
: 4800 6 19  back
: 4810 6 19  up
: 4820 3 19  and
: 4825 3 19  I
: 4830 5 19  do
: 4837 2 19  it
: 4841 2 19  a
: 4846 5 21 gain
: 4852 5 23 ~
: 4858 2 21 ~
- 4862
: 4870 6 21 Get
: 4881 6 21  back
: 4891 6 21  up
: 4900 3 21  and
: 4905 3 21  I
: 4910 3 21  do
: 4915 4 21  it
- 4921
: 4930 3 23 Do
: 4935 4 23  it
: 4941 2 23  a
: 4946 9 23 gain
: 4956 3 19 ~
: 4960 10 16 ~
- 4972
: 5010 3 23 Do
: 5015 4 23  it
: 5021 2 23  a
: 5026 9 23 gain
: 5036 3 19 ~
: 5040 12 16 ~
- 5054
: 5090 3 23 Do
: 5095 4 23  it
: 5101 2 23  a
: 5106 9 23 gain
: 5116 3 19 ~
: 5120 10 16 ~
- 5132
: 5169 4 23 Do
: 5175 4 23  it
* 5181 2 23  a
* 5186 9 23 gain
* 5196 3 19 ~
* 5200 14 16 ~
- 5216
: 5276 2 19 Why
: 5279 4 19  do
: 5285 4 16  you
: 5290 6 19  love
: 5299 6 19  me?
- 5307
: 5315 3 19 Why
: 5320 2 19  do
: 5324 4 16  you
: 5330 6 19  love
: 5339 7 19  me?
- 5348
: 5355 2 19 Why
: 5359 4 19  do
: 5365 3 16  you
: 5370 6 19  love
: 5379 3 19  me?
: 5384 3 16  It's
: 5390 4 19  driv
: 5395 3 16 ing
: 5400 2 19  me
: 5404 7 23  cra
: 5414 5 21 zy
: 5420 6 19 ~
- 5428
: 5435 3 19 Why
: 5439 3 19  do
: 5444 4 16  you
: 5450 6 19  love
: 5458 7 19  me?
- 5467
: 5475 3 19 Why
: 5479 4 19  do
: 5485 3 16  you
: 5490 6 19  love
: 5499 7 19  me?
- 5508
: 5514 3 19 Why
: 5519 3 19  do
: 5524 4 16  you
: 5530 6 19  love
: 5539 3 19  me?
* 5544 3 16  It's
* 5550 3 19  driv
* 5554 3 16 ing
* 5559 3 19  me
* 5565 8 23  cra
* 5574 4 21 zy
* 5579 6 19 ~
- 5587
: 5598 5 19 Why
: 5608 7 19  do
: 5618 5 19  you
: 5629 4 19  love
: 5634 4 18 ~
: 5643 6 19  me
: 5650 3 18 ~?
- 5655
: 5678 5 19 Why
: 5688 7 19  do
: 5698 4 19  you
: 5709 3 19  love
: 5713 5 18 ~
: 5723 5 19  me
: 5729 4 18 ~?
- 5735
: 5757 6 19 Why
: 5768 5 19  do
: 5778 6 19  you
: 5788 4 19  love
: 5793 5 18 ~
: 5804 5 19  me
: 5810 4 18 ~?
- 5816
: 5838 5 19 Why
: 5848 7 19  do
: 5858 4 19  you
* 5869 3 19  love
* 5873 5 18 ~
* 5883 4 19  me
* 5888 4 18 ~?
E