#TITLE:Seul
#ARTIST:Garou
#MP3:Garou - Seul.mp3
#COVER:Garou - Seul [CO].jpg
#BACKGROUND:Garou - Seul [BG].jpg
#BPM:212,04
#GAP:10100
#ENCODING:UTF8
: 6 6 62 Tant
: 12 3 62  de
: 15 12 62  fois
: 27 6 62  j'ai
: 35 6 63  ten
: 41 5 62 té
- 48
: 60 5 58 d'a
: 65 3 62 ller
: 68 3 65  tou
: 71 9 65 cher
: 80 13 65  les
: 93 2 65  é
: 95 10 67 toi
: 105 5 65 les
- 112
: 124 3 62 que
: 127 6 65  sou
: 133 9 69 vent
: 142 2 69  en
: 144 2 69  tom
: 146 5 69 bant
- 153
: 161 12 70 je
: 173 2 69  m'y
: 175 12 67  suis
: 187 6 65  fait
: 193 9 65  mal
- 204
: 261 8 62 Tant
: 269 2 62  de
: 271 13 62  fois
: 284 5 62  j'ai
: 289 6 63  pen
: 295 6 62 sé
- 303
: 316 3 58 a
: 319 5 62 voir
: 324 3 65  fran
: 327 9 65 chi
: 336 12 65  les
: 348 5 67  li
: 353 15 65 mites
- 370
: 380 5 62 met
: 385 3 65  tou
: 388 5 69 jours
: 393 5 69  une
: 399 9 69  femme
- 410
: 417 3 69 m'a
: 420 4 70  re
: 424 9 69 mis
: 433 12 67  en
: 445 4 65  or
: 449 6 65 bite
- 457
: 511 2 65 Tant
: 513 2 65  de
: 515 6 67  fois
: 521 4 67  j'ai
: 525 4 67  grim
: 529 9 67 pé
- 540
: 573 4 67 jus
: 577 3 67 qu'au
: 580 5 67  plus
: 585 5 67  haut
: 590 4 67  des
: 594 10 67  cimes
- 606
: 609 3 67 que
: 612 3 67  je
: 615 2 70  me
: 617 5 70  sui
: 622 3 72  re
: 625 4 72 trou
: 629 4 72 vé
- 635
: 640 4 72 seul
: 644 1 72  au
: 645 7 72  fond
: 652 3 70  de
: 655 5 69  l'a
: 660 10 67 bime
- 672
: 674 4 65 seul
: 678 4 70  au
: 682 6 69  fond
: 688 3 67  de
: 691 3 65  l'a
: 694 17 67 bime
- 713
: 752 4 72 Ce
: 756 10 74  lui
: 766 7 77  qui
: 773 8 79  n'a
: 781 4 79  ja
: 785 12 79 mais
: 797 5 79  é
: 802 5 79 té
: 807 8 77  seul
- 817
: 821 8 70 au
: 829 8 70  moins
: 837 6 72  une
: 843 6 72  fois
: 849 11 72  dans
: 860 8 70  sa
: 868 8 72  vi
: 876 5 74 ie
- 883
: 885 9 67 seul
: 894 3 70  au
: 897 9 74  fond
: 906 2 72  de
: 908 5 70  son
: 913 6 70  lit
- 921
: 924 5 70 seul
: 929 7 79  au
: 936 9 77  bout
: 945 11 70  de
: 956 5 72  la
: 961 15 72  nuit
- 978
: 1009 4 72 Ce
: 1013 8 74  lui
: 1021 8 77  qui
: 1029 7 79  n'a
: 1036 4 79  ja
: 1040 13 79 mais
: 1053 5 79  é
: 1058 5 79 té
: 1063 7 77  seul
- 1072
: 1078 6 70 au
: 1084 8 70  moins
: 1092 6 72  une
: 1098 7 72  fois
: 1105 10 72  dans
: 1115 6 70  sa
: 1121 15 74  vie
- 1138
: 1141 8 67 peut
: 1149 5 70  il
: 1154 8 74  seul'
: 1162 4 72 ment
: 1166 3 70  ai
: 1169 5 70 mer
- 1176
: 1180 5 70 peut
: 1185 13 79  il
: 1198 4 77  ai
: 1202 10 70 mer
: 1212 6 72  ja
: 1218 15 72 mais
- 1235
: 1284 9 62 Tant
: 1293 4 62  d'a
: 1297 10 62 mis
: 1307 6 62  sont
: 1313 8 63  par
: 1321 9 62 tis
- 1332
: 1345 3 62 du
: 1348 6 65  jour
: 1354 3 65  au
: 1357 16 65  len
: 1373 5 67 de
: 1378 14 65 main
- 1394
: 1405 3 62 que
: 1408 3 65  je
: 1411 6 69  sais
: 1417 4 69  au
: 1421 7 69 jourd'
: 1428 7 69 hui
- 1436
: 1437 4 69 qu'on
: 1441 12 70  peut
: 1453 4 69  mou
: 1457 13 67 rir
: 1470 2 65  de
: 1472 7 65 main
- 1481
: 1533 4 65 On
: 1537 5 65  a
: 1542 3 67  beau
: 1545 5 67  tout
: 1550 3 67  a
: 1553 15 67  voir
- 1570
: 1595 6 67 l'ar
: 1601 4 67 gent,
: 1605 4 67  l'a
: 1609 5 67 mour,
: 1614 2 67  la
: 1616 10 67  gloire
- 1628
: 1635 2 67 il
: 1637 5 70  ya
: 1642 4 70  tou
: 1646 4 72 jours
: 1650 2 72  un
: 1652 5 72  soir
- 1659
: 1664 2 72 oů
: 1666 3 72  l'on
: 1669 5 72  se
: 1674 4 70  re
: 1679 5 69  trouve
: 1684 9 67  seul
- 1695
: 1697 5 65 seul
: 1702 6 70  au
: 1708 4 69  point
: 1712 2 65  de
: 1714 4 65  dé
: 1718 16 67 part
- 1736
: 1775 6 72 Ce
: 1781 9 74  lui
: 1790 8 77  qui
: 1798 7 79  n'a
: 1805 4 79  ja
: 1809 13 79 mais
: 1822 4 79  é
: 1826 5 79 té
: 1831 10 77  seul
- 1843
: 1846 8 70 au
: 1854 7 70  moins
: 1861 6 72  une
: 1867 7 72  fois
: 1874 10 72  dans
: 1884 5 70  sa
: 1889 9 72  vi
: 1898 8 74 ie
- 1907
: 1909 9 69 seul
: 1918 4 70  au
: 1922 8 74  fond
: 1930 2 72  de
: 1932 6 70  son
: 1938 4 70  lit
- 1944
: 1948 6 70 seul
: 1954 12 79  au
: 1966 4 77  bout
: 1970 11 70  de
: 1981 4 72  la
: 1985 18 72  nuit
- 2005
: 2032 5 72 Ce
: 2037 9 74  lui
: 2046 8 77  qui
: 2054 8 79  n'a
: 2062 4 79  ja
: 2066 12 79 mais
: 2078 4 79  é
: 2082 5 79 té
: 2087 11 77  seul
- 2100
: 2103 7 70 au
: 2110 2 70  moins
: 2112 10 72  une
: 2122 8 72  fois
: 2130 11 72  dans
: 2141 4 70  sa
: 2145 8 72  vi
: 2153 8 74 ie
- 2163
: 2166 8 69 peut
: 2174 5 70  il
: 2179 8 74  seul'
: 2187 3 72 ment
: 2190 4 70  ai
: 2194 4 70 mer
- 2200
: 2205 5 70 peut
: 2210 12 79  il
: 2222 4 77  ai
: 2226 11 70 mer
: 2237 5 72  ja
: 2242 13 72 mais
- 2257
: 2303 3 65 Tant
: 2306 1 65  de
: 2307 5 67  fois
: 2312 6 67  j'ai
: 2318 3 67  é
: 2321 7 67 té
- 2330
: 2365 7 67 Jusqu
: 2372 5 67 ´au
: 2377 4 67  bout
: 2381 3 67  de
: 2384 1 67  mes
: 2385 8 67  reves
- 2395
: 2397 3 67 que
: 2400 4 70  je
: 2404 5 70  con
: 2409 5 72  ti
: 2414 4 72 nue
: 2418 5 72 rai
- 2425
: 2429 4 72 jus
: 2433 3 72  qu'a
: 2436 5 72  ce
: 2441 3 70  que
: 2444 5 69  j'en
: 2449 9 67  creve
- 2460
: 2462 3 67 que
: 2465 4 70  je
: 2469 5 70  con
: 2474 4 72 ti
: 2478 4 72 nue
: 2482 4 72 rai
- 2488
: 2492 5 70 que
: 2497 5 72  je
: 2502 5 74  con
: 2507 7 74 ti
: 2514 4 78 nue
: 2518 22 74 rai
- 2542
: 2544 6 72 Ce
: 2550 8 74  lui
: 2558 8 77  qui
: 2566 7 79  n'a
: 2573 5 79  ja
: 2578 12 79 mais
: 2590 3 79  é
: 2593 6 79 té
: 2599 9 77  seul
- 2610
: 2613 8 70 au
: 2621 8 70  moins
: 2629 6 72  une
: 2635 6 72  fois
: 2641 11 72  dans
: 2652 5 70  sa
: 2657 10 72  vi
: 2667 5 74 ie
- 2674
: 2677 10 67 seul
: 2687 5 70  au
: 2692 7 74  fond
: 2699 1 72  de
: 2700 7 70  son
: 2707 5 70  lit
- 2713
: 2715 6 70 seul
: 2721 13 79  au
: 2734 6 77  bout
: 2742 8 77  de
: 2750 3 74  la
: 2753 75 79  nuit
- 2830
: 2865 5 74 je
: 2870 4 79  con
: 2874 4 77 ti
: 2878 4 74 nue
: 2882 6 74 rai
- 2890
: 2898 3 74 je
: 2901 5 79  con
: 2906 4 77 ti
: 2910 4 74 nue
: 2914 32 74 rai
- 2948
: 3012 4 74 je
: 3016 9 79  con
: 3025 10 77 ti
: 3035 8 74 nue
: 3043 20 74 rai
E