#TITLE:Jesus he knows me
#ARTIST:Genesis
#MP3:Genesis - Jesus he knows me.mp3
#COVER:Genesis - Jesus he knows me [CO].jpg
#BACKGROUND:Genesis - Jesus he knows me [BG].jpg
#BPM:190
#GAP:20040
: 0 3 70 Just
: 3 2 75  see
: 5 2 75  the
: 7 4 75  face
: 11 2 75  on
: 13 2 75  the
: 15 4 75  T
: 19 3 73 V
: 22 8 73  screen,
- 32
: 38 3 73 co
: 41 3 73 ming
: 44 2 73  at
: 46 2 73  you
: 48 2 73  eve
: 50 4 73 ry
: 54 6 75  sun
: 60 6 75 day?
- 67
: 68 2 75 See
: 70 2 75  the
: 72 4 75  face
: 76 2 77  on
: 78 2 75  the
: 80 4 73  bill
: 84 6 73 board.
- 92
: 98 5 75 That
: 103 5 75  man
: 108 2 75  is
: 110 2 75  me
: 112 6 73 ~.
- 120
: 131 2 75 On 
: 133 1 75  a
: 134 5 75  cover
: 139 2 75  of 
: 141 2 75  a
: 143 4 75  ma
: 147 4 73 ga
: 151 8 73 zine,
- 160
: 161 2 70 there큦
: 163 3 70  no
: 166 4 70  ques
: 170 4 70 tion
: 174 4 70  why
: 178 3 73  I'm
: 181 6 75  smi
: 187 6 75 ling.
- 193
: 193 2 75 You
: 195 3 75  buy
: 198 2 75  a
: 200 3 75  piece 
: 203 2 75  of
: 205 4 73  pa
: 209 4 73 ra
: 213 8 73 dise.
- 221
: 222 3 78 You
: 225 4 77  buy
: 229 2 75  a
: 231 3 75  piece
: 234 4 75  of
: 238 8 75  me.
- 247
: 259 2 73 I'll
: 261 3 73  get
: 264 4 73  you
: 268 6 75  every
: 274 3 75 thing
: 277 2 75  you
: 279 4 75  wan
: 283 6 79 ted.
- 290
: 292 2 73 I'll
: 294 4 73  get
: 298 4 73  you
: 302 5 75  every
: 307 3 75 thing
: 310 1 75  you
: 311 8 75  need.
- 320
: 322 2 73 You
: 324 2 73  don't
: 326 4 73  need
: 330 1 73  to
: 331 2 75  be
: 333 5 75 lieve
: 338 2 75  in
: 340 4 75  here
: 344 7 79  after,
- 352
: 353 4 80 Just
: 357 2 80  be
: 359 3 80 lieve
: 362 2 80  in
: 364 4 80  me
: 368 8 79 ~.
- 380
: 390 2 75 Cause
: 392 2 75  Je
: 394 2 75 sus
: 396 2 75  he
: 398 6 75  knows
: 404 4 73  me
- 408
: 409 2 73 And
: 411 2 73  he
: 413 11 78  knows
: 424 6 77  I'm
: 430 8 75  right.
- 440
: 449 3 68 I've
: 452 3 75  been
: 455 2 75  talk
: 457 3 75 ing
: 460 2 75  to
: 462 5 75  Je
: 467 10 73 sus
- 478
: 480 7 78  all
: 487 6 77  my
: 493 2 78  li
: 495 2 77 ~
: 497 10 75 ~fe.
- 509
: 515 6 80 Oh
: 521 4 80  yes
: 525 2 80  he
: 527 4 77  knows
: 531 5 73  me,
- 536
: 538 2 73 and
: 540 2 73  he
: 542 10 78  knows
: 552 6 77  I'm
: 558 2 78  ri
: 560 11 77 ~ght.
- 575
: 579 3 75 And
: 582 6 75  he's
: 588 4 75  been
: 592 4 75  tell
: 596 2 73 ing
: 598 4 73  me
- 602
: 602 5 73 Every
: 607 5 70 thing
: 612 4 73  is
: 616 6 75  all
: 622 12 75 right.
- 635
: 643 2 75 I
: 645 2 75  be
: 647 5 75 lieve
: 652 1 75  in
: 653 2 75  the
: 655 4 73  fa
: 659 8 73 mily
- 668
: 674 3 70 With
: 677 2 70  my
: 679 3 70  ever
: 682 5 70  loving
: 687 4 70  wife
: 691 3 73  be
: 694 5 75 side
: 699 6 75  me.
- 705
: 705 2 75 But
: 707 3 75  she
: 710 2 75  don't
: 712 2 75  know
: 714 1 75  a
: 715 2 77 bout
: 717 2 75  my
: 719 5 73  girl
: 724 7 73 friend,
- 731
: 731 2 70 or
: 733 2 70  the
: 735 4 70  man
: 739 3 73  I
: 742 4 75  met
: 746 5 75  last
: 751 8 75  night.
- 765
: 773 2 75 Do
: 775 4 75  you
: 779 3 75  be
: 782 6 75 lieve
: 788 3 73  in
: 791 8 73  God?
- 800
: 805 2 68 Cause
: 807 4 70  that
: 811 3 68  is
: 814 5 70  what
: 819 3 73  I'm
: 822 4 75  sell
: 826 6 75 ing.
- 832
: 834 2 75 And
: 836 1 75  if
: 837 2 75  you
: 839 2 75  wan
: 841 2 75 na
: 843 3 75  go
: 846 1 77  to
: 847 5 75  hea
: 852 8 73 ven,
- 860
: 860 4 78 Well
: 864 4 77  I
: 868 4 75  see
: 872 4 75  you
: 876 8 75  right.
- 886
: 898 3 73 You
: 901 3 73  won't
: 904 1 73  ev
: 905 2 73 en
: 907 2 73  have
: 909 2 73  to
: 911 4 75  leave
: 915 4 75  your
: 919 6 75  house,
- 927
: 938 1 73 or
: 939 3 73  get
: 942 3 75  out
: 945 2 75  of
: 947 3 75  your
: 950 10 79  chair.
- 962
: 964 2 73 You
: 966 2 73  don't
: 968 2 73  ev
: 970 2 73 en
: 972 2 73  have
: 974 1 73  to
: 975 4 75  touch
: 979 4 75  that
: 983 7 75  dial,
- 992
: 992 3 80 Cause
: 995 3 80  I'm
: 998 6 80  every
: 1004 4 82 whe
: 1008 4 80 ~
: 1012 4 79 ~
: 1016 2 77 ~
: 1018 6 75 re.
- 1025
: 1027 2 75 Cause
: 1029 4 75  Je
: 1033 2 75 sus
: 1035 2 75  he
: 1037 6 75  knows
: 1043 5 73  me,
- 1048
: 1049 2 73 and
: 1051 2 73  he
: 1053 10 78  knows
: 1063 7 77  I'm
: 1070 7 75  right.
- 1078
: 1092 1 75 I've
: 1093 2 75  been
: 1095 2 75  talk
: 1097 2 75 ing
: 1099 2 75  to
: 1101 6 75  Je
: 1107 6 73 sus
: 1119 8 78  all
: 1127 5 77  my
: 1132 4 78  life
: 1136 4 77 ~
: 1140 2 75 ~
: 1142 5 73 ~.
- 1150
: 1152 5 80 Oh
: 1157 5 80  yes
: 1162 4 80  he
: 1166 5 77  knows
: 1171 4 75  me.
- 1176
: 1177 2 73 And
: 1179 2 73  he
: 1181 11 78  knows
: 1192 6 77  I'm
: 1198 8 75  right.
- 1208
: 1222 2 75 but
: 1224 4 75  he's
: 1228 2 75  been
: 1230 4 75  tell
: 1234 4 73 ing
: 1238 7 73  me
- 1244
: 1244 3 73 Every
: 1247 5 73 thing큦
: 1252 4 75  gonna
: 1256 3 75  be
: 1259 4 75  all
: 1263 18 79 right.
- 1283
: 1410 4 79 Won't
: 1414 5 79  find
: 1419 4 79  me
: 1423 4 77  prac
: 1427 4 77 tic
: 1431 6 74 ing
: 1439 8 72  what
: 1447 5 72  I
: 1452 3 70  am
: 1455 9 74  preach
: 1464 8 74 ing.
- 1473
: 1475 4 79 Won't
: 1479 4 79  find
: 1483 4 79  me
: 1487 4 77  mak
: 1491 4 77 ing
: 1495 6 74  no
: 1501 10 72  sac
: 1511 3 70 ri
: 1514 12 67 fice.
- 1530
: 1539 4 79 But
: 1543 4 79  I
: 1547 4 79  can
: 1551 7 77  get
: 1558 5 74  you
: 1563 3 70  a
: 1566 4 72  poc
: 1570 4 72 ket
: 1574 6 72  full
: 1580 3 70  of
: 1583 4 74  mi
: 1587 4 77 ra
: 1591 8 74 cles,
- 1600
: 1603 2 79 If
: 1605 3 79  you
: 1608 2 79  prom
: 1610 4 79 ise
: 1614 2 74  to
: 1616 6 77  be
: 1622 8 74  good,
- 1631
: 1632 3 72  try
: 1635 3 72  to
: 1638 5 70  be
: 1643 11 67  nice.
- 1655
: 1663 4 75 God
: 1667 4 75  will
: 1671 5 75  take
: 1676 4 75  good
: 1680 8 77  care
: 1688 6 79  of
: 1694 4 77  you
: 1698 6 74 ~.
- 1705
: 1723 3 70 Just
: 1726 4 75  do
: 1730 1 75  as
: 1731 3 75  I
: 1734 5 75  say,
: 1739 4 75  don't
: 1743 4 77  do
: 1747 2 77  as
: 1749 8 79  I
: 1757 22 70  do.
- 1780
: 1828 3 75 I'm
: 1831 4 75  counting
: 1835 4 75  my
: 1839 4 75  bless
: 1843 6 73 ings,
- 1850
: 1860 3 73 I've
: 1863 5 73  found
: 1868 2 73  true
: 1870 5 75  hap
: 1875 2 75 pi
: 1877 4 75 ness
: 1881 2 73 ~
: 1883 2 70 ~.
- 1887
: 1893 2 75 Cause
: 1895 2 75  I
: 1897 2 75  am
: 1899 2 75  get
: 1901 2 77 ting
: 1903 4 75  rich
: 1907 4 73 er,
: 1925 4 75  day
: 1929 4 75  by
: 1933 4 75  day
: 1937 4 73 ~.
- 1943
: 1955 2 75 You
: 1957 2 75  can
: 1959 2 75  find
: 1961 3 75  me
: 1964 2 75  in
: 1966 1 77  the
: 1967 4 75  phone
: 1971 6 73  book,
- 1980
: 1986 4 70 just
: 1990 5 70  call
: 1995 4 70  my
: 1999 4 70  toll
: 2003 4 73  free
: 2007 4 75  num
: 2011 6 75 ber.
- 2018
: 2020 1 75 You
: 2021 2 75  can
: 2023 2 75  do
: 2025 2 75  it
: 2027 2 75  an
: 2029 2 77 y
: 2031 4 75 way
: 2035 4 73  you
: 2039 5 73  want,
- 2044
: 2044 3 73 just
: 2047 3 78  do
: 2050 4 77  it
: 2054 4 75  right
: 2058 2 75  a
: 2060 10 75 way.
- 2073
: 2087 3 73 There큞l
: 2090 2 73  be
: 2092 3 73  no
: 2095 3 73  doubt
: 2098 2 75  in
: 2100 2 75  your
: 2102 9 75  mind
- 2112
: 2115 2 73 You
: 2117 2 73  be
: 2119 2 73 lieve
: 2121 4 73  eve
: 2125 2 73 ry
: 2127 4 75 thing
: 2131 3 75  I'm
: 2134 4 75  say
: 2138 6 77 ing
- 2145
: 2148 2 73 If
: 2150 2 73  you
: 2152 1 73  wan
: 2153 2 73 na
: 2155 2 73  get
: 2157 2 75  clos
: 2159 2 75 er
: 2161 4 75  to
: 2165 6 75  him,
- 2173
: 2176 3 80 get
: 2179 2 80  on
: 2181 2 80  your
: 2183 4 80  knees
: 2187 1 80  and
: 2188 9 82  start
: 2197 4 80  pay
: 2201 2 79 ing
: 2203 11 75 ~
- 2214
: 2214 2 75 Cause
: 2216 1 75  Je
: 2217 3 75 sus
: 2220 2 75  he
: 2222 6 75  knows
: 2228 3 73  me,
- 2232
: 2234 2 73 And
: 2236 2 73  he
: 2238 10 78  knows
: 2248 6 77  I'm
: 2254 7 75  right
- 2265
: 2274 2 75 I've
: 2276 2 75  been
: 2278 4 75  talk
: 2282 2 75 ing
: 2284 1 75  to
: 2285 6 75  Je
: 2291 6 73 sus
- 2299
: 2302 9 78  all
: 2311 6 77  my
: 2317 3 78  life
: 2320 4 77 ~
: 2324 8 75 ~.
- 2334
: 2338 3 80 Oh
: 2341 4 80  yes
: 2345 3 80  he
: 2348 7 77  knows
: 2355 4 75  me,
- 2359
: 2360 3 73 and
: 2363 2 73  he
: 2365 11 78  knows
: 2376 6 77  I'm
: 2382 6 75  right.
- 2392
: 2406 1 75 And
: 2407 5 75  he's
: 2412 3 75  been
: 2415 2 75  tell
: 2417 5 73 ing
: 2422 6 73  me
- 2428
: 2428 3 73 Every
: 2431 4 70 thing큦
: 2435 4 73  gonna
: 2439 5 75  be
: 2444 6 75  all
: 2450 8 77 right
- 2462
: 2470 2 75 Cause
: 2472 1 75  Je
: 2473 2 75 sus
: 2475 2 75  he
: 2477 6 75  knows
: 2483 3 73  me,
- 2488
: 2490 2 73 And
: 2492 2 73  he
: 2494 10 78  knows
: 2504 6 77  I'm
: 2510 12 75  right.
- 2526
: 2530 3 75 Oh
: 2533 5 75  yes
: 2538 3 75  he
: 2541 6 75  knows
: 2547 5 73  me,
- 2552
: 2552 3 78 and
: 2555 2 77  he
: 2557 11 78  knows
: 2568 5 77  I'm
: 2573 5 75  right
: 2578 4 73 ~
: 2582 6 71 ~.
- 2591
: 2593 3 75 I've
: 2596 2 75  been
: 2598 4 75  talk
: 2602 2 75 ing
: 2604 1 75  to
: 2605 6 75  Je
: 2611 6 73 sus
- 2622
: 2622 9 78  all
: 2631 6 77  my
: 2637 2 78  life
: 2639 13 77 ~.
- 2655
: 2659 4 80 And
: 2663 4 80  he's
: 2667 3 80  been
: 2670 4 77  tell
: 2674 3 75 ing
: 2677 5 73  me
- 2682
: 2682 5 73 Every
: 2687 5 73 things
: 2692 4 78  gonna 
: 2696 4 77  be
: 2700 7 78  all
: 2707 8 77 right.
- 2720
: 2723 7 75  Je
: 2730 2 75 sus
: 2732 2 75  he
: 2734 6 73  knows
: 2740 6 73  me,
- 2750
: 2756 6 75  Je
: 2762 2 75 sus
: 2764 2 75  he
: 2766 6 73  knows
: 2772 4 73  me,
: 2776 7 73  know
- 2785
: 2787 6 75  Je
: 2793 3 75 sus
: 2796 2 75  he
: 2798 6 73  knows
: 2804 3 73  me,
- 2815
: 2823 3 75  Je
: 2826 2 75 sus
: 2828 2 75  he
: 2830 6 73  knows
: 2836 4 73  me,
: 2840 9 73  know
- 2850
: 2854 4 75  Je
: 2858 2 75 sus
: 2860 2 75  he
: 2862 6 73  knows
: 2868 3 73  me
- 2873
: 2886 3 75  Je
: 2889 2 75 sus
: 2891 2 75  he
: 2893 7 73  knows
: 2900 4 73  me,
: 2904 9 73 know
E
