#TITLE:L'amour Toujours
#ARTIST:Gigi D'agustino
#MP3:L'amour Toujours.mp3
#COVER:L'amour Toujours.jpg
#VIDEO:L'amour Toujours.mpg
#BPM:139
#GAP:55300
: 0 5 62 I 
: 6 5 64 still 
: 12 3 66 be
: 16 5 61 lieve 
: 22 5 62 in  
: 28 3 64 your 
: 32 14 62 eyes
-44  
: 48 5 67 I 
: 54 5 66 just 
: 60 3 67 don`t 
: 64 5 69 care 
-69
: 70 5 67 What 
: 76 3 66 you've 
: 80 5 64 done 
: 86 5 66 in 
: 92 3 69 your 
: 96 12 66 life 
-110
: 112 5 67 Ba
: 118 5 66 by
- 122
: 124 3 64 IÂ´ll 
: 128 5 62 all
: 134 5 64 ways 
: 140 3 66 be 
: 144 5 61 here 
: 150 5 62 by 
: 156 3 64 your 
: 160 14 62 side 
-174
: 176 5 67 Don`t 
: 182 5 66 leave 
: 188 3 67 me 
: 192 5 69 wai
: 198 5 67 ting 
: 204 3 66 too 
: 208 5 64 long 
-212
: 214 5 66 Please 
: 220 3 69 come 
: 224 12 66 by
-234 
: 240 5 67 I, 
: 246 5 66 I, 
: 252 3 64 I, 
: 256 5 62 I 
: 262 5 64 still 
: 268 3 66 be
: 272 5 61 live 
: 278 5 62 in 
: 284 3 64 your 
: 288 14 62 eyes 
-300 
: 304 5 67 There 
: 310 5 66 is 
: 316 3 67 no 
: 320 5 69 choice 
-324
: 326 5 67 I 
: 332 3 66 be
: 336 5 64 long 
: 342 5 66 to 
: 348 3 69 your 
: 352 12 66 life 
-364
: 368 5 67 be
: 374 5 66 cause 
: 380 3 64 I 
-383
: 384 5 62 I 
: 390 5 64 will 
: 396 3 66 to 
: 400 5 61 love 
: 406 5 62 you 
: 412 3 64 some
: 416 14 62 day 
-428 
: 432 5 67 You`ll 
: 438 5 66 be 
: 444 3 67 my 
: 448 5 69 ba
: 454 5 67 by
-458 
: 460 3 66 And 
: 464 5 64 we`ll 
: 470 5 66 fly 
: 476 3 69 a
: 480 12 66 way
-491 
: 493 3 62 And 
: 496 5 67 I 
: 502 5 66 fly 
: 508 3 64 with 
: 512 16 62 you-
: 528 16 61 u-
: 544 14 59 u 
- 556
: 560 6 67 I`ll 
: 566 6 66 fly 
: 572 4 64 with 
: 576 16 62 you-
: 592 17 64 u-
: 608 15 66 u 
-620
: 624 7 67 I'll 
: 630 6 66 fly 
: 636 5 67 with 
: 640 63 69 you... 
-720 800
: 960 5 62 E
: 966 5 64 very 
: 972 3 66 day 
: 976 5 61 and 
: 982 5 62 e
: 988 3 64 very 
: 992 14 62 night 
-1004
: 1008 5 67 I 
: 1014 5 66 all
: 1020 3 67 ways 
: 1024 5 69 dream 
: 1030 5 67 that 
-1035
: 1036 3 66 You 
: 1040 5 64 are 
: 1046 5 66 by 
: 1052 3 69 my 
: 1056 12 66 side
-1068 
: 1072 5 67 Oh 
: 1078 5 66 ba
: 1084 3 64 by
-1087 
: 1088 5 62 E
: 1094 5 64 very 
: 1100 3 66 day 
: 1104 5 61 and 
: 1110 5 62 e
: 1116 3 64 very 
: 1120 14 62 night
-1132 
: 1136 5 67 Will 
: 1142 5 66 les
: 1148 3 67 son
-1151
: 1152 5 69 E
: 1158 5 67 very
: 1164 3 66 thing 
: 1168 2 64 gon
: 1171 3 64 na 
: 1174 5 66 be 
: 1180 3 69 all 
: 1184 12 66 right
-1195
: 1197 3 62 And 
: 1200 5 67 I`ll 
: 1206 5 66 fly 
: 1212 3 64 with 
: 1216 16 62 you-
: 1232 16 61 u-
: 1248 14 59 u 
-1262 
: 1264 6 67 I`ll 
: 1270 6 66 fly 
: 1276 4 64 with 
: 1280 16 62 you-
: 1296 17 64 u-
: 1312 15 66 u 
-1324
: 1328 7 67 I`ll 
: 1334 6 66 fly 
: 1340 5 67 with 
: 1344 64 69 you... 
E
