#TITLE:Casanova (Andorra 2008)
#ARTIST:Gisela
#LANGUAGE:English
#EDITION:Ultrastar Eurovision Edition Vol.1
#GENRE:Pop
#MP3:Gisela - Casanova (Andorra 2008).mp3
#COVER:Gisela - Casanova (Andorra 2008) [CO].jpg
#BACKGROUND:Gisela - Casanova (Andorra 2008) [BG].jpg
#VIDEO:Gisela - Casanova (Andorra 2008) [VD#0].avi
#BPM:131,1
#GAP:860
: 0 3 19 Oh, 
: 4 3 20 Ca
: 8 3 22 sa
: 12 3 22 no
: 15 2 20 - 
: 17 2 20 va, 
: 27 3 22 no
: 30 2 20 - 
: 32 2 20 va, 
: 42 3 22 no
: 45 2 20 - 
: 47 2 20 va, 
- 51
: 70 1 13 A 
: 72 5 18 thou
: 78 1 13 sand 
: 80 3 18 stars 
- 84
: 86 1 13 Were 
: 88 2 18 shi
: 90 1 18 ning 
: 91 2 20 their 
: 94 2 22 light 
- 97
: 97 3 20 In 
: 101 1 18 the 
: 103 5 17 ni
: 108 1 15 ght 
: 110 10 15 skies, 
- 122
: 133 2 20 You 
: 139 1 15 and 
: 141 2 20 me, 
- 144
: 146 1 15 A 
: 148 2 20 ma
: 150 1 20 gi
: 152 1 22 cal 
: 154 3 23 mo
: 158 2 22 me
: 160 2 20 nt 
: 164 2 18 in 
: 167 1 20 your 
: 169 2 15 e
: 171 5 17 yes, 
- 178
: 194 2 18 Lost 
: 200 1 13 in 
: 202 2 18 love, 
- 205
: 207 1 13 I 
: 209 2 18 wai
: 211 1 18 ted 
: 213 1 20 a 
: 215 2 22 life
: 218 2 20 time 
: 222 1 18 to 
* 224 5 17 fi
: 229 2 15 nd 
: 232 8 15 you, 
- 242
: 253 1 15 The 
: 255 2 20 stars 
: 260 1 15 a
: 262 2 20 bove 
- 268
: 268 1 15 Were 
: 270 2 20 bur
: 272 1 20 ning 
: 274 1 22 so 
: 276 3 23 bright 
: 280 2 22 to 
: 283 2 20 re
: 285 4 18 mi
: 289 1 20 nd 
: 291 2 15 yo
: 293 11 17 u, 
- 306
: 315 2 18 Boom, 
: 319 2 18 boom, 
: 323 2 18 boom, 
- 326
: 327 1 18 My 
: 329 2 22 heart 
: 332 2 20 sti
: 334 1 18 ll 
: 336 1 18 goes 
: 338 2 22 cra
: 340 2 20 - 
: 342 2 20 z
: 344 1 18 y 
- 346
: 346 3 18 When 
: 350 2 18 I 
: 353 3 18 think 
: 357 1 22 of 
* 359 7 22 yo
: 366 1 23 - 
: 367 1 22 - 
: 368 8 20 u, 
- 380
: 380 3 19 Oh, 
: 384 3 20 Ca
: 388 3 22 sa
: 392 3 22 no
: 395 2 20 - 
: 397 2 20 va, 
- 400
: 401 1 20 I 
: 403 1 20 feel 
: 405 2 25 love 
: 409 2 24 would 
: 412 2 22 last 
: 416 3 20 fo
: 420 7 22 re
: 427 2 20 ver, 
- 430
: 431 1 20 Let 
: 433 1 20 me 
: 435 3 25 al
: 439 2 24 ways 
: 443 2 22 sta
: 445 1 20 y 
: 447 2 20 to
: 450 8 22 get
: 458 1 20 her, 
- 460
: 462 1 20 Can 
: 464 1 20 you 
: 466 3 25 feel 
: 470 2 24 it 
: 473 2 22 i
: 475 1 20 n 
: 477 1 20 yo
: 479 1 22 ur 
: 481 1 20 he
: 482 10 22 art?
- 494
: 502 2 19 Oh, 
: 505 3 20 Ca
: 509 3 22 sa
: 513 4 22 no
: 517 2 20 - 
: 519 2 20 va, 
- 522
: 522 2 20 In 
: 524 1 20 a 
* 526 3 25 fai
: 530 3 24 ry 
: 534 2 22 ta
: 536 1 20 le 
: 538 2 20 I've 
: 542 5 22 found 
: 549 2 20 you, 
- 552
: 553 1 20 I'm 
: 555 1 20 a
: 557 3 25 live 
: 561 2 24 when 
: 564 2 22 I
: 566 1 20 'm 
: 568 3 20 a
: 572 6 22 round 
: 579 2 20 you, 
- 582
: 583 1 20 I 
: 585 1 20 can't 
: 587 3 25 live 
: 591 3 24 if 
: 595 2 22 we
: 597 1 20 're 
: 599 1 20 a
: 600 2 22 - 
: 602 2 20 pa
: 604 8 22 rt, 
- 614
: 633 1 13 I 
: 635 3 18 sing 
: 640 1 13 a 
: 642 3 18 song, 
- 646
: 648 1 13 And 
: 650 1 18 bring 
: 652 1 18 back 
: 654 1 20 the 
: 657 1 22 past 
- 659
: 659 3 20 To 
: 663 2 18 re
: 665 5 17 mi
: 670 2 15 nd 
: 673 9 15 me, 
- 684
: 695 3 20 Now 
* 701 1 15 you're 
: 703 2 20 gone, 
- 709
: 709 1 15 No 
: 711 1 20 lon
: 713 3 22 ger 
: 717 2 23 good 
: 720 3 22 times 
: 724 1 20 be
: 726 3 18 hi
: 729 1 20 nd 
: 731 2 15 m
: 733 7 17 e, 
- 742
: 756 2 18 Boom, 
: 760 2 18 boom, 
: 764 2 18 boom, 
- 767
: 768 1 18 My 
: 770 2 22 heart 
: 773 2 20 sti
: 775 1 18 ll 
: 777 1 18 goes 
: 779 2 22 cra
: 781 2 20 - 
: 783 2 20 z
: 785 1 18 y 
- 787
: 787 3 18 When 
: 791 2 18 I 
: 794 3 18 think 
: 798 1 22 of 
* 800 7 22 yo
: 807 1 23 - 
: 808 1 22 - 
: 809 8 20 u, 
- 821
: 821 3 19 Oh, 
: 825 3 20 Ca
: 829 3 22 sa
: 833 3 22 no
: 836 2 20 - 
: 838 2 20 va, 
- 841
: 842 1 20 I 
: 844 1 20 feel 
: 846 2 25 love 
: 850 2 24 would 
: 853 2 22 last 
: 857 3 20 fo
: 861 7 22 re
: 868 2 20 ver, 
- 871
: 872 1 20 Let 
: 874 1 20 me 
: 876 3 25 al
: 880 2 24 ways 
: 884 2 22 sta
: 886 1 20 y 
: 888 2 20 to
: 891 8 22 get
: 899 1 20 her, 
- 901
: 903 1 20 Can 
: 905 1 20 you 
: 907 3 25 feel 
: 911 2 24 it 
: 914 2 22 i
: 916 1 20 n 
: 918 1 20 yo
: 920 1 22 ur 
: 922 1 20 he
: 923 10 22 art?
- 935
: 943 2 19 Oh, 
: 946 3 20 Ca
: 950 3 22 sa
: 954 4 22 no
: 958 2 20 - 
: 960 2 20 va, 
- 963
: 963 2 20 In 
: 965 1 20 a 
: 967 3 25 fai
: 971 3 24 ry 
: 975 2 22 ta
: 977 1 20 le 
: 979 2 20 I've 
: 983 5 22 found 
: 990 2 20 you, 
- 993
: 994 1 20 I'm 
: 996 1 20 a
* 998 3 25 live 
: 1002 2 24 when 
: 1005 2 22 I
: 1007 1 20 'm 
: 1009 3 20 a
: 1013 6 22 round 
: 1020 2 20 you, 
- 1023
: 1024 1 20 I 
: 1026 1 20 can't 
: 1028 3 25 live 
: 1032 3 24 if 
: 1036 2 22 we
: 1038 1 20 're 
: 1040 1 20 a
: 1041 2 22 - 
: 1043 2 20 pa
: 1045 8 22 rt, 
- 1055
: 1081 1 24 Vull 
: 1083 1 24 es
: 1085 3 24 col
* 1089 3 25 ta
: 1093 2 24 r 
: 1096 3 22 tu 
: 1100 1 22 m'
: 1102 2 24 es
: 1106 3 22 ti
: 1109 1 24 - 
: 1111 8 20 mes, 
- 1121
: 1142 1 20 I 
: 1144 1 20 want 
: 1146 3 20 to 
: 1150 2 20 dre
: 1152 1 17 am 
: 1154 2 17 this 
: 1158 2 20 dream 
: 1161 3 24 wi
: 1164 2 22 th 
: 1167 13 22 you, 
- 1182
: 1186 3 19 Oh, 
: 1190 3 20 Ca
: 1194 3 22 sa
: 1198 3 22 no
: 1201 2 20 - 
: 1203 2 20 va, 
- 1206
: 1207 1 20 I 
: 1209 1 20 feel 
: 1211 2 25 love 
: 1215 2 24 would 
* 1218 2 27 last 
: 1222 3 24 fo
: 1226 7 22 re
: 1233 2 20 ver, 
- 1236
: 1237 1 20 Let 
: 1239 1 20 me 
: 1241 3 25 al
: 1245 2 24 ways 
: 1249 2 22 sta
: 1251 1 20 y 
: 1253 2 20 to
: 1256 7 22 get
: 1264 1 20 her, 
- 1266
: 1268 1 20 Can 
: 1270 1 20 you 
: 1272 3 25 feel 
: 1276 2 24 it 
: 1279 2 22 i
: 1281 1 20 n 
: 1283 1 20 yo
: 1285 1 22 ur 
: 1287 1 20 he
: 1288 7 22 art?
- 1296
: 1298 2 19 A
: 1300 1 17 - 
: 1301 1 19 - 
: 1302 1 17 - 
: 1303 2 15 h, 
- 1306
: 1308 2 19 Oh, 
: 1311 3 20 Ca
: 1315 3 22 sa
: 1319 3 22 no
: 1322 2 20 - 
: 1324 2 20 va, 
- 1327
: 1328 2 20 In 
: 1330 1 20 a 
* 1332 3 25 fai
: 1336 3 24 ry 
: 1340 2 22 ta
: 1342 1 20 le 
: 1344 2 20 I've 
: 1348 5 22 found 
: 1355 2 20 you, 
- 1358
: 1359 1 20 I'm 
: 1361 1 20 a
: 1363 3 25 live 
: 1367 2 24 when 
: 1370 2 22 I
: 1372 1 20 'm 
: 1374 3 20 a
: 1378 6 22 round 
: 1385 2 20 you, 
- 1388
: 1389 1 20 I 
: 1391 1 20 can't 
: 1393 3 25 live 
: 1397 3 24 if 
: 1401 2 22 we
: 1403 1 20 're 
: 1405 1 20 a
: 1406 2 22 - 
: 1408 2 20 pa
: 1410 9 22 rt, 
- 1421
: 1429 3 19 Oh, 
: 1433 3 20 Ca
: 1437 3 22 sa
: 1441 2 22 no
: 1443 1 24 - 
: 1444 2 22 - 
: 1446 2 20 va
E
