#TITLE:The Sound Of San Francisco
#ARTIST:Global Deejays feat. Johnny Hallyday
#MP3:Global Deejays - San Francisco (Feat. Johnny Hallyday).mp3
#VIDEO:Global Deejays - San Francisco (Feat. Johnny Hallyday).mp4
#COVER:Global Deejays - San Francisco (Feat. Johnny Hallyday).jpg
#BPM:264,58
#GAP:5590
#ENCODING:UTF8
#LANGUAGE:Francais
#GENRE:Dance
#YEAR:2004
: 0 4 6 Glo
: 6 3 6 bal
: 12 4 9  Dee
: 19 5 6 jeys
- 59
: 286 2 9 Pa
: 290 3 6 ris
- 303
: 318 3 9 Lon
: 322 3 6 don
- 335
: 347 2 6 L.
: 350 6 9 A.
- 366
: 379 2 6 Chi
: 383 2 9 ca
: 387 4 6 go
- 401
: 414 3 9 To
: 418 2 6 ky
: 421 4 6 o
- 435
: 446 3 9 Bag
: 452 7 9 dad
- 469
: 478 2 6 New
: 482 5 9  York
- 497
: 511 2 9 Hear
: 515 2 6  the
: 519 2 6  Glo
: 523 2 6 bal
: 527 3 9  Dee
: 532 3 6 jays
- 541
: 543 3 9 Mos
: 549 4 6 kow
- 563
: 575 3 9 Mem
: 580 3 6 phis
- 593
: 607 4 9 Cape
: 614 5 9  Town
- 629
: 638 3 9 Dal
: 642 3 6 las
- 655
: 670 3 9 Am
: 675 2 6 ster
: 678 3 6 dam
- 691
: 702 3 9 Bos
: 707 3 6 ton
- 720
: 730 2 6 Ber
: 734 5 9 lin
- 749
: 766 3 9 San
: 774 4 9  Fran
: 782 3 9 cis
: 788 4 6 co
- 802
: 812 5 8 Si
: 820 5 8  vous
: 829 4 17  al
: 835 17 17 lez
- 855
: 857 2 17 à
: 862 10 15  San
: 877 9 15  Fran
: 893 3 12 cis
: 899 19 10 co
- 928
: 939 3 8 vous
: 945 4 8  y
: 953 2 8  ver
* 958 18 17  rez
- 982
: 984 3 17 des
: 989 5 15  gens
: 999 4 17  que
: 1005 2 15  j'ai
: 1010 8 12 me
* 1022 22 10  bien
- 1054
: 1070 2 8 Que
: 1075 3 9  les
: 1081 3 8  hip
* 1086 4 15 pi
: 1092 11 12 es
- 1109
: 1112 2 12 de
: 1117 11 8  San
: 1134 10 8  Fran
: 1149 3 5 cis
: 1155 14 3 co
- 1179
: 1198 3 8 Vous
: 1203 3 8  don
: 1209 2 10 ne
: 1214 3 10 rons
: 1218 9 12  tout
- 1238
: 1242 5 17 ce
: 1251 3 15  qu'
: 1258 3 17  il
: 1263 3 15  ont
: 1269 6 12  pour
* 1278 24 10  rien
- 1312
: 1326 3 8 Que
: 1330 2 10  les
: 1334 3 8  hip
: 1342 3 15  pies
: 1346 4 12 ~
: 1354 5 12 ~
: 1366 2 12 ~
: 1370 2 12 ~
: 1374 2 10 ~
: 1378 2 10 ~
: 1382 3 12 ~
- 1388
: 1390 4 8 le
: 1398 4 8  long
: 1406 3 15  des
: 1410 3 12  rue
: 1418 3 12 ~
: 1426 3 12 ~
: 1434 2 12 ~
: 1438 2 10 ~
: 1442 2 10 ~
: 1446 3 12 ~s
- 1451
: 1453 3 8 Que
: 1457 2 10  les
: 1462 3 8  hip
: 1470 3 15  pies
: 1474 3 12 ~
: 1481 3 12 ~
: 1493 2 12 ~
: 1497 2 12 ~
: 1501 2 10 ~
: 1505 2 10 ~
: 1509 3 12 ~
- 1516
: 1518 3 8 le
: 1526 3 8  long
: 1534 3 15  des
: 1538 3 12  rues
: 1545 3 12 ~
: 1553 3 12 ~
: 1561 2 12 ~
: 1565 2 10 ~
: 1569 2 10 ~
: 1573 3 12 ~
- 1579
: 1581 3 8 Que
: 1585 2 10  les
: 1589 3 8  hip
: 1597 3 15  pies
: 1601 3 12 ~
: 1609 3 12 ~
: 1621 2 12 ~
: 1625 2 12 ~
: 1629 2 10 ~
: 1633 2 10 ~
: 1637 3 12 ~
- 1643
: 1645 4 8 Le
: 1653 4 8  long
: 1661 3 15  des
: 1665 3 12  rues
: 1673 3 12 ~
: 1681 3 12 ~
: 1689 2 12 ~
: 1693 2 10 ~
: 1697 2 10 ~
: 1701 3 12 ~
- 1707
: 1709 3 8 Que
: 1713 2 10  les
: 1717 3 8  hip
: 1725 3 15  pies
: 1729 3 12 ~
: 1737 3 12 ~
: 1749 2 12 ~
: 1753 2 12 ~
: 1757 2 10 ~
: 1761 2 10 ~
: 1765 3 12 ~
- 1771
: 1773 4 8 Le
: 1781 4 8  long
: 1789 3 15  des
: 1793 14 12 rues
- 1814
: 1817 2 10 de
: 1821 12 8  San
: 1838 11 8  Fran
: 1853 3 5 cis
* 1858 19 3 co
- 1894
: 1918 2 9 Pa
: 1921 2 6 ris
- 1933
: 1949 3 9 Lon
: 1953 3 6 don
- 1966
: 1978 2 6 L.
: 1981 6 9 A.
- 1997
: 2009 2 6 Chi
: 2013 2 9 ca
: 2017 4 6 go
- 2031
: 2045 3 9 To
: 2049 2 6 ky
: 2052 4 6 o
- 2066
: 2077 3 9 Bag
: 2083 7 9 dad
- 2100
: 2109 2 6 New
: 2113 5 9  York
- 2128
: 2142 2 9 Hear
: 2146 2 6  the
: 2150 2 6  Glo
: 2154 2 6 bal
: 2158 3 9  Dee
: 2163 3 6 jays
- 2172
: 2174 3 9 Mos
: 2180 4 6 kow
- 2194
: 2206 3 9 Mem
: 2211 3 6 phis
- 2224
: 2238 4 9 Cape
: 2245 5 9  Town
- 2260
: 2269 3 9 Dal
: 2273 3 6 las
- 2286
: 2301 3 9 Am
: 2306 2 6 ster
: 2309 3 6 dam
- 2322
: 2333 3 9 Bos
: 2338 3 6 ton
- 2351
: 2361 2 6 Ber
: 2365 4 9 lin
- 2379
: 2397 3 9 San
: 2405 4 9  Fran
: 2413 3 9 cis
: 2419 4 6 co
- 2433
: 2444 5 8 Si
: 2452 5 8  vous
: 2460 4 17  al
: 2466 17 17 ler
- 2486
: 2488 2 17 à
: 2493 10 15  San
: 2508 9 15  Fran
: 2524 3 12 cis
: 2530 19 10 co
- 2559
: 2570 3 8 Vous
: 2576 4 8  y
: 2584 2 8  ver
* 2589 18 17  ez
- 2613
: 2615 3 17 des
: 2620 5 15  gens
: 2630 4 17  que
: 2636 2 15  j'ai
: 2641 8 12  me
: 2653 22 10  bien
- 2685
: 2701 2 8 Que
: 2706 3 10  les
: 2712 3 8  hip
* 2717 4 15  pies
: 2723 11 12 ~
- 2740
: 2743 2 12 de
: 2748 11 8  San
: 2765 10 8  Fran
: 2780 3 5 cis
: 2786 14 3 co
- 2810
: 2829 3 8 vous
: 2834 3 8  do
: 2840 3 10 ner
: 2845 3 10  ons
* 2849 11 12 ~
- 2869
: 2873 5 17 tous
: 2882 3 15  ce
: 2889 3 17  qu'
: 2894 3 15  il
: 2900 4 12  ont
- 2904
: 2906 3 17 po
: 2912 4 15 ur
: 2919 3 17  ri
: 2924 4 15  e
: 2930 5 12 n
- 2935
: 2937 4 17 po
: 2945 4 15 ur
: 2951 3 17  ri
: 2956 4 15 e
: 2962 5 12 n
- 2984
: 3020 3 8 Que
: 3024 2 10  les
: 3028 3 8  hip
: 3036 3 15  pies
: 3040 4 12 ~
: 3048 5 12 ~
: 3060 2 12 ~
: 3064 2 12 ~
: 3068 2 10 ~
: 3072 2 10 ~
: 3076 3 12 ~
- 3082
: 3084 4 8 le
: 3092 4 8  long
: 3100 3 15  des
: 3105 3 12  rues
: 3112 3 12 ~
: 3120 3 12 ~
: 3128 2 12 ~
: 3132 2 10 ~
: 3136 2 10 ~
: 3140 3 12 ~
- 3146
: 3148 3 8 Que
: 3152 2 10  les
: 3156 3 8  hip
: 3164 3 15 pies
: 3168 3 12 ~
: 3176 3 12 ~
: 3188 2 12 ~
: 3192 2 12 ~
: 3196 2 10 ~
: 3200 2 10 ~
: 3204 3 12 ~
- 3211
: 3213 3 8 le
: 3220 3 8  long
: 3228 3 15  des
: 3232 3 12  rues
: 3240 3 12 ~
: 3248 3 12 ~
: 3256 2 12 ~
: 3260 2 10 ~
: 3264 2 10 ~
: 3268 3 12 ~
- 3274
: 3276 3 8 que
: 3280 2 10  les
: 3284 3 8  hip
: 3292 3 15  pies
: 3297 3 12 ~
: 3304 3 12 ~
: 3316 2 12 ~
: 3320 2 12 ~
: 3324 2 10 ~
: 3328 2 10 ~
: 3332 3 12 ~
- 3338
: 3340 4 8 le
: 3348 4 8  long
: 3356 3 15  des
: 3360 3 12  rues
: 3368 3 12 ~
: 3376 3 12 ~
: 3384 2 12 ~
: 3388 2 10 ~
: 3392 2 10 ~
: 3396 3 12 ~
- 3402
: 3404 3 8 Que
: 3408 2 10  les
: 3412 3 8  hip
: 3420 3 15  pies
: 3424 3 12 ~
: 3432 3 12 ~
: 3444 2 12 ~
: 3448 2 12 ~
: 3452 2 10 ~
: 3456 2 10 ~
: 3460 3 12 ~
- 3466
: 3468 4 8 le
: 3476 4 8  long
: 3484 3 15  des
: 3488 14 12  rues
- 3509
: 3512 2 10 de
: 3516 12 8  San
: 3533 11 8  Fran
: 3548 3 5 cis
* 3553 19 3 co
- 3578
: 3580 5 9 San
: 3588 5 9  Fran
: 3596 3 9 cis
: 3602 4 4 co
E