#TITLE:Laissez-nous chanter
#ARTIST:Gold
#MP3:Gold - Laissez-nous chanter.mp3
#VIDEO:Gold - Laissez-nous chanter.mp4
#COVER:Gold - Laissez-nous chanter.jpg
#BPM:243.73
#GAP:16247
#ENCODING:UTF8
#LANGUAGE:French
#GENRE:Pop
#YEAR:1987
#CREATOR:mustangfred and thoun
: 0 1 2 D'ac
: 3 3 4 cord
: 8 3 6  pour
: 12 14 4  les
: 31 6 6  cris
* 39 2 4  d'an
* 44 3 4 gois
* 48 2 2 ~
* 53 1 2 se
- 64
: 79 3 2 Qui
: 83 3 1  vous
: 87 2 2  ont
* 91 2 2  fait
* 94 5 4 ~
: 104 2 -1  pleu
: 107 6 -3 rer
- 122
: 126 3 2 Con
: 131 1 4 tre
: 134 4 6  la
* 139 17 4  mort
: 159 7 6  qui
: 168 2 4  me
: 171 3 4 na
: 175 3 2 ~
: 180 2 2 ce
- 192
: 207 2 2 Nous
: 210 4 2  som
: 215 2 2 mes
: 219 2 2  a
: 222 5 2  vos
* 230 3 6  cô
* 235 5 6 tés
- 251
: 255 2 1 Mais
: 258 4 -1  n'al
: 263 1 -3 lez
: 267 1 -3  pas
: 269 7 -1 ~
: 279 2 -3  je
: 283 10 1 ter
: 294 3 1  la
: 300 2 -1  pier
: 303 3 -3 ~
: 307 3 -3 re
- 319
: 323 2 -3 Si
: 327 1 -1  vous
: 331 3 1  cro
: 335 2 2 yez
: 339 1 1  que
: 343 2 -1  cer
: 348 4 -3 tains
- 361
: 364 2 -3 Vous
: 367 2 -1  ont
: 371 2 1  of
: 375 2 -1 fen
: 379 5 1 sés
- 385
: 387 2 1 Car
: 391 2 -1  ceux
: 395 2 -3  qui
: 399 6 -1  dé
: 407 4 -3 non
: 415 2 1 cent
: 419 6 1  vos
: 427 3 -1  guer
: 431 3 -3 ~
: 435 3 -3 res
- 447
: 451 1 -3 Sont
: 455 1 -1  ceux
: 458 2 1  qui
: 462 7 2  tom
: 471 2 1 bent
: 474 4 -1  les
: 479 5 -3 ~
: 487 2 -3  pre
: 491 11 -3 miers
- 534
: 606 2 2 Le
: 611 2 4  temps
: 614 3 6  ve
: 618 16 4 nu
* 638 7 6  so
* 646 3 4 li
* 651 3 4 dai
* 655 5 2 ~
* 661 3 2 re
- 674
: 687 1 2 Nous
: 690 3 1  se
: 694 2 2 rons
: 698 6 4  des
: 706 5 -3  mil
: 713 6 -3 liers
- 731
: 735 2 2 Au
: 738 3 4  pied
: 743 2 6  des
: 747 16 4  mats
* 767 7 6  so
: 775 1 4 li
: 778 5 4 tai
: 784 5 2 ~
: 790 3 2 res
- 803
: 815 2 2 De
: 818 3 2  vos
: 822 3 2  ban
: 827 5 2 nieres
: 834 2 2  é
: 838 3 6 toi
: 842 10 6 lées
- 859
: 862 3 1 Mais
: 866 3 -1  de
: 870 3 -3 vant
: 874 2 -3  les
: 877 5 -1 ~
: 886 5 -3  champs
: 894 3 1  de
: 898 7 1  vos
: 907 2 -1  rui
: 910 3 -3 ~
: 914 2 -3 nes
- 926
: 930 2 -3 Il
: 934 2 -1  fau
: 938 2 1 dra
: 942 3 2  bien
: 946 4 1  dire
: 951 2 -1  un
: 955 6 -3  jour
- 964
: 966 2 -3 Oů
: 969 4 -3  est
: 974 2 -1  la
: 978 3 1  vé
: 982 1 -1 ri
: 986 4 1 té
- 992
: 994 2 1 En
: 998 2 -1 tre
: 1002 2 -3  vos
: 1006 6 -1  or
: 1014 4 -3 gues
: 1022 5 1  de
: 1030 3 1  Sta
: 1034 4 -1 li
: 1039 2 -3 ~
: 1042 2 -3 ne
- 1054
: 1058 3 -3 Et
: 1062 1 -1  nos
* 1066 2 1  gui
* 1070 7 2 tares
: 1078 6 1  en
: 1086 3 -1  li
: 1090 3 -3 ~
: 1094 2 -3 ber
: 1098 10 -3 té
- 1118
: 1134 4 5 Lais
: 1142 2 4 sez-
: 1146 8 2 nous
: 1157 3 9  chan
: 1162 16 10 ter
- 1184
: 1186 2 10 Le
: 1190 2 9  peu
: 1194 10 10  d'a
: 1205 6 9 mour
: 1214 3 7  qui
: 1218 1 5 ~
: 1222 3 9  nous
: 1226 14 9  reste
: 1241 4 7 ~
- 1257
: 1261 6 5 Sous
: 1270 2 5  nos
: 1274 6 7  ai
: 1281 2 9 les
: 1285 2 10  d'a
: 1290 11 5 cier
- 1307
: 1310 13 3 Oh
: 1326 4 2  lais
: 1334 2 2 sez-
: 1337 5 0 nous
: 1350 1 -2  chan
: 1354 17 0 ter
- 1381
: 1390 4 5 Lais
: 1398 2 4 sez-
: 1401 10 2 nous
: 1413 3 9  rę
: 1417 3 9 ver
: 1421 13 10 ~
- 1440
: 1442 2 10 Et
: 1446 2 9  s'il
: 1449 2 9  nous
: 1452 7 10 ~
: 1461 4 9  faut
: 1469 3 7  fai
: 1473 3 5 re
: 1477 2 7  un
: 1482 14 9  geste
: 1497 3 7 ~
- 1510
: 1514 1 -2 C'est
: 1517 7 7  ŕ
: 1525 2 7  nous
: 1529 6 9  de
* 1536 2 10  dé
* 1541 2 12 ci
: 1545 12 5 der
- 1563
: 1565 14 3 Mais
: 1581 2 2  lais
: 1590 2 2 sez-
: 1593 6 0 nous
* 1604 3 5  chan
* 1609 23 7 ter
- 1664
: 1885 2 2 Vous
: 1889 3 4  au
: 1893 3 6 rez
: 1897 14 4  le
* 1917 6 6  choix
: 1925 3 4  des
: 1929 3 4  lar
: 1933 3 2 ~
: 1937 5 2 mes
- 1952
: 1965 2 1 Et
: 1969 2 1  des
: 1972 3 2  mots
: 1977 4 4  dé
: 1983 3 -3 chi
: 1987 4 -1 ~
: 1993 6 -3 rés
- 2008
: 2012 2 2 Aus
: 2017 1 4 si
: 2020 3 6  long
: 2025 14 4 temps
* 2044 7 6  que
: 2053 2 4  vos
: 2057 3 4  ar
: 2061 3 2 ~
: 2065 3 2 mes
- 2078
: 2093 2 2 Con
: 2096 3 2 ti
: 2100 3 2 nue
: 2104 5 2 ront
: 2112 1 2  de
* 2116 4 6  par
* 2121 6 6 ler
- 2136
: 2140 3 1 Mais
: 2144 3 -1  n'al
: 2148 1 -3 lez
: 2152 1 -3  pas
: 2154 7 -1 ~
: 2165 2 -3  je
: 2169 10 1 ter
: 2180 2 1  la
: 2185 3 -1  pier
: 2189 3 -3 ~
: 2193 2 -3 re
- 2205
: 2209 2 -3 Si
: 2212 1 -1  vous
: 2216 4 1  cro
: 2221 2 2 yez
: 2225 1 1  que
: 2229 2 -1  cer
: 2233 4 -3 tains
- 2246
: 2249 3 -3 Vous
: 2253 2 -1  ont
: 2257 2 1  of
: 2261 2 -1 fen
: 2265 1 -1 sés
: 2267 3 1 ~
- 2271
: 2273 2 1 Car
: 2277 2 -1  ceux
: 2281 1 -3  qui
: 2285 6 -1  chan
: 2292 3 -3 tent
: 2297 1 -3  nos
: 2299 6 1 ~
: 2308 3 4  pri
: 2312 1 1 č
: 2314 2 -1 ~
: 2317 2 -3 ~
: 2320 4 -3 res
- 2333
: 2337 1 -3 Sont
: 2341 2 -1  ceux
: 2345 2 1  qui
: 2348 8 2  don
: 2357 2 1 nent
: 2361 3 -1  les
: 2365 5 -3 ~
: 2373 2 -3  pre
: 2376 19 -3 miers
: 2396 1 -8 ~
- 2409
: 2413 4 5 Lais
: 2420 3 4 sez-
: 2424 9 2 nous
: 2436 3 9  chan
: 2441 2 9 ter
: 2444 13 10 ~
- 2463
: 2465 2 10 Le
: 2469 2 9  peu
: 2472 3 9  d'a
: 2476 7 10 ~
: 2484 5 9 mour
: 2492 3 7  qui
: 2496 2 5 ~
: 2500 3 9  nous
: 2505 14 9  reste
: 2520 3 7 ~
- 2533
: 2540 7 5 Sous
: 2548 2 5  nos
: 2552 7 7  ai
: 2560 2 9 les
: 2564 2 10  d'a
: 2569 11 5 cier
- 2586
: 2588 14 3 Oh
: 2604 5 2  lais
: 2612 3 2 sez-
: 2616 8 0 nous
: 2628 2 -2  chan
: 2633 18 0 ter
- 2661
: 2668 5 5 Lais
: 2677 2 4 sez-
: 2680 9 2 nous
: 2692 3 9  rę
: 2696 2 9 ver
: 2699 14 10 ~
- 2719
: 2721 1 10 Et
: 2724 2 9  s'il
: 2728 9 10  nous
: 2740 4 9  faut
: 2748 2 7  fai
: 2751 3 5 re
: 2756 2 9  un
: 2759 15 9  geste
: 2775 4 7 ~
- 2788
: 2792 1 -2 C'est
: 2796 6 7  ŕ
: 2803 3 7  nous
: 2808 6 9  de
: 2815 2 10  dé
: 2820 2 12 ci
: 2824 11 5 der
- 2841
: 2844 13 3 Mais
: 2859 4 2  lais
: 2868 2 2 sez-
: 2871 7 0 nous
: 2884 2 5  chan
: 2888 23 7 ter
- 2943
: 3180 4 5 Lais
: 3188 2 4 sez-
: 3191 9 2 nous
: 3203 3 9  chan
: 3208 2 9 ter
: 3211 13 10 ~
- 3230
: 3232 2 10 Le
: 3236 2 9  peu
: 3240 2 9  d'a
: 3243 7 10 ~
: 3251 6 9 mour
: 3260 2 7  qui
: 3263 2 5 ~
: 3266 4 7  nous
: 3272 14 9  reste
: 3287 3 7 ~
- 3300
: 3307 6 5 Sous
: 3315 2 5  nos
: 3320 6 7  ai
: 3327 3 9 les
: 3331 2 10  d'a
: 3336 11 5 cier
- 3353
: 3355 14 3 Oh
: 3371 5 2  lais
: 3379 3 2 sez-
: 3383 8 0 nous
: 3395 2 -2  chan
: 3400 17 0 ter
- 3427
: 3435 5 5 Lais
: 3444 2 4 sez-
: 3447 9 2 nous
: 3459 3 9  rę
: 3463 2 9 ver
: 3466 15 10 ~
- 3486
: 3488 1 10 Et
: 3491 2 9  s'il
: 3495 10 10  nous
: 3507 4 9  faut
: 3515 2 7  fai
: 3518 3 5 re
: 3522 3 7  un
: 3527 15 9  geste
: 3543 3 7 ~
- 3555
: 3559 1 -2 C'est
: 3563 7 7  ŕ
: 3571 2 7  nous
: 3575 6 9  de
: 3583 2 10  dé
: 3587 2 12 ci
: 3591 12 5 der
- 3609
: 3611 13 3 Mais
: 3626 5 2  lais
: 3635 2 2 sez-
: 3639 6 0 nous
: 3650 2 -2  chan
: 3655 20 0 ter
- 3687
: 3691 5 5 Lais
: 3699 3 4 sez-
: 3703 9 2 nous
: 3715 2 9  chan
: 3719 2 9 ter
: 3722 14 10 ~
- 3742
: 3744 2 10 Le
: 3747 2 9  peu
: 3751 2 10  d'a
: 3754 7 10 ~
: 3763 5 9 mour
: 3771 3 7  qui
: 3775 1 5 ~
: 3778 4 9  nous
: 3783 15 9  reste
: 3799 3 7 ~
- 3812
: 3819 6 5 Sous
: 3827 2 5  nos
: 3832 6 7  ai
: 3839 3 9 les
: 3843 2 10  d'a
: 3848 11 5 cier
- 3865
: 3867 14 3 Oh
: 3883 5 2  lais
: 3891 3 2 sez-
: 3895 8 0 nous
: 3907 2 -2  chan
: 3912 17 0 ter
E