#TITLE:I Don't Wanna Be In Love
#ARTIST:Good Charlotte
#MP3:Good Charlotte - I Don't Wanna Be In Love.mp3
#VIDEO:Good Charlotte - I Don't Wanna Be In Love [VD#0].avi
#COVER:Good Charlotte - I Don't Wanna Be In Love [CO].jpg
#BPM:250
#GAP:19020
#VIDEOGAP:0
#ENCODING:UTF8
#EDITION:SingStar Amped
: 0 3 49 She's
: 4 4 51  go
: 8 6 58 in'
: 16 5 56  out
- 22
: 24 2 54 To
: 28 3 51  for
: 32 4 54 get
: 40 2 54  they
: 44 3 54  were
: 48 3 51  to
: 52 6 54 ge
: 60 7 56 ther
- 68
: 68 4 49 All
: 72 4 58  that
: 80 6 56  time
- 87
: 88 3 54 He
: 92 2 51  was
: 96 6 54  tak
: 104 2 54 in'
: 108 3 54  her
: 112 2 51  for
* 116 6 54  gran
: 124 3 56 ted
- 128
: 128 2 56 She
: 132 3 51  wants
: 140 3 58  to
: 144 4 56  see
- 150
: 160 4 51 If
: 168 4 58  there's
: 176 5 56  more
- 183
: 196 3 51 Than
: 200 4 58  he
: 208 3 56  gave
- 213
: 216 4 54 She's
: 224 4 49  look
: 232 4 58 in'
: 240 5 56  for
- 247
: 256 3 58 He
: 260 5 61  calls
: 268 4 70  her
: 272 3 68  up
- 277
: 284 3 63 He's
: 288 4 66  trip
: 296 2 66 pin'
: 300 3 66  on
: 304 3 63  the
: 308 6 66  phone
- 315
: 316 4 68 No
: 320 2 68  he
: 324 4 63  does
: 328 3 70 n't
: 336 5 68  want
- 343
: 348 2 66 Her
: 352 6 66  out
: 360 2 66  there
: 364 3 66  and
: 368 2 63  a
: 372 6 66 lone
- 379
: 380 3 68 Now
: 384 2 68  he
: 388 3 63  knows
: 396 3 70  she's
: 400 3 68  mov
: 404 3 66 in'
: 408 3 66  and
- 413
: 416 4 63 Knows
: 424 4 70  she's
: 432 3 68  us
: 436 3 66 in'
: 440 3 66  it
- 445
: 448 3 63 Now
: 456 4 70  he's
: 464 3 68  los
: 468 3 66 in'
: 472 4 66  it
- 478
: 480 7 63 She
: 488 4 70  don't
* 496 5 68  care
- 502
: 504 3 70 Ev
: 508 4 70 ery
: 512 4 68 bo
: 516 5 66 dy
- 523
: 548 3 66 Put
: 552 2 66  up
: 556 3 66  your
: 560 5 66  hands
- 566
: 568 2 66 Say,
: 572 3 66  ''I
: 576 2 66  don't
: 580 3 65  wan
: 584 2 66 na
: 588 3 66  be
: 592 3 66  in
: 596 4 66  love
- 602
: 604 3 66 I
: 608 3 66  don't
: 612 4 65  wan
: 616 2 66 na
: 620 3 66  be
: 624 2 66  in
: 628 3 66  love''
- 632
: 632 2 70 Feel
: 636 3 70  the
: 640 3 68  beat
: 648 4 66  now
: 652 4 63 ~
: 656 5 61 ~
- 663
: 668 2 66 If
: 672 2 66  you've
: 676 2 65  got
: 680 2 66  no
: 684 2 66 thin'
: 688 3 66  left
- 693
: 696 2 66 Say,
: 700 3 66  ''I
: 704 2 66  don't
: 708 3 65  wan
: 712 2 66 na
: 716 2 66  be
: 720 2 66  in
: 724 3 66  love
- 729
: 732 2 66 I
: 736 2 66  don't
: 740 3 65  wan
: 744 2 66 na
: 748 2 66  be
: 752 2 66  in
: 756 3 66  love''
- 760
: 760 3 70 Back
: 764 3 70  it
: 768 3 68  up
: 776 4 66  now
: 780 4 63 ~
: 784 5 61 ~
- 790
: 792 3 66 You
: 796 2 66  got
: 800 2 66  a
: 804 3 65  reas
: 808 2 66 on
: 812 2 66  to
: 816 3 66  live
- 821
: 824 3 66 Say,
: 828 2 66  ''I
: 832 2 66  don't
: 836 3 65  wan
: 840 2 66 na
: 844 2 66  be
: 848 2 66  in
: 852 3 66  love
- 857
: 860 2 66 I
: 864 2 66  don't
: 868 3 65  wan
: 872 2 66 na
: 876 1 66  be
: 880 2 66  in
: 884 3 66  love''
- 888
: 888 3 70 Feel
: 892 3 70 in'
: 896 3 68  good
: 904 4 66  now
: 908 4 63 ~
: 912 5 61 ~
- 918
: 920 2 66 Don't
: 924 2 66  be
: 928 3 66  a
: 932 3 65 fraid
: 936 2 66  to
: 940 2 66  get
: 944 4 66  down
- 950
: 952 3 66 Say,
: 956 2 66  ''I
: 960 3 66  don't
: 964 3 65  wan
: 968 2 66 na
: 972 2 66  be
: 976 2 66  in
: 980 3 66  love
- 985
: 988 2 66 I
: 992 2 66  don't
: 996 3 66  wan
: 1000 2 66 na
: 1004 2 66  be
: 1008 2 66  in
: 1012 4 70  love
: 1016 3 68 -''
- 1021
* 1060 4 51 He
: 1064 6 58  was
: 1072 6 56  al
: 1080 5 54 ways
- 1086
: 1088 7 54 Giv
: 1096 2 54 in'
: 1100 3 54  her
: 1104 3 51  at
: 1108 6 54 ten
: 1116 7 56 tion
- 1124
: 1124 4 49 Work
: 1128 5 58 in'
: 1136 6 56  hard
: 1144 3 54  to
- 1149
: 1152 6 54 Find
: 1160 2 54  the
: 1164 3 54  things
: 1168 2 51  she
: 1172 6 54  men
: 1180 3 56 tioned
- 1184
: 1184 2 56 He
: 1188 3 51  was
: 1192 3 51  de
: 1196 3 58 di
: 1200 3 56 ca
: 1204 3 54 ted
- 1209
: 1216 3 51 By
: 1220 3 51  most
: 1224 3 51  suck
: 1228 3 58 ers
: 1232 3 56  ha
: 1236 3 54 ted
- 1241
: 1248 3 51 That
: 1252 3 51  girl
: 1256 4 58  was
: 1264 6 56  fine
- 1271
: 1272 3 54 But
: 1276 2 54  she
: 1280 4 51  did
: 1284 3 51 n't
: 1288 3 51  ap
: 1292 2 51 pre
: 1296 3 58 ci
: 1300 3 56 ate
: 1304 3 54  him
- 1309
: 1312 3 58 She
: 1316 5 61  calls
: 1324 4 70  him
: 1328 3 68  up
- 1333
: 1336 4 66 She's
: 1344 4 66  trip
: 1352 2 66 pin'
: 1356 3 66  on
: 1360 3 63  the
: 1364 6 66  phone
- 1371
: 1372 4 68 Now
: 1376 2 68  he
: 1380 3 63  had
: 1384 3 63  to
: 1388 3 70  get
: 1392 3 68  up
- 1397
: 1400 3 66 And
: 1404 3 63  he
: 1408 5 66  ain't
: 1416 3 66  com
: 1420 3 63 in'
: 1424 6 66  home
- 1431
: 1432 6 68 Now
: 1440 2 68  he's
: 1444 3 63  tryin'
: 1448 3 63  to
: 1452 3 70  for
: 1456 3 68 get
: 1460 3 66  her
- 1465
: 1472 3 63 That's
: 1476 3 63  how
: 1480 3 63  we
* 1484 3 70  come
: 1488 3 68  with
: 1492 3 66  her
- 1497
: 1508 3 63 When
: 1512 3 63  he
: 1516 3 70  first
: 1520 3 68  met
: 1524 3 66  her
- 1528
: 1528 3 63 When
: 1532 3 63  they
: 1536 4 63  first
: 1544 2 63  got
: 1548 3 68  to
: 1552 3 68 ge
: 1556 3 66 ther
- 1560
: 1560 3 70 Ev
: 1564 4 70 ery
: 1568 4 68 bo
: 1572 5 66 dy
- 1579
: 1604 3 66 Put
: 1608 2 66  up
: 1612 3 66  your
: 1616 5 66  hands
- 1622
: 1624 2 66 Say,
: 1628 3 66  ''I
: 1632 2 66  don't
: 1636 3 65  wan
: 1640 2 66 na
: 1644 3 66  be
: 1648 3 66  in
: 1652 4 66  love
- 1658
: 1660 3 66 I
: 1664 3 66  don't
: 1668 4 65  wan
: 1672 2 66 na
: 1676 3 66  be
: 1680 2 66  in
: 1684 3 66  love''
- 1688
: 1688 2 70 Feel
: 1692 3 70  the
: 1696 3 68  beat
: 1704 4 66  now
: 1708 4 63 ~
: 1712 5 61 ~
- 1719
: 1724 2 66 If
: 1728 2 66  you've
: 1732 2 65  got
: 1736 2 66  no
: 1740 2 66 thin'
: 1744 3 66  left
- 1749
: 1752 2 66 Say,
: 1756 3 66  ''I
: 1760 2 66  don't
: 1764 3 65  wan
: 1768 2 66 na
: 1772 2 66  be
: 1776 2 66  in
: 1780 3 66  love
- 1785
: 1788 2 66 I
: 1792 2 66  don't
: 1796 3 65  wan
: 1800 2 66 na
: 1804 2 66  be
: 1808 2 66  in
: 1812 3 66  love''
- 1816
: 1816 3 70 Back
: 1820 3 70  it
: 1824 3 68  up
: 1832 4 66  now
: 1836 4 63 ~
: 1840 5 61 ~
- 1846
: 1848 3 66 You
: 1852 2 66  got
: 1856 2 66  a
: 1860 3 65  reas
: 1864 2 66 on
: 1868 2 66  to
: 1872 3 66  live
- 1877
: 1880 3 66 Say,
: 1884 2 66  ''I
: 1888 2 66  don't
: 1892 3 65  wan
: 1896 2 66 na
: 1900 2 66  be
: 1904 2 66  in
: 1908 3 66  love
- 1913
: 1916 2 66 I
: 1920 2 66  don't
: 1924 3 65  wan
: 1928 2 66 na
: 1932 1 66  be
: 1936 2 66  in
: 1940 3 66  love''
- 1944
: 1944 3 70 Feel
: 1948 3 70 in'
* 1952 3 68  good
: 1960 4 66  now
: 1964 4 63 ~
: 1968 5 61 ~
- 1974
: 1976 2 66 Don't
: 1980 2 66  be
: 1984 3 66  a
: 1988 3 65 fraid
: 1992 2 66  to
: 1996 2 66  get
: 2000 4 66  down
- 2006
: 2008 3 66 Say,
: 2012 2 66  ''I
: 2016 3 66  don't
: 2020 3 65  wan
: 2024 2 66 na
: 2028 2 66  be
: 2032 2 66  in
: 2036 3 66  love
- 2041
: 2044 2 66 I
: 2048 2 66  don't
: 2052 3 66  wan
: 2056 2 66 na
: 2060 2 66  be
: 2064 2 66  in
: 2068 4 70  love
: 2072 3 68 -''
- 2076
: 2076 4 58 To
: 2080 4 59  the
: 2084 52 61  beat
- 2138
: 2140 4 56 You
: 2144 3 58  got
: 2148 4 56  no
: 2152 4 58 thin'
: 2156 4 56  to
: 2160 5 58  lose
- 2166
: 2168 3 58 Don't
: 2172 3 56  be
: 2176 3 58  a
: 2180 3 56 fraid
: 2184 3 58  to
: 2188 3 56  get
: 2192 4 54  down
: 2196 4 51 ~
: 2200 6 49 ~
- 2208
: 2212 4 51 We
: 2216 6 58  break
: 2224 6 56  up
- 2232
: 2236 2 51 It's
: 2240 7 54  some
: 2248 2 54 thin'
: 2252 3 54  that
: 2256 3 51  we
: 2260 6 54  do
* 2268 7 56  now
- 2277
: 2280 4 49 Ev
: 2284 3 56 ery
: 2288 5 56 one
- 2295
: 2300 2 49 Has
: 2304 6 54  got
: 2312 2 54  to
: 2316 3 54  do
: 2320 2 51  it
: 2324 6 54  some
: 2332 6 56  time
- 2339
: 2340 3 51 It's
: 2344 6 58  o
: 2352 4 56 kay
- 2358
: 2372 3 51 Let
: 2376 7 58  it
: 2384 4 56  go
- 2390
: 2404 3 51 Get
: 2408 4 58  out
: 2416 6 56  there
: 2424 4 54  and
- 2430
: 2432 6 49 Find
: 2440 7 58  some
: 2448 8 56  more
- 2458
: 2468 3 61 It's
: 2472 7 70  too
: 2480 4 68  long
- 2486
: 2488 3 66 To
: 2492 3 63  be
: 2496 7 66  trip
: 2504 2 66 pin'
: 2508 3 66  on
: 2512 3 63  the
: 2516 6 66  phone
: 2524 6 68  here
- 2531
: 2532 3 63 Get
: 2536 3 63  off
: 2540 3 70  the
: 2544 7 68  wire
: 2552 3 66 ~
- 2556
: 2556 3 63 No
: 2560 5 66  ev
: 2568 3 66 ery
: 2572 3 66 thing
: 2576 3 63  is
: 2580 5 66  good
: 2588 4 68  here
- 2594
: 2596 3 63 Stop
: 2600 3 63  what
* 2604 3 70  you're
: 2608 3 68  do
: 2612 3 66 in'
- 2617
: 2624 3 63 You
: 2628 3 63  don't
: 2632 3 63  wan
: 2636 3 70 na
: 2640 3 68  ruin
: 2644 3 66 ~
- 2649
: 2656 2 63 The
: 2660 3 63  chance
: 2664 3 63  that
: 2668 3 70  you
: 2672 3 68  got
: 2680 3 66  to
- 2685
: 2696 2 63 Find
: 2700 3 70  a
: 2704 3 68  new
: 2708 3 66  one
- 2712
: 2712 3 70 Ev
: 2716 4 70 ery
: 2720 4 68 bo
: 2724 5 66 dy
- 2731
: 2756 3 66 Put
: 2760 2 66  up
: 2764 3 66  your
: 2768 5 66  hands
- 2774
: 2776 2 66 Say,
: 2780 3 66  ''I
: 2784 2 66  don't
: 2788 3 65  wan
: 2792 2 66 na
: 2796 3 66  be
: 2800 3 66  in
: 2804 4 66  love
- 2810
: 2812 3 66 I
: 2816 3 66  don't
: 2820 4 65  wan
: 2824 2 66 na
* 2828 3 66  be
: 2832 2 66  in
: 2836 3 66  love''
- 2840
: 2840 2 70 Feel
: 2844 3 70  the
* 2848 3 68  beat
: 2856 4 66  now
: 2860 4 63 ~
: 2864 5 61 ~
- 2871
: 2876 2 66 If
: 2880 2 66  you've
: 2884 2 65  got
: 2888 2 66  no
: 2892 2 66 thin'
: 2896 3 66  left
- 2901
: 2904 2 66 Say,
: 2908 3 66  ''I
: 2912 2 66  don't
: 2916 3 65  wan
: 2920 2 66 na
: 2924 2 66  be
: 2928 2 66  in
: 2932 3 66  love
- 2937
: 2940 2 66 I
: 2944 2 66  don't
: 2948 3 65  wan
: 2952 2 66 na
: 2956 2 66  be
: 2960 2 66  in
: 2964 3 66  love''
- 2968
: 2968 3 70 Back
: 2972 3 70  it
: 2976 3 68  up
: 2984 4 66  now
: 2988 4 63 ~
: 2992 5 61 ~
- 2998
: 3000 3 66 You
: 3004 2 66  got
: 3008 2 66  a
: 3012 3 65  reas
: 3016 2 66 on
: 3020 2 66  to
: 3024 3 66  live
- 3029
: 3032 3 66 Say,
: 3036 2 66  ''I
: 3040 2 66  don't
: 3044 3 65  wan
: 3048 2 66 na
: 3052 2 66  be
: 3056 2 66  in
* 3060 3 66  love
- 3065
: 3068 2 66 I
: 3072 2 66  don't
: 3076 3 65  wan
: 3080 2 66 na
: 3084 1 66  be
: 3088 2 66  in
: 3092 3 66  love''
- 3096
: 3096 3 70 Feel
: 3100 3 70 in'
: 3104 3 68  good
: 3112 4 66  now
: 3116 4 63 ~
: 3120 5 61 ~
- 3126
: 3128 2 66 Don't
: 3132 2 66  be
: 3136 3 66  a
: 3140 3 65 fraid
: 3144 2 66  to
: 3148 2 66  get
: 3152 4 66  down
- 3158
: 3160 3 66 Say,
: 3164 2 66  ''I
: 3168 3 66  don't
: 3172 3 65  wan
: 3176 2 66 na
: 3180 2 66  be
: 3184 2 66  in
: 3188 3 66  love
- 3193
: 3196 2 66 I
: 3200 2 66  don't
: 3204 3 66  wan
: 3208 2 66 na
: 3212 2 66  be
: 3216 3 66  in
: 3220 4 70  love
: 3224 4 68 -''
- 3230
: 3292 2 66 Now
: 3296 3 66  you
: 3300 4 68  know
: 3304 2 70  what
: 3308 2 68  to
: 3312 4 66  do
- 3318
: 3324 2 66 So
: 3328 2 66  come
: 3332 3 68  on
: 3336 2 70  feel
: 3340 2 68  it
: 3344 4 66  good
: 3348 4 63 ~
: 3352 4 61 ~
E