#TITLE:Extraordinary girl
#ARTIST:Green Day
#EDITION:UltraStar Green Day
#MP3:Green Day - Extraordinary girl.mp3
#COVER:Green Day - Extraordinary girl [CO].jpg
#BACKGROUND:Green Day - Extraordinary girl [BG].jpg
#BPM:138
#GAP:41650
: 0 8 66 She's 
: 12 2 64 an 
: 14 2 66 Extra
: 16 4 67 or
: 20 2 67 di
: 22 4 67 na
: 26 4 69 ry 
: 30 6 66 girl
- 44
: 44 2 64 In 
: 46 2 66 an 
: 48 4 67 or
: 52 2 67 di
: 54 4 67 na
: 58 4 69 ry 
: 62 6 66 world
- 74
: 74 4 66 And 
: 78 2 67 she 
: 80 2 66 canÂ´t 
: 82 4 64 seem 
: 86 2 63 to 
: 88 4 64 get 
: 92 2 66 a
: 94 6 63 way
- 120
: 128 8 66 He 
: 140 2 64 lacks 
: 142 2 66 the 
: 144 2 67 cou
: 146 4 67 rage 
: 150 4 67 in 
: 154 4 69 his 
: 158 6 66 mind
- 170
: 172 2 64 Like 
: 174 2 66 a 
: 176 2 67 chi
: 178 4 67 ld 
: 182 4 67 left 
: 186 4 69 be
: 190 6 66 hind
- 202
: 202 4 66 Like 
: 206 2 67 a 
: 208 2 66 pet 
: 210 4 64 left 
: 214 6 64 in 
: 220 2 66 the 
: 222 6 63 rain
- 260
: 260 4 66 She's 
: 264 4 66 all 
: 268 2 64 a
: 270 4 64 lone 
: 274 2 62 a
: 276 4 62 gain
- 288
: 288 2 66 Wip
: 290 2 66 ing 
: 292 2 66 the 
: 294 2 66 tears 
: 296 4 67 from 
: 300 2 69 her 
: 302 8 62 eyes
- 324
: 324 4 59 Some 
: 328 2 62 days 
: 330 4 64 he 
: 334 4 66 feels 
: 338 4 64 like 
: 342 4 62 d
: 346 4 64 ying
- 356
: 356 4 62 She 
: 360 4 62 gets 
: 364 4 62 so 
: 368 2 62 sick 
: 370 4 55 of 
: 374 4 55 c
: 378 4 54 rying
- 460
: 464 8 66 She 
: 476 2 64 sees 
: 478 2 66 the 
: 480 2 67 mir
: 482 4 67 ror 
: 486 4 67 of 
: 490 4 69 her
: 494 6 66 self
- 508
: 508 2 64 An 
: 510 2 66 i
: 512 4 67 mage 
: 516 2 67 she 
: 518 4 67 wants 
: 522 4 69 to 
: 526 6 66 sell
- 538
: 538 4 66 To 
: 542 2 67 a
: 544 2 66 ny
: 546 4 64 one 
: 550 2 63 wil
: 552 4 64 ling 
: 556 2 66 to 
: 558 6 63 buy
- 592
: 592 8 66 He 
: 604 2 64 steals 
: 606 2 66 the 
: 608 2 67 i
: 610 4 67 mage 
: 614 4 67 in 
: 618 4 69 her 
: 622 6 66 kiss
- 636
: 636 2 64 From 
: 638 2 66 her 
: 640 4 67 hearts 
: 644 2 67 a
: 646 4 67 poc
: 650 4 69 a
: 654 6 66 lypse
- 666
: 666 4 66 From 
: 670 2 67 the 
: 672 2 66 one 
: 674 4 64 called 
: 678 6 64 whats
: 684 2 66 er
: 686 6 63 name
- 724
: 724 4 66 She's 
: 728 4 66 all 
: 732 2 64 a
: 734 4 64 lone 
: 738 2 62 a
: 740 4 62 gain
- 752
: 752 2 66 Wip
: 754 2 66 ing 
: 756 2 66 the 
: 758 2 66 tears 
: 760 4 67 from 
: 764 2 69 her 
: 766 8 62 eyes
- 788
: 788 4 59 Some 
: 792 2 62 days 
: 794 4 64 he 
: 798 4 66 feels 
: 802 4 64 like 
: 806 4 62 d
: 810 4 64 ying
- 820
: 820 4 62 She 
: 824 4 62 gets 
: 828 4 62 so 
: 832 2 62 sick 
: 834 4 55 of 
: 838 4 55 c
: 842 4 54 rying
- 1000
: 1124 4 66 She's 
: 1128 4 66 all 
: 1132 2 64 a
: 1134 4 64 lone 
: 1138 2 62 a
: 1140 4 62 gain
- 1152
: 1152 2 66 Wip
: 1154 2 66 ing 
: 1156 2 66 the 
: 1158 2 66 tears 
: 1160 4 67 from 
: 1164 2 69 her 
: 1166 8 62 eyes
- 1188
: 1188 4 59 Some 
: 1192 2 62 days 
: 1194 4 64 he 
: 1198 4 66 feels 
: 1202 4 64 like 
: 1206 4 62 d
: 1210 4 64 ying
- 1220
: 1220 4 59 Some 
: 1224 2 62 days 
: 1226 4 64 it's 
: 1230 4 66 not 
: 1234 4 64 worth 
: 1238 4 62 try
: 1242 4 64 ing
- 1252
: 1252 4 59 Now 
: 1256 2 62 that 
: 1258 4 64 they 
: 1262 4 66 both 
: 1266 4 64 are 
: 1270 4 62 fin
: 1274 4 64 ding
- 1284
: 1284 4 62 She 
: 1288 4 62 gets 
: 1292 4 62 so 
: 1296 2 62 sick 
: 1298 4 55 of 
: 1302 4 55 cr
: 1306 4 54 ying
- 1328
: 1328 8 66 She's 
: 1340 2 64 an 
: 1342 2 66 Extra
: 1344 4 67 or
: 1348 2 67 di
: 1350 4 67 na
: 1354 4 69 ry 
: 1358 10 66 girl,
- 1372
: 1372 2 64 an 
: 1374 2 66 Extra
: 1376 4 67 or
: 1380 2 67 di
: 1382 4 67 na
: 1386 4 69 ry 
: 1390 10 66 girl,
- 1404
: 1404 2 64 an 
: 1406 2 66 Extra
: 1408 4 67 or
: 1412 2 67 di
: 1414 4 67 na
: 1418 4 69 ry 
: 1422 10 66 girl,
- 1436
: 1436 2 64 an 
: 1438 2 66 Extra
: 1440 4 64 or
: 1444 2 64 di
: 1446 4 64 na
: 1450 4 66 ry 
: 1454 10 63 girl
E

