#TITLE:Wake me up when september ends
#ARTIST:Green Day
#EDITION:Green Day
#MP3:Green Day - Wake me up when september ends.mp3
#COVER:Green Day - Wake me up when september ends [CO].jpg
#BACKGROUND:Green Day - Wake me up when september ends [BG].jpg
#VIDEO:Green Day - Wake me up when september ends.avi
#VIDEOGAP:-0,04
#BPM:105
#GAP:9427
: 0 6 57 Sum
: 6 4 59 mer
: 10 6 59  has
: 16 4 57  come
: 20 2 59  and
: 22 6 59  past,
- 29
: 30 2 52 The
: 32 4 57  in
: 36 2 59 no
: 38 4 59 cent
: 42 4 55  can
: 46 4 64  nev
: 50 4 62 er
: 54 1 59  la
: 55 1 57 s
: 56 4 55 t,
- 62
: 64 4 62 Wake
: 68 2 55  me
: 70 6 55  up
: 80 4 62  when
: 84 2 60  Sep
: 86 4 55 tem
: 90 4 57 ber
: 94 6 59  ends,
- 125
: 128 4 57 Like
: 132 2 59  my
: 134 4 59  fa
: 138 6 59 thers
: 144 4 57  come
: 148 2 59  to
: 150 6 59  pass,
- 155
: 160 4 57 Sev
: 164 2 59 en
: 166 4 59  years
: 170 4 55  has
: 174 4 64  gone
: 178 4 62  so
: 182 1 59  fa
: 183 1 57 s
: 184 4 55 t,
- 190
: 192 4 62 Wake
: 196 2 55  me
: 198 6 55  up
: 208 4 62  when
: 212 2 60  Sep
: 214 4 55 tem
: 218 4 57 ber
: 222 6 59  ends
- 250
: 256 6 57 Here
: 262 4 59  comes
: 266 6 59  the
: 272 4 57  rain
: 276 2 59  a
: 278 6 59 gain,
- 283
: 288 4 60 Fall
: 292 4 59 ing
: 296 2 55  from
: 298 4 57  the
: 302 6 59  stars,
- 315
: 320 6 57 Drenched
: 326 4 59  in
: 330 6 59  my
: 336 4 59  pain
: 340 2 54  a
: 342 6 54 gain,
- 347
: 350 2 50 Be
: 352 4 59 com
: 356 4 57 ing
: 360 2 55  who
: 362 2 55  we
: 364 2 57 -
: 366 6 57  are,
- 380
: 384 6 57 As
: 390 4 59  my
: 394 4 59  mem
: 398 2 59 o
: 400 2 57 ry
: 402 4 59 -
: 406 6 59  rests,
- 410
: 414 2 52 But
: 416 4 57  nev
: 420 2 59 er
: 422 4 59  for
: 426 4 55 gets
: 430 4 64  what
: 434 4 62  I
: 438 1 59  lost
: 439 1 57 -
: 440 4 55 -
- 442
: 448 4 62 Wake
: 452 2 55  me
: 454 6 55  up
: 464 4 62  when
: 468 2 60  Sep
: 470 4 55 tem
: 474 4 57 ber
: 478 4 57  ends
- 488
: 500 0 0 (Solo)
- 580
: 608 6 57 Sum
: 614 4 59 mer
: 618 6 59  has
: 624 4 57  come
: 628 2 59  and
: 630 6 59  past,
- 635
: 638 2 52 The
: 640 4 57  in
: 644 2 59 no
: 646 4 59 cent
: 650 4 55  can
: 654 4 64  nev
: 658 4 62 er
: 662 1 59  last,
: 663 1 57 -
: 664 4 55 -
- 670
: 672 4 62 Wake
: 676 2 55  me
: 678 6 55  up
: 688 4 62  when
: 692 2 60  Sep
: 694 4 55 tem
: 698 4 57 ber
: 702 6 59  ends
- 734
: 736 6 57 Ring
: 742 4 59  out
: 746 6 59  the
: 752 4 57  bells
: 756 2 59  a
: 758 6 59 gain,
- 762
: 768 4 57 Like
: 772 2 59  we
: 774 4 59  did
: 778 4 55  when
: 782 4 64  spring
: 786 4 62  be
: 790 1 59 gan,
: 791 1 57 -
: 792 4 55 -
- 798
: 800 4 62 Wake
: 804 2 55  me
: 806 6 55  up
: 816 4 62  when
: 820 2 60  Sep
: 822 4 55 tem
: 826 4 57 ber
: 830 6 59  ends
- 860
: 864 6 57 Here
: 870 4 59  comes
: 874 6 59  the
: 880 4 57  rain
: 884 2 59  a
: 886 6 59 gain,
- 890
: 896 4 60 Fall
: 900 4 59 ing
: 904 2 55  from
: 906 4 57  the
: 910 6 59  stars,
- 925
: 928 6 57 Drenched
: 934 4 59  in
: 938 6 59  my
: 944 4 59  pain
: 948 2 54  a
: 950 6 54 gain,
- 956
: 958 2 50 Be
: 960 4 59 com
: 964 4 57 ing
: 968 2 55  who
: 970 2 55  we
: 972 2 57 -
: 974 6 57  are,
- 990
: 992 6 57 As
: 998 4 59  my
: 1002 4 59  mem
: 1006 2 59 o
: 1008 2 57 ry
: 1010 4 59 -
: 1014 6 59  rests,
- 1020
: 1022 2 52 But
: 1024 4 57  nev
: 1028 2 59 er
: 1030 4 59  for
: 1034 4 55 gets
: 1038 4 64  what
: 1042 4 62  I
: 1046 1 59  lost
: 1047 1 57 -
: 1048 4 55 -
- 1050
: 1056 4 62 Wake
: 1060 2 55  me
: 1062 6 55  up
: 1072 4 62  when
: 1076 2 60  Sep
: 1078 4 55 tem
: 1082 4 57 ber
: 1086 4 57  ends
: 1090 4 55 -
- 1100
: 1111 0 0 (Solo)
- 1340
: 1360 6 57 Sum
: 1366 4 59 mer
: 1370 6 59  has
: 1376 4 57  come
: 1380 2 59  and
: 1382 6 59  past,
- 1388
: 1390 2 52 The
: 1392 4 57  in
: 1396 2 59 no
: 1398 4 59 cent
: 1402 4 55  can
: 1406 4 64  nev
: 1410 4 62 er
: 1414 1 59  last,
: 1415 1 57 -
: 1416 4 55 -
- 1420
: 1424 4 62 Wake
: 1428 2 55  me
: 1430 6 55  up
: 1440 4 62  when
: 1444 2 60  Sep
: 1446 4 55 tem
: 1450 4 57 ber
: 1454 6 59  ends
- 1480
: 1488 4 57 Like
: 1492 2 59  my
: 1494 4 59  fa
: 1498 6 59 ther's
: 1504 4 57  come
: 1508 2 59  to
: 1510 6 59  pass,
- 1515
: 1520 4 57 Twen
: 1524 2 59 ty
: 1526 4 59  years
: 1530 4 55  has
: 1534 4 64  gone
: 1538 4 62  so
: 1542 1 59  fast
: 1543 1 57 -
: 1544 4 55 -
- 1550
: 1552 4 62 Wake
: 1556 2 55  me
: 1558 6 55  up
: 1568 4 62  when
: 1572 2 60  Sep
: 1574 4 55 tem
: 1578 4 57 ber
: 1582 6 59  ends
- 1610
: 1616 4 62 Wake
: 1620 2 55  me
: 1622 6 55  up
: 1632 4 62  when
: 1636 2 60  Sep
: 1638 4 55 tem
: 1642 4 57 ber
: 1646 6 59  ends
- 1677
: 1680 4 62 Wake
: 1684 2 55  me
: 1686 6 55  up
: 1696 4 62  when
: 1700 2 60  Sep
: 1702 4 55 tem
: 1706 4 57 ber
: 1710 4 57  ends
: 1714 4 55 -
E
