#TITLE:Big in Japan
#ARTIST:Guano Apes
#MP3:Guano Apes - Big in Japan.mp3
#COVER:Guano Apes - Big in Japan [CO].jpg
#BACKGROUND:Guano Apes - Big in Japan [BG].jpg
#BPM:242
#GAP:16700
: 0 4 66 Win
: 4 4 66 ter
: 8 4 65  ci
: 12 2 66 ty
: 14 8 65 side
- 24
: 32 4 65 crys
: 36 4 66 tal
: 40 4 68  bits
: 44 2 66  of
: 46 4 65  snow
: 50 4 66 flakes
- 55
: 56 4 66 all
: 60 2 65  a
: 62 4 65 round
: 66 4 63  my
: 70 4 63  head
: 74 4 62  and
: 78 4 62  in
: 84 4 59  the
: 88 10 58  wind
- 100 101
: 128 2 66 I
: 130 4 66  had
: 136 4 65  no
: 140 2 66  il
: 142 6 65 lu
: 148 6 63 sions
- 156
: 160 4 65 that
: 164 4 66  I'd
: 168 2 68  ev
: 170 4 66 er
: 174 4 65  find
- 178
: 178 4 66 a
: 184 4 65  glimpse
: 188 4 65  of
: 192 2 65  sum
: 194 4 63 mer
: 198 4 63  heat
: 204 4 62  waves
: 208 4 62  in
: 212 8 63  your
: 220 16 62  eyes.
- 238 239
: 256 4 66 You
: 260 4 66  did
: 264 4 65  what
: 268 2 63  you
: 270 4 61  did
: 274 4 63  to
: 280 4 61  me
- 286
: 288 4 65 now
: 292 4 65  it's
: 296 4 65  his
: 300 2 65 to
: 302 4 65 ry
: 306 4 66  I
: 312 6 59  see
- 319
: 320 4 66 here's
: 324 4 66  my
: 328 4 66  come
: 332 4 66  back
: 336 4 66  on
: 340 4 66  the
: 344 4 66  road
: 348 2 65  a
: 350 12 65 gain.
- 364 365
: 384 4 66 Things
: 388 4 66  will
: 392 4 65  hap
: 396 4 63 pen
: 400 4 61  while
: 404 6 63  they
: 410 4 61  can
- 415
: 416 4 65 I
: 420 4 65  will
: 424 4 65  wait
: 428 4 65  here
: 432 4 65  for
: 436 4 66  my
: 440 4 65  man
: 444 2 63  to
: 446 4 63 night
- 452
: 454 2 63 it's
: 456 2 68  ea
: 458 4 66 sy
: 462 6 65  when
: 468 2 63  you'
: 470 2 63 re
: 472 2 66  big
: 474 2 65  in
: 476 4 63  Ja
: 480 8 65 pan.
- 490
: 492 2 66 You'
: 494 2 66 re
: 496 2 66  big
: 498 2 66  in
: 500 4 66  Ja
: 504 12 66 pan
- 518
: 524 2 66 you'
: 526 2 66 re
: 528 2 66  big
: 530 2 66  in
: 532 4 66  Ja
: 536 12 66 pan
- 550
: 556 2 66 you'
: 558 2 66 re
: 560 2 66  big
: 562 2 66  in
: 564 4 66  Ja
: 568 12 66 pan
: 592 6 70  ea
: 600 10 70 sy.
- 612
: 620 2 66 You'
: 622 2 66 re
: 624 2 66  big
: 626 2 66  in
: 628 2 68  Ja
: 630 8 70 pan
: 640 4 68  and
- 644
: 644 4 68 I'll
: 648 6 68  sleep
: 656 4 68  by
: 660 2 66  your
: 662 4 68  side
: 666 4 68  all
: 670 6 68  through
: 676 2 66  the
: 678 6 65  night
- 685
: 686 4 66 big
: 690 2 65  in
: 692 4 63  Ja
: 696 12 66 pan
: 708 4 68  it's
: 712 4 70  ea
: 718 6 68 sy
: 724 4 66  for
: 730 4 66  me.
- 736 746
: 766 2 58 N
: 768 4 66 e
: 772 4 66 on
: 776 4 65  on
: 780 4 66  my
: 784 10 65  skin
: 800 4 65  pass
: 804 4 66 ing
: 808 2 68  sil
: 810 4 66 hou
: 814 4 65 ettes
: 818 2 66  of
: 820 8 66  strange
- 828
: 828 2 65 il
: 830 4 65 lu
: 834 4 63 mi
: 840 4 63 nat
: 844 4 62 ed
: 848 4 62  man
: 852 8 59 ne
: 860 10 58 quins.
- 872 873
: 896 4 66 Shall
: 900 4 66  I
: 904 2 65  stay
: 906 4 66  here
: 910 4 65  at
: 916 4 63  the
: 920 4 63  zoo?
- 926
: 928 4 65 Shall
: 932 4 66  I
: 936 2 68  go
: 938 4 66  and
: 942 4 65  chan
: 946 4 65 ge
: 950 2 66  my
: 952 4 66  point
: 956 2 65  of
: 958 4 65  view
- 963
: 964 4 63 for
: 968 4 63  oth
: 972 4 62 er
: 976 4 62  ug
: 980 4 63 ly
: 988 10 62  scen
: 998 4 62 es?
- 1004 1005
: 1024 4 66 You
: 1028 4 66  did
: 1032 4 65  what
: 1036 2 63  you
: 1038 4 61  did
: 1042 4 63  to
: 1048 6 61  me
- 1055
: 1056 4 65 now
: 1060 4 65  it's
: 1064 4 65  his
: 1068 2 65 to
: 1070 4 65 ry
: 1074 16 66  I
: 1090 16 66 ~
: 1112 12 65 ~
: 1126 16 65  see.
- 1144
: 1150 4 66 Things
: 1154 4 66  will
: 1158 4 65  hap
: 1162 4 63 pen
: 1166 4 61  while
: 1170 6 63  they
: 1176 4 61  can
- 1182
: 1184 4 65 I
: 1188 4 65  will
: 1192 4 65  wait
: 1196 4 65  here
: 1200 4 65  for
: 1204 4 66  my
: 1208 4 65  man
: 1212 2 63  to
: 1214 6 63 night
- 1221
: 1222 2 63 it's
: 1224 2 68  ea
: 1226 4 66 sy
: 1230 6 65  when
: 1236 2 63  you'
: 1238 2 63 re
: 1240 2 66  big
: 1242 2 65  in
: 1244 4 63  Ja
: 1248 8 65 pan.
- 1258
: 1260 2 66 You'
: 1262 2 66 re
: 1264 2 66  big
: 1266 2 66  in
: 1268 4 66  Ja
: 1272 8 66 pan
- 1282 1283
: 1292 2 66 you'
: 1294 2 66 re
: 1296 2 66  big
: 1298 2 66  in
: 1300 4 66  Ja
: 1304 8 66 pan
- 1314 1315
: 1324 2 66 you'
: 1326 2 66 re
: 1328 2 66  big
: 1330 2 66  in
: 1332 4 66  Ja
: 1336 8 66 pan
: 1360 6 70  ea
: 1368 10 70 sy.
- 1380
: 1388 2 66 You'
: 1390 2 66 re
: 1392 2 66  big
: 1394 2 66  in
: 1396 4 68  Ja
: 1400 8 70 pan
- 1408
: 1408 4 68 and
: 1412 4 68  I'll
: 1416 6 68  sleep
: 1422 4 68  by
: 1426 4 66  your
: 1430 4 68  side
: 1436 4 68  all
: 1440 4 68  through
: 1444 2 66  the
: 1446 6 65  night
- 1454
: 1456 2 66 Big
: 1458 2 65  in
: 1460 4 63  Ja
: 1464 8 66 pan
: 1476 4 68  it's
: 1480 6 70  ea
: 1486 6 68 sy
: 1492 6 66  for
: 1498 6 66  me.
- 1506 1507
: 1528 18 63 By
: 1560 18 63  the
: 1584 4 56  deep
: 1592 14 59  sea
: 1616 8 61  to
: 1624 30 58 night.
- 1655
: 1656 12 68 Too
: 1672 16 68  late
: 1692 12 68  too
: 1708 16 68  late
: 1724 44 68  oh.
- 1770
: 1776 2 66 You'
: 1778 2 66 re
: 1780 4 66  big
: 1784 2 66  in
: 1786 6 66  Ja
: 1792 12 66 pan
- 1806
: 1808 2 66 you'
: 1810 2 66 re
: 1812 4 66  big
: 1816 2 66  in
: 1818 4 66  Ja
: 1822 12 66 pan
- 1836
: 1840 4 66 you'
: 1844 4 66 re
: 1848 6 66  big
: 1854 2 66  in
: 1856 8 66  Ja
: 1864 12 71 pan
: 1876 8 70  ea
: 1884 12 70 sy.
- 1898 1899
: 1908 2 66 You'
: 1910 2 66 re
: 1912 2 66  big
: 1914 2 66  in
: 1916 4 68  Ja
: 1920 8 70 pan
- 1928
: 1928 4 68 and
: 1932 4 68  I'll
: 1936 8 68  sleep
: 1944 4 68  by
: 1948 2 66  your
: 1950 4 68  side
: 1956 4 68  all
: 1960 4 68  through
: 1964 2 66  the
: 1966 6 65  night
- 1973
: 1974 4 66 big
: 1978 2 65  in
: 1980 4 63  Ja
: 1984 8 66 pan
: 1996 4 68  it's
: 2000 6 70  ea
: 2006 6 68 sy
: 2012 8 66  for
: 2020 6 66  me.
- 2028
: 2036 2 66 You'
: 2038 2 66 re
: 2040 2 66  big
: 2042 2 66  in
: 2044 4 68  Ja
: 2048 8 70 pan
: 2056 4 68  and
: 2060 4 68  I'll
: 2064 8 68  sleep
: 2072 4 68  by
: 2076 4 66  your
: 2080 8 68  side
- 2088
: 2088 4 68 all
: 2092 4 68  through
: 2096 2 66  the
: 2098 6 65  night
: 2106 4 66  big
: 2110 2 65  in
: 2112 4 63  Ja
: 2116 8 66 pan
- 2126
: 2128 4 68 it's
: 2132 6 70  ea
: 2138 6 68 sy
: 2144 8 66  for
: 2152 16 77  me.
- 2168
: 2168 2 66 You'
: 2170 2 66 re
: 2172 4 66  big
: 2176 2 66  in
: 2178 4 66  Ja
: 2182 10 66 pan
- 2194
: 2200 2 66 you'
: 2202 2 66 re
: 2204 4 66  big
: 2208 2 66  in
: 2210 6 66  Ja
: 2216 12 66 pan
- 2230
: 2232 2 66 you'
: 2234 2 66 re
: 2236 4 65  big
: 2240 2 65  in
: 2242 4 65  Ja
: 2246 8 68 pa
: 2254 14 66 ~n
: 2268 8 68  ea
: 2276 12 68 sy.
- 2290 2291
: 2300 6 58 Big
: 2306 4 61  in
: 2310 6 63  Ja
: 2316 6 63 pa
: 2322 10 63 ~n!
E

