#TITLE:Knocking On Heavens Door.mp3
#ARTIST:Guns N' Roses
#MP3:Guns N' Roses - Knocking On Heavens Door.mp3.mp3
#VIDEO:Guns N' Roses - Knocking On Heavens Door.mp3 [VD#-1].mpg
#COVER:Guns N' Roses - Knocking On Heavens Door.mp3 [CO].jpg
#BACKGROUND:Guns N' Roses - Knocking On Heavens Door.mp3 [BG].jpg
#BPM:132,5
#GAP:7510
#VIDEOGAP:-1
#ENCODING:UTF8
#EDITION:Rock & Metal
: 0 25 6 Uuu
: 25 5 6 ~u
: 30 12 5 ~u
: 42 6 5 ~u
: 48 22 3 ~u!
- 72
: 212 3 -2 Ma
: 215 2 -2 ma
: 218 2 -2  take
: 220 1 -4 ~
: 222 4 -4  this
- 227
: 228 2 -4 badge
: 230 2 -6 ~
: 232 2 -6  from
: 235 4 -4  me!
- 241
: 275 1 -11 I
: 276 2 -2 ~
: 279 3 -2  can't
: 282 2 -2  use
: 284 2 -4 ~
: 287 3 -4  it
- 292
: 295 2 -4 a
: 297 2 -6 ny
: 299 2 -6 more
: 301 3 -9 ~.
- 306
: 340 1 -11 It's
: 341 3 -2  ge
: 344 1 -2 tting
: 346 3 -2  dark
: 349 4 -4 ~,
- 354
: 354 2 -4 too
: 357 2 -4  dark
: 359 2 -6 ~
: 362 1 -6  to
: 364 4 -4  see.
- 370
: 401 2 -6 Feels
: 403 2 -2 ~
: 406 3 -2  like
: 410 2 -2  I'm
: 412 1 -4 ~
: 414 2 -2  kno
: 416 2 -4 ckin'
: 418 2 -4  on
: 420 2 -6 ~
: 422 2 -4  hea
: 424 3 -6 ven's
: 428 2 -4  door
: 430 2 -6 ~
: 432 9 -9 ~.
- 443
: 470 3 -2 Knock-
: 474 3 -2 knock-
: 478 3 -2 kno
: 481 2 -4 ckin'
: 483 2 -4  on
: 485 1 -6 ~
: 487 2 -4  hea
: 489 2 -6 ven's
: 492 3 -4  door
: 495 2 -6 ~
: 497 4 -9 ~.
- 502
: 502 5 -6 Hey,
: 510 6 -3  hey,
: 518 2 -4  hey
: 520 1 -3 ~,
: 522 2 -4  hey
* 524 2 -2 ~,
: 526 4 -6  yeah!
- 532
: 534 3 6 Knock-
: 538 3 6 knock-
: 542 2 5 kno
: 544 2 5 ckin'
: 546 2 5  on
: 548 1 3 ~
: 550 2 5  hea
: 552 3 6 ven's
: 556 2 3  door
: 558 2 1 ~
: 560 8 -1 ~.
- 570
: 589 7 6 Uuuuh,
- 597
: 598 1 8 knock
: 599 2 10 ~-
: 602 3 10 knock-
: 606 2 10 kno
: 608 2 8 ckin'
: 610 1 8  on
: 611 2 6 ~
: 614 2 8  hea
: 616 3 6 ven's
* 620 2 10  door
: 622 3 8 ~
: 625 2 5 ~
: 627 8 6 ~.
- 636
: 637 5 8 Uuuu
* 642 5 10 uuuuh
: 647 2 6 uh
: 649 2 8 uh
* 651 2 10 uh,
: 653 4 6  yeah!
- 659
: 661 3 10 Knock-
: 665 2 10 knock
: 667 1 13 ~-
: 669 2 8 kno
: 671 2 8 ckin'
: 673 2 8  on
: 675 2 6 ~
: 677 2 8  hea
: 679 3 6 ven's
- 683
: 683 2 10  door
: 685 7 11 ~
: 692 6 10 ~
: 698 2 6 ~
: 700 4 6 ~.
- 706
: 709 2 6 Ey
: 711 1 1 ~,
: 713 2 10  hey
: 715 1 6 ~,
: 717 2 8  yeah
* 719 2 10 ~
: 721 3 6  ~!
- 726
: 985 2 -2 Ma
: 987 3 -2 ma
: 991 3 -2  put
: 995 3 -4  my
- 999
: 1001 4 -4 guns
: 1005 1 -4  in
: 1006 1 -6  the
: 1008 6 -4  ground!
- 1016
: 1048 1 -11 I
: 1049 2 -2 ~
: 1052 3 -2  can't
: 1056 4 -2  shoot
: 1060 5 -4  them
- 1066
: 1068 2 -4 a
: 1070 2 -6 ny
: 1072 2 -6 more
: 1074 4 -9 ~.
- 1080
: 1110 4 -2 That
: 1115 4 -2  cold
: 1119 3 -2  black
: 1123 2 -2  cloud
: 1125 2 -4 ~
: 1128 3 -4  is
- 1132
: 1133 2 -4 co
: 1136 2 -6 min'
: 1139 6 -4  down.
- 1147
: 1176 2 -4 Feels
: 1178 2 -2 ~
: 1181 3 -2  like
: 1184 2 -2  I'm
: 1186 2 -4 ~
: 1188 2 -2  kno
: 1190 2 -4 ckin'
: 1192 2 -4  on
: 1194 2 -6 ~
: 1196 3 -4  hea
: 1199 3 -6 ven's
: 1203 2 -4  door
: 1205 2 -6 ~
: 1207 5 -9 ~.
- 1214
: 1245 3 -2 Knock-
: 1249 3 -2 knock-
: 1253 2 -2 kno
: 1255 2 -4 ckin'
: 1257 2 -4  on
: 1259 2 -6 ~
: 1261 2 -4  hea
: 1263 3 -6 ven's
: 1267 2 -4  door
: 1269 2 -6 ~
: 1271 3 -9 ~.
- 1275
: 1277 4 -6 Hey,
: 1285 2 -3  hey
: 1287 2 -2 ~,
: 1293 2 -4  hey
: 1295 1 -3 ~,
: 1297 2 -4  hey
* 1299 1 -2 ~,
: 1301 4 -6  yeah!
- 1307
: 1309 3 6 Knock-
: 1313 3 6 knock-
: 1317 2 5 kno
: 1319 2 5 ckin'
: 1321 2 5  on
: 1323 2 3 ~
: 1325 2 5  hea
: 1327 3 6 ven's
: 1331 2 3  door
: 1333 3 1 ~
: 1336 5 -1 ~.
- 1343
: 1372 3 10 Knock-
: 1376 3 10 knock-
: 1380 2 10 kno
: 1382 2 8 ckin'
: 1384 2 8  on
: 1386 2 6 ~
: 1388 3 8  hea
: 1391 2 6 ven's
* 1394 2 8  door
* 1396 3 10 ~
: 1400 2 3 ~
: 1402 5 6 ~.
- 1409
* 1412 10 11 Uuuh,
: 1423 3 5  oh,
: 1427 6 6  yeah!
- 1434
: 1436 2 8 Knock
: 1438 1 10 ~-
: 1440 2 8 knock-
: 1442 1 13 kno
: 1444 2 8 ~
: 1446 2 8 ckin'
: 1448 2 8  on
: 1450 2 6 ~
: 1452 2 8  hea
: 1454 3 6 ven's
- 1458
: 1458 2 10  door
* 1460 8 11 ~
: 1468 5 10 ~
: 1474 2 6 ~
: 1476 6 6 ~.
- 1483
: 1484 2 10 Hey
: 1486 1 6 ~,
: 1488 2 8  hey
* 1490 1 10 ~,
: 1492 2 8  yeah
: 1494 4 6 ~!
- 1500
* 1508 53 13 Uuuuuuuuuh!
- 1563
: 1935 1 0 "You
: 1936 1 0  just
: 1938 1 0  be
: 1939 1 0 tter
: 1940 1 0  start
- 1941
: 1941 3 0 sni
: 1944 1 0 ffin'
: 1945 1 0  your
: 1946 2 0  own
: 1948 2 0  rank
: 1950 3 0  sub
: 1953 1 0 jug
: 1954 2 0 tion
: 1956 2 0  jack
- 1959
: 1959 1 0 'cause
: 1960 1 0  its
: 1961 1 0  just
: 1962 2 0  you
- 1964
: 1964 1 0 a
: 1965 1 0 gainst
: 1966 1 0  your
: 1967 2 0  ta
: 1969 1 0 ttered
: 1970 1 0  li
: 1971 1 0 bi
: 1972 1 0 do,
- 1973
: 1973 1 0 the
: 1974 2 0  bank
: 1976 1 0  and
: 1977 1 0  the
: 1978 1 0  mor
: 1979 1 0 ti
: 1980 1 0 cian,
- 1982
: 1982 1 0 for
: 1983 1 0 e
: 1984 1 0 ver
: 1985 1 0  man
: 1986 1 0  and
: 1987 1 0  it
: 1988 2 0  wouldn't
: 1990 1 0  be
: 1992 1 0  luck
- 1993
: 1993 2 0 if
: 1995 1 0  you
: 1996 1 0  get
: 1997 1 0  out
: 1998 1 0  of
: 1999 2 0  live
: 2001 1 0  a
: 2002 2 0 live!"
- 2005
: 2006 3 -2 Knock-
: 2010 3 -2 knock-
: 2014 2 -2 kno
: 2016 2 -4 ckin'
: 2018 2 -4  on
: 2020 1 -6 ~
: 2022 2 -4  hea
: 2024 3 -6 ven's
: 2028 2 -4  door
: 2030 2 -6 ~
: 2032 4 -9 ~.
- 2037
: 2038 4 -6 Hey,
: 2046 2 -3  hey
: 2048 3 -2 ~,
: 2054 2 -4  hey
: 2056 1 -3 ~,
: 2058 2 -4  hey
* 2060 1 -2 ~,
: 2062 5 -6  yeah!
- 2068
: 2070 2 8 Knock
: 2072 2 10 ~-
: 2074 3 13 knock-
* 2078 2 15 kno
: 2080 2 13 ckin'
: 2082 2 13  on
: 2084 2 11 ~
: 2086 4 13  hea
: 2090 2 11 ven's
: 2092 2 11  door
: 2094 8 6 ~.
- 2104
: 2134 3 6 Knock-
: 2138 3 6 knock-
: 2142 2 6 kno
: 2144 2 5 ckin'
: 2146 2 5  on
: 2148 1 3 ~
: 2150 2 5  hea
: 2152 3 6 ven's
: 2156 5 3  door.
- 2163
* 2166 13 9 Uuuh
: 2180 5 5 uh
: 2185 3 6 uh,
: 2189 8 6  yeah!
- 2197
: 2197 2 8 Knock
: 2199 2 10 ~-
: 2201 4 13 knock-
* 2205 2 15 kno
: 2207 2 13 ckin'
: 2209 3 13  on
: 2213 4 13  hea
: 2217 2 11 ven's
: 2220 2 11  door
: 2222 8 6 ~.
- 2232
: 2257 3 13 Uuuh,
- 2261
: 2261 3 13 knock-
: 2265 3 13 knock-
: 2269 2 13 kno
: 2271 2 11 ckin'
: 2273 2 11  on
: 2275 2 10 ~
: 2277 2 11  hea
: 2279 3 10 ven's
: 2283 2 11  door
: 2285 2 10 ~
: 2287 4 6 ~.
- 2292
: 2293 4 9 No
: 2297 2 6 u,
* 2299 4 10  no
: 2303 2 6 u,
* 2305 2 10  no
: 2307 2 6 u,
F 2309 2 10  m
F 2311 2 6 mh,
* 2313 2 10  no
: 2315 2 6 u,
: 2317 4 8  ou
: 2321 4 6 o!
- 2325
: 2325 2 8 Knock
: 2327 1 10 ~-
: 2329 3 13 knock-
* 2333 2 15 kno
: 2335 2 13 ckin'
: 2338 2 13  on
: 2341 4 13  hea
: 2345 2 11 ven's
: 2348 2 13  door
: 2350 6 11 ~~~.
- 2358
: 2389 3 13 Knock-
: 2393 3 13 knock-
: 2397 2 15 kno
: 2399 2 13 ckin'
: 2401 4 13  on
: 2405 2 13  hea
: 2407 3 11 ven's
: 2411 2 11  door
: 2413 2 10 ~
: 2415 4 6 ~.
- 2420
: 2421 4 9 No
: 2425 2 6 u,
* 2427 4 10  no
: 2431 2 6 u,
F 2433 2 10  m
F 2435 2 6 mh,
* 2437 2 10  no
: 2439 2 6 u,
: 2441 3 8  ou,
: 2445 4 6  nou!
- 2451
: 2453 2 8 Knock
: 2455 1 10 ~-
: 2457 3 13 knock-
* 2461 2 15 kno
: 2463 2 13 ckin'
: 2465 3 13  on
: 2469 4 13  hea
: 2473 2 11 ven's
: 2476 2 13  door
: 2478 16 11 ~~~.
- 2495
: 2495 2 10 Uh,
: 2497 2 11  oh
: 2499 2 10  uh,
: 2501 2 11  oh
: 2503 2 9  uh,
: 2505 2 11  oh
: 2507 1 9  uh,
* 2509 2 11  yeah
* 2511 2 10 ~!
- 2514
: 2516 2 10 Knock
: 2518 2 13 ~-
: 2520 2 10 knock
: 2522 2 13 ~-
: 2524 3 8 kno
: 2527 2 8 ckin'
: 2529 3 8  on
: 2533 4 8  hea
: 2537 2 10 ven's
: 2540 9 6  door.
- 2551
: 2580 2 10 Knock
: 2582 2 13 ~-
: 2584 4 13 knock-
* 2588 3 15 kno
: 2591 2 13 ckin'
: 2593 3 13  on
: 2596 3 13  hea
: 2599 3 11 ven's
: 2602 3 11  door
: 2605 2 10 ~
: 2607 4 6 ~.
- 2612
: 2612 3 9 Uu
: 2615 2 10 u
* 2617 11 11 uuuuh,
: 2629 6 6  oh,
: 2636 5 6  oh!
- 2642
: 2644 3 10 Knock-
: 2648 3 10 knock-
: 2652 2 10 kno
: 2654 2 8 ckin'
: 2656 2 8  on
: 2658 1 6 ~
: 2660 4 8  hea
: 2664 1 8 ven's
: 2666 2 10  door
: 2668 7 6 ~
- 2677
: 2707 3 10 Knock-
: 2711 3 10 knock-
: 2715 2 10 kno
: 2717 2 8 ckin'
: 2719 2 8  on
: 2721 1 6 ~
: 2723 2 8  hea
: 2725 2 6 ven's
: 2729 2 10  door
* 2731 22 11 ~.
- 2754
: 2756 2 6 Uh,
: 2758 2 8 oh
: 2760 2 6  uh,
* 2763 20 11  ooooooooooooh!
- 2785
: 2791 3 11 Ouh!
: 2795 3 11  Yeah
: 2798 2 10 ~,
* 2801 9 11  yeah
: 2810 4 10 ~,
: 2814 4 6  yeah
: 2819 4 3 ~
: 2823 3 3 ~
: 2826 2 3 ~
: 2828 2 3 ~
: 2830 2 3 ~
: 2832 14 1 ~!
E