#TITLE:Early Winter
#ARTIST:Gwen Stefani
#LANGUAGE:English
#EDITION:Rock Out Loud
#GENRE:Pop
#MP3:Gwen Stefani - Early Winter.mp3
#COVER:Gwen Stefani - Early Winter.jpg
#VIDEO:Gwen Stefani - Early Winter.mpg
#VIDEOGAP:0,5
#BPM:113
#GAP:10280
* 1 10 20 You, 
: 15 2 14 you 
: 18 4 20 know 
: 22 2 18 how 
: 24 2 15 to 
: 26 3 13 get 
: 29 2 11 me 
: 31 4 13 so 
: 35 9 15 low 
- 44
: 48 2 15 My 
: 50 4 20 heart 
: 54 2 18 had 
: 57 2 15 a 
: 59 4 13 crash 
: 63 2 11 when 
: 65 3 11 we 
: 68 9 13 spoke 
- 78
: 81 2 6 I 
: 83 8 15 can't 
: 91 4 13 fix 
: 95 2 11 what 
: 97 4 6 you 
: 102 9 8 broke 
- 111
: 126 2 20 And 
: 128 15 20 I, 
: 145 2 20 al
: 147 2 22 ways 
: 149 9 23 was, 
: 159 2 18 and 
: 161 4 22 al
: 165 10 18 ways 
- 175
: 175 2 13 Was 
: 177 9 16 one 
: 187 4 18 for
: 191 2 15 ~ 
: 193 4 15 cry
: 197 9 8 ing 
- 206
: 208 2 11 I 
: 210 2 13 always 
: 212 10 15 was
: 222 2 13 ~ 
: 224 9 13 one 
: 234 5 11 for 
: 240 9 8 tears 
- 250
: 255 2 20 The 
: 257 3 20 sun's 
: 261 3 18 getting 
: 265 6 20 cold, 
: 273 2 15 It's 
: 275 3 15 snow
: 279 8 13 ing 
- 287
* 289 4 22 Looks 
* 293 2 20 like 
* 295 2 18 an 
: 297 6 23 ear
: 303 2 22 ly 
* 305 4 20 win
: 309 11 18 ter 
- 320
: 322 11 15 For
* 334 2 16 ~
: 336 2 15 ~ 
: 338 9 13 us 
- 348
: 353 2 14 An 
: 355 8 18 ear
: 363 8 15 ly 
: 371 4 13 win
: 375 9 11 ter 
- 385
: 388 11 15 Oh
: 400 2 16 ~
: 402 2 15 ~ 
: 404 9 13 I 
- 414
: 416 4 6 Need 
: 420 6 15 you 
: 427 2 13 to 
: 429 4 13 turn 
: 433 2 11 me 
* 435 4 6 ov
: 439 9 8 er 
- 451
: 465 3 20 You 
: 469 9 20 say, 
: 483 2 15 The 
: 485 4 20 map 
: 489 2 18 of 
: 491 2 15 the 
: 493 4 13 world 
: 497 3 11 is 
: 500 3 13 on 
: 503 9 15 you 
- 513
: 515 2 15 The 
: 517 4 20 moon 
: 521 2 18 gra
: 523 2 15 vit
: 525 4 13 ats 
: 529 2 11 ar
: 531 4 11 ound 
: 536 9 13 you 
- 545
: 547 2 6 The 
: 549 8 15 sea
: 557 4 13 sons 
: 561 2 11 es
: 563 4 6 cape 
: 567 9 8 you 
- 577
: 594 2 15 No 
: 597 14 20 I 
- 612
: 612 2 20 Nev
: 614 2 22 er 
: 616 8 23 was
: 624 4 18 ~ 
: 628 4 22 nev
: 632 10 18 er 
- 643
: 643 2 13 Was 
: 645 8 16 one 
: 655 4 18 for
: 659 2 15 ~ 
: 661 4 15 ly
: 665 9 8 ing 
- 674
: 674 2 15 You 
: 676 2 13 lied 
: 678 2 11 to 
: 680 10 15 me
: 690 2 13 ~ 
- 694
* 694 8 13 All 
: 704 4 11 these 
: 710 7 8 years 
- 718
: 723 2 20 The 
: 725 3 20 sun's 
: 729 3 18 getting 
: 733 6 20 cold, 
: 739 2 15 It's 
: 741 3 15 snow
: 745 9 13 ing 
- 755
: 757 4 22 Looks 
: 761 2 20 like 
: 763 2 18 an 
: 765 6 23 ear
: 771 2 22 ly 
: 773 4 20 win
* 777 11 18 ter 
- 789
: 791 12 15 For
: 803 2 16 ~
: 805 2 15 ~ 
: 807 9 13 us 
- 818
: 822 4 22 Looks 
: 826 2 20 like 
: 828 2 18 an 
: 830 6 23 ear
: 836 2 22 ly 
: 838 4 20 win
: 842 11 18 ter 
- 855
: 855 12 15 For
* 867 2 16 ~
: 869 2 15 ~ 
: 871 9 13 us 
- 882
: 884 2 14 An 
: 887 8 18 ear
: 895 8 15 ly 
: 903 4 13 win
: 907 9 11 ter 
- 919
* 919 12 15 Oh
* 931 2 16 ~
* 933 2 15 ~ 
* 935 9 13 I 
- 947
: 948 4 6 Need 
: 952 6 15 you 
: 958 2 13 to 
: 960 4 13 turn 
: 964 2 11 me 
: 966 4 6 ov
: 971 9 8 er 
- 984
: 1016 2 15 Oh 
: 1018 2 16 why
* 1020 2 15 ~
* 1022 2 16 ~
* 1024 2 18 ~
* 1026 2 20 ~
* 1028 2 18 ~
* 1030 2 20 ~
* 1032 2 23 ~
* 1034 2 25 ~
* 1036 5 23 ~
- 1042
: 1047 3 23 Why 
: 1051 1 22 do 
: 1053 1 20 you 
: 1055 3 18 act 
: 1059 4 15 so 
: 1063 3 13 stu
: 1067 6 11 pid 
- 1075
* 1081 2 15 Oh 
* 1083 2 16 why
: 1085 2 15 ~
: 1087 2 16 ~
: 1089 2 18 ~
: 1091 2 20 ~
: 1093 2 18 ~
: 1095 2 20 ~
: 1097 2 23 ~
* 1099 2 25 ~
: 1101 5 23 ~
- 1107
: 1110 1 15 You 
: 1112 4 23 know 
: 1116 1 22 that 
: 1118 1 20 I'm 
: 1120 2 18 al
: 1124 2 15 ways 
* 1128 6 13 right 
- 1135
: 1143 2 22 It 
: 1145 4 22 looks 
: 1149 2 20 like 
: 1151 2 18 an 
: 1153 6 23 ear
: 1159 2 22 ly 
: 1161 4 20 win
: 1165 11 18 ter 
- 1177
* 1177 12 15 For
* 1189 2 16 ~
* 1191 2 15 ~ 
* 1193 9 13 us 
- 1203
: 1207 2 22 It 
: 1209 4 22 hurts 
: 1213 2 20 that 
: 1215 2 18 I 
: 1217 6 23 can't 
: 1223 2 22 re
: 1225 4 20 mem
: 1229 11 18 ber 
- 1241
: 1242 12 15 Sun
: 1254 2 16 ~
: 1256 2 15 ~
: 1258 9 13 light 
- 1271
: 1273 2 13 An 
* 1275 7 18 ear
: 1282 8 15 ly 
: 1291 4 13 win
: 1295 9 11 ter 
- 1307
: 1307 12 15 For
: 1319 2 16 ~
: 1321 2 15 ~ 
: 1323 9 13 us 
- 1335
: 1338 2 6 We 
: 1340 6 15 need 
: 1346 2 13 a 
: 1348 4 13 change 
: 1352 2 11 in 
: 1354 4 6 col
: 1358 9 8 or 
- 1371
: 1372 12 15 For
: 1385 2 16 ~
* 1387 2 15 ~ 
: 1389 3 13 us 
- 1412
F 1416 2 18 Start
F 1418 2 18 in 
F 1420 3 23 ov
F 1424 2 18 er 
F 1426 2 18 and 
F 1428 3 23 ov
F 1432 2 18 er 
F 1434 2 18 and 
F 1436 3 23 ove
F 1440 2 18 r 
F 1442 2 18 aga
F 1444 3 18 in 
- 1478
F 1480 2 18 Start
F 1482 2 18 ing 
F 1484 3 23 ov
F 1489 2 18 er 
F 1491 2 18 and 
F 1493 3 23 ov
F 1497 2 18 er 
F 1499 2 18 and 
F 1501 3 23 ov
F 1505 2 18 er 
F 1507 2 18 a
F 1509 3 18 gain 
- 1546
F 1546 2 18 Starting 
F 1548 3 23 ov
F 1552 2 18 er 
F 1554 2 18 and 
F 1556 3 23 ov
F 1560 2 18 er 
F 1562 2 18 and 
F 1564 3 23 ov
F 1568 2 18 er 
F 1570 2 18 a
F 1572 3 18 gain 
E
