#TITLE:Jona Vark
#ARTIST:Gypsy & The Cat
#MP3:Gypsy & The Cat - Jona Vark.mp3
#VIDEO:Gypsy & The Cat - Jona Vark.mp4
#COVER:Gypsy & The Cat - Jona Vark.jpg
#BPM:500,04
#GAP:23193
#ENCODING:UTF8
#LANGUAGE:English
#YEAR:2009
#AUTHOR:Selbst
: 0 5 -12 She
: 7 9 -5  walks
: 18 4 -4  on
: 24 5 -3  the
: 31 37 -5  street
- 70
: 129 4 -13 A
: 134 10 -6 lone
: 146 5 -6  in
: 153 5 -7  the
: 160 16 -8  dark
- 178
: 257 4 -12 Her
: 263 9 -7  heads
: 274 5 -3  held
: 281 5 -3  up
: 288 23 -5  high
- 313
: 376 6 -9 she's
: 387 5 0  got
: 394 4 -7  no
: 400 13 -7 thing
: 417 15 -7  fear
- 434
: 497 2 -4 As
: 506 5 -3  she
: 513 3 1  cross
: 519 14 5 ~
: 535 7 0 ~
: 544 14 -1 ~
: 571 3 5  the
: 579 25 4  road
- 606
: 640 3 -2 She
: 647 8 5  looks
: 657 5 2  to
: 664 3 1  the
: 672 28 0  stars
: 707 5 2  and
: 714 3 5  ask
: 722 6 4  for
: 730 6 2  ad
: 737 23 0 vice
- 762
: 770 19 0 Where
: 792 6 -3  to
: 804 13 -5  go?
- 819
: 872 8 6 Where
: 883 4 4  do
: 889 5 5  it
: 897 21 5  goes
: 923 5 8  a
: 929 48 9 gain?
: 982 6 7 ~
: 997 12 5 ~
- 1011
* 1033 53 8 Jo
* 1087 22 7 na
- 1111
: 1161 14 8 Jo
: 1176 7 0 na
: 1185 9 2  Vark
- 1196
: 1264 6 1 Her
: 1273 7 0  name
: 1282 4 1  is
: 1289 48 9  Jo
: 1338 6 8 na
: 1346 10 7  Vark
- 1358
* 1416 14 8 Jo
* 1431 7 0 na
* 1440 10 2  Vark
- 1452
: 1521 6 1 Her
: 1530 7 0  name
: 1539 3 1  is
: 1546 52 9  Jo
: 1600 17 7 na
- 1619
: 1674 17 8 Jo
: 1692 5 0 na
: 1698 15 2  Vark
- 1715
: 1778 6 1 Her
: 1787 7 0  name
: 1796 4 1  is
: 1803 48 9  Jo
: 1852 6 8 na
: 1860 12 7  Vark
- 1874
: 1929 17 8 Jo
: 1947 7 0 na
: 1956 10 2  Vark
- 1968
: 2565 3 -10 She
: 2570 7 -5  found
: 2579 9 -3  a
: 2591 23 -4  place
- 2616
: 2688 7 -12 A
: 2696 9 -6 mongst
: 2707 7 -5  the
: 2719 27 -7  trees
- 2748
: 2819 5 -6 She
: 2826 4 -1  o
: 2832 9 -3 pe
: 2842 5 -6 ned
: 2849 3 -8  her
: 2854 25 -8  eyes
- 2881
: 2947 4 -11 To
: 2954 8 -5  star
: 2964 4 -5 ted
: 2970 3 -5  to
: 2979 16 -7  see
: 2996 15 -10 ~
- 3013
: 3069 2 -5 A
: 3073 21 0  flo
: 3095 10 5 wer
: 3109 17 4  in
: 3129 7 4  the
: 3138 15 4  dis
: 3154 12 0 tance
- 3168
: 3224 4 4 Sho
: 3229 7 5 wed
: 3240 16 4  her
: 3258 5 -2  the
: 3265 26 0  way
- 3293
: 3330 4 -1 To
: 3337 9 2  ans
: 3347 5 5 wer
: 3354 5 5  the
: 3361 13 4  ques
: 3375 20 0 tions
- 3397
* 3465 7 -5 We
* 3474 18 -3  all
* 3495 14 2  like
* 3512 6 5  to
* 3520 42 8  ask?
* 3568 24 5 ~
- 3593
: 3593 53 8 Jo
: 3647 22 7 na
- 3671
: 3722 14 8 Jo
: 3737 7 0 na
: 3746 11 2  Vark
- 3759
: 3826 6 1 Her
: 3835 7 0  name
: 3844 4 1  is
: 3851 48 9  Jo
: 3900 6 8 na
: 3908 13 7  Vark
- 3923
: 3978 17 8 Jo
: 3996 7 0 na
: 4005 11 2  Vark
- 4018
: 4083 6 1 Her
: 4092 7 0  name
: 4101 4 1  is
: 4108 52 9  Jo
: 4162 17 7 na
- 4181
: 4232 17 8 Jo
: 4250 7 0 na
: 4259 11 2  Vark
- 4272
: 4338 6 1 Her
: 4347 7 0  name
: 4356 4 1  is
: 4363 48 9  Jo
: 4412 6 8 na
: 4420 12 7  Vark
- 4434
: 4489 17 8 Jo
: 4507 7 0 na
: 4516 10 2  Vark
- 4528
* 5105 6 1 Her
* 5114 7 0  name
* 5123 4 1  is
* 5130 52 9  Jo
* 5184 17 7 na
- 5203
: 5257 13 8 Jo
: 5272 8 0 na
: 5282 10 2  Vark
- 5294
: 5364 6 1 Her
: 5372 7 0  name
: 5380 4 1  is
: 5386 46 9  Jo
: 5435 6 8 na
: 5444 11 7  Vark
- 5457
: 5514 13 8 Jo
: 5529 8 0 na
: 5539 11 2  Vark
- 5552
: 5618 6 1 Her
: 5625 7 0  name
: 5636 4 1  is
: 5642 52 9  Jo
: 5699 17 7 na
- 5718
: 5770 13 8 Jo
: 5784 8 0 na
: 5795 11 2  Vark
- 5808
: 5875 6 1 Her
: 5883 7 0  name
: 5891 4 1  is
: 5897 46 9  Jo
: 5946 6 8 na
: 5955 11 7  Vark
- 5968
: 6024 11 8 Jo
: 6038 8 0 na
: 6049 12 2  Vark
- 6063
: 6130 6 1 Her
: 6137 7 0  name
: 6148 4 1  is
: 6154 51 9  Jo
: 6206 32 7 na
E