#ARTIST:Helloween

#TITLE:Forever and One (Neverland)

#MP3:05 - helloween - forever and one neverland.mp3

#BACKGROUND:helloween.jpg
#COVER:helloween_foreverandone.jpg
#AUTHOR:Made in StarForge

#EDITION:Selbstgemacht

#BPM:190,05

#GAP:35


: 180 3 10 What 
: 184 3 11 can 
: 188 5 15 I 
: 195 7 15 do 
- 204
: 216 3 15 Will 
: 220 3 13 I 
: 224 3 11 be 
: 232 3 13 get
: 236 3 18 ting 
: 244 8 15 through 
- 252
: 264 10 20 Now 
: 276 3 18 that 
: 280 3 15 I 
: 284 3 15 must 
: 288 4 13 try
: 292 7 11 ~ 
- 300
: 308 3 11 to 
: 314 5 13 leave 
: 321 3 11 it 
: 328 3 13 all 
: 332 6 15 be
: 340 13 15 hind
: 353 3 13 ~
: 356 4 11 ~
: 360 10 15 ~ 
- 372
: 376 3 11 Did 
: 380 4 13 you 
: 388 6 15 see 
- 394
: 408 3 15 what 
: 412 3 13 you 
: 416 7 11 have 
: 424 6 13 done 
: 432 5 18 to 
: 438 6 15 me 
- 444
: 452 3 15 So 
* 456 10 20 hard 
: 470 3 18 to 
: 474 3 15 jus
: 478 3 15 ti
: 482 3 13 fy
: 486 6 11 ~ 
- 496
: 504 3 16 Slow
: 508 3 15 ly 
: 512 3 13 it's 
: 520 4 16 pas
: 526 2 13 sing
: 528 4 15 ~ 
: 532 22 15 by 
- 556
: 560 3 15 For
: 564 3 15 ev
: 568 3 20 er 
: 572 3 22 and 
* 576 14 23 one 
- 591
: 592 3 22 I 
: 596 3 20 will 
: 600 4 22 miss 
: 608 8 15 you 
- 619
: 620 4 15 how
: 624 15 20 ev
: 640 3 18 er 
: 644 3 16 I 
: 648 4 18 kiss 
: 656 7 15 you 
- 663
: 664 3 13 yet 
: 668 3 11 a
: 672 7 8 gain 
: 684 7 20 way 
: 696 7 18 down 
: 704 7 13 in 
- 711
: 712 4 13 ne
: 716 4 13 ver
: 720 4 15 ~
: 724 27 15 land 
- 752
: 764 3 15 So 
* 769 14 23 hard 
: 784 3 22 I 
: 788 3 20 was 
: 792 7 22 try
: 800 7 15 ing 
- 808
: 812 4 15 To
: 817 14 20 mor
: 832 3 18 row 
: 836 3 16 I'll 
: 840 7 18 still 
: 848 3 18 be 
: 852 3 15 cry
: 856 3 13 ~
: 860 7 11 ing
- 868
: 876 3 20 How 
: 880 3 22 could 
: 884 3 23 you 
: 888 4 22 hide
: 892 4 20 ~
: 896 4 18 ~
: 900 5 15 ~ 
- 907
: 908 4 22 your
: 912 3 23 ~ 
: 916 10 23 lies, 
: 932 4 23 your
: 936 3 25 ~ 
* 940 16 25 lies? 
- 960
: 976 3 11 Here 
: 980 7 15 I 
: 988 4 15 am 
- 995
: 1009 3 15 see
: 1012 3 13 in' 
: 1016 7 11 you 
: 1024 4 13 once 
: 1032 4 18 a
: 1036 4 15 gain 
- 1042
: 1052 3 15 My 
* 1058 9 20 mind 
: 1070 2 18 so 
: 1073 2 15 far 
: 1077 3 15 a 
: 1081 3 13 way 
: 1084 7 11 ~ 
- 1092
: 1100 3 11 My 
: 1104 6 13 heart 
: 1112 4 11 so 
: 1120 3 13 close 
: 1124 7 15 to 
: 1134 10 15 stay
: 1144 4 13 ~
: 1148 4 11 ~
: 1153 6 15 ~ 
- 1161
: 1164 3 11 Too 
: 1168 3 11 proud 
: 1172 5 15 to 
: 1180 3 15 fight 
- 1196
: 1196 3 11 I'm 
: 1200 4 15 walk
: 1204 3 13 ing 
: 1208 3 11 back 
: 1216 7 13 in
* 1224 3 18 to 
: 1228 4 15 night 
- 1234
: 1248 7 20 Will 
: 1256 7 18 I 
: 1264 4 15 ev
: 1268 3 15 er 
: 1272 3 13 fi
: 1276 7 11 nd 
- 1298
: 1298 6 16 some
: 1304 7 13 one 
: 1312 3 16 to 
: 1316 3 13 be
: 1320 23 15 lieve 
- 1347
: 1352 4 15 For
: 1356 4 15 ev
: 1360 3 20 er 
: 1364 3 22 and 
: 1368 14 23 one 
- 1383
: 1384 3 22 I 
: 1388 3 20 will 
: 1392 4 22 miss 
: 1400 6 15 you 
- 1411
: 1412 4 15 how
: 1418 13 20 ev
: 1432 3 18 er 
: 1436 3 16 I 
: 1440 3 18 kiss 
: 1448 4 15 you 
- 1455
: 1456 3 13 yet 
: 1460 4 11 a
: 1464 7 8 gain 
* 1476 7 20 way 
: 1488 7 18 down 
: 1496 7 13 in 
- 1503
: 1504 4 13 ne
: 1508 3 13 ver
: 1512 4 15 ~
: 1516 27 15 land 
- 1544
: 1556 3 15 So 
: 1560 15 23 hard 
: 1576 3 22 I 
: 1580 2 20 was 
: 1584 6 22 try
: 1590 8 15 ing 
- 1600
: 1604 4 15 To
: 1608 16 20 mor
: 1624 3 18 row 
: 1628 3 16 I'll 
: 1632 7 18 still 
: 1640 3 18 be 
: 1644 4 15 cry
: 1648 4 13 ~
: 1652 6 11 ing 
- 1660
: 1668 3 20 How 
: 1672 3 22 could 
: 1676 3 23 you 
: 1680 4 22 hide
: 1684 4 20 ~
: 1688 4 18 ~
: 1692 4 15 ~ 
- 1699
: 1700 4 22 your
: 1704 3 23 ~ 
: 1708 10 23 lies, 
: 1724 4 23 your
: 1728 3 25 ~ 
: 1732 16 25 lies? 
- 1749
: 2360 3 15 For
: 2364 3 15 ev
: 2368 3 20 er 
: 2372 3 22 and 
: 2376 14 23 one 
: 2392 3 22 I 
: 2396 3 20 will 
: 2400 4 22 miss 
: 2408 6 15 you 
- 2419
: 2420 4 15 how
: 2424 15 20 ev
: 2440 3 18 er 
: 2444 3 16 I 
: 2448 4 18 kiss 
: 2456 7 15 you 
- 2463
: 2464 3 13 yet 
: 2468 3 11 a
: 2472 7 8 gain 
: 2484 7 20 way 
: 2496 7 18 down 
: 2504 7 13 in 
- 2511
* 2512 3 13 ne
* 2516 3 13 ver
* 2520 4 15 ~
* 2524 27 15 land 
- 2556
: 2564 3 15 So 
: 2568 15 23 hard 
: 2584 3 22 I 
: 2588 3 20 was 
: 2592 7 22 try
: 2600 7 15 ing 
- 2608
: 2612 3 15 To
: 2616 15 20 mor
: 2632 3 18 row 
: 2636 3 16 I'll 
: 2640 7 18 still 
: 2648 3 18 be 
: 2652 3 15 cry
: 2656 3 13 ~
: 2660 7 11 ing 
- 2668
: 2676 3 20 How 
: 2680 3 22 could 
: 2684 3 23 you 
: 2688 3 22 hide
: 2692 3 20 ~
: 2696 3 18 ~
: 2700 7 15 ~ 
- 2708
: 2710 2 22 your
: 2713 5 23 ~ 
: 2720 10 23 lies, 
* 2740 2 23 your
* 2743 5 25 ~ 
* 2749 15 25 lies? 
- 2768
: 2796 8 10 Your 
: 2808 36 10 lies
: 2848 28 11 ~ 

