#TITLE:Mar Adentro
#ARTIST:Heroes del Silencio
#MP3:Heroes del Silencio - Mar Adentro.mp3
#COVER:Heroes del Silencio - Mar Adentro [CO].jpg
#BACKGROUND:Heroes del Silencio - Mar Adentro [BG].jpg
#BPM:280,1
#GAP:15530,17
#ENCODING:UTF8
#LANGUAGE:Spanish
#GENRE:Rock
#EDITION:SingStar Popworld ESP
#YEAR:1989
: 0 2 57 Y
: 4 4 60  por
: 13 3 62  fin
: 17 2 62  he~en
: 22 2 62 con
: 26 6 62 tra
: 33 3 62 do~el
- 37
: 38 3 62 Ca
: 42 2 62 mi
: 45 5 60 no
- 52
: 73 4 53 Que
: 77 2 58  ha
: 80 2 58  de
: 83 4 58  gui
: 90 4 58 ar
- 95
: 96 5 58 Mis
: 104 4 58  pa
: 109 4 57 sos
- 115
: 131 2 53 Y~es
: 134 4 55 ta
: 141 2 57  no
: 144 2 57 che
: 147 3 57  me-es
: 153 6 57 pe
: 160 2 57 ra
- 163
: 163 2 57 El
: 165 2 57  a
: 168 5 57 mor
- 175
: 193 4 53 En
: 200 4 53  tus
: 206 3 53  la
: 209 2 50 bi
: 211 5 50 os
- 218
: 265 4 57 De
: 269 3 62  ca
: 273 2 62 da
: 276 3 62  mi
: 280 6 62 ra
: 287 2 64 da
- 290
* 291 8 65 Por
: 299 8 60 ~
: 308 3 60 di
: 313 8 60 os
- 323
: 329 4 53 Ar
: 333 3 58 dí
: 338 3 58 a~el
: 341 3 58  re
: 345 6 58 cuer
: 352 2 58 do
- 355
: 355 2 58 En
: 359 3 58  mi
: 363 6 58  in
: 370 5 57 te
: 378 5 57 rior
- 384
: 386 3 53 Pe
: 390 7 55 ro
: 397 3 57  ya~he
: 401 3 57  de
: 405 2 57 se
: 409 6 57 cha
: 416 2 57 do
- 419
: 420 3 57 Por
: 424 3 57  si
: 428 3 57 em
: 433 4 57 pre
: 439 3 57  la
: 445 2 57  fru
: 449 4 57 ta
- 454
: 456 5 57 Pod
: 462 3 57 ri
: 466 7 53 da
: 473 2 52 ~
: 475 3 50 ~
- 480
: 642 8 60 En
: 652 4 60  la
: 658 4 60  pri
: 664 8 60 sión
- 674
: 681 4 65 Del
: 686 6 64 ~
: 693 2 64 de
: 698 6 64 se
: 706 3 65 o
: 710 5 64  es
: 718 11 64 toy
: 729 8 62 ~
- 739
: 770 6 60 Y~aun
: 778 3 60 que
: 781 4 62  de
: 785 3 62 ba
: 788 3 62  ca
* 792 6 62 var
- 799
: 801 2 62 En
: 805 3 62  la
: 808 2 62  ti
: 812 3 62 er
: 816 7 60 ra
- 825
: 842 3 53 La
: 845 3 58  tum
: 849 2 58 ba
: 852 2 58  que
: 855 6 58  sé
- 862
: 863 2 58 Que
: 865 4 58  me~es
: 874 4 58 pe
: 878 8 57 ra
- 888
: 906 2 55 Ja
: 909 4 57 más
: 918 3 57  me
: 922 5 57  vi
: 929 6 57 o
- 936
: 937 2 57 Na
: 941 5 57 die
: 946 6 57  llo
: 953 7 57 rar
: 960 6 53  a
: 968 9 53 sí
- 979
: 1025 2 60 Que
: 1029 5 60  ter
: 1037 3 62 mi
: 1041 2 62 ne~un
: 1044 3 62  mo
: 1049 6 62 men
: 1057 3 64 to
- 1061
* 1062 7 65 Pre
: 1070 3 60 cio
: 1074 5 60 so
: 1079 2 58 ~
: 1081 2 57 ~
- 1085
: 1098 3 53 Y
: 1101 4 58  le
: 1106 6 58  su
: 1113 7 58 ce
: 1121 4 58 da
: 1125 3 58  la
- 1129
: 1129 6 58 Vul
: 1137 3 57 ga
: 1140 3 57 ri
: 1144 5 57 dad
- 1151
: 1153 3 53 Y
: 1156 7 55  na
: 1165 3 57 dar
: 1171 1 57  mar
- 1173
: 1173 5 57 A
: 1178 3 62 den
: 1186 4 64 tro
: 1190 4 62 ~
* 1194 10 67 ~
: 1204 5 65 ~
: 1209 8 65 ~
- 1219
: 1226 3 53 Y
: 1230 3 58  no
: 1234 5 58  po
: 1241 6 58 der
- 1249
: 1253 3 58 Sa
: 1258 5 58 lir
: 1263 8 57 ~
- 1273
: 1409 8 60 En
: 1419 4 60  la
: 1425 4 60  pri
: 1432 8 60 sión
- 1442
: 1454 6 64 Del
: 1461 2 64  de
: 1466 6 64 se
: 1474 3 65 o
: 1478 5 64  es
: 1486 11 64 toy
* 1497 29 65 ~
- 1528
: 1534 3 65 Jun
: 1537 2 64 ~
: 1541 3 65 to
: 1544 2 64  a
: 1549 6 65  ti
: 1555 2 64 ~
: 1557 3 62 ~
- 1562
: 2177 2 57 Y
: 2181 4 60  por
: 2188 3 62  fin
: 2192 2 62  he~en
: 2197 2 62 con
* 2201 6 62 tra
: 2208 3 62 do~el
- 2212
: 2213 3 62 Ca
: 2217 3 62 mi
: 2221 6 60 no
- 2229
: 2248 4 53 Que
: 2252 2 58  ha
: 2255 2 58  de
: 2258 5 58  gui
: 2265 4 58 ar
- 2270
: 2271 5 58 Mis
: 2279 4 58  pa
: 2284 5 57 sos
- 2291
: 2306 3 53 Y~es
: 2310 4 55 ta
: 2317 2 57  no
: 2320 2 57 che
: 2323 3 57  me-es
: 2329 6 57 pe
: 2336 2 57 ra
- 2339
: 2339 2 57 El
: 2341 2 57  a
: 2344 5 60 mor
- 2351
: 2370 4 65 En
: 2376 5 62  tus
* 2385 15 67  la
: 2400 8 65 bios
- 2410
: 2442 4 57 De
: 2446 3 62  ca
: 2449 2 62 da
: 2452 3 62  mi
: 2456 6 62 ra
: 2463 2 64 da
- 2466
* 2467 23 68 Por
: 2490 4 68  di
: 2494 4 67 os
: 2498 6 65 ~
- 2505
: 2506 3 65 Ar
: 2510 2 65 dí
: 2514 2 65 a~el
: 2517 3 65  re
: 2522 5 65 cuer
: 2528 2 62 do
: 2530 2 62  en
- 2534
: 2543 5 50 Mi
: 2550 12 50  interior
- 2563
: 2564 2 60 Y
: 2566 4 60  na
: 2570 8 62 dar
: 2580 2 62  mar
: 2582 2 62  a
: 2585 7 65 den
: 2592 3 62 ~
: 2597 5 62 tro
: 2602 4 60 ~
- 2608
: 2634 2 65 Y
: 2638 3 65  no
: 2643 4 65  que
: 2649 7 65 rer
: 2660 3 65  sa
: 2665 6 65 lir
: 2672 6 64 ~
- 2680
: 2819 8 60 En
: 2829 4 60  la
* 2835 4 60  pri
: 2842 8 60 sión
- 2852
: 2864 6 64 Del
: 2871 2 64  de
: 2875 6 64 se
: 2883 3 65 o
: 2887 5 64  es
: 2895 11 64 toy
: 2906 12 62 ~
- 2920
* 2931 27 67 En
: 2959 4 62  la
: 2964 6 60  pri
: 2971 5 60 sión
- 2978
: 2991 6 64 Del
: 2998 2 64  de
: 3003 6 64 se
: 3011 3 65 o
: 3015 5 64  es
: 3023 11 64 toy
: 3034 29 65 ~
- 3065
: 3071 3 65 Jun
: 3074 2 64 ~
: 3078 3 65 to
: 3081 2 64  a
: 3086 6 65  ti
: 3092 2 64 ~
: 3094 3 62 ~
- 3099
: 3970 8 60 En
: 3979 4 60  la
: 3987 4 60  pri
: 3994 8 60 sión
- 4004
: 4015 6 64 Del
: 4022 2 64  de
: 4027 6 64 se
: 4035 3 65 o
: 4039 5 64  es
: 4047 11 64 toy
: 4058 12 62 ~
- 4072
: 4091 6 62 Jun
: 4097 3 61 ~
: 4103 4 62 to
: 4107 3 61  a
: 4111 52 62  ti
E