#TITLE:Diggi-Loo Diggi-Ley
#ARTIST:Herreys
#EDITION:Singstar Svenska Hits Schlager
#LANGUAGE:Swedish
#COVER:Herreys - Diggi-Loo Diggi-Ley [CO].jpg
#BACKGROUND:Herreys - Diggi-Loo Diggi-Ley [BG].jpg
#MP3:Herreys - Diggi-Loo Diggi-Ley.mp3
#BPM:270,00
#GAP:11055,56
: 0 2 57 Blix
: 4 3 57 tar 
: 8 2 57 och 
: 12 7 55 dun
: 20 5 57 der 
- 35
: 63 3 60 Ma
: 67 2 60 gis
: 71 1 60 ka 
: 75 3 60 un
: 79 3 53  - 
: 83 5 53 der 
- 98
: 126 2 60 Plöt
: 130 2 60 sligt 
: 134 2 60 en 
: 139 6 57 dag 
- 145
: 146 3 55 Har 
: 150 2 53 det 
: 154 4 53 hänt
: 158 7 55  - 
- 169
: 174 4 57 Ĺh 
: 178 2 53 vil
: 182 2 55 ken 
: 186 4 55 tur
: 190 7 57  - 
- 197
: 198 7 61 Du 
: 206 7 62 är 
: 214 7 57 en 
: 222 2 55 lyc
: 226 3 53 ko
: 230 2 55 fi
* 234 8 60 gur 
- 247
: 253 2 57 En 
: 257 2 57 dag 
: 261 2 57 I 
: 265 6 55 sta
: 273 5 57 den 
- 279
: 281 3 60 Du 
: 285 2 60 gick 
: 289 4 58 där 
: 293 2 57 och 
: 297 6 53 tänk
: 305 6 55 te 
- 314
: 317 3 60 Pĺ 
: 320 2 60 es
: 324 3 60 pla
: 329 3 60 na
: 332 3 53  - 
: 336 6 53 den 
- 343
: 345 2 53 Dĺ 
* 349 2 65 sĺg 
: 353 2 65 du 
: 357 2 65 nĺt 
: 361 2 65 som 
: 365 4 64 blänk
: 373 3 62 te 
- 376
: 377 2 57 Det 
: 381 2 60 kän
: 385 2 60 des 
: 389 2 60 som 
: 393 6 57 jag 
- 399
: 401 2 55 Ha
: 405 2 53 -de 
: 409 4 53 vin
: 413 7 55  - 
: 420 3 48 - 
: 425 10 48 gar 
- 440
: 445 5 60 Ĺh 
: 453 2 60 vil
: 457 2 60 ken 
- 459
: 461 2 57 Un
: 465 2 55 der
: 469 3 53 bar 
: 473 24 60 dröm
: 497 4 65  - 
: 501 4 64 - 
: 505 13 60 - 
- 526
: 534 2 57 Dig
: 538 3 58 gi
: 542 5 60 loo 
: 550 3 60 dig
: 554 3 57 gi
: 558 6 62 ley 
- 564
: 566 3 62 Al
: 570 2 57 la 
: 574 3 55 tit
: 578 2 57 tar 
: 582 2 58 pĺ 
: 586 9 60 mig 
- 596
: 598 3 57 Där 
: 602 2 58 jag 
: 606 4 60 gĺr 
: 610 3 60 I 
: 614 3 60 mi
: 618 3 60 na 
- 621
: 622 3 60 Gyll
: 626 4 53  - 
: 630 6 53 ne 
* 638 17 62 skor 
- 660
: 666 4 53 Jag 
: 670 2 62 dan
: 674 2 62 sa
: 678 2 62 de 
: 682 2 62 om
: 686 5 67 kring 
- 693
: 695 4 64 Pĺ
: 699 4 60  - 
: 703 7 60 ga
: 715 9 53 tan 
- 727
: 731 2 57 Och 
: 735 3 58 he
: 739 3 57 la 
: 743 11 58 värl
: 755 3 58 den 
: 759 2 62 den 
: 763 12 60 log 
- 783
: 791 2 57 Dig
: 795 2 58 gi
: 799 6 60 loo 
: 807 2 60 dig
: 811 3 57 gi
* 815 6 62 ley 
- 821
: 823 3 62 Him
: 827 2 57 len 
: 831 3 55 öpp
: 835 2 57 na
: 839 2 58 de 
: 843 9 60 sig 
- 854
: 856 3 57 Det 
: 860 3 58 är 
: 863 3 60 knappt 
: 868 3 60 man 
: 872 3 60 si
: 876 3 60 na 
- 879
: 880 4 60 Ö
: 884 3 53  - 
: 888 7 53 gon 
: 896 19 62 tror 
- 921
: 928 3 62 Och 
: 932 3 62 jag 
: 936 3 62 bör
: 940 3 62 jar 
: 944 4 67 näs
: 952 4 64 tan 
- 958
: 960 12 65 Svä
: 972 7 69 va
: 980 4 60  - 
- 986
: 988 3 60 I 
: 992 4 62 mi
: 996 3 62 na 
: 1001 11 64 gyl
: 1013 2 65 le
: 1017 2 65 ne 
: 1021 12 65 skor 
- 1043
: 1217 2 57 Jag 
: 1221 3 57 har 
: 1225 2 57 vi
: 1229 7 55 sio
: 1237 5 57 ner 
- 1252
: 1282 3 60 För 
: 1286 2 60 mil
: 1290 3 60 li
: 1294 3 60 o
: 1298 3 53  - 
: 1302 5 53 ner 
- 1317
: 1346 2 60 Gyl
: 1350 2 60 le
: 1354 2 60 ne 
: 1359 6 57 do
: 1366 3 55 jor 
: 1370 2 53 för 
: 1374 4 53 dig
: 1378 7 55  - 
- 1387
: 1390 3 55 Och 
: 1394 4 57 lyc
: 1398 2 53 kan 
: 1402 2 55 är 
: 1406 4 55 gjord
: 1410 7 57  - 
- 1417
: 1418 7 61 Säg 
: 1426 7 62 mer 
: 1434 7 57 vi 
: 1442 2 55 tror 
: 1446 3 53 pĺ 
: 1451 2 55 ditt 
* 1455 8 60 ord 
- 1469
: 1475 2 57 Tänk 
: 1479 2 57 dig 
: 1483 2 57 ett 
: 1487 6 55 hin
: 1495 5 57 der 
- 1501
: 1503 3 60 Det 
: 1507 2 60 fly
: 1511 4 58 ger 
: 1515 2 57 du 
: 1519 6 53 ö
: 1527 6 55 ver 
- 1536
: 1540 3 60 Vin
: 1544 3 60 gar 
: 1548 3 60 pĺ 
: 1552 3 60 skor
: 1556 3 53  - 
: 1560 6 53 na 
- 1566
: 1568 2 53 Är 
: 1572 2 65 allt 
: 1576 2 65 vad 
: 1580 2 65 du 
: 1584 2 65 be
: 1588 4 64 hö
: 1592 3 62  - 
: 1596 3 62 ver 
- 1602
: 1605 2 60 Ĺh 
: 1609 2 60 jag 
: 1613 2 60 kan 
: 1617 6 57 bli 
: 1625 2 55 vad 
: 1629 2 53 jag 
- 1631
: 1633 4 53 Ön
: 1637 7 55  - 
: 1649 10 48 skar 
- 1664
: 1669 6 60 I 
: 1678 2 60 min 
: 1682 2 60 för
: 1686 2 57 trol
: 1690 2 55 la
: 1694 3 53 de 
: 1698 24 60 värld
: 1722 4 65  - 
: 1726 4 64 - 
: 1730 13 60 - 
- 1751
: 1759 2 57 Dig
: 1763 3 58 gi
: 1767 5 60 loo 
: 1775 3 60 dig
: 1779 3 57 gi
: 1783 6 62 ley 
- 1789
: 1791 3 62 Al
: 1795 2 57 la 
: 1799 3 55 tit
: 1803 2 57 tar 
: 1807 2 58 pĺ 
: 1811 9 60 mig 
- 1822
: 1824 3 57 Där 
: 1828 2 58 jag 
: 1832 4 60 gĺr 
: 1836 3 60 I 
: 1840 3 60 mi
: 1844 3 60 na 
- 1847
: 1848 3 60 Gyll
: 1852 4 53  - 
: 1856 6 53 ne 
: 1864 18 62 skor 
- 1887
: 1893 4 53 Jag 
: 1897 2 62 dan
: 1901 2 62 sa
: 1905 2 62 de 
: 1909 2 62 om
: 1913 5 67 kring 
- 1919
: 1921 4 64 Pĺ
: 1925 4 60  - 
: 1929 7 60 ga
: 1941 10 53 tan 
- 1954
: 1958 2 57 Och 
: 1962 3 58 he
: 1966 3 57 la 
: 1970 11 58 värl
: 1982 3 58 den 
: 1986 2 62 den 
: 1990 12 60 log 
- 2010
: 2018 2 57 Dig
: 2022 2 58 gi
: 2026 6 60 loo 
: 2034 2 60 dig
: 2038 3 57 gi
: 2042 6 62 ley 
- 2048
: 2050 3 62 Him
: 2054 2 57 len 
: 2058 3 55 öpp
: 2062 2 57 na
: 2066 2 58 de 
: 2070 9 60 sig 
- 2080
: 2082 3 57 Det 
: 2086 3 58 är 
: 2090 3 60 knappt 
: 2094 3 60 man 
: 2098 3 60 si
: 2102 3 60 na 
- 2105
: 2106 4 60 Ö
: 2110 3 53  - 
: 2114 7 53 gon 
: 2122 19 62 tror 
- 2148
: 2155 3 62 Och 
: 2159 3 62 jag 
: 2163 3 62 bör
: 2167 3 62 jar 
: 2171 4 67 näs
: 2179 4 64 tan 
- 2185
: 2187 12 65 Svä
: 2199 7 69 va
: 2207 4 60  - 
- 2213
: 2215 3 60 I 
: 2219 4 62 mi
: 2223 3 62 na 
: 2227 11 64 gyl
: 2239 2 65 le
: 2243 2 65 ne 
: 2247 12 65 skor 
- 2269
: 2288 3 50 Det 
: 2292 2 53 var 
: 2296 2 50 en 
: 2300 2 55 ön
: 2304 3 55 ske
: 2308 3 52 dröm 
: 2312 5 53 men 
- 2318
: 2320 3 55 Jag 
: 2324 4 53 mĺs
: 2328 3 55 te 
: 2332 4 57 med
: 2336 2 55  - 
: 2340 4 53 ge
: 2344 2 55  - 
- 2349
: 2352 3 50 Att 
: 2356 2 53 när 
: 2360 2 50 jag 
: 2364 2 55 vak
: 2368 3 55 na
: 2372 3 52 de 
- 2375
: 2376 5 53 Vak
: 2384 3 55 na' 
: 2388 4 53 jag 
: 2392 3 55 med 
* 2396 7 57 gläd
: 2404 4 60 je 
- 2410
: 2412 14 62 Jag 
: 2428 10 64 en 
: 2440 5 65 sĺng 
- 2446
: 2448 4 57 Och 
: 2452 4 55 en 
* 2456 6 53 dans
: 2464 7 55 man 
- 2473
: 2476 20 62 Ĺh
: 2496 4 60  - 
: 2500 4 62 - 
: 2504 8 60 - 
- 2522
* 2541 20 63 Ĺh
: 2561 4 61  - 
: 2565 4 63 - 
: 2569 8 61 - 
- 2587
: 2597 2 58 Dig
: 2601 2 59 gi
: 2605 6 61 loo 
: 2613 2 61 dig
: 2617 3 58 gi
: 2622 6 63 ley 
- 2628
: 2630 3 63 Him
: 2634 2 58 len 
: 2638 3 56 öpp
: 2642 2 58 na
: 2646 2 59 de 
: 2650 9 61 sig 
- 2660
: 2662 3 58 Det 
: 2666 3 59 är 
: 2670 3 61 knappt 
: 2674 3 61 man 
: 2678 3 61 si
: 2682 3 61 na 
- 2685
: 2686 4 61 Ö
: 2690 3 54  - 
: 2694 7 54 gon 
* 2702 19 63 tror 
- 2727
: 2734 3 63 Och 
: 2738 3 63 jag 
: 2742 3 63 vil
: 2746 3 63 le 
: 2750 4 68 gär
: 2758 4 65 na 
- 2764
: 2766 8 66 Ön
: 2774 3 61  - 
: 2778 7 70 ska
: 2786 4 61  - 
- 2792
: 2794 3 61 Ĺt 
: 2798 4 63 al
: 2802 3 63 la 
: 2806 11 65 gyl
: 2818 2 66 le
: 2822 2 66 ne 
: 2826 12 66 skor 
- 2848
: 2863 3 63 Och 
: 2867 3 63 jag 
: 2871 3 63 vil
: 2875 3 63 le 
: 2879 4 68 gär
: 2887 4 65 na 
- 2893
: 2895 6 66 Ön
: 2903 2 61  - 
* 2907 7 70 ska
: 2915 4 61  - 
- 2921
: 2923 3 61 Ĺt 
: 2927 4 63 al
: 2931 3 63 la 
: 2935 11 65 gyl
: 2947 2 66 le
: 2951 2 66 ne 
: 2955 34 66 skor 

