#ARTIST:Het Goede Doel
#TITLE:België
#LANGUAGE:Dutch
#EDITION:SingStar - '80s NL
#GENRE:Pop
#YEAR:1982
#COVER:Het Goede Doel - België [CO].jpg
#BACKGROUND:Het Goede Doel - België [BG].jpg
#MP3:Het Goede Doel - België.mp3
#VIDEO:Het Goede Doel - België [VD#0].avi
#VIDEOGAP:0
#BPM:282,12
#GAP:3030,63
: 0 2 60 Waar
: 4 2 60  kan
: 6 2 60  ik
: 8 5 63  heen?
- 15 16
: 24 2 60 Ik
: 28 2 60  kan
: 31 2 60  niet
: 35 2 60  naar
: 39 4 60  Duits
: 47 5 58 land
- 54 55
: 63 2 60 Kan
: 67 2 60  niet
: 70 2 60  naar
: 74 2 63  Duits
: 80 2 58 land
- 84
: 87 2 60 Daar
: 91 3 60  zijn
: 96 2 60  ze
: 99 2 60  zo
: 105 5 60  streng
- 112 113
: 127 2 60 Waar
: 131 1 60  kan
: 133 2 60  ik
: 136 5 63  heen?
- 143
: 151 2 60 Ik
: 155 2 60  kan
: 159 2 60  niet
: 163 2 60  naar
: 167 2 60  Chi
: 169 3 58 li
- 174 175
: 192 2 60 Kan
: 195 2 60  niet
: 199 2 60  naar
: 204 2 60  Chi
: 206 2 58 li
- 210
: 216 2 60 Daar
: 220 2 60  doen
: 223 2 60  ze
: 227 3 60  zo
: 231 3 63  eng
: 236 1 58 ~
- 239 253
: 273 2 75 'k-Wil
: 278 2 75  niet
: 283 4 75  wo
: 289 3 70 nen
: 295 2 70  in
: 300 3 70  Koe
: 305 4 70 weit
- 310
: 311 2 75 Want
: 316 3 75  Koe
: 322 3 75 weit
: 328 2 75  dat
: 333 3 75  is
: 338 2 70  me
: 343 2 70  te
* 348 11 70  heet
- 361
: 368 2 70 En
: 371 2 70  wat
: 375 2 70  A
: 379 6 68 me
: 387 2 68 ri
: 391 7 68 ka
: 400 3 70  be
* 404 22 72 treft
- 428
: 435 6 72 Dat
: 444 5 71  land
: 452 2 71  be
: 456 6 71 staat
: 467 3 72  niet
: 472 25 74  echt
- 499 500
: 512 2 60 Waar
: 516 2 60  kan
: 518 2 60  ik
: 521 3 63  heen?
- 526 527
F 536 2 63 'k-Wil
F 540 2 63  niet
F 543 2 63  naar
F 547 2 63  Noord-
F 551 3 63 Ier
F 559 3 60 land
- 564 565
F 575 2 60 Niet
F 579 2 60  naar
F 583 2 60  Noord-
F 587 2 60 Ier
F 591 2 58 land
- 595
F 600 2 60 Daar
F 604 2 60  gaat
F 608 2 60  al
F 612 2 60 les
F 615 2 60  stuk
- 619 620
F 639 2 60 Waar
F 643 1 60  kan
F 646 1 60  ik
F 648 2 60  heen?
- 652 653
F 663 1 60 Ik
F 667 2 60  kan
F 671 2 60  niet
F 675 2 60  naar
F 679 2 60  Chi
F 684 2 60 na
- 688 689
F 704 2 60 'k-Wil
F 707 2 60  niet
F 711 2 60  naar
F 715 2 60  Chi
F 717 2 60 na
- 721
F 727 2 60 Dat
F 729 2 60  is
F 734 2 60  me
F 738 2 60  te
F 742 2 60  druk
- 746 765
: 785 2 75 'k-Wil
: 790 2 75  niet
: 795 4 75  wo
: 801 3 70 nen
: 807 2 70  in
: 812 3 70  Schot
: 817 4 70 land
- 822
: 823 2 75 Want
* 828 3 75  Schot
: 834 3 75 land
: 840 2 75  dat
: 845 3 75  is
: 850 2 70  me
: 855 2 70  te
: 860 11 70  nat
- 873
: 880 4 70 En
: 887 2 70  de
: 891 6 68  U
: 899 2 68  S
: 903 7 68  S
: 912 3 70  S
: 916 22 72  R
- 940
: 947 6 72 Dat
: 956 5 71  gaat
: 964 2 71  me
: 968 6 71  net
: 979 3 72  te
* 984 25 74  ver
- 1011 1012
: 1035 6 79 Is
: 1043 3 77  er
: 1048 7 79  le
: 1058 4 77 ven
: 1064 6 79  op
: 1072 2 77  Plu
: 1076 15 70 to?
- 1093
: 1099 6 72 Kun
: 1107 3 74  je
: 1112 9 75  dan
: 1123 4 77 sen
: 1128 8 75  op
: 1137 3 77  de
: 1141 14 75  maan?
- 1157 1158
: 1168 3 75 Is
: 1172 2 75  er
: 1174 2 75  een
: 1178 3 79  plaats
: 1184 2 79  tus
: 1187 3 77 sen
: 1191 2 77  de
: 1195 4 79  ster
: 1199 6 77 ren
- 1206
: 1207 2 79 Waar
: 1209 2 79  ik
: 1211 6 77  heen
: 1219 2 70  kan
: 1223 12 70  gaan
- 1237 1271
: 1291 6 79 Is
: 1299 3 77  er
: 1304 7 79  le
: 1314 4 77 ven
: 1320 6 79  op
: 1328 2 77  Plu
: 1332 15 70 to?
- 1349
: 1355 6 72 Kun
: 1363 3 74  je
: 1368 9 75  dan
: 1379 4 77 sen
: 1384 8 75  op
: 1393 3 77  de
* 1397 14 75  maan?
- 1413 1414
: 1423 2 75 Is
: 1426 2 75  er
: 1428 2 75  een
: 1433 4 79  plaats
: 1440 2 79  tus
: 1443 3 77 sen
: 1447 2 77  de
: 1451 4 79  ster
: 1455 6 77 ren
- 1462
: 1463 2 79 Waar
: 1465 2 79  ik
: 1467 6 77  heen
: 1475 2 79  kan
: 1479 12 77  gaan
- 1493 1515
: 1535 2 60 Waar
: 1539 2 60  kan
: 1541 2 60  ik
: 1543 6 63  heen?
- 1551
: 1559 2 60 Ik
: 1563 2 60  kan
: 1567 2 60  niet
: 1571 2 60  naar
F 1575 3 63  Cu
F 1578 3 58 ba
- 1583 1584
F 1598 2 60 'k-Wil
F 1602 2 60  niet
F 1606 2 60  naar
F 1610 2 60  Cu
F 1613 5 60 ba
- 1620
F 1622 2 60 Dat
F 1625 3 60  is
F 1630 2 60  me
F 1634 2 60  te
F 1637 8 60  zoet
- 1647 1648
: 1662 2 60 Waar
: 1666 2 60  kan
: 1668 2 60  ik
: 1671 3 63  heen?
- 1676 1677
F 1686 2 60 Ik
F 1690 2 60  kan
F 1694 2 60  niet
F 1697 2 60  naar
F 1701 6 60  Po
F 1709 4 60 len
- 1715 1716
F 1726 2 60 'k-Wil
F 1729 2 60  niet
F 1734 2 60  naar
F 1738 4 60  Po
F 1743 3 60 len
- 1748
F 1751 2 60 Daar
F 1754 3 60  gaat
F 1757 3 60  het
F 1761 3 60  te
F 1766 4 60  goed
- 1772 1788
: 1808 2 75 'k-Wil
: 1813 2 75  niet
: 1818 4 75  wo
: 1824 3 70 nen
: 1830 2 70  in
: 1835 3 70  Lap
: 1840 4 70 land
- 1845
: 1846 2 75 Want
* 1851 3 75  Lap
: 1857 3 75 land
: 1863 2 75  dat
: 1868 3 75  is
: 1873 2 70  me
: 1878 2 70  te
: 1883 11 70  koud
- 1896
: 1903 2 70 En
: 1907 2 70  ik
: 1911 2 70  wil
: 1914 6 68  weg
: 1922 2 68  uit
: 1926 7 68  Ne
: 1935 3 70 der
: 1939 22 72 land
- 1963
: 1967 6 72 Want
: 1975 2 72  hier
: 1979 5 71  krijg
: 1987 2 71  ik
: 1991 6 71  het
: 2002 3 72  be
* 2007 25 74 nauwd
- 2034 2035
: 2059 6 79 Is
: 2067 3 77  er
: 2072 7 79  le
: 2082 4 77 ven
: 2088 6 79  op
: 2096 2 77  Plu
: 2100 15 70 to?
- 2117
: 2123 6 72 Kun
: 2131 3 74  je
: 2136 9 75  dan
: 2147 4 77 sen
: 2152 8 75  op
: 2160 3 77  de
: 2164 14 75  maan?
- 2180 2181
: 2192 3 75 Is
: 2196 2 75  er
: 2198 2 75  een
: 2202 3 79  plaats
: 2208 2 79  tus
: 2211 3 77 sen
: 2215 2 77  de
: 2219 4 79  ster
: 2223 3 77 ren
- 2228
: 2231 2 79 Waar
: 2233 2 79  ik
: 2235 6 77  heen
: 2243 2 70  kan
: 2247 12 70  gaan
- 2261 2295
: 2315 6 79 Is
: 2323 3 77  er
* 2328 7 79  le
: 2338 4 77 ven
: 2343 6 79  op
: 2351 2 77  Plu
: 2356 15 70 to?
- 2373
: 2379 6 72 Kun
: 2387 3 74  je
: 2392 8 75  dan
: 2403 4 77 sen
: 2408 8 75  op
: 2416 3 77  de
: 2420 11 75  maan?
- 2433 2434
: 2447 2 75 Is
: 2450 2 75  er
: 2452 2 75  een
: 2457 4 79  plaats
: 2464 2 79  tus
: 2467 3 77 sen
: 2471 2 77  de
: 2475 4 79  ster
: 2479 3 77 ren
- 2484
: 2487 2 79 Waar
: 2489 2 79  ik
: 2491 6 77  heen
: 2499 2 79  kan
: 2503 12 77  gaan
- 2517 2552
: 2572 5 71 'k-Heb
: 2579 3 71  ge
: 2584 8 71 twij
: 2595 6 71 feld
: 2602 7 73  o
: 2610 5 71 ver
: 2619 8 71  Bel
: 2627 2 70 gi
: 2631 14 70 ë
- 2647 2679
: 2699 4 70 Om
: 2704 7 70 dat
: 2715 5 70  ie
: 2722 4 68 de
: 2727 6 68 reen
: 2736 6 66  daar
: 2742 6 68 ~
: 2750 15 68 lacht
- 2767 2807
: 2827 4 71 'k-Heb
: 2835 3 73  ge
: 2840 6 75 twij
: 2850 5 73 feld
: 2855 8 75  o
: 2867 5 73 ver
: 2875 7 73  Bel
: 2883 3 68 gi
: 2887 15 68 ë
- 2904 2934
: 2954 3 73 Want
: 2960 5 73  dat
: 2971 7 73  taalt
: 2979 3 73 je
: 2983 8 73  is
: 2992 4 75  zo
: 2996 8 77 ~
* 3007 38 77 zacht
- 3047 3048
: 3074 4 75 'k-Stond
: 3082 4 75  zelfs
: 3090 4 78  in
: 3098 8 78  du
: 3106 3 77 bi
: 3111 6 77 o
- 3118
: 3118 7 77 Maar
: 3127 3 75  ik
: 3131 5 73  nam
: 3138 2 73  geen
: 3142 6 73  en
: 3154 6 77 kel
: 3162 7 77  ri
: 3171 2 75 si
: 3175 12 73 co
- 3189 3190
: 3211 3 71 'k-Heb
: 3218 3 71  ge
: 3223 6 71 twij
: 3234 5 71 feld
: 3240 8 73  o
: 3250 5 75 ver
: 3258 8 75  Bel
: 3267 3 70 gi
: 3272 22 70 ë
- 3296 3311
: 3331 4 75 'k-Stond
: 3339 4 75  zelfs
: 3347 4 78  in
: 3355 8 78  du
: 3363 3 77 bi
: 3368 6 77 o
- 3375
: 3375 7 77 Maar
: 3384 3 75  ik
: 3388 5 73  nam
: 3395 2 73  geen
: 3399 6 73  en
: 3411 6 77 kel
: 3419 7 77  ri
: 3428 2 75 si
: 3432 10 73 co
- 3444 3445
: 3468 3 71 'k-Heb
: 3475 3 71  ge
: 3480 6 71 twij
: 3491 5 71 feld
: 3497 7 73  o
: 3506 5 75 ver
: 3515 8 75  Bel
: 3524 3 77 gi
: 3529 42 75 ë
- 3573
: 3581 5 75 Bel
: 3587 2 71 gi
: 3592 35 71 ë
- 3629 3630
: 3642 6 75 Bel
: 3650 2 71 gi
* 3655 36 71 ë
- 3693 3694
: 3706 6 75 Bel
: 3715 2 71 gi
: 3720 42 71 ë
- 3764
: 3771 13 76 Bel
: 3788 15 75 gi
: 3803 35 73 ë
: 3838 7 72 ~
- 3847
: 3853 6 79 Is
: 3861 3 77  er
: 3866 7 79  le
: 3876 4 77 ven
: 3882 6 79  op
: 3890 2 77  Plu
: 3894 15 70 to?
- 3911
: 3917 6 72 Kun
: 3925 3 74  je
: 3930 9 75  dan
: 3941 4 77 sen
: 3946 8 75  op
: 3954 3 77  de
: 3958 14 75  maan?
- 3974 3975
: 3986 3 75 Is
: 3990 2 75  er
: 3992 2 75  een
: 3996 3 79  plaats
: 4002 2 79  tus
: 4005 3 77 sen
: 4009 2 77  de
: 4013 4 79  ster
: 4017 6 77 ren
- 4024
: 4025 2 79 Waar
: 4027 2 79  ik
: 4029 6 77  heen
: 4037 2 70  kan
: 4041 12 70  gaan
- 4055 4090
: 4110 6 79 Is
: 4118 3 77  er
: 4123 7 79  le
: 4132 4 77 ven
: 4137 6 79  op
: 4145 2 77  Plu
: 4150 15 70 to?
- 4167
: 4173 6 72 Kun
: 4181 3 74  je
: 4186 8 75  dan
: 4197 4 77 sen
: 4202 8 75  op
: 4210 3 77  de
: 4214 14 75  maan?
- 4230 4231
: 4241 2 75 Is
: 4244 2 75  er
: 4246 2 75  een
: 4251 4 79  plaats
: 4258 2 79  tus
: 4261 3 77 sen
: 4265 2 77  de
: 4269 4 79  ster
: 4273 6 77 ren
- 4280
: 4281 2 79 Waar
: 4283 2 79  ik
: 4285 6 77  heen
: 4293 2 79  kan
: 4297 12 77  gaan
E
