#TITLE:Join me
#ARTIST:HIM
#MP3:HIM - Join Me.mp3
#COVER:HIM - Join Me [CO].jpg
#BACKGROUND:HIM - Join Me [BG].jpg
#BPM:113,9
#GAP:6000
#ENCODING:UTF8
: 0 4 59 Ba
: 4 3 59 by 
: 8 4 61 join 
: 12 4 59 me 
: 16 4 58 in 
: 20 8 59 death
- 28
: 64 4 59 Ba
: 68 3 59 by 
: 72 4 61 join 
: 76 4 59 me 
: 80 4 58 in 
: 84 8 59 death
- 92
: 128 4 59 Ba
: 132 3 59 by 
: 136 4 61 join 
: 140 4 59 me 
: 144 4 58 in 
: 148 8 59 death
- 156
: 192 4 59 We 
: 196 4 58 are 
: 200 4 56 so 
: 204 4 54 young
- 208
: 212 2 56 O
: 214 2 58 ur 
: 216 4 59 lives 
: 224 4 59 have 
: 228 4 58 just 
: 232 4 56 be
: 236 4 54 gun
- 240
: 244 2 56 But 
: 246 2 58 al
: 248 2 59 rea
: 250 3 56 dy 
: 256 4 59 we 
: 260 4 58 are 
: 264 4 56 con
: 268 2 54 side
: 270 4 56 ring
- 274
: 278 2 51 Es
: 280 4 49 cape 
: 284 4 51 from 
: 292 4 51 this 
: 296 8 49 world
- 304
: 308 2 56 And 
: 310 2 58 we've 
: 312 6 59 wai
: 320 4 59 ted 
: 324 4 58 for 
: 328 4 56 so 
: 332 4 54 long
- 336
: 344 4 59 For 
: 348 4 58 this 
: 352 4 59 mo
: 356 4 58 ment 
: 360 4 56 to 
: 364 4 54 come
- 370
: 372 2 56 Was 
: 374 2 58 so 
: 376 4 59 an
: 380 2 56 xious 
: 382 2 58 to 
: 384 4 59 be 
: 388 4 58 to
: 392 4 56 geth
: 396 4 54 er
- 400
: 404 4 63 To
: 408 4 61 geht
: 412 4 63 er 
: 420 4 63 in 
: 424 4 61 death
: 428 2 58 - 
: 434 2 58 Wo
: 436 2 59 -
: 438 2 58 -
: 440 6 56 -
- 446
: 450 2 56 Won't 
: 452 4 56 you 
: 456 6 66 die 
: 462 2 64 to
: 464 4 63 night 
: 468 2 64 for
: 470 2 63 - 
: 472 8 63 love
- 480
: 480 4 59 Ba
: 484 3 59 by 
: 488 4 61 join 
: 492 4 59 me 
: 496 4 58 in 
: 500 8 59 death
- 508
: 514 2 56 Won't 
: 516 4 56 you 
: 520 4 66 die
: 524 4 64 -
: 528 4 63 -
: 532 4 64 -
: 536 8 63 -
- 544
: 544 4 59 Ba
: 548 3 59 by 
: 552 4 61 join 
: 556 4 59 me 
: 560 4 58 in 
: 564 8 59 death
- 572
: 578 2 56 Won't 
: 580 4 56 you 
: 584 6 66 die 
: 590 2 64 to
: 592 4 63 night 
: 596 2 64 for
: 598 2 63 - 
: 600 8 63 love
- 608
: 608 4 59 Ba
: 612 3 59 by 
: 616 4 61 join 
: 620 4 59 me 
: 624 4 58 in 
: 628 8 59 death
- 636
: 670 2 56 This 
: 672 4 59 world 
: 676 2 58 is 
: 678 2 56 a 
: 680 4 54 cruel 
: 688 4 56 place
- 692
: 692 2 56 and 
: 694 2 58 we're 
: 696 4 59 here 
: 704 4 59 on
: 708 4 58 ly 
: 712 4 56 to 
: 716 4 54 lose
- 720
: 724 2 56 So 
: 726 2 58 be
: 728 4 59 fore 
: 732 4 56 life 
: 736 4 59 tears 
: 740 2 58 us 
: 742 2 56 a
: 744 4 54 part 
: 748 4 56 let
- 752
: 756 4 63 Death 
: 760 4 61 bless 
: 764 4 63 me 
: 772 4 63 with 
: 776 4 61 you
: 780 4 58 - 
: 786 2 58 Wo
: 788 2 59 -
: 790 2 58 -
: 792 6 56 -
- 798
: 802 2 56 Won't 
: 804 4 56 you 
: 808 6 66 die 
: 814 2 64 to
: 816 4 63 night 
: 820 2 64 for
: 822 2 63 - 
: 824 8 63 love
- 832
: 832 4 59 Ba
: 836 3 59 by 
: 840 4 61 join 
: 844 4 59 me 
: 848 4 58 in 
: 852 8 59 death
- 860
: 866 2 56 Won't 
: 868 4 56 you 
: 872 4 66 die
: 876 4 64 -
: 880 4 63 -
: 884 4 64 -
: 888 8 63 -
- 896
: 896 4 59 Ba
: 900 3 59 by 
: 904 4 61 join 
: 908 4 59 me 
: 912 4 58 in 
: 916 8 59 death
- 924
: 930 2 56 Won't 
: 932 4 56 you 
: 936 6 66 die 
: 942 2 64 to
: 944 4 63 night 
: 948 2 64 for
: 950 2 63 - 
: 952 8 63 love
- 960
: 960 4 59 Ba
: 964 3 59 by 
: 968 4 61 join 
: 972 4 59 me 
: 976 4 58 in 
: 980 8 59 death
- 988
: 1000 4 61 Join 
: 1004 4 59 me 
: 1008 4 58 in 
: 1012 2 56 death
: 1014 2 54 -
: 1016 12 56 -
- 1028
: 1042 2 58 Wo
: 1044 2 59 -
: 1046 2 58 -
: 1048 4 56 -
: 1052 8 56 -
- 1060
: 1086 2 47 This 
: 1088 4 47 life 
: 1096 4 49 ain't 
: 1100 4 47 worth 
: 1104 4 46 li
: 1108 6 47 ving
- 1114
: 1150 2 47 This 
: 1152 4 47 life 
: 1158 2 44 a
: 1160 4 49 in't 
: 1164 4 47 worth 
: 1168 4 46 li
: 1172 6 47 ving
- 1178
: 1214 2 47 This 
: 1216 4 47 life 
: 1222 2 44 a
: 1224 4 49 in't 
: 1228 4 47 worth 
: 1232 4 46 li
: 1236 6 47 ving
- 1242
: 1278 2 59 This 
: 1280 4 59 life 
: 1286 4 61 ain't 
: 1290 4 59 worth 
: 1294 4 58 li
: 1298 4 59 ving
- 1302
: 1312 2 56 Won't 
: 1314 4 56 you 
: 1318 6 66 die 
: 1324 2 64 to
: 1326 4 63 night 
: 1330 2 64 for
: 1332 2 63 - 
: 1334 8 63 love
- 1342
: 1342 4 59 Ba
: 1346 3 59 by 
: 1350 4 61 join 
: 1354 4 59 me 
: 1358 4 58 in 
: 1362 8 59 death
- 1370
: 1376 2 56 Won't 
: 1378 4 56 you 
: 1382 4 66 die
: 1386 4 64 -
: 1390 4 63 -
: 1394 4 64 -
: 1398 8 63 -
- 1406
: 1406 4 59 Ba
: 1410 3 59 by 
: 1414 4 61 join 
: 1418 4 59 me 
: 1422 4 58 in 
: 1426 8 59 death
- 1434
: 1440 2 56 Won't 
: 1442 4 56 you 
: 1446 6 66 die 
: 1452 2 64 to
: 1454 4 63 night 
: 1458 2 68 for
: 1460 2 66 - 
: 1462 8 68 love
- 1470
: 1470 4 59 Ba
: 1474 3 59 by 
: 1478 4 61 join 
: 1482 4 59 me 
: 1486 4 58 in 
: 1490 8 59 death
- 1498
: 1502 4 59 Ba
: 1506 2 59 by 
: 1510 4 61 join 
: 1514 4 59 me 
: 1518 4 58 in 
: 1522 22 56 death
E