#TITLE:Ti amo
#ARTIST:Howard Carpendale
#MP3:Howard Carpendale - Ti amo.mp3
#COVER:Howard Carpendale - Ti amo [CO].jpg
#BACKGROUND:Howard Carpendale - Ti amo [BG].jpg
#BPM:178
#GAP:21000
#ENCODING:UTF8
#EDITION:UltraStar 70s
: 0 3 -3 Ti
: 11 9 -1  A
: 23 4 -3 mo,
: 35 3 1  du
: 39 3 2  sag
: 43 2 1 test
: 47 3 -3  Ti
: 59 7 -1  A
: 69 4 -3 mo,
- 75
: 81 2 1 das
: 85 2 2  heißt
: 89 2 1  ich
: 93 4 -1  lieb'
: 105 7 1  dich
: 116 5 -1  so.
- 123
: 128 2 1 Was
: 132 2 2  ist
: 136 2 1  ge
: 140 3 -1 blie
: 144 2 -3 ben,
- 147
: 149 2 -1 von
: 153 3 1  dei
: 157 2 2 nem
: 161 2 1  mich
: 165 3 -1  lie
: 169 2 -3 ben,
- 172
: 173 2 -1 von
: 177 2 1  hun
: 181 2 2 dert
: 185 2 1  mal
: 189 3 -3  Ti
: 202 8 -1  A
: 213 3 -3 mo?
- 218
: 225 3 1 Sag
: 229 2 2 test
: 233 2 1  du
: 237 3 -3  das
: 249 9 -1  nur
: 261 3 -3  so,
- 266
: 273 2 1 weil
: 277 2 2  es
: 281 2 1  da
: 285 3 -1 zu
: 296 9 1  ge
: 308 3 -1 hört?
- 313
: 320 3 1 Wor
: 324 2 2 te
: 328 2 1  sind
: 332 3 -1  bi
: 336 2 -3 llig,
- 339
: 340 2 -1 sind
: 344 2 1  manch
: 348 2 2 mal
: 352 2 1  so
: 356 3 -1  bi
: 360 2 -3 llig.
- 363
: 364 2 -1 Man
: 368 3 1  re
: 372 2 2 det
: 376 2 4  sich
: 380 6 9  sel
* 392 9 11 ber
: 404 5 9  ein,
- 411
: 417 3 13 a
: 421 2 14 lles
: 425 2 13  das
: 429 3 9  muss
: 441 8 11  so
: 452 1 9  sein
: 454 1 4 ~
: 456 3 6 ~ .
- 461
: 464 2 13 Hast
: 468 2 14  das
: 472 2 13  auch
: 476 5 11  du
: 488 9 13  ge
: 500 4 11 tan?
- 506
: 511 2 13 Sinn
: 515 2 14 li
: 519 2 13 che
: 523 3 11  Spie
: 527 2 9 le
: 531 2 11  und
: 535 3 13  fal
: 539 2 14 sche
: 543 2 13  Ge
: 547 3 11 füh
: 551 2 9 le,
- 554
: 555 2 11 und
: 559 2 13  nun
: 563 2 14  willst
: 567 2 13  du
: 571 2 9  wie
: 574 2 9 der
- 577
: 578 3 9 ein
: 582 3 9  neu
: 586 2 9 es
: 590 2 9  Ziel
* 594 2 16  fin
: 598 4 13 den,
- 604
: 618 2 9 willst
: 622 2 9  dich
: 626 2 9  nicht
: 630 2 9  mehr
: 634 2 9  an
: 638 2 11  mich
: 642 2 9  bin
: 646 4 6 den.
- 652
: 666 2 11 Stehst
: 670 2 11  da,
: 674 2 11  ge
: 678 2 11 packt
: 682 2 11  ist
: 686 2 13  dein
: 690 3 11  Ko
: 694 4 6 ffer,
- 700
: 718 2 9 was
: 722 3 11  ge
: 726 3 13 we
* 730 4 14 sen,
: 742 2 9  ist
: 746 2 11  ge
: 749 3 13 we
* 753 2 14 sen.
- 756
: 758 2 16 Dein
: 762 3 21  Ti
* 774 9 21  A
: 786 1 21 mo
: 788 1 18 ~
: 790 3 16 ~ ,
- 795
: 798 2 21 dein
: 802 3 21  schö
: 806 2 21 nes
: 810 4 21  Ti
: 822 9 21  A
: 834 1 21 mo
: 836 1 16 ~
: 838 3 18 ~
- 843
: 847 2 21 war
: 851 2 21  nur
: 855 2 21  Be
: 859 3 21 gleit
* 871 9 21 mu
: 883 1 21 sik
: 885 1 16 ~
: 887 2 18 ~
- 891
: 895 2 13 für
: 899 3 14  So
: 903 2 13 mmer
: 907 3 11 ta
: 911 2 9 ge,
: 915 2 11  mehr
: 919 2 13  kam
: 923 2 14  nicht
: 926 2 13  in
: 930 3 11  Fra
: 934 2 9 ge.
- 937
: 938 3 11 Und
: 942 2 13  ich
: 946 2 14  hab
: 950 2 13  ge
: 954 2 9 glaubt,
- 957
: 957 2 9 das
: 961 2 9  mit
: 965 2 9  uns
: 969 2 11  geht
: 973 2 9  so
* 977 3 16  wei
: 982 3 13 ter.
- 987
: 1002 2 9 Jetzt
: 1006 2 9  bin
: 1010 2 9  ich
: 1014 3 9  lei
: 1018 2 9 der
: 1022 2 11  ge
: 1026 2 9 schei
: 1030 3 6 ter_
- 1035
: 1049 3 11 A
: 1053 2 11 ber
: 1057 2 11  ich
: 1061 2 11  kann
: 1065 2 11  nicht
: 1069 2 13  be
: 1073 3 11 strei
: 1077 3 6 ten,
- 1082
: 1101 2 9 dass
: 1105 2 11  es
: 1109 2 13  schön
: 1113 5 14  war,
- 1120
: 1125 2 9 dass
: 1129 2 11  es
: 1133 2 13  schön
: 1137 2 14  war.
- 1140
: 1141 2 11 So
: 1145 3 9  geh
: 1157 7 11  den
: 1169 4 9  Weg,
- 1175
: 1180 2 13 du
: 1184 2 14  hast
: 1188 2 13  ihn
: 1192 3 9  selbst
: 1204 9 11  ge
: 1216 4 9 wählt,
- 1222
: 1228 2 13 wenn
: 1232 2 14  dich
: 1236 2 13  hier
: 1240 3 11  nichts
: 1252 8 13  mehr
: 1264 3 11  hält.
- 1269
: 1276 2 13 Ich
: 1280 3 14  wer
: 1284 2 13 de
: 1288 3 11  le
: 1292 2 9 ben,
: 1296 2 11  auch
: 1300 3 13  oh
: 1304 2 14 ne
: 1308 2 13  dich
: 1312 3 11  le
: 1316 2 9 ben
- 1319
: 1320 2 11 und
: 1324 3 13  wer
: 1328 2 14 den
: 1332 2 13  die
: 1336 3 9  Ta
: 1340 2 9 ge
- 1343
: 1344 2 9 für
: 1348 2 9  mich
: 1352 2 9  noch
: 1356 2 9  so
* 1360 2 16  schwer
: 1364 4 13  sein,
- 1370
: 1384 3 9 wer
: 1388 2 9 den
: 1392 2 9  die
: 1396 2 9  Näch
: 1400 2 9 te
: 1404 2 11  auch
: 1408 3 9  leer
: 1413 3 6  sein,
- 1418
: 1432 3 11 ir
: 1436 2 11 gend
: 1440 2 11 wann
: 1444 3 11  werd'
: 1448 2 11  ich
: 1452 2 13  ver
: 1456 3 11 ge
: 1461 2 6 ssen.
- 1465
: 1484 2 9 Es
: 1488 2 11  wird
: 1492 2 13  Schluss
: 1496 4 14  sein,
- 1502
: 1508 2 9 denn
: 1512 2 11  es
: 1516 2 13  muss
: 1520 3 14  sein.
- 1525
: 1527 4 21 Willst
* 1539 9 21  es
: 1551 1 21  so
: 1553 1 18 ~
: 1555 3 16 ~ ,
- 1560
* 1563 2 21 ich
* 1567 2 21  weiss,
: 1571 2 21  du
: 1575 4 21  willst
: 1587 9 21  es
: 1599 1 21  so
: 1601 1 16 ~
: 1603 3 18 ~ .
- 1608
: 1611 2 21 Wann
: 1615 2 21  sagst
: 1619 2 21  du
* 1623 8 21  an
: 1635 7 21 ders
: 1647 1 21 wo
: 1649 1 16 ~
: 1651 3 18 ~
- 1656
: 1658 2 21 Ti
: 1662 3 21  A
: 1666 2 21 mo,
: 1670 2 16  Ti
: 1674 3 16  A
: 1678 2 16 mo,
: 1682 2 18  Ti
: 1686 3 18  A
: 1690 2 18 mo,
: 1694 2 16  Ti
: 1698 3 16  A
: 1702 2 16 mo,
: 1706 2 16  Ti
: 1710 3 13  A
: 1714 2 11 mo?
- 1717
: 1718 2 9 Du
: 1721 2 9  willst
: 1725 2 9  ein
: 1729 3 9  neu
: 1733 2 9 es
: 1737 2 9  Ziel
* 1741 3 16  fin
: 1745 3 13 den,
- 1750
: 1765 2 9 dich
: 1769 2 9  nicht
: 1773 2 9  mehr
: 1777 4 9  an
: 1785 2 11  mich
: 1789 2 9  bin
: 1793 2 6 den.
- 1797
: 1812 2 11 Stehst
: 1816 2 11  da,
: 1820 2 11  ge
: 1824 2 11 packt
: 1828 2 11  ist
: 1832 2 13  dein
: 1836 3 11  Ko
: 1840 2 6 ffer,
- 1844
: 1863 2 9 was
: 1867 3 11  ge
: 1871 3 13 we
: 1875 4 14 sen,
: 1887 2 9  ist
: 1891 3 11  ge
: 1895 3 13 we
: 1899 2 14 sen.
- 1902
: 1902 2 16 Dein
: 1906 3 21  Ti
: 1918 9 23  A
: 1930 3 21 mo,
: 1942 2 25  dein
: 1946 3 26  schö
: 1950 2 25 nes
: 1954 3 21  Ti
: 1966 8 23  A
: 1978 3 21 mo
- 1983
: 1989 3 25 war
: 1993 2 26  nur
: 1997 3 25  Be
: 2001 4 23 gleit
: 2013 9 25 mu
: 2025 3 23 sik.
- 2030
: 2036 3 21 Ti
* 2048 9 21  A
: 2060 1 21 mo
: 2062 1 18 ~
: 2064 4 16 ~ ,
- 2070
: 2072 2 21 Ti
: 2076 3 21  A
: 2080 2 21 mo,
: 2084 3 21  Ti
: 2095 9 21  A
: 2107 1 21 mo
: 2109 1 16 ~
: 2111 3 18 ~ ,
- 2116
: 2119 2 21 Ti
: 2123 3 21  A
: 2127 2 21 mo,
: 2131 3 21  Ti
* 2143 8 21  A
: 2154 1 21 mo
: 2156 1 16 ~
: 2158 6 18 ~ ,
- 2165
: 2165 2 21 Ti
* 2169 3 21  A
: 2173 2 21 mo,
: 2177 2 16  Ti
* 2181 3 16  A
: 2185 2 16 mo,
: 2189 2 18  Ti
* 2193 3 18  A
: 2197 2 18 mo,
: 2200 2 16  Ti
* 2204 3 16  A
: 2208 2 16 mo,
: 2212 2 16  Ti
* 2216 2 13  A
: 2219 3 11 mo,
- 2223
: 2223 3 9 Ti
* 2235 8 11  A
: 2247 3 9 mo,
- 2252
: 2258 2 13 Ti
: 2262 3 14  A
: 2266 2 13 mo,
: 2270 3 9  Ti
: 2282 8 11  A
: 2293 3 9 mo,
- 2298
: 2305 2 13 Ti
: 2309 3 14  A
: 2313 2 13 mo,
: 2317 3 11  Ti
* 2328 8 13  A
: 2339 3 11 mo!
E