#TITLE:Real American
#ARTIST:Hulk Hogan
#MP3:Hulk Hogan - Real American.mp3
#VIDEO:Hulk Hogan - Real American [VD#-1].mpg
#COVER:Hulk Hogan - Real American [CO].jpg
#BACKGROUND:Hulk Hogan - Real American [BG].jpg
#BPM:260
#GAP:2900
#VIDEOGAP:-1
#ENCODING:UTF8
#LANGUAGE:Englisch
#EDITION:[SC]-Songs
: 0 5 9 I
: 5 4 11  am
: 10 5 12  a
: 17 8 12  real
: 26 5 11  A
: 34 6 11 me
: 42 4 9 ri
: 47 6 9 can!
- 55
: 67 5 9 Fight
: 72 4 11  for
: 77 4 12  the
: 83 9 12  rights
: 93 6 11  of
: 102 7 11  e
: 110 3 12 very
: 115 11 12  man.
- 128
: 135 4 9 I
: 139 4 11  am
: 144 4 12  a
: 151 8 12  real
: 160 5 11  A
: 167 7 11 me
: 175 4 9 ri
: 181 10 9 can!
- 193
: 200 4 9 Fight
: 205 3 11  for
: 210 5 12  what's
: 217 10 12  right,
- 229
: 233 6 16 fight
: 240 3 14  for
: 244 4 12  your
* 250 15 16  live
- 267
: 392 3 9 When
: 396 3 9  it
: 401 6 13  comes
: 409 3 14  cra
: 413 3 13 shing
: 418 7 16  down
- 426
: 426 3 18 and
: 431 2 16  it
: 435 7 19  hurts
: 443 4 18  in
: 447 6 18 si
: 453 8 16 de,
- 463
: 529 4 9 you
: 534 4 13  got
: 538 3 13 ta
: 542 4 14  take
: 546 2 13  a
: 551 7 16  stand,
- 559
: 559 3 18 it
: 563 3 16  don't
: 567 8 19  help
: 576 3 18  to
: 580 5 18  hi
: 585 7 16 de.
- 594
: 654 6 21 If
: 661 4 19  you
: 667 5 19  hurt
: 674 4 19  my
: 680 10 19  friends,
- 691
: 693 3 19 then
: 697 2 18  you
: 701 4 16  hurt
: 707 5 14  my
: 714 9 14  pride!
- 725
: 729 4 16 I
: 734 3 19  got
: 737 3 16 ta
: 741 2 19  be
: 743 2 16  a
: 747 11 19  man,
: 762 4 16  I
: 767 5 14  can't
: 773 3 14  let
: 776 2 12  it
: 781 12 16  slide!
- 795
: 801 3 9 I
: 805 3 11  am
: 809 5 12  a
: 818 6 12  real
: 826 5 11  A
: 834 6 11 me
: 842 3 9 ri
: 847 8 9 can!
- 857
: 867 4 9 Fight
: 872 3 11  for
: 875 5 12  the
: 884 7 12  rights
: 893 6 11  of
: 901 7 11  e
: 909 3 12 very
: 914 7 12  man.
- 923
: 933 5 9 I
: 938 3 11  am
: 942 6 12  a
: 951 7 12  real
: 960 5 11  A
: 968 6 11 me
: 976 3 9 ri
: 980 9 9 can!
- 991
: 1000 4 9 Fight
: 1005 3 11  for
: 1009 6 12  what's
: 1017 9 12  right,
: 1033 6 16  fight
: 1040 4 14  for
: 1045 5 12  your
* 1051 14 16  life.
- 1067
: 1201 6 13 I
: 1209 3 14  fe
: 1213 2 13 el
: 1217 4 16  strong
: 1222 4 16  a
: 1226 3 18 bo
: 1230 2 16 ut
: 1234 9 19  right
: 1243 3 18  and
: 1247 4 18  wro
: 1252 10 16 ng
- 1264
: 1326 3 9 and
: 1329 4 9  I
: 1334 8 13  don't
: 1343 5 14  take
: 1351 3 16  trou
: 1355 2 16 ble
: 1359 3 18  for
: 1363 2 16 ~
: 1367 7 19  ve
: 1375 3 18 ry
: 1380 4 18  lo
: 1385 9 16 ng.
- 1396
: 1467 3 16 I
: 1471 3 16  got
: 1475 4 14  some
: 1479 4 14 thing
: 1484 7 12  deep
: 1493 7 12  in
: 1501 3 12 side
: 1505 7 14  of
: 1514 10 14  me,
- 1526
: 1530 2 14 and
: 1534 3 16  cou
: 1538 3 16 rage
: 1542 3 14  is
: 1546 4 14  the
: 1551 7 12  thing
: 1559 4 14  that
: 1567 4 16  keeps
: 1572 6 19  us
* 1580 18 19  free!
- 1599
: 1600 4 9 I
: 1604 3 11  am
: 1609 7 12  a
: 1617 7 12  real
: 1626 6 11  A
: 1634 7 11 me
: 1642 3 9 ri
: 1646 9 9 can!
- 1657
: 1666 4 9 Fight
: 1671 4 11  for
: 1676 5 12  the
: 1684 6 12  rights
: 1692 6 11  of
: 1700 8 11  e
: 1708 4 12 very
: 1713 9 12  man.
- 1724
: 1734 4 9 I
: 1738 3 11  am
: 1742 6 12  a
: 1750 7 12  real
: 1758 7 11  A
: 1767 7 11 me
: 1775 3 9 ri
: 1779 7 9 can!
- 1788
: 1799 4 9 Fight
: 1804 4 11  for
: 1809 5 12  what's
: 1817 9 12  right,
: 1832 5 16  fight
: 1839 4 14  for
: 1844 5 12  your
* 1850 13 16  life.
- 1864
: 1866 4 9 I
: 1870 4 11  am
: 1875 7 12  a
: 1884 8 12  real
: 1893 5 11  A
: 1900 7 11 me
: 1908 4 9 ri
: 1913 6 9 can!
- 1921
: 1933 3 9 Fight
: 1937 4 11  for
: 1942 7 12  the
: 1950 7 12  rights
: 1959 5 11  of
: 1967 8 11  e
: 1975 4 12 very
: 1980 9 12  man.
- 1991
: 2000 4 9 I
: 2004 4 11  am
: 2009 7 12  a
: 2017 7 12  real
: 2025 6 11  A
: 2033 7 11 me
: 2041 4 9 ri
: 2046 6 9 can!
- 2054
: 2066 3 9 Fight
: 2070 4 11  for
: 2075 6 12  what's
: 2083 10 12  right,
: 2099 6 16  fight
: 2106 4 14  for
: 2111 4 12  your
* 2116 16 16  life.
- 2134
: 2386 6 21 If
: 2393 5 19  you
: 2399 5 19  hurt
: 2406 4 19  my
: 2412 10 19  friends
: 2425 4 19  then
: 2429 3 17  you
: 2433 4 16  hurt
: 2439 4 14  my
: 2445 9 14  pride!
- 2456
: 2461 4 16 I
: 2467 3 19  got
: 2470 2 16 ta
: 2473 2 19  be
: 2476 2 16  a
: 2479 7 19  man,
: 2492 5 16  I
: 2498 6 14  can't
: 2505 2 12  let
: 2507 2 12  it
: 2512 12 9  slide!
- 2526
: 2532 3 9 I
: 2536 5 11  am
: 2542 7 12  a
: 2550 7 12  real
: 2558 6 11  A
: 2566 6 11 me
: 2574 3 9 ri
: 2578 9 9 can!
- 2589
: 2599 4 9 Fight
: 2604 4 11  for
: 2608 5 12  the
: 2616 7 12  rights
: 2625 7 11  of
: 2633 8 11  e
: 2641 3 12 very
: 2645 11 12  man.
- 2658
: 2666 3 9 I
: 2670 4 11  am
: 2675 7 12  a
: 2683 7 12  real
: 2691 6 11  A
: 2699 6 11 me
: 2707 4 9 ri
: 2712 10 9 can!
- 2724
: 2732 4 9 Fight
: 2737 3 11  for
: 2741 5 12  what's
: 2749 10 12  right,
: 2766 4 16  fight
: 2771 5 14  for
: 2776 5 12  your
* 2782 13 16  life.
- 2797
: 2800 4 9 I
: 2804 3 11  am
: 2808 6 12  a
: 2816 7 12  real
: 2825 6 11  A
: 2833 7 11 me
: 2841 3 9 ri
: 2845 9 9 can!
- 2856
: 2866 3 9 Fight
: 2870 4 11  for
: 2875 5 12  the
: 2883 6 12  rights
: 2891 6 11  of
: 2899 8 11  e
: 2907 4 12 very
: 2912 13 12  man.
- 2927
: 2932 5 9 I
: 2937 3 11  am
: 2941 7 12  a
: 2949 7 12  real
: 2958 7 11  A
: 2966 6 11 me
: 2974 3 9 ri
: 2978 9 9 can!
- 2989
: 2998 4 9 Fight
: 3003 3 11  for
: 3008 5 12  what's
: 3016 8 12  right,
: 3032 5 16  fight
: 3038 5 14  for
: 3043 5 12  your
* 3049 13 16  life.
- 3064
: 3066 4 9 I
: 3070 3 11  am
: 3074 7 12  a
: 3082 8 12  real
: 3091 7 11  A
: 3099 8 11 me
: 3108 3 9 ri
: 3112 8 9 can!
- 3122
: 3131 4 9 Fight
: 3136 4 11  for
: 3141 6 12  the
: 3149 7 12  rights
: 3158 6 11  of
: 3166 7 11  e
: 3173 3 12 very
: 3177 13 12  man.
- 3192
: 3198 4 9 I
: 3202 3 11  am
: 3207 7 12  a
: 3215 7 12  real
: 3224 6 11  A
: 3232 6 11 me
: 3240 4 9 ri
: 3245 8 9 can!
- 3255
: 3264 4 9 Fight
: 3269 3 11  for
: 3273 8 12  what's
: 3282 9 12  right,
: 3298 5 16  fight
: 3304 5 14  for
: 3309 5 12  your
* 3315 13 16  life.
E