#TITLE:Jungen Mädchen
#ARTIST:Hund Am Strand
#MP3:Hund Am Strand - Jungen Mädchen.mp3
#VIDEO:Hund Am Strand - Jungen Mädchen [VD#0].avi
#COVER:Hund Am Strand - Jungen Mädchen [CO].jpg
#BPM:300
#GAP:15750
#VIDEOGAP:0
#ENCODING:UTF8
#LANGUAGE:Deutsch
#GENRE:Rock
#EDITION:SingStar Deutsch Rock-Pop
#YEAR:2005
: 0 2 59 Wir
: 4 3 62  könn
: 8 3 59 ten
: 12 3 62  ein
- 16
: 16 2 59 Ex
: 20 2 62 em
: 24 2 59 pel
: 28 3 59  sta
: 32 2 57 tu
: 34 9 59 ieren
- 45
: 64 3 52 Wir
: 68 3 62  könn
: 72 3 62 ten
: 76 2 62  uns
: 80 3 62  lie
: 84 3 60 ben
- 88
: 88 3 60 Und
: 92 3 60  die
: 96 3 59 se
: 100 4 60  Lie
: 105 5 59 be
: 112 6 60  ein
: 120 7 59 frieren
- 128
: 128 3 59 Dann
: 132 3 62  könn
: 136 3 59 ten
: 140 3 62  wir
: 144 3 59  die
: 148 4 62  Lie
: 152 3 59 be
- 156
: 156 2 62 Wei
: 160 3 64 ter
: 164 3 62 ge
: 169 2 59 ben
: 171 7 57 ~
- 180
* 188 8 59 In
: 197 3 59  an
: 200 4 57 de
: 205 8 57 re
- 215
: 221 5 59 Lieb
: 228 4 59 lo
: 232 3 62 se
: 236 4 62 re
: 240 4 64  Le
: 245 4 67 ben
: 249 4 64 ~
- 254
: 254 3 64 Al
: 257 3 64 le
: 260 3 67  Jung
: 264 4 67 en
- 269
: 269 3 66 Al
: 272 3 67 le
: 276 7 66  Mäd
: 283 4 64 ~
: 289 16 59 chen
- 307
: 313 4 67 Zieht
: 317 3 66  eu
: 321 3 67 re
: 325 4 66  T
: 331 4 64 shirts
: 338 6 59  aus
- 346
: 356 14 62 Yeah,
: 370 8 59  yeah
- 379
: 381 4 64 Al
: 385 4 62 le
: 389 4 64  Jung
: 393 3 62 en
- 397
: 397 4 64 Al
: 401 3 62 le
: 405 5 67  Mäd
: 413 8 64 chen
: 421 4 62 ~
: 425 9 59 ~
- 436
: 441 2 59 Zieht
: 445 4 59  eu
: 449 3 60 re
: 453 5 59  T
: 460 4 60 shirts
: 465 8 55  aus
- 475
* 481 16 59 Yeah,
: 498 8 57  yeah
: 506 3 59 ~
: 509 4 57 ~
: 513 11 56 ~
- 526
: 768 3 59 Wir
: 772 3 62  könn
: 776 3 59 ten
: 780 3 62  den
- 784
: 784 3 59 Ge
: 788 3 62 biet
: 793 2 59 sver
: 795 3 59 lust
: 800 4 57  ris
: 808 10 59 kieren
- 820
: 832 3 52 Wir
: 836 3 62  könn
: 840 3 62 ten
: 844 2 62  uns
: 848 4 62  lie
: 852 3 60 ben
- 856
: 856 3 60 Und
: 861 3 60  die
: 865 2 59 se
: 869 4 60  Krie
: 874 4 59 ge
: 881 5 60  ein
: 889 7 59 frieren
- 897
: 897 3 59 Dann
: 900 3 62  könn
: 904 3 59 ten
: 909 3 62  wir
: 913 3 59  die
: 917 4 62  Krie
: 921 3 59 ge
- 925
: 925 2 64 Weg
: 928 3 64 be
: 933 3 62 we
: 937 3 59 gen
: 940 7 57 ~
- 949
: 956 8 59 In
: 965 4 59  an
: 969 3 57 de
: 973 9 57 re
- 984
: 989 6 59 Ver
: 997 4 59 gan
: 1001 3 62 ge
: 1005 4 62 ne
: 1009 3 64  Le
* 1014 4 67 ben
: 1018 3 64 ~
- 1022
: 1022 3 64 Al
: 1026 3 64 le
: 1029 3 67  Jung
: 1033 4 67 en
- 1038
: 1038 3 66 Al
: 1041 3 67 le
: 1045 6 66  Mäd
: 1052 4 64 ~
: 1058 15 59 chen
- 1075
: 1081 4 67 Zieht
: 1086 4 66  eu
: 1090 3 67 re
: 1094 4 66  T
: 1100 4 64 shirts
: 1107 7 59  aus
- 1116
: 1124 14 62 Yeah,
: 1138 9 59  yeah
- 1148
: 1149 4 64 Al
: 1153 4 62 le
: 1157 4 64  Jung
: 1161 3 62 en
- 1165
: 1165 4 64 Al
: 1169 3 62 le
: 1173 7 67  Mäd
: 1182 8 64 chen
: 1190 4 62 ~
: 1194 10 59 ~
- 1206
: 1209 3 59 Zieht
: 1214 3 59  eu
: 1217 3 60 re
: 1222 4 59  T
: 1228 4 60 shirts
: 1234 8 55  aus
- 1244
: 1250 17 59 Yeah,
: 1267 8 57  yeah
- 1277
: 1281 3 57 Wir
: 1285 4 60  könn
: 1289 4 57 ten
: 1293 4 60  die
: 1297 4 57  Ge
: 1301 4 60 füh
: 1305 3 57 le
- 1309
: 1309 3 60 Kon
: 1313 3 57 ser
: 1317 8 62 vieren
- 1327
: 1345 3 55 Wir
: 1349 3 60  könn
: 1353 3 60 ten
: 1357 2 60  uns
: 1361 4 60  lie
: 1365 3 60 ben
- 1369
: 1369 3 60 Und
: 1373 2 60  aus
: 1377 3 60  den
: 1381 4 60  Au
: 1387 4 59 gen
: 1393 4 57  ver
* 1397 7 55 lieren
- 1405
: 1405 3 57 Ja
: 1409 3 57  wie
: 1413 3 60  könn
: 1417 3 57 ten
: 1421 4 60  Vo
: 1425 3 57 rur
: 1429 4 60 tei
: 1433 3 57 le
- 1437
: 1437 2 62 Re
: 1439 2 64 vi
: 1442 11 62 dieren
- 1455
: 1473 3 57 Wir
: 1477 3 60  könn
: 1481 3 57 ten
: 1485 4 60  Po
: 1489 2 57 le
: 1493 3 60  schmelz
: 1497 3 57 en
- 1501
: 1501 2 60 Und
: 1505 3 57  schnell
: 1509 4 64  e
* 1515 4 65 va
: 1521 4 64 ku
: 1525 7 62 ieren
- 1533
: 1534 2 67 Oh
: 1537 3 67  wir
: 1542 4 69  könn
: 1548 4 67 ten,
: 1554 3 67  wie
: 1559 5 69  könn
: 1566 6 69 ten
- 1574
: 1826 3 64 Wir
* 1830 3 67  könn
: 1834 4 67 ten
: 1839 3 66  ein
: 1843 2 66 en
: 1845 3 66  Aus
: 1851 2 64 weg
- 1854
: 1855 2 64 Pro
: 1859 3 64 pa
: 1863 4 62 gier
: 1867 12 59 en
- 1881
: 1891 3 64 Wir
: 1895 2 67  schock
: 1899 3 67 en
: 1903 3 66  die
: 1906 3 67  Sys
: 1910 3 66 te
: 1914 4 64 me
: 1918 2 64  und
- 1921
: 1923 2 64 Sie
: 1926 2 67  könn
: 1930 3 67 ten
: 1934 2 69  ex
: 1938 2 67 plo
: 1942 4 69 dier
: 1946 5 64 en
- 1952
: 1954 3 64 Dann
: 1959 3 64  könn
: 1963 3 64 ten
: 1967 3 64  wir
: 1971 4 64  die
: 1975 3 64  Lie
: 1979 2 64 be
- 1982
: 1983 2 62 Wei
: 1987 4 62 ter
: 1991 4 59 ge
: 1996 5 62 ben
: 2003 7 59 ~
- 2012
: 2014 7 62 In
: 2023 4 64  an
: 2027 3 67 de
: 2031 11 64 re
- 2044
: 2047 6 64 Und
* 2055 3 67  ei
: 2059 3 67 ge
: 2062 4 67 ne
: 2067 4 66  Le
: 2071 5 64 ben
- 2078
: 2080 3 64 Al
: 2083 3 64 le
: 2088 3 67  Jung
: 2091 4 67 en
- 2096
: 2096 3 66 Al
: 2099 3 67 le
: 2103 7 66  Mäd
: 2110 4 64 ~
: 2116 16 59 chen
- 2134
: 2140 3 67 Zieht
: 2144 3 66  eu
: 2148 3 67 re
: 2152 4 66  T
: 2158 4 64 shirts
* 2165 6 59  aus
- 2173
: 2183 14 62 Yeah,
: 2197 8 59  yeah
- 2206
* 2208 4 64 Al
: 2212 4 62 le
: 2216 4 64  Jung
: 2220 3 62 en
- 2224
: 2224 4 64 Al
: 2228 3 62 le
: 2232 5 67  Mäd
: 2240 8 64 chen
: 2248 4 62 ~
: 2252 9 59 ~
- 2263
: 2268 2 59 Zieht
: 2272 4 59  eu
: 2276 3 60 re
: 2280 5 59  T
: 2287 4 60 shirts
: 2292 8 55  aus
- 2302
: 2308 16 59 Yeah,
: 2325 8 57  yeah
- 2334
: 2336 3 64 Al
: 2339 4 64 le
: 2344 4 67  Jung
: 2348 4 67 en
: 2352 4 66  al
: 2356 4 67 le
: 2360 6 66  Mäd
: 2368 7 64 chen
- 2376
: 2376 4 64 Jung
: 2380 4 64 en
: 2384 4 62  al
: 2388 4 62 le
: 2392 4 59  Mäd
: 2396 3 57 ~
: 2400 7 57 chen
- 2408
: 2408 4 59 Jung
: 2412 3 59 en
: 2416 4 59  al
: 2420 4 62 le
: 2424 6 59  Mäd
: 2432 7 57 chen
- 2440
: 2440 4 59 Jung
: 2444 4 59 en
: 2448 4 59  al
: 2452 4 62 le
* 2456 6 64  Mäd
: 2464 6 62 chen
- 2471
: 2472 4 59 Jung
: 2476 4 59 en
: 2480 3 57  al
: 2483 4 57 le
: 2488 3 58  Mäd
: 2491 5 57 ~
: 2500 4 55 chen
: 2504 10 52 ~
- 2516
: 2523 2 59 Zieht
: 2527 4 59  eu
: 2531 4 60 re
: 2535 5 59  T
: 2542 4 60 shirts
: 2548 9 55  aus
- 2559
: 2564 14 59 Yeah,
: 2579 8 57  yeah
: 2587 4 59 ~
: 2591 4 57 ~
: 2595 15 56 ~
E