#TITLE:Un monde parfait
#ARTIST:Ilona Mitrecey
#MP3:Ilona Mitrecey - Un monde parfait.mp3
#VIDEO:Ilona Mitrecey - Un monde parfait.mp4
#COVER:Ilona Mitrecey - Un monde parfait.jpg
#BPM:390.03
#GAP:22844
#VIDEOGAP:6.5
#ENCODING:UTF8
#LANGUAGE:French
#GENRE:Pop
#YEAR:2005
: 0 3 7 Ce
: 5 3 4  ma
: 11 4 7 tin
: 17 4 4  j'i
: 24 3 7 ma
: 30 2 4 gi
: 35 1 4 ne
: 37 2 7  un
: 41 3 9  des
: 47 3 9 sin
: 54 4 7  sans
* 60 5 6  nu
* 66 8 7 a
* 78 4 4 ge
- 92
: 96 4 7 A
: 102 3 4 vec
: 108 4 7  quel
: 114 2 4 ques
: 120 3 7  cou
: 125 3 4 leurs
- 130
: 132 3 7 Com
: 137 3 6 me
: 142 5 6  vient
: 149 3 4  mon
: 155 2 3  pin
: 162 4 4 ceau
- 176
: 191 4 7 Du
: 198 4 4  bleu
: 204 4 7  du
: 209 6 4  rouge
: 217 2 7  je
: 221 3 4  me
: 228 3 7  sens
: 233 4 9  sage
- 238
: 240 3 9 Comme
: 245 4 11  une
: 251 5 9  i
: 259 8 7 ma
: 270 4 4 ge
- 283
: 287 4 7 A
: 293 3 4 vec
: 299 3 7  quel
: 305 4 4 ques
: 311 4 7  mai
: 318 3 4 sons
: 323 3 7  et
: 329 4 6  quel
: 335 4 6 ques
: 341 6 4  a
: 348 4 3 ni
: 354 4 4 maux
- 368
: 384 3 7 Ce
: 390 2 4  ma
: 396 3 7 tin
: 401 5 4  j'i
: 407 4 7 ma
: 413 5 4 gine
: 420 2 7  un
* 426 3 9  pa
* 431 3 9 ys
: 438 4 7  sans
: 444 5 6  nu
: 451 7 7 a
: 462 3 4 ge
- 475
: 479 3 7 Oů
: 485 3 4  tous
: 490 4 7  les
: 497 4 4  per
: 503 3 7 ro
: 509 5 4 quets
: 516 1 4  ne
: 520 5 6  vi
: 527 2 6 vent
: 533 4 4  plus
: 539 3 3  en
* 546 8 7  ca
* 557 5 4 ge
- 572
: 576 3 7 Des
: 581 4 4  jaunes
: 587 3 7  des
: 593 4 4  verts
: 599 3 7  des
: 605 3 4  blancs
- 609
: 611 3 7 Je
: 617 3 9  fais
: 623 2 9  ce
: 629 3 11  qui
: 634 2 9  me
: 641 4 7  plait
- 655
: 672 3 7 Car
: 678 2 4  c'est
: 683 4 7  comme
: 690 3 4  ça
: 696 2 7  que
: 700 3 4  j'i
: 707 4 7  ma
: 714 5 6 gine
: 720 2 6  un
- 723
: 725 4 4 monde
: 731 3 3  par
: 737 4 4 fait
- 751
: 762 9 11 Un
* 775 7 11  oi
* 785 12 11 seau
: 800 2 11  un
: 803 3 11  en
: 809 12 9 fant
: 822 3 11  u
: 826 3 12 ne
: 834 9 11  chč
: 846 5 7 vre
- 861
: 865 2 11 Le
: 869 5 11  bleu
: 876 2 11  du
: 881 6 11  ciel
: 888 3 11  un
: 893 4 11  beau
: 900 3 11  sou
: 905 5 9 rire
: 913 2 9  du
: 917 5 7  bout
: 924 3 6  des
- 928
: 930 9 7 lč
: 942 4 4 vres
- 952
: 954 9 11 Un
: 966 3 11  cro
: 972 4 11 co
: 979 9 11 dile
: 990 3 11  u
: 994 3 11 ne
: 1001 8 9  vache
: 1013 3 11  du
* 1019 5 12  so
* 1026 10 11 leil
- 1046
: 1055 3 11 Et
: 1061 3 11  ce
: 1068 4 11  soir
: 1073 4 11  je
: 1079 4 11  m'en
: 1085 6 11 dors
: 1093 2 11  au
: 1097 5 9  pa
: 1104 4 9 ys
: 1110 3 7  des
: 1115 4 6  mer
: 1121 12 7 veilles
- 1142
: 1146 10 11 Un
: 1159 7 11  oi
: 1170 9 11 seau
: 1182 2 11  un
: 1188 4 11  cra
: 1194 10 9 yon
* 1207 4 11  u
* 1212 2 12 ne
: 1218 9 11  chč
: 1231 3 7 vre
- 1244
: 1248 4 11 Le
: 1254 4 11  bleu
: 1259 3 11  du
: 1266 4 11  ciel
: 1272 2 11  un
: 1280 2 11  peu
: 1283 3 11  de
: 1290 4 9  sucre
: 1295 4 9  un
: 1301 4 11  peu
: 1307 3 12  de
: 1314 10 11  sel
- 1334
: 1338 8 11 Un
: 1349 4 11  cro
: 1356 4 11 co
: 1362 8 11 dile
: 1373 4 11  quel
: 1379 2 11 ques
: 1386 10 9  fleurs
: 1398 5 11  une
: 1404 3 12  a
: 1410 10 11 beille
- 1430
: 1440 3 11 Et
: 1446 2 11  ce
: 1451 4 11  soir
: 1458 4 11  je
: 1466 2 11  m'en
: 1470 4 11 dors
: 1476 3 11  au
: 1482 3 9  pa
: 1487 4 9 ys
: 1493 4 7  des
* 1499 4 6  mer
* 1506 11 7 veilles
- 1527
: 1536 3 7 Ce
: 1542 3 4  ma
: 1548 3 7 tin
: 1554 3 4  j'i
: 1560 3 7 ma
: 1565 5 4 gi
: 1572 1 4 ne
: 1574 2 7  un
: 1578 3 9  des
: 1583 4 9 sin
: 1590 4 7  sans
* 1596 2 6  é
* 1601 11 7 toi
* 1614 4 4 le
- 1628
: 1632 3 7 De
: 1637 4 4  tou
: 1644 4 7 te
: 1650 3 4  les
: 1656 3 7  cou
: 1661 5 4 leurs
: 1667 4 4  un
: 1673 3 6  des
: 1680 3 6 sin
: 1687 2 4  sans
: 1692 4 3  con
* 1699 10 7 tour
- 1719
: 1728 3 7 Quand
: 1734 3 4  ça
: 1739 5 7  m'plait
: 1746 4 4  plus
: 1752 3 7  j'ef
: 1758 2 4 face
- 1762
: 1764 4 7 tout
: 1770 3 9  et
: 1775 4 9  je
: 1781 4 11  re
: 1788 4 9 com
: 1794 8 7 men
: 1807 4 4 ce
- 1821
: 1825 2 7 A
: 1829 4 4 vec
: 1836 3 7  d'au
: 1843 2 4 tres
: 1848 3 7  mai
: 1853 4 4 sons
: 1859 4 7  et
: 1865 3 6  d'au
: 1871 4 6 tres
: 1878 4 4  a
: 1883 3 3 ni
: 1891 5 4 maux
- 1906
: 1920 4 7 Ce
: 1926 3 4  ma
: 1932 3 7 tin
: 1938 3 4  j'i
: 1943 3 7 ma
: 1949 4 4 gine
: 1955 3 7  un
: 1962 4 9  pa
: 1968 3 9 ys
: 1975 3 7  sans
: 1980 4 6  nu
: 1987 8 7 a
: 1998 5 4 ge
- 2012
: 2015 3 7 Oů
: 2023 3 4  tous
: 2028 3 7  les
: 2034 4 4  per
: 2040 3 7 ro
: 2046 4 4 quets
: 2052 3 4  ne
: 2057 4 6  vi
: 2063 3 6 vent
: 2070 3 4  plus
: 2076 2 3  en
: 2082 9 7  ca
: 2094 2 4 ge
- 2106
: 2113 3 7 Des
: 2118 4 4  jaunes
: 2124 4 7  des
: 2130 3 4  verts
: 2136 2 7  des
: 2142 3 4  blancs
- 2146
: 2148 3 7 Je
: 2154 2 9  fais
: 2160 2 9  ce
: 2166 3 11  qui
: 2171 2 9  me
: 2178 4 7  plait
- 2192
: 2208 3 7 Car
: 2214 2 4  c'est
: 2220 3 7  comme
: 2226 3 4  ça
: 2232 2 7  que
: 2237 3 4  j'i
: 2243 4 7  ma
: 2250 4 6 gine
: 2256 2 6  un
- 2259
: 2261 4 4 monde
: 2267 3 3  par
: 2274 3 4 fait
- 2287
: 2298 11 11 Un
: 2311 8 11  oi
: 2322 12 11 seau
: 2336 2 11  un
: 2340 3 11  en
: 2347 11 9 fant
: 2360 3 11  u
: 2364 2 12 ne
: 2371 9 11  chč
: 2383 4 7 vre
- 2398
: 2402 2 11 Le
: 2406 5 11  bleu
: 2413 2 11  du
: 2419 4 11  ciel
: 2424 3 11  un
: 2429 3 11  beau
: 2437 3 11  sou
: 2442 4 9 rire
- 2448
: 2450 2 9 du
: 2454 4 7  bout
: 2459 5 6  des
: 2465 10 7  lč
: 2478 3 4 vres
- 2488
: 2491 9 11 Un
: 2502 3 11  cro
: 2508 4 11 co
: 2515 9 11 dile
: 2526 3 11  u
: 2531 3 11 ne
: 2537 8 9  vache
: 2550 3 11  du
: 2556 4 12  so
: 2562 10 11 leil
- 2582
: 2592 3 11 Et
: 2597 3 11  ce
: 2605 3 11  soir
: 2609 5 11  je
: 2616 4 11  m'en
: 2621 5 11 dors
: 2628 3 11  au
* 2633 5 9  pa
* 2639 4 9 ys
: 2645 4 7  des
: 2651 3 6  mer
: 2658 12 7 veilles
- 2679
: 2682 11 11 Un
: 2695 8 11  oi
: 2706 10 11 seau
: 2718 3 11  un
: 2724 4 11  cra
: 2730 11 9 yon
: 2743 3 11  u
: 2748 2 12 ne
: 2754 9 11  chč
: 2767 3 7 vre
- 2780
: 2784 3 11 Le
: 2790 3 11  bleu
: 2795 3 11  du
: 2802 4 11  ciel
: 2808 2 11  un
: 2815 2 11  peu
: 2819 3 11  de
: 2826 4 9  sucre
: 2832 3 9  un
: 2837 4 11  peu
: 2842 2 12  de
: 2851 9 11  sel
- 2870
: 2874 9 11 Un
: 2886 3 11  cro
: 2892 4 11 co
: 2898 9 11 dile
: 2909 4 11  quel
: 2915 2 11 ques
: 2922 10 9  fleurs
: 2934 5 11  une
: 2940 3 12  a
: 2946 11 11 beille
- 2967
: 2976 3 11 Et
: 2982 2 11  ce
: 2987 4 11  soir
: 2993 4 11  je
: 3000 3 11  m'en
: 3006 5 11 dors
: 3013 2 11  au
: 3018 4 9  pa
: 3024 4 9 ys
: 3030 4 7  des
: 3035 4 6  mer
: 3043 11 4 veilles
- 3106
: 3450 11 11 Un
: 3464 8 11  oi
: 3475 11 11 seau
: 3488 3 11  un
: 3493 2 11  en
: 3499 11 9 fant
: 3511 3 11  u
: 3516 2 12 ne
* 3523 9 11  chč
* 3535 4 7 vre
- 3550
: 3554 2 11 Le
: 3558 5 11  bleu
: 3564 2 11  du
: 3571 4 11  ciel
: 3577 3 11  un
: 3581 3 11  beau
: 3589 3 11  sou
: 3594 4 9 rire
- 3600
: 3602 2 9 du
: 3607 3 7  bout
: 3611 5 6  des
: 3618 10 7  lč
: 3631 2 4 vres
- 3640
: 3643 9 11 Un
: 3655 3 11  cro
: 3660 4 11 co
: 3667 9 11 dile
: 3678 3 11  u
: 3683 3 11 ne
: 3689 9 9  vache
: 3703 1 11  du
: 3708 4 12  so
: 3714 10 11 leil
- 3734
: 3744 3 11 Et
: 3750 2 11  ce
: 3757 3 11  soir
: 3761 5 11  je
: 3768 4 11  m'en
: 3774 5 11 dors
: 3780 3 11  au
: 3786 5 9  pa
: 3792 4 9 ys
: 3798 3 7  des
* 3803 4 6  mer
: 3810 12 7 veilles
- 3831
: 3834 11 11 Un
: 3847 9 11  oi
: 3859 10 11 seau
: 3871 2 11  un
: 3878 3 11  cra
: 3883 11 9 yon
: 3895 3 11  u
: 3899 3 12 ne
: 3907 9 11  chč
: 3919 4 7 vre
- 3933
: 3937 3 11 Le
: 3943 3 11  bleu
: 3948 2 11  du
: 3954 4 11  ciel
: 3960 3 11  un
: 3967 2 11  peu
: 3971 3 11  de
: 3978 4 9  sucre
: 3985 2 9  un
: 3990 3 11  peu
: 3995 2 12  de
: 4003 9 11  sel
- 4022
: 4026 9 11 Un
: 4038 3 11  cro
: 4044 4 11 co
: 4050 9 11 dile
: 4061 4 11  quel
: 4067 1 11 ques
: 4074 10 9  fleurs
: 4086 5 11  une
: 4092 4 12  a
: 4098 12 11 beille
- 4120
: 4128 3 11 Et
: 4134 2 11  ce
: 4139 4 11  soir
: 4145 4 11  je
: 4152 3 11  m'en
: 4158 5 11 dors
: 4165 2 11  au
: 4170 4 9  pa
: 4176 4 9 ys
: 4183 3 7  des
: 4187 5 6  mer
: 4195 11 4 veilles
E