#TITLE:More than friends
#ARTIST:Inna ft. Daddy Yankee
#MP3:Inna ft. Daddy Yankee - More than friends.mp3
#VIDEO:Inna ft. Daddy Yankee - More than friends.avi
#COVER:Inna ft. Daddy Yankee - More than friends.jpg
#BPM:256.40
#GAP:26635
#ENCODING:UTF8
#LANGUAGE:English
#GENRE:Electro House
#YEAR:2013
#CREATOR:Gang-DJ
: 0 1 0 D
: 2 3 0 Y
- 15
: 23 2 0 yo
: 27 2 0  In
: 30 2 0 na,
: 33 2 0  ba
: 37 1 0 by
- 72
: 127 1 0 va
: 129 1 0 mo' a
: 131 1 0 rri
: 133 1 0 ba,
: 135 1 0  let's
: 139 3 0  go
: 143 3 0  now
- 149
: 151 1 10 whoa
: 153 1 11 ~
: 155 3 10 ~
: 159 3 8  to
: 163 1 8 night
: 165 6 11 ~
- 188
: 208 3 11 to
: 212 2 10 night
: 216 2 11  we
: 219 3 10  could
: 224 2 8  be
: 228 1 6  more
: 230 17 8 ~
: 248 2 6 ~
: 251 3 6  than
: 256 7 6  friends
: 264 2 3 ~
- 275
: 279 1 10 whoa
: 281 1 11 ~
: 283 3 10 ~
: 287 3 8  to
: 291 1 8 night
: 293 6 11 ~
- 316
: 336 3 11 to
: 340 2 10 night
: 344 2 11  we
: 348 2 10  should
: 352 2 8  be
* 356 1 6  more
* 358 17 8 ~
* 376 2 6 ~
* 380 2 6  than
* 384 7 6  friends
* 392 2 3 ~
- 404
: 424 3 6 we're
: 428 3 6  in
: 432 1 6  the
: 436 3 6  cor
: 440 3 4 ner
: 444 3 4  of
: 448 1 3  the
: 452 7 -1  crow
: 460 1 1 ded
: 462 2 3 ~
: 468 7 1  room
- 484
: 488 3 6 I
: 492 2 6  want
: 496 3 6  your
: 500 1 6  lips,
- 502
: 504 2 4 your
: 508 3 4  bo
: 512 2 3 dy,
: 516 6 -1  boy,
: 524 1 1  how
: 526 2 3 ~
: 529 2 1 ~
: 532 3 1  soon?
: 536 3 1  And
: 540 2 -1  if
: 544 3 -2  you
: 548 3 -4  like
- 552
: 554 2 8 what
: 560 2 3  we
: 565 1 3  do
: 567 2 4 ~
: 570 2 3 in',
- 574
: 576 1 1 why
: 578 1 -1 ~
: 580 5 -1  don't
: 586 3 1  we
: 592 1 1  give
: 594 1 3 ~
: 596 3 1  in
: 602 5 -1  for
: 608 2 -2  the
: 612 36 -4  night?
- 658
: 680 2 6 This
: 684 2 6  might
: 688 2 6  just
: 692 3 6  be
: 696 2 4  the
: 700 3 4  night
: 705 2 3  of
: 708 8 -1  you
: 717 1 1  and
: 719 2 3 ~
: 722 1 1 ~
: 724 10 1  I,
- 741
: 744 2 6 if
: 748 3 6  there is
: 753 2 6  no
: 756 3 6  dis
: 760 3 4 tance
: 764 3 4 ~,
: 768 3 3  no
: 772 5 -1  hearts
- 778
: 780 1 1 to
: 782 3 3 ~
: 788 3 1 night,
: 792 3 1  and
: 796 2 -1  if
: 800 3 -2  you
: 804 3 -4  like
- 808
* 810 2 8 what
* 816 2 3  we
* 821 1 3  do
* 823 3 4 ~
* 827 1 3 in',
- 830
: 832 2 1 why
: 835 1 -1 ~
: 837 4 -1  don't
: 842 4 1  we
: 848 3 3  give
: 853 3 6  in
: 858 5 3  for
: 864 3 6  the
: 868 2 6  night
: 871 41 8 ~?
- 918
: 920 1 10 Whoa
: 922 1 11 ~
: 924 3 10 ~
: 928 3 8  to
: 932 1 8 night
: 934 6 11 ~
- 957
: 977 3 11 to
: 981 2 10 night
: 985 2 11  we
: 988 3 10  could
: 993 2 8  be
: 997 1 6  more
: 999 17 8 ~
: 1017 2 6 ~
: 1020 3 6  than
: 1025 7 6  friends
: 1033 2 3 ~
- 1045
: 1049 1 10 Whoa
: 1051 1 11 ~
: 1053 2 10 ~
: 1057 3 8  to
: 1061 1 8 night
: 1063 5 11 ~
- 1085
: 1105 3 11 to
: 1109 2 10 night
: 1113 2 11  we
: 1117 2 10  should
: 1121 2 8  be
: 1125 1 6  more
: 1127 17 8 ~
: 1145 2 6 ~
: 1149 3 6  than
: 1153 7 6  friends
: 1161 2 3 ~
- 1173
* 1181 2 8 From
* 1185 2 10  the
* 1189 3 11  first
* 1195 4 11  time
* 1201 3 11  that
* 1205 3 11  I
* 1211 5 11  saw
* 1217 3 11  the
* 1221 2 11  look
- 1225
* 1227 4 11 in
* 1232 2 11  your
* 1235 1 10 ~
* 1237 4 10  eyes
- 1243
: 1245 3 8 I've
: 1249 2 10  been
: 1253 3 11  thin
: 1259 5 11 king
: 1265 2 11  a
: 1269 3 11 bout
: 1275 3 11  you
- 1279
: 1281 3 11 for
: 1285 5 11  all
: 1291 4 11  of
: 1297 2 11  this
: 1301 2 10  time,
: 1305 1 10  whoa
: 1307 1 11 ~
: 1309 3 10 ~
: 1313 3 8  to
: 1317 1 8 night
: 1319 7 11 ~
- 1343
: 1361 3 11 to
: 1365 2 10 night
: 1369 2 11  we
: 1373 3 10  could
: 1377 2 8  be
: 1381 2 6  more
: 1384 17 8 ~
: 1402 2 6 ~
: 1405 3 6  than
: 1409 7 6  friends
: 1417 2 3 ~
- 1429
: 1449 2 6 Ain't
: 1453 2 6  loo
: 1457 2 6 king
: 1461 3 6  for
: 1465 3 4  some
: 1469 3 4 one
: 1473 2 3  to
: 1477 7 -1  call
: 1485 2 1  my
: 1488 2 3 ~
: 1491 1 1 ~
: 1493 8 1  own,
- 1510
: 1513 3 6 but
: 1517 2 6  with
: 1521 2 6  you
: 1525 3 6  boy
: 1529 3 4  we're
: 1533 3 4  in
: 1537 2 3  the
- 1540
: 1542 6 -1 dan
: 1550 1 1 ger
: 1552 1 3 ~
: 1554 2 1 ~
: 1557 4 1  zone,
: 1562 2 1  and
: 1565 2 -1  if
: 1570 3 -2  you
: 1574 2 -4  like
- 1578
: 1580 2 8 what
: 1586 2 3  we
: 1590 2 3  do
: 1593 2 4 ~
: 1596 2 3 in',
- 1599
: 1601 2 1 why
: 1604 1 -1 ~
: 1606 4 -1  don't
: 1611 3 1  we
: 1617 1 1  give
: 1619 2 3 ~
: 1622 4 1  in
: 1628 4 -1  for
: 1633 3 -2  the
: 1638 36 -4  night?
- 1684
: 1705 3 6 So
: 1709 3 6  here
: 1713 4 6  we
: 1718 4 6  are,
: 1724 3 4  I
: 1729 2 3  just
: 1734 1 1  dream
: 1736 4 3 ~
: 1742 1 1  of
: 1744 2 3 ~
: 1747 2 1 ~
: 1750 7 1  you
- 1760
: 1762 3 6 and
: 1766 2 6  all
: 1769 2 6  the
: 1774 2 6  thing
: 1778 3 4  that
: 1782 3 4  I'm
: 1786 2 4  a
: 1790 3 4 bout
: 1794 1 3  to
- 1796
: 1798 6 -1 do
: 1806 1 1  to
: 1808 2 3 ~
: 1811 1 1 ~
: 1813 5 1  you,
: 1819 2 1  and
: 1822 2 -1  if
: 1826 3 -2  you
: 1830 3 -4  like
- 1834
: 1836 2 8 what
: 1842 2 3  we
: 1847 1 3  do
: 1849 3 4 ~
: 1853 1 3 in',
- 1856
: 1858 1 1 why
: 1860 2 -1 ~
: 1863 4 -1  don't
: 1868 4 1  we
* 1874 3 3  give
* 1879 3 6  in
* 1884 5 3  for
* 1890 3 6  the
* 1894 2 6  night
* 1897 41 8 ~?
- 1944
: 1946 1 10 Whoa
: 1948 1 11 ~
: 1950 3 10 ~
: 1954 3 8  to
: 1958 1 8 night
: 1960 6 11 ~
- 1983
: 2002 2 11 to
: 2006 2 10 night
: 2010 2 11  we
: 2014 3 10  could
: 2018 2 8  be
: 2022 2 6  more
: 2025 17 8 ~
: 2043 3 6 ~
: 2047 2 6  than
: 2051 7 6  friends
: 2059 2 3 ~
- 2071
: 2075 1 10 whoa
: 2077 1 11 ~
: 2079 2 10 ~
: 2082 3 8  to
: 2086 1 8 night
: 2088 5 11 ~
- 2110
: 2130 3 11 to
: 2134 2 10 night
: 2138 2 11  we
: 2142 2 10  should
: 2146 3 8  be
: 2151 1 6  more
: 2153 17 8 ~
: 2171 3 6 ~
: 2175 2 6  than
: 2179 7 6  friends
: 2187 2 3 ~
- 2199
: 2206 2 8 from
: 2210 2 10  the
: 2214 3 11  first
: 2220 4 11  time
: 2226 3 11  that
: 2230 3 11  I
: 2236 5 11  saw
: 2242 3 11  the
: 2246 2 11  look
- 2250
: 2252 4 11 in
: 2257 2 11  your
: 2260 2 10 ~
: 2263 4 10  eyes,
- 2269
: 2271 2 8 I've
: 2275 2 10  been
: 2279 3 11  thin
: 2284 5 11 king
: 2291 2 11  a
: 2295 3 11 bout
: 2300 3 11  you
- 2305
: 2307 3 11 for
: 2311 5 11  all
: 2317 4 11  of
: 2323 2 11  this
: 2327 2 10  time,
: 2331 1 10  whoa
: 2333 1 11 ~
: 2335 3 10 ~
: 2339 3 8  to
: 2343 1 8 night
: 2345 7 11 ~
- 2362
: 2386 3 11 to
: 2391 2 10 night
: 2395 2 11  we
: 2398 3 10  could
: 2403 2 8  be
: 2407 2 6  more
: 2410 17 8 ~
: 2428 2 6 ~
: 2431 3 6  than
: 2435 7 6  friends
: 2443 2 3 ~.
- 2453
: 2456 6 1 Ba
: 2463 3 -3 by!
- 2472
: 2475 3 1 She
: 2479 2 1  rings
: 2482 2 -2  my
: 2485 3 -1  bell,
: 2489 1 -2  and
: 2491 3 1  then
: 2495 2 0  rush
: 2499 1 -2  the
: 2501 1 -1  floor
- 2503
: 2505 1 1 you
: 2507 1 0  migh
: 2509 1 -1 ta'
: 2511 2 0  think
: 2516 1 -3  thats
: 2520 6 -3  cool
: 2527 3 -1  zaw
- 2536
: 2539 1 0 Eve
: 2541 1 0 ry
: 2543 2 0 bo
: 2546 2 0 dy in
: 2549 1 0  the
: 2552 2 0  club
: 2555 1 0  was
: 2557 3 0  hot
: 2561 1 0  'til
: 2563 2 0  I
- 2566
: 2568 2 0 showed
: 2571 1 0  my
: 2573 2 0  watch
- 2576
: 2578 1 0 and
: 2580 1 0  they
: 2584 6 0  cooled
: 2591 8 0  out
- 2603
: 2605 1 -2 ca
: 2607 3 -1 lien
: 2612 3 -3 te
- 2620
: 2622 5 -1 frí
: 2628 3 -3 o
- 2637
: 2639 1 0 to'e
: 2641 1 0 so
: 2643 1 0  que
: 2645 1 0  tu
: 2647 3 -1  tie
: 2651 2 -3 ne' es
: 2655 4 -1  mí
: 2660 2 -3 o
- 2667
: 2669 1 -2 ca
: 2671 3 -1 lien
: 2676 3 -3 te
- 2685
: 2687 4 -1 frí
: 2692 3 -3 o
- 2701
: 2704 1 0 to'e
: 2706 1 0 so
: 2708 1 0  que
: 2710 1 0  tu
: 2712 3 -1  tie
: 2716 2 -3 ne,
: 2719 2 -1  it's
: 2723 3 1  for
: 2727 1 1 e
: 2729 4 3 ~
: 2734 3 -4 ver,
- 2738
: 2740 3 -4 (for
: 2744 5 -4 e
: 2750 1 -4 ver)
- 2757
: 2759 5 -1 you
: 2765 3 1  could
: 2770 1 3  be
: 2772 1 1 ~
: 2775 7 1  mine,
: 2783 1 -1  it's
: 2787 3 1  what
: 2791 1 1 e
: 2793 3 3 ~
: 2797 3 -4 ver
- 2801
: 2803 3 -4 (what
: 2807 5 -4 e
: 2813 1 -4 ver)
- 2816
: 2818 3 -4 what
: 2823 5 -1 e
: 2829 4 1 ver
: 2834 1 3  you
: 2836 2 1 ~
: 2839 7 1  like,
: 2847 2 -1  it's
: 2851 3 1  for
: 2855 1 1 e
: 2857 4 3 ~
: 2862 3 -4 ver,
- 2866
: 2868 3 -4 (for
: 2872 5 -4 e
: 2878 1 -4 ver)
- 2885
: 2887 5 -1 you
: 2893 3 1  could
: 2898 1 3  be
: 2900 1 1 ~
: 2903 6 1  mine
- 2910
: 2912 2 -4 and
: 2915 2 -4  I'm
: 2920 3 -1  nee
: 2924 2 -1 ding
: 2927 3 -4  you
: 2931 3 -4  right
: 2935 1 -4  now
: 2937 5 -1 ~,
: 2943 3 -4  ba
: 2947 2 -4 by
- 2950
: 2952 2 -1 come
: 2955 3 -1  and
: 2959 3 -4  hold
: 2963 1 -4  me
: 2967 2 -4  down
: 2970 4 -1 ~
- 2986
: 2990 1 -3 ca
: 2992 3 -1 lien
: 2996 3 -2 te
- 3005
: 3007 4 -1 frí
: 3012 3 -3 o
- 3025
* 3036 1 10 whoa
* 3038 1 11 ~
* 3040 3 10 ~
* 3044 3 8  to
* 3048 1 8 night
* 3050 6 11 ~
- 3073
: 3092 3 11 to
: 3096 2 10 night
: 3100 2 11  we
: 3104 3 10  could
: 3108 2 8  be
: 3112 1 6  more
: 3114 17 8 ~
: 3132 4 6 ~
: 3137 2 6  than
: 3141 7 6  friends
: 3149 2 3 ~
- 3160
: 3164 1 10 whoa
: 3166 1 11 ~
: 3168 3 10 ~
: 3172 3 8  to
: 3176 1 8 night
: 3178 5 11 ~
- 3200
: 3220 3 11 to
: 3224 2 10 night
: 3228 2 11  we
: 3232 2 10  should
: 3236 3 8  be
: 3241 1 6  more
: 3243 17 8 ~
: 3261 3 6 ~
: 3265 3 6  than
: 3269 7 6  friends
: 3277 2 3 ~
- 3289
: 3296 2 8 from
: 3300 2 10  the
: 3304 3 11  first
: 3310 4 11  time
: 3316 3 11  that
: 3320 3 11  I
: 3326 5 11  saw
: 3332 3 11  the
: 3336 2 11  look
- 3340
: 3342 4 11 in
: 3347 2 11  your
: 3350 1 10 ~
: 3352 4 10  eyes,
- 3358
: 3360 3 8 I've
: 3364 2 10  been
: 3368 3 11  thin
: 3374 5 11 king
: 3380 2 11  a
: 3384 3 11 bout
: 3390 3 11  you
- 3395
: 3397 3 11 for
: 3401 5 11  all
: 3407 4 11  of
: 3413 2 11  this
: 3417 2 10  time,
: 3421 1 10  whoa
: 3423 1 11 ~
: 3425 3 10 ~
: 3429 3 8  to
: 3433 9 11 night
- 3452
: 3476 3 11 to
: 3481 2 10 night
: 3485 2 11  we
: 3488 3 10  could
: 3493 2 8  be
: 3497 1 6  more
: 3499 17 8 ~
: 3517 3 6 ~
: 3521 2 6  than
: 3525 7 6  friends
: 3533 2 3 ~,
- 3569
: 3604 3 11 to
: 3609 2 10 night
: 3613 2 11  we
: 3616 3 10  could
: 3621 2 8  be
: 3625 1 6  more
: 3627 17 8 ~
: 3645 3 6 ~
* 3649 2 6  than
* 3653 7 6  friends
* 3661 2 3 ~,
- 3697
: 3732 3 11 to
: 3737 2 10 night
: 3741 2 11  we
: 3744 3 10  could
: 3749 2 8  be
: 3753 1 6  more
: 3755 17 8 ~
: 3773 3 6 ~
: 3777 2 6  than
: 3781 7 6  friends
: 3789 2 3 ~.
E