#TITLE:Hikari
#ARTIST:Inukami
#MP3:Inukami - Hikari.mp3
#VIDEO:Inukami - Hikari.mpg
#COVER:Inukami - Hikari.jpg
#BPM:144
#GAP:6040
#ENCODING:UTF8
#LANGUAGE:Japanese
#GENRE:Anime
#EDITION:UltraStar
#CREATOR:Corvus5
: 0 4 4 I
: 4 4 6 no
: 8 1 7 ri 
: 10 1 7 tsu
: 12 1 7 zu
: 14 1 7 ke
: 16 2 7 te 
: 18 2 6 i
: 20 2 7 i 
: 22 3 11 de
: 26 1 9 su 
: 28 4 9 ka 
- 34
: 36 1 7 Shi
: 38 1 9 n
: 40 1 11 ji 
: 42 1 11 tsu
: 44 1 11 zu
: 46 1 11 ke
: 48 2 11 te 
: 50 2 9 i
: 52 2 11 i 
: 54 3 14 de
: 58 2 11 su 
: 60 4 11 ka 
- 66
: 68 2 4 Ze
: 70 2 6 tsu
: 72 4 7 bou 
: 76 2 7 no 
: 78 2 7 mo
: 80 2 7 ri 
: 82 1 6 ni 
: 84 1 4 sa
: 86 4 4 shi
: 90 2 2 ko
: 92 4 2 mu 
- 97
: 98 2 -1 Hi
: 100 2 2 ka
: 102 2 6 ri
: 104 2 7 ~
: 106 2 4 ~ 
: 108 22 4 yo 
- 132
: 236 1 2 Tsu
: 238 3 4 me
: 242 2 4 ta
: 244 2 2 i 
: 246 2 4 da
: 248 3 4 i
: 252 2 2 chi 
: 254 6 2 wo 
- 262
: 268 2 -1 Tsu
: 270 3 0 ma
: 274 2 0 sa
: 276 2 -1 ki 
: 278 2 0 de 
: 280 4 -1 ke
: 284 1 2 t
: 286 4 -1 te 
- 292
: 300 1 2 Su
: 302 4 4 ki
: 306 2 4 ta
: 308 2 2 te 
: 310 2 4 no 
: 312 4 6 ka
: 316 2 7 mi 
: 318 3 6 ho
: 322 3 2 do
: 328 8 4 ki 
- 338
: 340 2 2 Tsu
: 342 2 4 ki
: 344 4 6 yo 
: 348 2 7 ni 
: 350 3 6 ma
: 354 4 2 u 
- 360
: 364 1 2 O
: 366 4 4 bi
: 370 1 4 e
: 372 1 2 ta 
: 374 1 4 hi
: 376 4 4 to
: 380 1 2 mi 
: 382 6 2 to 
- 390
: 396 2 -1 Ko
: 398 3 0 do
: 402 2 0 ku 
: 404 1 -1 wa 
: 406 1 0 su
: 408 4 -1 te
: 412 2 2 yo
: 414 4 -1 u 
- 420
: 428 2 2 Tsu
: 430 4 4 yo
: 434 2 4 ga
: 436 2 2 ri 
: 438 2 4 da
: 440 4 6 ke 
: 444 2 7 ga 
: 446 3 6 i
: 450 6 7 tsu
: 456 2 7 mo
: 458 6 9 ~ 
- 466
: 468 2 9 To
: 470 2 11 mo
: 472 1 11 da
: 474 2 11 chi 
: 476 2 9 da
: 478 2 9 ~
: 480 3 11 t
: 484 3 9 ta 
: 488 6 7 hi 
- 496
: 498 2 7 Ka
: 500 1 6 na
: 502 2 4 ta 
: 504 4 2 ni 
: 514 2 -1 o
: 516 1 2 i
: 518 2 6 te
: 520 2 7 ~ 
: 522 2 4 yu
: 524 12 4 ku 
- 538
: 544 4 4 Su
: 548 4 6 ku
: 552 2 7 i 
: 554 1 7 wa 
: 556 1 7 so
: 558 2 7 ko 
: 560 2 7 ni 
: 562 2 6 a
: 564 2 7 ri
: 566 3 11 ma
: 570 1 9 su 
: 572 5 9 ka 
- 578
: 580 1 7 Fu
: 582 2 9 ka
: 584 2 11 i 
: 586 2 11 ya
: 588 2 11 mi 
: 590 2 11 wo 
: 592 2 11 i
: 594 1 9 ya
: 596 1 11 se
: 598 2 13 ma
: 600 2 14 ~
: 602 1 11 su 
: 604 5 11 ka 
- 610
: 612 1 4 Nu
: 614 2 6 ku
: 616 2 7 mo
: 618 2 7 ri 
: 620 2 7 wo 
: 622 1 7 mo
: 624 2 7 to
: 626 1 6 me
: 628 1 7 te
: 630 2 7 i
: 632 1 9 ~
: 634 2 6 te 
: 636 3 6 mo 
- 640
: 642 2 2 I
: 644 2 2 i 
: 646 2 2 de
: 648 1 4 ~
: 650 1 2 su 
: 652 12 2 ka 
- 666
: 672 4 4 Da
: 676 4 6 re 
: 680 2 7 yo
: 682 2 7 ri 
: 684 1 7 mo 
: 686 2 7 tsu
: 688 1 7 yo
: 690 2 6 ku 
: 692 2 7 na
: 694 3 11 ri
: 698 2 9 ta
: 700 4 9 i 
- 706
: 708 1 7 I
: 710 1 9 to
: 712 1 11 shi
: 714 2 11 ki 
: 716 2 11 mo
: 718 2 11 no 
: 720 2 11 wa 
: 722 2 9 ma
: 724 2 11 mo
: 726 2 13 ri
: 728 1 14 ~
: 730 2 11 ta
: 732 4 11 i 
- 738
: 740 1 4 Wa
: 742 1 6 ta
: 744 2 7 shi 
: 746 1 7 wo 
: 748 2 7 te
: 750 3 7 ra
: 754 1 6 shi 
: 756 1 4 tsu
: 758 3 4 zu
: 762 2 2 ke
: 764 3 2 ru 
- 768
: 770 1 -1 Hi
: 772 2 2 ka
: 774 2 6 ri
: 776 2 7 ~
: 778 2 4 ~ 
: 780 16 4 yo 
E