#ARTIST:Iron Maiden

#TITLE:Strange World

#MP3:06 Stranger World.mp3

#COVER:iron_maiden_world.jpg
#BACKGROUND:iron_maiden.jpg
#AUTHOR:Leo 21

#GENRE:Heavy Metal
#BPM:63,3

#GAP:102400

: 0 1 14 The 
: 1 1 16 on
: 2 1 14 ly 
: 3 2 16 place 
: 7 2 11 where 
: 9 2 14 you 
: 11 2 11 - 
: 13 2 7 can 
: 15 3 11 dream,
- 20
: 25 1 9 Li
: 26 1 7 ving 
: 27 3 9 here 
: 31 2 7 is 
: 33 2 11 not 
: 35 2 9 what 
: 37 2 7 it 
: 39 1 9 seems
: 40 1 7 -
: 41 3 4 -
- 46
: 49 1 16 Ship 
: 50 1 14 of 
: 51 2 16 white 
: 57 2 14 light 
: 59 2 11 in 
: 61 2 7 the 
: 63 3 11 sky,
- 68
: 72 1 7 No
: 73 1 9 bo
: 74 1 7 dy 
: 75 3 9 there 
: 79 2 9 to 
: 81 2 11 reason 
: 83 2 9 - 
: 85 2 7 - 
: 87 1 9 why 
: 88 1 7 - 
: 89 3 4 -
- 94
: 97 1 16 Here 
: 98 1 14 i 
: 99 2 16 am 
: 104 1 11 i'm 
: 105 2 14 not 
: 107 2 11 rea
: 109 2 7 lly 
: 111 3 11 there,
- 115
: 120 1 9 Smi
: 121 1 7 ling 
: 122 3 9 fa
: 126 2 7 ces 
: 128 2 11 ne 
: 130 2 9 ver 
: 132 2 7 so 
: 134 1 9 rare 
: 135 1 7 - 
: 136 3 4 -
- 141
: 144 1 16 Let's  
: 145 1 14 - 
: 146 2 16 walk 
: 150 2 11 in 
: 152 2 14 dee
: 154 2 11 - 
: 156 2 7 pest 
: 158 3 11 space,
- 163
: 168 1 9 Li
: 169 1 7 ving 
: 170 3 9 here 
: 174 2 7 just 
: 176 2 11 isnt 
: 178 2 9 -  
: 180 2 7 the 
: 182 1 9 place 
: 183 1 11 -
: 184 1 7 -
: 185 1 9 -
: 186 2 4 -
: 188 9 9 -
: 198 1 9 -
: 199 1 11 -
: 200 1 9 -
: 201 5 4 -
- 209
: 258 6 11 oh 
: 264 4 9 - 
: 268 1 9 - 
: 269 1 11 - 
: 270 2 9 - 
: 272 2 7 - 
: 274 5 4 - 
- 282
: 579 1 16 Stalks 
: 580 1 14 of 
: 581 2 16 light  
: 587 2 14 come  
: 589 2 11 from 
: 591 2 7 the 
: 593 3 11 ground,
- 598
: 603 1 9 When 
: 604 1 7 i 
: 605 3 9 cry 
: 609 2 7 there 
: 611 2 11 isnt 
: 613 2 9 - 
: 615 2 7 a 
: 617 1 9 sound 
: 618 1 7 - 
: 619 3 4 -
- 624
: 627 1 16 All 
: 628 1 14 my 
: 629 4 16 feelings 
: 633 1 11 - 
: 635 2 14 can
: 637 2 11 not 
: 639 2 7 be 
: 641 3 11 held,
- 645
: 649 1 7 I'm 
: 650 1 9 ha
: 651 1 7 ppy 
: 652 3 9 in 
: 656 2 9 my 
: 658 2 11 new 
: 660 2 9 - 
: 662 2 7 strange 
: 664 1 9 world 
: 665 1 7 - 
: 666 3 4 - 
- 671
: 674 1 16 Shades 
: 675 1 14 of 
: 676 3 16 green
: 680 2 19 - 
: 682 4 14 pa
: 686 2 11 sses 
: 688 3 14 twine,
- 693
: 698 1 9 Girls 
: 699 1 7 - 
: 700 3 9 dri
: 704 2 7 nking 
: 706 2 11 plasma 
: 708 2 9 - 
: 710 2 7 - 
: 712 1 9 wine 
: 713 1 7 - 
: 714 3 4 -
- 719
: 721 1 14 A 
: 722 1 16 look 
: 723 1 14 of 
: 724 2 16 love 
: 728 2 11 a 
: 730 2 14 dream 
: 732 2 11 - 
: 734 2 7 un
: 736 3 11 folds
- 740
: 745 1 9 Li
: 746 1 7 ving 
: 747 3 9 here 
: 751 2 7 you'll 
: 753 2 11 ne 
: 755 2 9 ver 
: 757 2 7 grow 
: 759 1 9 old 
: 760 1 11 - 
: 761 1 7 - 
: 762 1 9 - 
: 763 2 4 - 
: 765 9 9 - 
: 774 1 9 - 
: 775 1 11 - 
: 776 1 9 - 
: 777 5 4 - 
- 784
: 813 2 11 Oh 
: 815 1 9 - 
: 816 3 8 ba
: 819 6 6 by
- 827
: 899 2 11 Don't 
: 901 1 7 you 
: 902 3 9 hear 
: 905 2 11 me 
: 907 1 9 call 
: 908 10 7 - ?
- 920
: 936 3 11 Oh 
: 939 3 9 - 
: 942 3 13 - 
: 945 17 17 -

