#TITLE:1000 Words
#ARTIST:Jade
#MP3:Jade - 1000 Words.mp3
#COVER:Jade - 1000 Words [CO].jpg
#BACKGROUND:Jade - 1000 Words [BG].jpg
#BPM:210,44
#GAP:6900
#ENCODING:UTF8
#LANGUAGE:Englisch
#EDITION:[SC]-Songs
: 0 4 6 I
: 4 5 11  know
: 9 3 11  that
: 13 4 11  you're
: 18 12 10  hid
: 30 3 11 ing
: 35 8 11  things
- 45
: 47 4 6 Us
: 51 4 11 ing
: 56 7 13  gen
: 64 4 11 tle
: 69 4 13  wo
: 73 7 11 rds
: 82 3 11  to
: 86 7 13  shel
: 94 4 15 ter
: 99 2 13  m
: 102 9 11 e
- 113
: 156 5 11 Your
: 162 7 15  words
: 170 3 15  were
: 174 7 13  like
: 182 2 11  a
: 186 9 15  dream
- 197
: 223 3 15 But
: 227 8 16  dreams
: 236 4 15  could
: 241 8 16  nev
: 250 5 18 er
: 258 9 18  fool
: 269 14 11  me
- 285
: 312 6 6 Not
: 319 7 11  that
: 327 6 13  ea
: 334 4 13 si
: 339 11 11 ly
- 352
: 480 3 6 I
: 484 5 11  act
: 489 3 11 ed
: 493 3 11  so
: 497 13 10  dis
: 511 4 11 tant
: 516 5 11  then
- 523
: 527 4 11 Did
: 532 2 8 n´t
: 536 7 13  say
: 544 6 11  good
: 551 8 13 bye
: 561 4 11  be
: 566 9 13 fore
: 575 4 15  you
: 580 3 13  le
: 584 15 11 ft
- 601
: 635 4 11 But
: 639 8 15  I
: 648 4 16  was
: 653 8 13  lis
: 662 3 11 ten
: 666 10 15 ing
- 678
: 703 3 15 You'll
: 707 8 16  fight
: 716 4 15  your
: 721 8 16  bat
: 730 7 18 tles
: 738 8 18  far
: 747 4 11  from
: 752 11 11  me
- 765
: 791 4 6 Far
: 796 7 11  too
: 804 10 13  ea
: 815 5 13 si
: 821 11 11 ly
- 834
: 879 10 10 "Save
: 890 4 11  your
: 895 10 11  tears
: 906 5 11  'cause
: 912 8 18  I'll
: 921 5 11  come
: 927 8 11  back"
- 937
: 939 4 11 I
: 944 4 11  could
: 949 4 15  hear
: 954 3 16  that
: 958 4 15  you
: 963 7 13  whis
: 971 4 11 pered
- 975
: 975 4 11  as
: 980 7 18  you
: 988 7 20  walked
: 996 7 15  through
: 1004 4 13  th
: 1009 3 11 at
: 1013 3 13  do
: 1016 11 11 or
- 1029
: 1047 3 11 But
: 1052 8 10  still
: 1061 3 13  I
: 1065 10 11  swore
- 1077
: 1080 4 11  to
: 1085 8 18  hide
: 1094 2 11  the
: 1097 7 11  pain
- 1105
: 1107 4 11  when
: 1112 3 11  I
: 1116 10 20  turn
: 1127 5 15  back
: 1133 3 13  the
: 1137 3 13  pa
: 1141 8 11 ges
- 1151
: 1155 4 11 Shout
: 1160 4 11 ing
: 1165 3 11  might
: 1169 4 11  have
: 1174 7 11  been
: 1182 3 13  the
: 1186 7 15  an
: 1193 14 11 swer
- 1209
: 1220 2 11 What
: 1222 2 13  if
: 1225 3 15  I'd
: 1229 3 16  cried
: 1233 3 15  my
: 1237 7 13  eyes
: 1245 3 11  out
- 1249
: 1249 3 11  and
: 1253 6 18  begged
: 1261 6 20  you
: 1269 8 15  not
: 1278 3 13  to
: 1282 2 11  de
: 1285 4 13 pa
: 1290 11 11 rt?
- 1303
: 1357 4 6 But
: 1362 8 8  now
: 1371 4 6  I'm
: 1376 7 10  not
: 1388 2 11  a
: 1392 11 11 fraid
- 1404
: 1405 3 8  to
: 1409 11 11  say
: 1422 6 8  what's
: 1430 10 15  in
: 1441 6 16  m
: 1447 7 15 y
: 1456 15 13  heart
- 1473
: 1494 2 18 Though
: 1497 2 18  a
: 1499 5 18  thou
: 1505 7 20 sand
: 1513 9 11  words
- 1524
: 1527 3 11 Have
: 1531 4 15  nev
: 1536 4 16 er
: 1541 3 15  been
: 1545 7 13  spo
: 1553 6 11 ken
- 1560
: 1562 3 18 They'll
: 1566 6 18  fly
: 1573 6 20  to
: 1580 8 11  you
- 1590
: 1595 3 11 Cross
: 1598 3 11 ing
: 1602 3 15  o
: 1606 3 16 ver
: 1610 2 15  the
: 1613 5 13  time
- 1620
: 1623 4 18  and
: 1628 3 20  dis
: 1632 4 22 tance
: 1637 6 22  hol
: 1644 6 23 ding
: 1651 14 20  you
- 1667
: 1682 4 23 Sus
: 1687 7 25 pend
: 1695 5 22 ed
: 1701 2 16  on
: 1704 7 15  sil
: 1712 6 23 ver
: 1719 23 23  wings
- 1744
: 1767 2 18 And
: 1770 2 18  a
: 1773 7 18  thou
: 1781 5 20 sand
: 1787 13 11  words
- 1801
: 1803 3 11 One
: 1807 4 15  thou
: 1812 3 16 sand
: 1816 3 15  con
: 1820 8 13 fes
: 1829 7 11 sions
- 1837
: 1837 3 18 Will
: 1842 7 18  cra
: 1850 3 20 dle
: 1856 8 11  you
- 1866
: 1871 3 13 Mak
: 1874 3 11 ing
: 1877 4 15  all
: 1882 3 16  of
: 1886 3 15  the
: 1890 5 13  pain
- 1896
: 1897 3 18  you
: 1901 4 20  feel
: 1906 4 22  seem
: 1911 6 22  far
: 1918 5 23  a
: 1924 19 20 way
- 1945
: 1957 5 23 They'll
: 1963 7 25  hold
: 1970 5 23  you
* 1976 4 22  for
* 1981 33 22 e
* 2015 18 20 ver
- 2035
: 2336 3 6 The
: 2340 6 11  dream
: 2347 3 11  is
: 2350 5 11 n´t
: 2356 11 10  ov
: 2368 2 11 er
: 2371 6 11  yet
- 2379
: 2383 5 6 Though
: 2389 3 11  I
: 2393 7 13  of
: 2401 3 11 ten
: 2406 8 13  say
- 2416
: 2419 3 11  I
: 2423 7 13  can
: 2431 3 15  for
: 2435 2 13 ge
: 2438 15 11 t
- 2455
: 2491 3 11 I
: 2496 7 15  still
: 2504 3 16  re
: 2508 9 13 live
: 2518 4 11  that
: 2523 13 15  day
- 2538
: 2559 4 15 You've
: 2564 8 16  been
: 2573 3 15  there
: 2577 7 16  with
: 2585 7 18  me
: 2594 7 18  all
: 2603 4 11  the
: 2608 12 11  way
- 2622
: 2649 4 6 I
: 2655 6 11  still
: 2663 7 13  hear
: 2672 7 13  you
: 2680 10 11  say
- 2692
: 2738 3 11 "Wait
: 2742 3 11  for
: 2746 4 11  me,
: 2751 4 11  Ill
: 2756 5 11  write
: 2762 5 13  you
: 2768 6 15  let
: 2775 16 10 ters"
- 2793
: 2800 1 8 I
: 2802 1 8  could
: 2804 5 15  see
: 2810 3 16  how
: 2814 3 15  you
: 2818 4 13  stam
: 2823 3 11 mer
: 2826 1 11 ed
- 2827
: 2827 3 11  with
: 2831 5 11  your
: 2837 7 18  eyes
: 2845 3 13  to
: 2849 2 13  the
: 2852 4 13  flo
: 2857 9 11 or
- 2868
: 2903 3 11 But
: 2907 8 10  still
: 2916 4 13  I
: 2921 9 11  swore
- 2932
: 2937 3 11  to
: 2941 9 18  hide
: 2951 3 11  the
: 2955 7 11  doubt
: 2964 4 11  when
: 2969 3 11  I
: 2973 10 20  turn
: 2985 5 13  back
: 2991 2 13  the
: 2994 4 13  pa
: 2999 8 11 ges
- 3009
: 3012 3 11 An
: 3016 3 11 ger
: 3020 4 11  might
: 3025 3 11  have
: 3029 7 11  been
: 3037 4 13  the
: 3042 7 15  ans
: 3050 12 10 wer
- 3064
: 3075 2 11 What
: 3077 2 13  if
: 3080 2 15  I'd
: 3084 3 16  hung
: 3088 4 15  my
: 3093 3 13  he
: 3097 4 11 ad
- 3101
: 3101 6 11  and
: 3109 7 18  said
: 3118 8 20  that
: 3127 7 15  I
: 3135 4 13  could
: 3140 3 13 n´t
: 3145 3 13  wa
: 3148 7 11 it?
- 3157
: 3213 3 6 But
: 3217 9 8  now
: 3227 3 6  I'm
: 3231 12 10  strong
: 3245 2 11  e
: 3248 9 11 nough
- 3258
: 3259 5 8  to
: 3265 9 11  know
- 3276
: 3278 4 11  it's
: 3284 12 15  not
: 3297 6 16  to
: 3304 6 15 o
: 3312 19 13  late
- 3333
: 3351 2 18 'Cause
: 3354 2 18  a
: 3357 5 18  thou
: 3363 6 20 sand
: 3370 14 11  words
- 3384
: 3384 4 11 Call
: 3389 4 15  out
: 3394 4 16  through
: 3399 3 15  the
: 3403 7 13  a
: 3411 5 11 ges
- 3417
: 3418 3 18 They'll
: 3422 8 18  fly
: 3431 5 20  to
: 3437 10 11  you
- 3449
: 3454 2 11 E
: 3456 2 11 ven
: 3459 4 15  though
: 3464 2 16  we
: 3467 3 15  can't
: 3471 5 13  see,
- 3478
: 3480 3 18  I
: 3484 4 20  know
: 3489 3 22  they're
: 3493 6 22  reach
: 3500 5 23 ing
: 3506 16 20  you
- 3524
: 3540 4 23 Sus
: 3545 5 25 pend
: 3551 5 22 ed
: 3557 3 18  on
* 3561 6 15  sil
* 3568 6 23 ver
* 3575 21 23  wings
- 3598
: 3625 2 18 Oh,
: 3627 2 18  a
: 3630 5 18  thou
: 3636 7 20 sand
: 3644 13 11  words
- 3658
: 3659 4 11 One
: 3664 4 15  thou
: 3669 3 16 sand
: 3673 3 15  em
: 3677 7 13 bra
: 3685 7 11 ces
- 3693
: 3694 4 18 Will
: 3699 7 18  cra
: 3707 5 20 dle
: 3713 10 11  you
- 3725
: 3728 2 11 Mak
: 3730 2 13 ing
: 3733 4 15  all
: 3738 3 16  of
: 3742 4 15  your
: 3747 5 13  wea
: 3753 4 18 ry
: 3758 4 20  days
- 3762
: 3762 4 22  seem
: 3767 7 22  far
: 3775 5 23  a
: 3781 17 20 way
- 3800
: 3815 3 23 They'll
: 3819 6 25  hold
: 3826 4 23  you
* 3831 4 22  for
* 3836 34 22 e
* 3872 15 20 ver
- 3889
: 4176 2 18 Oh,
: 4178 2 18  a
: 4181 6 18  thou
: 4188 6 20 sand
: 4195 12 11  words
- 4209
: 4211 2 11 Have
: 4214 4 15  nev
: 4219 3 16 er
: 4223 3 15  been
: 4227 7 13  spo
: 4235 5 11 ken
- 4241
: 4243 3 18 They'll
: 4247 5 18  fly
: 4254 5 20  to
: 4260 11 11  you
- 4273
: 4278 2 11 They'll
: 4281 5 15  car
: 4287 4 16 ry
: 4292 3 15  you
: 4296 4 13  home
- 4301
: 4303 4 18  and
: 4308 4 20  back
: 4313 3 22  in
: 4317 6 22 to
: 4324 6 23  my
: 4331 21 20  arms
- 4354
: 4364 4 23 Sus
: 4369 5 25 pend
: 4375 5 22 ed
: 4381 3 18  on
* 4386 6 15  sil
* 4393 5 23 ver
* 4399 18 23  wings
- 4419
: 4451 2 23 And
: 4453 1 23  a
: 4455 4 26  tho
: 4460 3 25 u
: 4464 3 23 sand
: 4468 12 23  words
- 4482
: 4484 4 23 Call
: 4489 4 26  out
: 4494 3 25  through
: 4498 3 23  the
: 4502 7 23  a
: 4510 7 20 ges
- 4518
: 4518 4 23 They'll
: 4523 4 26  cra
: 4528 4 25 d
: 4533 3 23 le
: 4537 12 23  you
- 4551
: 4553 2 11 Turn
: 4556 1 11 ing
: 4558 3 13  all
: 4563 3 18  of
: 4567 2 18  the
: 4570 8 18  lone
: 4579 3 20 ly
: 4583 4 22  years
- 4587
: 4587 3 22  to
* 4591 7 22  on
* 4599 6 23 ly
: 4606 17 20  days
- 4625
: 4639 4 23 They'll
: 4644 6 25  hold
: 4651 4 25  you
* 4656 5 25  for
* 4662 25 25 e
* 4690 5 27 ~
* 4696 22 27 ver
E