#TITLE:Stop
#ARTIST:Jamelia
#EDITION:SS TheDome, Popworld & Pop
#GENRE:Urban
#YEAR:2004
#MP3:Jamelia - Stop.mp3
#COVER:Jamelia - Stop [CO].jpg
#BACKGROUND:Jamelia - Stop [BG].jpg
#VIDEO:Jamelia - Stop [VD#0].avi
#VIDEOGAP:0
#BPM:124,9
#GAP:12610,09
: 0 4 71 All
: 5 2 71  that
: 7 2 71  I
: 10 3 69  have
: 13 2 66 ~
: 16 2 66 is
- 19
: 19 2 66 All
: 21 2 64  that
: 24 4 62  you've
: 29 2 66  gi
: 31 2 62 ven
: 33 8 64  me
: 41 1 66 ~
- 44 45
: 68 2 64 Did
: 70 1 62  you
: 71 2 64  ne
: 73 1 62 ver
: 74 3 66  wor
: 77 2 71 ~
* 80 3 71 ry
- 84
: 85 2 64 That
: 87 3 62  I'd
: 90 2 64  come
: 92 1 62 ~
: 93 2 59 ~
- 96
: 96 1 59 To
: 97 1 59  de
: 99 2 59 pend
: 101 2 59  on
: 103 3 57 ~
: 107 6 59 you
- 115 116
: 129 3 71 I
: 133 2 71  gave
: 136 2 71  you
: 138 3 69  all
: 141 1 66 ~
- 143
: 143 2 66 The
: 146 2 66  love
: 149 2 64  I
: 152 3 62  had
: 156 2 66  in
: 160 7 64  me
: 167 1 66 ~
- 170 171
: 191 3 62 Now
: 194 2 64  I
: 197 2 64  find
: 199 3 62  you've
: 202 3 66  lied
: 205 3 71 ~
* 208 8 73 ~
- 218
: 221 2 64 And
: 223 2 62  I
: 226 5 64  can't
: 232 1 59  be
: 234 2 59 lieve
: 237 2 59  it's
: 240 4 59  true
: 244 2 57 ~
- 248
: 250 5 59 Oh
: 255 6 62 ~
: 261 2 64 ~
: 263 2 62 ~
- 266
: 266 4 66 You'd
: 271 6 69  bet
: 277 4 66 ter
: 282 5 71  stop
- 289
: 295 3 71 Be
: 298 10 70 fore
- 309
: 311 3 66 You
: 314 4 71  tear
: 319 4 66  me
: 325 2 66  all
: 327 2 62  a
: 330 6 64 part
- 337
: 338 3 66 You'd
: 341 2 69  bet
: 343 2 66 ter
: 346 6 71  stop
- 354
: 359 2 71 Be
: 362 4 70 fore
: 366 4 68 ~
: 370 3 66 ~
- 374
: 374 4 66 You
: 378 4 74  go
: 382 1 73 ~
: 384 2 71 and
: 386 2 71  break
: 390 3 71  my
: 394 3 66  heart
: 397 1 64 ~
: 398 12 62 ~
- 412 413
: 426 8 71 Ooh
: 434 5 69 ~
: 439 2 71 ~
: 442 1 66 ~
: 443 5 64 ~
- 449
: 450 2 64 You'd
: 453 2 62  bet
: 455 2 59 ter
: 458 7 59  stop
- 467 477
: 497 3 71 Time
: 501 2 71  af
: 503 2 71 ter
: 506 3 69  time
: 509 4 66 ~
- 514
: 515 2 66 I've
: 517 2 64  tried
: 520 2 62  to
: 522 2 66  walk
: 525 2 62  a
* 527 10 64 way
: 537 1 66 ~
- 540 541
: 560 2 62 But
: 562 2 64  it's
: 565 2 64  not
: 567 2 62  that
: 570 3 66  ea
: 573 2 71 ~
: 576 4 71 sy
- 581
: 581 2 64 When
: 583 3 62  your
: 586 2 64  soul
: 588 1 62 ~
: 589 2 59 ~
: 592 2 59 is
: 595 2 59  torn
: 597 2 59  in
: 600 5 59  two
- 607 608
: 621 2 66 So
: 623 2 71 ~
: 626 2 71 I
: 629 2 69  just
: 631 3 69  re
: 634 3 71 sign
: 637 1 69 ~
: 639 2 69 my
: 642 2 69 self
: 645 3 71  to
: 648 2 69  it
- 652
: 658 7 76 E
: 665 2 71 very
: 668 3 71  day
: 671 3 74 ~
: 674 2 71 yeah
: 676 1 69 ~
: 677 1 66 ~
- 680
: 687 2 71 Now
: 690 3 71  all
: 693 2 71  I
: 695 3 71  can
: 698 1 74  do
: 699 8 73 ~
- 708
: 708 3 71 Is
: 711 2 71  to
* 714 5 83  leave
: 719 3 71  it
: 722 2 71  up
: 724 2 71  to
: 727 2 71  you
- 730
: 730 5 71 Woah
: 735 1 69 ~
: 736 2 66 ~
: 738 3 66 oh
: 741 4 64 ~
- 746
: 746 5 59 Oh
: 751 6 62 ~
: 757 2 64 ~
: 759 2 62 ~
- 762
: 762 4 66 You'd
: 767 6 69  bet
: 773 4 66 ter
* 778 5 71  stop
- 785
: 791 3 71 Be
: 794 10 70 fore
- 805
: 807 3 66 You
: 810 4 71  tear
: 815 4 66  me
: 821 2 66  all
: 823 2 69  a
: 826 6 64 part
- 833
: 834 3 66 You'd
: 837 2 69  bet
: 839 2 66 ter
: 842 6 71  stop
- 850
: 855 2 71 Be
: 858 4 70 fore
: 862 4 68 ~
: 866 3 66 ~
- 870
: 870 4 66 You
: 874 4 74  go
: 878 1 73 ~
: 880 2 71 and
: 882 2 71  break
: 886 3 71  my
: 890 3 66  heart
: 893 1 64 ~
: 894 7 62 ~
: 901 1 64 ~
: 902 3 66 ~
- 906
: 907 3 66 Yeah
: 910 1 64 ~
- 913 914
: 922 8 71 Ooh
: 930 5 69 ~
: 935 2 71 ~
: 938 1 66 ~
: 939 5 64 ~
- 945
: 946 2 64 You'd
: 949 2 62  bet
: 951 2 59 ter
: 954 7 71  stop
- 963
: 965 2 69 If
: 967 3 69  you
: 970 3 66  love
: 973 2 69 ~
: 975 3 69 me
- 979
: 981 3 66 Now's
: 984 2 69  the
: 986 4 71  time
: 992 5 69  to
* 997 3 71  be
: 1002 3 66  sor
: 1005 4 69 ry
- 1011
: 1018 2 71 I
: 1020 2 69 ~
: 1023 5 69 won't
: 1028 5 66  be
: 1034 2 71 lieve
: 1036 2 69 ~
: 1039 5 69 that
: 1045 4 66  you'd
- 1050
: 1050 4 74 Walk
: 1055 4 74  out
: 1060 4 74  on
: 1066 5 71  me
: 1071 1 73 ~
: 1072 2 71 ~
: 1074 4 69 ~
- 1080
* 1082 5 76 Ba
: 1087 2 74 ~
: 1090 2 74 by
- 1093
: 1093 2 71 Yeah
: 1095 2 74 ~
: 1098 4 71 ~
: 1102 1 69 ~
* 1103 8 71 ~
: 1111 1 69 ~
: 1112 2 66 ~
: 1114 3 69 ~
: 1117 8 71 ~
- 1127
: 1130 3 83 Ooh
: 1133 5 83  ooh
- 1140 1238
: 1258 5 59 Oh
: 1263 6 62 ~
: 1269 2 64 ~
: 1271 2 62 ~
- 1274
: 1274 4 66 You'd
: 1279 6 69  bet
: 1285 4 66 ter
: 1290 5 71  stop
- 1297
: 1303 3 71 Be
: 1306 10 70 fore
- 1317
: 1319 3 66 You
: 1322 4 71  tear
: 1327 4 66  me
: 1333 2 66  all
: 1335 2 69  a
: 1338 7 64 part
- 1346
: 1346 3 66 You'd
: 1349 2 69  bet
: 1351 2 66 ter
: 1354 6 71  stop
- 1362
: 1367 2 71 Be
: 1370 4 70 fore
: 1374 4 68 ~
: 1378 3 66 ~
- 1382
: 1382 4 66 You
: 1386 4 74  go
: 1390 1 73 ~
: 1392 2 71 and
: 1394 2 71  break
: 1398 3 71  my
* 1402 13 71  heart
- 1417 1435
: 1455 8 71 Ooh
: 1463 5 69 ~
: 1468 2 71 ~
: 1471 1 66 ~
: 1472 5 64 ~
- 1478
: 1479 2 64 You'd
: 1482 2 62  bet
: 1484 2 59 ter
- 1487
: 1487 3 74 Stop
: 1490 5 71 ~
- 1497
: 1503 3 74 Stop
: 1506 5 71 ~
- 1513
* 1519 8 71 Ooh
: 1527 5 69 ~
: 1532 2 71 ~
: 1535 1 66 ~
: 1536 5 64 ~
- 1542
: 1543 2 74 You'd
: 1546 2 74  bet
: 1548 2 71 ter
- 1551
: 1551 3 74 Stop
: 1554 5 71 ~
- 1561
: 1567 3 74 Stop
: 1570 5 71 ~
E
