#ARTIST:Jason Mraz
#TITLE:I Won't Give Up
#MP3:Jason Mraz - I Won't Give Up.mp3
#YEAR:2012
#LANGUAGE:Englisch
#BPM:400
#GAP:42003,5
#COVER:Jason Mraz - I Won't Give Up.jpg
#VIDEO:Jason Mraz - I Won't Give Up.mp4
: -8 4 16 When
: -4 8 16  I
: 8 6 16  look
: 20 8 18  in
: 32 8 20 to
: 44 20 21  your
: 76 24 20  eyes
- 102
: 132 4 16 It's
: 136 8 16  like
: 148 8 16  wa
: 160 8 18 tching
: 172 4 20  the
: 180 32 21  night
: 216 20 20  sky
- 238
: 276 4 16 Or
: 284 4 16  a
: 292 8 16  beau
: 300 12 18 ti
: 312 8 20 ful
: 324 32 21  sun
: 360 24 20 rise
- 386
: 420 8 20 There's
: 432 4 20  so
: 444 8 18  much
: 456 4 16  they
: 464 28 18  hold
- 494
: 568 4 16 And
: 572 8 16  just
: 584 8 18  like
: 596 8 20  them
* 608 28 21  old
* 640 28 20  stars
- 670
: 708 4 16 I
: 712 6 16  see
: 720 8 18  that
: 736 8 20  you've
: 748 14 21  come
: 764 12 23  so
: 784 8 23  far
: 792 4 18 ~
: 796 19 20 ~
- 817
: 852 4 16 To
: 856 6 16  be
: 864 8 18  right
: 876 8 20  where
: 888 32 21  you
: 928 24 20  are
- 954
: 984 8 20 How
: 996 8 20  old
: 1008 4 18  is
: 1020 4 16  your
: 1028 36 18  soul?
- 1066
: 1136 8 20 I
: 1148 8 18  won't
: 1160 10 16  give
: 1172 20 16  up
: 1208 16 16  on
: 1244 16 16  us
- 1262
: 1280 4 18 E
: 1284 6 20 ven
: 1292 7 18  if
: 1304 4 16  the
: 1312 24 16  skies
: 1348 20 16  get
: 1384 16 18  rough
- 1402
: 1416 4 16 I'm
: 1420 8 18  giv
: 1428 8 20 ing
: 1444 8 18  you
: 1456 8 16  all
: 1464 8 13 ~
: 1472 8 11 ~
: 1488 20 16  my
: 1524 16 16  love
- 1542
: 1556 4 16 I'm
: 1560 8 16  still
: 1572 8 16  loo
: 1584 8 18 king
: 1596 12 18  up
: 1608 8 13 ~
: 1616 12 11 ~
- 1630
: 1700 4 16 And
: 1704 6 16  when
: 1712 5 18  you're
: 1720 6 20  nee
: 1728 4 16 ding
: 1736 24 21  your
: 1768 24 20  space
- 1794
: 1844 4 16 To
: 1848 8 18  do
: 1864 8 20  some
: 1880 20 21  na
: 1900 8 23 vi
: 1908 8 23 ga
: 1916 16 18 ~
: 1932 21 16 ting
- 1955
: 1984 8 16 I'll
: 1996 8 18  be
: 2008 8 20  here
: 2020 8 21  pa
: 2028 12 21 tien
: 2040 12 23 tly
: 2056 12 23  wai
: 2068 16 18 ~
: 2084 24 16 ting
- 2110
: 2120 4 16 To
: 2124 8 20  see
: 2136 10 18  what
: 2148 6 16  you
: 2156 32 18  find
- 2190
: 2260 4 16 'Cause
* 2268 8 20  e
* 2276 8 18 ven
* 2292 4 16  the
* 2300 24 16  stars
: 2336 16 16  they
: 2372 20 16  burn
- 2394
: 2404 12 20 Some
: 2420 8 18  e
: 2428 8 16 ven
: 2444 20 16  fall
: 2476 16 16  to
: 2500 4 18  the
: 2508 24 18  earth
- 2534
: 2548 8 20 We've
: 2560 8 20  got
: 2568 6 18 ~
: 2576 4 16  a
: 2584 24 16  lot
: 2616 20 16  to
: 2652 20 16  learn
- 2674
: 2688 8 16 God
: 2700 10 16  knows
: 2712 6 18  we're
: 2720 8 18  worth
: 2732 4 13  it
: 2736 12 11 ~
- 2750
: 2816 8 20 No,
: 2832 8 20  I
: 2844 8 18  won't
: 2856 6 16  give
: 2864 16 16  up
- 2882
: 2996 4 21 I
: 3000 6 20  don't
: 3008 4 21  wan
: 3012 4 20 na
: 3020 4 21  be
: 3028 4 20  some
: 3032 4 21 one
: 3040 4 20  who
: 3044 6 21  walks
: 3052 4 20  a
: 3056 4 21 way
: 3060 4 20  so
: 3068 4 21  ea
: 3072 4 20 sily
- 3078
: 3088 4 20 I'm
: 3092 4 21  here
: 3096 4 20  to
: 3100 8 21  stay
: 3108 4 20  and
: 3116 4 21  make
: 3120 4 20  the
: 3124 8 21  dif
: 3132 8 20 fer
: 3140 4 21 ence
: 3144 4 20  that
: 3148 6 21  I
: 3156 4 21  can
: 3160 16 23  make
: 3176 8 21 ~
: 3184 8 17 ~
- 3194
: 3280 4 20 Our
: 3288 4 21  dif
: 3292 4 20 fer
: 3296 4 20 en
: 3300 4 21 ces
: 3304 4 20  they
: 3312 4 21  do
: 3316 4 20  a
: 3324 4 21  lot
: 3328 4 20  to
: 3332 6 21  teach
: 3340 4 20  us
: 3348 4 21  how
: 3352 4 20  to
: 3356 4 21  use
- 3362
: 3364 4 20 The
: 3368 6 21  tools
: 3376 4 20  and
: 3380 6 21  gifts
: 3388 4 20  we
: 3392 4 21  got
: 3400 8 21  yeah,
: 3412 4 20  we
: 3416 4 21  got
: 3420 4 20  a
: 3424 4 21  lot
: 3428 4 23  at
: 3440 24 23  stake
: 3464 8 21 ~
: 3472 16 18 ~
- 3490
: 3552 4 11 And
: 3556 4 11  in
: 3560 4 11  the
: 3564 6 14  end,
: 3572 4 13  you're
: 3576 6 14  still
: 3584 4 13  my
: 3588 6 14  friend
: 3596 4 13  at
: 3600 6 14  least
: 3608 4 13  we
: 3612 6 14  did
: 3620 4 13  in
: 3624 4 14 tend
- 3628
: 3628 4 13 For
: 3632 6 14  us
: 3640 4 13  to
: 3644 6 14  work
: 3652 4 13  we
: 3656 4 14  did
: 3660 4 13 n't
: 3668 4 14  break,
: 3676 4 13  we
: 3680 4 14  did
: 3684 4 13 n't
: 3692 8 14  burn
- 3702
: 3712 4 15 We
: 3716 4 15  had
: 3720 4 15  to
: 3728 12 12  learn
: 3748 6 15  how
: 3756 6 15  to
: 3764 14 12  bend
: 3780 4 15  with
: 3784 4 15 out
: 3792 4 15  the
: 3796 12 12  world
: 3820 4 15  ca
: 3824 8 15 ving
: 3836 12 12  in
- 3850
: 3852 4 13 I
: 3856 4 14  had
: 3860 6 13  to
: 3868 12 14  learn
: 3888 6 14  what
: 3896 4 13  I've
: 3900 12 14  got,
: 3920 4 14  and
: 3924 6 14  what
: 3932 6 13  I'm
: 3940 12 14  not
- 3954
: 3960 4 12 And
: 3968 4 15  who
: 3976 6 15  I
* 3984 8 15  am
* 3992 84 16 ~
- 4078
: 4088 8 20 I
: 4100 8 18  won't
: 4112 10 16  give
: 4124 20 16  up
: 4160 16 16  on
: 4196 16 16  us
- 4214
: 4224 4 18 E
: 4228 6 20 ven
: 4236 7 18  if
: 4248 4 16  the
: 4256 24 16  skies
: 4292 20 16  get
: 4328 16 18  rough
- 4346
: 4360 4 16 I'm
: 4364 8 18  giv
: 4372 8 20 ing
: 4388 8 18  you
: 4400 8 16  all
: 4408 8 13 ~
: 4416 8 11 ~
: 4432 20 16  my
: 4468 16 16  love
- 4486
: 4500 4 16 I'm
: 4504 8 16  still
: 4516 8 16  loo
: 4528 8 18 king
: 4540 20 18  up
- 4562
: 4568 12 16 Still
: 4584 8 20  loo
: 4596 6 16 king
* 4604 8 18  up
* 4612 16 20 ~
- 4630
: 4640 8 20 I
: 4652 8 18  won't
: 4664 10 16  give
: 4676 20 16  up
: 4712 16 16  on
: 4748 16 16  us
- 4766
: 4780 10 20 God
: 4792 10 18  knows
: 4804 8 16  I'm
: 4816 20 16  tough
: 4852 20 16  e
: 4880 24 18 nough
- 4906
: 4920 8 20 We've
: 4932 8 20  got
: 4940 6 18 ~
: 4948 4 16  a
: 4956 24 16  lot
: 4988 20 16  to
: 5024 20 16  learn
- 5046
: 5060 8 16 God
: 5072 10 16  knows
: 5084 6 18  we're
: 5092 8 18  worth
: 5104 4 13  it
: 5108 12 11 ~
- 5122
: 5200 8 20 I
: 5212 8 18  won't
: 5224 10 16  give
: 5236 20 16  up
: 5272 16 16  on
: 5308 16 16  us
- 5326
: 5340 4 18 E
: 5344 6 20 ven
: 5352 7 18  if
: 5364 4 16  the
: 5372 24 16  skies
: 5408 20 16  get
: 5444 16 18  rough
- 5462
: 5476 4 16 I'm
: 5480 8 18  giv
: 5488 8 20 ing
: 5504 8 18  you
: 5516 8 16  all
: 5524 8 13 ~
: 5532 8 11 ~
: 5548 20 16  my
: 5584 16 16  love
- 5602
: 5616 4 16 I'm
: 5620 8 16  still
* 5632 8 16  loo
* 5644 8 18 king
: 5656 20 18  up

