#TITLE:Eyes On You
#ARTIST:Jay Sean featuring The Rishi Rich Project
#MP3:Jay Sean featuring The Rishi Rich Project - Eyes On You.mp3
#VIDEO:Jay Sean featuring The Rishi Rich Project - Eyes On You [VD#0].avi
#COVER:Jay Sean featuring The Rishi Rich Project - Eyes On You [CO].jpg
#BPM:192
#GAP:41953,13
#VIDEOGAP:0
#ENCODING:UTF8
#GENRE:Urban
#EDITION:SS TheDome, Popworld & Pop
#YEAR:2004
: 0 2 60 Woah
: 2 6 59 ~
- 10
: 16 2 60 Woah
: 18 4 59 ~
: 22 2 60 ~
: 24 4 57 ~
- 30
: 60 2 60 You
: 62 2 60  can
: 64 2 60  tell
: 66 2 60  ya
: 68 3 59  girl
: 72 3 59 friends
- 76
: 76 2 59 'Bout
: 78 2 57 ~
: 80 5 57 me
- 87
: 92 2 60 It's
: 94 2 60  a
: 96 3 60 bout
: 100 2 59  time
: 102 2 59  to
: 104 3 59  get
- 108
: 108 2 59 Row
: 110 2 57 ~
: 112 5 57 dy
- 119
: 122 2 57 You
: 124 2 60  know
: 126 2 60  I
: 128 2 60  wan
: 130 2 60 na
: 132 3 59  work
- 136
: 136 3 59 That
: 140 2 59  bo
: 142 2 57 ~
: 144 5 57 dy
- 151
: 162 2 57 Come
: 164 4 56  work
: 168 2 56  it
: 170 4 57  o
: 174 4 59 ver
* 178 7 60  here
- 186
: 188 2 60 You
: 190 2 60  can
: 192 2 60  be
: 194 2 60  my
: 196 3 59  brown
: 200 3 59  eyed
- 204
: 204 2 59 Beau
: 206 2 57 ~
: 208 5 57 ty
- 215
: 220 2 60 And
: 222 2 60  I
: 224 2 60  bet
: 226 2 60  you
: 228 3 59  see
- 232
: 232 3 59 Right
: 236 2 59  through
: 238 2 57 ~
: 240 5 57 me
- 247
: 252 2 60 You
: 254 2 60  can
: 256 3 60  do
: 260 2 59  a
: 262 2 59 ny
: 264 3 59 thing
- 268
: 268 2 59 To
: 270 2 57 ~
: 272 5 57 me
- 279
: 288 2 64 Oh
: 292 4 62 ~
: 296 2 60 ~
- 299
: 300 4 57 You're
: 304 3 60  so
: 308 4 62  beau
: 312 2 62 ti
: 314 5 60 ful
- 320
: 322 2 60 To
: 324 4 62 night
: 328 2 62  a
: 330 2 62 ny
: 332 4 62 thing
: 336 3 60  is
: 340 4 62  pos
: 344 2 62 si
: 346 5 60 ble
- 352
: 352 2 60 But
: 354 2 60  ya
: 356 3 62  know
: 360 3 64  I
: 364 3 62  just
: 368 3 60  can't
- 372
* 372 4 62 Get
: 376 2 62  e
: 378 5 60 nough
- 385
: 388 4 62 Of
: 392 2 62  your
: 394 5 60  love
- 400
: 402 2 60 So
: 404 4 62  give
: 408 2 62  it
: 410 5 60  up
- 417
: 428 2 60 Got
: 432 2 62  my
: 436 6 62  eyes
: 442 4 60  on
: 448 2 60  you
: 450 3 62 ~
- 455
: 460 2 60 Won't
: 462 2 62  you
: 466 3 62  bring
: 470 3 62  that
: 474 3 60  back
: 478 4 57  to
: 482 4 57  me
- 488
: 492 2 60 Got
: 496 2 62  my
: 500 6 62  eyes
: 506 4 60  on
: 512 2 60  you
: 514 3 62 ~
- 519
: 524 2 60 You
: 526 2 62  know
: 530 3 64  where
: 534 3 62  I'm
: 538 3 60  gon
: 542 4 62 na
: 547 4 62  be
- 553
: 556 2 60 Got
: 560 2 62  my
* 564 6 62  eyes
: 570 4 60  on
: 576 2 60  you
: 578 3 62 ~
- 583
: 588 2 60 And
: 590 2 62  I
: 594 3 62  see
: 598 3 62  you
: 602 3 60  check
: 606 4 57 in'
: 610 4 57  me
- 616
: 620 2 60 Got
: 624 2 62  my
: 628 6 62  eyes
: 634 4 60  on
: 640 2 60  you
: 642 3 62 ~
- 647
: 656 2 64 Oh
: 658 2 60 ~
: 660 6 62 ~
: 666 2 64 ~
- 670
: 672 2 57 And
: 674 2 59  I
: 676 3 60  like
: 680 3 59  what
: 684 2 57  I
: 688 5 57  see
- 695
* 720 7 64 Hold
: 727 2 62  on
: 729 4 60 ~
- 735
: 782 6 64 Hold
: 788 2 62  on
: 790 4 60 ~
- 796
: 828 2 60 You
: 830 2 60  can
: 832 3 60  tell
: 836 2 59  a
: 838 2 59 ny
: 840 1 59 one
- 842
: 842 2 59 A
: 844 2 59 bout
: 846 2 57 ~
: 848 5 57 it
- 855
: 860 2 60 Show
: 862 2 60  it
* 864 3 60  off
: 868 3 59  no
: 872 1 59  need
- 874
: 874 2 59 To
: 876 2 59  hide
: 878 2 57 ~
: 880 5 57 it
- 887
: 892 2 60 Come
: 894 2 60  and
: 896 2 60  get
: 898 2 60  a
: 900 2 59  lit
: 902 1 59 tle
- 904
: 904 3 59 Ex
: 908 2 59 ci
: 910 2 57 ~
: 912 5 57 ted
- 919
: 930 2 57 Ex
: 932 4 56 ci
: 936 2 56 ted
: 938 4 57  o
: 942 4 59 ver
: 946 7 60  here
- 954
: 956 3 60 Don't
: 960 3 60  stop
: 964 2 59  ba
: 966 1 59 by
- 968
: 968 3 59 No
: 972 2 59  don't
: 974 2 57 ~
: 976 5 57 stop
- 983
: 986 2 57 I
: 988 2 60  know
: 990 2 60  you
: 992 2 60  real
: 994 2 60 ly
: 996 2 59  like
: 998 1 59  it
- 1000
: 1000 2 59 When
: 1002 2 59  you're
: 1004 2 59  on
: 1006 2 57 ~
: 1008 5 57 top
- 1015
: 1020 3 60 Don't
: 1024 3 60  be
: 1028 3 59  shy
: 1032 3 59  just
- 1036
: 1036 2 59 Give
: 1038 2 57  it
: 1040 5 57  up
- 1047
: 1054 2 60 Come
: 1056 2 60  on
: 1058 2 62 ~
: 1060 6 64 girl
- 1067
: 1068 4 57 You're
: 1072 3 60  so
: 1076 4 62  beau
: 1080 2 62 ti
: 1082 5 60 ful
- 1088
: 1090 2 60 To
: 1092 4 62 night
: 1096 2 62  a
: 1098 2 62 ny
: 1100 4 62 thing
: 1104 3 60  is
: 1108 4 62  pos
: 1112 2 62 si
: 1114 5 60 ble
- 1120
: 1120 2 60 But
: 1122 2 60  ya
: 1124 3 62  know
: 1128 3 64  I
: 1132 3 62  just
: 1136 3 60  can't
- 1140
: 1140 4 62 Get
: 1144 2 62  e
: 1146 5 60 nough
- 1153
: 1156 4 62 Of
: 1160 2 62  your
: 1162 5 60  love
- 1168
: 1170 2 60 So
: 1172 4 62  give
: 1176 2 62  it
: 1178 5 60  up
- 1184
: 1184 2 64 Oh
* 1188 4 64  oh
: 1192 3 62 ~
- 1196
: 1196 2 60 Got
: 1200 2 62  my
: 1204 6 62  eyes
: 1210 4 60  on
: 1216 2 60  you
: 1218 3 62 ~
- 1223
: 1228 2 60 Won't
: 1230 2 62  you
: 1234 3 62  bring
: 1238 3 62  that
: 1242 3 60  back
: 1246 4 57  to
: 1250 4 57  me
- 1256
: 1260 2 60 Got
: 1264 2 62  my
: 1268 6 62  eyes
: 1274 4 60  on
: 1280 2 60  you
: 1282 3 62 ~
- 1287
: 1292 2 60 You
: 1294 2 62  know
: 1298 3 64  where
: 1302 3 62  I'm
: 1306 3 60  gon
: 1310 4 62 na
: 1315 4 62  be
- 1321
: 1324 2 60 Got
: 1328 2 62  my
: 1332 6 62  eyes
: 1338 4 60  on
: 1344 2 60  you
: 1346 3 62 ~
- 1351
: 1356 2 60 And
: 1358 2 62  I
: 1362 3 62  see
: 1366 3 62  you
: 1370 3 60  check
* 1374 4 57 in'
: 1378 4 57  me
- 1384
: 1388 2 60 Got
: 1392 2 62  my
: 1396 6 62  eyes
: 1402 4 60  on
: 1408 2 60  you
: 1410 3 62 ~
- 1415
: 1424 2 64 Oh
: 1426 2 60 ~
: 1428 4 62 ~
: 1432 4 64 ~
- 1438
: 1440 2 57 And
: 1442 2 59  I
: 1444 3 60  like
: 1448 3 59  what
: 1452 2 57  I
: 1456 5 57  see
- 1463
: 1488 7 64 Hold
: 1495 2 62  on
: 1497 4 60 ~
- 1503
: 1528 2 64 Uh
: 1530 3 57  oh,
: 1534 2 64  uh
: 1536 3 57  oh
- 1540
: 1540 2 59 Your
: 1543 2 59  bo
: 1546 2 57 dy's
: 1548 3 59  whi
: 1552 4 60 nin'
- 1558
: 1560 2 64 Uh
: 1562 3 57  oh,
: 1566 2 64  uh
* 1568 3 57  oh
- 1572
: 1572 2 59 Bump
: 1574 2 59 in'
: 1576 3 59  and
: 1580 4 62  grind
: 1584 2 60 in'
: 1586 2 57 ~
- 1590
: 1592 2 64 Uh
: 1594 3 57  oh,
: 1598 2 64  uh
: 1600 3 57  oh
- 1604
: 1604 2 59 Stop
: 1607 2 59  and
: 1610 2 57  re
: 1612 3 59 wind
: 1616 4 60  and
- 1622
: 1624 2 64 Uh
: 1626 3 57  oh,
: 1630 2 64  uh
: 1632 3 57  oh
- 1637
: 1640 7 64 Hold
: 1647 2 62  on
: 1649 4 60 ~
- 1654
: 1656 2 64 Uh
: 1658 3 57  oh,
: 1662 2 64  uh
: 1664 3 57  oh
- 1668
: 1668 2 59 Get
: 1671 2 59 tin'
: 1674 2 57 you
: 1676 3 59  hot
: 1680 4 60  now
- 1686
: 1688 2 64 Uh
: 1690 3 57  oh,
: 1694 2 64  uh
: 1696 3 57  oh
- 1700
: 1700 2 59 Ba
: 1702 2 59 by
: 1704 3 59  don't
* 1708 4 62  stop
: 1712 2 60  now
: 1714 2 57 ~
- 1718
: 1720 2 64 Uh
: 1722 3 57  oh,
: 1726 2 64  uh
: 1728 3 57  oh
- 1732
: 1732 2 59 Got
: 1734 2 59  you
: 1736 2 57  on
: 1740 3 59  lock
: 1744 4 60  down
- 1750
: 1752 2 64 Uh
: 1754 3 57  oh,
: 1758 2 64  uh
: 1760 3 57  oh
- 1765
: 1772 2 60 Got
: 1776 2 62  my
: 1780 6 62  eyes
: 1786 4 60  on
: 1792 2 60  you
: 1794 3 62 ~
- 1799
: 1804 2 60 Won't
: 1806 2 62  you
: 1810 3 62  bring
: 1814 3 62  that
: 1818 3 60  back
: 1822 4 57  to
: 1826 4 57  me
- 1832
: 1836 2 60 Got
: 1840 2 62  my
: 1844 6 62  eyes
: 1850 4 60  on
: 1856 2 60  you
: 1858 3 62 ~
- 1863
: 1868 2 60 You
: 1870 2 62  know
: 1874 3 64  where
: 1878 3 62  I'm
: 1882 3 60  gon
: 1886 4 62 na
: 1891 4 62  be
- 1897
: 1900 2 60 Got
: 1904 2 62  my
* 1908 6 62  eyes
: 1914 4 60  on
: 1920 2 60  you
: 1922 3 62 ~
- 1927
: 1932 2 60 And
: 1934 2 62  I
: 1938 3 62  see
: 1942 3 62  you
: 1946 3 60  check
: 1950 4 57 in'
: 1954 4 57  me
- 1960
: 1964 2 60 Got
: 1968 2 62  my
: 1972 6 62  eyes
: 1978 4 60  on
: 1984 2 60  you
: 1986 3 62 ~
E