#TITLE:Comme toi
#ARTIST:Jean-Jacques Goldman
#MP3:Jean-Jacques Goldman - Comme toi.mp3
#VIDEO:Jean-Jacques Goldman - Comme toi.avi
#COVER:Jean-Jacques Goldman - Comme toi [CO].jpg
#BPM:358.38
#GAP:16260
#VIDEOGAP:-0.4
#ENCODING:UTF8
#LANGUAGE:French
#GENRE:Pop
#YEAR:1983
: 0 2 9 Elle
: 5 3 16  a
: 10 5 17 vait
: 17 2 17  les
: 21 3 17  yeux
: 30 10 16  clairs
: 43 2 16  et
: 47 4 16  la
: 54 4 14  robe
: 61 3 16  en
: 67 2 17  ve
: 71 4 9 lours
- 85
: 95 2 5 ŕ
: 101 3 10  cô
: 107 4 12 té
: 113 2 12  de
: 117 5 12  sa
: 126 9 10  mčre
: 137 3 10  et
: 142 3 10  la
: 148 5 9  fa
: 156 4 10 mille
: 162 1 9  au
: 168 5 4 tour
- 183
: 191 3 -2 Elle
: 198 4 10  pose
: 204 3 10  un
: 211 3 10  peu
: 216 3 10  dis
: 223 8 9 traite
: 235 3 9  au
: 240 2 9  doux
: 244 7 7  so
: 252 7 7 leil
- 265
: 267 1 -3 De
: 270 3 4  la
: 276 5 5  fin
: 284 2 4  du
: 288 9 2  jour
- 320
: 384 3 9 la
* 389 5 17  pho
: 396 4 17 to
: 402 2 17  n'est
: 408 4 17  pas
: 415 10 16  bon
: 426 3 16 ne
: 431 4 16  mais
: 438 3 14  l'on
: 445 2 16  peut
: 450 4 17  y
: 458 7 9  voir
- 477
: 481 2 9 Le
: 486 4 12  bo
: 493 4 12 nheur
: 498 2 12  en
: 504 3 12  per
: 511 8 10 sonne
- 521
: 523 3 10 Et
: 528 4 10  la
: 534 1 9  dou
: 540 5 10 ceur
: 549 3 9  d'un
: 555 9 4  soir
- 575
: 579 3 4 Elle
: 583 4 10  ai
: 589 4 10 mait
: 594 5 10  la
: 601 2 10  mu
: 607 3 9 sique
- 614
: 616 3 9 sur
: 625 4 9 tout
: 634 5 7  Schu
: 642 5 5 mann
- 657
: 664 2 -3 Et
: 670 5 -3  puis
: 677 5 2  Mo
: 684 6 2 zart
- 713
: 757 5 5 com
: 764 2 4 me
: 768 6 2  toi
- 784
: 807 3 5 com
: 812 2 4 me
: 818 4 2  toi
: 832 2 5  com
: 836 2 4 me
: 841 2 2  toi
: 855 4 5  com
: 860 2 4 me
: 868 3 2  toi
- 894
: 952 4 5 com
: 958 1 4 me
: 964 5 2  toi
- 979
: 999 5 5 com
: 1006 2 4 me
: 1012 3 2  toi
: 1023 4 5  com
: 1029 2 4 me
: 1035 3 2  toi
: 1047 5 5  com
: 1054 2 4 me
: 1061 3 2  toi
- 1087
: 1145 4 2 com
: 1150 2 4 me
: 1155 5 5  toi
: 1164 3 10  que
: 1169 3 10  je
: 1176 2 10  re
: 1180 4 10 gar
: 1189 4 10 de
: 1200 3 10  tout
: 1205 3 9  bas
- 1218
: 1241 4 9 com
* 1248 3 14 me
: 1252 6 16  toi
* 1261 4 17  qui
: 1267 4 17  dort
: 1273 3 17  en
: 1278 4 17  rę
: 1285 4 16 vant
: 1291 6 17  ŕ
: 1301 7 17  quoi
: 1309 26 19 ~
- 1337
: 1339 3 17 com
: 1343 2 16 me
: 1348 5 17  toi
: 1354 2 16 ~
: 1357 2 14 ~
- 1369
: 1386 4 17 com
: 1391 3 16 me
: 1398 5 14  toi
: 1409 5 17  com
: 1415 2 16 me
: 1422 3 14  toi
: 1433 4 17  com
: 1439 3 16 me
: 1446 6 14  toi
- 1475
: 1541 4 9 Elle
: 1546 5 17  al
* 1553 2 17 lait
: 1558 5 17  ŕ
: 1565 2 17  l'é
: 1570 12 16 cole
: 1584 2 16  au
: 1589 3 16  vil
: 1594 4 14 la
: 1600 2 16 ge
: 1606 4 17  d'en
: 1615 5 9  bas
- 1630
: 1637 2 9 elle
: 1641 4 12  ap
: 1649 3 12 pre
: 1654 4 12 nait
: 1660 3 12  les
: 1668 6 10  livres
- 1678
: 1680 3 10 elle
: 1684 2 10  ap
: 1690 4 9 pre
: 1697 4 10 nait
: 1702 2 9  les
* 1710 3 4  lois
- 1723
: 1733 2 4 elle
: 1738 4 10  chan
: 1745 4 10 tait
: 1751 3 10  les
: 1757 4 10  gre
: 1764 5 9 nouilles
: 1771 2 9  et
: 1775 1 9  les
: 1781 5 7  prin
: 1790 11 7 cesses
- 1805
: 1807 2 -3 qui
: 1811 4 4  dor
: 1817 3 5 ment
: 1823 3 4  au
: 1830 14 2  bois
- 1867
: 1926 3 9 Elle
* 1931 4 17  ai
: 1937 2 17 mait
: 1942 5 17  sa
: 1951 2 17  pou
: 1957 9 16 pée,
: 1968 3 16  elle
: 1974 2 16  ai
: 1979 3 14 mait
: 1985 4 16  ses
: 1992 4 17  a
: 1999 3 9 mis
- 2012
: 2020 3 9 sur
: 2027 4 12 tout
: 2033 3 12  Ruth
: 2039 3 12  et
: 2044 4 12  An
: 2052 5 10 na
- 2061
: 2063 2 10 et
: 2068 3 10  sur
: 2075 4 9 tout
: 2081 4 10  Jé
: 2087 3 9 ré
: 2093 3 4 mie
- 2106
: 2118 3 4 et
: 2123 4 10  ils
: 2130 3 10  se
: 2136 4 10  ma
: 2143 2 10 rie
: 2147 11 9 rait
: 2161 2 9  un
: 2165 5 9  jour
- 2179
: 2183 2 7 peut
: 2188 5 5  ętre
: 2198 3 4  ŕ
: 2203 4 5  Var
: 2212 3 4 so
: 2221 5 2 vie
- 2249
: 2297 4 4 com
: 2302 3 5 ~
: 2306 2 4 me
: 2309 5 2  toi
- 2324
: 2344 5 5 com
: 2351 2 4 me
: 2356 4 2  toi
: 2369 4 5  com
: 2376 2 4 me
: 2381 2 2  toi
: 2394 4 5  com
: 2400 2 4 me
: 2406 2 2  toi
- 2431
: 2489 5 5 com
: 2496 2 4 me
: 2502 3 2  toi
- 2515
: 2537 4 5 com
: 2543 2 4 me
: 2548 6 2  toi
: 2561 4 5  com
: 2567 3 4 me
: 2573 3 2  toi
: 2585 4 5  com
: 2592 1 4 me
: 2597 4 2  toi
- 2624
: 2681 3 2 com
: 2686 3 4 me
: 2691 6 5  toi
: 2701 3 10  que
: 2706 3 10  je
: 2713 1 10  re
: 2716 4 10 gar
: 2724 8 10 de
: 2737 3 10  tout
: 2743 3 9  bas
- 2756
: 2776 3 9 com
* 2782 2 14 me
: 2787 4 16  toi
: 2794 4 17  qui
: 2800 5 17  dort
: 2807 3 17  en
: 2812 4 17  rę
* 2818 6 16 vant
: 2826 6 17  ŕ
: 2835 6 17  quoi
: 2842 24 19 ~
- 2868
: 2870 5 17 com
: 2877 2 16 me
: 2884 2 17  toi
: 2887 2 16 ~
- 2899
: 2918 6 17 com
: 2925 3 16 me
: 2930 5 14  toi
: 2942 5 17  com
: 2949 2 16 me
: 2954 4 14  toi
: 2965 6 17  com
: 2973 2 16 me
: 2977 7 14  toi
- 3031
: 3853 2 11 Elle
* 3858 4 19  s'ap
: 3865 3 19 pe
: 3870 1 19 lait
: 3875 6 19  Sa
: 3883 10 18 rah,
* 3895 3 18  elle
: 3900 5 18  n'a
: 3907 2 16 vait
* 3913 4 18  pas
: 3921 2 16  huit
: 3927 10 11  ans
- 3946
: 3949 2 12 Sa
: 3952 2 14 ~
: 3955 2 14  vie
: 3960 4 14  c'e
: 3968 3 14 tait
: 3973 3 14  dou
: 3979 11 12 ceur
: 3992 4 12  rę
: 3997 1 12 ves
: 3999 2 11  et
: 4005 8 12  nua
: 4015 1 11 ges
: 4021 11 6  blancs
- 4042
: 4046 1 6 Mais
: 4051 3 12  d'au
: 4056 4 12 tres
: 4062 5 12  gens
: 4069 4 12  en
: 4075 4 11  a
: 4082 3 11 vaient
: 4088 2 11  dé
: 4093 9 9 ci
: 4105 10 9 dés
- 4121
: 4124 7 7 au
: 4134 4 6 tre
: 4142 18 4 ment
- 4183
: 4235 4 11 elle
* 4241 4 19  a
* 4247 3 19 vait
: 4253 4 19  tes
: 4259 4 19  yeux
: 4266 11 18  clairs
- 4278
: 4280 4 18 et
: 4285 3 18  elle
: 4290 4 16  a
: 4296 3 18 vait
* 4302 4 19  ton
: 4310 9 11  âge
- 4327
* 4330 2 11 c'é
* 4336 5 23 tait
: 4343 2 24  une
: 4348 4 23  pe
* 4354 3 24 tite
* 4361 6 21  fille
- 4369
: 4371 5 21 sans
: 4379 3 19  his
: 4385 6 21 toire
: 4392 2 21  et
: 4398 3 23  trčs
: 4404 8 21  sa
* 4413 4 19 ~
: 4418 2 16 ge
- 4424
: 4426 3 16 mais
: 4432 5 23  elle
* 4440 2 23  n'est
: 4445 4 23  pas
: 4451 2 23  née
* 4455 11 21  com
: 4468 2 21 me
: 4472 11 19  toi
- 4484
: 4486 2 19 I
: 4491 5 19 ci
: 4498 3 18  et
: 4504 9 19  main
: 4516 3 18 te
* 4522 6 18 nant
: 4529 56 16 ~
- 4595
: 4604 5 19 Com
: 4612 1 18 me
: 4616 7 18  toi
: 4624 6 16 ~
- 4640
: 4652 5 19 Com
: 4659 2 18 me
: 4663 9 16  toi
: 4676 5 19  com
: 4683 2 18 me
: 4687 8 16  toi
: 4699 7 19  com
: 4708 1 18 me
: 4713 12 16  toi
- 4748
: 4796 4 19 Com
: 4802 2 18 me
: 4807 6 18  toi
: 4814 7 16 ~
- 4831
: 4842 5 19 Com
: 4849 2 18 me
: 4854 8 16  toi
: 4866 5 19  com
: 4873 2 18 me
: 4878 8 16  toi
: 4890 4 19  com
* 4896 5 19 me
* 4902 8 21 ~
: 4913 6 19  toi
: 4920 5 18 ~
: 4926 5 16 ~
- 4954
: 4986 4 16 Com
: 4992 2 18 me
: 4996 5 19  toi
* 5004 4 21  que
: 5010 3 21  je
: 5016 2 21  re
* 5020 6 21 gar
* 5030 5 21 de
* 5036 2 19 ~
: 5041 3 19  tout
: 5046 15 18  bas
- 5071
: 5080 5 18 Com
: 5087 2 19 me
: 5090 6 21  toi
: 5100 4 23  qui
* 5106 4 23  dort
: 5112 3 23  en
: 5117 3 23  rę
: 5122 2 23 vant
: 5125 5 21 ~
: 5131 2 19 ~
: 5134 3 19  a
* 5140 6 19  quoi
* 5147 25 21 ~
- 5174
: 5176 4 19 Com
: 5183 2 18 me
: 5187 7 18  toi
: 5198 3 16 ~
- 5211
: 5222 4 19 Com
: 5228 2 18 me
: 5234 8 16  toi
: 5246 6 19  com
: 5254 2 18 me
: 5258 7 16  toi
: 5270 8 19  com
: 5280 2 18 me
: 5286 12 16  toi
- 5321
: 5364 6 19 Com
: 5373 1 18 me
: 5376 8 18  toi
: 5385 6 16 ~
- 5401
: 5418 6 19 Com
: 5426 2 18 me
: 5430 7 16  toi
- 5448
: 5452 5 19 com
: 5459 2 18 me
: 5463 5 16  toi
- 5478
: 5495 3 19 Com
: 5501 1 18 me
: 5505 5 16  toi
E