#TITLE:Nos mains
#ARTIST:Jean-Jacques Goldman
#MP3:Jean-Jacques Goldman - Nos mains.mp3
#VIDEO:Jean-Jacques Goldman - Nos mains.avi
#COVER:Jean-Jacques Goldman - Nos mains.jpg
#BPM:312,39
#GAP:30507
#ENCODING:UTF8
#LANGUAGE:French
#GENRE:Pop
#YEAR:1997
: 0 2 5 Sur
: 3 2 8  une
: 6 4 8  ar
: 11 1 5 me
: 15 2 8  les
: 21 6 8  doigts
* 30 4 10  nou
* 35 5 10 és
- 60
: 96 3 5 Pour
: 100 1 8  a
: 102 2 8 gres
: 107 2 5 ser,
: 113 6 8  ser
: 120 4 8 rer
: 125 2 8  les
: 132 4 3  poings
- 155
: 191 2 12 Mais
: 194 1 15  nos
* 198 3 15  pau
* 203 1 12 mes
: 207 4 17  sont
: 216 4 15  pour
: 222 3 15  ai
: 227 5 15 mer
- 242
: 262 1 8 Y'a
* 267 4 15  pas
: 272 1 13  de
: 276 7 13  ca
: 285 6 12 resse
: 294 3 12  en
: 300 4 10  fer
: 305 7 8 mant
: 314 4 10  les
: 323 6 10  mains
- 349
: 383 2 8 Lon
: 386 1 8 gues,
: 389 4 8  join
: 395 1 8 tes
: 397 2 5  en
: 400 4 8  une
: 408 6 10  pri
: 416 7 10 čre
- 443
: 480 2 8 Bien
: 483 2 8  ou
: 486 5 8 vertes
: 497 5 8  pour
: 504 3 8  ac
: 510 3 8 cla
: 515 4 5 mer
- 539
: 576 1 12 Dans
: 578 1 15  un
* 582 4 15  poing
: 588 1 12  les
: 591 7 17  choses
: 600 2 15  ŕ
: 606 3 15  sous
: 612 9 15 traire
- 631
: 645 1 8 On
: 647 3 15  ne
* 655 6 13  peut
: 664 5 13  rien
: 673 7 12  tendre
: 683 3 10  les
: 688 5 8  doigts
: 698 9 10  pli
: 708 4 10 és
- 732
: 774 3 15 Quand
: 779 4 15  on
: 785 4 17  ou
: 791 2 15 vre
: 794 4 15  nos
: 802 6 15  mains
- 828
: 864 1 15 Il
: 866 1 15  suf
: 869 4 15 fit
: 874 4 15  de
: 881 4 17  rien
: 887 2 15  dix
: 892 3 15  fois
: 898 6 15  rien
- 924
: 960 1 15 Suf
: 962 1 15 fit
: 965 4 15  d'une
: 971 3 15  ou
: 977 3 17  deux
: 983 1 15  se
: 986 4 15 condes
: 992 4 15  ŕ
: 1002 2 15  peine
- 1005
: 1007 2 12 Un
: 1010 5 13  geste
: 1019 4 12  un
: 1025 4 13  au
: 1030 3 12 tre
: 1034 4 10  mon
: 1040 2 8 ~de
- 1052
: 1060 4 12 Quand
: 1067 4 10  on
: 1073 3 10  ou
: 1078 5 8 vre
: 1085 3 7  nos
: 1091 5 8  mains
- 1137
: 1200 1 5 Mé
: 1202 2 8 ca
: 1206 2 8 ni
: 1211 1 5 que
: 1214 4 8  simple
: 1224 1 3  et
: 1229 3 10  fa
: 1236 4 10 cile
- 1260
: 1295 1 8 Des
: 1298 2 8  veines
: 1301 2 8  et
: 1307 3 8  dix
: 1313 2 8  mé
: 1319 3 8 ta
: 1325 2 8 car
: 1332 3 5 piens
: 1336 1 3 ~
- 1355
: 1391 1 12 Des
* 1394 2 15  pha
* 1398 4 15 langes
: 1404 1 12  aux
: 1407 4 17  ten
: 1413 5 15 dons
: 1421 2 15  do
: 1428 8 15 ciles
- 1446
: 1461 1 8 Et
: 1465 3 13  tu
: 1469 2 12  re
: 1472 5 13 lâ
: 1484 2 13 ches
- 1490
: 1492 1 8 Ou
: 1498 6 8  bien
: 1511 4 8  tu
: 1516 3 8  re
: 1523 5 10 tiens
- 1548
: 1584 1 11 Et
: 1586 2 11  des
: 1589 3 11  on
: 1595 2 11 gles
: 1601 3 15  faits
: 1607 2 13  pour
: 1613 3 13  grif
: 1619 5 13 fer
- 1644
: 1680 2 11 Poussent
: 1683 2 11  au
: 1687 2 11  bout
: 1690 4 8  du
: 1696 5 11  mau
: 1703 2 11 vais
* 1709 2 11  cô
* 1715 4 6 té
- 1739
: 1775 2 15 Ce
: 1778 1 18 lui
: 1781 3 18  qui
* 1787 1 18  me
* 1789 7 20 nace
: 1800 3 18  ou
: 1805 2 18  dé
: 1811 6 18 si
: 1819 2 18 gne
- 1831
* 1846 2 18 De
* 1849 2 18  l'autre
: 1855 7 16  on
: 1864 4 16  li
: 1872 2 15 vre
: 1877 2 15  nos
: 1882 3 13  vies
: 1889 5 11  dans
: 1898 2 13  des
: 1906 6 13  li
: 1917 2 13 gnes
- 1939
: 1973 3 18 Quand
: 1979 4 18  on
: 1985 4 20  ou
: 1991 2 18 vre
: 1994 3 18  nos
: 2002 8 18  mains
- 2030
: 2063 1 18 Il
: 2065 1 18  suf
: 2069 4 18 fit
: 2074 4 18  de
: 2080 5 20  rien
: 2087 2 18  dix
: 2092 3 18  fois
: 2099 6 18  rien
- 2125
: 2159 1 18 Suf
: 2162 1 18 fit
: 2165 4 18  d'une
: 2170 3 18  ou
: 2177 2 20  deux
: 2183 1 18  se
: 2186 3 18 condes
: 2191 4 18  ŕ
: 2201 2 18  peine
- 2204
: 2206 2 16 Un
: 2210 4 15  geste
: 2218 4 16  un
: 2224 3 15  autre
: 2234 4 13  mon
: 2239 4 11 ~de
- 2253
: 2260 3 15 Quand
: 2267 4 13  on
: 2273 3 13  ou
: 2279 3 11 vre
: 2285 2 10  nos
: 2290 4 11  mains
- 2300
* 2302 5 15 Oh
* 2308 5 13 ~
* 2314 3 11 ~
- 2323
: 2326 2 18 Un
: 2333 3 18  sim
: 2339 2 18 ple
: 2342 4 20  ges
: 2350 2 18 te
: 2354 2 18  d'hu
: 2362 6 18 main
- 2374
: 2376 18 18 Oh
: 2398 3 16 ~
: 2402 3 16 ~
: 2407 1 16 ~
- 2419
: 2423 2 18 Quand
: 2426 1 18  se
: 2429 2 18  des
: 2435 4 18 serrent
* 2441 2 20  ain
* 2447 3 18 si
: 2453 2 18  nos
: 2459 7 18  poings
- 2470
: 2472 17 18 Oh
: 2493 3 16 ~
: 2497 2 15 ~
: 2500 2 15 ~
- 2514
: 2518 2 15 Quand
: 2522 1 18  s'é
: 2525 2 18 car
: 2530 2 18 tent
: 2533 3 20  nos
: 2542 2 18  pha
: 2545 6 18 lan
: 2553 2 18 ges
- 2558
: 2560 3 15 Sans
: 2566 2 16  mé
: 2570 4 16 fiance,
: 2579 2 15  une
: 2584 4 16  ar
: 2591 1 15 me
: 2594 2 13  d'é
: 2600 4 11 change
- 2612
: 2615 1 8 Des
: 2618 1 8  champs
: 2621 2 15  de
: 2627 3 13  ba
: 2633 5 13 taille
: 2640 2 11  en
: 2645 3 10  jar
: 2651 3 11 din
- 2660
: 2663 6 15 Oh
: 2671 3 13 ~
: 2675 2 11 ~
- 2685
: 2688 1 15 Le
: 2691 1 18  cou
: 2694 4 18 rage
: 2702 3 20  du
: 2710 4 18  si
: 2716 2 18 gne
: 2720 1 18  in
: 2724 4 18 dien
- 2733
: 2735 17 18 Oh
: 2755 3 18 ~
: 2759 3 16 ~
: 2763 6 16 ~
- 2780
: 2784 1 18 Un
: 2787 1 18  ca
: 2789 4 18 deau
: 2795 3 18  d'hi
: 2799 6 20 er
: 2808 2 18  ŕ
: 2813 3 18  de
: 2819 5 18 main
- 2830
: 2832 18 18 Oh
: 2856 3 16 ~
: 2860 3 18 ~
: 2864 3 16 ~
- 2876
: 2879 2 18 Rien
: 2882 2 18  qu'un
: 2885 2 18  ins
: 2891 3 18 tant
* 2897 3 20  d'in
: 2903 2 18 no
* 2907 3 18 cence
- 2911
: 2913 4 18 Un
: 2921 5 18  geste
: 2928 4 18  de
: 2933 2 18  re
: 2941 5 20 con
: 2949 1 18 nais
: 2955 4 11 san
: 2961 3 10 ~
: 2967 1 10 ce
- 2973
: 2975 3 8 Quand
: 2980 1 8  on
: 2982 2 15  ou
: 2987 1 13 vre
: 2993 4 13  comme
: 3000 2 11  un
: 3005 1 10  é
: 3011 2 11 crin
- 3020
: 3023 4 11 Oh
: 3029 3 8 ~
: 3034 2 6 ~
- 3044
: 3047 5 11 Oh
: 3054 4 8 ~
: 3059 2 6 ~
- 3068
: 3071 5 11 Oh
: 3077 2 8 ~
- 3085
: 3087 1 11 Quand
: 3089 3 13  on
: 3096 3 15  ou
: 3102 1 13 vre
: 3104 2 11  nos
: 3113 7 11  mains
E