#TITLE:Mourir dans tes yeux
#ARTIST:Jenifer
#MP3:Jenifer - Mourir dans tes yeux.mp3
#VIDEO:Jenifer - Mourir dans tes yeux.mp4
#COVER:Jenifer - Mourir dans tes yeux.jpg
#BPM:163
#GAP:8875
#ENCODING:UTF8
#LANGUAGE:French
#GENRE:Pop
#YEAR:2016
#CREATOR:Cinemalin,Pattwo
: 0 1 -2 Je
: 3 1 7  n'ai
: 5 2 7  pas
: 8 5 7  vu
- 20
: 23 1 7 pas
: 27 1 5 ser
: 29 1 3  les
: 32 5 5  mois
- 45
: 48 1 5 Je
: 50 2 7  suis
: 53 1 7  res
: 56 6 7 tée
- 70
: 73 1 7 les
: 75 1 5  an
: 77 1 3 nées
: 79 6 5  là
- 93
: 96 1 -2 Sommes-
: 98 1 3 nous
: 100 1 3  en
: 103 6 3 core
- 116
: 119 2 5 En
: 122 2 2 core
: 125 2 0  vi
: 128 4 2 vants
- 141
: 144 1 -2 Sommes-
: 146 2 3 nous
: 149 1 3  en
: 153 6 3 core,
: 161 6 5  en
: 170 2 2 core
: 173 2 0  vi
: 176 4 0 vants
- 189
: 192 1 10 Je
: 194 1 19  ne
: 197 1 19  sais
: 199 4 19  pas
- 212
: 215 2 19 pour
: 218 1 17  l'a
: 220 1 15 ve
: 222 7 17 nir
- 236
: 239 1 10 Si
: 241 2 19  j'ai
: 244 1 19  des
: 248 8 19  choses
- 263
: 266 2 17 à
: 269 1 15  te
: 272 8 17  dire
- 286
: 289 2 15 Mais
: 293 1 15  qui
: 296 6 15  sait
- 308
: 310 1 17 Qui
: 314 2 14  sait
: 317 2 12  vrai
: 320 5 14 ment
- 334
: 337 2 15 Bien
: 341 1 15  sou
: 343 5 15 vent
- 356
: 359 1 17 tu
: 361 2 14  me
: 364 1 12  di
: 367 7 12 sais
- 384
: 403 1 17 Je
: 405 1 22  ne
: 407 1 24  veux
* 409 3 26  pas
: 413 1 24  mou
: 415 4 24 rir
: 420 1 22 ~
- 431
: 451 1 17 Je
: 453 1 22  ne
: 455 1 24  veux
: 457 2 26  pas
* 460 2 24  mou
* 463 3 24 rir
* 467 1 22 ~
- 478
: 497 3 22 Dans
: 501 2 24  tes
: 505 25 21  yeux
: 531 2 22 ~
: 534 1 17 ~
- 545
: 552 2 17 Comme
: 555 2 17  je
: 559 5 17  suis
- 570
: 572 1 15 dé
: 574 1 14 so
: 576 4 9 lée
- 590
: 601 2 19 Comme
: 604 1 17  je
: 608 5 17  suis
- 623
: 637 2 26 Je
: 640 2 24  ne
: 644 2 22  veux
: 648 3 26  pas
* 652 1 24  mou
* 654 4 24 rir
* 659 2 22 ~
- 671
: 690 1 17 Je
: 692 1 22  ne
: 694 1 24  veux
* 696 3 26  pas
: 700 1 24  mou
: 702 4 24 rir
: 707 1 22 ~
- 718
: 736 3 22 Dans
: 740 2 24  tes
: 744 23 21  yeux
: 768 4 22 ~
: 773 3 19 ~
- 786
: 790 1 5 Tu
: 792 1 17  es
: 794 2 17  pas
: 798 5 17 sé
: 807 4 15  aux
: 813 2 14  a
: 817 5 9 veux
- 834
: 838 1 5 Tu
: 840 2 17  es
: 843 2 17  pas
: 848 6 17 sé
- 864
: 886 1 -2 Je
: 888 1 7  n'ai
: 890 2 7  pas
: 893 5 7  vu
- 906
: 909 2 7 ve
: 912 1 5 nir
* 914 1 3  l'a
* 916 5 5 mour
- 930
: 933 1 5 Je
: 935 1 7  n'ai
: 937 1 7  pas
: 941 7 7  su
- 954
: 956 1 7 le
: 959 1 5  re
: 961 1 3 te
: 963 7 5 nir
- 978
: 981 1 -2 Mais
: 983 1 3  qu'en
: 985 1 3  est-
: 988 8 3 il
- 1002
: 1005 1 5 des
: 1008 1 2  sen
: 1011 1 0 ti
: 1013 6 2 ments
- 1026
: 1029 1 -2 Com
: 1031 2 3 ment
: 1034 2 3  veux-
: 1038 6 3 tu
: 1047 6 5  que
: 1057 1 2  je
: 1060 1 0  t'ex
: 1063 4 0 plique
- 1075
: 1078 1 10 Je
: 1080 1 19  n'ai
: 1082 2 19  pas
: 1085 6 19  vu
- 1097
: 1100 2 19 que
: 1103 1 17  tu
: 1106 1 15  cou
: 1108 4 17 lais
- 1121
: 1125 1 10 Tu
: 1127 1 19  fai
: 1129 1 19 sais
: 1132 6 19  comme
* 1141 4 22  si
* 1146 1 24 ~
* 1148 1 22 ~
: 1151 2 17  rien
: 1154 1 15  n'é
: 1157 5 17 tait
- 1169
: 1172 1 10 Mais
: 1174 2 15  qu'en
: 1177 1 15  est-
: 1180 5 15 il
- 1193
: 1196 1 17 des
: 1199 1 14  sen
: 1202 1 12 ti
: 1204 4 14 ments
- 1217
: 1220 1 10 Et
: 1223 1 15  bien
: 1226 1 15  sou
: 1228 6 15 vent
- 1241
: 1244 1 17 tu
: 1246 2 14  me
: 1249 1 12  di
: 1251 6 12 sais
- 1267
: 1288 1 17 Je
: 1290 1 22  ne
: 1292 1 24  veux
: 1294 3 26  pas
: 1298 1 24  mou
: 1300 4 24 rir
: 1305 2 22  ~
- 1315
* 1318 3 26 Pas
* 1322 2 24  mou
* 1325 5 24 rir
- 1334
: 1336 1 17 Je
: 1338 1 22  ne
: 1340 1 24  veux
* 1342 2 26  pas
* 1345 2 24  mou
* 1348 5 24 rir
- 1362
: 1366 2 26 Pas
: 1370 1 24  mou
: 1372 4 22 rir
: 1377 2 26  ~
- 1380
: 1382 3 22 Dans
: 1386 2 24  tes
: 1390 25 21  yeux
: 1416 7 22 ~
: 1424 2 19 ~
- 1435
: 1438 2 17 Comme
: 1441 2 17  je
: 1445 4 17  suis
- 1455
: 1457 1 15 dé
: 1459 1 14 so
: 1461 3 9 lée
- 1474
: 1486 2 19 Comme
: 1489 1 17  je
: 1493 5 17  suis
- 1508
: 1522 3 26 Je
: 1526 2 24  ne
: 1530 1 22  veux
: 1534 2 26  pas
: 1537 2 24  mou
: 1540 3 24 rir
: 1544 1 22 ~
- 1554
: 1558 2 26 Pas
: 1561 2 24  mou
: 1564 5 24 rir
- 1573
: 1575 1 17 Je
: 1577 1 22  ne
: 1579 1 24  veux
: 1581 3 26  pas
: 1585 1 24  mou
: 1587 5 24 rir
- 1601
* 1605 3 26 Pas
* 1610 2 24  mou
* 1613 5 22 rir
- 1620
: 1622 2 22 Dans
: 1625 2 24  tes
: 1629 23 21  yeux
: 1653 1 22 ~
: 1655 2 21 ~
: 1658 1 19 ~
: 1660 1 19 ~
- 1672
: 1676 1 5 Tu
: 1678 1 17  es
: 1680 1 17  pas
: 1683 6 17 sé
: 1693 3 15  aux
: 1698 2 14  a
: 1702 5 9 veux
- 1719
: 1723 1 5 Tu
: 1726 2 17  es
: 1729 1 17  pas
: 1733 5 17 sé
- 1759
: 1977 2 26 Je
: 1980 2 24  ne
: 1984 2 22  veux
: 1988 3 26  pas
: 1992 2 24  mou
: 1995 7 22 rir
- 2012
: 2016 2 26 Pas
: 2019 2 24  mou
* 2022 4 22 rir
* 2027 2 26 ~
- 2034
: 2036 3 26 Pas
: 2040 1 24  mou
: 2042 8 22 rir
- 2056
: 2059 2 26 Pas
: 2062 1 24 ~
: 2064 2 24  mou
: 2067 7 22 rir
: 2076 3 22  dans
: 2080 2 24  tes
: 2084 25 21  yeux
: 2110 7 22 ~
: 2118 2 19 ~
- 2129
: 2132 2 17 Comme
: 2135 2 17  je
: 2138 4 17  suis
- 2148
: 2151 1 15 dé
: 2153 1 14 so
: 2155 4 9 lée
- 2169
: 2180 2 19 Comme
: 2183 2 17  je
: 2186 6 17  suis
- 2202
: 2216 2 26 Je
: 2219 3 24  ne
: 2223 2 22  veux
: 2227 2 26  pas
: 2230 1 24 ~
: 2232 2 24  mou
: 2235 6 22 rir
- 2248
: 2251 3 26 Pas
: 2255 1 24  mou
: 2257 4 22 rir
: 2262 2 26 ~
- 2267
: 2269 1 17 Je
: 2271 1 22  ne
: 2273 1 24  veux
: 2275 2 26  pas
: 2278 1 24 ~
: 2280 2 24  mou
: 2283 6 22 rir
- 2296
: 2299 2 26 Pas
: 2302 1 24 ~
: 2305 2 24  mou
: 2308 6 22 rir
: 2315 2 22  dans
: 2319 1 24  tes
: 2323 25 21  yeux
: 2349 7 22 ~
: 2357 2 19 ~
- 2367
: 2370 1 5 Tu
: 2372 1 17  es
: 2374 1 17  pas
: 2377 5 17 sé
: 2386 4 15  aux
: 2392 2 14  a
: 2395 6 9 veux
- 2413
: 2417 1 5 Tu
: 2420 1 17  es
: 2423 1 17  pas
: 2427 6 17 sé
E