#TITLE:Ain't Your Mama
#ARTIST:Jennifer Lopez
#MP3:Jennifer Lopez - Aint Your Mama.mp3
#VIDEO:Jennifer Lopez - Ain't Your Mama.mp4
#COVER:1280_Jennifer_Lopez_AintYourMamaCoverArt.jpg
#BPM:240
#GAP:85407
#ENCODING:UTF8
#LANGUAGE:English
#GENRE:Pop
#YEAR:2016
#AUTHOR:simoncsn, Volodia & amro98
: 0 1 3 I
: 2 1 3  ain't
: 4 1 3  gon'
: 6 1 3  be
: 8 1 1  cook
: 12 2 -1 ing
: 17 1 -1  all
: 19 4 1 ~
: 25 1 -1  day
: 27 8 1 ~,
- 35
: 36 1 -1 I
: 38 1 1 ~
: 40 2 1  ain't
: 44 1 -1  your
: 46 1 1 ~
: 48 1 -6  ma
: 50 1 -6 ma
- 60
: 63 1 3 I
: 65 1 3  ain't
: 67 3 3  gon'
: 71 3 1  do
: 76 3 -1  your
: 80 1 -1  laun
: 82 4 1 ~
: 88 1 -1 dry
: 90 8 1 ~,
- 98
: 100 1 -1 I
: 102 1 1 ~
: 104 2 1  ain't
: 108 1 -1  your
: 110 1 1 ~
: 112 1 -6  ma
: 114 1 -6 ma
- 125
: 134 1 1 I
: 136 1 1  ain't
: 140 1 -1  your
: 142 1 1 ~
: 144 1 -6  mama
: 146 1 -6 ~,
- 153
: 156 1 -1 Boy
: 158 6 1 ~,
- 164
: 165 1 1 I
: 167 1 -1  ain't
: 169 1 1 ~
: 172 1 -1  your
: 174 1 1 ~
: 176 1 -6  mama
: 178 1 -6 ~
- 188
: 191 1 1 When
: 193 1 3  you're
: 195 3 3  gon'
: 199 2 6  get
: 204 3 3  your
: 208 1 1  act
: 211 1 -1  together
: 214 1 -1 ~
: 216 2 1 ~
: 220 1 -1 ~
: 222 4 1 ~?
- 226
: 228 1 -1 I
: 230 1 1 ~
: 232 2 1  ain't
: 236 1 -1  your
: 238 1 1 ~
: 240 1 -6  mama
: 242 1 -6 ~
- 252
: 256 4 -4 No
: 262 1 10 ~
: 264 2 11 ~
: 267 3 10 ~
: 271 4 8 ~
: 276 1 10 ~
: 278 1 8 ~
: 280 16 6 ~,
- 299
: 301 1 1 I
: 303 2 1  ain't
: 307 1 1  your
: 309 1 3 ~
: 311 2 -1  mama
: 316 1 -2 ~
- 318
* 320 4 -4 No
* 326 1 10 ~
* 328 2 11 ~
* 331 3 10 ~
* 335 4 8 ~
* 340 1 10 ~
* 342 1 8 ~
* 344 16 6 ~,
- 363
: 365 1 1 I
: 367 2 1  ain't
: 371 1 1  your
: 373 1 3 ~
: 375 2 -1  mama
: 380 1 -2 ~,
: 384 5 -4  no
- 389
: 390 1 3 Wake
: 394 1 3  up,
: 400 1 3  rise
: 402 1 1 ~
: 404 1 1  and
: 408 15 1  shine
- 426
: 428 1 -1 Ay
: 430 1 1 ~
: 432 3 -1 ~
: 436 3 -2 ~
: 440 3 -4 ~
- 450
: 453 1 3 Let's
: 458 1 3  get
: 461 1 3  to
: 463 2 6  work
: 467 1 3  on
: 469 1 1 ~
: 472 15 1  time
- 490
: 492 1 -1 Ay
: 494 1 1 ~
: 496 3 -1 ~
: 500 3 -2 ~
: 504 3 -4 ~
- 510
: 512 1 6 No
: 514 1 8 ~
: 518 2 8  more
: 522 2 8  playing
: 525 1 8 ~
: 528 1 8  video
: 530 1 3 ~
: 532 1 3 ~
: 535 15 6  games
- 554
: 556 3 1 Ay
: 560 3 1 ~
: 564 3 1 ~
: 568 1 1 ~
: 570 1 3 ~
- 579
: 582 1 1 Things
: 584 1 3 ~
: 586 3 3  are
: 590 1 3  about
: 592 1 3 ~
: 595 1 1  to
: 600 14 1  change,
- 617
: 619 1 -1 'round
: 621 1 1 ~
: 624 3 -1  here,
: 628 3 -2  'round
: 632 3 -4  here
- 638
: 640 1 6 We
: 642 3 8 ~
: 646 3 10  used
: 652 1 11  to
: 656 10 4  be
- 670
: 672 1 1 Crazy
: 674 3 3 ~
: 678 5 4 ~
: 684 2 6  in
: 688 10 1  love
- 702
: 704 1 6 Can
: 706 2 8 ~
: 710 5 10  we
: 716 1 11  go
: 720 10 4  back
- 734
: 736 1 1 To
: 738 3 3 ~
: 742 5 4  how
: 748 2 6  it
: 752 3 6  was
: 756 2 3 ~?
- 764
: 767 1 6 When
: 769 2 8 ~
: 773 5 10  did
: 779 2 11  you
: 784 10 4  get
- 798
: 800 1 1 Too
: 802 2 3 ~
: 806 3 4  comfortable
: 811 2 6 ~
: 816 8 1 ~?
- 827
: 829 1 3 Cause
: 831 1 6  I'm
: 833 1 8 ~
: 835 2 8  too
: 838 2 8  good
: 841 1 8  for
: 843 1 8  that,
- 846
: 848 1 6 I'm
: 851 2 8  too
: 854 2 8  good
: 857 1 8  for
: 859 1 8  that
- 862
: 864 1 6 Just
: 867 1 8  remember
: 869 2 8 ~
: 873 1 8 ~
: 875 1 8  that,
- 885
: 888 4 8 Hey
- 893
: 895 1 3 I
: 897 1 3  ain't
: 899 1 3  gon'
: 901 1 3  be
: 903 1 1  cooking
: 907 2 -1 ~
: 912 1 -1  all
* 914 4 1 ~
: 920 1 -1  day
: 922 9 1 ~,
- 931
: 932 1 -1 I
: 934 1 1 ~
: 936 2 1  ain't
: 940 1 -1  your
: 942 1 1 ~
: 944 1 -6  mama
: 946 1 -6 ~
- 956
: 959 1 3 I
: 961 1 3  ain't
: 963 3 3  gon'
: 967 3 1  do
: 972 3 -1  your
: 976 1 -1  laundry
: 978 4 1 ~
: 984 1 -1 ~
: 986 8 1 ~,
- 994
: 996 1 -1 I
: 998 1 1 ~
: 1000 2 1  ain't
: 1004 1 -1  your
: 1006 1 1 ~
: 1008 1 -6  mama
: 1010 1 -6 ~
- 1021
: 1030 1 1 I
: 1032 1 1  ain't
: 1036 1 -1  your
: 1038 1 1 ~
: 1040 1 -6  mama
: 1042 1 -6 ~,
- 1049
* 1052 1 -1 Boy
* 1054 6 1 ~,
- 1060
: 1061 1 1 I
: 1063 1 -1  ain't
: 1065 1 1 ~
: 1068 1 -1  your
: 1070 1 1 ~
: 1072 1 -6  mama
: 1074 1 -6 ~
- 1084
: 1087 1 1 When
: 1089 1 3  you're
: 1091 3 3  gon'
: 1095 2 6  get
: 1100 3 3  your
: 1104 1 1  act
: 1107 1 -1  together
: 1110 1 -1 ~
: 1112 2 1 ~
: 1116 1 -1 ~
: 1118 4 1 ~?
- 1122
: 1124 1 -1 I
: 1126 1 1 ~
: 1128 2 1  ain't
: 1132 1 -1  your
: 1134 1 1 ~
: 1136 1 -6  mama
: 1138 1 -6 ~
- 1148
: 1152 4 -4 No
: 1158 1 10 ~
: 1160 2 11 ~
: 1163 3 10 ~
: 1167 4 8 ~
: 1172 1 10 ~
: 1174 1 8 ~
: 1176 16 6 ~,
- 1195
: 1197 1 1 I
: 1199 2 1  ain't
: 1203 1 1  your
: 1205 1 3 ~
: 1207 2 -1  mama
: 1212 1 -2 ~
- 1214
: 1216 4 -4 No
: 1222 1 10 ~
: 1224 2 11 ~
: 1227 3 10 ~
: 1231 4 8 ~
* 1236 1 10 ~
* 1238 1 8 ~
: 1240 16 6 ~,
- 1259
: 1261 1 1 I
: 1263 2 1  ain't
: 1267 1 1  your
: 1269 1 3 ~
: 1271 2 -1  mama
: 1276 1 -2 ~,
: 1280 2 -4  no
- 1284
: 1286 1 3 Lucky
: 1290 3 3 ~
: 1294 1 3  to
: 1296 1 3  have
: 1298 1 1 ~
: 1300 1 1  these
: 1304 13 1  curves
- 1321
: 1323 1 -1 Ay
: 1325 1 1 ~
: 1327 3 -1 ~
* 1331 3 -2 ~
: 1335 3 -4 ~
- 1346
: 1349 1 3 Stop
: 1354 3 3  getting
: 1358 1 3 ~
: 1360 1 6  on
: 1363 1 1  my
: 1367 13 1  nerves
- 1386
* 1388 1 3 Ay
* 1390 1 6 ~
* 1392 3 6 ~
* 1396 3 6 ~
* 1400 1 6 ~
* 1402 1 8 ~
- 1406
: 1408 1 6 You
: 1410 1 8 ~
: 1414 2 8  still
: 1418 2 8  tryna
: 1421 1 8 ~
: 1424 2 3  ride
: 1427 1 3  this
: 1432 13 6  train?
- 1450
: 1452 3 1 Ay
: 1456 3 1 ~
: 1460 3 1 ~
: 1464 1 1 ~
: 1466 1 3 ~
- 1474
: 1477 1 1 Some
: 1479 1 3 ~
: 1482 1 3  things
: 1485 1 3  have
* 1487 2 3  got
: 1490 1 1 ~
: 1492 1 1  to
: 1496 11 1  change,
- 1513
: 1515 1 4 'round
: 1517 1 6 ~
: 1520 3 6  here,
: 1524 3 6  here
: 1528 1 6  here
: 1530 1 8 ~
- 1534
: 1536 1 6 We
: 1538 3 8 ~
: 1542 3 10  used
: 1548 1 11  to
: 1552 10 4  be
- 1566
: 1568 1 1 Crazy
: 1570 3 3 ~
: 1574 5 4 ~
: 1580 2 6  in
* 1584 10 1  love
- 1598
: 1600 1 6 Can
: 1602 2 8 ~
: 1606 5 10  we
: 1612 1 11  go
: 1616 10 4  back
- 1630
: 1632 1 1 To
: 1634 3 3 ~
: 1638 5 4  how
: 1644 2 6  it
: 1648 3 6  was
: 1652 2 3 ~?
- 1660
: 1663 1 6 When
: 1665 2 8 ~
: 1669 5 10  did
: 1675 2 11  you
: 1680 10 4  get
- 1694
: 1696 1 1 Too
: 1698 2 3 ~
* 1702 3 4  comfortable
: 1707 2 6 ~
: 1712 8 1 ~?
- 1723
: 1725 1 3 Cause
: 1727 1 6  I'm
: 1729 1 8 ~
: 1731 2 8  too
: 1734 2 8  good
: 1737 1 8  for
: 1739 1 8  that,
- 1742
: 1744 1 6 I'm
: 1747 2 8  too
: 1750 2 8  good
: 1753 1 8  for
: 1755 1 8  that
- 1758
: 1760 1 6 Just
: 1763 1 8  remember
: 1765 2 8 ~
: 1769 1 8 ~
: 1771 1 8  that,
- 1781
: 1784 4 8 Hey
- 1789
: 1791 1 3 I
: 1793 1 3  ain't
: 1795 1 3  gon'
: 1797 1 3  be
: 1799 1 1  cooking
* 1803 2 -1 ~
: 1808 1 -1  all
: 1810 4 1 ~
: 1816 1 -1  day
: 1818 9 1 ~,
- 1827
: 1828 1 -1 I
: 1830 1 1 ~
: 1832 2 1  ain't
: 1836 1 -1  your
: 1838 1 1 ~
: 1840 1 -6  mama
: 1842 1 -6 ~
- 1852
: 1855 1 3 I
: 1857 1 3  ain't
: 1859 3 3  gon'
: 1863 3 1  do
: 1868 3 -1  your
: 1872 1 -1  laundry
: 1874 4 1 ~
: 1880 1 -1 ~
: 1882 8 1 ~,
- 1890
: 1892 1 -1 I
: 1894 1 1 ~
: 1896 2 1  ain't
: 1900 1 -1  your
: 1902 1 1 ~
: 1904 1 -6  mama
: 1906 1 -6 ~
- 1917
: 1926 1 1 I
: 1928 1 1  ain't
: 1932 1 -1  your
: 1934 1 1 ~
: 1936 1 -6  mama
: 1938 1 -6 ~,
- 1945
: 1948 1 -1 Boy
: 1950 6 1 ~,
- 1956
: 1957 1 1 I
: 1959 1 -1  ain't
: 1961 1 1 ~
: 1964 1 -1  your
: 1966 1 1 ~
: 1968 1 -6  mama
: 1970 1 -6 ~
- 1980
: 1983 1 1 When
: 1985 1 3  you're
: 1987 3 3  gon'
: 1991 2 6  get
* 1996 3 3  your
: 2000 1 1  act
: 2003 1 -1  together
: 2006 1 -1 ~
: 2008 2 1 ~
: 2012 1 -1 ~
: 2014 4 1 ~?
- 2018
: 2020 1 -1 I
: 2022 1 1 ~
: 2024 2 1  ain't
: 2028 1 -1  your
: 2030 1 1 ~
: 2032 1 -6  mama
: 2034 1 -6 ~
- 2044
: 2048 4 -4 No
: 2054 1 10 ~
: 2056 2 11 ~
: 2059 3 10 ~
: 2063 4 8 ~
: 2068 1 10 ~
: 2070 1 8 ~
: 2072 16 6 ~,
- 2091
: 2093 1 1 I
: 2095 2 1  ain't
: 2099 1 1  your
: 2101 1 3 ~
* 2103 2 -1  mama
: 2108 1 -2 ~
- 2110
: 2112 4 -4 No
: 2118 1 10 ~
: 2120 2 11 ~
: 2123 3 10 ~
: 2127 4 8 ~
: 2132 1 10 ~
: 2134 1 8 ~
: 2136 16 6 ~,
- 2155
: 2157 1 1 I
: 2159 2 1  ain't
: 2163 1 1  your
: 2165 1 3 ~
: 2167 2 -1  mama
: 2172 1 -2 ~,
: 2176 2 -4  no
- 2194
: 2223 1 6 I
: 2225 1 6  ain't
: 2229 1 6  your
: 2231 1 8 ~
: 2233 1 3  mama
: 2237 1 1 ~,
* 2241 2 3  no
* 2244 2 1 ~
* 2248 6 -1 ~
- 2286
: 2429 1 6 We
: 2431 3 8 ~
: 2435 3 10  used
: 2441 1 11  to
: 2446 12 4  be
- 2460
: 2462 1 1 Crazy
: 2464 3 3 ~
: 2469 4 4 ~
: 2474 1 6  in
: 2478 6 1  love
- 2491
: 2494 1 6 Can
: 2496 3 8 ~
* 2500 4 10  we
: 2506 1 11  go
: 2510 10 4  back
- 2523
: 2525 1 1 To
: 2527 3 3 ~
: 2532 3 3  how
: 2537 1 1  it
: 2542 1 3  was
: 2544 7 1 ~?
- 2555
: 2557 1 6 When
: 2559 3 8 ~
: 2563 5 10  did
: 2570 1 11  you
: 2574 10 4  get
- 2587
: 2589 1 1 Too
: 2591 3 3 ~
: 2595 4 4  comfortable
: 2601 1 6 ~
* 2604 4 6 ~
* 2609 1 8 ~
* 2611 6 6 ~?
- 2617
: 2619 1 3 Cause
: 2621 1 6  I'm
: 2623 1 8 ~
: 2625 2 8  too
: 2628 2 8  good
: 2631 1 8  for
: 2633 1 8  that,
- 2636
: 2638 1 6 I'm
: 2641 2 8  too
: 2644 2 8  good
: 2647 1 8  for
: 2649 1 8  that
- 2652
: 2654 1 6 Just
: 2657 1 8  remember
: 2659 2 8 ~
: 2663 1 8 ~
: 2665 1 8  that,
- 2675
: 2678 4 8 Hey
- 2683
: 2685 1 3 I
: 2687 1 3  ain't
: 2689 1 3  gon'
: 2691 1 3  be
: 2693 1 1  cooking
: 2697 2 -1 ~
: 2702 1 -1  all
: 2704 4 1 ~
: 2710 1 -1  day
: 2712 9 1 ~,
- 2721
: 2722 1 -1 I
: 2724 1 1 ~
: 2726 2 1  ain't
: 2730 1 -1  your
: 2732 1 1 ~
: 2734 1 -6  mama
: 2736 1 -6 ~
- 2746
: 2749 1 3 I
: 2751 1 3  ain't
: 2753 3 3  gon'
: 2757 3 1  do
: 2762 3 -1  your
: 2766 1 -1  laundry
: 2768 4 1 ~
: 2774 1 -1 ~
: 2776 8 1 ~,
- 2784
: 2786 1 -1 I
: 2788 1 1 ~
: 2790 2 1  ain't
: 2794 1 -1  your
: 2796 1 1 ~
: 2798 1 -6  mama
: 2800 1 -6 ~
- 2811
: 2820 1 1 I
: 2822 1 1  ain't
: 2826 1 -1  your
: 2828 1 1 ~
: 2830 1 -6  mama
: 2832 1 -6 ~,
- 2839
: 2842 1 -1 Boy
: 2844 6 1 ~
- 2850
: 2851 1 1 I
: 2853 1 -1  ain't
: 2855 1 1 ~
: 2858 1 -1  your
: 2860 1 1 ~
: 2862 1 -6  mama
: 2864 1 -6 ~,
- 2874
: 2877 1 1 When
: 2879 1 3  you're
: 2881 3 3  gon'
: 2885 2 6  get
: 2890 3 3  your
* 2894 1 1  act
: 2897 1 -1  together
: 2900 1 -1 ~
: 2902 2 1 ~
: 2906 1 -1 ~
: 2908 4 1 ~?
- 2922
: 2940 1 3 I
: 2942 1 3  ain't
: 2944 1 3  gon'
: 2946 1 3  be
: 2948 1 1  cooking
: 2952 2 -1 ~
: 2957 1 -1  all
: 2959 4 1 ~
: 2965 1 -1  day
: 2967 9 1 ~,
- 2976
: 2977 1 -1 I
: 2979 1 1 ~
: 2981 2 1  ain't
: 2985 1 -1  your
: 2987 1 1 ~
: 2989 1 -6  mama
: 2991 1 -6 ~
- 3001
: 3004 1 3 I
: 3006 1 3  ain't
: 3008 3 3  gon'
: 3012 3 1  do
: 3017 3 -1  your
: 3021 1 -1  laundry
: 3023 4 1 ~
: 3029 1 -1 ~
: 3031 8 1 ~,
- 3039
: 3041 1 -1 I
: 3043 1 1 ~
: 3045 2 1  ain't
: 3049 1 -1  your
: 3051 1 1 ~
: 3053 1 -6  mama
: 3055 1 -6 ~
- 3066
: 3075 1 1 I
: 3077 1 1  ain't
: 3081 1 -1  your
: 3083 1 1 ~
: 3085 1 -6  mama
: 3087 1 -6 ~
- 3094
: 3097 1 -1 Boy
: 3099 6 1 ~,
- 3105
: 3106 1 1 I
: 3108 1 -1  ain't
: 3110 1 1 ~
: 3113 1 -1  your
: 3115 1 1 ~
: 3117 1 -6  mama
: 3119 1 -6 ~,
- 3129
: 3132 1 1 When
: 3134 1 3  you're
: 3136 3 3  gon'
: 3140 2 6  get
: 3145 3 3  your
: 3149 1 1  act
: 3152 1 -1  together
: 3155 1 -1 ~
: 3157 2 1 ~
: 3161 1 -1 ~
: 3163 4 1 ~?
- 3177
: 3181 3 13 Ain't
: 3186 2 13  your
: 3189 2 11  ma
: 3192 2 10 ma
: 3197 2 11  no
: 3200 3 10 ~
: 3204 4 8 ~
: 3209 1 6 ~,
- 3226
: 3245 1 13 Ain't
* 3249 1 13  your
: 3253 1 11  mama
: 3255 2 10 ~
: 3260 1 10  no
: 3262 4 8 ~,
- 3282
: 3309 2 11 Ain't
: 3314 2 13  your
: 3318 1 11  mama
: 3321 2 10 ~
: 3325 1 10  no
: 3327 5 8 ~,
- 3348
: 3371 1 1 I
: 3373 2 3  ain't
: 3377 1 1  your
: 3379 1 3 ~
: 3381 2 -1  mama
: 3385 2 -2 ~,
- 3387
: 3389 4 -4 No
: 3395 1 10 ~
: 3397 2 11 ~
: 3400 3 10 ~
: 3404 4 8 ~
: 3409 1 10 ~
: 3411 1 8 ~
: 3413 16 6 ~
- 3435
: 3437 2 10 Ain't
* 3441 2 10  your
: 3445 2 6  ma
: 3449 2 6 ma
: 3453 4 8  no
E