#TITLE:Hold My Hand
#ARTIST:Jess Glynne
#MP3:Jess Glynne - Hold My Hand.mp3
#VIDEO:Jess Glynne - Hold My Hand.mp4
#COVER:Jess Glynne - Hold My Hand [CO].png
#BPM:245.95
#GAP:10100
#ENCODING:UTF8
#LANGUAGE:English
#GENRE:Pop
#YEAR:1999
#CREATOR:gun88
#START:5
#END:231000
: 0 3 0 Stand
: 4 1 0 ing
: 6 6 0  in
: 13 3 0  a
: 17 3 4  crowd
: 21 1 4 ed
: 23 2 4  room
- 26
: 28 1 5 And
: 30 5 7  I
: 36 4 7  can't
: 41 3 7  see
: 45 3 12  your
: 49 4 12  face
- 85
: 128 3 0 Put
: 132 1 0  your
: 134 5 0  arms
: 140 3 0  a
: 144 3 4 round
: 148 1 4  me
- 149
: 150 5 4 Tell
: 156 3 4  me
: 160 3 7  eve
: 164 1 7 ry
: 166 5 7 thing's
* 172 3 12  O
: 176 6 12 K
- 214
: 256 3 0 In
: 260 1 0  my
: 262 5 0  mind
: 268 3 0  I'm
: 272 3 4  runn
* 276 1 4 ing
: 278 3 4  round
- 282
: 284 1 4 A
: 286 5 7  cold
: 292 1 7  and
: 294 5 7  emp
: 300 3 12 ty
: 304 9 12  space
- 345
: 380 3 0 Just
: 384 3 0  put
: 388 1 0  your
: 390 5 0  arms
: 396 3 0  a
: 400 3 4 round
: 404 1 4  me
- 405
: 406 5 4 Tell
: 412 3 4  me
: 416 3 7  eve
: 420 1 7 ry
: 422 5 7 thing's
* 428 3 11  O
: 432 8 12 K
- 472
: 512 7 3 Break
: 520 7 2  my
: 528 5 0  bones
- 534
: 536 7 2 But
: 544 7 3  you
: 552 7 2  won't
: 560 7 0  see
: 568 5 2  me
* 574 5 4  fall
: 580 3 2 ~
: 584 4 0 ~
- 597
: 600 5 7 Oh
: 606 1 2 ~
: 608 1 4 ~
: 610 5 2 ~
: 616 7 0 ~
- 632
: 636 3 0 The
: 640 7 3  ris
: 648 7 2 ing
* 656 5 0  tide
- 662
: 664 7 0 Will
: 672 7 3  rise
: 680 7 2  a
: 688 7 0 gainst
: 696 5 2  them
: 702 5 4  all
: 708 3 2 ~
: 712 4 0 ~
- 725
: 728 5 7 Oh
: 734 1 2 ~
: 736 1 4 ~
: 738 6 2 ~
- 750
: 752 3 7 Dar
: 756 3 9 ling
: 760 3 12  hold
: 764 3 14  my
: 768 3 14  hand
: 772 3 16 ~
* 776 2 14 ~
- 794
: 812 3 7 Oh
: 816 3 7  won't
: 820 3 9  you
: 824 3 12  hold
: 828 3 14  my
: 832 3 14  hand
: 836 3 16 ~
* 840 2 14 ~?
- 858
: 876 3 7 Cause
: 880 3 7  I
: 884 3 9  don't
: 888 3 12  wan
: 892 3 14 na
: 896 3 14  walk
* 900 1 16 ~
- 902
: 904 3 14 On
: 908 3 12  my
: 912 7 12  own
: 920 3 9  an
: 924 3 7 y
: 928 3 14 more
* 932 1 16 ~
- 934
: 936 3 12 Won't
: 940 3 12  you
: 944 7 12  un
: 952 3 9 der
: 956 3 16 stand
: 960 5 16 ~
: 966 2 14 ~?
- 978
: 988 3 7 Cause
* 992 3 7  I
: 996 3 9  don't
: 1000 3 12  wan
: 1004 3 14 na
* 1008 3 16  walk
: 1012 3 12  a
: 1016 6 12 lone
- 1026
: 1028 3 12 I'm
: 1032 1 12  read
: 1034 1 12 y
: 1036 1 12  for
: 1038 4 12  this
- 1049
: 1052 3 12 There's
: 1056 7 9  no
: 1064 7 12  de
: 1072 7 14 ny
: 1080 1 12 ing
: 1082 6 9 ~
- 1090
: 1092 3 12 I'm
: 1096 1 12  read
: 1098 1 12 y
: 1100 1 12  for
: 1102 4 12  this
- 1113
: 1116 3 12 You
: 1120 7 9  stop
: 1128 7 12  me
: 1136 7 14  fall
* 1144 3 16 ing
: 1148 4 16 ~
- 1154
: 1156 3 12 I'm
* 1160 1 12  read
: 1162 1 12 y
: 1164 1 12  for
: 1166 4 12  this
- 1177
: 1180 3 12 I
: 1184 7 9  need
: 1192 7 12  you
: 1200 7 14  all
: 1208 1 12  in
: 1210 6 9 ~
- 1218
: 1220 3 12 I'm
: 1224 1 12  read
: 1226 1 12 y
: 1228 1 12  for
: 1230 4 12  this
- 1241
: 1244 3 7 So
: 1248 3 7  dar
: 1252 3 9 ling
: 1256 3 12  hold
: 1260 3 14  my
: 1264 3 14  hand
: 1268 3 16 ~
* 1272 2 14 ~
- 1278
: 1280 3 0 Soul
: 1284 1 0  is
: 1286 5 0  like
: 1292 3 0  a
: 1296 3 4  melt
: 1300 1 4 ing
: 1302 3 4  pot
- 1306
: 1308 1 4 When
: 1310 5 7  you're
: 1316 3 7  not
: 1320 3 7  next
* 1324 3 12  to
: 1328 6 12  me
- 1366
: 1408 3 0 Tell
: 1412 1 0  me
: 1414 5 0  that
: 1420 3 0  you've
: 1424 3 4  got
: 1428 1 4  me
- 1429
: 1430 5 4 And
: 1436 3 4  you're
: 1440 3 7  nev
: 1444 1 7 er
: 1446 5 7  gon
* 1452 3 12 na
: 1456 6 12  leave
- 1494
: 1536 3 0 Try
: 1540 1 0 na
: 1542 5 0  find
: 1548 3 0  a
: 1552 3 4  mo
: 1556 1 4 ment
- 1557
: 1558 5 4 Where
: 1564 3 4  I
: 1568 3 7 ~
: 1572 3 7  can
: 1576 3 7  find
: 1580 3 12  re
: 1584 6 12 lease
- 1622
: 1656 7 0 Please
: 1664 3 0  tell
: 1668 1 0  me
: 1670 5 0  that
: 1676 3 0  you've
* 1680 3 4  got
: 1684 1 4  me
- 1685
: 1686 5 4 And
: 1692 3 4  you're
: 1696 3 7  nev
: 1700 1 7 er
: 1702 5 7  gon
* 1708 3 12 na
: 1712 6 12  leave
- 1750
: 1792 7 3 Break
: 1800 7 2  my
: 1808 5 0  bones
- 1814
: 1816 7 2 But
: 1824 7 3  you
: 1832 7 2  won't
: 1840 7 0  see
: 1848 5 2  me
: 1854 5 4  fall
: 1860 3 2 ~
: 1864 4 0 ~
- 1877
: 1880 5 7 Oh
: 1886 1 2 ~
: 1888 1 4 ~
: 1890 5 2 ~
: 1896 7 0 ~
- 1912
: 1916 3 0 The
: 1920 7 3  ris
* 1928 7 2 ing
* 1936 5 0  tide
- 1942
: 1944 7 0 Will
: 1952 7 3  rise
: 1960 7 2  a
: 1968 7 0 gainst
: 1976 5 2  them
: 1982 5 4  all
: 1988 3 2 ~
: 1992 4 0 ~
- 2005
: 2008 5 7 Oh
: 2014 1 2 ~
: 2016 1 4 ~
: 2018 6 2 ~
- 2030
: 2032 3 7 Dar
: 2036 3 9 ling
: 2040 3 12  hold
: 2044 3 14  my
: 2048 3 14  hand
: 2052 3 16 ~
: 2056 2 14 ~
- 2074
: 2092 3 7 Oh
: 2096 3 7  won't
: 2100 3 9  you
: 2104 3 12  hold
: 2108 3 14  my
: 2112 3 14  hand
: 2116 3 16 ~
* 2120 2 14 ~?
- 2138
: 2156 3 7 Cause
: 2160 3 7  I
: 2164 3 9  don't
: 2168 3 12  wan
: 2172 3 14 na
: 2176 3 14  walk
* 2180 1 16 ~
- 2182
: 2184 3 14 On
: 2188 3 12  my
: 2192 7 12  own
: 2200 3 9  an
: 2204 3 7 y
: 2208 3 14 more
* 2212 1 16 ~
- 2214
: 2216 3 12 Won't
: 2220 3 12  you
: 2224 7 12  un
: 2232 3 9 der
: 2236 3 16 stand
: 2240 5 16 ~
: 2246 2 14 ~?
- 2258
: 2268 3 7 Cause
: 2272 3 7  I
: 2276 3 9  don't
: 2280 3 12  wan
: 2284 3 14 na
* 2288 3 16  walk
: 2292 3 12  a
: 2296 6 12 lone
- 2306
: 2308 3 12 I'm
: 2312 1 12  read
* 2314 1 12 y
* 2316 1 12  for
: 2318 4 12  this
- 2329
: 2332 3 12 There's
: 2336 7 9  no
: 2344 7 12  de
: 2352 7 14 ny
* 2360 1 12 ing
: 2362 6 9 ~
- 2370
: 2372 3 12 I'm
: 2376 1 12  read
: 2378 1 12 y
: 2380 1 12  for
: 2382 4 12  this
- 2393
: 2396 3 12 You
: 2400 7 9  stop
: 2408 7 12  me
: 2416 7 14  fall
* 2424 3 16 ing
: 2428 4 16 ~
- 2434
: 2436 3 12 I'm
: 2440 1 12  read
* 2442 1 12 y
* 2444 1 12  for
: 2446 4 12  this
- 2457
: 2460 3 12 I
: 2464 7 9  need
: 2472 7 12  you
: 2480 7 14  all
: 2488 1 12  in
: 2490 6 9 ~
- 2498
: 2500 3 12 I'm
* 2504 1 12  read
: 2506 1 12 y
: 2508 1 12  for
: 2510 4 12  this
- 2521
: 2524 3 7 So
: 2528 3 7  dar
: 2532 3 9 ling
: 2536 3 12  hold
: 2540 3 14  my
: 2544 3 14  hand
: 2548 3 16 ~
* 2552 1 14 ~
- 2554
: 2556 3 0 Don't
: 2560 11 4  wan
: 2572 3 2 na
: 2576 8 0  know
- 2594
: 2604 3 -5 That
: 2608 3 -5  feel
: 2612 3 -3 ing
: 2616 3 0  when
: 2620 3 2  I'm
: 2624 11 4  all
: 2636 3 2  a
: 2640 8 0 lone
- 2658
: 2668 3 -5 So
: 2672 3 -5  please
: 2676 3 -3  don't
: 2680 3 0  make
: 2684 3 2  me
: 2688 3 2  wait
: 2692 4 4 ~
- 2698
: 2700 3 -5 Cause
* 2704 3 -5  I
: 2708 3 -3  don't
: 2712 3 0  wan
* 2716 3 2 na
: 2720 3 2  break
: 2724 4 4 ~
- 2730
: 2732 3 -5 And
: 2736 3 -5  I
: 2740 3 -3  don't
: 2744 3 0  wan
: 2748 3 2 na
: 2752 3 7  fall
: 2756 3 4 ~
: 2760 8 2 ~
- 2784
: 2808 3 0 When
: 2812 3 2  you're
: 2816 3 2  next
: 2820 7 4 ~
: 2828 3 2  to
: 2832 12 0  me
- 2856
: 2860 3 -5 Can
: 2864 3 -5  tell
: 2868 3 -3  I'm
: 2872 3 0  not
: 2876 3 2  a
: 2880 11 4 fraid
: 2892 3 2  to
: 2896 8 0  be
- 2914
: 2924 3 -5 That
: 2928 3 -5  you
: 2932 3 -3  don't
: 2936 3 0  make
* 2940 3 2  me
: 2944 6 4  wait
- 2954
: 2956 3 4 And
: 2960 3 7  nev
: 2964 3 7 er
: 2968 3 7  let
* 2972 3 4  me
: 2976 6 7  break
- 2986
: 2988 3 7 You
: 2992 3 7  nev
: 2996 3 9 er
: 3000 3 12  let
: 3004 3 14  me
: 3008 20 14  fall
: 3032 3 12 ~
: 3036 3 16 ~
: 3040 3 16 ~
* 3044 1 14 ~
: 3046 7 12 ~
- 3054
: 3056 3 7 Dar
: 3060 3 9 ling
: 3064 3 12  hold
: 3068 3 14  my
: 3072 3 14  hand
: 3076 3 16 ~
: 3080 2 14 ~
- 3098
: 3116 3 19 Oh
: 3120 3 19  won't
: 3124 3 19  you
* 3128 3 21  hold
: 3132 3 19  my
: 3136 3 19  hand
: 3140 6 16 ~?
- 3162
: 3180 3 7 Cause
: 3184 3 7  I
: 3188 3 9  don't
: 3192 3 12  wan
: 3196 3 14 na
: 3200 3 14  walk
* 3204 1 16 ~
- 3206
: 3208 3 19 On
: 3212 3 16  my
: 3216 7 12  own
: 3224 3 9  an
* 3228 3 7 y
: 3232 3 14 more
* 3236 1 16 ~
- 3238
: 3240 3 19 Won't
: 3244 3 16  you
: 3248 7 12  un
: 3256 3 9 der
: 3260 3 16 stand
: 3264 5 16 ~
: 3270 2 14 ~?
- 3282
: 3292 3 7 Cause
: 3296 3 7  I
: 3300 3 9  don't
: 3304 3 12  wan
: 3308 3 14 na
* 3312 3 16  walk
: 3316 3 12  a
: 3320 6 12 lone
- 3330
: 3332 3 12 I'm
: 3336 1 12  read
: 3338 1 12 y
: 3340 1 12  for
: 3342 4 12  this
- 3353
: 3356 3 12 There's
: 3360 7 9  no
: 3368 7 12  de
: 3376 7 14 ny
: 3384 1 12 ing
: 3386 6 9 ~
- 3394
: 3396 3 12 I'm
* 3400 1 12  read
: 3402 1 12 y
: 3404 1 12  for
: 3406 4 12  this
- 3417
: 3420 3 12 You
: 3424 7 9  stop
: 3432 7 12  me
: 3440 7 14  fall
* 3448 3 16 ing
: 3452 4 16 ~
- 3458
: 3460 3 12 I'm
: 3464 1 12  read
: 3466 1 12 y
: 3468 1 12  for
: 3470 4 12  this
- 3481
: 3484 3 12 I
: 3488 7 9  need
: 3496 7 12  you
: 3504 7 14  all
: 3512 1 12  in
: 3514 6 9 ~
- 3522
: 3524 3 12 I'm
: 3528 1 12  read
: 3530 1 12 y
: 3532 1 12  for
: 3534 4 12  this
- 3545
: 3548 3 7 So
* 3552 3 7  dar
: 3556 3 9 ling
: 3560 3 12  wan
* 3564 3 14 na
: 3568 5 16  hold
: 3574 5 12  my
: 3580 8 12  hand
E