#TITLE:Bang Bang
#ARTIST:Jessie J. ft. Ariana Grande & Nicki Minaj
#MP3:Jessie J. ft. Ariana Grande & Nicki Minaj - Bang Bang.mp3
#VIDEO:Jessie J. ft. Ariana Grande & Nicki Minaj - Bang Bang.mp4
#COVER:Jessie J. ft. Ariana Grande & Nicki Minaj - Bang Bang[CO].jpg
#BPM:300
#GAP:50950
#MedleyStartBeat:524
#MedleyEndBeat:730
#ENCODING:UTF8
#PREVIEWSTART:77,150
#LANGUAGE:English
#GENRE:Pop
#YEAR:2014
#CREATOR:amro98 & aac
#START:49
: 0 2 10 She
: 4 2 14  got
: 8 2 15  a
: 12 2 14  bo
: 16 2 10 dy
: 20 2 10  like
: 24 2 10  an
: 28 4 10  hour
: 36 2 10 ~
: 40 4 10 glass
- 46
: 48 2 10 But
: 52 2 10  I
: 56 2 10  can
: 60 2 10  give
: 64 2 10  it
: 68 2 10  to
: 72 2 10  you
- 75
: 76 2 10 All
: 80 2 12  the
: 84 24 12  time
- 110
: 128 2 14 She
: 132 2 14  got
: 136 2 15  a
: 140 2 14  boo
: 144 2 10 ty
: 148 2 10  like
: 152 2 10  a
: 156 4 10  Ca
: 164 2 10 di
: 168 4 10 llac
- 174
: 176 2 10 But
: 180 2 10  I
: 184 2 10  can
* 188 2 10  send
: 192 2 10  you
: 196 2 10  in
: 200 2 10 to
- 203
: 204 2 10 O
: 208 2 12 ver
: 212 12 12 drive
- 226
: 228 1 12 Oh
: 230 1 10 ~
: 232 4 7 ~
- 238
: 252 4 0 Stop
: 264 2 0  you
* 268 4 0  wai
* 276 4 0 ting
: 288 2 0  for
: 292 4 0  that,
- 298
: 316 4 0 Stop,
: 328 2 0  hold
: 332 4 0  up,
: 340 4 0  swing
: 352 2 0  your
: 356 4 0  bat
- 362
: 384 2 15 See
: 388 2 15  a
: 392 2 15 ny
: 396 2 15 bo
: 400 2 10 dy
: 404 2 10  could
: 408 2 10  be
: 412 4 10  bad
: 420 2 10  to
: 424 4 10  you,
- 430
: 432 2 10 You
: 436 2 10  need
: 440 2 7  a
: 444 4 10  good
: 452 2 5  girl
- 455
: 456 2 5 To
: 460 2 5  blow
: 464 2 3  your
: 468 2 5  mind
: 472 2 3 ~
* 476 4 0 ~,
- 482
: 484 3 12 Yeah
: 488 1 10 ~
: 490 1 7 ~
: 492 1 10 ~
: 494 4 12 ~
- 500
: 508 4 0 Bang,
: 516 4 0  bang
- 522
: 524 2 4 In
: 528 2 7 to
: 532 2 10  the
: 536 16 12  room
- 552
: 552 2 10 I
: 556 2 10  know
: 560 2 10  you
: 564 2 10  want
* 568 2 10  it
- 571
: 572 4 0 Bang,
: 580 4 0  bang
- 586
: 588 2 4 All
: 592 2 7  o
: 596 2 10 ver
: 600 16 12  you
- 616
: 616 2 10 I'll
: 620 2 10  let
: 624 2 10  you
: 628 2 10  have
: 632 2 10  it
- 636
: 640 4 16 Wait
: 648 2 12  a
: 652 2 12  mi
: 656 2 12 nute,
- 659
: 660 2 12 Let
: 664 2 12  me
: 668 4 10  take
: 676 4 14  you
: 684 12 12  there
- 698
* 704 4 16 Wait
: 712 2 12  a
: 716 2 12  mi
: 720 2 12 nute
: 724 2 12  til
: 728 2 12  you
- 732
: 736 20 10 Ah
- 758
: 764 4 0 Bang,
: 772 4 0  bang
- 778
: 780 2 4 There
: 784 2 7  goes
: 788 2 10  your
* 792 16 12  heart
- 808
: 808 2 10 I
: 812 2 10  know
: 816 2 10  you
: 820 2 10  want
: 824 2 10  it
- 827
: 828 4 0 Back,
: 836 4 0  back
: 844 2 4 sea
: 848 2 7 tof
: 852 2 10  my
: 856 16 12  car
- 872
: 872 2 10 I'll
: 876 2 10  let
: 880 2 10  you
: 884 2 10  have
: 888 2 10  it
- 892
: 896 4 16 Wait
: 904 2 12  a
* 908 2 12  mi
: 912 2 12 nute,
- 915
: 916 2 12 Let
: 920 2 12  me
: 924 4 10  take
: 932 4 14  you
: 940 12 12  there
- 954
: 960 4 16 Wait
: 968 2 12  a
: 972 2 12  mi
: 976 2 12 nute
: 980 2 12  til
: 984 2 12  you
- 988
: 1024 2 15 She
: 1028 2 15  might
: 1032 2 15 've
: 1036 2 15  let
: 1040 2 10  you
: 1044 2 10  hold
: 1048 2 10  her
- 1051
: 1052 4 10 Hand
: 1060 2 10  in
: 1064 4 10  school
- 1070
: 1072 2 10 But
: 1076 2 10  I'm
: 1080 2 10 ma
: 1084 2 10  show
: 1088 2 10  you
: 1092 2 10  how
: 1096 2 10  to
: 1100 2 10  gra
* 1104 2 12 du
* 1108 16 12 ate
- 1126
: 1152 2 15 No,
: 1156 2 15  I
: 1160 2 15  don't
: 1164 2 15  need
: 1168 2 10  to
: 1172 2 10  hear
: 1176 2 10  you
- 1179
: 1180 4 10 Talk
: 1188 2 10  the
: 1192 4 10  talk
- 1198
: 1200 2 10 Just
: 1204 2 10  come
: 1208 2 10  and
- 1211
: 1212 2 10 Show
: 1216 2 10  me
: 1220 2 10  what
: 1224 2 10  your
: 1228 2 10  mom
: 1232 2 12 ma
: 1236 14 12  gave
- 1251
: 1252 3 12 Oh
: 1256 1 10 ~
: 1258 1 7 ~
: 1260 3 5 ~
: 1264 3 0 ~
: 1268 8 0 ~
- 1276
: 1276 4 3 Love
: 1288 2 0  got
* 1292 4 0 ta
: 1300 4 0  be
: 1312 2 0  ba
: 1316 4 0 by,
- 1322
: 1340 4 0 Love
: 1352 2 0  but
: 1356 4 0  dont
: 1364 4 0  say
: 1376 2 0  a
: 1380 4 0  thing
- 1386
: 1408 2 15 See
: 1412 2 15  a
: 1416 2 15 ny
: 1420 2 15 bo
: 1424 2 15 dy
: 1428 2 10  could
: 1432 2 10  be
: 1436 4 10  good
: 1444 2 7  to
: 1448 4 10  you,
- 1454
: 1456 2 7 You
: 1460 2 10  need
: 1464 2 7  a
* 1468 2 10  bad
: 1472 2 5 ~
: 1476 2 5  girl
- 1479
: 1480 2 3 To
: 1484 2 5  blow
: 1488 2 3  your
: 1492 1 5  mind
: 1494 1 3 ~
: 1496 3 0 ~
: 1500 14 0 ~
- 1516
: 1532 4 0 Bang
: 1540 4 0  bang
- 1546
: 1548 2 4 In
: 1552 2 7 to
: 1556 2 10  the
: 1560 16 12  room
- 1576
: 1576 2 10 I
: 1580 2 10  know
: 1584 2 10  you
* 1588 2 10  want
: 1592 2 10  it
- 1595
: 1596 4 0 Bang,
: 1604 4 0  bang
- 1610
: 1612 2 4 All
: 1616 2 7  o
: 1620 2 10 ver
: 1624 16 12  you
- 1640
: 1640 2 10 I'll
: 1644 2 10  let
: 1648 2 10  you
: 1652 2 10  have
: 1656 2 10  it
- 1660
* 1664 4 16 Wait
: 1672 2 12  a
: 1676 2 12  mi
: 1680 2 12 nute,
- 1683
: 1684 2 12 Let
: 1688 2 12  me
: 1692 4 10  take
: 1700 4 14  you
: 1708 12 12  there
- 1722
: 1728 4 16 Wait
: 1736 2 12  a
: 1740 2 12  mi
: 1744 2 12 nute
: 1748 2 12  til
: 1752 2 12  you
- 1755
: 1756 3 15 Oh
* 1760 18 15 ~
: 1780 2 15  woah
: 1783 1 12 ~
: 1785 3 9 ~
- 1788
: 1788 4 0 Bang,
: 1796 4 0  bang
- 1802
: 1804 2 4 There
: 1808 2 7  goes
: 1812 2 10  your
: 1816 16 12  heart
- 1832
: 1832 2 10 I
: 1836 2 10  know
: 1840 2 10  you
: 1844 2 10  want
: 1848 2 10  it
- 1851
: 1852 4 0 Back,
: 1860 4 0  back
: 1868 2 4 seat
: 1872 2 7  of
: 1876 2 10  my
: 1880 16 12  car
- 1896
: 1896 2 10 I'll
: 1900 2 10  let
: 1904 2 10  you
: 1908 2 10  have
: 1912 2 10  it
- 1916
: 1920 4 16 Wait
: 1928 2 12  a
* 1932 2 12  mi
: 1936 2 12 nute,
- 1939
: 1940 2 12 Let
: 1944 2 12  me
: 1948 4 10  take
: 1956 4 14  you
: 1964 12 12  there
- 1978
: 1984 4 16 Wait
: 1992 2 12  a
: 1996 2 12  mi
: 2000 2 12 nute
: 2004 2 12  til
: 2008 2 12  you
- 2012
: 2032 2 0 It
: 2036 2 0  it
: 2040 2 0  Its
: 2044 2 2  Myx
: 2048 2 0  Mos
: 2052 1 0 ca
: 2054 2 0 to
- 2056
: 2056 2 0 Its
: 2060 2 2  frizz
: 2064 1 0  in
: 2066 1 0  a
: 2068 1 0  bot
: 2070 2 0 tle
- 2072
: 2072 2 0 Its
: 2076 1 3  Ni
: 2078 1 0 cki
: 2080 2 0  full
: 2084 1 0  throt
: 2086 2 0 tle
- 2088
: 2088 2 0 Its
: 2092 4 3  oh,
: 2100 4 3  oh
- 2106
: 2108 1 3 Swim
: 2110 1 0 ming
: 2112 1 0  in
: 2114 1 0  the
: 2116 1 0  grot
: 2118 2 0 to
- 2120
: 2120 2 0 We
: 2124 1 3  win
: 2126 1 3 ning
: 2128 1 0  in
: 2130 1 0  the
: 2132 1 0  lot
: 2134 2 0 to
- 2136
: 2136 2 0 We
: 2140 1 3  dip
: 2142 1 0 ping
: 2144 1 0  in
: 2146 1 0  the
: 2148 1 0  pot
: 2150 1 0  of
: 2152 2 0  blue
: 2156 4 3  foam
- 2162
: 2172 1 3 Kit
: 2174 1 0 ten
: 2176 2 0  so
: 2180 4 0  good
- 2184
: 2184 2 0 It's
: 2188 1 3  drip
: 2190 1 0 ping
: 2192 2 0  on
: 2196 4 0  wood
- 2200
: 2200 1 0 Get
: 2202 1 0  a
: 2204 2 3  ride
: 2208 1 0  in
: 2210 1 0  the
: 2212 1 0  en
: 2214 1 0 gine
: 2216 2 0  that
: 2220 4 3  could
- 2226
: 2228 4 3 Go,
: 2236 2 2  Bat
: 2240 2 0 man
: 2244 1 2  rob
: 2246 1 0 bin'
: 2248 2 0  it
- 2251
: 2252 2 1 Bang,
: 2256 2 1  bang,
: 2260 1 3  co
: 2262 1 0 ckin'
: 2264 2 0  it
- 2267
: 2268 2 1 Queen
: 2272 1 1  Ni
: 2274 1 1 cki
: 2276 1 3  do
: 2278 1 0 mi
: 2280 2 0 nant,
: 2284 1 3  pro
: 2286 1 0 mi
: 2288 2 0 nent
- 2291
: 2292 2 0 It's
: 2296 2 0  me,
: 2300 2 0  Jes
: 2304 2 0 sie,
: 2308 2 0  and
: 2312 2 3  A
: 2316 4 0 ri
- 2322
: 2324 2 0 If
: 2328 2 0  they
: 2332 2 2  test
: 2336 2 0  me
: 2340 2 0  they
: 2344 2 3  so
: 2348 4 0 rry
- 2354
: 2356 2 0 Ride
: 2360 2 0  his
: 2364 2 2  car,
: 2368 2 0  like
: 2372 2 0  a
: 2376 2 2  Har
: 2380 4 1 ley
- 2384
: 2384 2 0 Then
: 2388 2 2  pull
: 2392 2 0  off
: 2396 2 2  in
: 2400 2 2  this
: 2404 2 0  Fe
: 2408 2 3 rra
: 2412 4 0 ri
- 2418
: 2420 2 2 If
: 2424 2 0  we
: 2428 2 2  han
: 2432 2 2 ging,
: 2436 2 0  we
: 2440 2 3  ban
: 2444 4 0 ging
- 2450
: 2452 4 2 Phone
: 2460 2 2  ran
: 2464 2 2 ging,
: 2468 2 0  he
: 2472 2 3  slan
: 2476 4 0 ging
- 2482
: 2484 2 3 It
: 2488 2 0  aint
: 2492 2 3  ka
: 2496 2 3 ra
: 2500 2 2 o
: 2504 2 2 ke
: 2508 2 3  night
- 2511
: 2512 2 0 But
: 2516 2 3  get
: 2520 2 0  the
: 2524 2 3  mic
: 2528 2 0  cause
: 2532 2 0  he
: 2536 2 3  sin
: 2540 4 0 ging
- 2546
: 2548 4 1 Uh
- 2554
: 2556 4 10 B
: 2568 1 10  to
: 2570 1 10  the
: 2572 4 10  A
- 2576
: 2576 4 10 Bang
: 2584 4 10  bang
: 2592 4 10  bang
* 2600 4 10  bang
: 2608 2 10  ba
: 2612 4 10  bang
: 2620 4 12  bang
- 2626
: 2632 1 10 To
: 2634 1 10  the
: 2636 4 10  A
: 2648 1 10  to
: 2650 1 10  the
: 2652 2 10  N
: 2656 1 10  to
: 2658 1 10  the
: 2660 2 10  G
- 2663
: 2664 1 10 To
: 2666 2 10  the
: 2672 6 10  hey
: 2680 6 10 ~
- 2687
: 2688 2 12 See
: 2692 2 12  a
: 2696 2 12 ny
: 2700 2 15 bo
: 2704 2 12 dy
: 2708 2 12  could
: 2712 2 10  be
: 2716 4 12  good
: 2724 2 12  to
: 2728 4 12  you
- 2734
: 2736 2 10 You
: 2740 2 12  need
: 2744 2 10  a
* 2748 4 19  bad
: 2756 2 17  girl
: 2760 2 15  to
- 2762
: 2762 4 17 Blow
: 2768 4 19  your
: 2776 2 17  mind
: 2780 2 15 ~
: 2784 8 12 ~
- 2792
: 2792 2 12 Your
: 2796 1 12  mind
: 2798 1 10 ~
: 2800 3 7 ~
: 2804 1 10 ~
: 2806 1 12 ~
: 2808 3 10 ~
: 2812 12 12 ~
- 2826
: 2860 7 14 Oh
* 2868 31 15 ~
* 2900 3 15 ~
: 2904 1 14 ~
: 2906 2 12 ~
- 2910
: 2932 4 15 Bang
: 2940 4 15  Bang
: 2948 4 15  Bang
: 2956 4 15  Bang
: 2964 4 15  Bang
- 2970
: 2976 4 15 Wait
: 2984 2 12  a
: 2988 2 12  mi
: 2992 2 12 nute,
- 2995
: 2996 2 12 Let
: 3000 2 12  me
: 3004 4 10  take
: 3012 4 14  you
* 3020 12 12  there
- 3034
: 3056 2 16 Hey
: 3060 4 19 ~
: 3068 8 16  yeah
- 3078
: 3100 4 0 Bang,
: 3108 4 0  bang
- 3114
: 3116 2 4 There
: 3120 2 7  goes
: 3124 2 10  your
: 3128 16 12  heart
- 3144
: 3144 2 10 I
: 3148 2 10  know
: 3152 2 10  you
: 3156 2 10  want
* 3160 2 10  it
- 3163
: 3164 4 0 Back,
: 3172 4 0  back
: 3180 2 4 seat
: 3184 2 7  of
: 3188 2 10  my
: 3192 16 12  car
- 3208
: 3208 2 10 I'll
: 3212 2 10  let
: 3216 2 10  you
: 3220 2 10  have
: 3224 2 10  it
- 3228
: 3232 4 16 Wait
: 3240 2 12  a
: 3244 2 12  mi
: 3248 2 12 nute,
- 3251
: 3252 2 12 Let
: 3256 2 12  me
: 3260 4 10  take
: 3268 4 14  you
* 3276 12 12  there
- 3290
: 3296 4 16 Wait
: 3304 2 12  a
: 3308 2 12  mi
: 3312 2 12 nute
: 3316 2 12  til
: 3320 2 12  you
- 3324
: 3328 10 15 Hey
: 3340 2 14 ~
: 3344 10 12 ~
- 3355
: 3356 4 0 Bang
: 3364 4 0  bang
- 3370
: 3372 2 4 In
: 3376 2 7 to
: 3380 2 10  the
* 3384 16 12  room
- 3400
: 3400 2 10 I
: 3404 2 10  know
: 3408 2 10  you
: 3412 2 10  want
: 3416 2 10  it
- 3419
: 3420 4 0 Bang,
: 3428 4 0  bang
- 3434
: 3436 2 4 All
: 3440 2 7  o
: 3444 2 10 ver
: 3448 16 12  you
- 3464
: 3464 4 10 Yo
: 3472 2 10  I
: 3476 4 10  said
- 3482
: 3492 4 0 Bang
: 3500 4 0  bang
: 3512 4 0  bang
: 3520 2 0  ba
: 3524 4 0  bang
: 3532 4 0  bang
- 3538
: 3548 4 0 Bang
: 3556 4 0  bang
: 3564 4 0  bang
: 3576 4 0  bang
: 3584 2 0  ba
: 3588 4 0  bang
: 3596 4 0  bang
- 3602
: 3612 4 0 Bang,
* 3620 4 0  bang
- 3626
: 3628 2 4 There
: 3632 2 7  goes
: 3636 2 9  your
: 3640 16 12  heart
- 3658
: 3664 2 17 Bang
: 3668 4 15 ~
: 3684 2 17  bang
: 3688 2 15 ~
: 3692 4 12  bang
: 3700 2 12  bang
: 3704 4 15 ~
- 3710
: 3720 3 17 Oh
: 3724 1 15 ~
: 3726 1 12 ~
: 3728 2 12 ~
: 3732 1 12  woah
: 3734 1 10 ~
: 3736 4 7 ~
- 3742
* 3744 4 16 Wait
: 3752 2 12  a
: 3756 2 12  mi
: 3760 2 12 nute,
- 3763
: 3764 2 12 Let
: 3768 2 12  me
: 3772 4 10  take
: 3780 4 14  you
: 3788 12 12  there
- 3802
: 3808 4 16 Wait
: 3816 2 12  a
: 3820 2 12  mi
: 3824 2 12 nute
: 3828 2 12  til
: 3832 2 12  you
E