#TITLE:Sexy Lady
#ARTIST:Jessie J
#MP3:Jessie J - Sexy Lady.mp3
#VIDEO:Jessie J - Sexy Lady.mp4
#COVER:Jessie J - Sexy Lady [CO].jpg
#BPM:256
#GAP:7000
#ENCODING:UTF8
#LANGUAGE:English
#GENRE:Pop
#YEAR:2013
#CREATOR:Coppo
: 0 2 -1 You're
: 4 3 1  feel
: 8 2 4 ing
: 12 3 4  ner
: 16 3 1 vous
- 28
: 32 2 -1 Hav
: 36 3 1 ing
: 40 2 4  your
: 44 9 4  doubts
- 61
: 64 2 -1 Don't
: 68 3 1  be
: 72 2 4  em
: 76 3 4 bar
: 80 1 4 rassed
- 82
: 84 3 4 If
: 88 2 4  you
: 92 3 4  don't
: 96 2 4  fit
: 100 3 4  in
: 104 2 4  the
: 108 7 1  crowd
- 124
: 128 2 -1 Keep
* 132 3 1  stand
* 136 2 4 ing
* 140 5 4  tall
* 146 1 6 ~
* 148 3 8 ~
- 157
: 160 2 -1 And
: 164 3 1  hold
: 168 2 4  your
: 172 7 4  ground
- 188
: 192 2 -1 Show
: 196 3 1  'em
: 200 2 4  it's
: 204 3 4  not
: 208 2 4  o
: 212 1 4 kay
- 214
: 216 2 4 To
: 220 3 4  let
: 224 2 4  them
: 228 3 4  kick
: 232 2 6  you
: 236 3 6  down
: 240 3 8 ~
: 244 7 6 ~
- 254
: 256 2 11 Uh,
: 260 2 13  uh,
: 264 9 16  uh,
: 276 9 13  uh
- 286
: 288 2 13 Don't
: 292 3 13  let
: 296 2 13  'em
: 300 3 13  ru
: 304 2 11 in
: 308 5 11  your
: 316 3 11  time
- 329
: 352 2 13 It's
: 356 3 13  now
: 360 2 13  or
: 364 3 13  nev
: 368 3 11 er
- 374
: 376 3 13 Nev
: 380 3 11 er
- 393
: 416 2 13 Just
: 420 3 13  let
: 424 2 13  'em
: 428 3 13  know
: 432 2 11  it's
: 436 5 11  your
: 444 5 11  life
- 454
: 456 2 9 So
: 460 3 8  do
: 464 2 11  it,
* 468 3 8  use
* 472 2 11  it,
: 476 3 8  flaunt
: 480 2 11  it,
: 484 3 8  own
: 488 2 11  it
- 494
: 496 5 4 Whoa
- 502
: 504 5 4 Huh
- 510
: 512 3 4 That's
: 516 5 4  right
- 522
: 524 3 8 Yeah
: 528 13 11 ~
- 542
: 544 2 11 You'd
: 548 3 11  bet
: 552 2 11 ter
: 556 3 11  give
: 560 2 11  it
: 564 3 11  e
: 568 2 11 very
: 572 5 9 thing
: 580 3 8  you
: 584 3 4  got
- 590
: 592 3 4 Hey
- 598
: 600 2 4 Just
: 604 3 4  show
: 608 2 4  'em
* 612 3 4  you're
* 616 2 4  a
* 620 5 4  sex
* 628 1 6 y
* 630 3 8 ~
* 636 7 4  la
* 644 1 4 dy
* 646 1 6 ~
* 648 3 8 ~
- 657
: 660 3 9 Yeah
: 664 5 11 ~
- 670
: 672 2 11 You'd
: 676 3 11  bet
: 680 2 11 ter
: 684 3 11  work
: 688 2 11  it
: 692 3 11  'til
: 696 2 11  it's
: 700 7 9  burn
: 708 2 8 ing
: 712 5 4  hot
- 718
: 720 5 4 Hey
- 726
: 728 2 4 Just
: 732 3 4  show
: 736 2 4  'em
: 740 3 4  you're
: 744 2 4  a
: 748 5 4  sex
: 756 1 6 y
: 758 3 8 ~
: 764 7 4  la
: 772 1 4 dy
: 774 1 6 ~
: 776 3 8 ~
- 782
: 784 3 8 Time
: 788 2 8  is
: 792 3 6  now
: 796 5 8 ~,
: 804 3 6  ba
: 808 3 4 by
- 814
: 816 2 8 Look
: 820 3 8  a
: 824 3 6 round
: 828 5 8 ~,
: 836 3 6  ba
: 840 3 4 by
- 846
: 848 2 8 Just
: 852 2 8  be
: 856 3 6  proud
: 860 3 8 ~
- 866
: 868 3 6 You're
: 872 2 4  a
: 876 5 4  sex
: 884 1 6 y
: 886 3 8 ~
: 892 7 4  la
: 900 1 4 dy
: 902 1 6 ~
: 904 3 8 ~
- 910
: 912 3 8 Work
: 916 2 8  it
: 920 3 6  out
: 924 5 8 ~,
: 932 3 6  ba
: 936 3 4 by
- 942
: 944 3 8 Play
: 948 2 8  it
: 952 3 6  loud
: 956 5 8 ~,
: 964 3 6  ba
: 968 3 4 by
- 974
: 976 2 8 Just
: 980 2 8  be
: 984 3 6  proud
: 988 3 8 ~
- 994
: 996 3 6 All
: 1000 2 4  my
: 1004 5 4  sex
: 1012 1 6 y
: 1014 3 8 ~
- 1025
: 1028 3 4 So
: 1032 2 4  ad
: 1036 3 4 mit
: 1040 3 1  it
- 1052
: 1056 2 4 It's
: 1060 3 4  feel
: 1064 2 4 ing
: 1068 7 4  good
- 1084
: 1088 2 4 You're
: 1092 3 4  hips
: 1096 2 4  are
: 1100 3 4  rol
: 1104 1 4 ling
- 1106
: 1108 3 4 And
: 1112 2 4  you
: 1116 3 4  love
: 1120 2 4  it
* 1124 3 4  like
* 1128 2 4  you
* 1132 1 4  should
* 1134 1 6 ~
* 1136 1 8 ~
* 1138 1 6 ~
* 1140 3 8 ~
- 1149
: 1152 2 11 Work
: 1156 3 8  up
: 1160 2 4  a
: 1164 3 6  sweats
: 1168 1 6 ~
: 1170 1 8 ~
: 1172 1 6 ~
: 1174 3 8 ~
- 1182
: 1184 3 4 En
: 1188 5 4 joy
: 1194 1 4  the
: 1196 7 1  ride
- 1212
: 1216 2 4 Good
: 1220 3 4  girl,
: 1224 2 4  go
: 1228 3 4  get
: 1232 1 4  it
- 1234
: 1236 3 4 Wear
: 1240 2 4  your
: 1244 3 4  con
: 1248 2 4 fi
: 1252 3 4 dence
: 1256 2 4  to
: 1260 3 4 night
: 1264 1 6 ~
: 1266 1 8 ~
: 1268 1 6 ~
: 1270 1 8 ~
: 1272 3 4 ~
: 1276 1 8 ~
: 1278 1 9 ~
: 1280 3 11 ~
: 1284 7 8 ~
- 1301
: 1312 2 13 Don't
: 1316 3 13  let
: 1320 2 13  'em
: 1324 3 13  ru
: 1328 2 11 in
: 1332 5 11  your
: 1340 3 11  touch
- 1353
: 1376 2 13 It's
: 1380 3 13  now
: 1384 2 13  or
: 1388 3 13  nev
: 1392 3 11 er
- 1398
* 1400 3 13 Nev
* 1404 3 11 er
- 1417
: 1440 2 13 Just
: 1444 3 13  let
: 1448 2 13  'em
: 1452 3 13  know
: 1456 2 11  it's
: 1460 5 11  your
: 1468 5 11  life
- 1478
: 1480 2 9 So
: 1484 3 8  do
: 1488 2 11  it,
: 1492 3 8  use
: 1496 2 11  it,
: 1500 3 8  flaunt
: 1504 2 11  it,
: 1508 3 8  own
: 1512 2 11  it
- 1518
: 1520 3 4 Uh
: 1524 5 4  huh
- 1534
: 1536 3 4 That's
: 1540 5 4  right
- 1546
: 1548 3 8 Yeah
: 1552 13 11 ~
- 1566
: 1568 2 11 You'd
: 1572 3 11  bet
: 1576 2 11 ter
: 1580 3 11  give
: 1584 2 11  it
: 1588 3 11  e
: 1592 2 11 very
: 1596 5 9 thing
: 1604 3 8  you
: 1608 3 4  got
- 1614
: 1616 3 4 Hey
- 1622
: 1624 2 4 Just
: 1628 3 4  show
: 1632 2 4  'em
: 1636 3 4  you're
: 1640 2 4  a
: 1644 5 4  sex
: 1652 1 6 y
: 1654 3 8 ~
: 1660 7 4  la
: 1668 1 4 dy
: 1670 1 6 ~
: 1672 3 8 ~
- 1681
* 1684 3 9 Yeah
* 1688 5 11 ~
- 1694
: 1696 2 11 You'd
: 1700 3 11  bet
: 1704 2 11 ter
: 1708 3 11  work
: 1712 2 11  it
: 1716 3 11  'til
* 1720 2 11  it's
* 1724 7 9  burn
* 1732 2 8 ing
* 1736 5 4  hot
- 1742
: 1744 5 4 Hey
- 1750
: 1752 2 4 Just
: 1756 3 4  show
: 1760 2 4  'em
: 1764 3 4  you're
: 1768 2 4  a
: 1772 5 4  sex
: 1780 1 6 y
: 1782 3 8 ~
: 1788 7 4  la
: 1796 1 4 dy
: 1798 1 6 ~
: 1800 3 8 ~
- 1806
: 1808 3 8 Time
: 1812 2 8  is
: 1816 3 6  now
: 1820 5 8 ~,
: 1828 3 6  ba
: 1832 3 4 by
- 1838
: 1840 2 8 Look
: 1844 3 8  a
: 1848 3 6 round
: 1852 5 8 ~,
: 1860 3 6  ba
: 1864 3 4 by
- 1870
: 1872 2 8 Just
: 1876 2 8  be
: 1880 3 6  proud
: 1884 3 8 ~
- 1890
: 1892 3 6 You're
: 1896 2 4  a
: 1900 5 4  sex
: 1908 1 6 y
: 1910 3 8 ~
: 1916 7 4  la
: 1924 1 4 dy
: 1926 1 6 ~
: 1928 3 8 ~
- 1934
: 1936 3 8 Work
: 1940 2 8  it
: 1944 3 6  out
: 1948 5 8 ~,
: 1956 3 6  ba
: 1960 3 4 by
- 1966
: 1968 3 8 Play
: 1972 2 8  it
: 1976 3 6  loud
: 1980 5 8 ~,
: 1988 3 6  ba
: 1992 3 4 by
- 1998
: 2000 2 8 Just
: 2004 2 8  be
: 2008 3 6  proud
: 2012 3 8 ~
- 2018
: 2020 3 6 All
: 2024 2 4  my
: 2028 5 4  sex
: 2036 1 6 y
: 2038 3 8 ~
* 2044 7 4  la
* 2052 1 4 dies
* 2054 1 1 ~
* 2056 3 -1 ~
- 2093
: 2304 2 11 Uh,
: 2308 2 13  uh,
: 2312 9 16  uh,
: 2324 9 13  uh
- 2350
: 2368 2 11 Uh,
: 2372 2 13  uh,
: 2376 9 16  uh,
: 2388 9 13  uh
- 2414
: 2432 2 11 Uh,
: 2436 2 13  uh,
: 2440 9 16  uh,
: 2452 9 13  uh
- 2478
: 2496 2 11 Uh,
: 2500 2 13  uh,
: 2504 9 16  uh,
: 2516 9 13  uh
- 2542
: 2572 3 8 Yeah
: 2576 13 11 ~
- 2590
: 2592 2 11 You'd
: 2596 3 11  bet
: 2600 2 11 ter
: 2604 3 11  give
: 2608 2 11  it
: 2612 3 11  e
: 2616 2 11 very
: 2620 5 9 thing
: 2628 3 8  you
: 2632 3 4  got
- 2638
: 2640 3 4 Hey
- 2646
: 2648 2 4 Just
: 2652 3 4  show
: 2656 2 4  'em
: 2660 3 4  you're
: 2664 2 4  a
: 2668 5 4  sex
: 2676 1 6 y
: 2678 3 8 ~
: 2684 7 4  la
: 2692 1 4 dy
: 2694 1 6 ~
: 2696 3 8 ~
- 2705
: 2708 3 9 Yeah
: 2712 5 11 ~
- 2718
: 2720 2 11 You'd
: 2724 3 11  bet
: 2728 2 11 ter
: 2732 3 11  work
: 2736 2 11  it
: 2740 3 11  'til
: 2744 2 11  it's
: 2748 7 9  burn
: 2756 2 8 ing
: 2760 5 4  hot
- 2766
: 2768 5 4 Hey
- 2774
: 2776 2 4 Just
: 2780 3 4  show
: 2784 2 4  'em
: 2788 3 4  you're
: 2792 2 4  a
: 2796 5 4  sex
: 2804 1 6 y
: 2806 3 8 ~
: 2812 7 4  la
: 2820 1 4 dy
: 2822 1 6 ~
: 2824 3 8 ~
- 2830
: 2832 3 8 Time
: 2836 2 8  is
: 2840 3 6  now
: 2844 5 8 ~,
: 2852 3 6  ba
: 2856 3 4 by
- 2862
: 2864 2 8 Look
: 2868 3 8  a
: 2872 3 6 round
: 2876 5 8 ~,
: 2884 3 6  ba
: 2888 3 4 by
- 2894
* 2896 2 8 Just
* 2900 2 8  be
* 2904 3 6  proud
* 2908 3 8 ~
- 2914
: 2916 3 6 You're
: 2920 2 4  a
: 2924 5 4  sex
: 2932 1 6 y
: 2934 3 8 ~
: 2940 7 4  la
: 2948 1 4 dy
: 2950 1 6 ~
: 2952 3 8 ~
- 2958
: 2960 3 8 Work
: 2964 2 8  it
: 2968 3 6  out
: 2972 5 8 ~,
: 2980 3 6  ba
: 2984 3 4 by
- 2990
: 2992 3 8 Play
: 2996 2 8  it
: 3000 3 6  loud
: 3004 5 8 ~,
: 3012 3 6  ba
: 3016 3 4 by
- 3022
: 3024 2 8 Just
: 3028 2 8  be
: 3032 3 6  proud
: 3036 3 8 ~
- 3042
: 3044 3 6 All
: 3048 2 4  my
: 3052 5 4  sex
: 3060 1 6 y
: 3062 3 8 ~
: 3068 7 4  la
: 3076 1 4 dies
: 3078 1 1 ~
: 3080 3 -1 ~.
E