#TITLE:Crazy In Love
#ARTIST:Jill Johnson
#MP3:Jill Johnson - Crazy In Love.mp3
#COVER:Jill Johnson - Crazy In Love [CO].jpg
#BACKGROUND:Jill Johnson - Crazy In Love [BG].jpg
#BPM:264,00
#GAP:14602,27
#ENCODING:UTF8
#LANGUAGE:English
#EDITION:Singstar Svenska Hits Schlager
: 0 2 60 When 
: 3 3 62 I 
: 8 4 62 talk 
- 14
: 16 2 60 You 
: 19 3 60 like 
: 24 2 57 to 
: 27 2 60 lis
: 32 3 62 ten 
- 37
: 40 2 60 I 
: 43 4 62 real
: 48 2 60 ly 
* 51 3 60 love 
- 54
: 56 2 57 Your 
: 59 3 60 kis
: 64 2 62 sin' 
- 69
: 72 6 55 Ba
: 80 2 53 by 
: 83 4 53 you're 
- 87
: 88 2 50 A 
: 91 3 53 one 
: 96 3 53 of 
: 99 3 55 a 
: 104 5 57 kind 
- 119
: 131 3 62 And 
: 136 4 62 ba
: 144 2 60 by 
: 147 3 60 did 
: 152 2 57 I 
: 155 2 60 men
: 160 3 62 tion 
- 165
: 168 5 62 All 
: 176 2 60 of 
: 179 3 60 the 
: 184 2 57 at
: 187 3 60 ten
: 192 2 62 tion 
- 197
: 200 2 53 You 
: 203 4 55 give 
: 208 2 53 me 
* 211 4 53 makes 
: 216 2 50 me 
- 221
: 224 3 53 Feel 
: 227 3 55 so 
: 232 7 57 fine? 
- 243
: 248 6 62 On
: 255 5 60 ly 
: 262 5 58 for 
: 268 7 57 you 
- 277
: 280 3 53 My 
: 284 5 60 bo
: 291 2 57 dy's 
: 296 3 53 shak
: 303 10 53 ing 
- 318
: 323 4 53 When 
: 328 2 53 I 
: 331 4 62 think 
: 339 4 62 of 
: 344 2 60 the 
- 346
: 347 4 62 Things 
: 352 2 60 that 
: 355 4 62 you 
: 360 3 62 do
: 363 17 60  - 
- 389
: 399 2 69 When 
: 402 2 69 you're 
: 407 6 69 cra
: 415 2 67 zy 
: 419 2 65 in 
: 424 6 69 love 
- 432
: 434 5 69 Oh 
: 442 5 67 oh 
: 450 3 65 oh 
: 455 7 69 oh 
- 462
: 463 2 69 When 
: 466 2 69 you're 
: 471 6 69 cra
: 480 2 67 zy 
: 483 2 65 in 
: 488 6 69 love 
- 496
: 499 5 69 Oh 
: 507 5 67 oh 
: 515 3 65 oh 
: 520 6 69 oh 
- 526
: 528 2 69 When 
: 531 2 69 you're 
: 536 5 69 cra
: 544 2 67 zy 
: 547 2 65 in 
: 552 6 70 love 
- 560
: 563 6 70 There 
: 571 6 70 is 
: 579 7 69 no 
: 587 6 69 top 
: 595 5 67 speed 
: 603 4 66 li
: 608 5 67 mit 
- 614
: 616 3 67 It's 
* 619 7 72 ma
: 627 3 70 xi
: 632 3 70 mum
: 635 5 69  - 
- 640
: 641 4 69 In 
: 648 8 69 e
: 656 3 67 ve
: 659 4 67 ry 
: 667 4 65 mi
: 672 2 67 nute 
: 675 3 69 of 
: 679 5 69 love 
- 687
: 691 5 69 Oh 
: 699 4 67 oh 
: 707 3 65 oh 
: 712 6 69 oh 
- 718
: 720 2 69 When 
: 723 4 69 you're 
: 728 6 69 cra
: 735 3 67 zy 
: 739 5 65 in 
: 745 6 69 love 
- 753
: 755 6 69 Oh 
: 763 5 67 oh 
: 771 3 65 oh 
: 776 7 69 oh 
- 783
: 785 2 69 When 
: 787 4 69 you're 
: 792 7 69 cra
: 800 3 67 zy 
: 803 4 65 in 
: 808 6 70 love 
- 816
: 819 5 70 You're 
: 827 6 70 blind 
: 835 6 69 your 
: 843 6 69 heart's 
: 851 5 67 on 
: 859 3 66 fire
: 864 3 67  - 
- 871
: 875 8 72 No
: 883 3 70 thin' 
: 888 3 70 else
: 891 6 69  - 
: 899 4 69 can 
: 904 9 69 take 
: 915 6 67 you 
- 921
: 923 4 65 High
: 928 3 67 er 
: 931 3 69 than 
: 936 3 69 love
: 939 2 67  - 
: 941 2 65 - 
- 953
: 976 2 69 When 
: 979 2 69 you're 
: 984 5 69 cra
: 992 3 60 zy 
: 995 4 62 in 
: 1000 6 65 love 
- 1016
* 1123 3 62 My 
: 1128 4 62 head 
: 1136 2 60 u
: 1139 3 60 pon 
: 1144 2 57 your 
: 1147 2 60 shoul
: 1152 3 62 der 
- 1157
: 1160 5 62 Ba
: 1168 2 60 by 
: 1171 3 60 when 
: 1176 2 57 you 
: 1179 3 60 hold 
: 1184 2 62 her 
- 1189
: 1192 2 53 The 
: 1195 4 55 girl 
: 1200 2 53 is 
: 1203 4 53 shak
: 1208 2 50 in' 
: 1216 3 53 like 
: 1219 3 55 a 
: 1224 5 57 leaf 
- 1239
: 1251 3 62 You 
: 1256 4 62 give 
: 1264 2 60 the 
: 1267 3 60 right 
: 1272 2 57 af
: 1275 2 60 fec
: 1280 3 62 tion 
- 1285
: 1288 2 60 A 
: 1291 4 62 kind 
: 1296 2 60 of 
* 1299 3 60 chain 
: 1304 2 57 re
: 1307 3 60 ac
: 1312 2 62 tion 
- 1317
: 1320 5 55 Way 
: 1328 6 53 down 
- 1339
: 1344 3 53 To 
: 1347 3 55 my 
: 1352 7 57 knees 
- 1363
: 1368 6 62 On
: 1375 4 60 ly 
: 1382 5 58 for 
* 1388 9 57 you 
- 1398
: 1400 3 53 My 
: 1404 5 60 bo
: 1411 2 57 dy's 
: 1416 3 53 shak
: 1423 10 53 ing 
- 1438
: 1443 4 53 When 
: 1448 2 53 I 
: 1451 4 62 think 
: 1459 4 62 of 
: 1464 2 62 the 
- 1466
: 1467 4 65 Things 
: 1472 2 62 that 
: 1475 4 65 you 
: 1480 22 67 do
: 1503 3 72  - 
* 1507 2 69  - 
: 1509 2 67 - 
: 1511 4 65 - 
: 1515 2 67 - 
- 1518
: 1520 2 69 When 
: 1523 2 69 you're 
: 1527 6 69 cra
: 1536 2 67 zy 
: 1539 2 65 in 
: 1544 6 69 love 
- 1552
: 1555 5 69 Oh 
: 1563 5 67 oh 
: 1571 3 65 oh 
: 1575 7 69 oh 
- 1582
: 1584 2 69 When 
: 1587 2 69 you're 
: 1591 7 69 cra
: 1600 2 67 zy 
: 1603 2 65 in 
: 1608 6 69 love 
- 1616
: 1619 5 69 Oh 
: 1627 5 67 oh 
: 1635 3 65 oh 
: 1640 6 69 oh 
- 1646
: 1648 2 69 When 
: 1651 2 69 you're 
: 1655 6 69 cra
: 1664 2 67 zy 
: 1667 2 65 in 
: 1672 6 70 love 
- 1680
: 1683 6 70 You're 
: 1691 6 70 blind 
: 1699 7 69 your 
: 1707 6 69 heart's 
: 1715 5 67 on 
: 1723 4 66 fire
: 1728 2 67  - 
- 1733
: 1736 3 60 And 
: 1739 5 72 no
: 1747 3 70 thin' 
: 1752 3 70 else
: 1755 5 69  - 
: 1763 4 69 can 
: 1768 8 69 take 
: 1779 5 67 you 
- 1785
: 1787 4 65 High
: 1792 2 67 er 
: 1795 3 69 than 
: 1800 3 69 love
: 1803 2 67  - 
: 1805 4 65 - 
- 1819
: 1840 2 69 When 
: 1843 2 69 you're 
: 1847 5 69 cra
: 1855 4 60 zy 
: 1859 4 62 in 
: 1864 9 65 love 
- 1883
: 1975 7 62 On
: 1983 3 60 ly 
: 1990 6 58 for 
* 1996 14 57 you 
- 2010
: 2011 6 60 I've 
: 2019 5 52 been 
: 2025 6 52 wait
: 2032 7 53 in' 
- 2049
: 2059 3 60 Wish
: 2064 5 62 in' 
: 2070 3 62 my 
: 2076 3 62 dreams 
- 2081
: 2083 3 57 Would 
: 2089 5 62 come 
: 2097 8 62 true
: 2105 5 60  - 
- 2120
: 2131 4 64 Oh 
: 2136 2 65 my 
: 2139 5 65 bo
: 2145 5 67 dy's 
: 2152 6 69 shak
: 2160 7 67 in'
: 2168 7 65  - 
- 2177
: 2179 3 65 When 
: 2183 3 65 I 
: 2187 4 74 think 
: 2193 4 72 of 
: 2199 3 70 the 
- 2202
* 2204 4 69 Things 
: 2210 3 67 that 
: 2216 5 67 you 
: 2223 16 67 do 
- 2247
: 2256 2 70 When 
: 2259 2 70 you're 
: 2264 6 70 cra
: 2272 2 68 zy 
: 2275 4 66 in 
: 2281 6 70 love 
- 2289
: 2291 5 70 Oh 
: 2299 5 68 oh 
: 2307 3 66 oh 
: 2312 4 70 oh 
- 2318
: 2320 2 73 When 
: 2323 2 73 you're 
: 2327 2 70 cra
: 2329 2 68  - 
: 2331 3 66 - 
: 2336 2 66 zy 
: 2339 2 66 in 
: 2344 6 70 love 
- 2352
: 2355 5 70 Oh 
: 2363 5 68 oh 
: 2371 3 66 oh 
: 2376 6 70 oh 
- 2382
: 2384 2 70 When 
: 2387 2 70 you're 
: 2392 6 70 cra
: 2400 2 68 zy 
: 2403 2 66 in 
: 2408 6 71 love 
- 2416
: 2419 6 71 There 
: 2427 6 71 is 
: 2435 7 70 no 
: 2443 6 70 top 
: 2451 5 68 speed 
: 2459 4 67 li
: 2464 5 68 mit 
- 2470
: 2472 3 68 It's 
: 2475 7 73 ma
: 2483 3 71 xi
: 2488 3 71 mum
: 2491 5 70  - 
- 2496
: 2497 5 70 In 
: 2503 9 70 e
: 2512 3 68 ve
: 2515 4 68 ry 
: 2523 4 66 mi
: 2528 2 68 nute 
: 2531 3 70 of 
: 2535 5 70 love 
- 2543
: 2547 4 70 Oh 
: 2555 4 68 oh 
: 2563 3 66 oh 
: 2568 7 70 oh 
- 2575
: 2576 2 70 When 
: 2579 3 70 you're 
: 2583 7 70 cra
: 2592 2 68 zy 
: 2595 4 66 in 
: 2600 7 70 love 
- 2609
: 2611 4 70 Oh 
: 2619 3 68 oh 
: 2627 3 66 oh 
: 2632 6 70 oh 
- 2639
* 2641 3 73 When 
: 2644 3 70 you're 
: 2648 5 73 cra
: 2655 3 70 zy 
: 2658 5 73 in 
: 2663 4 73 love
: 2667 4 71  - 
- 2673
: 2675 5 71 You're 
: 2683 6 71 blind 
: 2691 6 70 your 
: 2699 6 70 heart's 
: 2707 5 68 on 
: 2715 3 67 fire
: 2720 3 68  - 
- 2725
: 2728 3 68 And 
: 2731 8 73 no
: 2739 3 71 thin' 
: 2744 6 71 else
: 2750 3 70  - 
: 2755 3 70 can 
: 2760 9 70 take 
: 2771 5 68 you 
- 2777
: 2779 4 66 High
: 2784 3 68 er 
: 2787 3 70 than 
: 2791 4 70 love
: 2795 2 68  - 
: 2797 6 66 - 
- 2813
: 2830 2 70 When 
: 2833 2 70 you're 
: 2839 5 70 cra
: 2847 3 61 zy 
: 2851 4 63 in 
: 2856 12 66 love 
E