#TITLE:Many Rivers To Cross
#ARTIST:Jimmy Cliff
#MP3:Jimmy Cliff - Many Rivers To Cross.mp3
#VIDEO:Jimmy Cliff - Many Rivers To Cross.avi
#COVER:Jimmy Cliff - Many Rivers To Cross.jpg
#BPM:279.74
#GAP:23650
#ENCODING:UTF8
#LANGUAGE:English
#GENRE:Reggae
#YEAR:1969
#CREATOR:mustangfred and asb
* 0 1 7 Man
* 2 10 9 ~
* 13 2 9 y
: 17 4 9  riv
: 23 3 9 ers
: 30 1 9  to
: 35 2 7  cross
: 38 5 9 ~
: 44 3 7 ~
: 48 8 5 ~
- 74
: 99 3 5 But
: 103 3 7  I
: 110 1 7  can't
: 112 9 9 ~
: 125 5 7  seem
: 133 1 5  to
: 137 2 0  find
: 140 10 2 ~
- 160
: 185 2 -2 My
: 188 9 0 ~
: 200 3 -3  way
: 204 2 -5 ~
: 208 2 -7  o
: 211 1 -5 ~
: 217 2 -5 ver
: 220 6 -3 ~
- 244
* 283 1 7 Wan
* 285 10 9 ~
* 296 2 9 der
* 299 5 9 ing,
: 305 3 9  I
: 309 4 9  am
: 317 2 7  lost
: 320 4 9 ~
: 325 3 7 ~
: 329 10 5 ~
- 357
: 381 2 5 As
: 384 3 7  I
: 391 1 7  trav
: 393 11 9 ~
: 406 2 7 el
: 409 2 5  a
: 413 2 0 long
: 416 11 2 ~
- 437
: 457 2 -2 White
: 460 8 0 ~
: 472 2 -3  cliffs
: 478 1 -5  of
: 480 2 -7 ~
: 487 2 -7  Do
: 494 3 -7 ver
- 515
: 547 1 7 Man
: 549 10 9 ~
: 560 2 9 y
: 564 4 9  riv
: 569 4 9 ers
: 577 1 9  to
: 581 1 7  cross
: 583 5 9 ~
: 589 3 7 ~
: 593 9 5 ~
- 620
: 641 2 5 And
: 645 2 7  it's
: 653 2 7  on
: 656 6 9 ~
: 664 3 7 ly
: 669 6 5  my
: 677 3 0  will
: 681 9 2 ~
- 700
: 718 2 -2 That
: 721 7 0 ~
: 733 1 -5  keeps
: 735 1 -3 ~
: 741 2 -5  me
: 744 3 -7  a
: 748 3 -5 live
: 752 6 -3 ~
- 776
: 797 3 5 I've
: 803 2 7  been
: 808 4 9  licked
- 822
* 826 2 7 Washed
* 830 2 9  up
: 837 2 7  for
: 841 2 7  years
: 844 3 9 ~
: 848 3 7 ~
: 852 10 5 ~
- 872
: 899 2 5 And
: 902 5 7  I
* 909 2 7  mere
* 912 8 9 ~
* 921 2 7 ly
: 926 5 5  sur
: 934 3 0 vive
: 938 14 2 ~
- 962
: 976 2 -2 be
: 979 7 0 ~
: 989 1 -3 cause
: 991 1 -2 ~
: 994 2 -5  of
: 999 4 -7  my
: 1008 16 -7  pride
- 1042
: 1095 2 3 Oh,
: 1098 5 5  that
* 1113 2 9  lone
* 1116 1 10 ~
* 1118 2 10 li
* 1122 2 10 ness
: 1129 3 10  won't
: 1135 1 7  leave
: 1137 2 9 ~
: 1142 1 7  me
: 1144 2 5  a
: 1148 10 5 lone
- 1176
: 1217 1 -2 It's
: 1222 2 2  such
: 1226 2 5  a
: 1232 2 9  drag
: 1235 11 10 ~
: 1251 1 10  to
: 1254 1 10  be
: 1256 1 7  on
: 1258 3 9 ~
: 1263 2 7  your
: 1266 10 5  own
- 1294
: 1346 2 -2 My
: 1349 3 2  wom
: 1353 2 5 an
: 1359 2 9  left
: 1362 8 10 ~
: 1374 3 10  and
: 1381 1 10  she
: 1384 1 7  did
: 1386 2 9 ~
: 1389 1 7 n't
: 1393 1 7  say
: 1395 3 5 ~
: 1399 3 5  why
- 1420
: 1476 2 2 Well,
: 1479 3 5  I
: 1485 2 7  guess
: 1490 3 5  I'll
: 1506 1 7  have
: 1508 4 9 ~
: 1515 2 7  to
: 1520 29 7  cry
- 1559
: 1582 2 7 Man
: 1585 8 9 ~
: 1594 2 9 y
: 1598 3 9  riv
: 1603 3 9 ers
: 1610 1 9  to
: 1615 1 7  cross
: 1617 5 9 ~
: 1623 2 7 ~
: 1626 8 5 ~
- 1652
: 1673 2 5 But
: 1678 2 7  just
: 1685 1 7  where
: 1687 9 9 ~
: 1700 2 7  to
: 1703 2 5  be
: 1707 2 0 gin
: 1711 6 2 ~
- 1727
: 1748 2 -2 I'm
: 1751 6 0 ~
: 1765 2 -3  play
: 1768 1 -5 ing
: 1774 4 -7  for
: 1780 3 -5  time
: 1784 6 -3 ~
- 1808
: 1828 3 5 There've
: 1832 2 7  been
: 1838 2 7  times
: 1841 9 9 ~
: 1856 3 9  I
: 1862 4 9  find
: 1868 2 7  my
: 1873 2 7 self
: 1876 4 9 ~
: 1881 2 7 ~
: 1884 6 5 ~
- 1908
: 1931 3 5 Think
: 1937 2 7 ing
: 1940 3 7  of
: 1944 8 9 ~
: 1957 2 7  com
: 1961 1 5 mit
: 1965 2 0 ting
: 1968 8 2 ~
- 1986
: 2005 2 -2 some
: 2008 7 0 ~
: 2020 2 -3  dread
: 2023 2 -5 ~
: 2027 3 -7 ful
: 2036 9 -7  crime
- 2055
: 2078 2 5 Yes,
: 2082 3 7  I've
: 2088 2 5  got
: 2094 1 7  man
: 2096 4 9 ~
: 2101 6 9 y
: 2109 3 9  riv
: 2114 2 9 ers
: 2121 1 9  to
: 2125 1 7  cross
: 2127 5 9 ~
: 2133 3 7 ~
: 2137 5 5 ~
- 2160
: 2184 2 5 But
: 2187 2 7  I
: 2193 2 7  can't
: 2196 9 9 ~
: 2209 3 7  seem
: 2215 1 5  to
: 2219 2 0  find
: 2222 11 2 ~
- 2243
: 2257 2 -2 my
: 2260 8 0 ~
: 2272 2 -5  way
: 2275 1 -3 ~
: 2277 1 -5 ~
: 2279 3 -7  o
: 2284 3 -7 ver
- 2305
: 2346 1 7 Wan
: 2348 8 9 ~
: 2358 3 9 der
: 2362 3 9 ing,
: 2366 3 9  I
: 2370 2 9  am
: 2375 2 7  lost
: 2378 4 9 ~
: 2383 2 7 ~
: 2386 7 5 ~
E