#TITLE:Steppin' Out
#ARTIST:Joe Jackson
#MP3:Joe Jackson - Steppin' Out.mp3
#VIDEO:Joe Jackson - Steppin' Out.mp4
#COVER:Joe Jackson - Steppin' Out.jpg
#BPM:317,2
#GAP:27630
#ENCODING:UTF8
#LANGUAGE:ENGLISH
#YEAR:1982
: 0 47 13 Now
- 49
: 61 3 6 The 
: 65 7 14 mist 
: 73 3 16 a
: 77 11 18 cross 
: 89 3 14 the 
: 93 7 11 win
: 101 7 9 dow 
: 109 11 8 hides 
: 120 3 11 the 
: 124 47 13 lines
- 173
: 188 3 6 But 
: 192 3 14 noth
: 196 7 16 ing 
: 204 11 18 hides 
: 216 3 14 the 
: 220 11 11 col
: 231 3 9 or 
: 235 11 8 of 
: 247 3 6 the 
: 251 23 4 lights 
: 279 7 11 that 
: 287 3 11 shi
: 291 31 9 ne
- 324
: 335 5 11 E
: 342 3 9 lec
: 347 2 8 tric
: 351 2 6 i
: 355 17 4 ty's 
: 375 6 11 so 
: 383 3 11 fi
: 387 23 9 ne
- 412
: 415 7 16 Look 
: 423 3 14 and 
: 427 11 9 dry 
: 439 3 11 your 
: 445 47 13 eyes
- 494
: 703 47 13 We
- 752
: 764 3 6 So 
: 768 7 14 tired 
: 776 3 16 of 
: 780 11 18 all 
: 793 3 14 the 
: 797 6 11 dark
: 805 6 9 ness 
: 813 6 8 in 
: 821 4 11 our 
: 827 47 13 lives
- 876
: 892 3 6 With 
: 896 3 14 no 
: 901 6 16 more 
: 909 9 18 an
: 920 3 14 gry 
: 924 9 11 words 
: 935 3 9 to 
: 940 10 8 say 
: 951 3 6 can 
: 956 23 4 come 
: 985 6 11 a
: 992 3 11 li
: 996 31 9 ve
- 1029
: 1039 3 11 Get 
: 1043 3 9 in
: 1047 3 8 to 
: 1051 3 6 a 
: 1055 23 4 car 
: 1079 7 11 and 
: 1087 3 11 dr
: 1091 23 9 ive
- 1116
: 1121 7 16 To 
: 1129 3 14 the 
: 1133 11 9 oth
: 1144 3 13 er 
: 1148 1 13 si
: 1151 4 13 de
- 1155
: 1155 8 1 Me 
: 1164 34 -2 babe 
: 1201 8 -4 step
: 1210 5 -2 pin' 
: 1218 8 3 ou
: 1229 24 1 ~t
- 1255
: 1282 8 -8 In
: 1293 12 -6 to 
: 1306 6 -4 the 
: 1314 6 -6 night
- 1322
: 1345 8 -15 In
: 1356 12 -13 to 
: 1369 6 -11 the 
: 1377 6 -13 light
- 1385
: 1409 8 1 You 
: 1419 33 -2 babe 
: 1456 8 -4 step
: 1466 4 -2 pin' 
: 1474 8 3 ou
: 1485 24 1 ~t
- 1511
: 1537 8 -8 In
: 1549 11 -6 to 
: 1562 7 -4 the 
: 1570 7 -6 night
- 1579
: 1602 8 -3 In
: 1613 11 -1 to 
: 1626 7 1 the 
: 1634 7 -1 light
- 1643
: 1665 47 13 We
- 1714
: 1725 2 6 Are 
: 1729 7 14 young 
: 1737 3 16 but 
: 1742 8 18 get
: 1752 3 14 ting 
: 1758 7 11 old 
: 1767 4 9 be
: 1773 9 8 fore 
: 1784 3 11 our 
: 1789 47 13 time
- 1838
: 1851 3 6 We'll 
: 1856 3 14 leave 
: 1863 4 16 the 
: 1870 9 18 T
: 1879 5 14 V 
: 1886 8 11 and 
: 1896 3 9 the 
: 1900 11 8 ra
: 1912 3 6 di
: 1916 23 4 o 
: 1942 7 11 be
: 1950 3 11 hi
: 1954 31 9 nd
- 1987
: 2000 3 11 Don't 
: 2004 3 9 you 
: 2008 3 8 won
: 2012 3 6 der 
: 2016 23 4 what 
: 2040 7 11 we'll 
: 2048 3 11 fi
: 2052 23 9 nd?
- 2077
: 2080 7 16 Step
: 2087 3 14 pin' 
: 2091 11 9 out 
: 2103 3 11 to
: 2107 47 13 night
- 2156
: 2367 47 13 You
- 2416
: 2429 3 6 Can 
: 2433 5 14 dress 
: 2440 3 16 in 
: 2445 11 18 pink 
: 2457 3 14 and 
: 2461 7 11 blue 
: 2471 4 9 just 
: 2477 11 8 like 
: 2489 3 11 a 
: 2493 47 13 child
- 2542
: 2557 3 6 And 
: 2561 5 14 in 
: 2569 3 16 a 
: 2574 6 18 yel
: 2582 5 14 low 
: 2590 7 11 tax
: 2599 3 9 i 
: 2604 11 8 turn 
: 2617 3 6 to 
: 2622 22 4 me 
: 2648 7 11 and 
: 2656 3 11 smi
: 2661 30 9 le
- 2693
: 2704 3 11 We'll 
: 2709 3 9 be 
: 2713 3 8 there 
: 2718 4 6 in 
: 2724 19 4 just 
: 2745 4 11 a 
: 2751 3 11 whi
: 2755 23 9 le
- 2780
: 2784 7 16 If 
: 2792 3 14 you 
: 2796 7 9 fol
: 2805 3 13 low 
: 2813 1 13 m
: 2816 3 13 e
- 2819
: 2819 8 1 Me 
: 2828 34 -2 babe 
: 2865 8 -4 step
: 2875 5 -2 pin' 
: 2882 8 3 ou
: 2893 24 1 ~t
- 2919
: 2945 8 -8 In
: 2957 12 -6 to 
: 2971 6 -4 the 
: 2979 6 -6 night
- 2987
: 3008 8 -3 In
: 3020 12 -1 to 
: 3034 6 1 the 
: 3042 6 -1 light
- 3050
: 3073 8 1 You 
: 3083 33 -2 babe 
: 3120 8 -4 step
: 3130 4 -2 pin' 
: 3138 8 3 ou
: 3149 24 1 ~t
- 3175
: 3201 8 4 In
: 3214 11 6 to 
: 3227 7 8 the 
: 3235 7 6 night
- 3244
: 3267 8 -3 In
: 3279 11 -1 to 
: 3291 7 1 the 
: 3299 7 -1 light
- 3308
: 3588 8 1 Me 
: 3597 34 -2 babe 
: 3634 8 -4 step
: 3644 5 -2 pin' 
: 3651 8 3 ou
: 3662 24 1 ~t
- 3688
: 3714 8 -8 In
: 3726 12 -6 to 
: 3740 6 -4 the 
: 3748 6 -6 night
- 3756
: 3777 8 -3 In
: 3789 12 -1 to 
: 3803 6 1 the 
: 3811 6 -1 light
- 3819
: 3842 8 1 You 
: 3852 33 -2 babe 
: 3889 8 -4 step
: 3899 4 -2 pin' 
: 3907 8 3 ou
: 3918 24 1 ~t
E