#TITLE:Cry, Cry, Cry
#ARTIST:Johnny Cash
#MP3:Johnny Cash - Cry, Cry, Cry.mp3
#VIDEO:Johnny Cash - Cry, Cry, Cry.avi
#COVER:Johnny Cash - Cry, Cry, Cry.jpg
#BPM:393,30
#GAP:9659
#ENCODING:UTF8
#LANGUAGE:English
#GENRE:Country
#EDITION:Rock Band Store 2011 Vol. 1
#YEAR:1955
: 0 4 20 Ev
: 5 2 20 ery
: 9 3 20 bo
: 13 3 20 dy
: 19 6 20  knows
: 30 4 20  where
: 35 2 20  you
: 41 7 20  go
- 50
: 52 2 20 When
: 56 2 18  the
* 63 8 20  sun
* 72 4 18 ~
: 80 6 16  goes
: 92 8 16  down
- 110
: 117 2 20 I
: 124 3 20  think
: 132 2 19  you
: 135 9 20  on
: 145 2 19 ly
: 150 2 20  live
: 153 3 18 ~
- 159
: 161 2 16 To
: 167 5 16  see
: 174 2 16  the
* 178 6 16  lights
* 185 10 18 ~
: 201 2 18  of
: 208 6 18  town
: 215 2 15 ~
- 228
: 232 4 18 I
: 239 4 18  wast
: 244 2 20 ~
: 250 3 20 ed
: 258 5 20  my
: 267 6 20  time
: 274 2 19  when
: 278 5 20  I
: 285 2 19  would
: 288 2 20 ~
- 295
* 297 3 20 Try
* 301 5 18 ~
: 310 8 16  try
: 322 8 16  try
- 340
: 347 3 16 When
: 351 2 16  the
: 354 4 16  lights
: 362 2 15  have
: 365 5 16  lost
: 376 2 13  their
: 380 6 16  glow
- 387
: 389 3 16 You're
: 397 3 16  gon
: 401 2 16 na
: 408 12 18  cry
* 426 2 20  cry
* 429 3 18 ~
: 438 14 16  cry
- 462
: 488 5 20 I
: 498 5 20  lie
: 505 2 20  a
: 509 3 20 wake
: 517 5 20  at
: 526 5 20  night
: 535 2 19  and
: 538 4 20  wait
- 546
: 548 5 19 'til
* 555 5 20  you
* 561 3 18 ~
: 571 7 16  come
: 580 6 16  in
- 596
: 605 2 20 You
: 613 5 20  stay
: 620 5 19  a
: 627 2 20  lit
: 630 4 19 tle
: 637 5 20  while
: 643 5 18 ~
: 650 6 16  and
: 657 2 16  then
- 661
: 663 2 16 You're
: 667 8 16  gone
: 676 12 18 ~
: 691 2 18  a
: 695 3 18 gain
: 699 3 15 ~
- 712
: 719 4 20 Ev
: 724 1 19 ery
: 728 2 20  ques
: 735 4 19 tion
: 741 2 20  that
: 745 7 19  I
: 754 2 20  ask
- 761
: 763 3 19 I
: 770 2 20  get
: 774 5 19  a
: 781 9 19  lie
: 791 5 18 ~
* 799 8 16  lie
: 810 8 16  lie
- 828
: 835 5 16 For
: 843 2 16  ev
: 848 2 16 ery
: 852 7 16  lie
: 863 2 13  you
: 867 6 16  tell
- 876
: 878 2 16 You're
: 885 3 16  gon
: 889 1 16 na
: 895 14 18  cry
* 914 4 19  cry
* 919 3 18 ~
: 926 12 16  cry
- 948
: 965 3 20 You're
: 971 5 21  gon
: 978 1 23 na
: 984 6 23  cry
: 991 4 21 ~
: 999 6 23  cry
: 1006 3 21 ~
: 1013 8 23  cry
: 1022 4 16 ~
: 1028 3 16  and
: 1035 5 16  you'll
- 1048
: 1051 6 20 Cry
: 1058 3 18 ~
: 1063 3 16  a
: 1067 5 18 lone
: 1073 8 20 ~
- 1089
: 1092 3 20 When
: 1096 4 21  ev
: 1103 5 21 ery
: 1109 6 21 one's
: 1121 4 21  for
: 1128 3 21 got
: 1135 3 21 ten
: 1139 6 21  and
- 1146
: 1148 6 21 You're
* 1157 3 20  left
: 1165 5 18  on
: 1171 4 20 ~
: 1178 2 18  your
: 1182 4 20  own
: 1187 3 18 ~
- 1191
: 1193 3 16 You're
: 1200 4 16  gon
: 1206 1 16 na
: 1211 5 17  cry
: 1217 11 18 ~
- 1239
* 1243 9 18 Cry
* 1253 7 19 ~
* 1261 7 18 ~
: 1272 16 16  cry
- 1340
: 1878 3 19 Soon
: 1882 3 20 ~
: 1887 3 20  your
: 1894 3 20  sug
: 1899 3 19 ar
: 1904 6 20  dad
: 1912 13 20 dies
: 1930 2 19  will
: 1934 11 20  all
: 1946 3 18 ~
: 1952 4 16  be
: 1963 8 16  gone
- 1981
: 1992 5 19 You'll
: 2000 3 20  wake
: 2006 4 20  up
: 2014 3 20  some
: 2018 2 18 ~
: 2024 4 20  cold
: 2029 3 18 ~
: 2034 4 20  day
: 2039 3 18 ~
: 2044 4 16  and
- 2050
: 2052 12 18 Find
: 2067 3 18  you're
* 2074 2 18  a
: 2077 7 18 lone
: 2085 1 11 ~
- 2097
: 2101 4 18 You'll
: 2110 2 18  call
: 2113 2 20 ~
: 2118 1 19  for
: 2121 5 20  me
: 2130 2 19  but
: 2134 4 19  I'm
: 2139 2 20 ~
: 2145 2 19  gon
: 2148 2 19 na
- 2152
: 2154 3 20 Tell
* 2160 2 18  you
: 2164 8 19  bye
: 2173 7 18 ~
: 2183 7 16  bye
: 2193 12 16  bye
- 2214
: 2218 2 16 When
: 2221 1 16  I
: 2226 6 16  turn
: 2234 1 16  a
: 2237 5 16 round
: 2244 5 16  and
: 2250 1 13 ~
: 2254 4 16  walk
: 2262 1 13  a
: 2265 5 16 way
- 2272
: 2274 4 16 You'll
: 2283 9 18  cry
* 2298 3 19  cry
: 2302 3 18 ~
: 2310 12 16  cry
- 2332
: 2361 3 18 When
: 2366 2 19  your
: 2370 2 20  fick
: 2374 4 20 le
: 2380 5 20  love
: 2389 3 20  gets
: 2397 6 20  old
: 2406 2 19  no
: 2410 5 20  one
- 2418
: 2420 4 20 Will
: 2428 6 20  care
: 2435 3 18 ~
: 2442 8 16  for
: 2454 6 16  you
- 2470
: 2477 2 20 And
: 2482 4 20  you'll
: 2492 4 20  come
: 2499 2 20  back
: 2507 2 18  to
: 2510 4 20  me
: 2515 2 18 ~
- 2519
: 2521 3 16 For
: 2526 2 16  a
: 2530 2 16  lit
: 2533 4 16 tle
: 2539 5 16  love
: 2545 13 18 ~
: 2561 2 18  that's
: 2571 4 18  true
: 2576 1 11 ~
- 2588
: 2592 4 19 I'll
: 2601 4 20  tell
: 2607 2 19  you
: 2610 9 20  no
: 2621 4 19  and
: 2626 3 20  you
: 2631 5 20  gon
: 2638 3 19 na
: 2643 3 20  ask
: 2651 3 18  me
- 2655
: 2657 4 19 Why
: 2662 5 18 ~
: 2672 8 16  why
: 2683 8 16  why?
- 2701
: 2709 2 16 When
: 2713 5 16  I
: 2722 2 16  re
: 2726 6 16 mind
: 2736 3 16  you
: 2741 2 13  of
: 2744 6 16  all
: 2751 2 13  of
: 2754 4 16  this
- 2761
: 2763 6 16 You'll
: 2774 10 18  cry
: 2788 4 19  cry
: 2793 4 18 ~
: 2800 12 16  cry
- 2822
: 2838 4 20 You're
: 2846 5 21  gon
: 2852 3 22 na
: 2859 8 23  cry
: 2868 2 21 ~
: 2875 6 23  cry
: 2882 2 21 ~
: 2889 6 23  cry
: 2896 4 20 ~
: 2903 3 16  and
: 2910 6 16  you'll
- 2923
: 2926 3 20 Want
: 2930 3 18 ~
: 2938 5 16  me
: 2947 4 18  then
: 2952 3 20 ~
- 2963
: 2966 2 20 It
: 2971 2 20 'll
: 2975 5 21  hurt
: 2985 9 21  when
: 2997 4 21  you
: 3004 4 21  think
: 3012 12 21  what
: 3026 2 21  a
- 3030
: 3032 3 18 Fool
: 3036 8 20 ~
: 3047 4 20  you've
: 3054 4 20  been
: 3059 2 18 ~
- 3069
: 3072 2 16 You're
: 3077 3 16  gon
: 3081 1 16 na
: 3088 18 18  cry
: 3120 7 18  cry
: 3128 9 20 ~
: 3138 6 18 ~
: 3149 22 16  cry
E