#TITLE:Shop Vac
#ARTIST:Jonathan Coulton
#MP3:Jonathan Coulton - Shop Vac.mp3
#COVER:Jonathan Coulton - Shop Vac [CO].jpg
#BACKGROUND:Jonathan Coulton - Shop Vac [BG].jpg
#BPM:300
#GAP:4290
#ENCODING:UTF8
#LANGUAGE:English
: 0 2 3 We
: 4 2 3  took
: 8 2 3  the
: 12 3 3  free
: 16 3 1 way
: 20 3 1  out
: 24 2 -1  of
: 28 7 -1  town
- 37
: 64 2 3 We
: 68 3 3  found
: 72 2 3  a
: 76 3 3  place
: 80 2 4  to
: 84 3 6  set
: 88 3 4 tle
: 92 7 4  down
- 101
: 128 2 6 We
: 132 3 6  bought
: 136 2 6  a
: 140 3 6  drive
: 144 3 8 way
: 148 3 9  and
: 152 2 8  a
: 156 5 8  swing
: 164 3 8 se
: 168 3 9 ~t
- 172
: 172 6 8 And
: 180 2 6  a
: 184 7 4  dog
- 193
: 224 3 3 You
: 228 3 4  got
: 232 2 4  your
: 236 3 4  ve
: 240 3 6 ry
: 244 5 4  own
* 252 6 11  bath
: 260 3 6 roo
: 264 7 8 ~m
- 273
: 288 3 4 I
: 292 2 4  got
: 296 3 4  my
: 300 3 4  ve
: 304 3 6 ry
: 308 5 4  own
: 316 5 11  work
: 324 6 7 shop
- 331
: 332 5 6 In
: 339 3 7  the
: 344 6 6  base
: 352 4 4 ment
- 358
: 360 2 4 We
: 364 3 4  sit
: 368 2 6  a
: 372 4 4 round
* 380 6 11  sta
: 388 3 8 ring
: 392 9 6  at
: 404 3 8  the
: 408 10 6  wall-
: 420 3 4 to-
: 424 5 1 wall
- 431
: 436 5 4 Take
: 444 6 11  field
: 452 6 8  trips
: 460 3 6  to
: 464 3 6  ou
: 468 3 8 ~r
: 473 6 6  fa
: 481 4 4 vorite
: 488 10 1  mall
- 500
: 508 7 11 Wai
: 516 2 11 ting
: 520 3 11  fo
: 524 5 12 ~r
: 532 2 12  the
: 536 10 13  day
- 547
: 548 3 8 When
: 552 10 6  all
: 564 2 4  the
: 568 10 11  kids
: 580 3 8  grow
: 584 5 6  up
- 590
: 592 5 4 And
: 600 6 9  leave
: 608 6 8  us
: 616 5 6  here
- 623
: 628 2 4 If
: 632 2 6  you
: 636 2 6  nee
: 639 3 8 ~d
: 644 7 4  me
- 653
: 660 3 6 I'll
: 664 2 8  be
: 668 6 9  down
: 676 9 6 stairs
- 687
: 692 2 6 With
: 696 2 8  the
: 700 6 11  shop
: 708 8 8  vac
- 718
: 724 2 8 You
: 728 2 11  can
: 732 6 13  call
- 739
* 740 2 16 But
: 744 2 15  I
: 748 2 13  pro
: 752 2 11 bably
: 756 6 11  won't
: 764 6 11  hear
: 772 8 8  you
- 782
: 784 3 4 Be
: 788 3 6 cause
: 792 2 8  it's
: 796 6 9  loud
: 804 3 8  with
: 808 2 6  the
: 812 6 4  shop
: 820 2 6  va
: 823 3 8 ~c
: 828 47 6  on
- 877
: 880 2 3 But
: 884 2 4  you'll
: 888 3 6  be
: 892 6 8  O
: 900 8 4 K
- 910
: 912 3 4 Cause
: 916 2 6  you'll
: 920 3 8  be
: 924 5 9  up
: 932 9 6 stairs
- 943
: 948 3 6 With
: 952 2 8  the
: 956 6 11  T
: 964 7 8 V
- 973
: 980 2 9 You
: 984 2 11  can
: 988 6 13  cry
: 996 2 16  and
: 1000 2 15  I
: 1004 2 13  pro
: 1008 2 11 bably
: 1012 6 11  won't
: 1020 6 11  hear
: 1028 8 8  you
- 1038
: 1040 2 4 Be
: 1044 2 6 cause
: 1048 2 8  it's
: 1052 3 8  lou
: 1056 3 9 ~d
: 1060 2 8  with
: 1064 2 6  the
: 1068 6 4  shop
: 1076 3 3  va
: 1080 2 4 ~c
* 1084 31 4  on
- 1117
: 1152 2 3 We
: 1156 3 3  hung
: 1160 2 3  a
: 1164 3 3  flag
: 1168 3 1  a
: 1172 3 1 bove
: 1176 2 -1  the
: 1180 6 -1  door
- 1188
: 1216 3 3 Checked
: 1220 3 3  out
: 1224 2 3  the
: 1228 3 3  gour
: 1232 2 4 met
: 1236 3 6  gro
: 1240 2 4 cery
: 1244 7 4  store
- 1253
: 1280 2 6 I
: 1284 3 6  bought
: 1288 2 6  a
: 1292 3 6  mo
: 1296 3 8 wer
- 1300
: 1300 3 9 I
: 1304 2 8  can
: 1308 6 8  ride
: 1316 2 9  a
: 1320 3 6 rou
: 1324 6 8 ~nd
: 1332 2 6  the
: 1336 11 4  yard
- 1349
: 1380 2 4 But
: 1384 2 4  we
: 1388 3 4  ha
: 1392 2 6 ven't
: 1396 5 4  got
: 1404 5 11  real
: 1412 14 8  friends
- 1428
: 1444 2 4 And
: 1448 3 4  now
: 1452 3 4  e
: 1456 3 6 ven
: 1460 2 4  the
: 1464 5 11  fake
: 1472 3 6  on
: 1476 6 7 ~es
- 1483
: 1484 2 6 Have
: 1488 5 7  stopped
: 1496 6 6  cal
: 1504 5 4 ling
- 1511
: 1516 3 4 May
: 1520 2 6 be
: 1524 5 4  if
* 1532 6 11  you
: 1540 3 8  for
: 1544 10 6 get
: 1556 2 8  to
: 1560 9 6  hide
: 1572 2 4  the
: 1577 7 1  keys
- 1586
: 1592 2 4 I'll
: 1596 6 11  take
: 1604 2 8  a
: 1608 9 6  ride
: 1620 2 8  to
: 1624 9 6  Ap
: 1636 2 4 ple
: 1640 10 1 by's
- 1652
: 1656 2 4 I'll
: 1660 2 11  come
: 1664 6 11  home
: 1672 6 12  drunk
: 1680 6 12  on
: 1688 9 13  dai
: 1700 2 8 qui
: 1704 10 6 ris
- 1715
: 1716 4 4 And
: 1724 2 11  throw
: 1728 3 6  u
: 1732 2 8 ~p
: 1736 10 6  on
: 1748 2 4  the
: 1752 6 9  neigh
: 1760 6 8 bor's
: 1768 8 6  lawn
- 1778
: 1780 2 4 If
: 1784 2 6  you
: 1788 3 6  nee
: 1792 2 8 ~d
: 1796 7 4  me
- 1805
: 1812 2 6 I'll
: 1816 2 8  be
: 1820 6 9  down
: 1828 8 6 stairs
- 1838
: 1844 2 6 With
: 1848 2 8  the
: 1852 6 11  shop
: 1860 7 8  vac
- 1869
: 1876 2 8 You
: 1880 2 11  can
: 1884 6 13  call
- 1891
: 1892 2 16 But
: 1896 2 15  I
: 1900 2 13  pro
: 1904 2 11 bably
: 1908 6 11  won't
: 1916 6 11  hear
: 1924 6 8  you
- 1932
: 1936 2 4 Be
: 1940 2 6 cause
: 1944 2 8  it's
: 1948 3 8  lou
: 1952 2 9 ~d
: 1956 2 8  with
: 1960 2 6  the
: 1964 6 4  shop
: 1972 3 6  va
: 1976 2 8 ~c
* 1980 45 6  on
- 2027
: 2036 2 4 You'll
: 2040 3 6  be
: 2044 6 8  O
: 2052 8 4 K
- 2062
: 2068 3 6 You'll
: 2072 3 8  be
: 2076 5 9  up
: 2084 8 6 stairs
- 2094
: 2100 2 6 With
: 2104 2 8  the
: 2108 5 11  T
: 2116 7 8 V
- 2125
: 2132 2 9 You
: 2136 2 11  can
: 2140 6 13  cry
- 2147
* 2148 2 16 And
: 2152 2 15  I
: 2156 2 13  pro
: 2160 2 11 bably
: 2164 5 11  won't
: 2172 6 11  hear
: 2180 7 8  you
- 2189
: 2192 2 4 Be
: 2196 2 6 cause
: 2200 2 8  it's
: 2204 2 8  lou
: 2207 3 9 ~d
: 2212 2 8  with
: 2216 2 6  the
: 2220 6 4  shop
: 2228 3 3  va
: 2232 2 4 ~c
: 2236 31 4  on
- 2269
: 2304 2 16 I
: 2308 3 16  like
: 2312 2 14  the
: 2316 3 14  Sta
: 2320 2 12 ~r
: 2324 6 12 bucks
: 2332 3 12  he
: 2336 2 14 ~re
- 2339
: 2340 6 7 That's
: 2348 2 9  bet
: 2352 2 11 ter
: 2356 3 9  than
: 2360 2 7  the
: 2364 3 9  o
: 2368 2 11 ther
: 2372 3 9  on
: 2376 4 11 ~e
- 2382
: 2388 2 7 Cause
: 2392 2 7  the
: 2396 2 9  o
: 2400 2 11 ther
: 2404 6 11  one's
: 2412 2 9  not
: 2416 2 11  as
: 2420 3 9  goo
: 2424 3 11 ~d
- 2429
: 2432 2 16 They
: 2436 3 16  real
: 2440 2 14 ly
: 2444 3 14  need
: 2448 2 12  to
: 2452 2 12  put
: 2456 2 11  a
: 2460 6 14  light
: 2468 6 11  there
- 2475
: 2476 2 9 Cause
: 2480 2 7  it's
: 2484 2 9  hard
: 2488 2 11  to
: 2492 3 7  tu
: 2496 6 9 ~rn
- 2504
: 2512 2 7 It's
: 2516 2 9  hard
: 2520 2 11  to
: 2524 3 12  make
: 2528 3 14  a
: 2532 6 12  left
: 2540 7 11  tu
* 2549 15 16 ~rn
- 2566
: 2816 2 3 And
: 2820 3 3  when
: 2824 2 3  it's
: 2828 3 3  time
: 2832 2 1  to
: 2836 2 1  go
: 2840 2 -1  to
: 2844 6 -1  bed
- 2852
: 2880 2 3 I'm
: 2884 3 3  still
: 2888 3 3  a
: 2892 2 3 wake
: 2896 2 4  in
: 2900 3 6 side
: 2904 2 4  my
: 2908 7 4  head
- 2917
: 2944 2 6 I'm
: 2948 3 6  floa
: 2952 3 6 ting
: 2956 2 6  up
: 2960 2 8  a
: 2964 3 9 bove
: 2968 2 8  the
: 2972 7 8  house
- 2980
: 2980 2 9 And
: 2984 3 7  loo
: 2988 6 8 ~
: 2996 2 6 king
: 3000 7 4  down
- 3009
: 3040 2 3 I
: 3044 3 4  guess
: 3048 2 4  I
: 3052 3 4  got
: 3056 2 6 ta
: 3060 6 4  go
* 3068 6 11  back
: 3076 3 6  the
: 3080 4 8 ~re
- 3086
: 3104 2 4 I
: 3108 3 4  guess
: 3112 3 4  there
: 3116 3 4  ne
: 3120 2 6 ver
: 3124 5 4  was
: 3132 6 11  a
: 3140 2 7 ny
: 3144 10 6  o
: 3156 2 7 ther
: 3160 6 6  an
: 3168 5 4 swer
- 3175
: 3180 2 4 And
: 3184 2 6  as
: 3188 2 4  the
: 3192 2 9  free
: 3195 3 11 ~
: 3200 5 8 way
: 3208 10 6  hums
: 3220 2 8  the
: 3224 6 6  cars
: 3232 6 4  go
: 3240 7 1  by
- 3249
: 3256 2 4 The
: 3260 3 9  hea
: 3264 3 11 ~d
: 3268 6 8 lights
: 3276 6 6  roll
: 3284 3 8  a
: 3288 10 6 cross
: 3300 2 4  the
: 3304 10 1  sky
- 3316
: 3324 3 11 Ma
: 3328 5 11 ny
: 3336 10 12  miles
: 3348 3 12  a
* 3352 9 13 way
: 3364 2 8  and
: 3368 9 6  I
: 3380 2 4  can
: 3384 2 9  see
: 3387 6 11 ~
: 3396 5 8  them
- 3402
: 3404 3 6 Spee
: 3408 4 4 ding
: 3416 3 8  throu
: 3420 6 9 ~gh
: 3428 2 8  the
: 3432 7 6  dark
- 3441
: 3444 2 4 If
: 3448 2 6  you
: 3452 3 6  nee
: 3456 2 8 ~d
: 3460 6 4  me
- 3468
: 3476 2 6 I'll
: 3480 2 8  be
: 3484 5 9  down
: 3492 7 6 stairs
- 3501
: 3508 2 6 With
: 3512 2 8  the
* 3516 6 11  shop
: 3524 7 8  vac
- 3533
: 3540 2 8 You
: 3544 2 11  can
: 3548 6 13  call
- 3555
: 3556 2 16 But
: 3560 2 15  I
: 3564 2 13  pro
: 3568 2 11 bably
: 3572 5 11  won't
: 3580 6 11  hear
: 3588 7 8  you
- 3597
: 3600 2 4 Be
: 3604 2 6 cause
: 3608 2 8  it's
: 3612 3 8  lou
: 3616 2 9 ~d
: 3620 2 8  with
: 3624 2 6  the
: 3628 6 4  shop
: 3636 3 6  va
: 3640 3 8 ~c
: 3644 44 6  on
- 3690
: 3696 2 3 But
: 3700 2 4  you'll
: 3704 2 6  be
: 3708 5 8  O
: 3716 7 4 K
- 3725
: 3728 2 4 Cause
: 3732 2 6  you'll
: 3736 2 8  be
: 3740 4 9  up
: 3748 7 6 stairs
- 3757
: 3764 2 6 With
: 3768 2 8  the
: 3772 6 11  T
: 3780 7 8 V
- 3789
: 3796 2 9 You
: 3800 2 11  can
: 3804 6 13  cry
- 3811
: 3812 2 16 And
: 3816 2 15  I
: 3820 2 13  pro
: 3824 2 11 bably
: 3828 5 11  won't
: 3836 6 11  hear
: 3844 7 8  you
- 3853
: 3856 2 4 Be
: 3860 2 6 cause
: 3864 2 8  it's
: 3868 3 8  lou
: 3872 2 9 ~d
: 3876 2 8  with
: 3880 2 6  the
: 3884 5 4  shop
: 3892 3 3  va
: 3896 2 4 ~c
* 3900 30 4  on
E