#TITLE:A Dios Le Pido
#ARTIST:Juanes
#MP3:Juanes - A Dios Le Pido.mp3
#COVER:Juanes - A Dios Le Pido [CO].jpg
#BACKGROUND:Juanes - A Dios Le Pido [BG].jpg
#BPM:194
#GAP:20567,01
#ENCODING:UTF8
#LANGUAGE:Spanish
#EDITION:SingStar ESP
: 0 4 64 Que
: 4 4 64  mis
: 8 4 64  o
: 12 4 60 jos
: 16 4 60  se
: 20 4 60  des
: 24 4 60 pier
: 28 4 57 ten
- 34
: 36 4 52 Con
: 40 2 52  la
: 42 4 57  luz
: 46 2 57  de
: 48 4 57  tu
: 52 4 56  mi
: 56 4 59 ra
: 60 4 56 da
* 64 10 59  yo
- 76
: 94 2 57 Que
: 96 2 57  mi
: 98 2 60  ma
: 100 2 60 dre
: 102 2 57  no
: 104 2 57  se
: 106 2 60  mue
: 108 1 60 ra-y
- 110
: 110 2 57 Que
: 112 2 57  mi
: 114 4 57  pa
: 118 2 57 dre
: 120 4 57  me
: 124 4 56  re
: 128 4 59 cuer
: 132 8 56 de
- 142
: 156 4 64 Que
: 160 2 64  te
: 162 2 64  que
: 164 2 64 des
: 166 2 64  a
: 168 2 64  mi
: 170 2 64  la
: 172 1 62 do-y
- 174
: 174 2 62 Que
: 176 2 62  más
: 178 4 62  nun
: 182 2 62 ca
: 184 4 62  te
: 188 4 60  me
: 192 2 60  va
: 194 4 59 yas
: 198 2 57  mi
: 200 4 60  vi
: 204 4 59 da
- 210
: 220 4 64 Que
: 224 2 64  mi
: 226 2 64  al
: 228 2 64 ma
: 230 2 64  no
: 232 2 64  des
: 234 2 64 can
: 236 1 62 se
- 238
: 238 2 62 Cuan
: 240 2 62 do
: 242 2 62  de
: 244 2 62  a
: 246 2 62 mar
: 248 4 62 te
: 252 4 60  se
: 256 3 60  tra
: 260 2 59 te
: 262 2 57  mi
: 264 4 60  cie
: 268 8 59 lo
- 278
: 288 4 64 Por
: 292 4 64  los
: 296 4 64  dí-
: 300 4 60  as
: 304 4 60  que
: 308 4 60  me
: 312 4 60  que
: 316 4 57 dan
- 322
: 324 2 52 Y
: 326 4 52  las
: 330 4 57  no
: 334 2 57 ches
: 336 4 57  que-aún
: 340 4 56  no
: 344 4 59  lle
: 348 4 56 gan
* 352 14 59  yo
- 368
: 382 2 57 Por
: 384 2 57  los
: 386 2 60  hi
: 388 2 60 jos
: 390 2 57  de
: 392 2 57  mis
: 394 2 60  hi
: 396 1 60 jos
- 398
: 398 2 57 Y
: 400 2 57  los
: 402 2 57  hi
: 404 4 57 jos
: 408 4 57  de
: 412 4 56  tus
: 416 4 59  hi
: 420 8 56 jos
- 430
: 444 4 64 Que
: 448 2 64  mi
: 450 2 64  pue
: 452 2 64 blo
: 454 2 64  no
: 456 2 64  de
: 458 2 64 rra
: 460 1 62 me
- 462
: 462 2 62 Tan
: 464 2 62 ta
: 466 4 62  san
: 470 2 62 gre-y
: 472 4 62  se
: 476 4 60  le
: 480 2 60 van
: 482 4 59 te
: 486 2 57  mi
: 488 4 60  gen
: 492 4 59 te
- 498
: 508 4 64 Que
: 512 2 64  mi
: 514 2 64  al
: 516 2 64 ma
: 518 2 64  no
: 520 2 64  des
: 522 2 64 can
: 524 1 62 se
- 526
: 526 2 62 Cuan
: 528 2 62 do
: 530 2 62  de
: 532 2 62  a
: 534 2 62 mar
: 536 4 62 te
: 540 4 60  se
: 544 4 60  tra
: 548 2 59 te
: 550 2 57  mi
: 552 4 60  cie
: 556 8 59 lo
- 566
: 572 4 60 Un
: 576 2 60  se
: 578 2 60 gun
: 580 2 60 do
: 582 2 60  más
: 584 2 60  de
: 586 2 60  vi
: 588 2 59 da
: 590 2 59  pa
: 592 2 59 ra
: 594 4 59  dar
: 598 4 59 te
- 604
: 606 2 59 Y
: 608 2 59  mi
: 610 2 59  co
: 612 2 59 ra
: 614 2 59 zón
: 616 2 59  en
: 618 2 59 te
: 620 2 59 ro
: 622 2 57  en
: 624 2 57 tre
: 626 4 57 gar
: 630 4 57 te
- 635
: 636 4 60 Un
: 640 2 60  se
: 642 2 60 gun
: 644 2 60 do
: 646 2 60  más
: 648 2 60  de
: 650 2 62  vi
: 652 2 62 da
: 654 2 59  pa
: 656 2 59 ra
: 658 4 59  dar
: 662 4 59 te
- 668
: 670 2 59 Y-a
: 672 2 59  tu
: 674 2 59  la
: 676 2 59 do
: 678 2 59  pa
: 680 2 59 ra
: 682 2 59  siem
: 684 2 57 pre
: 686 2 57  yo
: 688 2 57  que
: 690 4 57 dar
: 694 4 57 me
- 700
: 708 4 64 Un
: 712 2 64  se
: 714 4 65 gun
: 718 2 64 do
: 720 4 62  más
: 724 2 60  de
: 726 4 62  vi
: 730 4 59 da
* 734 12 62  yo
- 748
: 752 2 62 A
: 754 4 65  Dios
: 758 2 65  le
: 760 4 64  pi
: 764 2 64 do
- 767
: 768 2 64 Y-que
: 770 2 64  si
: 772 4 64  me
: 776 2 64  mu
: 778 2 67 e
: 780 4 67 ro
: 784 2 67  se
: 786 2 65 a
: 788 2 65  de
: 790 2 62  a
: 792 4 62 mor
: 796 2 62  y
- 799
: 800 2 62 Si
: 802 2 62  me-e
: 804 4 62 na
: 808 4 65 mo
: 812 4 65 ro
: 816 2 65  se
: 818 2 64 a
: 820 2 62  de
: 822 2 60 ~
: 824 4 60 vos
: 828 2 60  y
- 831
: 832 2 60 Que
: 834 2 60  de
: 836 4 60  tu
: 840 4 64  voz
: 844 2 64  se
: 846 2 64 a-es
: 848 2 64 te
: 850 2 62  cor
: 852 4 60 a
* 856 6 62 zón
- 864
: 866 2 62 Todos
: 868 4 62  los
: 872 4 62  dí-
: 876 4 62  as
: 880 2 62  a
: 882 4 64  Dios
: 886 2 65  le
: 888 4 64  pi
: 892 2 64 do
- 895
: 896 2 64 Y-que
: 898 2 64  si
: 900 4 64  me
: 904 2 64  mu
: 906 2 67 e
: 908 4 67 ro
: 912 2 67  se
: 914 2 65 a
: 916 2 65  de
: 918 2 62  a
: 920 4 62 mor
: 924 2 62  y
- 927
: 928 2 62 Si
: 930 2 62  me-e
: 932 4 62 na
: 936 4 65 mo
: 940 4 65 ro
: 944 2 65  se
: 946 2 64 a
: 948 2 62  de
: 950 2 60 ~
: 952 4 60 vos
: 956 2 60  y
- 959
: 960 2 60 Que
: 962 2 60  de
: 964 4 60  tu
: 968 4 64  voz
: 972 2 64  se
: 974 2 64 a-es
: 976 2 64 te
: 978 2 62  cor
: 980 4 60 a
* 984 6 62 zón
- 992
: 994 2 62 Todos
: 996 4 62  los
: 1000 4 62  dí-
: 1004 4 62  as
: 1008 2 62  a
: 1010 4 64  Dios
: 1014 2 65  le
: 1016 4 64  pi
: 1020 2 64 do
- 1024
: 1072 2 59 A
: 1074 4 62  Dios
: 1078 2 59  le
: 1080 4 60  pi
: 1084 6 57 do
- 1092
: 1280 4 64 Que
: 1284 4 64  mis
: 1288 4 64  o
: 1292 4 60 jos
: 1296 4 60  se
: 1300 4 60  des
: 1304 4 60 pier
: 1308 4 57 ten
- 1314
: 1316 4 52 Con
: 1320 2 52  la
: 1322 4 57  luz
: 1326 2 57  de
: 1328 4 57  tu
: 1332 4 56  mi
: 1336 4 59 ra
: 1340 4 56 da
* 1344 10 59  yo
- 1356
: 1374 2 57 Que
: 1376 2 57  mi
: 1378 2 60  ma
: 1380 2 60 dre
: 1382 2 57  no
: 1384 2 57  se
: 1386 2 60  mue
: 1388 1 60 ra-y
- 1390
: 1390 2 57 Que
: 1392 2 57  mi
: 1394 4 57  pa
: 1398 2 57 dre
: 1400 4 57  me
: 1404 4 56  re
: 1408 4 59 cuer
: 1412 8 56 de
- 1422
: 1436 4 64 Que
: 1440 2 64  te
: 1442 2 64  que
: 1444 2 64 des
: 1446 2 64  a
: 1448 2 64  mi
: 1450 2 64  la
: 1452 1 62 do-y
- 1454
: 1454 2 62 Que
: 1456 2 62  más
: 1458 4 62  nun
: 1462 2 62 ca
: 1464 4 62  te
: 1468 4 60  me
: 1472 2 60  va
: 1474 4 59 yas
: 1478 2 57  mi
: 1480 4 60  vi
: 1484 4 59 da
- 1490
: 1500 4 64 Que
: 1504 2 64  mi
: 1506 2 64  al
: 1508 2 64 ma
: 1510 2 64  no
: 1512 2 64  des
: 1514 2 64 can
: 1516 1 62 se
- 1518
: 1518 2 62 Cuan
: 1520 2 62 do
: 1522 2 62  de
: 1524 2 62  a
: 1526 2 62 mar
: 1528 4 62 te
: 1532 4 60  se
: 1536 2 60  tra
: 1538 4 59 te
: 1542 2 57  mi
: 1544 4 60  cie
: 1548 8 59 lo
- 1558
: 1564 4 60 Un
: 1568 2 60  se
: 1570 2 60 gun
: 1572 2 60 do
: 1574 2 60  más
: 1576 2 60  de
: 1578 2 59  vi
: 1580 2 59 da
: 1582 2 59  pa
: 1584 2 59 ra
: 1586 4 59  dar
: 1590 4 59 te
- 1596
: 1598 2 59 Y
: 1600 2 59  mi
: 1602 2 59  co
: 1604 2 59 ra
: 1606 2 59 zón
: 1608 2 59  en
: 1610 2 59 te
: 1612 2 57 ro
: 1614 2 57  en
: 1616 2 57 tre
: 1618 4 57 gar
: 1622 4 57 te
- 1627
: 1628 4 60 Un
: 1632 2 60  se
: 1634 2 60 gun
: 1636 2 60 do
: 1638 2 60  más
: 1640 2 60  de
: 1642 2 62  vi
: 1644 2 62 da
: 1646 2 59  pa
: 1648 2 59 ra
: 1650 4 59  dar
: 1654 4 59 te
- 1660
: 1662 2 59 Y-a
: 1664 2 59  tu
: 1666 2 59  la
: 1668 2 59 do
: 1670 2 59  pa
: 1672 2 59 ra
: 1674 2 59  siem
: 1676 2 57 pre
: 1678 2 57  yo
: 1680 2 57  que
: 1682 4 57 dar
: 1686 4 57 me
- 1692
: 1700 4 64 Un
: 1704 2 64  se
: 1706 4 65 gun
: 1710 2 64 do
: 1712 4 62  más
: 1716 2 60  de
: 1718 4 62  vi
: 1722 4 59 da
* 1726 12 62  yo
- 1740
: 1744 2 62 A
: 1746 4 65  Dios
: 1750 2 65  le
: 1752 4 64  pi
: 1756 2 64 do
- 1759
: 1760 2 64 Y-que
: 1762 2 64  si
: 1764 4 64  me
: 1768 2 64  mu
: 1770 2 67 e
: 1772 4 67 ro
: 1776 2 67  se
: 1778 2 65 a
: 1780 2 65  de
: 1782 2 62  a
: 1784 4 62 mor
: 1788 2 62  y
- 1791
: 1792 2 62 Si
: 1794 2 62  me-e
: 1796 4 62 na
: 1800 4 65 mo
: 1804 4 65 ro
: 1808 2 65  se
: 1810 2 64 a
: 1812 2 62  de
: 1814 2 60 ~
: 1816 4 60 vos
: 1820 2 60  y
- 1823
: 1824 2 60 Que
: 1826 2 60  de
: 1828 4 60  tu
: 1832 4 64  voz
: 1836 2 64  se
: 1838 2 64 a-es
: 1840 2 64 te
: 1842 2 62  cor
: 1844 4 60 a
: 1848 6 62 zón
- 1856
: 1858 2 62 Todos
: 1860 4 62  los
: 1864 4 62  dí-
: 1868 4 62  as
: 1872 2 62  a
: 1874 4 64  Dios
: 1878 2 65  le
: 1880 4 64  pi
: 1884 2 64 do
- 1887
: 1888 2 64 Y-que
: 1890 2 64  si
: 1892 4 64  me
: 1896 2 64  mu
: 1898 2 67 e
: 1900 4 67 ro
: 1904 2 67  se
: 1906 2 65 a
: 1908 2 65  de
: 1910 2 62  a
: 1912 4 62 mor
: 1916 2 62  y
- 1919
: 1920 2 62 Si
: 1922 2 62  me-e
: 1924 4 62 na
: 1928 4 65 mo
: 1932 4 65 ro
: 1936 2 65  se
: 1938 2 64 a
: 1940 2 62  de
: 1942 2 60 ~
: 1944 4 60 vos
: 1948 2 60  y
- 1951
: 1952 2 60 Que
: 1954 2 60  de
: 1956 4 60  tu
: 1960 4 64  voz
: 1964 2 64  se
: 1966 2 64 a-es
: 1968 2 64 te
: 1970 2 62  cor
: 1972 4 60 a
* 1976 6 62 zón
- 1984
: 1986 2 62 Todos
: 1988 4 62  los
: 1992 4 62  dí-
: 1996 4 62  as
: 2000 2 62  a
: 2002 4 64  Dios
: 2006 2 65  le
: 2008 4 64  pi
: 2012 2 64 do
- 2015
: 2016 2 64 Y-que
: 2018 2 64  si
: 2020 4 64  me
: 2024 2 64  mu
: 2026 2 67 e
: 2028 4 67 ro
: 2032 2 67  se
: 2034 2 65 a
: 2036 2 65  de
: 2038 2 62  a
: 2040 4 62 mor
: 2044 2 62  y
- 2047
: 2048 2 62 Si
: 2050 2 62  me-e
: 2052 4 62 na
: 2056 4 65 mo
: 2060 4 65 ro
: 2064 2 65  se
: 2066 2 64 a
: 2068 2 62  de
: 2070 2 60 ~
: 2072 4 60 vos
: 2076 2 60  y
- 2079
: 2080 2 60 Que
: 2082 2 60  de
: 2084 4 60  tu
: 2088 4 64  voz
: 2092 2 64  se
: 2094 2 64 a-es
: 2096 2 64 te
: 2098 2 62  cor
: 2100 4 60 a
: 2104 6 62 zón
- 2112
: 2114 2 62 Todos
: 2116 4 62  los
: 2120 4 62  dí-
: 2124 4 62  as
: 2128 2 62  a
: 2130 4 64  Dios
: 2134 2 65  le
: 2136 4 64  pi
: 2140 2 64 do
- 2143
: 2144 2 64 Y-que
: 2146 2 64  si
: 2148 4 64  me
: 2152 2 64  mu
: 2154 2 67 e
: 2156 4 67 ro
: 2160 2 67  se
: 2162 2 65 a
: 2164 2 65  de
: 2166 2 62  a
: 2168 4 62 mor
: 2172 2 62  y
- 2175
: 2176 2 62 Si
: 2178 2 62  me-e
: 2180 4 62 na
: 2184 4 65 mo
: 2188 4 65 ro
: 2192 2 65  se
: 2194 2 64 a
: 2196 2 62  de
: 2198 2 60 ~
: 2200 4 60 vos
: 2204 2 60  y
- 2207
: 2208 2 60 Que
: 2210 2 60  de
: 2212 4 60  tu
: 2216 4 64  voz
: 2220 2 64  se
: 2222 2 64 a-es
: 2224 2 64 te
: 2226 2 62  cor
: 2228 4 60 a
* 2232 6 62 zón
- 2240
: 2242 2 62 Todos
: 2244 4 62  los
: 2248 4 62  dí-
: 2252 6 62  as
- 2260
* 2266 14 62 Yo
: 2288 2 59  a
: 2290 6 62  Dios
: 2296 4 59  le
: 2300 2 60  pi
: 2302 2 59 ~
: 2304 20 57 do
E