#TITLE:Konig Von Mallorca
#ARTIST:Jurgen Drews
#EDITION:SS Mallorca P
#MP3:Jurgen Drews - Konig Von Mallorca.mp3
#COVER:Jurgen Drews - Konig Von Mallorca [CO].jpg
#VIDEO:Jurgen Drews - Konig Von Mallorca [VD#0].avi
#VIDEOGAP:0
#BPM:270
#GAP:2555,56
: 0 5 64 Ich
: 6 3 64  bin
: 10 3 64  der
: 14 4 66  Kö
: 18 2 64 nig
: 22 3 64  von
: 26 3 61  Mal
: 30 7 64 lor
: 38 17 57 ca
- 57 234
F 254 31 57 Oh
F 286 7 64  party
F 294 25 64  time
- 321 438
: 458 5 64 O
: 463 4 62 lé,
: 467 4 64  o
: 471 3 62 lé,
: 474 5 61  o
: 479 7 59 lé
- 488 489
: 514 3 64 Ich
: 518 3 64  bin
: 522 2 64  der
: 526 4 66  Kö
: 530 3 64 nig
: 534 4 64  von
: 538 4 61  Mal
: 542 8 64 lor
: 550 13 57 ca
- 565 566
: 578 2 64 Ich
: 582 3 64  bin
: 586 3 64  der
: 590 4 66  Prinz
: 594 2 64  von
: 598 4 64  A
: 602 2 62 re
: 606 4 62 nal
* 610 25 64 ~
- 637
: 642 3 64 Ich
: 646 3 64  hab
: 651 3 64  zwar
: 654 4 66  ei
: 658 3 64 nen
- 662
: 662 3 64 In
: 666 3 61  der
: 670 7 64  Kro
: 678 10 57 ne
- 690 691
: 706 4 61 Doch
: 710 4 62 ~
- 715
: 715 3 61 Das
: 718 4 62  ist
: 722 4 61  mir
: 726 4 59  scheiß
: 730 3 57 e
: 734 4 57 gal
: 738 19 59 ~
- 759 760
: 770 3 64 Ich
: 774 3 64  bin
: 778 3 64  der
: 782 4 66  Kö
: 786 3 64 nig
: 790 4 64  von
: 794 4 61  Mal
: 798 8 64 lor
: 806 15 57 ca
- 823 824
: 834 3 64 Ich
: 838 3 64  bin
: 842 2 64  der
: 846 4 66  Prinz
: 850 3 64  von
: 854 4 64  A
: 858 3 62 re
: 862 4 62 nal
: 866 25 64 ~
- 893
: 898 3 64 Ich
: 902 3 64  hab
: 906 3 64  zwar
: 909 5 66  ei
: 916 3 64 nen
- 920
: 920 2 64 In
: 922 3 61  der
: 926 16 64  Kro
: 942 2 61 ne
: 944 3 59 ~
: 947 5 57 ~
- 954
: 962 8 62 Doch
: 970 4 61  das
: 974 4 62  ist
: 978 3 61  mir
: 982 4 57  scheiß
: 986 3 59 e
: 990 2 59 gal
: 992 16 57 ~
- 1009
F 1010 3 64 Mein
F 1014 4 64  Schloss
F 1018 3 64  das
F 1022 3 64  ist
F 1025 9 64  ein
- 1036
F 1038 11 64 Riesen
F 1050 12 64  Tresen
- 1064 1065
F 1074 3 64 Und
F 1078 5 64  gute
F 1086 15 64  Sitten
F 1102 6 64  gibt
F 1108 6 64  es
F 1116 13 64  nicht
- 1131
: 1138 3 64 Auf
: 1142 3 64  mei
: 1146 2 64 nem
: 1150 14 64  Thron
- 1165
: 1166 3 57 Sit
: 1170 4 57 zen
: 1174 2 59  zehn
: 1178 6 59  Mäd
: 1186 4 59 chen
: 1190 9 57 ~
- 1200
: 1202 3 57 Die
: 1206 3 57  sind
: 1210 3 57  schon
: 1214 4 59  al
: 1218 6 57 le
- 1226
: 1230 4 59 Ziem
: 1234 6 57 lich
: 1242 2 59  dicht
: 1244 2 57 ~
* 1246 16 59 ~
- 1264
: 1266 3 61 Die
: 1270 4 61  wol
: 1274 2 59 len
: 1278 7 59  Wahn
: 1286 7 61 sinn
- 1294
: 1294 7 61 Bis
: 1302 3 57  der
* 1306 7 61  Arzt
: 1314 4 59  kommt
: 1318 8 61 ~
- 1328
: 1330 2 52 Das
: 1334 2 52  gibt's
: 1338 4 52  nur
: 1342 8 54  hier
- 1352
: 1354 3 54 Das
: 1358 3 56  glaub
: 1362 4 57 ~
: 1366 3 61 ich
: 1371 17 61  nicht
- 1390
: 1394 3 64 Die
: 1398 3 64  schrei
: 1402 3 64 en
- 1406
: 1406 7 61 Mach
: 1414 3 61  mir
: 1418 3 61  den
: 1422 4 61  Him
: 1426 4 62 mel
: 1430 4 64  auf
: 1434 8 61  Er
: 1442 10 59 den
- 1454 1455
: 1466 4 64 Und
: 1470 6 62  ich
: 1478 7 61  tu
: 1486 5 59  mei
: 1491 6 57 ne
: 1498 4 59  Pflicht
: 1502 4 57 ~
: 1506 20 59 ~
- 1528 1529
: 1538 3 64 Ich
: 1542 3 64  bin
: 1546 2 64  der
: 1550 4 66  Kö
: 1554 3 64 nig
: 1558 4 64  von
: 1562 4 61  Mal
: 1566 8 64 lor
: 1574 13 57 ca
- 1589 1590
: 1602 2 64 Ich
: 1606 3 64  bin
: 1610 3 64  der
: 1614 4 66  Prinz
: 1618 2 64  von
: 1622 4 64  A
: 1626 2 62 re
: 1630 4 62 nal
: 1634 25 64 ~
- 1661
: 1666 3 64 Ich
: 1670 4 64  hab
: 1675 3 64  zwar
: 1678 4 66  ei
: 1682 3 64 nen
- 1686
: 1686 3 64 In
: 1690 3 61  der
: 1694 7 64  Kro
: 1702 10 57 ne
- 1714 1715
: 1730 4 61 Doch
: 1734 4 62 ~
- 1739
: 1739 3 61 Das
: 1742 4 62  ist
: 1746 4 61  mir
: 1750 4 59  scheiß
: 1754 3 57 e
: 1758 4 57 gal
: 1762 19 59 ~
- 1783 1784
: 1794 3 64 Ich
: 1798 3 64  bin
: 1802 3 64  der
: 1806 4 66  Kö
: 1810 3 64 nig
: 1814 4 64  von
: 1818 4 61  Mal
: 1822 8 64 lor
: 1830 15 57 ca
- 1847 1848
: 1858 3 64 Ich
: 1862 3 64  bin
: 1866 2 64  der
: 1870 4 66  Prinz
: 1874 3 64  von
: 1878 4 64  A
: 1882 3 62 re
: 1886 4 62 nal
: 1890 25 64 ~
- 1917
: 1922 3 64 Ich
: 1926 3 64  hab
: 1930 3 64  zwar
: 1933 5 66  ei
: 1940 3 64 nen
- 1944
: 1944 2 64 In
: 1946 3 61  der
: 1950 16 64  Kro
: 1966 2 61 ne
: 1968 3 59 ~
: 1971 5 57 ~
- 1978
: 1986 4 61 Doch
: 1990 3 62 ~
- 1994
: 1994 4 61 Das
: 1998 4 62  ist
: 2002 3 61  mir
: 2006 4 57  scheiß
: 2010 3 59 e
: 2014 2 59 gal
: 2016 16 57 ~
- 2033
F 2034 3 64 In
F 2038 5 64  meinem
F 2044 13 64  Reich
F 2058 8 64  fließt
F 2068 5 64  nur
F 2074 20 64  Sangria
- 2096
F 2102 7 64 Oben
F 2110 11 64  rein
F 2124 3 64  und
F 2128 8 64  unten
F 2138 22 64  raus
- 2161
: 2162 3 64 Die
: 2166 3 64  gan
: 2170 3 64 zen
: 2174 4 64  Da
: 2178 4 57 men
- 2184
: 2186 3 57 In
: 2190 4 57  mei
: 2194 2 57 nem
: 2198 3 59  Ge
: 2202 7 59 fol
: 2210 6 59 ge
: 2216 8 57 ~
- 2226
: 2234 4 57 Die
: 2238 4 59  hal
: 2242 4 57 ten
: 2246 4 59  es
: 2250 3 57  nicht
- 2254
: 2254 5 59 Län
: 2259 5 61 ger
: 2266 2 59  aus
: 2268 4 57 ~
: 2272 14 59 ~
- 2288
: 2290 3 61 Die
: 2294 4 61  wol
: 2298 3 59 len
: 2302 8 59  Wahn
: 2310 7 61 sinn
- 2318
: 2318 7 61 Bis
: 2326 4 59  der
* 2330 7 61  Arzt
: 2338 4 59  kommt
: 2342 8 61 ~
- 2352
: 2354 3 52 Das
: 2358 3 52  gibt's
: 2362 3 52  nur
: 2366 8 54  hier
- 2376
: 2378 4 54 Das
: 2382 4 56  glaub
: 2386 4 57 ~
: 2390 4 61 ich
: 2395 18 61  nicht
- 2415
: 2418 3 64 Die
: 2422 3 64  schrei
: 2426 3 64 en
- 2430
: 2430 7 61 Mach
: 2438 3 61  mir
: 2442 2 61  den
: 2446 4 61  Him
: 2450 4 62 mel
: 2454 3 64  auf
* 2458 8 61  Er
: 2466 9 59 den
- 2477 2478
: 2490 4 64 Und
: 2494 6 62  ich
: 2502 6 61  tu
: 2510 4 59  mei
: 2514 7 57 ne
: 2522 4 59  Pflicht
: 2526 3 57 ~
: 2529 18 59 ~
- 2549 2550
: 2562 3 64 Ich
: 2566 3 64  bin
: 2570 2 64  der
: 2574 4 66  Kö
: 2578 3 64 nig
: 2582 4 64  von
: 2586 4 61  Mal
: 2590 8 64 lor
: 2598 13 57 ca
- 2613 2614
: 2626 2 64 Ich
: 2630 3 64  bin
: 2634 3 64  der
: 2638 4 66  Prinz
: 2642 2 64  von
: 2646 4 64  A
: 2650 2 62 re
: 2654 4 62 nal
: 2658 25 64 ~
- 2685
: 2690 3 64 Ich
: 2694 3 64  hab
: 2699 3 64  zwar
: 2702 4 66  ei
: 2706 3 64 nen
- 2710
: 2710 3 64 In
: 2714 3 61  der
: 2718 10 64  Kro
: 2728 11 57 ne
- 2741 2742
: 2755 3 61 Doch
: 2758 4 62 ~
- 2763
: 2763 3 61 Das
: 2766 3 62  ist
: 2770 4 61  mir
: 2774 4 59  scheiß
: 2778 3 57 e
: 2782 5 57 gal
: 2787 17 59 ~
- 2806 2807
: 2818 3 64 Ich
: 2822 3 64  bin
: 2826 3 64  der
: 2830 4 66  Kö
: 2834 3 64 nig
: 2838 4 64  von
: 2842 4 61  Mal
: 2846 8 64 lor
: 2854 15 57 ca
- 2871 2872
: 2882 3 64 Ich
: 2886 3 64  bin
: 2890 2 64  der
: 2894 4 66  Prinz
: 2898 3 64  von
: 2902 4 64  A
: 2906 3 62 re
: 2910 4 62 nal
: 2914 25 64 ~
- 2941
: 2946 3 64 Ich
: 2950 3 64  hab
: 2954 3 64  zwar
: 2957 5 66  ei
: 2964 3 64 nen
- 2968
: 2968 2 64 In
: 2970 3 61  der
: 2974 16 64  Kro
: 2990 2 61 ne
: 2992 3 59 ~
: 2995 5 57 ~
- 3002
: 3010 8 62 Doch
: 3018 4 61 ~
: 3022 4 62 das
: 3026 3 61  ist
: 3030 4 57  mir
: 3034 3 59  scheiß
: 3038 2 59 e
: 3040 16 57 gal
- 3058 3059
: 3072 4 61 Doch
: 3076 5 62 ~
- 3082
: 3082 4 61 Das
: 3086 4 62  ist
: 3090 3 61  mir
: 3094 4 57  scheiß
: 3098 3 59 e
: 3102 2 59 gal
: 3104 16 57 ~
- 3122 3146
* 3166 48 64 Hey
: 3214 7 66  hey
: 3222 3 61 ~
: 3226 9 64 Ba
: 3236 4 64 ~
: 3240 6 66 by
- 3248 3350
: 3370 5 64 O
: 3375 3 62 lé,
: 3378 4 64  o
: 3382 4 62 lé,
: 3386 4 61  o
: 3390 8 61 lé
- 3400 3401
: 3422 47 64 Hey
: 3470 8 66  hey
: 3478 3 61 ~
: 3482 6 64 Ba
: 3490 4 64 ~
: 3494 7 66 by
- 3503 3618
F 3638 4 64 Und
F 3642 3 64  ich
F 3646 10 64  frage
F 3656 14 64  Euch
- 3672
F 3678 8 64 Wollt
F 3686 6 64  ihr
F 3692 17 64  noch?
- 3711 3722
F 3742 8 64 Könnt
F 3750 6 64  ihr
F 3756 18 64  noch?
- 3776 3786
F 3806 7 64 Zicke
F 3814 7 64  Zacke
- 3822
F 3822 7 64 Zicke
F 3830 7 64  Zacke
- 3839 3854
: 3874 3 64 Ich
: 3878 3 64  bin
: 3882 2 64  der
: 3886 4 66  Kö
: 3890 3 64 nig
: 3894 4 64  von
: 3898 4 61  Mal
: 3902 8 64 lor
: 3910 13 57 ca
- 3925 3926
: 3938 2 64 Ich
: 3942 3 64  bin
: 3946 3 64  der
: 3950 4 66  Prinz
: 3954 2 64  von
: 3958 4 64  A
: 3962 2 62 re
: 3966 4 62 nal
: 3970 25 64 ~
- 3997
: 4002 3 64 Ich
: 4006 3 64  hab
: 4010 4 64  zwar
: 4014 4 66  ei
: 4018 3 64 nen
- 4022
: 4022 3 64 In
: 4026 3 61  der
: 4030 18 64  Kro
: 4048 8 61 ne
: 4056 2 59 ~
: 4058 3 57 ~
- 4063
: 4066 4 61 Doch
: 4070 3 62 ~
- 4074
: 4074 4 61 Das
: 4078 4 62  ist
: 4082 4 61  mir
: 4086 4 59  scheiß
: 4090 4 57 e
: 4094 3 59 gal
: 4097 3 57 ~
: 4100 19 59 ~
- 4121 4122
: 4130 3 64 Ich
: 4134 3 64  bin
: 4138 3 64  der
: 4142 4 66  Kö
: 4146 3 64 nig
: 4150 4 64  von
: 4154 4 61  Mal
: 4158 8 64 lor
* 4166 15 57 ca
- 4183 4184
: 4194 3 64 Ich
: 4198 3 64  bin
: 4202 2 64  der
: 4206 4 66  Prinz
: 4210 3 64  von
: 4214 4 64  A
: 4218 3 62 re
: 4222 4 62 nal
: 4226 25 64 ~
- 4253
: 4258 3 64 Ich
: 4262 3 64  hab
: 4266 3 64  zwar
: 4269 4 66  ei
: 4274 3 64 nen
- 4278
: 4279 4 64 In
: 4283 3 61  der
: 4286 8 64  Kro
: 4294 12 57 ne
- 4308 4309
: 4320 3 61 Doch
: 4323 5 62 ~
- 4329
: 4330 4 61 Das
: 4334 4 62  ist
: 4338 4 61  mir
: 4342 4 59  scheiß
: 4346 4 57 e
: 4351 2 59 gal
: 4353 2 57 ~
: 4355 16 59 ~
- 4373 4374
: 4386 3 64 Ich
: 4390 3 64  bin
: 4394 3 64  der
: 4398 4 66  Kö
: 4402 3 64 nig
: 4406 4 64  von
: 4410 4 61  Mal
: 4414 8 64 lor
: 4422 13 57 ca
- 4437 4438
: 4450 3 64 Ich
: 4454 3 64  bin
: 4458 3 64  der
: 4462 4 66  Prinz
: 4466 3 64  von
: 4470 4 64  A
: 4474 2 62 re
: 4478 6 62 nal
: 4484 20 64 ~
- 4506
: 4514 3 64 Ich
: 4518 3 64  hab
: 4522 2 64  zwar
: 4524 6 66  ei
: 4530 3 64 nen
- 4534
: 4534 4 64 In
: 4538 4 61  der
* 4542 8 64  Kro
: 4550 11 57 ne
- 4563 4564
: 4578 2 59 Doch
: 4580 2 61 ~
: 4582 3 62 ~
- 4586
: 4586 4 61 Das
: 4590 4 62  ist
: 4594 4 61  mir
: 4598 3 59  scheiß
: 4601 5 57 e
: 4606 3 59 gal
: 4609 3 57 ~
: 4612 17 59 ~
- 4631 4632
: 4642 3 64 Ich
: 4646 3 64  bin
: 4650 2 64  der
: 4654 4 66  Kö
: 4658 3 64 nig
: 4662 4 64  von
* 4666 4 61  Mal
: 4670 8 64 lor
: 4678 14 57 ca
- 4694 4750
: 4770 3 64 Ich
: 4774 3 64  hab
: 4778 2 64  zwar
: 4780 6 66  ei
: 4786 3 64 nen
- 4790
: 4790 4 64 In
: 4794 3 61  der
: 4798 8 64  Kro
: 4806 12 57 ne
- 4820 4878
: 4898 3 64 Ich
: 4902 3 64  bin
: 4906 2 64  der
: 4910 4 66  Kö
: 4914 2 64 nig
: 4918 4 64  von
: 4922 3 61  Mal
: 4926 8 64 lor
: 4934 14 57 ca
- 4950 4951
: 4962 3 64 Ich
: 4966 3 64  bin
: 4970 2 64  der
: 4974 4 66  Prinz
: 4978 3 64  von
: 4982 4 64  A
: 4986 3 62 re
: 4990 4 62 nal
: 4994 25 64 ~
- 5021
: 5026 3 64 Ich
: 5030 3 64  hab
: 5034 3 64  zwar
: 5037 5 66  ei
: 5042 3 64 nen
- 5046
: 5046 4 64 In
: 5050 3 61  der
: 5054 18 64  Kro
: 5072 2 61 ne
: 5074 3 59 ~
: 5077 6 57 ~
- 5085
: 5088 4 61 Doch
: 5092 4 62 ~
: 5099 3 61 ~
: 5102 4 62 das
: 5106 3 61  ist
: 5110 4 57  mir
* 5114 3 59  scheiß
: 5118 5 59 e
: 5123 23 57 gal
- 5148
: 5150 3 69 Vi
: 5154 5 69 va
: 5168 5 69  O
: 5174 5 69 lé
E
