#TITLE:What goes around
#ARTIST:Justin Timberlake
#MP3:Justin Timberlake - What goes around.mp3
#VIDEO:Justin Timberlake - What goes around [VD#20].mp4
#COVER:AlbumArt_{0A6E2A24-BD47-459C-BC1E-9460E8285156}_Small.jpg
#BACKGROUND:Justin Timberlake - What goes around [BG].jpg
#BPM:304
#GAP:31300
#VIDEOGAP:20
#ENCODING:UTF8
#START:30
: 0 4 9 Hey 
: 8 12 12 girl!
- 24
: 32 3 9 Is 
: 36 3 11 he 
: 40 3 12 e
: 44 3 12 very
: 48 3 12 thing 
: 52 3 12 you 
: 56 3 12 wan
: 60 3 11 ted 
: 64 3 9 in 
: 68 3 7 a 
: 72 18 7 man
- 92
: 108 2 4 You 
: 112 3 9 know 
: 116 3 9 I 
: 120 3 9 gave 
: 124 3 9 you 
: 128 3 11 the 
: 132 13 12 world
- 152
: 164 2 4 You 
: 168 2 12 had 
: 172 3 12 me 
: 176 3 12 in 
: 180 3 12 the 
: 184 3 12 palm 
: 188 3 11 of 
: 192 3 9 your 
: 196 20 7 hand
- 220
: 236 2 9 So 
: 240 3 14 why 
: 244 3 14 your 
: 248 3 14 love 
: 252 3 12 went 
: 256 3 9 a
: 260 8 12 wa
: 270 6 9 y
- 284
: 292 2 9 I 
: 296 2 12 just 
: 300 2 12 can't 
: 304 2 12 seem 
: 308 2 12 to 
: 312 7 11 un
: 320 3 9 der
: 324 3 7 stand
: 328 16 7  ~
- 356
: 364 2 9 Thought 
: 368 2 9 it 
: 372 3 9 was 
: 376 3 9 me 
: 380 3 9 and 
: 384 6 14 you 
: 392 10 12 ba
: 404 3 9 be
- 408
: 424 3 12 Me 
: 428 3 12 and 
: 432 3 12 you 
: 436 3 12 un
: 440 6 11 til 
: 448 3 9 the 
: 452 10 7 end 
- 464
: 464 2 7 but 
: 468 2 4 I 
: 472 2 7 guess 
: 476 2 7 I 
: 480 3 9 was 
: 484 20 6 wrong
- 508
: 524 3 16 Don't 
: 528 3 21 want 
: 532 3 23 to 
: 536 3 24 think 
: 540 3 23 a
: 544 3 21 bout 
: 548 2 19 it
- 552
: 556 3 16 Don't 
: 560 3 21 want 
: 564 3 23 to 
: 568 3 24 talk 
: 572 3 23 a
: 576 3 21 bout 
: 580 2 19 it
- 584
: 588 3 16 I'm 
: 592 3 21 just 
: 596 3 23 so 
: 600 3 24 sick 
: 604 3 23 a
: 608 3 21 bout 
: 612 2 19 it
- 616
: 652 3 16 Just 
: 656 3 21 so 
: 660 3 23 con
: 664 3 24 fused 
: 668 3 23 a
: 672 3 21 bout 
: 676 2 19 it
- 680
: 684 3 16 Fee
: 688 3 21 ling 
: 692 3 23 the 
* 696 3 24 blues 
: 700 3 23 a
: 704 3 21 bout 
: 708 2 19 it
- 712
: 716 2 16 I 
: 720 3 21 just 
: 724 3 23 can't 
: 728 3 24 do 
: 732 3 23 wi
: 736 3 21 thout 
: 740 2 19 ya 
- 744
: 744 6 14 Tell 
: 752 3 12 me 
: 756 3 14 is 
: 764 3 12 this 
: 772 6 16 fair 
: 780 20 19 ~
- 802
: 808 3 16 This 
: 812 2 16 is 
: 816 3 16 the 
: 820 10 16 way 
: 831 2 14 it's  
: 835 4 12 really 
: 842 3 11 go
: 846 3 14 ing 
: 850 18 14 down 
- 869
: 870 3 6 Is 
: 874 3 6 this 
: 882 3 6 how 
: 886 3 6 we 
: 890 3 6 say 
: 898 3 6 good
: 902 6 6 bye
- 910
: 938 3 16 Should
: 942 3 16 've 
: 946 3 16 known 
: 950 6 16 bet
: 958 3 14 ter 
: 962 3 12 when 
: 966 3 11 you 
: 970 3 14 came 
: 974 3 14 a
: 978 14 14 round
- 994
: 998 3 6 That 
: 1002 3 6 you 
: 1006 3 6 were 
: 1010 3 6 gon
: 1014 3 6 na 
: 1018 3 9 make 
: 1026 3 6 me 
: 1030 8 6 cry
- 1048
: 1062 2 9 It's 
: 1066 3 19 brea
: 1070 3 19 king 
: 1074 3 19 my 
: 1078 6 16 heart 
: 1086 3 14 to 
: 1090 3 12 watch 
: 1094 3 11 you 
: 1098 3 14 run 
: 1102 3 14 a
: 1106 14 14 round
- 1122
: 1122 3 6 'cause 
: 1126 3 6 I 
: 1130 3 6 know 
: 1138 3 6 that 
: 1142 3 6 you're 
: 1146 3 6 li
: 1150 3 6 ving 
: 1154 3 6 a 
: 1158 7 6 lie
- 1169
: 1194 3 16 That's 
: 1198 3 16 o
: 1202 3 16 kay 
: 1206 7 16 ba
: 1214 2 14 by 
: 1218 2 12 'cause 
: 1222 3 11 in 
: 1226 7 14 time 
: 1242 6 16 you 
: 1250 6 14 will 
: 1258 13 14 find
- 1274
: 1278 3 21 What 
: 1282 3 21 goes 
: 1286 3 21 a
: 1290 6 21 round 
: 1298 3 16 goes 
: 1302 3 16 a
: 1306 6 16 round 
: 1314 3 12 goes 
: 1318 3 12 a
: 1322 6 12 round
- 1328
: 1328 6 9 Comes 
: 1336 4 9 all 
: 1342 2 9 the 
: 1346 4 7 way 
: 1352 3 14 back 
: 1356 3 12 a
: 1360 32 14 round
- 1400
: 1404 3 21 What 
: 1408 3 21 goes 
: 1412 3 21 a
: 1416 6 21 round 
: 1424 3 16 goes 
: 1428 3 16 a
: 1432 6 16 round 
: 1440 3 12 goes 
: 1444 3 12 a
: 1448 6 12 round
- 1456
: 1456 6 9 Comes 
: 1464 4 9 all 
: 1470 2 9 the 
: 1474 4 7 way 
: 1480 3 14 back 
: 1484 3 12 a
: 1488 36 14 round
- 1528
: 1532 3 21 What 
: 1536 3 21 goes 
: 1540 3 21 a
: 1544 6 21 round 
: 1552 3 16 goes 
: 1556 3 16 a
: 1560 6 16 round 
: 1568 3 12 goes 
: 1572 3 12 a
: 1576 6 12 round
- 1584
: 1584 6 9 Comes 
: 1592 4 9 all 
: 1598 2 9 the 
: 1602 4 7 way 
: 1608 3 14 back 
: 1612 3 12 a
: 1616 36 14 round
- 1656
: 1660 3 21 What 
: 1664 3 21 goes 
: 1668 3 21 a
: 1672 6 21 round 
: 1680 3 16 goes 
: 1684 3 16 a
: 1688 6 16 round 
: 1696 3 12 goes 
: 1700 3 12 a
: 1704 6 12 round
- 1712
: 1712 6 9 Comes 
: 1720 4 9 all 
: 1726 2 9 the 
: 1730 4 7 way 
: 1736 3 14 back 
: 1740 3 12 a
: 1744 16 14 round 
: 1764 3 12 ye
: 1768 13 11 ah
- 1784
: 1792 3 9 Now 
: 1800 11 12 girl
: 1812 3 9  ~
- 1818
: 1826 2 9 I 
: 1830 3 11 re
: 1834 3 12 mem
: 1838 2 12 ber 
: 1842 3 12 e
: 1846 3 12 very
: 1850 2 12 thing 
: 1854 2 11 that 
: 1858 2 9 you 
: 1862 18 7 claimed
- 1891
: 1901 2 4 You 
: 1904 3 9 said 
: 1908 3 9 that 
: 1912 3 9 you 
: 1916 3 9 were 
: 1920 3 9 mo
: 1924 3 11 ving 
: 1928 6 11 on 
: 1936 7 9 now
- 1946
: 1956 2 4 And 
: 1960 3 12 may
: 1964 2 12 be 
: 1968 3 12 I 
: 1972 3 12 should 
: 1976 6 11 do 
: 1984 3 9 the 
: 1988 20 7 same
- 2016
: 2032 3 16 Fun
: 2036 3 16 ny 
: 2040 3 19 thing 
: 2044 2 16 ~ 
: 2048 3 14 a
: 2052 3 12 bout 
* 2056 5 12 that 
* 2064 6 12 is
- 2073
: 2081 2 9 I 
: 2084 3 11 was 
: 2088 3 12 rea
: 2092 2 12 dy 
: 2100 2 11 to 
: 2104 3 12 give 
: 2108 3 11 you 
: 2112 3 9 my 
: 2116 22 7 name
- 2144
: 2156 3 9 Thought 
: 2160 3 9 it 
: 2164 3 9 was 
: 2168 3 9 me 
: 2172 3 9 and 
: 2176 6 14 you 
: 2184 10 12 ba
: 2196 3 9 be
- 2200
: 2212 3 9 And 
: 2216 3 12 now 
: 2220 3 9 it's 
: 2228 3 9 ~
: 2232 3 12 all 
: 2236 3 11 just 
: 2240 3 9 a 
: 2244 10 7 shame 
- 2255
: 2256 3 7 and 
: 2260 3 4 I 
: 2264 3 7 guess 
: 2268 3 7 I 
: 2272 3 9 was 
: 2276 21 6 wrong
- 2305
: 2316 3 16 Don't 
: 2320 3 21 want 
: 2324 3 23 to 
: 2328 3 24 think 
: 2332 3 23 a
: 2336 3 21 bout 
: 2340 2 19 it
- 2344
: 2348 3 16 Don't 
: 2352 3 21 want 
: 2356 3 23 to 
: 2360 3 24 talk 
: 2364 3 23 a
: 2368 3 21 bout 
: 2372 2 19 it
- 2376
: 2380 3 16 I'm 
: 2384 3 21 just 
: 2388 3 23 so 
: 2392 3 24 sick 
: 2396 3 23 a
: 2400 3 21 bout 
: 2404 2 19 it
- 2408
: 2444 3 16 Just 
: 2448 3 21 so 
: 2452 3 23 con
: 2456 3 24 fused 
: 2460 3 23 a
: 2464 3 21 bout 
: 2468 2 19 it
- 2472
: 2476 3 16 Fee
: 2480 3 21 ling 
: 2484 3 23 the 
: 2488 3 24 blues 
: 2492 3 23 a
: 2496 3 21 bout 
: 2500 2 19 it
- 2509
: 2528 3 14 Can 
: 2532 3 14 you 
: 2536 8 16 tell 
: 2546 4 14 me 
: 2552 3 14 is 
: 2556 3 12 this 
: 2564 7 16 fair 
: 2572 22 19 ~ 
- 2596
: 2600 3 16 This 
: 2604 3 16 is 
: 2608 3 16 the 
: 2612 10 16 way 
: 2624 2 14 it's 
: 2627 4 12 really 
: 2633 2 11 go
: 2636 2 14 ing 
: 2640 17 14 down
- 2660
: 2664 3 14 Is 
: 2668 3 14 this 
: 2676 3 14 how 
: 2680 3 12 we 
: 2684 6 16 say 
: 2692 3 14 good
: 2696 7 12 bye?
- 2708
: 2732 3 16 Should'
: 2736 3 16 ve 
: 2740 3 16 known 
: 2744 6 16 bet
: 2752 3 14 ter 
: 2756 3 12 when 
: 2760 3 11 you 
: 2764 3 14 came 
: 2768 3 14 a
: 2772 13 14 round
- 2786
: 2788 3 12 that 
: 2792 3 14 you 
: 2796 3 12 were 
: 2800 3 14 gon
: 2804 3 12 na 
: 2808 6 16 make 
: 2816 3 19 me 
: 2820 7 12 cry
- 2836
: 2848 3 9 Now 
: 2852 2 9 it's 
: 2856 3 19 brea
: 2860 3 19 king 
: 2864 3 19 my 
: 2868 7 16 heart 
- 2875
: 2876 3 14 To 
: 2880 3 12 watch 
: 2884 3 11 you 
: 2888 3 14 run 
: 2892 3 14 a
: 2896 15 14 round
- 2912
: 2912 3 12 'cause 
: 2916 3 14 I 
: 2920 3 16 know 
: 2928 3 14 that 
: 2932 3 12 you're 
: 2936 6 16 li
: 2944 3 14 ving 
: 2948 3 12 a 
: 2952 4 12 lie
- 2964
: 2984 3 16 That's 
: 2988 3 16 o
: 2992 3 16 kay 
: 2996 6 16 ba
: 3004 3 14 by 
- 3008
: 3008 3 12 'cause 
: 3012 3 11 in 
: 3016 7 14 time 
: 3032 6 16 you 
: 3040 6 14 will 
: 3048 13 14 find
- 3064
: 3068 3 21 What 
: 3072 3 21 goes 
: 3076 3 21 a
: 3080 6 21 round 
: 3088 3 16 goes 
: 3092 3 16 a
: 3096 6 16 round 
: 3104 3 12 goes 
: 3108 3 12 a
: 3112 6 12 round
- 3120
: 3120 6 9 Comes 
: 3128 4 9 all 
: 3134 2 9 the 
: 3138 4 7 way 
: 3144 3 14 back 
: 3148 3 12 a
: 3152 30 14 round
- 3188
: 3196 3 21 What 
: 3200 3 21 goes 
: 3204 3 21 a
* 3208 6 21 round 
: 3216 3 16 goes 
: 3220 3 16 a
* 3224 6 16 round 
: 3232 3 12 goes 
: 3236 3 12 a
* 3240 6 12 round
- 3247
: 3248 6 9 Comes 
: 3256 4 9 all 
: 3262 2 9 the 
: 3266 4 7 way 
: 3272 3 14 back 
: 3276 3 12 a
: 3280 30 14 round
- 3318
: 3324 3 21 What 
: 3328 3 21 goes 
: 3332 3 21 a
: 3336 6 21 round 
: 3344 3 16 goes 
: 3348 3 16 a
: 3352 6 16 round 
: 3360 3 12 goes 
: 3364 3 12 a
: 3368 6 12 round
- 3375
: 3376 6 9 Comes 
: 3384 4 9 all 
: 3390 2 9 the 
: 3394 4 7 way 
: 3400 3 14 back 
: 3404 3 12 a
: 3408 31 14 round
- 3448
: 3452 3 21 What 
: 3456 3 21 goes 
: 3460 3 21 a
: 3464 6 21 round 
: 3472 3 16 goes 
: 3476 3 16 a
: 3480 6 16 round 
: 3488 3 12 goes 
: 3492 3 12 a
: 3496 6 12 round
- 3504
: 3504 6 9 Comes 
: 3512 4 9 all 
: 3518 2 9 the 
: 3522 4 7 way 
: 3528 3 14 back 
: 3532 3 12 a
: 3536 15 14 round 
: 3556 3 12 ye
: 3560 12 11 ah
- 4088
: 4108 3 16 Don't 
: 4112 3 21 want 
: 4116 3 23 to 
: 4120 3 24 think 
: 4124 3 23 a
: 4128 3 21 bout 
: 4132 2 19 it
- 4136
: 4140 3 16 Don't 
: 4144 3 21 want 
: 4148 3 23 to 
: 4152 3 24 talk 
: 4156 3 23 a
: 4160 3 21 bout 
: 4164 2 19 it
- 4168
: 4172 3 16 I'm 
: 4176 3 21 just 
: 4180 3 23 so 
: 4184 3 24 sick 
: 4188 3 23 a
: 4192 3 21 bout 
: 4196 2 19 it
- 4200
: 4236 3 16 Just 
: 4240 3 21 so 
: 4244 3 23 con
: 4248 3 24 fused 
: 4252 3 23 a
: 4256 3 21 bout 
: 4260 2 19 it
- 4264
: 4268 3 16 Fee
: 4272 3 21 ling 
: 4276 3 23 the 
: 4280 3 24 blues 
: 4284 3 23 a
: 4288 3 21 bout 
: 4292 2 19 it
- 4296
: 4300 3 16 I 
: 4304 3 21 just 
: 4308 3 23 can't 
: 4312 3 24 do 
: 4316 3 23 with
: 4320 3 21 out 
: 4324 2 19 ya
- 4385
: 4391 3 16 This 
: 4395 2 16 is 
: 4399 3 16 the 
: 4403 10 16 way 
: 4414 2 14 it's  
: 4418 4 12 really 
: 4425 3 11 go
: 4429 3 14 ing 
: 4433 18 14 down 
- 4452
: 4453 3 6 Is 
: 4457 3 6 this 
: 4465 3 6 how 
: 4469 3 6 we 
: 4473 3 6 say 
: 4481 3 6 good
: 4485 6 6 bye
- 4493
: 4521 3 16 Should
: 4525 3 16 've 
: 4529 3 16 known 
: 4533 6 16 bet
: 4541 3 14 ter 
: 4545 3 12 when 
: 4549 3 11 you 
: 4553 3 14 came 
: 4557 3 14 a
: 4561 14 14 round
- 4577
: 4581 3 6 That 
: 4585 3 6 you 
: 4589 3 6 were 
: 4593 3 6 gon
: 4597 3 6 na 
: 4601 3 9 make 
: 4609 3 6 me 
: 4613 8 6 cry
- 4631
: 4645 2 9 It's 
: 4649 3 19 brea
: 4653 3 19 king 
: 4657 3 19 my 
: 4661 6 16 heart 
: 4669 3 14 to 
: 4673 3 12 watch 
: 4677 3 11 you 
: 4681 3 14 run 
: 4685 3 14 a
: 4689 14 14 round
- 4705
: 4705 3 6 'cause 
: 4709 3 6 I 
: 4713 3 6 know 
: 4721 3 6 that 
: 4725 3 6 you're 
: 4729 3 6 li
: 4733 3 6 ving 
: 4737 3 6 a 
: 4741 7 6 lie
- 4752
: 4777 3 16 That's 
: 4781 3 16 o
: 4785 3 16 kay 
: 4789 7 16 ba
: 4797 2 14 by 
: 4801 2 12 'cause 
: 4805 3 11 in 
: 4809 7 14 time 
- 4825
: 4825 6 16 you 
: 4833 6 14 will 
- 4841
: 4841 13 14 find
: 4861 5 21 What 
: 4866 3 21 goes 
: 4870 3 21 a
: 4874 6 21 round 
: 4882 3 16 goes 
: 4886 3 16 a
: 4890 6 16 round 
: 4898 3 12 goes 
: 4902 3 12 a
: 4906 6 12 round
- 4913
: 4914 6 9 Comes 
: 4922 4 9 all 
: 4928 2 9 the 
: 4932 4 7 way 
: 4938 3 14 back 
: 4942 3 12 a
: 4946 29 14 round
- 4983
: 4990 3 21 What 
: 4994 3 21 goes 
: 4998 3 21 a
: 5002 6 21 round 
: 5010 3 16 goes 
: 5014 3 16 a
: 5018 6 16 round 
: 5026 3 12 goes 
: 5030 3 12 a
: 5034 6 12 round
- 5041
: 5042 6 9 Comes 
: 5050 4 9 all 
: 5056 2 9 the 
: 5060 4 7 way 
: 5066 3 14 back 
: 5070 3 12 a
* 5074 31 14 round
- 5112
: 5116 3 21 What 
: 5120 3 21 goes 
: 5124 3 21 a
: 5128 6 21 round 
: 5136 3 16 goes 
: 5140 3 16 a
: 5144 6 16 round 
: 5152 3 12 goes 
: 5156 3 12 a
: 5160 6 12 round
- 5168
: 5168 6 9 Comes 
: 5176 4 9 all 
: 5182 2 9 the 
: 5186 4 7 way 
: 5192 3 14 back 
: 5196 3 12 a
: 5200 30 14 round
- 5240
: 5244 3 21 What 
: 5248 3 21 goes 
: 5252 3 21 a
: 5256 6 21 round 
: 5264 3 16 goes 
: 5268 3 16 a
: 5272 6 16 round 
: 5280 3 12 goes 
: 5284 3 12 a
: 5288 6 12 round
- 5296
: 5296 6 9 Comes 
: 5304 4 9 all 
: 5310 2 9 the 
: 5314 4 7 way 
: 5320 3 14 back 
: 5324 3 12 a
: 5328 16 14 round 
: 5348 3 12 ye
: 5352 13 11 ah
- 5368
: 5380 3 12 Yeh 
: 5384 3 11  ~ 
: 5388 12 9  ~
- 5829
: 6081 5 4 me paint 
: 6087 3 4 this 
: 6091 2 4 pic
: 6093 3 4 ture 
: 6097 3 4 for you 
: 6101 5 4 babe
- 6119
: 6159 3 14 You 
: 6163 3 14 spend 
: 6167 3 14 your 
: 6171 3 14 nights 
: 6175 3 11 a
: 6179 7 11 lone
- 6187
: 6191 3 7 and 
: 6195 3 14 he 
: 6199 3 14 ne
: 6203 2 11 ver 
: 6207 3 11 comes 
: 6211 6 11 home
- 6219
: 6223 3 11 And 
: 6227 3 14 e
: 6231 2 14 very 
: 6235 3 14 time 
: 6239 3 11 you 
: 6243 3 11 call 
: 6247 3 11 him
- 6250
: 6251 3 14 all 
: 6255 3 14 you 
: 6259 3 14 get's 
: 6263 3 14 a 
: 6267 3 14 bu
: 6271 3 11 sy 
: 6275 6 11 tone
- 6283
: 6287 3 14 I 
: 6291 3 14 heard 
: 6295 3 14 you 
: 6299 6 14 found 
: 6307 6 11 out
- 6315
: 6319 2 14 that 
: 6323 2 14 he's 
: 6327 3 14 do
: 6331 2 11 ing 
: 6335 3 11 to 
: 6339 5 11 you 
- 6350
: 6350 3 14 what 
: 6354 3 14 you 
* 6359 5 16 did 
: 6367 3 11 to 
: 6371 6 11 me
- 6379
: 6383 3 11 Ain't 
: 6387 3 11 that 
: 6391 3 9 the 
: 6395 3 9 way 
: 6399 2 7 it 
: 6403 5 4 goes 
- 6415
: 6415 3 7 when 
: 6419 3 14 you 
: 6423 3 14 chea
: 6427 2 11 ted 
: 6431 6 11 girl
- 6439
: 6445 3 14 My 
: 6449 3 14 heart 
: 6455 3 16 blee
: 6459 2 11 ded 
: 6463 6 11 girl
- 6471
: 6479 2 7 So 
: 6483 2 14 it 
: 6487 3 14 goes 
: 6491 3 11 with
: 6495 2 11 out 
: 6499 3 11 say
: 6503 2 11 ing
- 6506
: 6507 2 14 that 
: 6511 2 14 you 
: 6515 2 14 left 
: 6519 3 14 me 
: 6523 3 14 fee
: 6527 2 11 ling 
: 6531 6 11 hurt
- 6539
: 6543 2 14 Just 
: 6547 2 14 a 
: 6551 3 14 clas
: 6555 2 11 sic 
: 6559 6 11 case
- 6567
: 6579 3 14 A 
: 6583 3 14 sce
: 6587 3 16 na
: 6591 3 11 ri
: 6595 4 11 o 
- 6611
: 6611 2 14 tale 
: 6615 2 14 as 
: 6619 2 14 old 
: 6623 2 11 as 
: 6627 3 11 time
- 6631
: 6635 3 11 Girl 
: 6639 3 11 you 
: 6643 2 11 got 
: 6647 2 9 what 
: 6651 3 9 you 
: 6655 3 7 de
: 6659 3 4 ser
: 6663 2 2 ved
- 6667
: 6671 3 4 And 
: 6675 3 4 now 
: 6679 3 4 you 
: 6683 3 7 want 
: 6687 3 4 some
: 6691 3 4 bo
: 6695 3 2 dy
- 6699
: 6703 3 4 to 
: 6707 3 4 cure 
: 6711 3 4 the 
: 6715 3 7 lone
: 6719 3 4 ly 
: 6723 6 4 nights
- 6731
: 6735 3 4 You 
: 6739 3 4 wish 
: 6743 3 4 you 
: 6747 3 7 had 
: 6751 3 4 some
: 6755 3 4 bo
: 6759 2 2 dy
- 6763
: 6763 3 4 that 
: 6767 3 4 could 
: 6771 3 4 come 
: 6775 3 4 and 
: 6779 3 7 make 
: 6783 3 4 it 
: 6787 6 4 right
- 6795
: 6799 2 4 But 
: 6803 3 4 girl 
: 6807 3 4 I 
: 6811 2 7 ain't 
: 6815 3 4 some
: 6819 3 4 bo
: 6823 2 2 dy
- 6827
: 6827 3 4 with 
: 6831 3 4 a 
: 6835 2 4 lot 
: 6839 3 4 of 
: 6843 3 7 sym
: 6847 3 4 pa
: 6851 4 4 thy 
: 6863 2 2 you'll 
: 6867 4 4 see
- 6875
: 6887 3 4 What 
: 6891 6 7 goes 
: 6899 3 6 a
: 6903 5 6 round 
: 6911 5 7 comes 
: 6919 3 6 back 
: 6923 3 4 a
: 6927 6 4 round
- 6935
: 6943 3 16 I 
: 6947 3 16 thought 
: 6951 3 16 I 
: 6955 6 18 told 
: 6963 6 14 ya 
: 6977 9 16 hey!
- 6987
: 7015 3 4 What 
: 7019 6 7 goes 
: 7027 3 6 a
: 7031 6 6 round 
: 7039 5 7 comes 
: 7047 3 6 back 
: 7051 3 4 a
: 7055 6 4 round
- 7063
: 7071 3 16 I 
: 7075 3 16 thought 
: 7079 3 16 I 
: 7083 6 18 told 
: 7091 6 14 ya 
* 7107 9 16 hey!
- 7129
: 7143 4 4 What 
: 7147 8 7 goes 
: 7155 4 6 a
: 7159 8 6 round 
: 7167 8 7 comes 
: 7175 4 6 back 
: 7179 4 7 a
: 7183 8 7 round
- 7191
: 7199 4 21 I 
: 7203 4 21 thought 
: 7207 4 19 I 
: 7211 8 21 told 
: 7219 8 16 ya 
: 7231 8 16 hey!
- 7254
: 7268 4 4 What 
: 7272 8 7 goes 
: 7280 4 6 a
: 7284 8 6 round 
: 7292 8 7 comes 
: 7300 4 6 back 
: 7304 4 7 a
: 7308 8 7 round
- 7316
: 7324 4 21 I 
: 7328 4 21 thought 
: 7332 4 19 I 
: 7336 8 21 told 
: 7344 8 16 ya 
F 7356 18 16 hey!
- 7897
: 7911 3 4 What 
: 7914 8 7 goes 
: 7922 4 6 a
: 7926 8 6 round 
: 7934 8 7 comes 
: 7942 4 6 back 
: 7946 4 7 a
: 7950 8 7 round
E