#TITLE:Baby
#ARTIST:Justin Bieber & Ludacris
#MP3:Justin Bieber & Ludacris - Baby.mp3
#VIDEO:Justin Bieber & Ludacris - Baby.mp4
#COVER:Justin Bieber & Ludacris - Baby[CO].jpg
#BPM:260
#GAP:250
#ENCODING:UTF8
#PREVIEWSTART:44,365
#LANGUAGE:English
#GENRE:R&B
#YEAR:2010
* 41 3 15 Oh
: 45 3 17  uh
: 49 3 19  oh
: 53 3 17 ~
: 57 3 15 ~
: 61 3 14 ~
: 65 3 12 ~
- 85
: 105 3 15 Oh
: 109 3 17  uh
* 113 3 19  oh
: 117 3 17 ~
: 121 3 15 ~
: 125 3 17 ~
: 129 3 12 ~
- 149
: 169 3 15 Oh
: 173 3 17  uh
: 177 3 19  oh
: 181 3 17 ~
: 185 3 15 ~
: 189 3 17 ~
: 193 4 17 ~
: 198 1 15 ~
: 200 4 14 ~
: 205 3 12 ~
: 209 3 10 ~
- 222
: 245 2 15 You
: 249 3 22  know
: 253 3 19  you
: 257 3 17  love
: 263 5 19  me
- 274
: 277 2 15 I
: 281 3 22  know
: 285 3 19  you
: 289 12 17  care
- 307
: 309 2 19 Just
* 313 3 22  shout
: 317 3 19  whe
: 321 3 17 ne
: 327 5 19 ver,
- 338
: 341 2 15 And
: 345 3 22  I'll
: 349 3 19  be
: 353 4 17  there
: 358 8 15 ~
- 371
: 373 3 22 You
: 377 3 22  want
: 381 3 19  my
: 385 3 17  love
: 389 10 15 ~
- 403
: 405 3 22 You
: 409 3 22  want
: 413 3 19  my
: 417 12 17  heart
- 435
: 437 3 15 And
: 441 3 15  we
* 445 3 17  would
: 449 3 17  ne
: 453 3 19 ver,
: 457 3 17  e
: 461 3 19 ver,
: 465 3 17  e
: 469 3 19 ver
: 473 3 17  be
: 477 3 19  a
: 481 16 17  part
- 499
: 501 2 15 Are
: 505 3 22  we
: 509 3 19  an
: 513 3 17  i
: 518 1 17 tem
: 520 4 19 ~
- 533
: 536 3 22 Girl
: 540 3 19  quit
: 544 6 17  pla
: 551 9 15 yin'
- 569
: 572 3 22 "We're
: 577 6 17  just
: 585 6 19  friends",
- 595
: 597 3 15 What
* 601 3 15  are
: 605 2 15  you
: 609 7 17  sa
: 617 7 15 yin'?
- 627
: 629 3 15 Said
: 633 3 15  there's
: 637 3 17  a
: 641 5 20 no
: 647 5 19 ther
: 653 3 19  and
: 657 1 15  looked
- 659
: 661 3 15 Right
: 665 3 15  in
: 669 3 17  my
: 673 3 17  eyes
: 677 10 15 ~
- 691
: 693 3 15 My
* 697 3 15  first
: 701 2 17 ~
: 705 5 17  love
- 711
: 713 3 17 Broke
: 717 3 17  my
: 721 3 17  heart
: 725 3 17  for
: 729 3 17  the
: 733 3 17  first
: 737 3 19 ~
: 741 5 17  time
- 747
* 749 3 15 And
: 753 3 15  I
: 757 3 17  was
: 761 5 15  like
- 767
: 769 3 19 Ba
: 773 3 17 ~
: 777 3 17 by,
- 783
: 785 3 19 Ba
: 789 3 17 ~
: 793 3 17 by,
: 797 3 19  ba
: 801 3 17 ~
* 805 1 17 by
- 807
: 809 11 22 Oh
: 821 1 19 ~
- 823
* 825 5 19 Like
- 831
: 833 3 19 Ba
: 837 3 17 ~
* 841 3 17 by,
- 847
: 849 3 19 Ba
: 853 3 17 ~
: 857 3 17 by,
: 861 3 19  ba
: 865 3 17 ~
: 869 1 17 by
- 871
: 873 11 24 No
: 885 1 19 ~,
- 887
* 889 5 19 Like
- 895
: 897 3 19 Ba
: 901 3 17 ~
: 905 3 17 by,
- 911
: 913 3 19 Ba
: 917 3 17 ~
: 921 3 17 by,
: 925 3 19  ba
: 929 3 17 ~
: 933 1 17 by
- 935
: 937 11 22 Oh
: 949 3 19 ~
- 958
: 961 3 19 Thought
: 965 3 17  you'd
: 969 3 17  al
: 973 3 19 ~
: 977 3 19 ways
: 981 3 19  be
: 985 3 17 ~
: 989 3 19  mine
: 993 7 17 ~,
- 1002
: 1004 1 15 Mine
: 1006 2 17 ~
: 1009 9 15 ~
- 1023
: 1025 3 19 Ba
: 1029 3 17 ~
* 1033 3 17 by,
- 1039
: 1041 3 19 Ba
: 1045 3 17 ~
: 1049 3 17 by,
: 1053 3 19  ba
* 1057 3 17 ~
: 1061 1 17 by
- 1063
: 1065 11 22 Oh
: 1077 1 19 ~
- 1079
: 1081 5 19 Like
- 1087
: 1089 3 19 Ba
: 1093 3 17 ~
: 1097 3 17 by,
- 1103
* 1105 3 19 Ba
: 1109 3 17 ~
: 1113 3 17 by,
: 1117 3 19  ba
: 1121 3 17 ~
: 1125 1 17 by
- 1127
: 1129 11 24 No
: 1141 1 19 ~,
- 1143
: 1145 3 19 Like
- 1151
: 1153 3 19 Ba
: 1157 3 17 ~
: 1161 3 17 by,
- 1167
* 1169 3 19 Ba
: 1173 3 17 ~
: 1177 3 17 by,
: 1181 3 19  ba
: 1185 3 17 ~
: 1189 1 17 by
- 1191
: 1193 11 22 Oh
* 1205 3 19 ~
- 1214
: 1217 3 19 Thought
: 1221 3 17  you'd
: 1225 3 17  al
: 1229 3 19 ~
: 1233 3 19 ways
: 1237 3 19  be
: 1241 3 17 ~
: 1245 3 19  mine
: 1249 3 17 ~,
- 1258
: 1260 1 15 Mine
: 1262 2 17 ~
: 1265 9 15 ~
- 1275
: 1277 3 17 For
: 1281 3 19  you,
- 1290
: 1293 3 15 I
* 1297 3 15  would
: 1301 3 15  have
: 1305 3 22  done
: 1309 3 19  wha
: 1313 4 17 te
: 1319 1 17 ver
: 1321 3 15 ~
- 1330
: 1333 3 15 And
: 1337 3 15  I
: 1341 3 17  just
: 1345 3 20  can't
: 1349 3 19 ~
: 1353 3 17  be
: 1357 3 20 lieve
: 1361 3 19 ~
: 1365 3 19  we
: 1369 1 17  ain't
- 1371
: 1373 2 15 To
: 1376 2 15 ge
: 1379 3 17 ~
: 1383 1 17 ther
: 1385 4 15 ~
- 1395
: 1397 1 15 And
: 1399 2 15  I
* 1402 2 15  wan
: 1405 3 17 na
: 1409 5 19  play
: 1415 1 17  it
: 1417 5 19  cool
- 1430
: 1433 3 15 But
: 1437 3 12  I'm
: 1441 5 19  lo
: 1447 1 17 sin'
: 1449 5 19  you
- 1459
: 1461 3 15 I'll
: 1465 3 15  buy
: 1469 3 17  you
: 1473 7 19  a
: 1481 3 17 ny
: 1485 4 17 thing,
- 1491
: 1493 3 15 I'll
: 1497 3 15  buy
: 1501 3 17  you
: 1505 7 19  a
: 1513 3 17 ny
: 1517 5 17  ring
- 1523
* 1525 3 15 Cause
: 1529 3 15  I'm
: 1533 2 17  in
: 1537 6 19  pie
: 1545 3 17 ces
: 1549 3 15 ~
- 1558
: 1561 3 15 Ba
: 1565 2 17 by
: 1569 5 19  fix
: 1576 6 19  me
- 1590
: 1593 3 15 And
: 1597 3 17  just
: 1601 3 19  shake
: 1605 3 19  me
* 1609 3 17  til'
: 1613 3 15  you
: 1617 3 19  wake
: 1621 1 19  me
- 1623
: 1625 3 17 from
: 1629 3 15  this
: 1633 3 15  bad
: 1637 3 17 ~
: 1641 3 17  dream
: 1645 6 15 ~
- 1658
: 1661 3 12 I'm
* 1665 3 15  goin'
: 1669 3 17 ~
: 1673 8 19  down,
- 1684
: 1686 9 15 Down,
- 1697
: 1699 6 10 Down,
- 1706
* 1708 6 7 Down
- 1715
: 1717 3 17 And
: 1721 3 19  I
: 1725 3 19  just
: 1729 7 19  can't
: 1737 3 17  be
: 1741 3 17 lieve
: 1745 1 19 ~
- 1747
: 1749 3 19 My
: 1753 3 19  first
: 1757 3 19  love
: 1761 3 17 ~
: 1765 3 17  won't
: 1769 3 17  be
: 1773 3 15  a
: 1777 1 15 round
- 1779
: 1781 3 15 And
: 1785 3 15  I
* 1789 1 17  my
- 1791
: 1793 3 19 Ba
: 1797 3 17 ~
: 1801 3 17 by,
- 1807
: 1809 3 19 Ba
: 1813 3 17 ~
: 1817 3 17 by,
: 1821 3 19  ba
: 1825 3 17 ~
: 1829 1 17 by
- 1831
: 1833 11 22 Oh
* 1845 1 19 ~
- 1847
: 1849 5 19 Like
- 1855
: 1857 3 19 Ba
: 1861 3 17 ~
: 1865 3 17 by,
- 1871
: 1873 3 19 Ba
* 1877 3 17 ~
: 1881 3 17 by,
: 1885 3 19  ba
: 1889 3 17 ~
: 1893 1 17 by
- 1895
: 1897 11 24 No
: 1909 1 19 ~,
- 1911
: 1913 5 19 Like
- 1919
: 1921 3 19 Ba
: 1925 3 17 ~
: 1929 3 17 by,
- 1935
* 1937 3 19 Ba
: 1941 3 17 ~
: 1945 3 17 by,
: 1949 3 19  ba
: 1953 3 17 ~
: 1957 1 17 by
- 1959
: 1961 11 22 Oh
- 1981
: 1985 3 19 Thought
: 1989 3 17  you'd
* 1993 3 17  al
: 1997 3 19 ~
: 2001 3 19 ways
: 2005 3 19  be
: 2009 3 17 ~
: 2013 3 19  mine
: 2017 7 17 ~,
- 2026
: 2028 1 15 Mine
: 2030 2 17 ~
: 2033 9 15 ~
- 2047
: 2049 3 19 Ba
: 2053 3 17 ~
* 2057 3 17 by,
- 2063
: 2065 3 19 Ba
: 2069 3 17 ~
: 2073 3 17 by,
: 2077 3 19  ba
: 2081 3 17 ~
: 2085 1 17 by
- 2087
: 2089 11 22 Oh
* 2101 1 19 ~
- 2103
: 2105 5 19 Like
- 2111
: 2113 3 19 Ba
: 2117 3 17 ~
: 2121 3 17 by,
- 2127
* 2129 3 19 Ba
: 2133 3 17 ~
: 2137 3 17 by,
: 2141 3 19  ba
: 2145 3 17 ~
: 2149 1 17 by
- 2151
: 2153 11 24 No
: 2165 1 19 ~,
- 2167
: 2169 5 19 Like
- 2175
: 2177 3 19 Ba
: 2181 3 17 ~
* 2185 3 17 by,
- 2191
: 2193 3 19 Ba
: 2197 3 17 ~
: 2201 3 17 by,
: 2205 3 19  ba
: 2209 3 17 ~
: 2213 1 17 by
- 2215
: 2217 11 22 Oh
: 2229 3 19 ~
- 2238
* 2241 3 19 Thought
: 2245 3 17  you'd
: 2249 3 17  al
: 2253 3 19 ~
: 2257 3 19 ways
: 2261 3 19  be
: 2265 3 17 ~
: 2269 3 19  mine
: 2273 3 17 ~,
- 2282
: 2284 1 15 Mine
: 2286 2 17 ~
: 2289 6 15 ~
- 2296
: 2298 4 18 Lu
: 2303 4 17 da
- 2308
: 2310 3 17 When
: 2314 3 15  I
: 2318 3 13  was
: 2322 3 14  thir
: 2326 4 15 teen
: 2331 7 18 ~
- 2339
: 2341 3 17 I
: 2345 2 16  had
: 2348 1 13 ~
: 2350 2 13  my
: 2354 7 16  first
: 2362 6 16  love
- 2369
: 2371 1 19 There
* 2373 1 19  was
: 2375 1 19  no
: 2377 1 19 bo
: 2379 1 19 dy
: 2381 1 19  com
: 2383 1 19 pa
* 2385 3 19 red
: 2389 1 19  to
: 2391 1 19  my
: 2393 1 19  ba
: 2395 1 19 by
- 2396
: 2397 1 19 And
: 2399 1 19  no
: 2401 1 19 bo
: 2403 1 19 dy
: 2405 1 19  came
: 2407 1 19  bet
: 2409 1 19 ween
: 2411 1 19  us,
- 2412
: 2413 1 19 No
: 2415 1 19  could
: 2417 1 19  e
: 2419 1 19 ver
: 2421 1 19  come
: 2423 1 19  a
* 2425 8 19 bove
- 2435
: 2437 3 20 She
: 2441 3 17  had
: 2445 3 14  me
: 2449 3 15  going
: 2453 3 15 ~
: 2458 6 17  cra
: 2466 1 17 zy,
- 2468
: 2470 2 20 Oh
: 2473 3 18  I
: 2477 4 16  was
: 2482 6 16  star
: 2491 4 14 struck,
- 2500
: 2502 3 22 She
: 2506 3 18  woke
: 2510 3 15  me
: 2514 3 17  up
: 2521 3 22  dai
: 2525 3 17 ~
: 2529 1 17 ly,
- 2531
: 2533 3 17 Don't
: 2537 3 20  need
: 2541 3 17  no
: 2546 7 15  star
: 2554 6 19 bucks
- 2564
: 2566 3 22 She
: 2570 3 18  made
: 2574 3 15  my
: 2578 3 17  heart
: 2585 4 17  pound;
- 2593
: 2595 1 19 I
: 2597 1 19  skip
: 2599 1 18  a
* 2601 1 19  beat
- 2603
: 2605 1 19 When
: 2607 1 19  I
: 2609 1 19  see
: 2611 1 19  her
: 2613 1 19  in
: 2615 1 19  the
* 2617 3 22  street
: 2621 4 19  and
- 2626
: 2628 4 18 At
: 2633 3 22  school
: 2637 2 18  on
: 2640 2 15  the
: 2643 4 17  play
: 2648 10 17  ground
- 2659
: 2661 1 19 But
: 2663 1 19  I
: 2665 1 19  rea
: 2667 1 19 lly
: 2669 1 19  wan
: 2671 1 19 na
: 2673 1 19  see
: 2675 1 19  her
: 2677 1 19  on
: 2679 1 19  the
* 2681 3 22  wee
: 2685 4 19 kend
- 2691
: 2693 3 20 She
: 2697 3 20  knows
: 2701 3 19  she
: 2705 3 17  got
: 2709 3 14  me
: 2713 5 18  da
: 2719 3 17 zing
- 2723
: 2725 3 17 'Cuz
: 2729 3 20  she
: 2733 3 17  was
: 2737 3 15  so
: 2741 3 12  a
: 2745 3 19 ma
: 2749 3 21 ~
: 2753 2 16 zing
- 2756
: 2758 3 19 And
: 2762 3 19  now
: 2766 3 17  my
: 2770 3 19  heart
: 2774 3 17  is
: 2779 4 19  brea
* 2785 2 17 king
- 2788
: 2790 3 19 But
: 2794 3 19  I
: 2798 3 19  just
: 2802 3 19  keep
: 2806 3 19  on
: 2810 3 19  sa
: 2814 1 17 ying
- 2815
: 2817 3 19 Ba
: 2821 3 17 ~
: 2825 3 17 by,
- 2831
: 2833 3 19 Ba
: 2837 3 17 ~
: 2841 3 17 by,
: 2845 3 19  ba
: 2849 3 17 ~
: 2853 1 17 by
- 2855
* 2857 11 22 Oh
: 2869 1 19 ~
- 2871
: 2873 5 19 Like
- 2879
: 2881 3 19 Ba
: 2885 3 17 ~
: 2889 3 17 by,
- 2895
: 2897 3 19 Ba
: 2901 3 17 ~
: 2905 3 17 by,
: 2909 3 19  ba
: 2913 3 17 ~
* 2917 1 17 by
- 2919
: 2921 11 24 No
: 2933 1 19 ~,
- 2935
: 2937 5 19 Like
- 2943
: 2945 3 19 Ba
: 2949 3 17 ~
: 2953 3 17 by,
- 2959
: 2961 3 19 Ba
: 2965 3 17 ~
: 2969 3 17 by,
: 2973 3 19  ba
: 2977 3 17 ~
* 2981 1 17 by
- 2983
: 2985 11 22 Oh
: 2997 3 19 ~
- 3006
: 3009 3 19 Thought
: 3013 3 17  you'd
: 3017 3 17  al
: 3021 3 19 ~
: 3025 3 19 ways
: 3029 3 19  be
: 3033 3 17 ~
: 3037 3 19  mine
* 3041 3 17 ~,
- 3050
: 3052 1 15 Mine
* 3054 2 17 ~
: 3057 9 15 ~
- 3071
: 3073 3 19 Ba
: 3077 3 17 ~
: 3081 3 17 by,
- 3087
: 3089 3 19 Ba
: 3093 3 17 ~
: 3097 3 17 by,
: 3101 3 19  ba
: 3105 3 17 ~
: 3109 1 17 by
- 3111
: 3113 11 22 Oh
: 3125 1 19 ~
- 3127
* 3129 5 19 Like
- 3135
: 3137 3 19 Ba
: 3141 3 17 ~
: 3145 3 17 by,
- 3151
: 3153 3 19 Ba
: 3157 3 17 ~
: 3161 3 17 by,
: 3165 3 19  ba
: 3169 3 17 ~
: 3173 1 17 by
- 3175
: 3177 11 24 No
: 3189 1 19 ~,
- 3191
* 3193 3 19 Like
- 3199
: 3201 3 19 Ba
: 3205 3 17 ~
: 3209 3 17 by,
- 3215
* 3217 3 19 Ba
: 3221 3 17 ~
: 3225 3 17 by,
: 3229 3 19  ba
: 3233 3 17 ~
: 3237 1 17 by
- 3239
: 3241 11 22 Oh
: 3253 3 19 ~
- 3262
: 3265 3 19 Thought
: 3269 3 17  you'd
: 3273 3 17  al
: 3277 3 19 ~
: 3281 3 19 ways
: 3285 3 19  be
: 3289 3 17 ~
: 3293 3 19  mine
: 3297 3 17 ~,
- 3308
: 3311 9 14 I'm
: 3321 3 15 ~
: 3325 8 15  gone
- 3350
: 3369 3 10 Now
* 3373 7 14  I'm
: 3381 3 14  all
: 3385 3 15 ~
: 3389 7 15  gone
- 3413
: 3433 3 14 Now
: 3437 7 14  I'm
: 3445 3 14  all
: 3449 3 15 ~
: 3453 7 15  gone
- 3477
: 3497 3 14 Now
: 3501 7 14  I'm
* 3509 3 14  all
: 3513 3 15 ~
: 3517 3 15  gone
: 3521 7 17 ~,
- 3531
: 3533 3 19 Gone
: 3537 7 17 ~,
- 3547
: 3549 3 19 Gone
: 3553 7 17 ~,
- 3563
* 3565 3 14 I'm
* 3569 7 14 ~
* 3577 3 15 ~
* 3581 8 15 gone
E