#TITLE:Mirrors
#ARTIST:Justin Timberlake
#LANGUAGE:English
#GENRE:Pop
#YEAR:2013
#CREATOR:gun88
#MP3:Justin Timberlake - Mirrors.mp3
#COVER:Justin Timberlake - Mirrors [CO].jpg
#VIDEO:Justin Timberlake - Mirrors.mp4
#END:496000
#BPM:231
#GAP:29970
#MEDLEYSTARTBEAT:3058
#MEDLEYENDBEAT:3812
: 0 2 12 Aren't
: 3 3 14  you
: 7 7 15  some
: 16 3 7 thin'
- 23
: 25 2 7 To
: 28 3 7  ad
* 32 7 14 mire
: 40 4 5 ~?
- 48
: 50 2 5 Cause
: 53 3 3  your
: 57 5 12  shine
- 63
: 65 2 3 Is
: 68 2 3  some
: 71 2 3 thin'
: 74 2 3  like
: 77 2 3  a
: 80 5 12  mir
: 87 1 12 ror
- 89
: 91 1 12 And
: 93 1 12  I
: 95 1 12  can't
: 97 2 12  help
* 101 1 14  but
* 103 6 15  no
: 111 4 7 tice
- 119
: 121 2 7 You
: 124 3 7  re
: 128 5 14 flect
: 136 2 5  in
: 139 2 5  this
: 142 2 5  heart
: 145 2 3  of
: 148 8 12  mine
- 171
: 193 2 12 If
: 196 2 14  you
: 200 4 15  e
: 205 3 15 ver
: 209 4 17 ~
: 217 2 12  feel
: 220 2 12  a
: 223 6 14 lone
: 231 6 5  and
- 242
: 244 2 5 The
: 247 6 12  glare
: 255 2 5  makes
: 259 2 5  me
: 262 2 5  hard
: 265 2 3  to
: 268 8 12  find
- 281
: 283 2 12 Just
: 286 2 12  know
: 289 2 12  that
: 292 2 14  I'm
: 295 8 15  al
: 305 4 7 ways
- 312
: 314 2 7 Pa
* 317 2 7 ral
* 320 5 14 lel
: 328 2 5  on
: 331 2 5  the
: 334 2 5  o
: 337 2 3 ther
: 341 10 12  side
- 361
: 373 2 12 Cause
: 376 2 12  with
: 379 2 12  your
: 382 2 12  hand
: 385 2 14  in
: 388 3 15  my
: 392 4 17  hand
- 398
: 400 2 17 And
: 403 2 15  a
: 406 2 17  pock
: 409 2 15 et
: 412 1 17  full
: 414 2 17  of
: 418 3 17  soul
- 422
: 424 2 17 I
: 427 2 17  can
: 430 2 17  tell
: 433 2 17  you
: 436 2 15  there's
: 439 6 19  no
- 447
: 449 3 17 Place
: 454 2 17  we
: 457 2 17  couldn't
: 460 2 15 ~
: 463 2 12  go
- 467
: 469 2 12 Just
: 472 2 12  put
: 475 2 12  your
: 478 2 12  hand
: 481 2 14  on
* 484 2 15  the
* 487 4 17  glass
- 494
: 496 2 17 I'm
: 499 2 17  here
: 502 2 17  tryin'
: 505 2 15  to
: 508 2 19  pull
: 511 2 19  you
: 515 2 17  through
- 518
: 520 2 17 You
: 523 2 17  just
: 526 2 17  got
: 529 2 15 ta
: 532 2 12  be
: 536 6 12  strong
: 544 7 15 ~
: 554 4 17 ~
- 560
: 562 2 19 I
: 565 2 19  don't
: 568 2 19  wan
: 571 2 19 na
: 574 5 19  lose
: 580 2 15  you
: 583 7 19  now
: 591 4 17 ~
- 599
: 601 2 15 I'm
: 604 2 15  look
: 607 2 15 in'
: 610 4 19  right
: 615 2 19  at
: 618 2 19  the
: 621 4 19  o
: 627 2 19 ther
: 631 2 19  half
: 634 2 17  of
: 637 6 17  me
- 652
* 655 2 19 The
* 658 2 19  va
: 661 2 19 can
: 664 2 19 cy
: 667 2 19  that
: 670 2 19  sat
: 673 2 17  in
: 676 2 15  my
* 679 5 20  heart
: 686 4 19 ~
- 695
: 697 2 17 Is
: 700 2 15  a
: 703 9 17  space
: 714 2 14  that
: 717 3 14  now
: 721 2 12  you
: 725 9 12  hold
- 744
: 754 3 19 Show
: 758 2 19  me
: 761 1 19  how
: 763 2 19  to
: 766 4 19  fight
: 771 3 17  for
: 775 7 19  now
: 784 2 15 ~
- 793
: 796 2 17 And
: 799 2 17  I'll
: 802 2 17  tell
: 805 2 17  you
: 808 2 17  ba
: 811 2 17 by
: 818 2 17  it
: 821 3 19  was
: 825 7 20  ea
: 833 2 19 sy
- 836
: 838 2 17 Com
: 841 2 15 in'
: 844 2 15  back
: 847 2 15  here
: 850 2 15  to
: 853 2 15  you
: 856 2 15  once
: 859 2 15  I
: 862 2 15  fi
: 865 2 15 gured
: 868 3 17  it
: 872 5 19  out
: 879 6 17 ~
- 887
: 889 3 17 You
* 893 3 15  were
* 897 7 17  right
: 905 3 14  here
: 909 3 14  all
: 914 2 14  a
: 918 6 12 long
- 939
: 955 2 19 It's
: 958 2 19  like
: 961 2 17  you're
: 964 2 15  my
: 967 5 17  mir
: 975 4 19 ror
- 985
F 987 1 3 Ho
F 991 1 -2  ho
- 998
: 1000 2 19 My
: 1003 2 19  mir
: 1006 2 19 ror
: 1009 2 19  star
: 1012 2 19 ing
: 1015 1 19  back
: 1017 2 19  at
: 1021 6 17  me
- 1034
F 1037 1 12 Ho
F 1039 1 8  ho
- 1043
: 1045 2 19 I
: 1048 2 19  couldn't
: 1051 2 19 ~
: 1054 2 19  get
: 1057 2 17  a
* 1060 2 15 ny
* 1064 4 17  big
: 1071 4 19 ger
- 1081
F 1083 1 3 Ho
F 1087 1 5  ho
- 1091
: 1093 2 19 With
: 1096 2 19  a
: 1099 2 19 ny
: 1102 2 19 one
: 1105 2 19  else
: 1108 2 19  be
: 1111 4 19 side
: 1117 3 19  me
: 1121 5 17 ~
- 1131
F 1133 1 12 Ho
F 1135 1 8  ho
- 1139
: 1141 2 19 And
: 1144 2 19  now
: 1147 2 19  it's
: 1150 2 19  clear
: 1153 2 17  as
: 1156 2 15  this
: 1160 7 17  prom
: 1169 4 19 ise
- 1175
* 1177 3 20 That
: 1181 2 19  we're
: 1185 7 17  mak
: 1193 6 14 ing
- 1200
: 1202 2 14 Two
: 1205 2 12  re
: 1208 7 12 flect
: 1216 4 8 ions
: 1224 2 8  in
: 1227 2 7 to
: 1230 6 7  one
- 1238
: 1240 2 19 Cause
: 1243 2 19  it's
: 1246 2 19  like
: 1249 2 17  you're
: 1252 3 15  my
: 1256 5 17  mir
: 1263 4 19 ror
- 1274
F 1277 1 15 Ho
F 1279 1 10  ho
- 1286
* 1288 2 19 My
* 1291 2 19  mir
: 1294 2 19 ror
: 1297 2 19  star
: 1300 2 19 ing
: 1303 2 19  back
: 1306 2 19  at
: 1310 6 17  me
- 1319
: 1321 2 19 Star
: 1324 2 19 ing
: 1327 2 19  back
: 1330 2 19  at
: 1333 6 17  me
- 1343
: 1345 2 12 Aren't
: 1348 2 14  you
: 1351 7 15  some
: 1359 4 7 thin'
- 1368
: 1370 2 7 An
: 1373 2 7  o
: 1376 3 14 ri
: 1380 3 14 gi
: 1384 6 5 nal
- 1393
: 1395 2 5 Cause
: 1398 2 5  it
: 1401 7 12  doesn't
: 1409 2 3 ~
: 1412 2 3  seem
: 1415 2 3  mere
: 1418 2 3 ly
: 1421 1 5  as
: 1423 6 12 sem
: 1430 2 12 bled
- 1434
: 1436 1 12 And
: 1438 1 12  I
: 1440 1 12  can't
: 1442 1 12  help
: 1444 2 14  but
: 1447 8 15  stare
: 1457 4 7  cause
- 1463
: 1465 2 7 I
: 1469 1 7  see
: 1471 6 14  truth
: 1479 3 14  some
* 1483 2 14 where
* 1486 2 14  in
* 1489 4 12  your
: 1494 10 12  eyes
- 1514
: 1529 4 15 Uh
- 1536
: 1538 2 19 I
: 1541 2 17  can't
: 1545 5 17  e
: 1551 4 15 ver
: 1561 2 15  change
: 1565 1 14  with
: 1567 6 14 out
: 1575 6 12  you
- 1583
: 1585 2 12 You
: 1588 2 10  re
: 1591 6 12 flect
: 1599 1 10  me
- 1601
: 1603 2 10 I
: 1606 2 10  love
: 1609 2 10  that
: 1612 2 7  a
: 1615 6 10 bout
: 1623 4 12  you
- 1629
: 1631 2 12 And
: 1634 2 12  if
: 1637 1 14  I
* 1639 6 15  could
: 1649 4 7  I
- 1655
: 1657 2 7 Would
: 1660 3 7  look
: 1664 5 14  at
: 1671 6 14  us
: 1679 2 15  all
: 1682 2 17  the
: 1685 11 17  time
- 1706
: 1717 2 19 Cause
: 1720 2 19  with
: 1723 2 19  your
: 1726 2 17  hand
: 1729 2 15  in
: 1732 3 12  my
: 1736 4 17  hand
- 1742
: 1744 2 17 And
: 1747 2 15  a
: 1750 2 17  pock
: 1753 2 15 et
: 1756 2 17  full
: 1759 3 17  of
: 1763 2 17  soul
- 1766
: 1768 2 17 I
: 1771 2 17  can
: 1774 2 17  tell
: 1777 2 17  you
: 1780 2 15  there's
: 1783 6 19  no
- 1791
: 1793 3 17 Place
: 1797 2 19  we
: 1801 2 17  couldn't
: 1804 2 15 ~
* 1807 1 17  go
* 1809 1 15 ~
- 1811
: 1813 2 12 Just
: 1816 2 12  put
: 1819 2 12  your
: 1822 2 12  hand
: 1825 2 14  on
: 1828 2 15  the
: 1832 4 17  glass
- 1837
: 1839 2 17 I'm
: 1842 2 17  here
: 1845 2 17  tryin'
: 1848 2 15  to
: 1851 2 19  pull
: 1854 2 19  you
: 1858 2 17  through
- 1862
: 1864 2 17 You
: 1867 2 17  just
: 1870 2 22  got
: 1873 2 19 ta
: 1876 2 17  be
: 1880 7 12  strong
: 1889 8 15 ~
: 1899 4 17 ~
- 1904
: 1906 2 19 I
: 1909 2 19  don't
: 1912 2 19  wan
: 1915 3 19 na
: 1919 4 22  lose
: 1924 2 19  you
: 1928 6 19  now
: 1935 4 17 ~
- 1945
: 1947 1 15 I'm
: 1949 1 15  look
: 1951 2 15 in'
* 1955 4 19  right
: 1960 2 19  at
: 1963 2 19  the
: 1967 4 19  o
: 1972 2 19 ther
: 1976 3 19  half
: 1980 1 17  of
: 1982 6 17  me
- 1997
: 2000 2 19 The
: 2003 2 19  va
: 2006 2 19 can
: 2009 2 19 cy
: 2012 2 19  that
: 2015 2 19  sat
: 2018 2 17  in
: 2021 2 15  my
: 2024 7 20  heart
: 2032 4 19 ~
- 2039
: 2041 2 17 Is
: 2044 2 15  a
: 2047 6 17  space
: 2059 2 14  that
: 2062 3 14  now
: 2066 2 12  you
: 2069 2 17  hold
: 2073 2 15 ~
: 2077 2 12 ~
- 2089
: 2098 2 19 Show
: 2101 2 19  me
: 2104 2 19  how
: 2107 2 19  to
: 2110 4 19  fight
: 2116 3 17  for
: 2120 7 19  now
: 2128 2 15 ~
- 2137
: 2140 2 17 And
: 2143 2 17  I'll
: 2146 2 17  tell
: 2149 2 17  you
: 2152 2 17  ba
: 2155 2 17 by
: 2161 2 17  it
: 2164 2 19  was
: 2168 7 20  ea
: 2176 3 19 sy
- 2180
: 2182 2 17 Com
: 2185 2 15 in'
: 2188 2 15  back
: 2191 2 15  here
: 2194 2 15  to
: 2197 2 15  you
: 2200 2 15  once
: 2203 2 15  I
: 2206 2 15  fi
: 2209 2 15 gured
: 2212 3 17  it
* 2216 5 19  out
* 2223 6 17 ~
- 2230
: 2232 3 17 You
: 2236 2 15  were
: 2239 8 17  right
: 2248 3 17  here
: 2252 3 17  all
: 2256 2 17  a
: 2259 8 15 long
: 2269 6 17 ~
: 2277 4 19 ~
- 2285
: 2287 2 19 Ho
- 2296
: 2299 2 19 It's
: 2302 2 19  like
: 2305 2 17  you're
: 2308 2 15  my
: 2311 5 17  mir
: 2319 4 19 ror
- 2329
F 2331 1 3 Ho
F 2335 1 -2  ho
- 2342
* 2344 2 19 My
* 2347 2 19  mir
: 2350 2 19 ror
: 2353 2 19  star
: 2356 2 19 ing
: 2359 2 19  back
: 2362 2 19  at
: 2365 6 17  me
- 2378
F 2381 1 12 Ho
F 2383 1 8  ho
- 2387
: 2389 2 19 I
: 2392 2 19  couldn't
: 2395 2 19 ~
: 2398 3 19  get
: 2402 2 17  a
: 2405 3 15 ny
: 2409 5 17  big
: 2415 4 19 ger
- 2425
F 2427 1 3 Ho
F 2431 1 5  ho
- 2435
: 2437 2 19 With
: 2440 2 19  a
: 2443 2 19 ny
: 2446 2 19 one
: 2449 2 19  else
* 2452 2 19  be
* 2455 2 19 side
* 2460 3 17  me
: 2467 6 19 ~
- 2475
F 2477 1 12 Ho
F 2479 1 8  ho
- 2483
: 2485 2 19 And
: 2488 2 19  now
: 2491 2 19  it's
: 2494 2 19  clear
: 2497 2 17  as
: 2500 3 15  this
: 2504 7 24  prom
: 2513 4 22 ise
- 2519
* 2521 3 24 That
* 2525 2 22  we're
* 2529 7 19  mak
* 2537 4 17 ing
- 2545
: 2547 3 17 Two
: 2551 1 15  re
: 2553 7 17 flect
: 2561 4 15 ions
: 2569 3 15  in
: 2573 2 17 to
: 2577 4 19  one
- 2582
: 2584 2 19 Cause
: 2587 2 19  it's
: 2590 2 19  like
: 2593 2 17  you're
: 2596 3 15  my
* 2600 5 17  mir
* 2607 4 19 ror
- 2618
F 2621 1 15 Ho
F 2623 1 10  ho
- 2630
: 2632 2 19 My
: 2635 2 19  mir
: 2638 2 19 ror
: 2641 2 19  star
: 2644 2 19 ing
: 2647 3 19  back
: 2651 2 19  at
: 2654 6 17  me
- 2663
: 2665 2 19 Star
: 2668 2 19 ing
: 2671 2 19  back
: 2674 2 19  at
: 2677 5 17  me
- 2712
: 2751 2 19 Yest
: 2755 2 19 er
: 2759 6 19 day's
: 2768 4 19  his
: 2773 2 17 to
: 2776 5 17 ry
: 2782 3 19 ~
- 2789
: 2791 2 15 Ho
- 2808
: 2849 3 15 To
: 2853 3 19 mor
: 2857 4 19 row's
* 2862 2 19  a
* 2865 3 22  mys
* 2869 2 19 te
: 2872 6 19 ry~
- 2883
: 2885 7 17 Aww
: 2893 2 15 ~
- 2910
: 2941 2 19 I
: 2944 2 19  can
: 2947 2 19  see
: 2950 2 19  you
: 2953 2 19  look
: 2956 2 19 in'
: 2959 2 19  back
: 2962 2 19  at
: 2965 5 17  me
: 2972 2 19 ~
- 2977
: 2979 2 19 Keep
: 2982 2 19  your
: 2985 2 17  eyes
: 2988 2 17  on
: 2991 5 19  me
- 3006
: 3015 4 15 Ba
: 3022 2 15 by
: 3026 2 15  keep
: 3029 2 17  your
: 3032 2 19  eyes
: 3035 3 15  on
: 3039 5 17  me
: 3045 4 19 ~
- 3055
: 3058 2 19 I
: 3061 2 19  don't
: 3064 2 19  wan
: 3067 2 19 na
* 3071 4 22  lose
* 3077 1 19  you
: 3079 7 19  now
: 3087 4 17 ~
- 3096
: 3098 2 15 I'm
: 3101 2 15  look
: 3104 2 15 in'
: 3107 4 19  right
: 3112 2 19  at
: 3115 2 19  the
: 3118 3 19  o
: 3123 4 19 ther
: 3128 3 19  half
: 3132 2 17  of
: 3135 6 17  me
- 3149
: 3152 2 19 The
: 3155 2 19  va
: 3158 2 19 can
: 3161 2 19 cy
: 3164 2 19  that
: 3167 2 19  sat
: 3170 2 17  in
: 3173 3 15  my
: 3177 5 20  heart
: 3183 3 19 ~
- 3191
: 3193 2 17 Is
: 3196 2 15  a
: 3199 9 17  space
: 3211 2 14  that
: 3214 2 14  now
: 3217 3 12  you
: 3221 6 12  hold
- 3242
: 3282 3 19 Show
: 3286 2 17  me
: 3289 4 17  ba
: 3295 4 19 by
- 3307
: 3310 2 17 And
* 3313 2 17  it
* 3316 2 19  was
: 3320 6 20  ea
: 3327 4 19 sy
- 3333
: 3335 2 17 Com
: 3338 2 15 in'
: 3341 1 15  back
: 3343 1 15  here
: 3345 2 15  to
: 3348 2 15  you
: 3351 2 15  once
: 3354 2 15  I
: 3357 2 15  fi
: 3360 2 15 gured
: 3363 3 17  it
: 3368 5 19  out
: 3375 2 17 ~
- 3383
: 3385 3 17 You
: 3389 3 15  were
: 3393 5 17  right
: 3400 3 14  here
: 3405 2 14  all
: 3408 2 14  a
: 3412 7 12 long
: 3421 6 15 ~
: 3429 4 17 ~
- 3437
: 3439 2 19 Ho
- 3448
: 3451 2 19 It's
: 3454 2 19  like
: 3457 2 17  you're
: 3460 2 15  my
: 3463 5 17  mir
: 3471 4 19 ror
- 3481
F 3483 1 3 Ho
F 3487 1 -2  ho
- 3494
* 3496 2 19 My
* 3499 2 19  mir
: 3502 2 19 ror
: 3505 2 19  star
: 3508 2 19 ing
: 3511 2 19  back
: 3514 2 19  at
: 3517 6 17  me
- 3530
F 3533 1 12 Ho
F 3535 1 8  ho
- 3539
: 3541 2 19 I
: 3544 2 19  couldn't
: 3547 2 19 ~
: 3550 3 19  get
: 3554 2 17  a
: 3557 3 15 ny
: 3561 5 17  big
: 3567 4 19 ger
- 3577
F 3579 1 3 Ho
F 3583 1 5  ho
- 3587
: 3589 2 19 With
: 3592 2 19  a
: 3595 2 19 ny
: 3598 2 19 one
* 3601 2 19  else
* 3604 2 19  be
* 3607 2 19 side
: 3612 3 17  me
: 3619 6 19 ~
- 3627
F 3629 1 12 Ho
F 3631 1 8  ho
- 3635
: 3637 2 19 And
: 3640 2 19  now
: 3643 2 19  it's
: 3646 2 19  clear
* 3649 2 17  as
* 3652 3 15  this
* 3656 7 24  prom
* 3665 4 22 ise
- 3671
: 3673 3 24 That
: 3677 2 22  we're
: 3681 7 19  mak
: 3689 4 17 ing
- 3697
: 3699 3 17 Two
: 3703 1 15  re
: 3705 7 17 flect
: 3713 4 15 ions
: 3721 3 15  in
: 3725 2 17 to
: 3729 4 19  one
- 3734
: 3736 2 19 Cause
: 3739 2 19  it's
: 3742 2 19  like
: 3745 2 17  you're
* 3748 3 15  my
* 3752 5 17  mir
: 3759 4 19 ror
- 3770
F 3773 1 15 Ho
F 3775 1 10  ho
- 3782
: 3784 2 19 My
: 3787 2 19  mir
: 3790 2 19 ror
: 3793 2 19  star
: 3796 2 19 ing
: 3799 3 19  back
: 3803 2 19  at
: 3806 6 17  me
- 3815
: 3817 2 19 Star
: 3820 2 19 ing
: 3823 2 19  back
: 3826 2 19  at
: 3829 5 17  me
- 3840
: 3842 2 15 Ah
: 3845 2 17 ~
: 3849 38 22 ~
- 3888
* 3890 2 20 Ah
* 3893 3 19 ~
: 3897 16 17 ~
- 3923
: 3938 2 15 Ah
: 3941 2 17 ~
: 3945 37 22 ~
- 3983
: 3985 1 20 ...
- 3986
F 3986 1 20 BUY SWAROVSKI
- 3987
F 3987 1 20 BUY SWAROVSKI
- 3988
F 3988 1 20 BUY SWAROVSKI
- 3989
F 3989 1 20 BUY SWAROVSKI
- 3990
F 3990 1 20 BUY SWAROVSKI
- 3991
F 3991 1 20 BUY SWAROVSKI
- 3992
F 3992 1 20 BUY SWAROVSKI
- 3993
F 3993 1 20 BUY SWAROVSKI
- 3994
F 3994 1 20 BUY SWAROVSKI
- 3995
F 3995 1 20 BUY SWAROVSKI
- 3996
F 3996 1 20 BUY SWAROVSKI
- 3997
F 3997 1 20 BUY SWAROVSKI
- 3998
F 3998 1 20 BUY SWAROVSKI
- 3999
F 3999 1 20 BUY SWAROVSKI
- 4000
F 4000 1 20 BUY SWAROVSKI
- 4001
: 4022 2 15 Ah
: 4025 2 17 ~
: 4028 3 19 ~
- 4032
: 4034 2 15 Ah
: 4037 2 17 ~
: 4041 38 22 ~
- 4080
* 4082 2 24 Ah
* 4085 3 19 ~
: 4089 16 17 ~
- 4115
: 4129 2 15 Wooh
: 4132 2 17 ~
: 4135 21 19 ~
: 4160 12 17 ~
- 4175
: 4177 3 15 Ah
: 4181 3 14 ~
: 4185 10 12 ~
- 4210
: 4229 3 15 Eh
: 4233 10 10  eh
- 4258
: 4301 2 12 Ho
: 4304 2 8  ho
: 4313 2 7  ho
: 4316 2 5  ho
: 4325 2 7  ho
: 4328 2 3  ho
- 4340
* 4348 2 15 Ho
* 4351 4 17  ho
- 4370
: 4397 2 12 Ho
: 4400 2 8  ho
: 4409 2 7  ho
: 4412 2 5  ho
: 4421 2 7  ho
: 4424 2 3  ho
- 4436
: 4444 2 15 Ho
: 4447 4 10  ho
- 4466
: 4493 2 12 Ho
: 4496 2 8  ho
: 4505 2 7  ho
: 4508 2 5  ho
: 4517 2 7  ho
: 4520 2 3  ho
- 4532
* 4542 2 15 Ho
* 4545 4 17  ho
- 4564
: 4589 2 12 Ho
: 4592 2 8  ho
: 4601 2 7  ho
: 4604 2 5  ho
: 4613 2 7  ho
: 4616 2 3  ho
- 4622
F 4624 1 0 ...are
- 4628
F 4630 1 0 You
- 4634
F 4636 1 0 Are
- 4640
F 4642 1 0 The
- 4646
F 4648 1 0 Love
- 4652
F 4654 1 0 Of
- 4655
F 4657 1 0 My
- 4658
F 4660 1 0 Life
- 4664
F 4666 1 0 You
- 4670
F 4672 1 0 Are
- 4676
F 4678 1 0 You
- 4682
F 4684 1 0 Are
- 4688
F 4690 1 0 The
- 4694
F 4696 1 0 Love...
- 4703
* 4706 2 15 Ah
* 4709 2 17 ~
: 4713 38 22 ~
- 4752
: 4754 2 20 Ah
: 4757 3 19 ~
: 4761 16 17 ~
- 4787
: 4802 2 15 Ah
: 4805 2 17 ~
: 4809 38 22 ~
- 4848
: 4850 2 20 Ah
: 4853 3 19 ~
: 4857 16 17 ~
- 4882
* 4886 2 15 Ah
* 4889 2 17 ~
* 4892 3 19 ~
- 4896
: 4898 2 15 Ah
: 4901 2 17 ~
: 4905 38 22 ~
- 4944
: 4946 2 24 Ah
: 4949 3 19 ~
: 4953 16 17 ~
- 4979
: 4993 2 15 Wooh
: 4996 2 17 ~
: 4999 21 19 ~
: 5024 12 17 ~
- 5039
: 5041 3 15 Ah
: 5045 3 14 ~
: 5049 10 12 ~
- 5069
: 5089 2 15 Ba
: 5092 2 15 by you're
: 5095 2 17  the
: 5098 2 19  in
: 5103 4 19 spir
: 5110 2 19 a
: 5115 4 19 tion
- 5121
: 5123 3 17 For
: 5129 3 17  this
* 5134 4 19  pre
: 5139 3 12 cious
: 5143 10 15  song
- 5163
: 5179 2 15 And
: 5182 2 15  I
: 5185 2 14  just
: 5188 2 15  wan
: 5191 2 17 na
: 5194 4 19  see
: 5200 3 19  your
: 5206 3 19  face
- 5211
: 5213 4 22 Light
: 5219 4 17  up
: 5224 2 17  since
: 5227 2 17  you
: 5230 4 19  put
: 5236 2 12  me
: 5239 6 15  on
- 5255
: 5275 2 15 So
: 5278 2 15  now
: 5281 2 15  I
: 5284 2 15  say
: 5287 2 17  good
: 5290 2 19 bye
: 5293 2 17 ~
: 5296 1 15  to
- 5298
: 5300 2 14 The
: 5303 5 12  old
: 5309 8 17  me it's
: 5321 2 15  al
: 5327 3 14 rea
: 5331 2 10 dy
: 5335 5 10  gone
: 5341 6 8 ~
- 5357
: 5377 2 15 And
: 5380 2 15  I
: 5383 2 17  can't
* 5386 3 19  wait
: 5392 3 19  wait
: 5398 3 19  wait
: 5404 3 19  wait
- 5408
: 5410 4 17 Wait
: 5416 4 17  to
: 5422 5 19  get
: 5428 2 15  you
: 5431 4 15  home
- 5442
: 5445 3 19 Just
: 5449 1 17  to
: 5451 3 15  let
: 5455 3 12  you
: 5459 8 17  know
- 5469
: 5471 2 17 You
: 5475 7 17  are
: 5483 34 22 ~
: 5523 1 20 ~
: 5525 3 19 ~
: 5529 8 17 ~
- 5552
: 5570 2 15 Ah
: 5573 2 17 ~
: 5577 38 22 ~
- 5616
* 5618 2 20 Ah
* 5621 3 19 ~
: 5625 16 17 ~
- 5650
: 5654 2 15 Ah
: 5657 2 17 ~
: 5660 3 19 ~
- 5664
: 5666 2 15 Ah
: 5669 2 17 ~
: 5673 38 22 ~
- 5712
: 5714 2 24 Ah
: 5717 3 19 ~
: 5721 16 17 ~
- 5747
: 5762 2 15 Wooh
: 5765 2 17 ~
: 5768 21 19 ~
: 5793 12 17 ~
- 5808
: 5810 3 15 Ah
: 5814 3 14 ~
: 5818 10 12 ~
- 5838
: 5854 2 19 Girl
: 5857 2 17  you're
: 5860 2 15  my
: 5863 2 12  re
* 5866 4 15 flec
: 5872 4 19 tion
- 5886
: 5902 2 19 All
: 5905 2 17  I
: 5908 2 15  see
: 5911 2 12  is
: 5915 4 17  you
- 5934
: 5955 2 17 My
: 5958 2 15  re
: 5961 5 17 flec
: 5969 5 19 tion
- 5984
: 5994 2 22 In
: 5997 2 22  e
: 6000 2 20 very
: 6003 2 19 thing
: 6006 2 17  I
: 6010 6 17  do
- 6031
: 6049 2 17 You're
: 6052 2 17  my
* 6055 2 15  re
: 6058 4 17 flec
: 6064 4 19 tion
- 6078
: 6091 2 22 And
: 6094 2 22  all
: 6097 5 20  I
: 6103 5 19  see
: 6109 4 22  is
: 6115 8 17  you
- 6133
: 6147 3 17 My
: 6151 3 15  re
: 6155 5 17 flec
: 6161 4 19 tion
- 6175
: 6187 1 15 In
: 6189 3 15  e
: 6193 3 14 very
: 6197 1 12 thing
: 6199 3 10  I
: 6203 10 12  do
- 6223
: 6242 2 15 Ah
: 6245 2 17 ~
: 6249 38 22 ~
- 6288
: 6290 2 20 Ah
: 6293 3 19 ~
: 6297 16 17 ~
- 6323
* 6338 2 15 Ah
* 6341 2 17 ~
: 6345 38 22 ~
- 6384
: 6386 2 20 Ah
: 6389 3 19 ~
: 6393 16 17 ~
- 6418
: 6422 2 15 Ah
: 6425 2 17 ~
: 6428 3 19 ~
- 6432
: 6434 2 15 Ah
: 6437 2 17 ~
: 6441 38 22 ~
- 6480
* 6482 2 24 Ah
* 6485 3 19 ~
: 6489 16 17 ~
- 6515
: 6529 2 15 Wooh
: 6532 2 17 ~
: 6535 21 19 ~
: 6560 12 17 ~
- 6575
: 6577 3 15 Ah
: 6581 3 14 ~
: 6585 10 12 ~
- 6610
: 6628 3 15 Eh
: 6632 8 10  eh
- 6644
F 6646 1 19 You
- 6650
F 6652 1 17 Are
- 6656
F 6658 1 17 The
- 6662
F 6664 1 17 Love
- 6668
F 6670 1 17 Of
- 6671
F 6672 1 17 My
- 6674
F 6676 1 17 Life
- 6680
F 6682 1 19 You
- 6686
F 6688 1 17 Are
- 6692
F 6694 1 19 You
- 6698
F 6700 1 17 Are
- 6704
F 6706 1 17 The
- 6710
F 6712 1 17 Love
- 6716
F 6718 1 17 Of
- 6719
F 6720 1 17 My
- 6722
F 6724 1 17 Life
- 6728
F 6730 1 19 You
- 6734
F 6736 1 17 Are
- 6740
F 6742 1 19 You
- 6746
F 6748 1 17 Are
- 6752
F 6754 1 17 The
- 6758
F 6760 1 17 Love
- 6764
F 6766 1 17 Of
- 6767
F 6768 1 17 My
- 6770
F 6772 1 17 Life
- 6776
F 6778 1 19 You
- 6782
F 6784 1 17 Are
- 6788
F 6790 1 19 You
- 6794
F 6796 1 17 Are
- 6800
F 6802 1 17 The
- 6806
F 6808 1 17 Love
- 6812
F 6814 1 17 Of
- 6815
F 6816 1 17 My
- 6818
F 6820 1 17 Life
- 6824
F 6826 1 19 You
- 6830
F 6832 1 17 Are
- 6836
F 6838 1 19 You
- 6842
F 6844 1 17 Are
- 6848
F 6850 1 17 The
- 6854
F 6856 1 17 Love
- 6860
F 6862 1 17 Of
- 6863
F 6864 1 17 My
- 6866
F 6868 1 17 Life
- 6872
F 6874 1 19 You
- 6878
F 6880 1 17 Are
- 6884
F 6886 1 19 You
- 6890
F 6892 1 17 Are
- 6896
F 6898 1 17 The
- 6902
F 6904 1 17 Love
- 6908
F 6910 1 17 Of
- 6911
F 6912 1 17 My
- 6914
F 6916 1 17 Life
- 6920
F 6922 1 19 You
- 6926
F 6928 1 17 Are
- 6932
F 6934 1 19 You
- 6938
F 6940 1 17 Are
- 6944
F 6946 1 17 The
- 6950
F 6952 1 17 Love
- 6956
F 6958 1 17 Of
- 6959
F 6960 1 17 My
- 6962
F 6964 1 17 Life
- 6968
F 6970 1 19 You
- 6974
F 6976 1 17 Are
- 6980
F 6982 1 19 You
- 6986
F 6988 1 17 Are
- 6992
F 6994 1 17 The
- 6998
F 7000 1 17 Love
- 7004
F 7006 1 17 Of
- 7007
F 7008 1 17 My
- 7010
F 7012 1 17 Life
E
