#TITLE:Another life (12 Inch Extended Version)
#ARTIST:Kano
#MP3:Kano - Another life (12 Inch Extended Version).mp3
#VIDEO:Kano - Another life (12 Inch Extended Version).mp4
#COVER:Kano - Another life (12 Inch Extended Version).jpg
#BPM:235.06
#GAP:55645
#VIDEOGAP:0.2
#ENCODING:UTF8
#LANGUAGE:English
#GENRE:Dance
#YEAR:1983
#CREATOR:asb
: 0 1 0 Here
: 2 1 2  we
: 4 3 4  are
: 8 1 5  at
: 12 1 2  last
: 14 1 4 ~
: 17 1 5  with
: 20 1 2  noth
: 22 1 4 ~
: 24 1 0 ing
- 26
: 28 2 0 left
: 32 2 -3  to
: 36 2 -5  say
: 39 6 -3 ~
: 48 4 -5  now
- 61
: 64 2 -5 'Cause
: 68 2 4  eve
: 72 1 5 ry
: 74 1 2 thing
: 76 1 4 ~
: 80 2 5  that's
: 84 1 2  gone
: 86 1 4 ~
- 87
: 88 3 0 will
: 92 3 0  nev
: 96 2 9 er
: 100 1 7  be
: 102 8 9 ~
: 112 3 7 ~
- 123
: 126 1 0 And
: 128 2 2  I
: 132 2 4  lost
: 136 1 5  it
: 138 1 2  all
: 140 2 4 ~
: 144 1 5  that
: 148 1 2  one
: 150 1 4 ~
- 151
: 153 2 0 and
: 156 3 0  lone
: 160 2 -3 ly
: 164 2 -5  blue
: 167 7 -3 ~
: 176 4 -5  night
- 186
: 188 2 0 Eve
: 192 1 2 ry
: 196 1 2 thing
: 198 3 4 ~
: 202 3 0 ~
: 208 6 0  was
: 216 4 -3 ~
: 224 2 -5  fine
: 227 13 -3 ~
- 252
: 256 1 0 Yes,
: 258 1 2  I
: 260 3 4  know
: 264 2 5  I
: 268 2 4  should
: 272 2 5  have
: 276 1 2  wait
: 278 1 4 ~
: 280 1 0 ed
- 282
: 284 2 0 for
: 288 2 -3  you,
: 292 2 -5  ba
: 295 7 -3 ~
: 304 3 -5 by
- 317
: 324 2 4 Where
: 328 2 5  were
: 331 3 4  you
: 336 1 5  when
: 338 1 2  I
: 340 2 4 ~
: 344 1 0  was
- 346
: 348 2 0 need
: 352 2 9 ing
: 356 1 7  you
: 358 8 9 ~
: 368 4 7 ~?
- 381
: 384 1 0 And
: 386 1 2  a
: 388 2 4  hun
: 392 1 5 dred
: 396 1 2  times
: 398 1 4 ~
: 400 2 5  I
: 404 1 2  called
: 406 1 4 ~
- 407
: 408 1 0 but
: 412 2 0  you
: 416 1 -3  were
: 420 1 -5  not
: 422 6 -3 ~
: 432 4 -5  there
- 442
: 444 1 0 You
: 446 3 2  were
* 452 1 2  far
* 454 4 4 ~
* 460 2 0 ~
* 465 7 0  from
* 474 3 -3 ~
: 481 22 -3  me
- 534
: 584 2 9 An
: 588 3 9 oth
: 592 1 9 er
: 594 3 9  life,
: 600 2 7  an
: 604 3 7 oth
: 608 2 4 er
* 612 1 2  lov
* 614 8 4 ~
: 624 4 2 er
- 638
: 648 3 9 Where
: 652 2 9  in
: 656 1 9  the
: 658 3 9  world
: 664 2 7  do
: 668 2 7  lone
: 672 1 4 ly
- 674
: 676 5 4 dreams
: 684 1 4  ev
: 686 1 4 er
: 688 2 7 ~
: 692 1 5  go
: 694 4 7 ~?
- 708
: 712 2 9 An
: 716 2 9 oth
: 720 1 9 er
: 722 3 9  night,
: 728 2 7  an
: 732 2 7 oth
: 736 2 4 er
: 740 1 2  blue
: 742 7 4 ~
: 752 6 2  day
- 762
: 764 1 0 It
: 766 2 2  is
: 772 1 2  so
: 774 26 4 ~
* 804 1 4  long
* 806 3 7 ~,
* 812 1 4  long
* 814 3 7 ~,
* 820 1 4  long
* 822 2 7 ~,
* 828 1 4  long
* 830 2 7 ~
- 863
: 1280 1 0 Why
: 1282 1 2  not
: 1284 3 4  tell
: 1288 2 5  me
: 1292 2 4  that
: 1296 1 5  you
: 1298 1 2  cared
: 1300 1 4 ~
- 1302
: 1304 2 0 so
: 1308 1 0  much
: 1312 1 -3  to
: 1316 1 -5  keep
: 1318 7 -3 ~
: 1328 3 -5  me
- 1340
: 1343 2 0 'Cause
: 1346 1 2  you
: 1348 3 4  knew
: 1352 1 5  it
: 1355 1 2  was
: 1357 1 4 ~
: 1360 1 5  the
: 1362 4 4  on
: 1367 2 0 ly
- 1370
: 1372 1 0 thing
* 1375 1 7  that
* 1377 1 9 ~
: 1383 1 7  mat
: 1385 5 9 ~
: 1392 4 7 tered
- 1405
: 1408 2 2 And
: 1412 3 4  now
: 1416 1 5  it's
: 1419 1 2  time
: 1421 1 4 ~
: 1424 1 5  for
: 1426 1 2  us
: 1428 1 4 ~
- 1430
: 1432 1 0 to
: 1436 2 0  go
: 1440 1 -3  to
* 1444 2 -5 geth
* 1447 5 -3 ~
* 1454 1 -5 ~
: 1456 2 -5 er
- 1465
: 1468 1 0 With
: 1470 3 2 out
: 1476 1 2  games
: 1478 4 4 ~
: 1484 1 0 ~
: 1488 8 0  or
: 1498 3 -3 ~
: 1503 13 -3  lies
- 1526
: 1535 1 0 Where
: 1537 1 2  you
: 1539 3 4  sit
: 1543 2 5  and
* 1547 1 2  watch
* 1549 1 4 ~
* 1551 1 5  me
* 1554 1 2  smoke
* 1556 1 4 ~
- 1558
: 1560 2 0 the
: 1564 2 0  lone
: 1568 2 -3 ly
: 1572 2 -5  night
: 1575 6 -3 ~
: 1584 1 -5  a
: 1586 3 -5 way
- 1597
: 1600 2 2 There
: 1604 2 4  must
: 1608 1 5  be
: 1611 1 2  some
: 1613 1 4 ~
: 1615 2 5 thing
: 1618 1 2  more
: 1620 1 4 ~
- 1622
: 1624 2 0 that's
: 1628 1 0  left
: 1631 3 9  for
* 1636 1 7  some
* 1638 6 9 ~
* 1645 2 7 ~
: 1650 5 7 where
- 1664
: 1668 2 4 Some
: 1672 1 5 thing
: 1676 2 4  that
: 1680 1 5  will
: 1682 1 5  save
: 1684 2 7 ~
: 1688 1 5  this
: 1692 2 4  love
: 1696 2 0  for
* 1700 2 -5 ev
* 1703 5 -3 ~
* 1710 2 -5 ~
: 1713 3 -5 er
- 1722
: 1724 1 0 It
: 1727 2 2  must
* 1732 1 2  nev
* 1734 5 4 ~
* 1741 1 0 ~
* 1744 7 0 er
: 1753 4 -3 ~
: 1760 20 -3  die
- 1811
: 1864 1 7 An
: 1866 1 9 ~
: 1868 3 9 oth
: 1872 1 9 er
: 1874 3 9  life,
: 1880 2 7  an
: 1884 2 7 oth
: 1888 2 4 er
: 1892 1 2  lov
: 1894 4 4 ~
: 1900 2 2 ~
: 1903 6 2 er
- 1919
: 1928 1 7 Where
: 1930 1 9 ~
: 1932 1 9  in
: 1935 1 9  the
: 1937 5 9  world
: 1944 2 7  do
: 1948 2 7  lone
: 1952 1 4 ly
- 1954
: 1956 1 2 dreams
: 1958 3 4 ~
: 1963 1 4  ev
: 1966 1 4 er
: 1968 2 7 ~
: 1972 7 7  go?
- 1988
: 1991 1 7 An
: 1993 1 9 ~
: 1995 2 9 oth
: 1998 2 9 er
: 2002 3 9  night,
: 2008 2 7  an
: 2011 4 7 oth
: 2016 2 4 er
: 2020 1 2  blue
: 2022 5 4 ~
: 2029 1 2 ~
: 2032 6 2  day
- 2042
: 2044 1 0 It
: 2046 3 2  is
: 2052 1 2  so
: 2054 28 4 ~
: 2084 1 4  long
: 2086 21 7 ~
- 2116
: 2120 2 9 An
: 2124 3 9 oth
: 2128 1 9 er
: 2130 3 9  life,
: 2136 2 7  an
: 2140 3 7 oth
: 2144 2 4 er
: 2148 1 2  lov
: 2150 4 4 ~
: 2156 2 2 ~
: 2160 5 2 er
- 2175
: 2184 1 7 Where
: 2186 1 9 ~
: 2188 2 9  in
: 2192 1 9  the
: 2194 3 9  world
: 2200 2 7  do
: 2204 2 7  lone
: 2208 1 4 ly
- 2210
: 2212 5 4 dreams
: 2220 1 4  ev
: 2222 1 4 er
: 2224 2 7 ~
: 2228 1 5  go
: 2230 4 7 ~?
- 2244
: 2248 2 9 An
: 2252 2 9 oth
: 2256 1 9 er
: 2258 3 9  night,
: 2264 2 7  an
: 2268 2 7 oth
: 2272 2 4 er
: 2276 1 2  blue
: 2278 4 4 ~
: 2284 1 2 ~
: 2287 7 2  day
- 2298
: 2300 1 0 It
: 2302 2 2  is
: 2308 1 2  so
: 2310 26 4 ~
: 2340 1 4  long
: 2342 3 7 ~,
: 2348 1 4  long
: 2350 3 7 ~,
: 2356 1 4  long
: 2358 2 7 ~,
: 2364 1 4  long
: 2366 2 7 ~
- 2399
: 3920 1 0 Yes,
: 3922 1 2  I
: 3924 3 4  know
: 3928 2 5  I
: 3933 1 2  should
: 3935 1 4 ~
: 3937 1 5  have
: 3939 1 2  wait
: 3941 3 4 ~
: 3945 1 0 ed
- 3946
: 3948 3 0 long
: 3952 3 -3 er
: 3957 1 -5  for
: 3959 5 -3 ~
: 3966 1 -5 ~
: 3969 3 -5  you
- 3982
: 3989 2 4 Where
: 3993 1 5  were
: 3995 1 2  you
: 3997 2 4 ~
: 4001 1 5  when
: 4003 1 2  I
: 4005 2 4 ~
: 4009 1 0  was
- 4011
: 4013 1 0 need
: 4016 1 7 ing
: 4018 1 9 ~
: 4021 1 7  you
: 4023 7 9 ~
: 4032 5 7 ~?
- 4045
: 4048 2 2 And
: 4052 3 4  now
: 4057 1 5  it's
: 4060 1 2  time
: 4062 1 4 ~
: 4065 1 5  for
: 4067 1 5  us
: 4069 1 7 ~
- 4071
: 4073 2 5 to
: 4077 2 4  go
: 4081 1 0  to
: 4085 1 -5 geth
: 4087 4 -3 ~
: 4093 2 -5 ~
: 4097 2 -5 er
- 4106
: 4109 1 0 With
: 4111 3 2 out
: 4117 2 2  games
: 4120 4 4 ~
: 4126 2 0 ~
: 4129 8 0  or
: 4139 3 -3 ~
: 4145 15 -3  lies
- 4170
: 4181 3 4 Sit
: 4185 2 5  and
: 4189 1 2  watch
: 4191 1 4 ~
: 4193 1 5  me
: 4197 1 2  smoke
: 4199 1 4 ~
: 4201 1 0  the
- 4203
: 4205 2 0 lone
: 4209 2 -3 ly
: 4213 2 -5  night
: 4216 6 -3 ~
: 4224 1 -5  a
: 4227 3 -5 way
- 4238
: 4241 2 2 There
: 4245 2 4  must
: 4249 1 5  be
: 4251 1 2  some
: 4253 1 4 ~
: 4256 2 5 thing
: 4259 1 2  more
: 4261 1 4 ~
- 4263
: 4265 2 0 that's
: 4269 1 0  left
: 4272 3 9  for
: 4277 1 7  some
: 4279 6 9 ~
: 4286 2 7 ~
: 4291 5 7 where
- 4305
: 4309 2 4 Some
: 4313 1 5 thing
: 4317 2 4  that
: 4321 1 5  will
: 4323 1 2  save
: 4325 2 4 ~
: 4329 1 0  this
: 4333 2 0  love
: 4336 3 -3  for
: 4341 2 -5 ev
: 4344 4 -3 ~
: 4350 2 -5 ~
: 4354 2 -5 er
- 4362
: 4365 1 0 It
: 4368 2 2  must
: 4373 1 2  nev
: 4375 5 4 ~
: 4382 1 0 ~
: 4385 7 0 er
: 4394 4 -3 ~
: 4401 20 -3  die
- 4452
: 4505 1 7 An
: 4507 1 9 ~
: 4509 3 9 oth
: 4513 1 9 er
: 4515 3 9  life,
: 4521 2 7  an
: 4525 2 7 oth
: 4529 2 4 er
: 4533 1 2  lov
: 4535 4 4 ~
: 4541 2 2 ~
: 4544 6 2 er
- 4560
: 4569 1 7 Where
: 4571 1 9 ~
: 4573 1 9  in
: 4576 1 9  the
: 4578 5 9  world
: 4585 2 7  do
: 4589 2 7  lone
: 4593 1 4 ly
- 4595
: 4597 1 2 dreams
: 4599 3 4 ~
: 4604 1 4  ev
: 4607 1 4 er
: 4609 2 7 ~
: 4613 7 7  go?
- 4629
: 4632 1 7 An
: 4634 1 9 ~
: 4636 2 9 oth
: 4639 2 9 er
: 4643 3 9  night,
: 4649 2 7  an
: 4652 4 7 oth
: 4657 2 4 er
: 4661 1 2  blue
: 4663 5 4 ~
: 4670 1 2 ~
: 4673 6 2  day
- 4683
: 4685 1 0 It
: 4687 3 2  is
: 4693 1 2  so
: 4695 28 4 ~
: 4725 1 4  long
: 4727 21 7 ~
- 4757
: 4761 2 9 An
: 4765 3 9 oth
: 4769 1 9 er
: 4771 3 9  life,
: 4777 2 7  an
: 4781 3 7 oth
: 4785 2 4 er
: 4789 1 2  lov
: 4791 4 4 ~
: 4797 2 2 ~
: 4801 5 2 er
- 4816
: 4825 1 7 Where
: 4827 1 9 ~
: 4829 2 9  in
: 4833 1 9  the
: 4835 3 9  world
: 4841 2 7  do
: 4845 2 7  lone
: 4849 1 4 ly
- 4852
: 4854 4 4 dreams
: 4861 1 4  ev
: 4863 1 4 er
: 4865 2 7 ~
: 4869 1 5  go
: 4871 4 7 ~?
- 4885
: 4889 2 9 An
: 4893 2 9 oth
: 4897 1 9 er
: 4899 3 9  night,
: 4905 2 7  an
: 4909 2 7 oth
: 4913 2 4 er
: 4917 1 2  blue
: 4919 4 4 ~
: 4925 1 2 ~
: 4928 7 2  day
- 4939
: 4941 1 0 It
: 4943 2 2  is
: 4949 1 2  so
: 4951 26 4 ~
: 4981 1 4  long
: 4983 3 7 ~,
: 4989 1 4  long
: 4991 3 7 ~,
: 4997 1 4  long
: 4999 2 7 ~,
: 5005 1 4  long
: 5007 2 7 ~
E