#TITLE:L.S.F.
#ARTIST:Kasabian
#LANGUAGE:English
#EDITION:SingStar Amped
#GENRE:Rock
#YEAR:2004
#MP3:Kasabian - L.S.F..mp3
#COVER:Kasabian - L.S.F. [CO].jpg
#BACKGROUND:Kasabian - L.S.F. [BG].jpg
#BPM:210,5
#GAP:35273,16
F 0 2 79 Ta,
F 8 3 79  ta,
F 16 2 79  ta
- 20 21
: 32 2 56 I'm
: 36 2 56  on
: 40 3 56  it
- 45
: 48 2 56 Get
* 52 2 56  on
: 56 2 56  it
- 60
: 64 2 56 The
: 68 2 56  troops
: 72 2 56  are
: 76 2 56  on
: 80 2 56  fire
: 84 2 56 ~
- 87
: 88 2 56 You
: 92 2 56  know
: 96 2 56  I
: 100 2 57  need
: 104 2 57  it
- 108
: 112 2 57 Much
: 116 2 57  clos
: 120 2 57 er
- 124
: 128 2 57 I'm
: 132 2 57  tread
: 136 2 57 ing
: 140 2 57  just
: 144 2 57  a
: 148 2 55  lit
: 152 2 55 tle
: 156 2 55  more
- 159
: 160 2 55 Step
: 164 2 56  on
: 168 2 56  it
- 172
: 174 1 56 E
: 176 2 56 lec
: 180 2 56 tro
: 184 2 56 nic
- 188
: 192 2 56 The
: 196 2 56  troops
: 200 2 56  are
: 204 2 56  on
: 208 2 56  fire
: 212 2 56 ~
- 215
: 216 4 56 I'm
: 224 2 56  much
* 228 2 57  deep
: 232 3 57 er
- 237
: 240 2 57 A
: 244 2 57  sleep
: 248 2 57 er
- 252
: 256 2 57 I'm
: 260 2 57  wait
: 264 2 57 ing
: 268 2 57  for
: 272 2 57  the
: 276 2 55  fi
: 280 2 55 nal
: 284 4 55  trip
- 290 332
: 352 2 57 Come
: 356 2 56  on
: 360 2 56  it
- 364
: 368 2 56 Get
: 372 2 56  on
: 376 2 56  it
- 380
: 384 2 56 I'm
: 388 2 56  carv
: 392 2 56 ing
: 396 2 56  through
: 400 2 56  a
: 404 2 56  let
: 408 2 56 ter
: 412 2 56 bomb
- 415
: 416 2 56 I
: 420 2 57  need
: 424 2 57  it
- 428
: 432 2 57 Like
: 436 2 57  po
: 440 2 57 tions
- 444
: 448 2 57 These
: 452 2 57  drugs
: 456 2 57  are
: 460 2 57  just
: 464 3 57  an
: 468 3 55  hour
: 472 2 55  a
: 476 2 55 way
- 479
: 480 2 55 Come
: 484 2 56  on
: 488 2 56  it
- 492
: 494 1 56 E
: 496 2 56 lec
* 500 2 56 tro
: 504 2 56 nic
- 508
: 512 2 56 A
: 516 2 56  po
: 520 2 56 ly
: 524 2 56 pho
: 528 2 56 nic
: 532 2 56  pros
: 536 2 56 ti
: 540 2 56 tute
- 543
: 544 2 56 The
: 548 2 57  mo
: 552 2 57 tor's
- 556
: 559 2 57 On
: 564 2 57  fire
: 568 2 57 ~
- 572
: 576 2 57 Mes
* 580 2 57 si
: 584 2 57 ah
: 588 2 57  for
: 592 2 57  the
: 596 2 55  a
: 600 2 55 ni
: 604 6 55 mals
- 611
: 612 25 52 Ah
: 640 3 55 ~
: 644 3 57 ~
: 648 21 52 ~
- 671
: 676 26 52 Ah
: 704 4 55 ~
: 708 4 57 ~
: 712 20 52 ~
- 734
: 740 7 64 Ah
- 749 750
: 760 3 59 Oh
: 764 3 62  come
: 768 10 64  on
- 780 781
: 808 2 64 We
: 812 2 64  got
: 816 2 64  our
: 820 2 64  backs
: 824 2 64  to
: 828 2 64  the
* 832 8 64  wall
- 842
F 848 3 79 Uh
- 853
: 860 3 64 Get
: 864 7 64  on
- 873 874
: 888 3 59 And
: 892 3 62  watch
: 896 11 64  out
- 909 910
: 924 2 64 Say
: 927 2 64 ing,
: 936 2 64  "You're
: 940 3 64  gon
: 944 2 61 na
: 948 3 64  kill
: 952 5 64  us
: 960 7 64  all"
- 969 1116
F 1136 4 79 Uh
- 1142 1143
: 1152 2 57 I'm
: 1156 2 56  on
: 1160 2 56  it
- 1164
: 1168 2 56 Get
: 1172 2 56  on
: 1176 2 56  it
- 1180
: 1184 2 56 The
: 1188 2 56  troops
: 1192 2 56  are
: 1196 2 56  on
* 1200 2 56  fire
: 1204 2 56 ~
- 1207
: 1208 2 56 You
: 1212 2 56  know
: 1216 2 56  I
: 1220 2 57  need
: 1224 2 57  it
- 1228
: 1232 2 57 Much
: 1236 2 57  clos
: 1240 2 57 er
- 1244
: 1248 2 57 I'm
: 1252 2 57  tread
: 1256 2 57 ing
: 1260 2 57  just
: 1264 2 57  a
: 1268 2 55  lit
: 1272 2 55 tle
: 1276 2 55  more
- 1279
: 1280 2 55 Step
: 1284 2 56  on
: 1288 2 56  it
- 1292
: 1294 1 56 E
: 1296 2 56 lec
: 1300 2 56 tro
: 1304 2 56 nic
- 1308
: 1312 2 56 The
: 1316 2 56  troops
: 1320 2 56  are
: 1324 2 56  on
: 1328 2 56  fire
: 1332 2 56 ~
- 1335
: 1336 4 56 I'm
: 1344 2 56  much
: 1348 2 57  deep
: 1352 2 57 er
- 1356
: 1360 2 57 A
: 1364 2 57  sleep
* 1368 2 57 er
- 1372
: 1376 2 57 Mes
: 1380 2 57 si
: 1384 2 57 ah
: 1388 2 57  for
: 1392 2 57  the
: 1396 2 55  a
: 1400 2 55 ni
: 1404 6 55 mals
- 1412 1520
: 1540 8 64 Ah
- 1550 1551
: 1559 2 59 Oh
: 1564 2 62  come
: 1568 7 64  on
- 1577 1578
: 1596 1 64 Say
: 1598 3 64 ing,
: 1608 2 64  "We
: 1612 2 64  got
: 1616 2 64  our
: 1620 2 64  backs
: 1624 2 64  to
: 1628 2 64  the
: 1632 7 64  wall"
- 1641 1642
: 1660 2 64 Get
: 1664 7 64  on
- 1673
F 1680 2 79 Ah
- 1684
: 1688 2 59 And
: 1691 2 62  watch
* 1696 7 64  out
- 1705 1706
F 1728 2 79 Ah
- 1732
: 1736 2 64 Be
: 1740 2 64 fore
: 1744 2 64  you
: 1748 2 64  kill
: 1752 4 64  us
: 1760 8 64  all
- 1770 1771
: 1796 7 64 Ah
- 1805 1806
: 1816 2 59 Oh
: 1820 2 62  come
: 1824 8 64  on
- 1834 1835
: 1856 3 64 Say,
: 1864 2 64  "We
: 1868 2 64  got
: 1872 2 64  our
: 1876 2 64  backs
: 1880 2 64  to
: 1884 2 64  the
: 1888 7 64  wall"
- 1897 1898
: 1916 3 64 Get
: 1920 8 64  on
- 1930 1931
: 1944 2 59 And
: 1948 2 62  watch
: 1952 8 64  out
- 1962 1963
F 1984 3 79 Ah
- 1989
: 1992 2 64 Be
: 1996 2 64 fore
: 2000 2 64  you
: 2004 2 64  kill
: 2008 5 64  us
: 2016 7 64  all
- 2025 2026
: 2052 22 64 Ah
: 2076 3 62 ~
: 2080 31 59 ~
- 2112
: 2112 4 57 Ah
: 2116 4 59 ~
* 2120 4 60 ~
: 2124 4 59 ~
: 2128 20 57 ~
: 2148 22 56 ~
- 2172
: 2180 24 64 Ah
: 2204 4 62 ~
: 2208 31 59 ~
- 2240
: 2240 4 57 Ah
: 2244 4 59 ~
: 2248 4 60 ~
: 2252 4 59 ~
: 2256 20 57 ~
* 2276 23 56 ~
- 2301
: 2308 29 52 Ah
: 2340 24 64 ~
: 2364 4 62 ~
: 2368 26 59 ~
- 2396
: 2400 4 57 Ah
: 2404 4 59 ~
: 2408 4 60 ~
: 2412 4 59 ~
: 2416 20 57 ~
: 2436 24 56 ~
- 2462
: 2468 24 64 Ah
: 2492 4 62 ~
: 2496 25 59 ~
- 2523
: 2528 4 57 Ah
: 2532 4 59 ~
: 2536 4 60 ~
: 2540 4 59 ~
: 2544 20 57 ~
E
