#ARTIST:Katy Perry
#TITLE:Wide Awake
#MP3:Katy Perry - Wide Awake.mp3
#AUTHOR:vicktoben
#GENRE:Pop
#YEAR:2012
#LANGUAGE:English
#BPM:320
#GAP:44397
#VIDEO:Katy Perry - Wide Awake.mp4
#VIDEOGAP:0.00
: 0 3 17 I'm
: 4 3 17  wide
: 8 3 19  a
: 12 9 19 wake
- 63
: 128 3 17 I'm
: 132 3 17  wide
: 136 3 19  a
: 140 9 19 wake
- 191
: 256 3 17 I'm
: 260 3 17  wide
: 264 3 19  a
: 268 9 19 wake
- 285
: 288 3 17 Yeah,
: 292 3 19  I
: 296 2 17  was
: 300 3 21  in
: 304 3 19  the
: 308 3 17  dark
: 312 5 19 ~
- 322
: 324 3 19 I
: 328 2 17  was
* 332 3 21  fa
: 336 3 19 lling
: 340 3 17  hard
* 344 5 19 ~
- 354
: 356 3 19 With
: 360 3 17  an
: 364 3 21  o
* 368 3 19 pen
: 372 3 17  heart
: 376 4 19 ~
- 382
: 384 3 17 I'm
: 388 3 17  wide
: 392 3 19  a
: 396 9 19 wake
- 413
: 416 3 17 How
* 420 3 19  did
: 424 3 17  I
* 428 3 21  read
: 432 2 19  the
: 436 3 17  stars
: 440 4 19 ~
- 446
: 448 5 17 So
: 456 3 14  wrong
: 460 17 12 ~?
- 487
: 512 3 17 I'm
: 516 3 17  wide
: 520 3 19  a
: 524 9 19 wake
- 541
: 544 3 17 And
: 548 3 19  now
: 552 2 17  it's
: 556 3 21  clear
: 560 3 19  to
: 564 3 17  me
: 568 4 19 ~
- 574
: 576 3 17 That
* 580 3 19  e
: 584 3 17 v'ry
: 588 3 21 thing
: 592 2 19  you
: 596 3 17  see
: 600 4 19 ~
- 606
: 608 3 17 Ain't
: 612 3 19  al
: 616 2 17 ways
: 620 3 21  what
: 624 2 19  it
: 628 3 17  seems
: 632 4 19 ~
- 638
: 640 3 17 I'm
: 644 3 17  wide
: 648 3 19  a
: 652 9 19 wake
- 669
: 672 3 17 Yeah,
: 676 3 19  I
: 680 2 17  was
* 684 3 21  drea
: 688 2 19 ming
* 692 3 17  for
: 696 4 19 ~
- 702
: 704 5 17 So
: 712 3 14  long
: 716 17 12 ~
- 743
* 760 3 12 I
: 764 2 12  wish
: 768 3 12  I
: 772 7 19  knew
: 780 9 19  then
- 794
: 796 3 12 What
: 800 3 12  I
: 804 7 19  know
: 812 9 19  now
- 826
: 828 3 12 Would
: 832 3 12 n't
: 836 7 17  dive
: 844 9 17  in
- 858
: 860 3 12 Would
: 864 3 12 n't
: 868 7 17  bow
: 876 9 17  down
- 890
: 892 3 12 Gra
: 896 3 12 vi
: 900 7 19 ty
: 908 8 19  hurts
- 918
: 920 3 12 You
: 924 3 12  made
: 928 2 12  it
: 932 5 19  so
: 940 9 19  sweet
- 954
: 956 3 12 Till
: 960 3 12  I
: 964 7 17  woke
: 972 7 17  up
- 985
: 988 7 17 On
- 1001
: 1004 3 17 On
: 1008 3 17  the
: 1012 7 17  con
: 1020 7 14 crete
- 1033
: 1036 15 14 Fa
: 1052 7 17 lling
: 1060 15 19  from
: 1076 7 22  cloud
: 1084 7 21 ~
: 1092 37 21  9
- 1139
: 1164 13 14 Cra
: 1180 7 17 shing
: 1188 15 19  from
: 1204 7 22  the
: 1212 5 21 ~
: 1220 3 19  high
: 1224 23 21 ~
: 1248 3 17 ~
: 1252 3 21 ~
: 1256 17 19 ~
- 1281
: 1284 7 17 I'm
: 1292 15 14  let
: 1308 7 17 ting
: 1316 15 19  go
: 1332 7 22  to
: 1340 7 21 ~
: 1348 39 21 night
- 1397
: 1404 7 17 Yeah
: 1412 7 16  I'm
: 1420 15 14  fa
: 1436 5 17 lling
: 1444 15 19  from
: 1460 7 22  cloud
: 1468 7 21 ~
: 1476 27 21  9
: 1504 3 17 ~
: 1508 3 21 ~
: 1512 17 19 ~
- 1534
: 1536 3 17 I'm
: 1540 3 17  wide
: 1544 3 19  a
* 1548 9 19 wake
- 1565
: 1568 3 17 Not
: 1572 2 19  lo
* 1576 3 17 sing
: 1580 3 21  a
: 1584 2 19 ny
: 1588 3 17  sleep
: 1592 4 19 ~
- 1598
: 1600 3 17 I
: 1604 3 19  picked
: 1608 3 17  up
: 1612 3 21  e
: 1616 3 19 v'ry
: 1620 3 17  piece
: 1624 4 19 ~
- 1630
: 1632 3 17 And
: 1636 3 19  lan
: 1640 3 17 ded
: 1644 3 21  on
: 1648 2 19  my
: 1652 3 17  feet
: 1656 4 19 ~
- 1662
: 1664 3 17 I'm
: 1668 3 17  wide
: 1672 3 19  a
: 1676 9 19 wake
- 1693
: 1696 3 17 Need
: 1700 3 19  no
: 1704 2 17 thing
: 1708 3 21  to
: 1712 3 19  com
: 1716 3 17 plete
: 1720 4 19 ~
- 1726
: 1728 5 17 My
: 1736 3 14 self
: 1740 11 12 ~
- 1757
: 1760 2 12 Umm,
: 1764 3 17  no
: 1768 11 16 ~
- 1788
: 1792 3 17 I'm
: 1796 3 17  wide
: 1800 3 19  a
: 1804 9 19 wake
- 1821
: 1824 3 17 Yeah,
: 1828 3 19  I
: 1832 3 17  am
* 1836 3 21  born
: 1840 3 19  a
* 1844 3 17 gain
: 1848 4 19 ~
- 1854
: 1856 3 17 Out
* 1860 3 19 ta
: 1864 3 17  the
: 1868 3 21  li
: 1872 2 19 on's
: 1876 3 17  den
: 1880 4 19 ~
- 1886
: 1888 3 17 I
: 1892 3 19  don't
: 1896 2 17  have
: 1900 3 21  to
: 1904 2 19  pre
: 1908 3 17 tend
: 1912 4 19 ~
- 1918
: 1920 3 17 And
: 1924 2 17  it's
* 1928 3 19  too
: 1932 9 19  late
- 1949
: 1952 2 17 The
: 1956 3 19  sto
: 1960 2 17 ry's
: 1964 3 21  o
: 1968 3 19 ver
: 1972 3 17  now
: 1976 4 19 ~
- 1982
: 1984 5 17 The
: 1992 3 14  end
* 1996 13 12 ~
- 2019
: 2040 3 12 I
: 2044 2 12  wish
: 2048 3 12  I
: 2052 7 19  knew
: 2060 9 19  then
- 2074
: 2076 3 12 What
: 2080 3 12  I
: 2084 7 19  know
: 2092 9 19  now
- 2106
: 2108 3 12 Would
: 2112 3 12 n't
: 2116 7 17  dive
: 2124 9 17  in
- 2138
: 2140 3 12 Would
: 2144 3 12 n't
* 2148 7 17  bow
: 2156 9 17  down
- 2170
: 2172 3 12 Gra
: 2176 3 12 vi
: 2180 7 19 ty
: 2188 8 19  hurts
- 2198
: 2200 3 12 You
: 2204 3 12  made
: 2208 2 12  it
: 2212 5 19  so
: 2220 9 19  sweet
- 2234
: 2236 3 12 Till
: 2240 3 12  I
: 2244 7 17  woke
: 2252 7 17  up
- 2265
: 2268 9 24 On
- 2282
: 2284 3 24 On
: 2288 3 21  the
: 2292 7 24  con
: 2300 7 21 crete
- 2313
: 2316 15 14 Fa
: 2332 5 17 lling
* 2340 15 19  from
: 2356 7 22  cloud
: 2364 7 21 ~
: 2372 37 21  9
- 2419
: 2444 13 14 Cra
: 2460 7 17 shing
: 2468 15 19  from
: 2484 7 22  the
: 2492 5 21 ~
: 2500 3 19  high
: 2504 23 21 ~
* 2528 3 17 ~
: 2532 3 21 ~
: 2536 17 19 ~
- 2561
: 2564 7 17 I'm
: 2572 15 14  let
: 2588 7 17 ting
: 2596 15 19  go
* 2612 7 22  to
: 2620 7 21 ~
: 2628 39 21 night
- 2677
* 2684 7 17 Yeah
: 2692 7 16  I'm
: 2700 15 14  fa
: 2716 5 17 lling
: 2724 15 19  from
: 2740 7 22  cloud
: 2748 7 21 ~
: 2756 27 21  9
* 2784 3 17 ~
: 2788 3 21 ~
: 2792 17 19 ~
- 2819
: 2836 3 22 Thun
: 2840 7 24 ~
: 2848 9 22 der
: 2860 11 21  rum
: 2872 3 19 bl
: 2876 7 17 ~
: 2884 3 17 ing
: 2888 5 14 ~
- 2898
: 2900 9 22 Cas
: 2912 3 21 tles
: 2916 5 19 ~
: 2924 11 19  crum
: 2936 3 17 bl
* 2940 7 14 ~
: 2948 7 14 ing
- 2961
: 2964 9 24 I
: 2976 9 22  am
: 2988 11 21  trying
: 3000 5 19  to
: 3008 7 17  hold
: 3016 3 19  on
: 3020 19 21 ~
: 3040 3 22 ~
: 3044 3 21 ~
: 3048 11 19 ~
: 3060 7 21 ~
- 3077
: 3092 11 24 God
: 3104 9 22  knows
: 3116 9 21  that
: 3128 3 19  I
: 3132 7 17 ~
: 3140 9 17  tried
- 3154
: 3156 11 22 See
: 3168 9 21 ing
: 3180 9 19  the
: 3192 3 17  bright
: 3196 5 14 ~
: 3204 8 14  side
- 3214
: 3216 3 17 But
: 3220 11 24  I'm
: 3232 9 22  not
: 3244 11 21  blind
: 3256 7 19  a
: 3264 3 17 ny
: 3268 3 19 more
* 3272 23 21 ~
: 3296 3 22 ~
: 3300 3 21 ~
* 3304 13 19 ~
: 3318 2 21 ~
- 3326
: 3328 3 17 I'm
: 3332 3 17  wide
: 3336 3 19  a
: 3340 9 19 wake
- 3391
: 3456 3 17 I'm
: 3460 3 17  wide
: 3464 3 19  a
: 3468 9 19 wake
- 3519
: 3564 15 21 Yeah,
: 3580 7 19  I'm
: 3588 7 17 ~
: 3596 15 17  fa
: 3612 7 17 lling
* 3620 15 17  from
: 3636 7 22  cloud
: 3644 7 21 ~
: 3652 37 21  9
- 3699
: 3724 13 14 Cra
: 3740 7 17 shing
: 3748 15 19  from
: 3764 7 22  the
: 3772 5 21 ~
: 3780 3 19  high
: 3784 23 21 ~
: 3808 3 17 ~
: 3812 3 21 ~
: 3816 17 19 ~
- 3838
: 3840 3 24 You
: 3844 3 24  know
: 3848 3 24  I'm
: 3852 7 24  let
: 3860 7 22 ~
: 3868 7 22 ting
* 3876 7 21  go
: 3884 7 19 ~
: 3892 15 19  to
: 3908 13 24 night
: 3924 15 21 ~
: 3940 17 19 ~
- 3968
: 3972 7 16 I'm
: 3980 15 14  fa
: 3996 5 17 lling
: 4004 15 19  from
: 4020 7 22  cloud
: 4028 7 21 ~
: 4036 27 21  9
: 4064 3 17 ~
: 4068 3 21 ~
: 4072 17 19 ~
- 4094
: 4096 3 17 I'm
: 4100 3 17  wide
: 4104 3 19  a
: 4108 9 19 wake
- 4159
: 4224 3 17 I'm
: 4228 3 17  wide
: 4232 3 19  a
: 4236 9 19 wake
- 4287
: 4352 3 17 I'm
: 4356 3 17  wide
: 4360 3 19  a
: 4364 9 19 wake
- 4415
: 4480 3 17 I'm
: 4484 3 17  wide
: 4488 3 19  a
: 4492 9 19 wake
- 4543
: 4608 3 17 I'm
: 4612 3 17  wide
: 4616 3 19  a
: 4620 9 19 wake

