#TITLE:Waking Up In Vegas
#ARTIST:Katy Perry
#MP3:Katy Perry - Waking Up In Vegas.mp3
#VIDEO:Katy Perry - Waking Up In Vegas [VD#0].avi
#COVER:Katy Perry - Waking Up In Vegas [CO].jpg
#BACKGROUND:Katy Perry - Waking Up In Vegas [BG].jpg
#BPM:262
#GAP:7840
#ENCODING:UTF8
#LANGUAGE:English
#EDITION:Charts 2009
: 0 2 9 You
: 4 3 10  got
: 8 2 12 ta
: 12 3 17  help
: 20 6 9  me
: 28 16 9  out
- 46
: 60 4 9 It's
: 68 2 10  all
: 72 2 12  a
* 76 4 17  blur
: 84 4 9  last
: 92 6 9  ni
: 100 3 10 ~
: 104 3 9 ~
: 108 3 10 ~
: 112 6 9 ~ght
- 120
: 124 6 9 We
: 132 2 10  need
: 136 2 12  a
: 140 4 17  ta
: 148 3 9 xi
- 153
: 155 2 12 Cause
* 160 5 24  you're
: 172 3 21  hu
: 176 4 22 ~ng
: 184 8 21  ov
: 196 4 19 er
- 202
: 208 5 22 And
: 216 4 21  I'm
: 224 10 17  broke
- 236
: 256 3 9 I
: 260 2 10  lost
: 264 2 12  my
: 268 4 17  fake
: 276 4 9  I
: 284 16 9 D
- 302
: 316 2 9 But
: 320 2 9  you
: 324 2 10  lost
: 328 2 12  the
: 332 4 17  mo
: 340 4 9 tel
: 348 6 9  key
: 356 3 10 ~
: 360 3 9 ~
: 364 3 10 ~
: 368 5 9 ~
- 375
: 384 2 9 Spare
: 388 3 10  me
: 392 2 12  your
* 396 4 17  freak
: 404 3 9 in'
- 409
: 416 8 24 Dir
: 428 7 22 ty
: 440 7 21  looks
: 452 5 19  now
- 459
: 464 4 22 Don't
: 472 5 21  blame
* 480 8 19  me
- 490
: 516 2 14 You
: 520 3 17  wan
: 524 2 14 na
: 528 4 17  cash
: 536 3 14  ou
: 540 11 12 ~t
- 553
: 580 2 17 And
: 584 2 17  get
: 588 2 17  the
: 592 2 22  hell
: 596 3 22  out
* 600 2 24 ta
: 604 16 19  town
- 622
: 644 2 21 Don't
: 648 2 19  be
: 652 2 17  a
: 656 6 17  ba
: 664 2 14 by
- 667
: 668 2 12 Re
: 672 2 21 mem
: 676 2 21 ber
: 680 2 21  what
: 684 2 22  you
: 688 4 21  told
: 696 3 19  me
: 700 2 17 ~
- 703
: 704 3 21 Shut
: 708 4 21  up
- 714
: 716 2 22 And
: 720 4 22  put
: 728 2 21  your
: 732 6 21  mon
: 740 2 19 ey
: 744 2 19  where
: 748 2 17  your
: 752 4 21  mouth
: 760 3 19  i
: 764 2 17 ~s
- 767
: 768 3 17 That's
: 773 3 17  what
: 780 2 17  you
: 784 4 17  get
- 790
: 792 2 17 For
: 796 5 17  wak
: 804 2 17 ing
: 808 2 17  up
: 812 2 17  in
* 816 4 21  Ve
: 824 4 19 gas
- 830
: 832 3 21 Get
: 836 4 21  up
: 844 2 22  and
: 848 4 22  shake
: 856 2 21  the
: 860 6 21  gli
: 868 2 19 tter
- 871
: 872 2 19 Off
: 876 2 17  your
* 880 5 21  clothes
: 888 3 19  no
: 892 2 17 ~w
- 895
: 896 3 17 That's
: 900 3 17  what
: 908 2 17  you
: 912 4 17  get
- 918
: 920 2 17 For
: 924 5 17  wak
: 932 2 17 ing
: 936 2 17  up
: 940 2 17  in
: 944 6 21  Ve
: 952 5 19 gas
- 959
: 992 2 9 Why
: 996 2 10  are
: 1000 2 12  these
* 1004 4 17  lights
: 1012 4 9  so
: 1020 16 9  bright?
- 1038
: 1056 2 9 Did
: 1060 2 10  we
: 1064 2 12  get
: 1068 3 17  hitched
: 1076 4 9  last
: 1084 6 9  ni
: 1092 3 10 ~
: 1096 3 9 ~
: 1100 3 10 ~
: 1104 6 9 ~ght?
- 1112
: 1120 2 9 Dressed
: 1124 2 10  up
: 1128 2 12  like
: 1132 4 17  El
: 1140 3 9 vis
- 1145
: 1148 3 9 Oh,
* 1152 4 24  why
: 1158 2 24  am
: 1164 3 21  I
: 1168 3 22 ~
: 1172 2 21 ~
: 1176 8 21  wear
: 1188 4 19 ing
- 1194
: 1200 4 22 Your
: 1208 4 21  class
: 1216 9 19  ring?
- 1227
: 1252 2 14 Don't
: 1256 2 17  call
: 1260 2 14  your
* 1264 6 17  mo
: 1272 3 14 the
: 1276 14 12 ~r
- 1292
: 1316 2 17 Cause
: 1320 2 17  now
: 1324 2 17  we're
: 1328 2 21  part
: 1332 2 22 ers
: 1336 2 21  in
* 1340 15 19  crime
- 1357
: 1380 2 21 Don't
: 1384 2 19  be
: 1388 2 17  a
: 1392 5 17  ba
: 1400 2 14 by
- 1403
: 1404 2 12 Re
: 1408 2 21 mem
: 1412 2 21 ber
: 1416 2 21  what
: 1420 2 21  you
: 1424 4 21  told
: 1432 3 19  me
: 1436 2 17 ~
- 1439
* 1440 3 21 Shut
: 1444 4 21  up
- 1450
: 1452 2 22 And
: 1456 4 22  put
: 1464 2 21  your
: 1468 6 21  mon
: 1476 2 19 ey
: 1480 2 19  where
: 1484 2 17  your
: 1488 4 21  mouth
: 1496 3 19  i
: 1500 2 17 ~s
- 1503
: 1504 3 17 That's
: 1509 3 17  what
: 1516 2 17  you
: 1520 4 17  get
- 1526
: 1528 2 17 For
: 1532 5 17  wak
: 1540 2 17 ing
: 1544 2 17  up
: 1548 2 17  in
: 1552 4 21  Ve
: 1560 4 19 gas
- 1566
: 1568 3 21 Get
: 1572 4 21  up
: 1580 2 22  and
: 1584 4 22  shake
: 1592 2 21  the
: 1596 6 21  gli
: 1604 2 19 tter
- 1607
: 1608 2 19 Off
: 1612 2 17  your
: 1616 5 21  clothes
: 1624 3 19  no
: 1628 2 17 ~w
- 1631
: 1632 3 17 That's
: 1636 3 17  what
: 1644 2 17  you
: 1648 4 17  get
- 1654
: 1656 2 17 For
: 1660 5 17  wak
: 1668 2 17 ing
: 1672 2 17  up
: 1676 2 17  in
* 1680 6 21  Ve
: 1688 5 19 gas
- 1695
: 1704 5 22 You
: 1712 4 21  got
: 1720 6 17  me
: 1728 5 22  in
: 1736 5 21 to
: 1744 6 17  thi
* 1752 4 15 ~s
- 1758
: 1760 2 24 In
: 1764 2 24 for
: 1768 2 24 ma
: 1772 2 24 tion
: 1776 2 24  o
: 1780 2 21 ver
: 1784 5 21 load
- 1790
: 1792 2 22 Si
: 1796 2 22 tu
: 1800 2 22 a
: 1804 2 22 tion
: 1808 2 22  lost
: 1812 2 21  con
: 1816 7 21 trol
- 1825
* 1832 4 22 Send
: 1840 5 21  out
: 1848 4 17  an
: 1856 4 22  S
: 1864 3 21 O
: 1868 2 22 ~
: 1872 8 17 S
- 1882
: 1916 3 17 Ha,
: 1924 2 14  and
: 1928 2 17  get
: 1932 2 14  some
: 1936 4 17  cash
: 1944 3 14  ou
: 1948 12 12 ~t
- 1962
: 1988 2 17 We're
: 1992 2 17  gon
: 1996 2 17 na
: 2000 4 22  tear
: 2006 4 21  up
: 2012 2 19  the
: 2016 23 19  town
- 2041
* 2044 6 21 Yeah,
: 2052 2 21  don't
: 2056 2 19  be
: 2060 2 17  a
: 2064 6 17  Ba
: 2072 2 14 by
- 2075
: 2076 2 12 Re
: 2080 2 22 mem
: 2084 2 21 ber
: 2088 2 21  what
: 2092 2 19  you
: 2096 8 19  told
* 2108 11 17  me
- 2121
: 2140 2 12 Re
: 2144 2 22 mem
: 2148 2 21 ber
: 2152 2 21  what
: 2156 2 19  you
: 2160 8 19  told
: 2172 14 17  me
- 2188
: 2204 2 12 Re
: 2208 2 22 mem
: 2212 2 21 ber
: 2216 2 21  what
: 2220 2 19  you
: 2224 7 19  told
* 2236 3 21  me
: 2240 3 19 ~
- 2245
: 2248 8 19 Told
: 2260 3 21  me
: 2264 2 19 ~
: 2272 7 19  Told
: 2284 5 21  me
- 2291
* 2336 17 21 Hey
: 2356 3 22 ~
: 2360 2 21 ~
: 2364 46 24  ya!
- 2412
: 2432 3 17 That's
: 2437 3 17  what
: 2444 2 17  you
: 2448 4 17  get
- 2454
: 2456 2 17 For
: 2460 5 17  wak
: 2468 2 17 ing
: 2472 2 17  up
: 2476 2 17  in
* 2480 4 21  Ve
: 2488 4 19 gas
- 2494
: 2496 3 21 Get
: 2500 4 21  up
: 2508 2 22  and
: 2512 4 22  shake
: 2520 2 21  the
: 2524 6 21  gli
: 2532 2 19 tter
- 2535
: 2536 2 19 Off
: 2540 2 17  your
: 2544 5 21  clothes
: 2552 3 19  no
: 2556 2 17 ~w
- 2559
: 2560 3 17 That's
: 2564 3 17  what
: 2572 2 17  you
: 2576 4 17  get
- 2582
: 2584 2 17 For
: 2588 5 17  wak
: 2596 2 17 ing
: 2600 2 17  up
: 2604 2 17  in
: 2608 6 21  Ve
* 2616 5 19 gas
- 2623
: 2660 2 19 That's
: 2664 3 24  what
: 2668 2 21  you
: 2672 4 24  get
: 2680 6 19  ba
: 2688 7 19 by
- 2697
: 2740 2 24 Shake
: 2744 2 21  the
* 2748 10 24  gli
: 2760 6 21 tter
- 2768
: 2788 4 24 Shake,
: 2796 4 24  shake,
: 2804 2 24  shake
: 2808 2 21  the
: 2812 10 24  gli
: 2824 6 21 tter
- 2832
: 2880 2 17 Just
: 2884 2 21  give
: 2888 2 21  me
: 2892 2 19  some
: 2896 5 21  cash
: 2904 5 19  out
: 2912 8 17  ba
: 2924 3 19 by
: 2929 4 17 ~
- 2935
: 2948 2 21 Give
: 2952 2 21  me
: 2956 2 19  some
: 2960 5 21  cash
: 2968 5 19  out
* 2976 8 17  ba
: 2988 4 19 by
: 2993 4 17 ~
E