#TITLE:Give It Up
#ARTIST:KC & The Sunshine Band
#MP3:KC & The Sunshine Band - Give It Up.mp3
#VIDEO:KC & The Sunshine Band - Give It Up.mp4
#COVER:KC & The Sunshine Band - Give It Up [CO].jpg
#BACKGROUND:KC & The Sunshine Band - Give It Up [BG].jpg
#BPM:250,08
#GAP:30750
#VIDEOGAP:0
#ENCODING:UTF8
: 0 2 7 Ev
: 4 2 7 er
: 8 2 10 y
: 16 2 5 bo
: 24 2 5 dy
: 28 2 5  wants
: 36 2 3  you
- 40
: 64 2 7 Ev
: 68 2 7 er
* 72 2 10 y
: 80 2 5 bo
: 88 2 5 dy
- 91
: 92 2 5 Wants
: 100 2 3  your
: 104 2 3  love
- 108
: 128 2 7 I'd
: 136 2 10  just
: 144 2 5  like
: 152 2 5  to
: 156 2 5  make
: 164 2 3  you
- 168
: 172 2 5 Mine
: 180 2 3  all
* 188 2 3  night 
* 192 2 0 ~ 
* 196 2 -2 ~
- 200
: 256 1 3 Na,
: 258 1 3  na,
* 262 1 3  na,
* 264 1 3  na,
: 268 1 3  na,
: 270 1 3  na,
: 274 1 3  na,
: 276 1 3  na
- 278
: 280 2 3 Na,
: 284 2 3  na,
: 288 2 3  na
- 292
: 304 2 0 Ba
: 308 2 0 by
: 312 2 2  give
: 316 2 2  it
: 320 2 3  up
- 324
: 328 2 7 Give
: 332 2 7  it
: 336 2 5  up
- 340
* 348 4 8 Ba
: 356 2 8 by
: 360 2 7  give
: 364 2 5  it
: 368 2 3  up 
: 372 2 5 ~
- 376
: 384 1 3 Na,
: 386 1 3  na,
: 390 1 3  na,
: 392 1 3  na,
: 396 1 3  na,
: 398 1 3  na,
: 402 1 3  na,
: 404 1 3  na
- 406
: 408 2 3 Na,
: 412 2 3  na,
: 416 2 3  na
- 420
: 432 2 0 Ba
: 436 2 0 by
: 440 2 2  give
: 444 2 2  it
: 448 2 3  up
- 452
: 456 2 7 Give
* 460 2 7  it
: 464 2 5  up
- 468
: 476 4 8 Ba
: 484 2 8 by
: 488 2 7  give
: 492 2 5  it
: 496 2 3  up 
: 500 2 5 ~
- 504
: 640 2 7 Ev
: 644 2 7 er
: 648 2 10 y
: 656 2 5 bo
: 664 2 5 dy
: 668 2 5  sees
: 676 2 3  you
- 680
: 704 2 7 Ev
: 708 2 7 er
* 712 2 10 y
: 720 2 5 bo
: 728 2 5 dy
- 731
: 732 2 5 Looks
: 740 2 3  and
: 744 2 3  stares
- 748
: 768 2 7 I'd
: 776 2 10  just
: 784 2 5  like
: 792 2 5  to
: 796 2 5  make
: 804 2 3  you
- 808
: 812 2 5 Mine
: 820 2 3  all
* 828 2 3  night 
* 832 2 0 ~ 
* 836 2 -2 ~
- 840
: 896 1 3 Na,
: 898 1 3  na,
* 902 1 3  na,
* 904 1 3  na,
: 908 1 3  na,
: 910 1 3  na,
: 914 1 3  na,
: 916 1 3  na
- 918
: 920 2 3 Na,
: 924 2 3  na,
: 928 2 3  na
- 932
: 944 2 0 Ba
: 948 2 0 by
* 952 2 2  give
: 956 2 2  it
: 960 2 3  up
- 964
: 968 2 7 Give
: 972 2 7  it
: 976 2 5  up
- 980
: 988 4 8 Ba
: 996 2 8 by
: 1000 2 7  give
: 1004 2 5  it
: 1008 2 3  up 
: 1012 2 5 ~
- 1016
: 1024 1 3 Na,
: 1026 1 3  na,
: 1030 1 3  na,
: 1032 1 3  na,
: 1036 1 3  na,
: 1038 1 3  na,
: 1042 1 3  na,
: 1044 1 3  na
- 1046
: 1048 2 3 Na,
: 1052 2 3  na,
: 1056 2 3  na
- 1060
: 1072 2 0 Ba
: 1076 2 0 by
: 1080 2 2  give
: 1084 2 2  it
: 1088 2 3  up
- 1092
: 1096 2 7 Give
: 1100 2 7  it
: 1104 2 5  up
- 1108
* 1116 4 8 Ba
: 1124 2 8 by
: 1128 2 7  give
: 1132 2 5  it
: 1136 2 3  up 
: 1140 2 5 ~
- 1144
: 1264 2 7 Give
: 1268 2 7  it
: 1272 2 5  up
- 1276
: 1665 1 3 Na,
: 1667 1 3  na,
* 1671 1 3  na,
* 1673 1 3  na,
: 1677 1 3  na,
: 1679 1 3  na,
: 1683 1 3  na,
: 1685 1 3  na
- 1687
: 1689 2 3 Na,
: 1693 2 3  na,
: 1697 2 3  na
- 1701
: 1713 2 0 Ba
: 1717 2 0 by
: 1721 2 2  give
: 1725 2 2  it
: 1729 2 3  up
- 1733
: 1737 2 7 Give
: 1741 2 7  it
: 1745 2 5  up
- 1749
* 1757 4 8 Ba
: 1765 2 8 by
: 1769 2 7  give
: 1773 2 5  it
: 1777 2 3  up 
: 1781 2 5 ~
- 1785
: 1793 1 3 Na,
: 1795 1 3  na,
: 1799 1 3  na,
: 1801 1 3  na,
: 1805 1 3  na,
: 1807 1 3  na,
: 1811 1 3  na,
: 1813 1 3  na
- 1815
: 1817 2 3 Na,
: 1821 2 3  na,
: 1825 2 3  na
- 1829
: 1841 2 0 Ba
: 1845 2 0 by
* 1849 2 2  give
: 1853 2 2  it
: 1857 2 3  up
- 1861
: 1865 2 7 Give
: 1869 2 7  it
: 1873 2 5  up
- 1877
: 1885 4 8 Ba
: 1893 2 8 by
: 1897 2 7  give
: 1901 2 5  it
: 1905 2 3  up 
: 1909 2 5 ~
- 1913
: 2049 2 7 Ev
: 2053 2 7 er
: 2057 2 10 y
: 2065 2 5 bo
: 2073 2 5 dy
: 2077 2 5  wants
: 2085 2 3  you
- 2089
: 2113 2 7 Ev
: 2117 2 7 er
* 2121 2 10 y
: 2129 2 5 bo
: 2137 2 5 dy
: 2141 2 5  wants
: 2149 2 3  your
: 2153 2 3  love
- 2157
: 2177 2 7 I'd
: 2185 2 10  just
: 2193 2 5  like
: 2201 2 5  to
: 2205 2 5  make
: 2213 2 3  you
- 2217
: 2221 2 5 Mine
: 2229 2 3  all
* 2237 2 3  night 
* 2241 2 0 ~ 
* 2245 2 -2 ~
- 2249
: 2305 1 3 Na,
: 2307 1 3  na,
: 2311 1 3  na,
: 2313 1 3  na,
: 2317 1 3  na,
: 2319 1 3  na,
: 2323 1 3  na,
: 2325 1 3  na
- 2327
: 2329 2 3 Na,
: 2333 2 3  na,
: 2337 2 3  na
- 2341
: 2353 2 0 Ba
: 2357 2 0 by
: 2361 2 2  give
: 2365 2 2  it
: 2369 2 3  up
- 2373
: 2377 2 7 Give
* 2381 2 7  it
: 2385 2 5  up
- 2389
: 2397 4 8 Ba
: 2405 2 8 by
: 2409 2 7  give
: 2413 2 5  it
: 2417 2 3  up 
: 2421 2 5 ~
- 2425
: 2433 1 3 Na,
: 2435 1 3  na,
: 2439 1 3  na,
: 2441 1 3  na,
: 2445 1 3  na,
: 2447 1 3  na,
: 2451 1 3  na,
: 2453 1 3  na
- 2455
: 2457 2 3 Na,
: 2461 2 3  na,
: 2465 2 3  na
- 2469
: 2481 2 0 Ba
: 2485 2 0 by
: 2489 2 2  give
: 2493 2 2  it
: 2497 2 3  up
- 2501
: 2505 2 7 Give
: 2509 2 7  it
: 2513 2 5  up
- 2517
* 2525 4 8 Ba
: 2533 2 8 by
: 2537 2 7  give
: 2541 2 5  it
: 2545 2 3  up 
: 2549 2 5 ~
- 2552
: 2553 2 3 Can
: 2557 2 5  you
: 2561 2 7  give
: 2565 2 7  it
- 2568
: 2569 2 5 Can
: 2573 2 3  you
: 2577 2 5  give
: 2581 2 5  it
- 2584
: 2585 2 3 Give
: 2589 2 3  it
: 2593 2 3  up
- 2597
: 2605 2 8 Come
: 2609 2 8  on
: 2613 2 8  ba
: 2617 2 8 by
- 2620
: 2621 2 8 I
: 2625 2 7  need
* 2629 2 7  your
* 2633 2 5  love 
: 2637 2 3 ~
- 2641
: 2681 2 3 Do
: 2685 2 5  you
: 2689 2 7  know
: 2693 2 7  I
- 2696
: 2697 2 5 Want
: 2701 2 3  it
: 2705 2 5  ba
: 2709 2 0 ~
: 2713 2 0 by
- 2717
: 2733 2 8 Come
: 2737 2 8  on
: 2741 2 8  ba
: 2745 2 8 by
- 2748
: 2749 2 8 I
: 2753 2 7  want
* 2757 2 7  your
* 2761 2 5  love 
* 2765 2 3 ~
E