#TITLE:Petite Emilie
#ARTIST:Keen V
#MP3:Keen'v - Petite Emilie.mp3
#VIDEO:Keen'v - Petite Emilie.mp4
#COVER:Keen'v - Petite Emilie.jpg
#BPM:480
#GAP:23390
#ENCODING:UTF8
: 0 6 -1 Pe
: 8 6 -1 tite
: 16 4 4  É
: 22 6 2 mi
: 30 4 1 lie,
: 50 8 2  6 ans
* 60 4 4  et
* 66 8 2  de
* 76 6 1 mi
- 88
: 90 4 2 Est
: 96 8 -1  l'u
: 106 8 4 nique
: 116 6 2  fille
: 124 6 1  d'une
: 132 4 1  fa
: 138 4 1 mille
: 144 6 1  re
: 152 8 -1 cons
: 168 8 4 truite,
- 178
: 180 4 1 Une
: 186 8 -1  mere
: 196 10 4  pour
: 208 8 2  qui
: 218 4 1  elle
: 224 4 1  est
: 230 14 1  toute
: 252 4 4  sa
: 258 8 2  vie,
- 270
: 272 4 1 Et
: 278 4 -1  un
: 284 2 4  beau
: 288 4 4  pere
: 294 4 2  qui
: 300 4 2  l'aime
: 306 4 -1  comme
: 312 2 -1  si
: 316 4 -1  elle
: 322 4 -1  é
: 328 4 -1 tait
: 334 8 -1  de
: 344 8 -3  lui
- 362
: 366 4 1 Si
: 372 7 1  gen
: 382 4 6 tille,
: 388 4 4  si
: 394 16 3  belle,
: 412 2 4  des
: 416 10 1  yeux
: 428 4 6  qu'en
: 434 4 4 sor
: 440 6 3 cellent
- 458
: 462 4 2 Pour
: 468 4 -1  ceux
: 474 14 2  d'sa
: 490 10 6  mere
: 502 2 1  elle
: 506 4 1  en
: 512 5 1  é
* 518 4 1 tait
* 524 8 -1  la
* 534 8 4  prunelle
- 549
: 552 10 1 Elle
: 564 4 4  ne
: 570 4 2  pou
: 575 5 2 vait
: 582 10 1  pas
: 594 1 -3  vivre
: 596 16 2  l'une
: 618 4 4  sans
: 624 8 2  elle
- 638
: 640 2 1 Leur
: 644 5 -6  re
: 650 4 4 la
: 656 4 2 tion
: 662 5 1  é
: 668 1 -1 tait
: 670 3 -1  de
: 674 3 -1 ve
: 678 4 -1 nue
: 684 4 -1  plus
: 690 2 -1  que
: 694 6 -1  fu
: 701 10 -1 sio
: 712 8 -3 nnelle
- 784
: 1102 5 -1 Pe
: 1108 4 -1 tite
: 1114 4 4  É
: 1119 5 2 mi
: 1125 7 1 lie,
: 1142 14 2  a
: 1158 2 -1  8 ans
: 1162 5 2  pa
: 1168 8 1 ssés,
- 1183
: 1186 2 2 Rien
: 1190 10 2  n'a
: 1202 9 2  chan
: 1212 4 4 gé
: 1218 4 1  sauf
: 1224 4 1  qu'elle
: 1230 4 1  a
: 1236 4 1  dé
: 1242 4 1 mé
: 1247 8 2 na
: 1256 8 4 gé,
- 1271
: 1274 6 1 Fi
: 1282 10 1 ni
: 1294 6 4  la
: 1302 15 2  cam
: 1318 4 1 pagne
: 1324 15 1  i
: 1340 6 4 so
: 1347 7 2 lée,
- 1360
: 1362 4 1 Elle
: 1368 2 1  vit
: 1372 5 4  main
: 1378 5 4 te
: 1384 4 4 nant
: 1390 2 6  en
: 1394 4 -1  ville
: 1400 4 -1  car
: 1406 2 -1  sa
: 1410 5 -1  ma
: 1416 4 -1 man
: 1422 10 -1  fut
: 1434 8 -3  mutée
- 1449
: 1452 2 -1 Une
: 1456 9 -1  nou
: 1466 4 4 velle
: 1472 6 2  é
: 1479 13 1 cole,
: 1494 4 2  de
* 1500 9 -1  nou
* 1510 4 -1 veaux
: 1516 6 -1  a
: 1523 7 1 mis,
- 1537
: 1540 2 2 Elle
: 1544 4 -1  ne
: 1550 2 4  mit
: 1554 4 4  pas
: 1560 5 2  long
: 1566 4 2 temps
: 1572 2 1  a
: 1576 5 1  s'a
: 1582 5 1 dap
: 1588 4 1 ter
: 1600 2 1  a
: 1605 10 -1  cette
: 1618 8 4  vie
- 1628
: 1630 4 1 Du
: 1636 4 -3  haut
: 1642 4 4  de
: 1648 8 4  ses
: 1658 4 2  8 ans
: 1664 2 1  on
: 1668 4 1  peut
: 1674 4 1  dire
: 1686 10 1  qu'elle
: 1698 2 4  est
: 1702 6 4  ra
: 1710 6 2 vie,
- 1718
: 1720 2 1 Car
: 1724 4 -1  tout
: 1730 2 4  va
: 1734 4 4  pour
: 1740 4 2  le
: 1746 4 2  mieux
: 1752 10 -1  pour
: 1776 4 -1  pe
: 1780 4 -1 tite
: 1786 6 -1  É
: 1793 10 -1 mi
: 1804 8 -3 lie
- 1876
: 2188 4 -1 Pe
: 2193 6 -1 tite
: 2204 4 4  É
: 2209 5 2 mi
: 2215 7 1 lie,
: 2232 14 2  a
: 2248 2 -1  10 ans
: 2252 6 2  é
: 2259 7 1 tait
- 2273
: 2276 4 2 De
: 2282 6 -1 v'nue
: 2290 10 4  une
: 2302 6 2  pe
: 2309 7 1 tite
: 2318 10 1  fi
: 2330 2 1 lle
* 2334 11 1  com
* 2346 8 4 blée
- 2361
: 2364 2 1 On
: 2368 10 -1  peut
: 2380 8 4  dire
: 2390 6 2  que
: 2398 9 1  l'é
: 2408 2 1 cole
: 2412 14 1  lui
: 2428 6 4  plai
: 2435 7 2 sait,
- 2449
: 2452 2 1 Bonne
: 2456 5 -3  é
: 2462 4 1 leve
: 2468 2 4  pour
: 2472 5 4  ma
: 2478 4 6 man
: 2484 4 -1  elle
: 2490 4 -1  en
: 2496 4 -1  é
: 2502 2 -1 tait
: 2506 4 -1  une
: 2512 11 -3  fier
: 2524 8 -1 té
- 2538
: 2540 4 -1 Un
: 2546 8 -1  peu
: 2556 4 4  ron
: 2562 4 2 de
: 2567 15 1 lette,
: 2588 4 2  de
: 2594 8 -1  bonne
: 2604 5 -1  pe
: 2610 2 -1 tites
: 2617 8 1  joues,
- 2626
: 2628 4 2 Elle
: 2634 4 -1  e
: 2640 2 4 ssuie
: 2644 4 4  les
: 2650 6 2  cri
: 2657 7 2 tiques
: 2668 3 1  de
: 2674 11 1  quel
: 2686 1 1 ques
: 2696 11 -1  ja
: 2709 7 4 loux,
- 2722
: 2724 5 1 De
: 2730 7 -1 vant
: 2740 9 4  les
: 2752 3 2  profs
: 2758 3 1  ils
: 2764 3 1  la
: 2768 9 1 ppe
: 2778 9 1 laient
: 2790 5 1  "Bouffe
: 2800 7 4 Tout",
- 2815
: 2818 2 1 Mais
: 2822 8 -1  ce
: 2832 1 4  ne
: 2834 8 1  sont
: 2844 4 2  que
: 2850 2 -1  des
: 2854 6 -1  en
: 2861 9 -1 fants
: 2872 4 -1  a
: 2878 10 -3 pres
: 2892 8 -1 tout
- 2964
* 3278 6 -1 Pe
* 3285 6 -1 tite
* 3294 5 4  É
* 3300 6 2 m
* 3307 6 1 ilie,
: 3322 14 2  a
: 3338 4 -1  12 ans
: 3344 6 -1  main
: 3351 7 1 tenant,
- 3364
: 3366 5 2 A
: 3372 5 -1 do
: 3378 3 -1 les
: 3382 4 -1 cente
: 3388 5 -1  ren
: 3394 3 2 fer
: 3398 4 1 mée
: 3404 4 1  au
: 3410 4 1  grand
: 3416 2 1  damne
: 3420 4 1  de
: 3426 11 -1  ma
: 3438 8 1 man,
- 3453
: 3456 5 1 Fi
: 3462 2 -1 ni
: 3466 4 -1  le
: 3472 3 -1  jo
: 3476 4 -1 lie
: 3482 13 1  vi
: 3496 11 1 sa
: 3508 4 -1 ge
: 3514 10 -3  sou
: 3526 8 1 riant,
- 3540
: 3542 4 1 C'est
: 3548 2 -3  une
: 3552 4 -3  p'tite
: 3558 4 -3  fille
: 3564 5 -3  mau
: 3570 2 1 ssade
: 3574 4 1  qu'elle
: 3580 4 -1  est
: 3586 4 -1  de
: 3592 4 -1 v'nue
: 3598 2 -1  a
: 3602 10 -1  prés
: 3614 8 -3 ent
- 3629
: 3632 4 -1 Faut
: 3638 8 4  dire
: 3648 4 4  qu'au
: 3654 6 4  co
: 3662 10 6 llege
: 3687 4 6  tout
: 3693 11 6  a
: 3705 4 6 vait
: 3711 4 4  chan
: 3716 7 2 gé,
- 3724
: 3726 4 2 Trop
: 3732 6 1  d'é
: 3739 9 1 leves
: 3750 2 2  ne
: 3754 6 2  fai
: 3761 7 2 saient
: 3770 4 1  que
: 3776 4 1  de
: 3782 4 1  se
: 3788 8 1  mo
: 3798 8 1 quer,
- 3813
: 3816 5 1 Par
: 3822 6 4 tout
: 3830 12 4  elle
: 3844 6 6  se
: 3852 7 4  sen
: 3860 2 4 tait
: 3864 17 4  re
: 3882 6 4 je
: 3889 7 4 tée,
- 3903
: 3906 6 4 Tan
: 3913 9 4 tôt
: 3924 10 4  frap
: 3935 13 9 pée,
: 3950 6 8  tan
: 3957 5 8 tôt
: 3964 7 8  in
: 3972 6 9 ju
: 3980 8 11 riée
- 3992
: 3994 4 11 Elle
: 4000 8 11  se
: 4010 5 11  de
: 4016 6 11 man
: 4023 13 13 dait
: 4044 6 14  co
: 4051 7 14 mment
: 4059 10 14  faire
: 4072 15 16  face,
- 4090
: 4092 4 14 Elle
: 4098 5 14  é
: 4104 2 14 tait
: 4108 5 14  de
: 4114 5 14 ve
: 4120 2 16 nue
: 4124 4 18  le
: 4130 4 18  souffre
: 4136 5 18  dou
: 4142 2 18 leur
: 4146 4 18  de
: 4152 10 16  la
: 4164 8 13  classe,
- 4174
: 4176 4 13 Sur
: 4182 4 16  les
: 4188 3 16  ré
: 4192 4 16 seaux
: 4198 5 16  so
: 4204 4 18 ciaux
: 4210 2 16  ils
: 4214 6 16  la
: 4222 8 16 ppelaient
: 4234 10 16  "la
: 4246 5 16  dé
: 4252 5 16 gueu
: 4258 7 16 lasse",
- 4265
: 4266 2 16 Des
: 4270 4 16  pho
: 4276 4 16 tos
: 4282 2 16  d'elle
: 4292 4 16  tour
: 4298 4 21 nait
: 4306 4 20  mon
: 4312 4 20 trant
: 4318 4 20  son
: 4324 10 20  ventre
: 4336 4 20  qui
: 4342 4 18  dé
: 4347 7 16 passe
- 4358
: 4360 4 16 Ne
: 4366 10 16  sa
: 4378 8 16 chant
: 4388 20 18  pas
: 4410 10 18  co
: 4422 8 16 mment
: 4432 8 18  faire,
- 4450
: 4454 8 18 Ni
: 4464 10 16  co
: 4476 4 18 mment
: 4482 5 16  réa
: 4488 4 16 gir
: 4494 8 16  a
: 4504 4 16  cet
: 4510 11 16  en
: 4522 8 18 fer,
- 4536
: 4538 4 16 Par
: 4544 8 16  honte
: 4554 4 16  et
: 4560 2 14  ne
: 4564 6 16  vou
: 4570 4 16 lant
: 4576 4 14  pas
: 4582 6 14  a
: 4588 4 16 ffo
: 4592 4 16 ler
: 4602 10 14  sa
: 4614 12 16  mere,
- 4630
: 4632 6 16 Pe
: 4639 7 13 tite
: 4648 10 13  É
: 4660 4 16 mi
: 4665 3 16 lie
: 4670 5 16  dé
: 4676 5 16 ci
: 4682 4 14 da
: 4688 2 14  de
: 4692 10 13  se
: 4704 8 11  taire
- 4744
: 4780 10 11 Mais
: 4792 8 13  un
: 4802 20 16  soir
: 4824 10 18  de
: 4836 10 18  dé
: 4846 8 20 cembre,
- 4860
: 4862 4 18 Pe
: 4868 4 18 tite
: 4874 5 18  É
: 4880 4 18 mi
: 4885 3 18 lie
: 4890 5 18  ren
: 4896 2 18 tra
: 4900 4 16  chez
: 4906 10 16  elle
: 4918 4 16  dé
: 4923 10 16 nu
: 4934 8 18 dée,
- 4949
: 4952 2 16 Ses
: 4956 10 11  ca
: 4967 13 16 ma
: 4981 17 15 rades
: 5000 10 16  tous
: 5012 9 16  en
: 5022 8 18 semble
- 5040
: 5044 3 20 L'a
: 5048 4 20 vaient
: 5054 4 20  en
: 5060 4 20 fermée
: 5070 2 20  dans
: 5074 4 20  les
: 5080 9 20  ves
: 5090 4 18 tiaires
: 5098 4 18  pour
: 5104 4 18  la
: 5110 9 18  dou
: 5120 8 16 cher
- 5132
: 5134 8 18 C'en
: 5144 12 18  é
: 5157 20 20 tait
* 5188 14 18  trop
* 5204 4 18  pour
: 5210 8 16  elle,
- 5220
: 5222 14 18 Trop
: 5238 2 18  qu'elle
: 5242 10 18  n'puisse
: 5254 8 16  en
: 5264 10 16 core
: 5280 6 16  su
: 5289 12 16 ppor
: 5303 9 15 ter,
- 5314
: 5316 4 16 Alors
: 5322 12 16  elle
: 5344 6 16  é
: 5351 13 15 ten
: 5366 8 16 dit
: 5384 10 16  ses
: 5396 12 16  ailes,
- 5418
: 5422 10 16 Et
: 5434 8 16  prit
: 5444 4 16  son
* 5450 10 16  en
* 5461 15 16 vol
* 5478 8 15  vers
* 5496 4 15  la
* 5504 20 13  paix
E