#TITLE:I Can't Help Myself
#ARTIST:Kelly Family
#MP3:Kelly Family - I Can't Help Myself.mp3
#COVER:Kelly Family - I Can't Help Myself [CO].jpg
#BACKGROUND:Kelly Family - I Can't Help Myself [BG].jpg
#BPM:96
#GAP:9840
: 0 2 56 If
: 2 2 63  I
: 4 4 65  would
: 8 4 63  tell
: 12 3 61  you
- 15
: 16 2 56 How
: 18 2 63  much
: 20 3 65  you
: 24 3 63  mean
: 28 2 61  to
: 30 2 61  me
- 31
: 32 2 61 I
: 34 2 66  think
: 36 2 65  you
: 38 2 61  would
: 41 1 61 n't
: 42 4 61  un
: 46 2 58 der
: 48 4 65 stand
: 52 2 63  it
- 58
: 60 1 56 So
: 62 2 56  I'll
: 64 3 63  wait,
: 68 3 65  I'll
: 72 4 63  wait
: 76 2 61 
- 81
: 81 1 56 Un
: 82 2 63 til
: 84 3 65  this
: 88 3 63  day
: 92 2 61  comes
- 95
: 96 2 56 And
: 98 4 66  you
: 102 2 65  will
: 104 4 63  un
: 108 4 61 der
: 112 4 58 stand
: 116 5 56  me
- 125
: 128 2 65 But
: 130 2 65  I
: 132 4 65  can't
: 136 3 63  help
: 140 2 61  my
: 142 2 61 self
- 145
: 146 1 65 I
: 148 3 65  can't
: 152 3 63  stop
: 156 2 61  my
: 158 3 61 self
- 162
: 166 2 66 I
: 168 1 65  am
: 170 2 63  go
: 172 3 61 ing
: 176 4 65  cra
: 180 4 63 zy
- 190
: 192 1 56 And
: 194 2 63  I
: 196 2 65  can't
: 199 5 63  stop
: 204 2 61  my
: 206 2 61 self
- 209
: 210 2 63 Can
: 212 2 65  I
: 214 2 65  con
: 216 4 63 trol
: 220 2 61  my
: 222 2 61 self?
- 226
: 230 2 61 I
: 232 1 58  am
: 234 2 61  go
: 236 2 58 ing
: 240 4 65  cra
: 244 5 63 zy
- 251
: 252 1 73 And
: 254 2 73  I
: 256 4 73  love
: 260 2 68  you,
: 262 1 73  I
: 264 4 73  want
: 268 2 68  you
- 271
: 272 1 73 I
: 274 1 73  wan
: 275 1 73 na
: 276 2 70  talk
: 278 2 68  to
: 280 5 66  you
- 290
: 294 1 73 I
: 296 4 73  wan
: 300 1 68 na
: 302 2 73  be
: 304 4 75  with
: 308 5 75  you
- 315
: 316 2 73 And
: 318 2 73  I
: 320 4 73  love
: 324 2 68  you,
: 326 2 73  I
: 328 4 73  want
: 332 3 68  you
- 335
: 336 1 73 I
: 337 1 73  wan
: 338 1 73 na
: 339 3 70  talk
: 342 2 68  to
: 344 4 66  you
- 351
: 361 1 68 Wan
: 362 1 68 na
: 363 4 70  be
: 367 5 70  with
: 372 6 68  you
- 382
: 384 1 65 I
: 386 2 65  can
: 388 3 65  not
: 392 4 63  change
: 396 2 61  it
- 399
: 400 1 56 I'm
: 402 1 63  sure
: 403 3 65  not
: 408 4 63  ma
: 412 2 61 kin'
: 414 3 61  it
- 420
: 422 2 66 One
: 424 2 65  big
: 426 2 63  hell
: 428 2 61  of
: 430 2 58  a
: 432 3 65  fuss
: 435 7 63 
- 445
: 447 1 68 I
: 448 3 75  can
: 451 4 77  not
: 456 3 75  turn
: 459 2 73  my
: 461 3 73  back
- 464
: 465 2 75 I've got
: 468 3 77  to
: 472 3 75  face
: 476 1 73  the
: 477 5 73  fact
- 484
: 486 2 73 Life
: 488 2 70  with
: 490 2 73 out
: 492 2 73  you
: 494 1 70  is
: 496 3 77  ha
: 499 6 75 zy
- 508
: 509 1 73 And
: 510 1 73  I
: 512 3 73  love
: 515 2 68  you,
: 518 1 73  I
: 520 4 73  want
: 524 2 68  you
- 526
: 528 1 73 I
: 529 1 73  wan
: 530 1 73 na
: 532 2 70  talk
: 534 2 68  to
: 536 5 66  you
- 548
: 550 1 73 I
: 552 3 73  wan
: 555 2 68 na
: 558 2 73  be
: 560 3 75  with
: 564 5 75  you
- 570
: 572 1 73 And
: 574 2 73  I
: 576 4 73  love
: 580 2 68  you,
: 582 2 73  I
: 584 4 73  want
: 588 3 68  you
- 591
: 592 1 73 I
: 593 1 73  wan
: 594 1 73 na
: 595 2 70  talk
: 597 2 68  to
: 600 4 66  you
- 610
: 616 1 63 I
: 617 1 68  wan
: 618 1 68 na
: 620 3 70  be
: 623 5 70  with
: 628 6 68  you
- 640
: 642 2 75 Kiss
: 644 3 77  me,
: 648 3 75  thrill
: 652 3 77  me
- 655
: 656 3 78 And don't
: 659 2 77  say
: 661 3 75  good
: 664 6 73 bye
- 670
: 672 3 75 Hold
: 676 3 77  me,
: 680 3 75  love
: 684 3 77  me
- 687
: 688 3 78 Don't
: 691 2 77  say
: 694 2 75  good
: 696 5 73 bye
- 705
: 706 3 78 Oh
: 709 2 77  ooh
: 711 4 75  oh
: 715 4 73  ooh
: 720 3 77  oh
: 723 5 75  ho
- 728
: 729 2 77 And don't
: 731 2 73  say
: 733 2 73  good
: 736 3 73 by
: 739 1 70 
: 740 7 68 e
- 750
: 752 1 75 But
: 754 2 75  I
: 756 3 77  can't
: 760 4 75  help
: 764 2 73  my
: 766 1 73 self
- 767
: 768 1 73 And
: 769 2 75  I
: 771 4 77  can't
: 776 3 75  stop
: 779 2 73  my
: 781 5 73 self
- 787
: 789 2 78 I
: 791 2 77  am
: 793 2 75  go
: 795 3 73 ing
: 799 4 77  cra
: 803 4 75 zy
- 809
: 813 2 68 I
: 816 3 75  can
: 820 3 77  not
: 824 3 75  turn
: 827 2 73  my
: 829 3 73  back
- 832
: 833 2 75 I've got
: 835 2 77  to
: 839 4 75  face
: 843 1 73  the
: 845 5 73  fact
- 849
: 853 2 73 Life
: 855 2 70  with
: 857 2 73 out
: 859 3 73  you
: 862 1 70  is
: 864 3 77  ha
: 867 6 75 zy
- 875
: 876 1 73 And
: 878 2 73  I
: 880 3 73  love
: 883 2 68  you,
: 885 2 73  I
: 888 3 73  want
: 891 3 68  you
- 895
: 896 1 73 I
: 897 1 73  wan
: 898 1 73 na
: 899 2 70  talk
: 901 2 68  to
: 904 5 66  you
- 911
: 917 2 73 I
: 920 3 73  wan
: 923 2 68 na
: 925 2 73  be
: 927 4 75  with
: 931 5 75  you
- 939
: 940 1 73 And
: 942 1 73  I
: 944 3 73  love
: 947 2 68  you,
: 949 2 73  I
: 951 4 73  want
: 955 3 68  you
- 959
: 960 1 73 I
: 961 1 73  wan
: 962 1 73 na
: 963 2 70  talk
: 965 2 68  to
: 967 5 66  you
- 979
: 983 2 56 I
: 985 1 68  wan
: 986 1 68 na
: 987 4 70  be
: 991 3 70  with
: 994 2 70 
: 996 7 68  you
- 1009
: 1010 3 78 Oh
: 1013 2 77  ooh
: 1015 4 75  oh
: 1019 4 73  ooh
: 1024 3 77  oh
: 1027 5 75  oh
- 1040
: 1042 3 78 Oh
: 1045 2 77  ooh
: 1047 4 75  oh
: 1051 3 73  ooh
: 1055 6 68  oh
- 1064
: 1065 2 77 Kiss
: 1067 2 73  me
: 1069 2 73  good
: 1072 8 73 bye
E
