#TITLE:Roses of Red
#ARTIST:Kelly Family
#MP3:Kelly Family - Roses of Red.mp3
#COVER:Kelly Family - Roses of Red [CO].jpg
#BACKGROUND:Kelly Family - Roses of Red [BG].jpg
#BPM:100
#GAP:10580
#ENCODING:UTF8
: 0 2 81 Ros
: 2 2 81 es
: 4 2 83  of
: 6 6 81  red
: 16 2 81  fall
: 18 2 81  on
: 20 2 83  my
: 22 2 81  ha
: 24 3 78 nd
- 29
: 30 2 81 He
: 32 4 80  smiled
: 36 2 78  then
: 38 4 76  turned
: 44 2 78  a
: 46 7 76 way.
- 60
: 64 2 81 Ros
: 66 2 81 es
: 68 2 83  of
: 70 6 81  red
: 80 2 81  grow
: 82 2 81  in
: 84 2 83  my
: 86 2 81  he
: 88 3 78 art
- 90
: 94 2 81 They
: 96 4 80  bloom
: 100 2 78  when
: 102 1 76  he
: 104 2 76  pass
: 106 2 76 es
: 108 2 78  me
: 110 6 76  by.
- 122
: 124 4 81 'Cause
: 128 6 83  he,
: 137 3 78  he makes
: 140 2 76  me
: 142 4 78  hap
: 146 5 76 py
- 156
: 156 4 81 And
: 160 6 83  he,
: 169 3 78  he makes
: 172 2 76  me
: 174 4 78  fl
: 178 5 76 y.
- 185
: 186 2 81 Oh,
: 188 2 83  oh,
: 190 5 81  oh!
: 202 2 81  Oh,
: 204 2 83  oh,
: 206 2 81  o
: 208 2 81 h
: 210 5 78 !
- 220
: 222 2 81 I
: 224 4 80  bloom
: 228 2 78  when
: 230 1 76  he
: 232 2 76  pass
: 234 2 76 es
: 236 2 78  me
: 238 7 76  by!
- 250
: 254 1 76 If
: 255 1 76  you
: 256 1 81  want
: 258 2 81  pa
: 260 2 83 ra
: 262 7 81 dise
- 270
: 270 2 76 Then
: 272 2 81  look
: 274 1 81  at
: 276 2 83  my
: 278 2 81  ey
: 280 2 78 es
- 285
: 286 1 81 I'm
: 287 1 81  as
: 288 3 80  clear
: 292 2 78  as
: 294 1 76  the
: 296 2 76  sky
: 298 2 76  when
: 300 2 78  it's
: 302 10 76  blue.
- 315
: 318 1 76 If
: 319 1 76  you
: 320 1 81  want
: 322 2 81  pa
: 324 2 83 ra
: 326 5 81 dise
- 332
: 334 2 76 Then
: 336 2 81  look
: 338 2 81  at
: 340 2 83  me
: 342 2 81  twi
: 344 2 78 ce
- 349
: 350 1 81 'Cause
: 351 1 81  I'm
: 352 3 80  not
: 356 2 78  a
: 358 4 76  nor
: 362 2 73 mal
: 364 2 78  red
: 366 6 76  rose.
- 378
: 380 4 81 And
: 384 6 83  he,
: 394 2 78  he makes
: 396 2 76  me
: 398 4 78  cra
: 402 6 76 zy
- 411
: 412 4 81 And
: 416 6 83  he,
: 426 2 78  he makes
: 428 2 76  me
: 430 4 78  fl
: 434 6 76 y.
- 441
: 442 2 81 Oh,
: 444 2 83  oh,
: 446 5 81  oh!
: 458 2 81  Oh,
: 460 2 83  oh,
: 462 2 81  o
: 464 2 81 h
: 466 6 78 !
- 475
: 478 2 81 I
: 480 4 80  bloom
: 484 2 78  when
: 486 1 76  he
: 488 2 76  pass
: 490 2 76 es
: 492 2 78  me
: 494 8 76  by.
- 505
: 506 2 81 Oh,
: 508 2 83  oh,
: 510 5 81  oh!
: 522 2 81  Oh,
: 524 2 83  oh,
: 526 2 81  o
: 528 2 81 h
: 530 6 78 !
- 540
: 542 2 81 I
: 544 4 80  bloom
: 548 2 78  when
: 550 1 76  he
: 552 2 76  pass
: 554 2 76 es
: 556 2 78  me
: 558 8 76  by.
- 580
: 704 2 78 I
: 706 2 76  know
: 708 2 73  that
: 710 6 76  he
: 720 1 78  does
: 721 1 76 n't
: 722 4 73  know
: 726 3 76  me
- 729
: 730 2 71 He's just
: 732 2 73  too
: 734 4 71  diff
: 738 8 69 erent.
: 748 2 73  No,
: 750 9 71  no.
- 763
: 766 2 73 And
: 768 2 78  I
: 770 2 76  know
: 772 2 73  he
: 774 5 76  knows
- 780
: 782 2 73 And
: 784 2 78  he
: 786 2 76  knows
: 788 2 73  I
: 790 4 76  know
- 794
: 794 1 81 We're
: 795 1 83  just
: 797 1 85  too
: 798 2 83  dif
: 801 2 81 fer
: 803 5 78 ent.
- 810
: 812 2 85  No,
: 814 4 83  n
: 818 6 81 o.
- 824
: 832 2 81 Ros
: 834 2 81 es
: 836 2 83  of
: 838 7 81  red
: 848 2 81  fall
: 850 2 81  on
: 852 2 83  my
: 854 2 81  ha
: 856 5 78 nd
- 861
: 862 2 81 He
: 864 4 80  smiled
: 868 2 78  then
: 870 5 76  turned
: 876 2 78  a
: 878 11 76 way.
- 895
: 896 2 81 Ros
: 898 2 81 es
: 900 2 83  of
: 902 7 81  red
: 912 2 81  grow
: 914 2 81  in
: 916 2 83  my
: 918 2 81  he
: 920 5 78 art
- 925
: 926 2 81 They
: 928 4 80  bloom
: 932 2 78  when
: 934 1 76  he
: 936 2 76  pass
: 938 2 76 es
: 940 2 78  me
: 942 8 76  by.
- 953
: 954 2 81 Oh,
: 956 2 83  oh,
: 958 6 81  oh!
: 970 2 81  Oh,
: 972 2 83  oh,
: 974 2 81  o
: 976 2 81 h
: 978 6 78 !
- 985
: 990 2 81 I
: 992 4 80  bloom
: 996 2 78  when
: 998 1 76  he
: 1000 2 76  pass
: 1002 2 76 es
: 1004 2 78  me
: 1006 9 76  by.
- 1017
: 1018 2 81 Oh,
: 1020 2 83  oh,
: 1022 8 81  oh!
: 1034 2 81  Oh,
: 1036 2 83  oh,
: 1038 10 81  oh!
- 1045
: 1050 2 81 Oh,
: 1052 2 83  oh,
: 1054 7 81  oh!
: 1066 2 81  Oh,
: 1068 2 83  oh,
: 1070 8 81  oh!
- 1080
: 1082 2 81 Oh,
: 1084 2 83  oh,
: 1086 7 81  oh!
: 1098 2 81  Oh,
: 1100 2 83  oh,
: 1102 7 81  oh!
- 1110
: 1114 2 81 Oh,
: 1116 2 83  oh,
: 1118 8 81  oh!
: 1130 2 81  Oh,
: 1132 2 83  oh,
: 1134 10 81  oh!
- 1142
: 1146 2 81 Oh,
: 1148 2 83  oh,
: 1150 6 81  oh!
: 1162 2 81  Oh,
: 1164 2 83  oh,
: 1166 2 81  o
: 1168 4 79 h!
- 1174
: 1178 2 81 Oh,
: 1180 2 83  oh,
: 1182 6 81  oh!
: 1194 2 81  Oh,
: 1196 2 83  oh,
: 1198 8 81  oh!
- 1205
: 1210 2 81 Oh,
: 1212 2 83  oh,
: 1214 6 81  oh!
: 1226 2 81  Oh,
: 1228 2 83  oh,
: 1230 3 81  o
: 1233 3 79 h!
- 1240
: 1242 2 81 Oh,
: 1244 2 83  oh,
: 1246 6 81  oh!
: 1258 2 81  Oh,
: 1260 2 83  oh,
: 1262 6 81  oh!
- 1270
: 1274 2 81 Oh,
: 1276 2 83  oh,
: 1278 6 81  oh!
: 1290 2 81  Oh,
: 1292 2 83  oh,
: 1294 5 81  oh!
: 1306 2 81 Oh,
: 1308 2 83  oh,
- 1310
: 1310 6 81  oh!
: 1322 2 81  Oh,
: 1324 2 83  oh,
: 1326 6 81  oh!
E