#TITLE:No Me Mirčs mŕs
#ARTIST:Kenji Girac
#MP3:Kendji Girac Soprano - No Me Mirès Màs.mp3
#VIDEO:Kendji Girac, Soprano - No Me Mirès Màs.mp4
#COVER:Kendji Girac Soprano - No Me Mirès Màs.jpg
#BPM:190
#GAP:690
#ENCODING:UTF8
: 0 1 16 No
: 4 1 16  me
: 6 3 16  mi
: 10 1 16 res
: 14 5 16  mas
: 22 3 9  mi
: 26 1 9 res
: 30 5 16  mas -
- 36
: 38 1 9 Je
: 42 1 9  t'en
: 46 1 9  sup
: 48 1 12 plie
: 52 1 16  laisse
: 54 1 16  moi
: 58 1 16  t'ou
: 60 3 16 bli
: 64 1 16 er -
- 66
: 68 1 17 Je
: 70 1 16  ne
: 74 1 16  peux
: 78 3 16  pas
: 84 1 16  lui
: 88 1 17  faire
: 92 5 12  ca -
- 105
: 108 1 12 Ne
: 110 1 14  joue
: 112 1 7  pas
: 114 1 14  a
: 116 1 14 vec
: 120 1 14  le
: 122 3 14  dan
: 126 1 16 ger -
- 127
: 128 1 17 No
: 132 1 16  me
: 134 3 16  mi
: 138 1 16 res
: 142 5 16  mas
: 150 3 9  mi
: 154 1 9 res
: 158 5 16  mas -
- 164
: 166 1 9 Je
: 170 1 9  t'en
: 174 1 9  sup
: 176 1 12 plie
: 180 1 16  laisse
: 182 1 16  moi
: 186 1 16  t'ou
: 188 3 16 bli
: 192 1 19 er -
- 194
: 196 1 17 Je
: 198 1 16  ne
: 202 1 16  peux
: 206 3 16  pas
: 212 1 19  lui
: 216 1 17  faire
: 220 11 12  ca -
- 236
: 238 1 12 Y
: 240 1 14  tu
: 242 1 11  jue
: 244 1 12 gas
: 246 1 14  con
: 248 1 11  el
: 252 1 12  pe
: 254 3 14 li
: 258 9 12 gro -
- 277
: 290 1 14 Ca
: 292 1 11  fait
: 294 1 9  plus
: 296 1 11  d'u
: 298 1 12 ne
: 302 1 11  se
: 304 13 12 maine, -
- 318
: 320 1 14 Qu'il
: 322 1 14  te
: 324 1 7  dé
: 326 1 12 crit
: 328 1 11  comme
: 330 1 12  un
: 334 1 11  po
: 336 7 12 eme-
- 348
: 350 1 14 Il
: 352 1 14  nous
: 354 1 9  par
: 356 1 11 le
: 358 1 12  que
: 360 1 11  de
: 362 3 9  toi
- 366
: 368 1 11 Il
: 370 1 12  vit
: 372 1 11  sur
: 374 1 12  un
: 376 1 11  nu
: 378 1 9 age
: 380 1 11  de
: 382 1 12 puis
- 383
: 384 1 11 que
: 386 1 9  tu
: 388 1 11  vis
: 390 1 12  dans
: 392 1 11  ses
: 394 7 9  bras
- 412
: 416 1 11 Il
: 418 1 12  a
: 420 1 7  re
: 422 1 12 trou
: 424 1 11 vé
: 426 1 12  le
: 430 1 11  sou
: 432 8 12 rire -
- 446
: 448 1 14 De
: 450 1 14 puis
: 452 1 7  que
: 454 1 12  tu
: 456 1 11  es
: 458 1 12  son
: 462 1 11  a
: 464 1 12 ve
: 466 9 14 nir -
- 476
: 478 1 14 Tu
: 480 1 9  es
: 482 1 9  de
: 484 1 11 ve
: 486 1 12 nue
: 488 1 11  sa
: 490 3 9  joie -
- 495
: 497 1 11 Mais
: 499 1 12  tout
: 501 1 11  a
: 503 1 12  chan
: 505 1 11 gé
- 506
: 507 1 9 quand
: 509 1 11  j'ai
: 511 1 12  com
: 513 1 11 pris
: 515 1 9  qu'il
: 517 1 11  par
: 519 1 12 lait
: 521 1 11  de
: 523 10 9  toi -
- 542
: 546 5 11 Oh
: 554 5 12  oh
: 562 1 12  oh
: 568 1 17  mais
: 570 3 12  qu'est
: 574 1 12 ce
: 576 1 12  que
: 580 1 14  j'ai
: 584 1 16  fait
: 588 1 11  au
: 592 1 11  bon
: 596 13 12  dieu -
- 609
: 610 5 11 Oh
: 618 5 9  oh
: 626 1 12  oh
- 628
: 630 1 17 Il
: 634 1 12  n'y'a
: 636 1 12  eu
: 640 1 12  qu'u
: 642 1 12 ne
: 644 1 12  seule
: 648 1 12  nuit
: 650 1 14  en
: 652 1 11 tre
: 656 1 11  nous
: 660 13 11  deux -
- 673
: 675 5 11 Oh
: 683 5 9  oh
: 691 3 12  oh
: 697 1 17  ne
: 701 1 12  nous
: 705 1 12  ap
: 707 3 12 pro
: 711 1 12 chons
: 715 1 11  plus
: 719 1 11  du
: 723 13 12  feu -
- 737
* 739 5 11 Oh
* 747 5 9  oh
* 755 15 12  oh
- 772
: 774 1 17 No
: 778 1 16  me
: 780 3 16  mi
: 784 1 16 res
: 788 5 16  mas
: 796 3 9  mi
: 800 1 9 res
: 804 5 16  mas -
- 811
: 813 1 9 Je
: 817 1 9  t'en
: 821 1 9  sup
: 823 1 12 plie
: 827 1 16  laisse
: 829 1 16  moi
: 833 1 16  t'ou
: 835 3 16 bli
: 839 1 16 er -
- 841
: 843 1 17 Je
: 845 1 16  ne
: 849 1 16  peux
: 853 3 16  pas
: 859 1 16  lui
: 863 1 17  faire
: 867 8 12  ca -
- 881
: 883 1 12 Ne
: 885 1 14  joue
: 887 1 7  pas
: 889 1 14  a
: 891 1 14 vec
: 895 1 14  le
: 897 3 14  dan
: 901 1 16 ger -
- 904
: 906 1 17 No
: 910 1 16  me
: 912 3 16  mi
: 916 1 16 res
: 920 5 16  mas
: 928 3 9  mi
: 932 1 9 res
: 936 5 16  mas -
- 942
: 944 1 9 Je
: 948 1 9  t'en
: 952 1 9  sup
: 954 1 12 plie
: 958 1 16  laisse
: 960 1 16  moi
: 964 1 16  t'ou
: 966 3 16 bli
: 970 1 19 er -
- 972
: 974 1 17 Je
: 976 1 16  ne
: 980 1 16  peux
: 984 3 16  pas
: 990 1 19  lui
: 994 1 17  faire
: 998 11 12  ca -
- 1010
: 1012 1 12 Y
: 1014 1 14  tu
: 1016 1 11  jue
: 1018 1 12 gas
: 1020 1 14  con
: 1022 1 11  el
: 1026 1 12  pe
: 1028 3 14 li
: 1032 7 12 gro -
- 1049
: 1064 1 14 Ca
: 1066 1 11  fait déja
: 1068 1 9  plus
: 1070 1 11  d'u
: 1072 2 12 ne
: 1076 1 11  se
: 1078 13 12 maine, -
- 1092
: 1094 1 14 Et
: 1096 1 14  je
: 1098 1 7  n'ai
: 1100 1 12  plus
: 1102 1 11  trop
: 1104 2 12  de
: 1108 1 11  tes
: 1110 5 12  nou-
- 1121
: 1124 1 14 N'es-
: 1126 1 9 tu
: 1128 1 9  pas
: 1130 1 11  con
: 1132 1 12 tent
: 1134 1 11  pour
: 1136 3 9  moi ? -
- 1143
: 1145 1 11 Toi
: 1147 1 12  qui
: 1149 1 11  est
: 1151 1 12  mon
: 1153 1 11  a
: 1155 1 9 mi
: 1157 1 11  je
: 1159 1 12  sens
: 1161 1 11  que
: 1163 1 9  tu
: 1165 1 11  t'éloi
: 1167 1 12 gnes
: 1169 1 11  de
: 1171 6 9  moi -
- 1188
: 1192 1 11 A
: 1194 1 12  chaque
: 1196 1 7  fois
: 1198 1 12  que
: 1200 1 11  je
: 1202 1 12  suis
: 1206 1 11  avec
: 1208 11 12  elle -
- 1222
: 1224 1 14 Vos
: 1226 1 14  re
: 1228 1 7 gards
: 1230 1 12  ne
: 1232 1 11  sont
: 1234 1 12  plus
: 1238 1 11  les
: 1240 1 12  me
: 1242 6 14 mes -
- 1255
: 1258 1 14 Je
: 1260 1 9  de
: 1262 1 9 viens
: 1264 1 11  pa
: 1266 1 12 ra
: 1268 4 11 no,
- 1272
: 1274 1 9 toi
: 1276 1 11  mon
: 1278 1 11  a
: 1280 1 12 mi
: 1282 1 11  m'as-
: 1284 1 9 tu
: 1286 1 11  plan
: 1288 1 12 té
: 1290 1 11  un
: 1292 1 9  cou
: 1294 1 11 teau
: 1296 1 12  dans
: 1298 1 11  le
: 1300 9 9  dos? -
- 1320
: 1324 5 11 Oh
: 1332 5 12  oh
: 1340 3 12  oh
: 1344 1 17  mais
: 1346 3 12  qu'est
: 1350 1 12 ce
: 1352 3 12  que
: 1356 3 14  j'ai
: 1360 3 16  fait
: 1364 3 11  au
: 1368 3 11  bon
: 1372 13 12  dieu -
- 1386
* 1388 5 11 Oh
* 1396 5 9  oh
* 1404 3 12  oh -
- 1408
: 1410 3 17 Il
: 1414 1 12  y
: 1416 3 12  a-
: 1420 1 12 il
: 1422 1 12  eu
: 1424 3 12  quel
: 1428 1 12 que
: 1430 1 14  chose
: 1432 3 11  entre
: 1436 15 11  eux -
- 1452
: 1454 5 11 Oh
: 1462 5 11  oh
: 1470 3 12  oh -
- 1474
: 1476 3 17 Notre
: 1480 3 12  a
: 1484 1 12 mi
: 1486 3 12 tié
: 1490 3 12  a-t-
: 1494 3 11 elle
: 1498 3 11  pris
: 1502 13 12  feu? -
- 1518
* 1520 3 11 Oh
* 1528 3 9  oh
* 1536 13 12  oh -
- 1552
: 1554 3 17 No
: 1558 1 16  me
: 1560 3 16  mi
: 1564 3 16 res
: 1568 3 16 mas
: 1576 3 9  mi
: 1580 3 9 res
: 1584 3 16  mas -
- 1590
: 1592 3 9 Je
: 1596 3 9  t'en
: 1600 1 9  sup
: 1602 3 12 plie
: 1606 1 16  laisse
: 1608 3 16  moi
: 1612 1 16  t'ou
: 1614 3 16 bli
: 1618 3 16 er
- 1621
: 1622 1 17 Je
: 1624 3 16  ne
: 1628 3 16  peux
: 1632 3 16  pas
: 1638 3 16  lui
: 1642 3 17  faire
: 1646 11 12  ca
- 1660
: 1662 1 12 Ne
: 1664 1 14  joue
: 1666 1 7  pas
: 1668 1 14  a
: 1670 3 14 vec
: 1674 1 14  le
: 1676 3 14  dan
: 1680 1 16 ger
- 1681
: 1682 3 17 No
: 1686 1 16  me
: 1688 3 16  mi
: 1692 3 16 res
: 1696 3 16  mas
: 1704 3 9  mi
: 1708 3 9 res
: 1712 3 16  mas
- 1718
: 1720 3 9 Je
: 1724 3 9  t'en
: 1728 1 9  sup
: 1730 3 12 plie
: 1734 1 16  laisse
: 1736 3 16  moi
: 1740 1 16  t'ou
: 1742 3 16 bli
: 1746 3 19 er
- 1749
: 1750 1 17 Je
: 1752 3 16  ne
: 1756 3 16  peux
: 1760 3 16  pas
: 1766 3 19  lui
: 1770 3 17  faire
: 1774 9 12  ca
- 1786
: 1788 1 12 Y
: 1790 1 14  tu
: 1792 1 11  jue
: 1794 1 12 gas
: 1796 1 14  con
: 1798 3 11  el
: 1802 1 12  pe
: 1804 3 14 li
: 1808 5 12 gro
- 1821
: 1824 4 14 (Amigo,
: 1830 2 14  amigo,
: 1834 4 14  dis-moi
: 1840 2 14  que
: 1844 2 14  tu
: 1848 2 14  es
: 1852 2 14  réglo?)
- 1854
: 1856 1 11 Si
: 1858 1 11  je
: 1860 1 16  ne
: 1862 1 16  le
: 1864 1 16  suis
: 1868 1 16  pas
: 1870 1 14  que
: 1872 1 12  Dieu
: 1874 1 12  me
: 1876 1 16  jette
: 1878 1 16  dans
: 1882 1 16  l'
: 1886 2 16  fue
: 1890 6 14 go
- 1906
: 1919 1 12 Je
: 1921 1 14  l'ai
: 1923 1 11  ai
: 1925 1 12 mé
: 1927 1 14  un
: 1929 1 14  soir
: 1931 2 14  a
: 1935 1 14 vant
: 1937 1 12  que
: 1939 1 11  tu
: 1941 1 11  lui
: 1943 1 14  met
: 1945 1 14 tes
: 1947 6 14  l'an
: 1955 11 14 neau
- 1976
: 1988 1 14 Parce
: 1990 1 12  que
: 1992 1 19  je
: 1994 1 19  ne
: 1998 1 19  t'ai
: 2000 1 19  ja
: 2002 1 16 mais
: 2004 1 17  vu
: 2008 1 19  aus
: 2010 1 19 si
: 2014 1 19  heu
: 2016 8 21 reux
- 2036
: 2052 1 16 Notre
: 2054 1 17  a
: 2056 1 7 mi
: 2058 1 14 tié
: 2060 2 14  m'est
: 2064 1 14  plus
: 2066 2 17  chere
: 2070 2 17  que
: 2074 2 16  ses
: 2078 2 14  beaux
: 2082 13 12  yeux
- 2096
: 2098 5 11 Oh
: 2106 5 14  oh
: 2114 5 12  oh
- 2120
: 2122 2 17 Mais
: 2126 1 12  qu'est ce
: 2128 2 12  que
: 2132 2 14  j'ai
: 2136 2 16  fait
: 2140 2 11  au
: 2144 2 11  bon
: 2148 13 12  Dieu
- 2162
: 2164 5 11 Oh
: 2172 5 9  oh
: 2180 3 12  oh
: 2186 2 17  notre
: 2190 1 12  a
: 2192 3 12 mi
: 2196 2 14 tié
: 2200 1 16  a
: 2202 1 11  fail
: 2204 2 11 li
: 2208 2 11  prendre
: 2212 13 12  feu
- 2226
: 2228 5 11 Oh
: 2236 5 9  oh
: 2244 3 12  oh
: 2250 2 17  plus
: 2254 1 12  au
: 2256 2 12 cune
: 2260 1 14  femme
: 2262 5 16  en
: 2268 2 11 tre
: 2272 2 11  nous
: 2276 13 12  deux
- 2290
* 2292 5 11 Oh
* 2300 5 9  oh
* 2308 15 12  oh
- 2326
: 2328 1 17 No
: 2332 1 16  me
: 2334 3 16  mi
: 2338 1 16 res
: 2340 7 16  mas
: 2350 3 9  mi
: 2354 1 9 res
: 2356 7 16  mas
- 2364
: 2366 1 9 Je
: 2370 1 9  t'en
: 2372 3 9  sup
: 2376 1 12 plie
: 2378 1 16  laisse
: 2382 1 16  moi
: 2386 1 16  t'ou
: 2388 3 16 bli
: 2392 1 16 er
- 2393
: 2394 1 17 Je
: 2398 1 16  ne
: 2402 1 16  peux
: 2406 1 16  pas
: 2410 3 16  lui
: 2416 1 17  faire
: 2420 15 12  ca
- 2435
: 2437 1 12 Ne
: 2439 1 14  joue
: 2441 1 7  pas
: 2443 1 14  a
: 2445 1 14 vec
: 2449 1 14  le
: 2451 3 14  dan
: 2455 1 16 ger
- 2456
: 2457 1 17 No
: 2461 1 16  me
: 2463 1 16  mi
: 2465 3 16 res
: 2471 5 16  mas
: 2479 1 9  mi
: 2481 3 9 res
: 2487 3 16  mas
- 2491
: 2493 1 9 Je
: 2497 3 9  t'en
: 2503 1 9  sup
: 2505 1 12 plie
: 2509 1 16  laisse
: 2511 1 16  moi
: 2515 1 16  t'ou
: 2517 1 16 bli
: 2519 3 19 er
- 2523
: 2525 1 17 Je
: 2527 1 16  ne
: 2531 1 16  peux
: 2535 5 16  pas.
: 2541 1 19 lui
: 2545 1 17  faire
: 2547 7 12  ca
- 2560
: 2563 1 12 Y
: 2565 1 14  te
: 2567 1 11  jue
: 2569 1 12 gas
: 2571 1 14  con
: 2573 1 11  el
: 2577 1 12  pe
: 2579 3 14 li
: 2583 3 12 gro
E