#TITLE:Big Star
#ARTIST:Kenny Chesney
#EDITION:SingStar Country
#MP3:Kenny Chesney - Big Star.mp3
#COVER:Kenny Chesney - Big Star [CO].jpg
#VIDEO:Kenny Chesney - Big Star [VD#0].avi
#VIDEOGAP:0
#BPM:241,52
#GAP:17514,08
: 0 2 60 She
: 4 2 60  was
: 6 2 55  a
: 8 4 57 ware
: 12 3 55 ~
: 16 2 55 of
: 20 3 52  her
- 24
: 24 4 57 In
: 28 2 55 ~
: 32 4 55 se
: 40 4 57 cu
: 44 2 55 ~
: 48 7 55 ri
: 56 4 57 ties
: 60 3 52 ~
- 64
: 64 2 52 As
: 68 2 52  she
: 72 3 53  took
: 76 2 52  the
: 80 4 50  stage
: 84 6 52 ~
- 92 108
: 128 2 60 She
: 132 3 60  was
: 136 4 55  con
: 140 3 57 vinced
- 144
: 144 2 55 If
: 148 3 55  she
* 152 4 57  got
: 156 2 55 ~
: 160 5 55 up
: 168 4 57  there
: 172 3 55 ~
: 176 3 55 that
- 181
: 184 4 57 She'd
: 188 2 52 ~
: 192 3 52 be
: 196 4 52  dis
: 200 4 53 co
: 204 2 52 vered
- 207
: 208 2 50 Some
: 210 4 52 ~
: 216 4 50 day
: 220 4 52 ~
- 226
: 232 10 55 So
: 244 12 57  she
: 256 4 55  belt
: 260 2 53 ed
: 264 14 53  it
- 280 281
: 304 2 57 She
: 308 3 57  hit
: 312 3 55  the
: 316 3 57  high
: 320 4 57  notes
- 326
: 328 2 57 Fear
: 330 4 55 ~
: 336 5 55 less
: 344 4 55 ly
: 348 4 57 ~
- 354
: 360 11 55 Oh
* 372 10 60  she
: 384 3 60  melt
: 388 3 55 ed
: 392 2 57  them
: 394 2 55 ~
: 396 15 53 ~
- 413 414
: 436 3 57 As
: 440 2 55  she
: 444 2 57  brought
: 448 4 57  them
: 452 2 55 ~
- 455
: 456 7 57 To
: 464 4 57  their
: 468 3 55 ~
: 472 6 57 feet
: 478 2 58 ~
: 480 2 57 ~
: 482 6 55 ~
- 490
: 496 2 55 She
: 500 3 57  was
: 504 3 55  a
: 512 4 64  big
: 520 6 60  star
- 527
: 528 2 60 At
: 532 3 57  Ba
: 536 3 60 na
: 540 2 57 na
: 544 4 60  Joe's
: 552 7 60  bar
- 560
: 560 3 60 Where
: 564 3 57  she
: 568 5 60  sang
: 576 4 60  ka
: 580 4 57 ra
: 584 3 60 o
: 588 2 60 ke
- 591
: 592 3 60 E
: 596 3 60 very
: 600 4 62  night
: 604 3 64 ~
- 609 610
: 624 3 55 She
: 628 3 60  said,
: 632 3 57  ''If
: 636 2 55  you
* 640 4 64  work
: 648 9 60  hard
- 658
: 660 2 57 To
: 664 5 60  get
: 672 3 60  where
: 676 3 57  you
: 680 6 60  are
: 688 2 60  it
: 692 4 55  feels
- 698
: 700 3 64 Good
: 704 2 64  in
: 708 2 64  the
: 712 3 64  hot
: 720 3 64  spot
: 724 2 62 ~
: 728 4 62 light''
- 734
: 736 2 65 She
: 740 3 65  was
: 744 2 62  a
: 748 3 65  big
: 756 32 64  star
: 788 2 62 ~
: 790 30 60 ~
: 820 13 55 ~
- 835 876
: 896 2 60 She
: 900 2 60  made
: 904 2 55  the
: 908 4 57  lo
: 912 4 55 cal
- 918
: 920 4 57 Ca
: 924 2 55 ~
: 928 4 55 ble
: 936 4 57  shows
: 940 3 55 ~
- 944
: 944 2 55 Where
: 948 2 55  the
: 952 2 52  ca
: 956 2 52 mera
- 959
: 960 2 52 Fell
: 964 2 52  in
: 968 3 53  love
: 972 2 52  with
: 976 2 52  her
: 980 4 50  face
* 984 10 52 ~
- 996 997
: 1024 4 57 Af
: 1028 2 60 ter
: 1032 2 60  a
: 1036 4 57  cou
: 1040 3 55 ple
: 1044 3 52  of
: 1048 4 57  week
: 1052 3 55 ~
: 1056 3 55 ends
- 1060
: 1060 3 52 The
: 1064 6 57  group
: 1072 3 55 ies
: 1076 2 52  were
: 1080 2 57  crawl
: 1082 2 52 ~
: 1084 2 52 in'
- 1087
: 1088 6 52 All
: 1096 4 53  o
: 1100 2 52 ver
: 1104 2 52  the
: 1108 4 50  place
: 1112 4 52 ~
- 1118 1119
: 1128 12 55 She
* 1140 10 57  signed
: 1152 4 55  au
: 1156 3 53 to
: 1160 23 53 graphs
- 1185 1186
: 1200 2 57 Like
: 1204 2 57  she
: 1208 2 55  was
: 1212 4 57  Garth
: 1218 4 57  Brooks
- 1223
: 1224 3 55 In
: 1228 2 55  a
: 1232 4 55  skirt
: 1236 4 57 ~
- 1242 1243
: 1252 3 53 And
: 1256 5 55  in
: 1264 13 60  the
: 1280 3 60  af
: 1284 2 55 ter
: 1288 2 57 math
: 1290 2 55 ~
: 1292 24 53 ~
- 1318 1319
: 1336 2 57 That
: 1340 3 57  small
: 1344 4 57  time
: 1348 2 55 ~
: 1352 4 57 town
- 1358
: 1360 4 57 Was
: 1364 2 55 ~
: 1368 6 57 hers
: 1374 2 58 ~
: 1376 2 57 ~
: 1378 10 55 ~
- 1390
: 1392 2 55 She
: 1396 3 57  was
: 1400 3 55  a
: 1408 4 64  big
: 1416 6 60  star
- 1423
: 1424 2 60 At
: 1428 3 57  Ba
: 1432 3 60 na
: 1436 2 57 na
: 1440 4 60  Joe's
: 1448 7 60  bar
- 1456
: 1456 3 60 Where
: 1460 3 57  she
: 1464 5 60  sang
: 1472 4 60  ka
: 1476 4 57 ra
: 1480 3 60 o
: 1484 2 60 ke
- 1487
: 1488 3 60 E
: 1492 3 60 very
: 1496 4 62  night
: 1500 3 64 ~
- 1505 1506
: 1520 3 55 She
: 1524 3 60  said,
: 1528 3 57  ''If
: 1532 2 55  you
: 1536 4 64  work
: 1544 9 60  hard
- 1554
: 1556 2 57 To
: 1560 5 60  get
: 1568 3 60  where
: 1572 3 57  you
: 1576 6 60  are
: 1584 2 60  it
: 1588 4 55  feels
- 1594
: 1596 3 64 Good
: 1600 2 64  in
: 1604 2 64  the
: 1608 3 64  hot
: 1616 3 64  spot
: 1620 2 62 ~
: 1624 4 62 light''
- 1630
: 1632 2 65 She
: 1636 3 65  was
: 1640 2 62  a
: 1644 3 65  big
: 1652 32 64  star
: 1684 2 62 ~
: 1686 30 60 ~
: 1716 4 57 ~
: 1720 13 55 ~
- 1735 1908
: 1928 2 64 She
: 1932 4 64  does
: 1936 4 62 n't
: 1944 6 62  care
: 1952 2 62  a
: 1956 3 62 ny
: 1960 4 62 more
: 1964 3 60 ~
- 1968
: 1968 3 60 That
: 1972 3 57  her
: 1976 4 60  high
* 1984 5 60  school
: 1992 2 57  girl
: 1994 3 55 ~
: 2000 4 55 friends
: 2004 3 52 ~
- 2008
: 2008 5 55 Cut
: 2016 5 55  her
: 2024 4 52  down
: 2028 2 48 ~
- 2032 2033
: 2048 2 64 The
: 2052 2 64  on
: 2056 2 64 ly
: 2060 5 62  thought
- 2066
: 2068 3 62 She
: 2072 4 60  en
: 2076 3 62 ~
: 2080 5 62 ter
: 2088 4 62 tains
: 2092 3 60 ~
: 2096 4 60 is
: 2100 3 57 ~
- 2104
: 2104 6 60 Where
: 2112 4 60  they
: 2116 3 55 ~
: 2120 2 57 are
: 2122 2 55 ~
: 2124 3 53 ~
- 2129 2130
: 2144 2 60 And
: 2148 2 60  where
: 2152 6 64  she
* 2160 23 65  is
: 2184 4 62  now
: 2188 26 60 ~
- 2216 2217
: 2240 2 60 Her
: 2244 3 60  old
: 2248 4 57  neigh
: 2252 2 55 ~
: 2256 4 55 bors
- 2262
: 2264 4 57 Swear
: 2268 3 55 ~
: 2272 4 55 they're
: 2280 4 57  cer
: 2284 2 55 tain
: 2288 4 55  she
- 2294
: 2296 4 57 Slept
* 2304 4 50  her
: 2308 3 52 ~
: 2312 4 53 way
: 2316 2 52  to
: 2320 2 52  the
: 2324 4 50  top
: 2328 3 52 ~
- 2333 2348
: 2368 3 60 She
: 2372 4 60  knows
: 2380 3 57  you
: 2384 5 55  don't
- 2390
: 2392 4 57 Get
: 2396 2 55  ah
: 2400 3 55  where
: 2404 3 52  you're
: 2408 2 57  go
: 2410 1 57 ing
- 2412
: 2412 2 55 Un
: 2416 3 55 less
: 2423 4 57  you've
: 2432 4 52  got
: 2439 5 53  some
: 2448 4 52 thing
: 2452 2 50 ~
- 2455
: 2456 12 50 They
: 2468 3 52  ain't
: 2472 2 50  got
: 2474 7 52 ~
- 2483 2484
: 2492 5 55 So
: 2500 5 57  she
: 2508 6 55  sings
: 2516 3 53  to
: 2520 17 53 night
- 2539 2548
: 2568 2 55 To
: 2572 2 57  twen
: 2576 4 57 ty
: 2580 2 55 ~
: 2584 4 57 thou
: 2588 2 55 ~
: 2592 4 55 sand
: 2600 4 55  plus
: 2604 4 57 ~
- 2610
: 2612 3 52 And
: 2616 3 53  the
: 2620 5 55  young
: 2628 10 60  girls
- 2639
: 2640 4 62 Scream
: 2644 2 60 ~
* 2648 4 60 out
: 2656 2 57  loud
: 2658 2 55 ~
: 2660 7 53 ~
- 2669 2680
: 2700 3 57 ''Man
: 2704 4 57  that
: 2712 5 57  could
: 2720 4 57  be
: 2724 3 55 ~
: 2728 4 57 us
: 2732 2 58 ~
: 2734 2 57 ~
: 2736 8 55 -''
- 2746 2747
: 2756 3 57 She's
: 2760 3 55  a
: 2768 4 64  big
* 2776 6 60  star
- 2783
: 2784 2 60 And
: 2788 3 57  she
: 2792 5 60  eats
: 2800 4 60  ca
: 2804 4 57 vi
: 2808 7 60 ar
- 2816
: 2816 3 60 Just
: 2820 3 57  be
: 2824 5 60 fore
: 2832 4 60  she
: 2836 4 57  per
: 2840 5 60 forms
- 2846
: 2848 3 60 E
: 2852 3 60 very
: 2856 4 62  night
: 2860 3 64 ~
- 2865 2866
: 2880 3 55 She
: 2884 3 60  says,
: 2888 3 57  ''If
: 2892 2 55  you
: 2896 4 64  work
: 2904 9 60  hard
- 2914
: 2916 2 57 To
: 2920 5 60  get
: 2928 3 60  where
: 2932 3 57  you
: 2936 6 60  are
: 2944 2 60  it
: 2948 4 55  feels
- 2954
: 2956 3 64 Good
: 2960 2 64  in
: 2964 2 64  the
: 2968 3 64  hot
: 2976 3 64  spot
: 2980 2 62 ~
: 2984 4 62 light''
- 2990
: 2996 3 65 She's
: 3000 2 62  a
: 3004 3 65  big
: 3012 32 64  star
: 3044 2 62 ~
: 3046 30 60 ~
: 3076 4 57 ~
: 3080 13 55 ~
- 3095 3104
: 3124 3 65 She's
: 3128 2 62  a
: 3132 3 65  big
: 3140 32 64  star
: 3172 2 62 ~
: 3174 30 60 ~
: 3204 4 57 ~
: 3208 13 55 ~
E
