#TITLE:Vem Č Dé Du Vill Ha
#ARTIST:Kikki, Bettan och Lotta
#EDITION:Singstar Svenska Hits Schlager
#LANGUAGE:Swedish
#COVER:Kikki, Bettan och Lotta - Vem Č Dé Du Vill Ha [CO].jpg
#BACKGROUND:Kikki, Bettan och Lotta - Vem Č Dé Du Vill Ha [BG].jpg
#MP3:Kikki, Bettan och Lotta - Vem Č Dé Du Vill Ha.mp3
#BPM:270,00
#GAP:14777,78
: 0 7 58 Allt 
: 8 6 60 é 
: 16 6 62 upp 
: 24 4 63 och 
: 29 11 67 ner 
- 50
: 64 7 58 Du 
: 72 7 60 é 
: 80 6 62 allt 
: 88 4 63 jag 
: 93 9 67 ser 
- 109
: 117 3 67 Var
: 120 4 67 för 
: 125 7 67 é 
: 133 2 65 dé 
: 136 3 65 sĺ 
: 141 5 65 här 
- 149
: 152 3 63 När 
: 157 3 63 allt 
: 165 2 60 jag 
: 168 3 60 be
: 173 4 60 gär 
- 179
: 181 3 58 Är 
: 184 4 58 ett 
* 189 24 67 ja 
: 213 3 68 el
: 216 3 67 ler 
: 220 4 67 nej
: 224 6 65  - 
- 240
: 255 7 58 Van 
: 263 6 60 att 
: 271 7 62 ge 
: 279 5 63 och 
: 284 10 67 ta 
- 304
: 315 2 58 Ĺ 
: 318 7 58 fĺ 
: 326 7 60 det 
: 334 7 62 jag 
: 342 4 63 vill 
: 347 9 67 ha 
- 363
: 371 3 65 Men 
: 374 4 67 vad 
: 379 7 67 hjäl
: 387 2 65 per 
: 390 4 65 det 
: 395 4 65 nu 
- 402
: 406 3 63 Det 
: 411 3 63 finns 
: 419 3 60 ba
: 422 3 60 ra 
: 427 4 60 du 
- 434
: 438 5 58 För 
: 443 41 67 mig 
- 491
: 499 4 69 Vem 
: 507 7 69 é 
: 515 3 69 dé 
: 518 4 69 du 
: 523 3 67 vill 
: 526 5 67 ha 
- 535
: 539 7 69 Kän
: 547 2 69 ner 
: 550 5 69 du 
: 555 2 67 som 
: 558 6 67 jag 
- 567
: 571 6 62 É 
: 578 3 62 jag 
: 581 4 62 den 
: 586 3 60 för 
: 589 7 60 dig 
- 596
: 597 4 57 Som 
: 603 7 62 du 
: 610 3 62 ju 
: 613 4 62 é 
: 618 2 60 för 
: 621 6 60 mig 
- 631
: 635 7 64 Sva
: 642 3 64 ra 
: 645 4 64 snäl
: 650 2 62 la 
: 653 5 62 du 
- 662
: 666 6 64 Jag 
: 674 3 64 vill 
: 677 4 64 ve
: 682 3 62 ta 
: 685 7 62 nu 
- 692
: 693 4 64 Sĺ 
* 698 9 60 säg 
- 707
: 709 2 69 Sĺ 
: 714 7 69 säg 
- 723
: 725 3 69 Till 
: 730 6 69 mig
: 736 4 67  - 
- 740
: 741 3 69 Till 
: 746 7 69 mig 
- 753
: 754 3 69 Vem 
* 761 7 69 é 
: 769 2 69 dé 
: 772 4 69 du 
: 777 2 67 vill 
: 780 6 67 ha 
- 789
: 793 7 69 Č 
: 801 3 69 dé 
: 804 5 69 du 
: 809 3 67 ĺ 
: 812 6 67 jag 
- 821
: 825 7 62 Vet 
: 833 3 62 du 
: 836 5 62 vad 
: 841 3 60 du 
: 844 7 60 vill 
- 851
: 852 3 57 Sĺ 
: 857 6 62 säg 
: 865 3 62 dĺ 
: 868 4 62 gär
: 873 3 60 na 
: 876 6 60 till 
- 885
: 889 6 64 In
: 897 3 64 gen
: 900 4 64 ting 
: 905 3 62 kan 
: 908 6 62 fĺ 
- 914
: 916 2 55 Mitt 
: 921 6 64 hjär
: 929 3 64 ta 
: 932 5 64 slu
: 937 3 62 ta 
: 940 6 62 slĺ 
- 946
: 948 5 64 För 
: 953 8 60 dig 
- 962
: 964 3 68 För 
: 969 7 68 dig 
- 978
: 980 4 63 Nej, 
: 985 8 60 nej 
- 994
: 996 4 70 Nej, 
: 1001 7 70 nej 
- 1012
: 1016 3 58 För
: 1019 7 58 sö
: 1027 6 60 ker 
: 1035 6 62 ta 
: 1043 4 63 det 
: 1048 8 67 kallt 
- 1066
: 1080 2 58 Men 
: 1083 7 58 é 
: 1091 7 60 än
: 1099 6 62 dĺ 
: 1107 4 63 trots 
: 1112 9 67 allt 
- 1128
: 1136 3 67 Li
: 1139 4 67 te 
: 1144 7 67 o
: 1152 2 65 sä
: 1155 3 65 ker 
: 1160 5 65 pĺ 
- 1166
: 1168 2 63 Om 
: 1171 3 63 jag 
: 1176 6 63 vet 
: 1184 2 60 det 
: 1187 3 60 än
: 1192 4 60 dĺ 
- 1198
: 1200 3 58 Č 
: 1203 4 58 det 
: 1208 24 67 ja 
: 1232 3 68 el
: 1235 4 67 ler 
: 1240 5 67 nej
: 1245 12 65  - 
- 1265
: 1274 7 58 All
: 1282 6 60 ting 
: 1290 7 62 som 
: 1298 5 63 jag 
: 1303 10 67 har 
- 1323
: 1335 2 58 Č 
: 1338 7 58 frĺ
: 1346 7 60 gor 
: 1354 7 62 u
: 1362 4 63 tan 
: 1367 9 67 svar 
- 1383
: 1391 3 65 Men 
: 1394 4 67 jag 
: 1399 7 67 kän
: 1407 2 65 ner 
: 1410 4 65 det 
: 1415 4 65 nu 
- 1422
: 1426 3 63 Det 
: 1431 3 63 finns 
: 1439 3 60 ba
: 1442 3 60 ra 
: 1447 4 60 du 
- 1454
: 1457 5 58 För 
* 1462 46 67 mig 
- 1513
: 1518 4 69 Vem 
: 1526 7 69 é 
: 1534 3 69 dé 
: 1537 4 69 du 
: 1542 3 67 vill 
: 1545 5 67 ha 
- 1554
: 1558 7 69 Kän
: 1566 2 69 ner 
: 1569 5 69 du 
: 1574 2 67 som 
: 1577 6 67 jag 
- 1586
: 1590 7 62 É 
: 1598 3 62 jag 
: 1601 4 62 den 
: 1606 3 60 för 
: 1609 4 60 dig 
- 1615
: 1617 4 57 Som 
* 1623 7 62 du 
: 1630 3 62 ju 
: 1633 4 62 é 
: 1638 2 60 för 
: 1641 6 60 mig 
- 1650
: 1653 8 64 Sva
: 1661 3 64 ra 
: 1664 4 64 snäl
: 1669 2 62 la 
: 1672 5 62 du 
- 1681
: 1685 6 64 Jag 
: 1693 3 64 vill 
: 1696 4 64 ve
: 1701 3 62 ta 
: 1704 7 62 nu 
- 1711
: 1712 4 64 Sĺ 
: 1717 9 60 säg 
- 1726
: 1728 2 69 Sĺ 
: 1733 7 69 säg 
- 1742
: 1744 3 69 Till 
: 1749 6 69 mig
: 1755 5 67  - 
- 1760
: 1761 3 69 Till 
: 1765 7 69 mig 
- 1772
: 1773 3 69 Vem 
: 1780 7 69 é 
: 1788 2 69 dé 
: 1791 4 69 du 
: 1796 2 67 vill 
: 1799 6 67 ha 
- 1808
: 1812 7 69 Č 
: 1820 3 69 dé 
: 1823 5 69 du 
: 1828 3 67 ĺ 
: 1831 6 67 jag 
- 1840
: 1844 7 62 Vet 
: 1852 3 62 du 
: 1855 5 62 vad 
: 1860 3 60 du 
: 1863 7 60 vill 
- 1870
: 1871 3 57 Sĺ 
: 1876 7 62 säg 
: 1884 3 62 dĺ 
: 1887 4 62 gär
: 1892 3 60 na 
: 1895 6 60 till 
- 1904
: 1907 6 64 In
: 1915 3 64 gen
: 1918 4 64 ting 
: 1923 3 62 kan 
: 1926 6 62 fĺ 
- 1932
: 1934 2 55 Mitt 
: 1939 6 64 hjär
: 1947 3 64 ta 
: 1950 5 64 slu
: 1955 3 62 ta 
: 1958 6 62 slĺ 
- 1964
: 1966 5 64 För 
: 1971 8 60 dig 
- 1980
: 1982 3 68 För 
: 1987 7 68 dig 
- 1996
: 1998 4 63 Nej, 
: 2003 8 60 nej 
- 2012
: 2014 4 70 Nej, 
: 2019 7 70 nej 
- 2028
: 2030 4 65 Var
: 2035 3 63 för 
: 2038 6 67 é 
: 2046 6 67 det 
: 2054 16 67 sĺ
: 2070 13 68  - 
- 2087
: 2091 4 70 Vem 
: 2099 7 70 é 
: 2107 3 70 dé 
: 2110 4 70 du 
: 2115 3 68 vill 
: 2118 5 68 ha 
- 2127
* 2131 7 70 Kän
: 2139 2 70 ner 
: 2142 5 70 du 
: 2147 2 68 som 
: 2150 6 68 jag 
- 2159
: 2162 7 63 É 
: 2170 3 64 jag 
: 2173 4 63 den 
: 2178 3 61 för 
: 2181 4 61 dig 
- 2187
: 2189 4 58 Som 
: 2195 7 63 du 
: 2202 3 64 ju 
: 2205 4 63 é 
: 2210 2 61 för 
: 2213 6 61 mig 
- 2222
: 2226 8 65 Sva
: 2234 3 65 ra 
: 2237 4 65 snäl
: 2242 2 63 la 
: 2245 5 63 du 
- 2254
: 2258 6 65 Jag 
: 2266 3 65 vill 
* 2269 4 65 ve
: 2274 3 63 ta 
: 2277 7 63 nu 
- 2284
: 2285 4 65 Sĺ 
: 2290 9 61 säg 
- 2299
: 2301 2 70 Sĺ 
: 2306 7 70 säg 
- 2315
: 2317 3 70 Till 
: 2322 6 70 mig
: 2328 5 68  - 
- 2333
: 2334 3 70 Till 
: 2338 7 70 mig 
- 2345
: 2346 3 70 Vem 
: 2353 7 70 é 
: 2361 2 70 dé 
: 2364 4 70 du 
: 2369 2 68 vill 
: 2372 6 68 ha 
- 2381
: 2385 7 70 Č 
: 2393 3 70 dé 
: 2396 5 70 du 
: 2401 3 68 ĺ 
: 2404 6 68 jag 
- 2413
: 2417 7 63 Vet 
: 2425 3 63 du 
: 2428 5 63 vad 
: 2433 3 61 du 
: 2436 7 61 vill 
- 2443
: 2444 3 58 Sĺ 
: 2449 7 63 säg 
: 2457 3 63 dĺ 
* 2460 4 63 gär
: 2465 3 61 na 
: 2468 6 61 till 
- 2477
: 2481 6 65 In
: 2489 3 65 gen
: 2492 4 65 ting 
: 2497 3 63 kan 
: 2500 6 63 fĺ 
- 2506
: 2508 3 56 Mitt 
: 2513 6 65 hjär
: 2521 3 65 ta 
: 2524 5 65 slu
: 2529 3 63 ta 
: 2532 6 63 slĺ 
- 2538
* 2540 5 65 För 
: 2545 8 61 dig 
- 2554
: 2556 3 69 För 
: 2561 7 69 dig 
- 2570
: 2572 4 64 Nej, 
: 2577 8 61 nej 
- 2586
: 2588 3 71 Nej, 
: 2593 6 71 nej 
- 2599
: 2601 4 70 Vem 
: 2609 7 70 é 
: 2617 3 70 dé 
: 2620 4 70 du 
: 2625 3 68 vill 
* 2628 37 68 ha 
- 2668
: 2672 7 63 É 
: 2680 3 63 jag 
: 2683 4 63 den 
: 2688 3 61 för 
: 2691 4 61 dig 
- 2700
: 2705 7 63 Du 
: 2712 3 63 ju 
: 2715 4 63 é 
: 2720 2 61 för 
: 2723 6 61 mig 
- 2732
: 2736 8 65 In
: 2744 3 65 gen
: 2747 4 65 ting 
: 2752 2 63 kan 
: 2755 5 63 fĺ 
- 2761
: 2763 3 56 Mitt 
: 2768 6 65 hjär
: 2776 3 65 ta 
: 2779 4 65 slu
: 2784 3 63 ta 
: 2787 7 63 slĺ 
- 2794
: 2795 4 65 För 
: 2800 9 61 dig 
- 2809
: 2811 4 69 För 
: 2816 7 69 dig 
- 2825
: 2827 3 64 Nej, 
: 2832 6 61 nej 
- 2840
: 2843 3 71 Nej, 
: 2848 7 71 nej 
- 2855
: 2856 3 70 Vem 
: 2862 8 70 é 
: 2871 2 70 dé 
: 2874 4 70 du 
: 2879 2 68 vill 
: 2882 16 68 ha 

