#TITLE:Sex On Fire
#ARTIST:Kings Of Leon
#MP3:Kings Of Leon - Sex On Fire.mp3
#VIDEO:Kings Of Leon - Sex On Fire [VD#0].avi
#COVER:Kings Of Leon - Sex On Fire [CO].jpg
#BACKGROUND:Kings Of Leon - Sex On Fire [BG].jpg
#BPM:311,5
#GAP:24750
#ENCODING:UTF8
#LANGUAGE:English
#EDITION:Charts 2009
: 0 3 16 Lay
: 4 2 16  where
: 8 2 16  you're
: 12 7 18  lay
: 21 4 20 ing
- 27
: 65 2 16 Don't
: 69 3 16  make
: 73 2 16  a
: 78 5 18  sou
: 85 5 16 ~nd
- 92
: 130 2 15 I
: 134 2 16  know
: 138 2 15  they're
: 142 7 15  watch
: 152 4 16 ing
- 158
: 204 2 13 They're
: 208 6 15  watch
: 217 4 16 ing
- 223
: 261 3 16 All
: 265 2 16  the
: 269 2 16  com
: 273 6 18 mo
: 282 5 20 tion
- 289
: 322 2 15 The
: 326 3 16  kid
: 330 2 16 die
: 334 2 13  like
* 340 5 18  play
: 347 3 16 ~
- 352
: 391 2 15 Has
: 395 2 16  peo
: 399 2 15 ~ple
: 404 5 15  talk
: 412 4 16 ing
- 418
: 469 6 15 Talk
: 478 6 16 ing
- 486
* 537 22 20 You
: 561 5 18 ~
: 569 11 16 ~
: 582 2 13 ~
: 586 3 11 ~
- 591
: 626 3 20 Your
: 634 4 20  sex
: 642 3 18  is
: 650 5 16  on
: 658 5 18  fi
: 666 3 16 ~
: 671 4 13 re
- 677
: 776 2 15 The
: 780 3 16  dark
: 784 3 16  of
: 788 2 16  the
: 792 6 18  all
: 800 5 20 ey
- 807
: 842 2 13 The
: 846 2 16  break
: 850 2 16 ing
: 854 2 13  of
: 858 5 18  da
: 866 4 16 ~y
- 872
: 910 3 16 Head
: 915 2 16  while
: 919 2 15  I'm
: 925 5 15  dri
: 932 5 16 ving
- 939
: 983 3 15 I'm
: 988 7 15  dri
: 997 5 16 ving
- 1004
: 1041 3 16 Soft
: 1045 2 16  lips
: 1049 2 16  are
: 1053 6 18  o
* 1062 6 20 pen
- 1070
: 1101 2 15 Them
: 1105 3 16  knuck
: 1109 3 16 les
: 1113 2 13  are
: 1119 4 18  pa
: 1125 4 16 ~le
- 1131
: 1169 3 16 Feels
: 1174 2 16  like
: 1178 2 15  you're
: 1182 7 15  dy
: 1191 6 16 ing
- 1199
: 1241 3 15 You're
: 1246 6 15  dy
: 1254 6 16 ing
- 1262
: 1311 25 20 You
: 1339 5 18 ~
* 1347 10 16 ~
: 1359 2 13 ~
: 1363 3 11 ~
- 1368
: 1404 3 20 Your
: 1412 4 20  sex
: 1420 4 18  is
: 1428 4 16  on
: 1436 5 18  fi
: 1444 3 16 ~
: 1450 7 13 re
- 1459
: 1565 4 16 Con
: 1573 22 20 so
: 1597 3 18 ~
: 1603 6 16 ~
: 1611 2 13 ~
: 1615 5 11 ~led
- 1622
: 1663 2 20 Were
: 1667 2 20  the
: 1671 4 20  words
: 1679 4 18  to
: 1687 4 16  trans
: 1695 5 18 pi
: 1703 2 16 ~
* 1707 7 13 re
- 1716
: 1816 2 16 Hot
: 1820 2 16  of
: 1824 2 16  the
: 1828 6 18  fe
: 1837 5 20 ver
- 1844
: 1881 3 16 Rat
: 1885 2 15 tl
: 1889 3 13 ing
: 1893 5 18  bo
: 1901 5 16 ~nes
- 1908
: 1944 2 16 I
: 1949 3 16  could
: 1954 2 15  just
: 1959 6 15  taste
: 1969 4 16  it
- 1975
: 2023 3 13 Ta
: 2027 3 15 ~ste
: 2032 5 16  it
- 2039
: 2071 2 15 But
: 2075 2 16  it's
: 2079 3 16  not
: 2084 2 16  for
: 2088 5 18 e
: 2097 4 20 ver
- 2103
: 2136 2 13 But
: 2140 2 16  it's
: 2144 2 16  just
: 2149 2 13  to
* 2153 6 18 ni
: 2160 4 16 ~ght
- 2166
: 2200 3 16 Oh
: 2205 2 16  it's
: 2209 3 16  still
: 2213 2 15  the
: 2217 6 15  grea
: 2226 4 16 test
- 2232
: 2277 2 16 The
: 2281 6 15  grea
: 2290 8 16 test
- 2300
: 2310 2 16 The
: 2314 6 15  grea
: 2322 6 16 test
- 2330
: 2348 23 20 You
: 2373 4 18 ~
: 2381 11 16 ~
: 2394 2 13 ~
: 2398 4 11 ~
- 2404
: 2439 4 20 Your
: 2447 4 20  sex
: 2455 4 18  is
: 2463 4 16  on
: 2471 6 18  fi
: 2479 3 16 ~
: 2484 7 13 re
- 2493
* 2605 26 20 You
* 2634 3 18 ~
* 2642 11 16 ~
* 2656 2 13 ~
* 2660 4 11 ~
- 2666
: 2702 4 20 Your
: 2710 4 20  sex
: 2718 4 18  is
: 2726 4 16  on
: 2734 7 18  fi
: 2743 4 16 ~
: 2751 6 13 re
- 2759
: 2868 3 16 Con
: 2876 20 20 so
: 2900 3 18 ~
: 2906 12 16 ~
: 2920 2 13 ~
: 2924 4 11 ~led
- 2930
: 2967 2 20 Were
: 2971 2 20  the
: 2975 5 20  words
: 2984 4 18  to
: 2992 5 16  trans
: 3000 5 18 pi
: 3008 3 16 ~
: 3013 11 13 re
- 3026
* 3135 25 20 You
: 3163 3 18 ~
: 3170 10 16 ~
: 3182 2 13 ~
: 3186 4 11 ~
- 3192
: 3228 4 20 Your
: 3236 5 20  sex
: 3244 5 18  is
: 3252 4 16  on
: 3261 5 18  fi
: 3269 3 16 ~
: 3274 8 13 re
- 3284
: 3392 3 16 Con
: 3400 24 20 so
: 3425 4 18 ~
: 3433 9 16 ~
: 3445 2 13 ~
: 3449 4 11 ~led
- 3455
: 3491 3 20 Were
: 3495 2 20  the
: 3499 5 20  words
: 3507 4 18  to
: 3515 4 16  trans
: 3524 6 18 pi
: 3532 3 16 ~
: 3537 15 13 re
E