#TITLE:2 Hearts
#ARTIST:Kylie Minogue
#MP3:Kylie Minogue - 2 Hearts.mp3
#VIDEO:Kylie Minogue - 2 Hearts.mp4
#COVER:Kylie Minogue - 2 Hearts.jpg
#BPM:224
#GAP:10200
#ENCODING:UTF8
#LANGUAGE:English
: 0 4 3 You
: 6 4 2  make
: 14 1 2  me
: 16 6 0  in
: 24 2 2 vi
: 27 2 -3 si
: 32 6 0 ble
- 48
: 64 3 3 Like
: 68 13 2  the sky
: 82 3 0  you
: 86 4 2  make
: 94 4 0  my
: 102 12 -3  day
- 124
: 128 4 3 I
: 134 4 2  feel
: 142 2 2  so
: 145 4 0 ~
: 150 2 2  won
: 155 2 1 der
: 158 6 0 ful
- 174
* 192 4 -3 Oh,
* 198 6 -3  oh,
: 206 4 -3  oh,
: 222 1 -3  don't
: 224 4 -3  let
: 230 4 -3  go
- 244
: 258 3 2 Now,
: 262 4 2  see,
: 270 6 0  there's a
: 278 6 2  dar
: 284 1 -3 ker
: 286 6 0  few
- 306
: 322 3 3 It
: 326 7 3  feels
: 334 1 2  like
: 336 4 0  I
: 342 2 2  ne
: 346 5 2 ver saw
: 352 4 0  the
: 360 12 -3  sun
- 379
: 382 1 9 Should
: 384 4 3  I
: 390 4 2  shout
: 398 1 2  for
: 400 5 0  a
: 406 2 2  res
: 409 2 1 ~
: 412 6 0 cue
- 432
: 448 4 -3 Oh,
: 454 6 0  oh,
: 462 4 -3  oh,
: 478 1 -3  don't
: 480 4 -3  let
: 486 4 -3  go
- 500
: 512 4 -3 Oh,
: 518 6 0  oh,
: 526 4 -3  oh,
: 542 1 -3  don't
: 544 4 -3  let
: 550 4 -3  go
- 564
: 576 6 14 Two
: 584 4 14  hearts
: 592 4 14  are
: 598 2 12  bea
: 600 4 14 ~
: 606 7 12 ting,
: 614 2 15  to
: 618 2 14 ge
: 620 6 12 ther
- 636
: 640 1 15 I'm
: 642 1 16  in
: 644 8 13  love
- 662
: 672 1 15 I'm
: 674 1 16  in
: 676 8 14  love
- 694
: 704 6 14 Is
: 712 4 14  this
: 720 4 14  for
: 728 4 14 e
: 734 7 12 ver
: 742 1 15  and
: 744 2 14  e
: 748 6 12 ver
- 764
: 768 1 15 I'm
: 770 1 16  in
: 772 8 14  love
- 790
* 800 1 15 I'm
* 802 1 16  in
* 804 8 13  love
- 822
: 832 6 14 Two
: 840 4 14  hearts
: 848 4 14  are
: 856 4 14  bea
: 862 7 12 ting,
: 870 2 15  to
: 872 2 14 ge
: 876 6 12 ther
- 892
: 896 1 15 I'm
: 898 1 16  in
: 900 8 13  love
- 918
: 928 1 15 I'm
: 930 1 16  in
: 932 8 13  love
- 950
: 960 6 14 Is
: 968 4 14  this
: 976 4 14  for
: 984 4 14 e
: 990 7 12 ver
: 998 1 15  and
: 1000 2 14  e
: 1004 6 12 ver
- 1020
: 1024 1 15 I'm
: 1026 1 16  in
: 1028 8 13  love
- 1046
: 1056 1 15 I'm
: 1058 1 16  in
: 1060 8 13  love
- 1097
: 1216 4 3 Looks
: 1222 7 2  good
: 1230 1 2  in
: 1232 5 0  the
* 1238 5 2  sun
* 1244 2 1 shi
* 1247 5 0 ne
- 1262
: 1280 3 3 Hold
: 1284 4 3  on,
: 1290 7 2  'cause
: 1298 1 2  I'm
: 1300 6 0  co
: 1306 1 2 ming
: 1308 5 2  up
: 1314 3 0  for
: 1318 12 -3  air
- 1340
: 1344 4 3 I
: 1350 7 2  can't
: 1358 2 2  e
: 1360 5 0 ven
: 1366 5 2  see
: 1372 1 -3  up
: 1374 6 0  here
- 1390
: 1408 4 -3 Oh,
: 1414 6 0  oh,
: 1422 4 -3  oh,
: 1438 1 -3  don't
: 1440 4 -3  let
: 1446 4 -3  go
- 1460
: 1472 4 -3 Oh,
: 1478 6 0  oh,
: 1486 4 -3  oh,
: 1502 1 -3  don't
: 1504 4 -3  let
: 1510 4 -3  go
- 1524
: 1536 6 14 Two
: 1544 4 14  hearts
: 1552 4 14  are
: 1558 2 12  bea
: 1560 4 14 ~
: 1566 7 12 ting
: 1574 2 15  to
: 1577 2 14 ge
: 1580 6 12 ther
- 1596
: 1600 1 15 I'm
: 1602 1 16  in
: 1604 8 13  love
- 1622
: 1632 1 15 I'm
: 1634 1 16  in
: 1636 8 12  love
- 1654
: 1664 6 14 Is
: 1672 4 14  this
: 1680 4 14  for
: 1688 4 14 e
: 1694 7 12 ver
: 1702 1 15  and
: 1704 2 14  e
: 1708 6 12 ver
- 1724
: 1728 1 15 I'm
: 1730 1 16  in
: 1732 8 13  love
- 1750
: 1760 1 15 I'm
: 1762 1 16  in
: 1764 8 13  love
- 1782
: 1792 6 14 Two
: 1800 4 14  hearts
: 1808 4 14  are
: 1816 4 14  bea
: 1822 7 12 ting
: 1830 2 15  to
: 1832 2 14 ge
: 1836 6 12 ther
- 1852
: 1856 1 15 I'm
: 1858 1 16  in
: 1860 8 14  love
- 1878
: 1888 1 15 I'm
: 1890 1 16  in
: 1892 8 14  love
- 1910
: 1920 6 14 Is
: 1928 4 14  this
: 1936 4 14  for
: 1944 4 14 e
: 1950 7 12 ver
: 1958 1 15  and
: 1960 2 14  e
: 1964 6 12 ver
- 1980
: 1984 1 15 I'm
: 1986 1 16  in
: 1988 8 14  love
- 2006
: 2016 1 15 I'm
: 2018 1 16  in
: 2020 8 13  love
- 2042
: 2062 1 9 Uh,
: 2064 5 16  uh,
: 2070 7 12  uh,
: 2078 6 9  uh
- 2093
: 2096 5 12 Uh,
: 2102 8 9  uh
- 2124
: 2142 1 12 I'm
: 2144 5 9  in
: 2150 8 12  love
- 2168
: 2176 7 14 Is
: 2184 7 14  this
* 2192 7 14  for
* 2200 5 14 e
* 2206 6 12 ver
: 2214 1 15  and
* 2216 5 14  e
* 2222 5 12 ver
- 2235
: 2238 1 16 I'm
: 2240 5 15  in
: 2246 12 13  love
- 2267
: 2270 1 16 I'm
: 2272 5 15  in
: 2278 12 13  love
E