#TITLE:Space Cadet
#ARTIST:Kyuss
#MP3:Kyuss - Space Cadet.mp3
#VIDEO:Kyuss - Space Cadet.mp4
#COVER:Kyuss - Space Cadet.jpg
#BPM:346.16
#GAP:108474
#ENCODING:UTF8
#LANGUAGE:English
#GENRE:Rock
#AUTHOR:Unknown
: 0 2 -8 I
: 6 9 -8  stand
: 17 7 -6  a
: 24 5 -8 ~
: 33 9 -4 lone
: 42 13 -6 ~
: 59 4 -6  on
: 67 2 -6  the
: 73 6 -6  cliffs
: 81 4 -6  of
: 89 4 -6  the
: 99 36 -8  world
- 181
: 270 5 -8 No
: 278 7 -6  one
: 285 4 -8 ~
: 295 6 -4  ne
: 301 10 -6 ~
: 315 6 -6 ver
: 325 18 -6  tends
: 347 6 -6  to
: 357 36 -8  me
- 439
: 527 4 -8 Sitt
: 535 6 -6 ing
: 543 4 -8  a
: 551 8 -4 lone
: 559 24 -6 ~
: 591 6 -6  co
: 599 4 -6 vered
: 607 6 -6  in
: 617 32 -8  grease
- 695
: 783 6 -8 Some
: 791 6 -6  things
: 797 4 -8 ~
: 808 7 -4  are
: 815 10 -6 ~
: 832 3 -6  so
: 840 3 -6  my
: 848 13 -6  mind
: 863 4 -6  can
: 873 32 -8  breathe
- 951
: 1289 4 -8 The
: 1298 3 -8  wait
: 1305 4 -6 ing
: 1314 3 -8  is
: 1323 6 -4  hard
: 1329 10 -6 ~,
: 1345 4 -6  fuck
: 1353 2 -8 ing
: 1361 4 -8  takes
: 1369 8 -6  so
: 1377 2 -8 ~
: 1386 5 -4  long
: 1391 16 -6 ~
- 1414
: 1417 12 -8 Draped
: 1434 6 -6  in
: 1440 5 -8 ~
: 1449 7 -4  sun
: 1456 19 -6 ~,
: 1482 11 -6  hands
: 1498 11 -6  in
: 1513 16 -8  sand
- 1539
: 1555 4 -8 Earth
: 1562 3 -6  a
: 1568 5 -8 cid
: 1576 8 -4  clean
: 1584 7 -6 ~
: 1593 2 -6 ses
: 1601 5 -6  me
: 1606 5 -8 ~,
: 1616 5 -8  clean
: 1624 3 -6 ses
: 1632 3 -8  me
: 1641 7 -4  clean
: 1648 13 -6 ~
- 1671
: 1680 5 -8 But
: 1688 6 -6  the
: 1694 5 -8 ~
: 1704 6 -4  world
: 1710 21 -6 ~,
: 1735 4 -6  it
: 1743 4 -6  ne
: 1752 6 -6 ver
: 1758 4 -6 ~
: 1767 48 -8  comes
- 1838
: 1863 2 -6 It
: 1870 3 -6  ne
: 1878 6 -6 ver
: 1884 5 -6 ~
: 1893 48 -8  comes
- 1987
: 2054 3 -8 It
: 2061 2 -8  ne
: 2069 6 -6 ver
: 2075 4 -8 ~
: 2085 38 -4  comes
: 2123 16 -6 ~
: 2139 16 -6 ~
: 2155 24 -8 ~
- 2225
: 2309 4 -8 It
: 2318 5 -8  ne
: 2326 7 -6 ver
: 2333 4 -8 ~
: 2343 38 -4  comes
: 2381 16 -6 ~
: 2397 16 -6 ~
: 2413 28 -8 ~
- 2487
: 4099 4 -8 I
: 4107 4 -8  lay
: 4116 5 -6  on
: 4123 2 -8  my
: 4129 10 -4  side
: 4139 14 -6 ~
: 4156 5 -6  in
: 4164 5 -6  the
: 4172 7 -6  edge
: 4181 2 -6  of
: 4188 2 -6  the
: 4195 26 -8  room
- 4267
: 4360 5 -8 She
: 4368 5 -8  ne
: 4376 3 -6 ver
: 4384 3 -8  ex
: 4391 22 -4 pects
: 4416 3 -6  a
: 4423 4 -6 ny
: 4431 14 -6 thing
: 4447 4 -6  from
: 4455 29 -8  me
- 4530
: 4627 1 -8 We
: 4630 2 -8  were
: 4633 4 -6  all
: 4643 2 -8  the
: 4652 7 -4  days
: 4659 20 -6 ~,
: 4683 4 -6  the
: 4691 4 -6  days
: 4699 4 -6  of
: 4707 4 -6  the
: 4715 32 -8  year
- 4793
: 4877 4 -8 I
: 4885 2 -8  know
: 4893 7 -6  I
: 4900 7 -8 ~
: 4909 18 -4  miss
: 4933 12 -6  that
: 4950 11 -6  part
: 4965 4 -6  of
: 4972 35 -8  me
- 5053
: 5391 4 -8 The
: 5399 4 -8  wait
: 5407 4 -6 ing
: 5415 2 -8  is
: 5423 8 -4  hard
: 5431 12 -6 ~,
: 5447 2 -6  fuck
: 5455 2 -8 ing
: 5463 2 -8  takes
: 5469 7 -6  so
: 5476 3 -8 ~
: 5486 8 -4  long
: 5494 17 -6 ~
- 5516
: 5518 12 -8 Draped
: 5533 6 -6  in
: 5539 6 -8 ~
: 5549 9 -4  sun
: 5558 17 -6 ~,
: 5582 12 -6  hands
: 5597 10 -6  in
: 5610 24 -8  sand
- 5644
: 5652 5 -8 Earth
: 5659 4 -6  a
: 5666 5 -8 cid
: 5675 9 -4  clean
: 5684 5 -6 ~
: 5692 3 -6 ses
: 5700 6 -6  me
: 5706 5 -8 ~,
: 5715 4 -8  clean
: 5723 2 -6 ses
: 5731 2 -8  me
: 5739 8 -4  clean
: 5747 14 -6 ~
- 5771
: 5778 4 -8 But
: 5786 7 -6  the
: 5793 5 -8 ~
: 5802 9 -4  world
: 5811 21 -6 ~,
: 5835 3 -6  it
: 5842 4 -6  ne
: 5850 6 -6 ver
: 5856 6 -6 ~
: 5866 44 -8  comes
- 5933
: 5961 3 -6 It
: 5968 4 -6  ne
: 5975 7 -6 ver
: 5982 6 -6 ~
: 5992 47 -8  comes
- 6085
: 6153 3 -8 It
: 6160 2 -8  ne
: 6169 6 -6 ver
: 6175 5 -8 ~
: 6185 41 -4  comes
: 6226 16 -6 ~
: 6242 16 -6 ~
: 6258 28 -8 ~
- 6332
: 6411 3 -8 It
: 6418 6 -8  ne
: 6427 7 -6 ver
: 6434 4 -8 ~
: 6443 40 -4  comes
: 6483 16 -6 ~
: 6499 16 -6 ~
: 6515 23 -8 ~
- 6584
: 6671 3 -8 It
: 6678 4 -8  ne
: 6686 6 -6 ver
: 6692 3 -8 ~
: 6702 42 -4  comes
: 6744 14 -6 ~
: 6758 16 -6 ~
: 6774 25 -8 ~
- 6845
: 6933 3 -8 It
: 6941 3 -8  ne
: 6949 8 -6 ver
: 6957 5 -8 ~
: 6968 44 -4  comes
: 7012 22 -6 ~
: 7034 23 -6 ~
: 7057 29 -8 ~
E