#TITLE:Maniac
#ARTIST:L5
#MP3:L5 - Maniac.mp3
#VIDEO:L5 - Maniac.mp4
#COVER:L5 - Maniac.jpg
#BPM:318
#GAP:17710
#VIDEOGAP:7
#ENCODING:UTF8
: 0 2 -2 Just
: 4 2 6  a
: 8 4 5  steel
: 16 3 5  town
: 20 2 3 ~
: 24 7 5  girl
: 32 3 5  on
: 36 2 3  a
: 40 3 5  Sa
: 44 3 6 tur
: 48 3 5 day
: 53 3 3  night
- 62
: 64 3 -2 Look
: 68 2 6 in'
: 72 6 5  for
: 81 2 5  the
: 88 4 5  fight
: 93 2 6  of
: 97 2 5  her
: 100 2 3  life
: 103 1 1 ~
: 105 4 -2 ~
- 119
: 128 3 -6 In
: 133 2 3  the
: 136 6 2  real-
: 144 4 1 time
: 152 6 1  world
: 160 3 1  no
: 164 2 1  one
: 168 3 1  sees
: 173 2 3  her
: 176 2 1  at
: 180 3 1  all
- 192
: 196 3 1 They
: 200 2 -1  all
: 204 3 1  say
: 208 3 -1  she's
: 213 2 1  cra
: 216 3 3 ~
: 220 4 1 ~
: 225 2 -1 ~
: 230 9 -2 zy
- 249
: 256 3 -2 Lock
: 261 3 6 ing
: 266 2 5  rhy
: 269 2 5 thms
: 272 3 5 ~
: 276 1 3 ~
: 281 3 5  to
: 288 2 5  the
: 291 2 3 ~
: 296 4 5  beat
: 301 2 6  of
: 304 2 5  her
: 308 4 3  heart
- 318
: 320 2 -2 Chang
: 324 2 6 ing
: 328 6 5  move
: 337 2 5 ment
: 340 3 5  in
: 344 3 5 ~
: 348 2 6 ~
: 352 2 5  to
: 356 3 3  light
: 360 2 1 ~
: 363 2 -2 ~
- 375
: 384 2 -6 She
: 388 2 3  has
: 392 4 1  danced
: 400 4 1  in
: 405 2 -1 ~
: 408 6 1 to
: 416 3 1  the
: 420 2 -1 ~
: 424 3 1  dan
: 428 3 3 ~
: 432 2 1 ger
: 437 3 1  zone
- 446
: 448 2 1 When
: 452 2 -1  the
: 456 3 1  danc
: 462 2 1 er
: 467 2 1  be
: 472 2 1 comes
: 475 2 3 ~
: 478 2 1 ~
: 482 2 -2  the
: 485 2 -4  dance
: 489 9 -2 ~
- 508
: 536 2 6 It
: 540 3 6  can
: 548 3 6  cut
: 556 3 6  you
: 562 5 6  like
: 572 4 6  a
: 581 3 6  knife
- 594
: 601 2 6 If
: 605 3 6  the
: 612 6 6  gift
: 621 3 6  be
: 628 3 6 comes
: 632 5 8 ~
: 640 2 3  the
: 644 3 3  fire
: 648 2 1 ~
: 651 1 -1 ~
- 662
: 669 3 6 On
: 674 2 6  the
: 677 10 6  wire
: 693 5 6  bet
: 700 4 6 ween
: 708 5 6  will
: 716 3 5  and
: 720 3 3 ~
: 725 3 3  what
: 732 3 5  will
: 736 2 3 ~
: 741 6 5  be
- 757
: 764 3 3 She's
: 768 2 5  a
: 773 10 6  ma
: 784 3 5 ni
: 788 3 3 ac,
: 796 2 6  ma
: 800 15 8 ~
: 816 3 6 ni
: 820 3 5 ac,
: 828 3 3  on
: 832 2 1 ~
: 836 3 3  the
: 843 3 3  floor
: 848 2 1 ~
: 852 2 -2 ~
- 864
: 892 2 3 and
: 896 2 5  she's
: 900 4 6  danc
: 908 4 6 ing
- 914
: 916 3 6 like
: 923 4 6  she's
: 932 6 6  nev
: 940 3 5 er
: 948 5 5  danced
: 956 3 3  be
: 964 2 1 fore
: 967 8 3 ~
- 996
: 1020 2 3 She's
: 1024 2 5  a
: 1029 10 6  ma
: 1040 3 5 ni
: 1044 3 3 ac,
: 1052 2 6  ma
: 1056 15 8 ~
: 1072 3 6 ni
: 1076 3 5 ac,
: 1084 3 3  on
: 1088 2 1 ~
: 1091 3 3  the
: 1099 2 3  floor
: 1102 1 1 ~
: 1104 6 -2 ~
- 1120
: 1148 2 3 and
: 1152 2 5  she's
: 1156 4 6  danc
: 1164 4 6 ing
- 1170
: 1172 3 6 like
: 1179 4 6  she's
: 1187 7 6  nev
: 1196 3 5 er
: 1204 4 5  danced
: 1212 3 3  be
: 1220 2 1 fore
: 1224 11 3 ~
: 1236 7 3 ~
- 1285
: 1343 3 -2 On
: 1347 3 6  the
: 1352 3 5  ice
: 1359 3 5  blue
: 1363 3 3 ~
: 1367 7 5  line
: 1375 3 5  of
: 1381 1 3  in
: 1383 3 5 sa
: 1387 3 6 ~
: 1391 3 5 ni
: 1395 2 3 ty
- 1404
: 1407 2 -2 Is
: 1411 2 6  a
: 1415 6 5  place
: 1424 4 5  most
: 1431 3 5  nev
: 1435 3 6 ~
: 1439 2 5 er
: 1443 5 3  see
: 1449 1 1 ~
: 1451 3 -2 ~
- 1464
: 1471 2 -6 It's
: 1475 2 3  a
: 1479 6 1  hard
: 1488 3 1  won
: 1492 2 -1 ~
: 1496 4 1  place
: 1504 2 1  of
: 1508 2 -1  the
: 1512 2 1  mys
: 1515 2 3 ~
: 1519 3 1 te
: 1523 3 1 ry
- 1536
: 1540 2 1 Touch
: 1544 2 -1  it
: 1548 2 1  but
: 1553 3 -1  can't
: 1559 3 1  hold
: 1563 2 3 ~
: 1566 4 1 ~
: 1571 2 1 ~
: 1574 2 -2 ~
: 1577 2 -4 ~
: 1581 6 -2  it
- 1599
: 1603 3 6 You
* 1607 3 5  work
: 1615 2 5  all
: 1618 3 3  your
: 1623 4 5  life
- 1629
: 1631 3 5 for
: 1635 2 3  that
: 1639 3 5  mo
: 1643 3 6 ment
: 1647 2 5  in
: 1651 4 3  time
- 1661
: 1663 2 -2 It
: 1667 2 6  could
: 1671 5 5  come
: 1679 3 5  or
: 1683 3 3 ~
: 1690 1 6  pass
: 1692 4 8 ~
: 1697 2 6 ~
: 1700 2 5 ~
: 1704 3 5  you
: 1708 2 3 ~
: 1712 2 5  by
: 1715 2 3 ~
: 1718 2 1 ~
- 1725
: 1727 2 -9 It's
: 1731 2 3  a
: 1735 4 1  push,
: 1742 4 1  shove
: 1747 2 -1 ~
: 1751 5 1  world
- 1758
: 1760 2 1 but
: 1764 2 -1  there's
: 1767 3 1  al
* 1771 3 3 ways
: 1775 2 1  a
: 1779 3 1  chance
- 1789
: 1792 2 1 If
: 1796 2 1  the
: 1801 3 1  hun
: 1806 2 1 ger
: 1812 2 1  stays
: 1815 3 3 ~
: 1819 1 1 ~
: 1821 1 3 ~
: 1823 1 1 ~
: 1825 1 -1 ~
: 1830 2 -2  the
: 1836 11 -2  night
- 1857
: 1879 4 6 There's
: 1885 2 6  a
: 1891 6 6  cold
: 1899 2 6  ki
: 1908 2 6 ne
: 1915 2 6 tic
: 1923 3 6  heat
- 1938
: 1942 3 6 Strug
: 1947 3 6 gling,
: 1955 4 6  stretch
: 1963 3 6 ing
: 1971 1 6  for
: 1973 7 8 ~
: 1982 2 3  the
: 1987 6 3  peak
- 2003
: 2011 3 6 Nev
: 2015 2 6 er
: 2019 6 6  stop
: 2027 4 6 ping
- 2033
: 2035 3 6 with
: 2043 4 6  her
: 2050 4 6  head
: 2055 3 5 ~
: 2059 3 3  a
: 2067 5 3 gainst
: 2075 3 5  the
: 2079 2 3 ~
* 2084 3 5  wind
* 2088 2 3 ~
* 2091 1 5 ~
* 2093 2 3 ~
* 2096 2 2 ~
- 2104
: 2107 2 3 She's
: 2111 2 5  a
: 2116 10 6  ma
: 2127 3 5 ni
: 2131 3 3 ac,
: 2139 2 6  ma
: 2143 15 8 ~
: 2159 3 6 ni
: 2163 3 5 ac,
: 2171 4 3  I
: 2178 3 3  sure
: 2186 2 3  know
: 2189 1 1 ~
: 2191 4 -2 ~
- 2205
: 2235 2 3 and
: 2239 2 5  she's
: 2243 4 6  danc
: 2251 4 6 ing
- 2257
: 2259 3 6 like
: 2266 4 6  she's
: 2275 6 6  nev
: 2283 3 5 er
: 2291 5 5  danced
: 2299 3 3  be
: 2307 2 1 fore
: 2310 8 3 ~
: 2319 3 1 ~
- 2332
: 2363 2 3 She's
: 2367 2 5  a
* 2372 10 6  ma
* 2383 3 5 ni
* 2387 3 3 ac,
* 2395 2 6  ma
* 2399 15 8 ~
* 2415 3 6 ni
* 2419 3 5 ac,
: 2427 4 3  I
: 2434 3 3  sure
: 2442 2 3  know
: 2445 1 1 ~
: 2447 6 -2 ~
- 2463
: 2491 2 3 and
: 2495 2 5  she's
: 2499 4 6  danc
: 2507 4 6 ing
- 2513
: 2515 3 6 like
: 2522 4 6  she's
: 2530 7 6  nev
: 2539 3 5 er
: 2547 4 5  danced
: 2555 3 3  be
: 2563 11 3 fore
: 2575 3 1 ~
: 2579 7 -2 ~
- 2628
: 3672 2 6 It
: 3676 3 6  can
: 3684 3 6  cut
: 3692 3 6  you
: 3698 5 6  like
: 3708 4 6  a
: 3717 3 6  knife
- 3730
: 3737 2 6 and
: 3741 3 6  the
: 3748 5 6  gift
: 3757 3 6  be
: 3764 3 6 comes
: 3768 5 8 ~
: 3776 2 3  the
: 3780 3 3  fire
: 3784 2 1 ~
: 3787 2 -1 ~
- 3799
: 3803 3 6 On
: 3808 2 6  the
: 3812 11 6  wire
- 3826
: 3828 3 6 bet
: 3835 4 6 ween
: 3843 2 6  will
: 3846 4 8 ~
: 3851 3 8  and
: 3855 3 6 ~
: 3860 2 8  what
: 3864 2 8  will
: 3867 2 6 ~
: 3873 1 8  be
: 3875 8 10 ~
- 3895
: 3899 2 3 She's
: 3903 2 5  a
* 3908 10 6  ma
* 3919 3 5 ni
* 3923 3 3 ac,
: 3931 2 6  ma
: 3935 15 8 ~
: 3951 3 6 ni
: 3955 3 5 ac,
: 3963 4 3  I
: 3970 3 3  sure
: 3978 2 3  know
: 3981 1 1 ~
: 3983 4 -2 ~
- 3997
: 4027 2 3 and
: 4031 2 5  she's
: 4035 4 6  danc
: 4043 4 6 ing
- 4049
: 4051 3 6 like
: 4058 4 6  she's
: 4067 6 6  nev
: 4075 3 5 er
: 4083 5 5  danced
: 4091 3 3  be
: 4099 2 1 fore
: 4102 8 3 ~
- 4131
: 4155 2 3 She's
: 4159 2 5  a
: 4164 10 6  ma
: 4175 3 5 ni
: 4179 3 3 ac,
* 4187 2 6  ma
* 4191 15 8 ~
* 4207 3 6 ni
* 4211 3 5 ac,
: 4219 4 3  I
: 4226 3 3  sure
: 4234 2 3  know
: 4237 1 1 ~
: 4239 6 -2 ~
- 4255
: 4283 2 3 and
: 4287 2 5  she's
* 4291 4 6  danc
* 4299 4 6 ing
- 4305
: 4307 3 6 like
: 4314 4 6  she's
: 4322 7 6  nev
: 4331 3 5 er
: 4339 4 5  danced
: 4347 3 3  be
: 4355 2 1 fore
: 4359 7 3 ~
- 4387
: 4423 7 6 Ma
: 4431 4 5 ni
: 4436 2 3 ac,
: 4444 2 6  ma
: 4448 14 8 ~
: 4463 4 6 ni
: 4468 2 5 ac,
: 4476 4 3  I
: 4483 3 3  sure
: 4491 2 3  know
: 4494 1 1 ~
: 4496 4 -2 ~
E