#TITLE:Puedes Contar Conmigo
#ARTIST:La Oreja De Van Gogh
#MP3:La Oreja De Van Gogh - Puedes Contar Conmigo.mp3
#COVER:La Oreja De Van Gogh - Puedes Contar Conmigo [CO].jpg
#BACKGROUND:La Oreja De Van Gogh - Puedes Contar Conmigo [BG].jpg
#BPM:290
#GAP:7862,07
#ENCODING:UTF8
#LANGUAGE:Spanish
#EDITION:SingStar ESP
: 0 18 66 Un
: 20 8 61  ca
: 28 20 58 fé
: 52 6 61  con
: 60 6 54  sal
- 68
: 128 18 66 Ga
: 148 8 61 nas
: 156 20 58  de
: 180 6 61  llo
: 188 4 63 rar
: 192 8 61 ~
- 202
: 240 4 56 Mi
: 244 4 58  mun
: 248 2 56 do
: 250 2 56  em
: 252 4 54 pe
: 256 4 56 zan
: 260 2 56 do
: 262 2 56  a
: 264 4 56  tem
: 268 4 58 blar
- 274
: 284 4 54 Pre
: 288 4 56 sien
: 292 4 58 te
: 296 2 56  que
: 298 2 56  se
: 300 4 58  a
: 304 4 56 cer
: 308 2 54 ca
: 310 2 54  el
: 312 4 53  fi
: 316 4 54 nal
- 322
: 384 18 66 No
: 404 8 61  quie
: 412 20 58 ro
: 436 6 61  ga
: 444 6 54 nar
- 452
: 484 4 66 A
: 492 4 66 ho
: 500 6 66 ra
: 508 22 66  e
: 532 8 61 so
: 540 20 58  qué
: 564 6 61  más
: 572 4 63  da
: 576 8 61 ~
- 586
: 620 4 56 Es
: 624 4 56 toy
: 628 4 58  can
: 632 4 56 sa
: 636 4 54 da
: 640 2 56  ya
: 642 2 56  de
: 644 4 56  in
: 648 4 56 ven
: 652 4 58 tar
- 658
: 668 4 54 Ex
: 672 4 56 cu
: 676 4 56 sas
: 680 4 56  que
: 684 4 56  no
: 688 4 56  sa
: 692 4 54 ben
: 696 4 53  an
: 700 4 54 dar
: 704 4 56 ~
- 710
: 748 4 61 Y
: 752 4 61  so
: 756 6 65 lo
- 764
* 768 28 66 Que
: 796 4 65 da
: 800 2 66 rán-
: 802 2 65 ~
: 804 8 63 ~
- 814
: 828 4 51 Los
: 832 6 63  bue
: 838 6 63 nos
: 844 4 63  mo
: 848 4 63 men
: 854 6 54 tos
: 860 4 56  de
: 864 2 58  a
: 866 6 58 yer
- 874
: 876 4 61 Que
: 880 4 61  fue
: 884 6 65 ron
- 892
* 896 28 66 De
: 924 4 65  los
: 928 2 66  dos
: 930 2 65 ~
: 932 8 63 ~
- 942
: 956 4 51 Y
: 960 6 63  hoy
: 966 6 63  so
: 972 4 63 lo
: 976 6 63  quie
: 982 4 65 ro
: 986 6 66  cre
* 992 36 61 er
- 1030
: 1044 4 66 Que
: 1048 4 68  re
: 1052 6 70 cor
: 1060 6 66 da
: 1068 8 61 rás
- 1078
: 1084 4 61 Las
: 1088 4 70  tar
: 1092 4 71 des
: 1096 2 70  de
: 1098 2 70  in
: 1100 8 68 vier
: 1108 6 66 no
: 1116 8 65  por
: 1124 8 66  Ma
: 1132 8 68 drid
- 1142
: 1148 4 61 Las
: 1152 4 68  no
: 1156 4 70 ches
: 1160 4 68  en
: 1164 8 66 te
: 1172 8 65 ras
: 1180 8 63  sin
: 1188 8 65  dor
: 1196 8 66 mir
- 1206
: 1212 4 63 La
: 1216 4 66  vi
: 1220 4 68 da
: 1224 4 66  pa
: 1228 8 65 sa
: 1236 2 63 ba
- 1239
: 1240 4 63 Y
: 1244 8 62  yo
: 1252 8 63  sen
: 1260 8 65 tí-
: 1268 6 66  a
: 1276 8 68  que
: 1284 6 70  me
- 1291
: 1292 4 71 I
: 1296 4 71 ba
: 1300 4 70  a
: 1304 4 70  mo
: 1308 6 70 rir
: 1316 4 66  de
: 1320 2 66  a
: 1324 8 61 mor
- 1334
: 1340 4 61 Al
: 1344 4 70  ver
: 1348 2 71 te
: 1350 2 71  es
: 1352 4 70 pe
: 1356 8 68 ran
: 1364 4 66 do
: 1368 2 66  en
: 1372 8 65  mi
: 1380 8 66  por
* 1388 8 68 tal
- 1398
: 1404 4 61 Sen
: 1408 4 68 ta
: 1412 4 70 do
: 1416 2 68  en
: 1418 2 68  el
: 1420 8 66  sue
: 1428 8 65 lo
: 1436 8 63  sin
: 1444 8 65  pen
* 1452 8 66 sar
- 1462
: 1468 4 56 Que
: 1472 4 66  pue
: 1476 4 68 des
: 1480 4 66  con
: 1484 8 65 tar
: 1492 8 63  con
: 1500 8 66 mi
: 1508 8 63 go
- 1518
: 1524 2 61 Ooh
: 1526 3 63 ~
: 1529 2 61 ~
: 1531 5 63 ~
: 1536 8 61 ~
- 1546
: 1696 18 66 Nun
: 1716 4 61 ca
: 1720 4 58  hu
: 1724 20 58 bo
: 1748 6 61  mal
: 1756 6 54 dad
- 1764
: 1824 10 66 So
: 1844 4 61 lo
: 1848 4 58  in
: 1852 20 58 ge
: 1876 6 61 nui
: 1884 4 63 dad
: 1888 8 61 ~
- 1898
: 1936 4 56 Pre
: 1940 4 58 ten
: 1944 2 56 dien
: 1946 2 56 do
: 1948 4 54  ha
: 1952 4 56 cer
: 1956 4 56 nos
: 1960 4 56  cre
: 1964 4 58 er
- 1970
: 1980 2 54 Que
: 1982 2 54  el
: 1984 2 56  mun
: 1986 2 56 do
: 1988 4 56  es
: 1992 4 56 ta
: 1996 4 58 ba
: 2000 4 56  a
: 2004 4 54  nues
: 2008 4 53 tros
: 2012 8 54  pies
- 2022
: 2052 8 66 Cuan
: 2060 4 66 do
: 2064 2 66  el
: 2068 6 66  sue
: 2076 12 66 ńo-
: 2092 6 61 ~
: 2100 8 61  ven
: 2108 16 58 ga
: 2124 4 58  a
: 2132 6 61  por
: 2140 6 54  mí
- 2148
: 2172 6 54 En
: 2180 6 66  si
: 2188 6 66 len
: 2196 6 66 cio
: 2204 12 66  voy
: 2228 8 61  a
: 2236 20 58  cons
: 2260 6 61 tru
: 2268 6 63 ir
: 2276 6 61 ~
: 2284 12 56 ~
- 2298
: 2320 4 56 U
: 2324 4 58 na
: 2328 4 56  vi
: 2332 2 54 da
: 2334 2 54  a
: 2336 4 56  to
: 2340 4 56 do
: 2344 4 56  co
: 2348 4 58 lor
- 2354
: 2364 4 54 Don
: 2368 4 56 de
: 2372 4 56  vi
: 2376 4 56 va
: 2380 4 56 mos
: 2384 4 56  jun
: 2388 4 54 tos
: 2392 4 53  los
: 2396 4 54  dos
: 2400 4 56 ~
- 2406
: 2444 4 61 Y
: 2448 4 61  so
: 2452 6 65 lo
- 2460
* 2464 28 66 Que
: 2492 4 65 da
: 2496 2 66 rán-
: 2498 2 65 ~
: 2500 8 63 ~
- 2510
: 2524 4 51 Los
: 2528 6 63  bue
: 2534 6 63 nos
: 2540 4 63  mo
: 2544 4 63 men
: 2550 6 54 tos
: 2556 4 56  de
: 2560 2 58  a
: 2562 6 58 yer
- 2570
: 2572 4 61 Que
: 2576 4 61  fue
: 2580 6 65 ron
- 2588
* 2592 28 66 De
: 2620 4 65  los
: 2624 2 66  dos
: 2626 2 65 ~
: 2628 8 63 ~
- 2638
: 2652 4 51 Y
: 2656 6 63  hoy
: 2662 6 63  so
: 2668 4 63 lo
: 2672 6 63  quie
: 2678 4 65 ro
: 2682 6 66  cre
* 2688 36 61 er
- 2726
: 2740 4 66 Que
: 2744 4 68  re
: 2748 6 70 cor
: 2756 6 66 da
: 2764 8 61 rás
- 2774
: 2780 4 61 Las
: 2784 4 70  tar
: 2788 4 71 des
: 2792 2 70  de
: 2794 2 70  in
: 2796 8 68 vier
: 2804 6 66 no
: 2812 8 65  por
: 2820 8 66  Ma
: 2828 8 68 drid
- 2838
: 2844 4 61 Las
: 2848 4 68  no
: 2852 4 70 ches
: 2856 4 68  en
: 2860 8 66 te
: 2868 8 65 ras
: 2876 8 63  sin
: 2884 8 65  dor
: 2892 8 66 mir
- 2902
: 2908 4 63 La
: 2912 4 66  vi
: 2916 4 68 da
: 2920 4 66  pa
: 2924 8 65 sa
: 2932 2 63 ba
- 2935
: 2936 4 62 Y
: 2940 8 62  yo
: 2948 8 63  sen
: 2956 8 65 tí-
: 2964 6 66  a
: 2972 8 68  que
: 2980 6 70  me
- 2987
: 2988 4 71 I
: 2992 4 71 ba
: 2996 4 70  a
: 3000 4 70  mo
: 3004 6 70 rir
: 3012 2 66  de
: 3014 4 66  a
: 3020 8 61 mor
- 3030
: 3036 4 61 Al
: 3040 4 70  ver
: 3044 2 71 te
: 3046 2 71  es
: 3048 4 70 pe
: 3052 8 68 ran
: 3060 4 66 do
: 3064 2 66  en
: 3068 8 65  mi
: 3076 8 66  por
: 3084 8 68 tal
- 3094
: 3100 4 61 Sen
: 3104 4 68 ta
: 3108 4 70 do
: 3112 2 68  en
: 3114 2 68  el
: 3116 8 66  sue
: 3124 8 65 lo
: 3132 8 63  sin
: 3140 8 65  pen
: 3148 8 66 sar
- 3158
: 3164 4 56 Que
: 3168 4 66  pue
: 3172 4 68 des
: 3176 4 66  con
: 3180 8 65 tar
: 3188 8 63  con
: 3196 8 66 mi
: 3204 6 63 go
- 3211
: 3212 8 66 Pa
: 3220 8 63 ra
: 3228 8 61  siem
: 3236 2 63 pre
- 3239
: 3240 4 63 Y
: 3244 8 65  no
: 3252 8 61  pue
: 3260 4 71 do
: 3264 4 71  e
: 3268 8 70 vi
: 3276 8 70 tar
- 3286
: 3296 2 70 E
: 3298 2 70 char
: 3300 4 70 te
: 3304 4 70  de
: 3308 8 71  me
: 3316 6 73 nos
- 3323
* 3324 8 73 Mien
: 3332 8 68 tras
: 3340 8 68  das
: 3356 4 58  la
: 3360 4 68  ma
: 3364 2 68 no
: 3366 2 68  a
: 3368 4 68  mi
: 3372 8 70  tiem
: 3380 6 71 po
- 3387
: 3388 8 71 Y
: 3396 8 66  te
: 3404 8 66  vas
- 3414
: 3420 2 63 Y
: 3422 2 63  hoy
: 3424 4 66  sien
: 3428 4 66 to
: 3432 4 66  que
: 3436 8 68  quie
: 3444 6 70 ro
- 3451
: 3452 8 71 Ver
: 3460 4 66 te
: 3464 4 66  Y
: 3468 8 71  ver
: 3476 4 66 te
: 3480 4 66  y
: 3484 2 66  pi
: 3486 6 66 en
: 3492 6 65 so
- 3499
: 3500 8 66 Que
: 3508 8 68  re
: 3516 6 70 cor
: 3524 6 66 da
: 3532 8 61 rás
- 3542
: 3548 4 61 Las
: 3552 4 70  tar
: 3556 4 71 des
: 3560 2 70  de
: 3562 2 70  in
: 3564 8 68 vier
: 3572 6 66 no
: 3580 8 65  por
: 3588 8 66  Ma
: 3596 8 68 drid
- 3606
: 3612 4 61 Las
: 3616 4 68  no
: 3620 4 70 ches
: 3624 4 68  en
: 3628 8 66 te
: 3636 8 65 ras
: 3644 8 63  sin
: 3652 8 65  dor
: 3660 8 66 mir
- 3670
: 3676 4 54 La
: 3680 4 66  vi
: 3684 4 68 da
: 3688 4 66  pa
: 3692 8 65 sa
: 3700 2 63 ba
- 3703
: 3704 4 63 Y
: 3708 8 62  yo
: 3716 8 63  sen
: 3724 8 65 tí-
: 3732 6 66  a
: 3740 8 68  que
: 3748 6 70  me
- 3755
: 3756 4 71 I
: 3760 4 71 ba
: 3764 4 70  a
: 3768 4 70  mo
: 3772 6 70 rir
: 3780 2 66  de
: 3782 4 66  a
: 3788 8 61 mor
- 3798
: 3804 4 61 Al
: 3808 4 70  ver
: 3812 2 71 te
: 3814 2 71  es
: 3816 4 70 pe
: 3820 8 68 ran
: 3828 4 66 do
: 3832 2 66  en
: 3836 8 65  mi
: 3844 8 66  por
: 3852 8 68 tal
- 3862
: 3868 4 61 Sen
: 3872 4 68 ta
: 3876 4 70 do
: 3880 2 68  en
: 3882 2 68  el
: 3884 8 66  sue
: 3892 8 65 lo
: 3900 8 63  sin
: 3908 8 65  pen
: 3916 8 66 sar
- 3926
: 3932 4 54 Que
: 3936 4 66  pue
: 3940 4 68 des
: 3944 4 66  con
: 3948 8 65 tar
: 3956 8 63  con
: 3964 8 65 mi
* 3972 44 62 go
- 4018
: 4020 4 66 Que
: 4024 4 68  re
: 4028 8 70 cor
: 4036 8 66 da
: 4044 10 63 rás
- 4056
: 4060 4 63 Las
: 4064 4 70  tar
: 4068 4 71 des
: 4072 2 70  de
: 4074 2 70  in
: 4076 8 68 vier
: 4084 8 66 no
: 4092 8 65  por
: 4100 8 66  Ma
: 4108 8 68 drid
- 4118
: 4124 4 63 Las
: 4128 4 68  no
: 4132 4 70 ches
: 4136 4 68  en
: 4140 8 66 te
: 4148 8 65 ras
: 4160 8 63  sin
: 4168 4 65  dor
: 4172 8 66 mir
- 4182
: 4188 4 54 La
: 4192 4 66  vi
: 4196 4 68 da
: 4200 4 66  se
: 4204 8 65  pa
: 4212 4 63 sa
: 4216 4 63  y
: 4220 8 62  yo
: 4228 8 63  me
: 4236 8 65  mue
: 4244 8 62 ro
- 4254
: 4268 4 58 Me
: 4272 6 65  mue
: 4278 6 62 ro
: 4284 12 58  por
: 4296 18 66  ti
E