#TITLE:G.U.Y.
#ARTIST:Lady Gaga
#MP3:Lady Gaga - G.U.Y..mp3
#VIDEO:Lady Gaga - G.U.Y..mp4
#COVER:Lady Gaga - G.U.Y..png
#BPM:220
#GAP:1475
#VIDEOGAP:6,00
#ENCODING:UTF8
#LANGUAGE:English
#GENRE:Pop
#YEAR:2013
#AUTHOR:Coppo
: 0 3 6 Gree
: 4 5 6 tings
: 10 1 6  from
: 12 3 6  E
: 16 5 6 ros
- 32
: 36 5 6 God
: 42 5 6  of
: 48 3 6  se
: 52 1 6 xu
: 54 3 6 al
: 58 1 6  di
: 60 7 6 sire
- 77
: 86 3 6 Son
: 90 3 6  of
: 94 3 6  A
: 98 3 6 phro
: 102 3 6 di
: 106 7 6 te
- 119
: 122 3 6 Lay
: 126 5 6  back
- 134
: 136 3 6 And
: 140 5 6  feast
: 146 1 6  as
: 148 3 6  this
: 152 1 6  au
: 154 5 6 dio
: 160 3 6  guides
: 164 3 6  you
- 168
: 170 5 6 Through
: 176 7 6  new
: 184 1 6  and
: 186 3 6  ex
: 190 5 6 ci
: 196 3 6 ting
: 200 1 6  po
: 202 1 6 si
: 204 5 6 tions
- 238
: 344 2 2 I
: 348 3 3  wan
: 352 2 2 na
: 356 3 0  be
: 360 2 -2  the
: 364 11 0  girl
- 384
: 388 3 2 Un
: 392 3 2 der
: 396 2 -2 ~
: 400 9 -2  you
- 420
: 424 2 -5 I
: 428 3 3  wan
: 432 2 2 na
: 436 3 0  be
: 440 2 -2  your
: 444 5 -2  G
: 452 5 0 U
: 460 5 0 Y
- 466
: 468 3 0 Yeah
: 472 2 2  I
: 476 3 3  wan
: 480 2 2 na
: 484 3 0  be
: 488 2 -2  the
: 492 11 0  grave
- 512
: 516 3 3 And
: 520 5 2  earth
: 528 7 -2  you
- 545
: 552 2 -5 Our
: 556 2 3  sex
: 560 5 2 es
: 568 3 -2  tell
: 572 3 -2  us
: 580 5 0  no
: 588 7 0  lies
- 605
: 620 2 3 I'm
: 624 3 2  gon
: 628 2 0 na
: 632 3 3  wear
: 636 2 2  the
: 640 1 0  tower
- 642
: 644 2 0 Want
: 648 2 0  the
: 652 3 5  po
: 656 2 3 wer
: 660 2 3  to
: 664 3 5  leave
: 668 1 3  you
- 670
: 672 2 3 I'm
: 676 3 3  ai
: 680 2 3 ming
: 684 3 5  for
: 688 2 2  full
: 692 3 2  con
* 696 2 5 trol
* 700 3 3  of
* 704 2 3  this
* 708 1 7  love
* 710 1 5 ~
* 712 5 7 ~
- 718
: 720 2 0 Of
: 724 2 12  this
: 728 1 7  love
: 730 1 3 ~
: 732 7 0 ~
- 745
: 748 3 0 Touch
: 752 3 0  me,
: 756 3 0  touch
: 760 3 0  me
: 764 3 0  don't
: 768 3 0  be
: 772 3 0  sweet
- 778
: 780 3 0 Love
: 784 3 0  me,
: 788 3 0  love
: 792 3 0  me
: 796 3 0  please
: 800 3 0  re
: 804 1 0 tweet
- 806
: 808 1 0 Let
: 810 1 0  me
: 812 3 0  be
: 816 1 0  the
: 818 5 0  girl
- 823
: 824 1 0 Un
: 826 1 0 der
: 828 3 0  you
: 832 3 0  that
: 836 3 0  makes
: 840 1 0  you
: 842 3 0  cry
- 846
: 848 3 5 I
: 852 3 5  wan
: 856 2 3 na
: 860 7 5  be
* 868 1 5  that
* 870 3 7 ~
: 876 3 3  guy
: 880 11 0 ~
- 901
: 912 3 5 I
: 916 3 5  wan
: 920 2 3 na
: 924 7 5  be
: 932 1 5  that
: 934 3 7 ~
: 940 3 3  guy
: 944 11 0 ~
- 965
: 976 3 5 I
: 980 3 5  wan
: 984 2 3 na
: 988 7 5  be
: 996 1 5  that
: 998 3 7 ~
: 1004 3 3  guy
: 1008 11 0 ~
- 1029
: 1040 3 5 The
: 1044 2 5  girl
: 1048 3 3  un
: 1052 5 5 der
: 1060 5 5  you,
: 1068 9 0  guy
- 1106
: 1240 2 2 I'm
: 1244 3 3  gon
: 1248 2 2 na
: 1252 3 0  say
: 1256 2 -2  the
: 1260 11 0  word
- 1280
: 1284 3 2 And
: 1288 3 2  own
: 1292 2 -2 ~
: 1296 9 -2  you
- 1315
: 1324 3 3 You'll
: 1328 2 2  be
: 1332 3 0  my
: 1336 3 -2  G
: 1340 5 -2 I
: 1348 5 0 R
: 1356 5 0 L
- 1366
: 1368 2 2 Got
: 1372 3 3  our
: 1376 2 2  ro
: 1380 3 0 mance
: 1384 2 -2  and
: 1388 11 0  loves
- 1408
: 1412 3 2 To
: 1416 3 2  hold
: 1420 2 -2 ~
: 1424 7 -2  you
- 1441
: 1452 3 3 Know
: 1456 2 2  you'll
: 1460 3 0  wear
: 1464 2 -2  my
: 1468 5 -2  make-
: 1476 5 0 up
: 1484 9 0  well
- 1503
: 1516 2 3 I'm
: 1520 3 2  gon
: 1524 2 0 na
: 1528 3 3  wear
: 1532 2 2  the
: 1536 1 0  tower
- 1538
: 1540 2 0 Want
: 1544 2 0  the
: 1548 3 5  po
: 1552 2 3 wer
: 1556 2 3  to
: 1560 3 5  leave
: 1564 1 3  you
- 1566
: 1568 2 3 I'm
: 1572 3 3  ai
: 1576 2 3 ming
: 1580 3 5  for
: 1584 2 2  full
: 1588 3 2  con
: 1592 2 5 trol
: 1596 3 3  of
: 1600 2 3  this
: 1604 1 7  love
: 1606 1 5 ~
: 1608 5 7 ~
- 1614
: 1616 2 0 Of
* 1620 2 12  this
* 1624 1 7  love
* 1626 1 3 ~
* 1628 7 0 ~
- 1641
: 1644 3 0 Touch
: 1648 3 0  me,
: 1652 3 0  touch
: 1656 3 0  me
: 1660 3 0  don't
: 1664 3 0  be
: 1668 3 0  sweet
- 1674
: 1676 3 0 Love
: 1680 3 0  me,
: 1684 3 0  love
: 1688 3 0  me
: 1692 3 0  please
: 1696 3 0  re
: 1700 1 0 tweet
- 1702
: 1704 1 0 Let
: 1706 1 0  me
: 1708 3 0  be
: 1712 1 0  the
: 1714 5 0  girl
- 1719
: 1720 1 0 Un
: 1722 1 0 der
: 1724 3 0  you
: 1728 3 0  that
: 1732 3 0  makes
: 1736 1 0  you
: 1738 3 0  cry
- 1742
: 1744 3 5 I
: 1748 3 5  wan
: 1752 2 3 na
: 1756 7 5  be
: 1764 1 5  that
: 1766 3 7 ~
: 1772 3 3  guy
: 1776 11 0 ~
- 1797
: 1808 3 5 I
: 1812 3 5  wan
: 1816 2 3 na
: 1820 7 5  be
: 1828 1 5  that
: 1830 3 7 ~
: 1836 3 3  guy
: 1840 11 0 ~
- 1861
: 1872 3 5 I
: 1876 3 5  wan
: 1880 2 3 na
: 1884 7 5  be
: 1892 1 5  that
: 1894 3 7 ~
: 1900 3 3  guy
: 1904 11 0 ~
- 1925
: 1936 3 5 The
: 1940 2 5  girl
: 1944 3 3  un
: 1948 5 5 der
: 1956 5 5  you,
: 1964 9 0  guy
- 2002
: 2032 3 12 I
: 2036 2 12  don't
: 2040 3 12  need
: 2044 2 12  to
: 2048 3 10  be
: 2052 2 10  on
: 2056 3 10  top
- 2062
: 2064 2 10 To
: 2068 3 10  know
: 2072 2 10  I'm
: 2076 3 10  wan
: 2080 1 8 ted
- 2082
: 2084 3 8 'Cause
: 2088 2 7  I'm
: 2092 3 7  strong
: 2096 2 7  e
: 2100 3 7 nough
* 2104 2 7  to
* 2108 5 10  know
* 2116 2 3  the
* 2120 9 3  truth
- 2143
: 2160 3 12 I
: 2164 2 12  just
: 2168 3 12  want
: 2172 2 12  it
: 2176 3 10  to
: 2180 2 10  be
: 2184 3 10  hot
- 2190
: 2192 3 10 Be
: 2196 2 10 cause
: 2200 3 10  I'm
: 2204 1 10  blessed
- 2206
: 2208 2 8 When
: 2212 3 8  I'm
: 2216 2 7  in
: 2220 3 7  love
: 2224 2 7  and
: 2228 3 7  I'm
: 2232 2 7  in
: 2236 5 10  love
- 2242
: 2244 2 3 With
: 2248 11 3  you
- 2288
: 2332 3 0 Touch
: 2336 3 0  me,
: 2340 3 0  touch
: 2344 3 0  me
- 2350
: 2352 5 0 Mount
: 2358 1 0  your
: 2360 3 0  god
: 2364 7 0 dess
- 2381
: 2396 3 0 Touch
: 2400 3 0  me,
: 2404 3 0  touch
: 2408 1 0  me
- 2410
: 2412 3 0 A
: 2416 1 0  sum
: 2418 3 0 mer
: 2422 5 0  moon
- 2428
: 2430 9 0 Comes
: 2440 1 0  in
: 2442 1 0 to
: 2444 7 0  full
: 2452 1 0  phase
- 2454
: 2456 3 0 Get
: 2460 3 0  on
: 2464 3 0  top
: 2468 1 0  of
: 2470 1 0  me
- 2471
: 2472 3 0 And
: 2476 9 0  Mars'
: 2486 7 0  warm
: 2494 1 0  spi
: 2496 7 0 rit
: 2506 9 0  rams
- 2516
: 2518 1 0 In
: 2520 1 0 to
: 2522 1 0  the
: 2524 1 0  at
: 2526 3 0 mos
: 2530 5 0 phere
- 2538
: 2540 3 0 Touch
: 2544 3 0  me,
: 2548 3 0  touch
: 2552 1 0  me
- 2554
: 2556 3 0 Don't
: 2560 3 0  be
: 2564 5 0  shy
- 2570
: 2572 3 0 I'm
: 2576 1 0  in
: 2578 5 0  charge
: 2584 1 0  like
: 2586 1 0  a
: 2588 3 0  G
: 2592 3 0 U
: 2596 5 0 Y
- 2602
: 2604 3 0 I'll
: 2608 3 0  lay
: 2612 3 0  down
: 2616 3 0  face
: 2620 3 0  up
: 2624 3 0  this
: 2628 5 0  time
- 2634
: 2636 3 0 Un
: 2640 1 0 der
: 2642 5 0  you
: 2648 1 0  like
: 2650 1 0  a
: 2652 3 0  G
: 2656 3 0 U
: 2660 7 0 Y
- 2670
: 2672 3 5 I
: 2676 3 5  wan
: 2680 2 3 na
* 2684 7 5  be
* 2692 1 5  that
* 2694 3 7 ~
* 2700 3 3  guy
* 2704 11 0 ~
- 2725
: 2736 3 5 I
: 2740 3 5  wan
: 2744 2 3 na
: 2748 7 5  be
: 2756 1 5  that
: 2758 3 7 ~
: 2764 3 3  guy
: 2768 11 0 ~
- 2789
: 2800 3 5 I
: 2804 3 5  wan
: 2808 2 3 na
: 2812 7 5  be
: 2820 1 5  that
: 2822 3 7 ~
: 2828 3 3  guy
: 2832 11 0 ~
- 2853
: 2864 3 5 The
: 2868 2 5  girl
: 2872 3 3  un
: 2876 5 5 der
: 2884 5 5  you,
: 2892 9 0  guy
- 2911
: 2928 3 5 I
: 2932 3 5  wan
: 2936 2 3 na
: 2940 7 5  be
: 2948 1 5  that
: 2950 3 7 ~
: 2956 3 3  guy
: 2960 11 0 ~
- 2981
: 2992 3 5 I'll
: 2996 3 5  wrap
: 3000 2 3  you
: 3004 5 5  right
: 3012 1 5  up
: 3014 3 7 ~,
: 3020 3 3  guy
: 3024 11 0 ~
- 3045
: 3056 3 5 I'll
: 3060 3 5  lie
: 3064 2 3  down
: 3068 5 5  face
: 3076 1 5  up
: 3078 3 7 ~,
: 3084 3 3  guy
: 3088 11 0 ~
- 3109
: 3120 3 5 The
: 3124 2 5  girl
: 3128 3 3  un
: 3132 5 5 der
: 3140 5 5  you,
* 3148 9 0  guy
- 3162
: 3164 3 0 Vier
: 3168 7 0 zehn
- 3178
: 3180 7 0 Drei
: 3188 7 0  eins
- 3201
: 3204 7 0 Nein
: 3212 9 0  Zedd!
- 3232
: 3236 7 0 Nein
: 3244 9 0  Zedd!
- 3264
: 3268 7 0 Nein
: 3276 9 0  Zedd!
- 3296
: 3300 7 0 Nein
: 3308 9 0  Zedd!
E