#TITLE:Born to Die [VIDEO]
#ARTIST:Lana del Rey
#MP3:Lana del Rey - Born to Die [VIDEO].mp3
#VIDEO:Lana del Rey - Born to Die [VD#0,7].mp4
#COVER:Lana del Rey - Born to Die [VIDEO] [CO].jpg
#BPM:393,3
#GAP:23000
#VIDEOGAP:0,7
#ENCODING:UTF8
#LANGUAGE:English
#GENRE:Pop
#YEAR:2011
: 0 8 9 Feet
: 9 8 11 ~
: 21 11 11  don't
: 37 16 9  fail
: 55 7 11  me
: 66 43 9  now
- 111
: 145 6 11 Take
: 154 7 11  me
: 164 6 11  to
: 172 5 11  the
: 181 8 9  fi
: 192 7 9 nish
: 200 8 11 ~
: 211 21 9  line
: 232 9 2 ~
- 243
: 255 6 9 All
: 263 7 11  my
: 273 6 9  heart,
: 282 6 7  it
: 291 18 11  breaks
: 311 8 4  e
: 319 5 4 very
: 327 10 7  step
: 340 5 9  that
: 347 6 7  I
: 355 7 9  take
: 364 11 11 ~
- 377
: 383 9 11 But
: 394 5 11  I'm
: 401 4 11  ho
: 406 3 9 ~
: 411 6 9 ping
: 420 6 9  at
: 428 7 9  the
: 437 17 9  gates,
- 455
: 455 7 9 They'll
: 464 7 9  tell
: 474 7 9  me
: 484 6 11  that
: 493 6 7  you're
: 502 8 6  mi
: 511 18 4 ne
- 531
: 584 10 11 Wal
: 596 5 11 king
: 604 7 11  through
: 613 6 11  the
: 622 7 9  ci
* 631 6 9 ty
* 638 6 11 ~
: 646 42 9  streets
- 690
: 730 7 11 Is
: 740 7 11  it
: 749 7 11  by
: 758 7 11  mis
: 767 4 14 take
: 772 3 11 ~
: 776 6 11  or
: 785 6 11  de
: 793 26 9 sign?
- 821
: 839 6 9 I
: 848 7 11  feel
: 857 6 9  so
: 866 8 7  a
: 876 9 11 lone
: 885 7 4 ~
: 895 6 4  on
: 903 6 4  the
: 912 8 7  Fri
: 921 10 9 day
: 931 9 7 ~
: 942 9 9  nights
: 953 14 11 ~
- 968
: 969 6 11 Can
: 978 6 11  you
: 987 6 9  make
: 997 5 9  it
: 1005 7 9  feel
: 1015 7 9  like
: 1025 10 9  home,
: 1041 8 9  if
: 1051 6 9  I
: 1060 7 9  tell
: 1070 5 11  you
: 1078 8 7  you're
: 1089 7 6  mi
: 1097 12 4 ne
- 1111
: 1120 3 4 It's
: 1125 3 11  like
: 1130 2 11  I
: 1134 8 11  told
: 1143 6 4  you
: 1151 7 4  ho
: 1160 15 7 ney
- 1177
: 1185 16 7 Don't
: 1205 14 7  make
: 1222 9 9  me
: 1233 19 11  sad,
: 1260 14 16  don't
: 1278 14 14  make
: 1296 6 11  me
: 1305 19 9  cry
- 1326
: 1331 13 9 Some
: 1346 7 7 times
* 1355 3 9  love
* 1358 4 11 ~
* 1362 3 7 ~
: 1367 3 7  is
: 1372 6 9  not
* 1379 3 11 ~
* 1382 3 7 ~
: 1386 3 7  e
: 1390 8 9 nough
: 1400 2 9  and
: 1404 2 7  the
: 1409 8 9  road
: 1418 7 7  gets
: 1427 7 9  tough
- 1436
: 1438 5 11 I
: 1445 6 9  don't
: 1454 7 7  know
: 1464 3 7  why
: 1468 9 4 ~
- 1478
: 1480 16 7 Keep
: 1499 5 7  ma
: 1507 5 7 king
: 1516 6 9  me
: 1525 20 11  laugh,
- 1547
: 1552 9 14 Let's
: 1562 9 16 ~
: 1573 3 14  go
: 1577 2 11 ~
: 1582 9 11  get
: 1592 4 9 ~
: 1597 14 9  high
- 1613
: 1624 2 2 The
: 1627 11 9  road
: 1641 3 7  is
: 1646 11 9  long,
: 1660 2 7  we
: 1664 12 9  ca
: 1677 4 7 rry
: 1683 11 9  on
- 1695
: 1697 3 7 Try
: 1702 6 9  to
: 1711 6 7  have
: 1720 7 9  fun
: 1729 7 11  in
: 1738 6 9  the
: 1747 7 7  mean
: 1756 3 7 time
: 1761 6 4 ~
- 1769
: 1772 9 16 Come
: 1783 3 16  take
: 1788 3 16  a
: 1793 8 16  walk
: 1803 3 16  on
: 1808 3 16  the
: 1812 6 18  wild
: 1820 14 19  side
- 1836
: 1847 3 16 Let
: 1851 4 16  me
: 1857 3 16  kiss
: 1861 2 16  you
: 1865 11 16  hard
: 1877 2 16  in
: 1881 2 16  the
: 1885 6 18  pou
: 1892 7 21 ring
: 1903 15 18  rain
- 1920
: 1943 2 14 You
: 1948 2 18  like
: 1952 3 16  your
: 1957 7 18  girls
: 1966 5 18  in
: 1974 5 18 sane
: 1982 15 16 ~
- 1999
: 2065 19 7 Choose
: 2085 11 7  your
: 2098 12 9  last
: 2112 20 11  words
- 2134
: 2141 9 16 This
: 2151 7 16  is
: 2159 6 14  the
: 2165 3 11 ~
: 2170 7 11  last
: 2178 6 9 ~
* 2186 28 9  time
- 2216
: 2243 5 4 Cause
: 2251 9 9  you
: 2262 4 7  and
: 2267 18 9  I,
: 2313 3 9  we
: 2317 3 7  were
: 2322 9 9  born
: 2331 3 7 ~
: 2335 4 4  to
* 2340 18 4  die
- 2360
: 2414 5 9 Lost
: 2420 14 11 ~
: 2437 11 11  but
: 2451 12 9  now
: 2464 7 9  I
: 2472 6 11  am
: 2480 37 9  found
- 2519
: 2561 6 11 I
: 2570 5 11  can
: 2578 10 11  see
: 2589 6 11  but
: 2597 10 14  once
: 2609 6 11  I
: 2617 7 11  was
: 2625 9 11  blind
: 2634 11 9 ~
- 2647
: 2670 6 9 I
: 2679 5 11  was
: 2687 7 9  so
: 2696 6 7  con
: 2704 15 11 fused
: 2719 6 4 ~
: 2728 7 4  as
: 2737 5 4  a
: 2743 6 7  litt
: 2750 9 9 le
: 2760 6 7 ~
* 2769 7 9  child
* 2777 13 11 ~
- 2792
: 2802 9 11 Tried
: 2812 4 11  to
: 2817 5 11  take
: 2822 4 9 ~
: 2829 5 9  what
: 2836 5 9  I
: 2844 8 9  could
: 2854 11 9  get
- 2867
: 2871 9 9 Scared
: 2882 5 9  that
: 2889 6 9  I
: 2900 8 11  could
: 2908 6 7 n't
: 2917 4 6  find
: 2922 17 4 ~
- 2941
: 2955 3 4 All
: 2959 2 11  the
: 2963 6 11  an
: 2972 8 4 swers,
* 2982 6 4  ho
* 2991 13 7 ney
- 3006
: 3016 17 7 Don't
: 3036 14 7  make
: 3054 6 9  me
: 3064 19 11  sad,
: 3091 13 16  don't
: 3108 17 14  make
: 3127 5 11  me
: 3132 4 9 ~
: 3138 16 9  cry
- 3156
: 3161 13 9 Some
: 3175 7 7 times
* 3184 5 9  love
* 3189 3 11 ~
* 3192 3 7 ~
: 3197 3 7  is
: 3201 4 9  not
: 3205 4 11 ~
: 3209 4 7 ~
: 3215 3 7  e
: 3220 6 9 nough
: 3228 4 9  and
: 3234 2 7  the
: 3238 8 9  road
: 3247 7 7  gets
: 3256 7 9  tough
- 3265
: 3269 4 11 I
: 3275 8 9  don't
: 3284 7 7  know
: 3293 3 7  why
: 3297 7 4 ~
- 3306
: 3311 13 7 Keep
: 3328 7 7  ma
: 3336 7 7 king
: 3347 8 9  me
: 3356 17 11  laugh,
- 3375
: 3381 8 14 Let's
: 3391 8 16 ~
* 3402 4 14  go
* 3406 4 11 ~
: 3411 6 11  get
: 3419 7 9 ~
: 3429 12 9  high
- 3443
: 3454 3 2 The
: 3458 12 9  road
: 3471 4 7  is
: 3476 11 9  long,
: 3489 2 7  we
: 3494 12 9  ca
: 3509 2 7 rry
: 3513 11 9  on
- 3525
: 3527 2 7 Try
: 3531 6 9  to
: 3539 6 7  have
: 3548 7 9  fun
: 3559 4 11  in
: 3567 6 9  the
: 3576 6 7  mean
: 3585 4 7 time
: 3589 7 4 ~
- 3598
: 3603 8 16 Come
: 3612 6 16  take
: 3620 3 16  a
: 3624 8 16  walk
: 3634 4 16  on
: 3639 2 16  the
: 3642 6 18  wild
: 3650 13 19  side
- 3665
: 3677 3 16 Let
: 3681 2 16  me
: 3685 5 16  kiss
: 3691 4 16  you
: 3696 8 16  hard
: 3706 3 16  in
: 3710 3 16  the
: 3714 8 18  pou
: 3724 7 21 ring
: 3733 13 18  rain
- 3748
: 3771 4 14 You
* 3776 4 18  like
: 3781 4 16  your
: 3786 9 18  girls
: 3797 4 18  in
: 3804 4 18 sane
: 3809 12 16 ~
- 3823
: 3896 20 7 Choose
: 3918 7 7  your
: 3926 16 9  last
: 3943 25 11  words,
- 3969
: 3970 9 16 This
: 3981 7 16  is
* 3989 4 14  the
* 3994 4 11 ~
: 4000 7 11  last
: 4007 6 9 ~
: 4016 38 9  time
- 4056
: 4072 6 4 Cause
: 4081 9 9  you
: 4093 3 7  and
: 4099 26 9  I
- 4127
: 4144 3 9 We
: 4148 6 7  were
* 4155 2 9  born
: 4158 4 7 ~
: 4163 4 4  to
: 4169 10 4  die
- 4181
: 4290 3 9 We
: 4295 2 7  were
: 4300 4 9  born
: 4304 6 7 ~
: 4311 5 4  to
: 4317 18 4  die
- 4337
: 4438 2 9 We
: 4443 2 7  were
* 4447 4 9  born
* 4451 3 7 ~
: 4456 5 4  to
: 4462 14 4  die
- 4478
: 4555 7 16 Come
: 4564 2 16  take
: 4569 2 16  a
: 4574 7 16  walk
: 4584 2 16  on
: 4588 2 16  the
: 4593 5 18  wild
: 4601 12 19  side
- 4615
: 4628 3 16 Let
: 4632 2 16  me
: 4637 4 16  kiss
: 4643 3 16  you
: 4648 7 16  hard
: 4656 3 16  in
: 4660 2 16  the
: 4664 10 18  pou
: 4674 8 21 ring
: 4684 16 18  rain
- 4702
: 4724 2 14 You
: 4729 2 18  like
: 4733 2 16  your
: 4738 8 18  girls
: 4748 4 18  in
: 4755 5 18 sane
: 4760 14 16 ~
- 4776
: 4847 12 7 Don't
: 4863 17 7  make
: 4883 6 9  me
* 4892 24 11  sad,
: 4922 12 16  don't
: 4938 16 14  make
: 4958 4 11  me
: 4962 3 9 ~
: 4968 19 9  cry
- 4989
: 4992 11 9 Some
: 5005 7 7 times
: 5014 3 9  love
: 5017 4 11 ~
: 5022 4 7 ~
: 5028 3 7  is
: 5032 3 9  not
: 5035 4 11 ~
: 5039 4 7 ~
: 5044 3 7  e
: 5048 10 9 nough
: 5059 3 9  and
: 5063 3 7  the
: 5067 9 9  road
: 5078 6 7  gets
: 5085 11 9  tough
- 5098
: 5100 5 11 I
: 5106 8 9  don't
: 5115 6 7  know
: 5122 4 7  why
* 5127 8 4 ~
- 5137
: 5141 17 7 Keep
: 5161 8 7  ma
: 5171 5 7 king
: 5179 5 9  me
: 5188 19 11  laugh,
- 5209
: 5211 9 14 Let's
: 5221 9 16 ~
: 5232 4 14  go
: 5237 3 11 ~
: 5242 6 11  get
: 5249 6 9 ~
: 5258 16 9  high
- 5276
: 5283 4 2 The
: 5289 12 9  road
: 5302 3 7  is
: 5307 8 9  long,
: 5318 4 7  we
: 5323 10 9  carry
: 5334 5 7 ~
: 5341 8 9  on
- 5351
: 5356 3 7 Try
: 5360 4 9  to
: 5368 8 7  have
: 5377 8 9  fun
: 5387 6 11  in
: 5395 6 9  the
: 5404 8 7  mean
: 5413 4 7 time
: 5417 10 4 ~
- 5429
: 5433 9 16 Come
: 5444 5 16  take
: 5450 3 16  a
: 5454 7 16  walk
: 5462 3 16  on
: 5466 3 16  the
: 5470 7 18  wild
: 5479 17 19  side
- 5498
: 5507 4 16 Let
: 5512 3 16  me
: 5516 4 16  kiss
: 5522 3 16  you
: 5526 8 16  hard
: 5536 3 16  in
: 5540 2 16  the
* 5543 10 18  pou
* 5553 9 21 ring
: 5564 14 18  rain
- 5580
: 5601 2 14 You
: 5604 4 18  like
: 5609 3 16  your
: 5614 10 18  girls
: 5625 6 18  in
: 5632 4 18 sane
: 5636 15 16 ~
- 5653
: 5726 19 7 Choose
: 5746 9 7  your
: 5757 14 9  last
* 5772 26 11  words
- 5799
: 5801 6 16 This
: 5810 3 16  is
: 5817 4 14  the
: 5821 3 11 ~
: 5827 6 11  last
: 5833 6 9 ~
: 5843 32 9  time
- 5877
: 5902 5 4 Cause
: 5908 13 9  You
: 5923 3 7  and
: 5927 21 9  I
- 5950
: 5976 3 9 We
: 5980 3 7  were
: 5985 3 9  born
: 5988 4 7 ~
: 5993 3 4  to
: 5997 25 4  die
E