#TITLE:Everything At Once
#ARTIST:Lenka
#MP3:Lenka - Everything At Once.mp3
#VIDEO:Lenka - Everything At Once [VD#0].mp4
#COVER:Lenka - Everything At Once [CO].jpg
#BPM:290
#GAP:6590
#MedleyStartBeat:1220
#MedleyEndBeat:1888
#ENCODING:UTF8
#PREVIEWSTART:20,038
#LANGUAGE:English
#YEAR:2012
: 0 2 5 As
: 4 5 2  sly
: 12 2 5  as
: 16 2 5  a
: 20 4 -3  fox
- 26
: 28 4 5 As
: 36 2 2  strong
: 40 2 2  as
: 44 2 5  an
: 48 4 -3  ox
- 54
: 64 2 2 As
: 68 5 2  fast
: 76 2 5  as
: 80 2 5  a
: 84 4 -3  hare
- 90
: 92 3 5 As
: 100 2 2  brave
: 104 2 2  as
: 108 2 5  a
: 112 4 -3  bear
- 118
: 128 2 0 As
: 132 4 0  free
: 140 2 4  as
: 144 2 4  a
: 148 4 -5  bird
- 154
: 156 3 4 As
: 164 2 0  neat
: 168 2 0  as
: 172 2 4  a
: 176 7 -5  word
- 185
: 192 2 -5 As
: 196 2 0  qui
: 200 2 0 et
: 204 2 4  as
: 208 2 4  a
* 212 4 -5  mouse
- 218
: 220 3 4 As
: 228 2 0  big
: 232 2 0  as
: 236 2 4  a
: 240 4 -5  house
- 246
* 260 8 9 A
: 272 2 7 ~
: 276 8 5 ~
: 288 2 4 ~
: 292 2 5 ~
: 296 2 4 ~
: 300 12 2 ~ll
- 314
: 316 2 2 I
: 320 2 5 ~
: 324 2 4  wan
: 328 2 5 na
: 332 24 4  be
- 358
: 388 8 9 A
: 400 2 7 ~
: 404 8 5 ~
: 416 2 4 ~
: 420 2 5 ~
: 424 2 4 ~
: 428 12 2 ~ll
- 442
: 444 2 2 I
: 448 2 5 ~
: 452 2 4  wan
: 456 2 5 na
* 460 22 4  be
- 484
: 492 4 0 Oh
: 500 4 4  oh
: 508 4 5  oh
- 514
: 516 10 9 A
: 528 2 7 ~
: 532 8 5 ~
: 544 2 4 ~
: 548 2 5 ~
: 552 2 4 ~
: 556 12 2 ~ll
- 570
: 572 2 2 I
: 576 2 5 ~
: 580 2 4  wan
: 584 2 5 na
: 588 30 4  be
- 620
: 636 4 0 Is
: 644 2 4  eve
: 649 4 5 ry
* 656 14 4 thing
- 672
: 704 2 2 As
: 708 4 2  mean
: 716 2 5  as
: 720 2 5  a
: 724 3 -3  wolf
- 729
: 732 3 5 As
: 740 2 2  sharp
: 744 2 2  as
: 748 2 5  a
: 752 4 -3  tooth
- 758
: 768 2 2 As
* 772 3 2  deep
: 780 2 5  as
: 784 2 5  a
: 788 4 -3  bite
- 794
: 796 4 5 As
: 804 2 2  dark
: 808 2 5  as
: 812 2 5  the
: 816 4 -3  night
- 822
: 832 2 0 As
: 836 4 0  sweet
: 844 2 4  as
: 848 2 4  a
: 852 4 -5  song
- 858
: 860 4 4 As
: 868 2 0  right
: 872 2 0  as
: 876 2 4  the
: 880 4 -5  wrong
- 886
: 896 2 0 As
: 900 4 0  long
: 908 2 4  as
: 912 2 4  a
: 916 4 -5  road
- 922
: 924 2 4 As
: 932 2 0  ug
: 936 2 0 ly
: 940 2 4  as
: 944 2 4  a
: 948 4 -5  toad
- 954
: 956 4 4 As
: 964 2 2  pret
: 968 2 2 ty
: 972 2 5  as
: 976 2 5  a
: 980 4 -3  pic
* 988 4 5 ture
- 994
: 996 2 2 Han
: 1000 2 2 ging
: 1004 2 5  from
: 1008 2 5  a
: 1012 3 -3  fix
: 1020 4 5 ture
- 1026
: 1028 4 2 Strong
: 1036 2 5  like
: 1040 2 5  a
: 1044 2 -3  fa
: 1048 2 -3 mi
: 1052 2 5 ly
- 1056
: 1060 4 2 Strong
: 1068 2 5  as
: 1072 2 5  I
: 1076 2 -3  wan
: 1080 2 -3 na
: 1084 4 5  be
- 1090
* 1092 4 0 Bright
: 1100 2 4  as
: 1108 4 -5  day
- 1114
: 1120 2 0 As
: 1124 4 0  light
: 1132 3 4  as
: 1140 4 -5  play
- 1146
: 1152 2 0 As
: 1156 4 0  hard
: 1164 4 4  as
: 1172 4 -5  nails
- 1178
: 1180 4 4 As
: 1188 4 0  grand
: 1196 2 4  as
: 1200 2 4  a
: 1204 4 -5  whale
- 1210
: 1220 8 9 A
: 1232 2 7 ~
: 1236 8 5 ~
: 1248 2 4 ~
: 1252 2 5 ~
: 1256 2 4 ~
: 1260 12 2 ~ll
- 1274
: 1276 2 2 I
: 1280 2 5 ~
: 1284 2 4  wan
: 1288 2 5 na
* 1292 22 4  be
- 1316
: 1324 4 0 Oh
: 1332 4 4  oh
: 1340 4 5  oh
- 1346
: 1348 8 9 A
: 1360 2 7 ~
: 1364 8 5 ~
: 1376 2 4 ~
: 1380 2 5 ~
: 1384 2 4 ~
: 1388 12 2 ~ll
- 1402
: 1404 2 2 I
: 1408 2 5 ~
: 1412 2 4  wan
: 1416 2 5 na
: 1420 20 4  be
- 1442
* 1452 4 9 Oh
: 1460 4 4  oh
: 1468 4 5  oh
- 1474
: 1476 8 9 A
: 1488 2 7 ~
: 1492 8 5 ~
: 1504 2 4 ~
: 1508 2 5 ~
: 1512 2 4 ~
: 1516 12 2 ~ll
- 1530
: 1532 2 2 I
: 1536 2 5 ~
: 1540 2 4  wan
: 1544 2 5 na
: 1548 24 4  be
- 1574
: 1596 4 0 Is
: 1604 2 4  eve
: 1609 4 5 ry
: 1616 8 4 thing
- 1626
: 1636 6 9 Eve
: 1644 4 7 ry
: 1652 2 5 thi
: 1656 2 4 ~ng
: 1660 4 2  at
* 1668 19 2  once
- 1689
: 1700 4 2 Eve
: 1708 4 4 ry
: 1716 6 5 thing
: 1724 4 10  at
: 1732 20 9  once
- 1754
: 1780 4 9 Oh
: 1788 4 5  oh
: 1796 8 2  oh
- 1806
: 1828 4 2 Eve
: 1836 4 4 ry
: 1844 4 5 thing
: 1852 4 2  at
: 1860 28 1  once
- 1890
: 1920 2 2 As
: 1924 4 2  warm
: 1932 2 5  as
: 1936 2 5  the
: 1940 4 -3  sun
- 1946
: 1948 4 5 As
: 1956 2 2  sil
: 1960 2 2 ly
: 1964 3 5  as
: 1972 4 -3  fun
- 1978
: 1984 2 2 As
: 1988 5 2  cool
: 1996 2 5  as
: 2000 2 5  a
: 2004 5 -3  tree
- 2010
: 2012 2 5 As
: 2020 2 2  sca
: 2024 2 2 ry
: 2028 2 5  as
: 2032 2 5  the
: 2036 4 -3  sea
- 2042
: 2048 2 0 As
: 2052 3 0  hot
: 2060 3 4  as
* 2068 6 -5  fi
: 2076 4 4 ~re
- 2082
: 2084 3 0 Cold
: 2092 3 4  as
: 2100 4 -5  ice
- 2106
: 2116 3 0 Sweet
: 2124 3 4  as
: 2132 3 -5  su
: 2136 2 -5 gar
- 2139
: 2140 3 4 And
: 2148 2 0  eve
: 2152 2 0 ry
: 2156 3 4 thing
: 2164 4 -5  nice
- 2170
: 2176 2 4 As
: 2180 4 2  old
* 2188 3 5  as
: 2196 4 -3  time
- 2202
: 2204 2 5 As
: 2212 4 2  straight
: 2220 2 5  as
: 2224 2 5  a
: 2228 6 -3  line
- 2236
: 2240 2 5 As
: 2244 2 2  roy
: 2248 2 2 al
: 2252 2 5  as
: 2256 2 5  a
: 2260 4 -3  queen
- 2266
: 2268 3 5 As
: 2276 4 2  buzzed
: 2284 2 5  as
: 2288 2 5  a
: 2292 4 -3  bee
- 2298
: 2304 2 0 As
: 2308 4 0  stealth
: 2316 2 4  as
: 2320 2 4  a
: 2324 5 -5  ti
: 2332 2 4 ger
- 2336
: 2340 4 0 Smooth
: 2348 2 4  as
: 2352 2 4  a
: 2356 5 -5  gli
: 2364 3 4 der
- 2369
: 2372 4 0 Pure
: 2380 2 4  as
: 2384 2 4  a
: 2388 2 -5  me
: 2392 2 -5 lo
: 2396 3 4 dy
- 2401
: 2404 4 0 Pure
: 2412 2 4  as
: 2416 2 4  I
: 2420 2 -5  wan
: 2424 2 -5 na
: 2428 3 4  be
- 2433
* 2436 8 9 A
: 2448 2 7 ~
: 2452 8 5 ~
: 2464 2 4 ~
: 2468 2 5 ~
: 2472 2 4 ~
: 2476 12 2 ~ll
- 2490
: 2492 2 2 I
: 2496 2 5 ~
: 2500 2 4  wan
: 2504 2 5 na
: 2508 20 4  be
- 2530
: 2540 4 0 Oh
: 2548 4 4  oh
* 2556 4 5  oh
- 2562
: 2564 10 9 A
: 2576 2 7 ~
: 2580 8 5 ~
: 2592 2 4 ~
: 2596 2 5 ~
: 2600 2 4 ~
: 2604 12 2 ~ll
- 2618
: 2620 2 2 I
: 2624 2 5 ~
: 2628 2 4  wan
: 2632 2 5 na
: 2636 20 4  be
- 2658
: 2668 4 9 Oh
: 2676 4 4  oh
* 2684 4 5  oh
- 2690
: 2692 10 9 A
: 2704 2 7 ~
: 2708 8 5 ~
: 2720 2 4 ~
: 2724 2 5 ~
: 2728 2 4 ~
: 2732 12 2 ~ll
- 2746
: 2748 2 2 I
: 2752 2 5 ~
: 2756 2 4  wan
: 2760 2 5 na
* 2764 20 4  be
- 2786
: 2812 3 0 Is
: 2820 3 4  eve
: 2826 4 5 ry
: 2833 7 4 thing
- 2842
: 2852 4 9 Eve
: 2860 4 7 ry
: 2868 4 5 thing
: 2876 3 4  at
: 2884 5 2  once
E