#TITLE:My Heart Ain't That Broken
#ARTIST:Leslie Clio
#MP3:Leslie Clio - My Heart Ain't That Broken.mp3
#VIDEO:Leslie Clio - My Heart Ain?t That Broken.mp4
#COVER:Leslie Clio - My Heart Ain?t That Broken.jpg
#BPM:360.62
#GAP:10170
#ENCODING:UTF8
#LANGUAGE:English
#YEAR:2015
: 0 4 9 Oh
: 8 4 11  don't
: 17 4 14  be
: 24 2 18  sor
: 28 1 18 ry,
: 33 2 18  boy,
: 36 2 18  it's
: 40 5 16  ea
: 48 1 14 sy
- 51
: 54 2 18 Yes,
: 61 1 18  you
: 65 2 18  can
: 69 1 18  re
: 73 5 16 lease
: 81 1 14  me
- 85
: 89 2 18 Got
: 93 1 18 ta
: 97 2 18  lay
: 101 1 18  it
: 106 2 16  on
: 113 1 14  the
: 118 4 18  line
- 130
: 155 1 18 Fee
: 158 2 18 ling
: 162 1 18  pret
: 165 1 18 ty
: 170 4 16  fine
: 177 1 14  now
- 180
: 183 3 18 Sa
: 189 1 18 ving
: 193 1 18  all
: 197 1 18  my
: 202 4 16  time
: 209 4 14  now
- 215
: 218 3 18 Love's
: 225 4 18  no
: 234 3 16  friend
: 241 1 14  of
: 246 7 14  mine
- 260
: 277 1 9 I
: 281 2 14  do
: 286 1 14  it
: 290 1 14  on
: 294 1 14  my
: 297 4 18  own
- 303
: 305 2 16 And
: 309 2 14  I'm
: 318 2 14  rea
: 322 1 14 dy
: 325 1 14  to
: 329 3 18  go
- 334
: 336 2 14 I
: 340 1 14  just
: 345 2 18  think
: 349 1 18  of
: 354 2 18  all
: 358 1 18  that
: 362 3 16  I
: 368 2 14  could
: 375 3 18  do
- 390
: 410 2 14 No
: 414 2 14  more
: 418 2 14  need
: 421 1 14  to
: 426 3 18  fight,
: 434 5 16  right?
- 442
: 446 1 14 Say
: 450 2 14  nigh
: 454 1 14 ty
: 458 3 18  night
- 463
: 465 3 14 And
: 469 1 14  I
: 472 3 18  won't
: 479 1 18  be
: 482 3 18  hur
: 487 1 18 ting
: 491 4 16  more
: 498 1 14  than
: 504 3 16  you
: 511 4 14  do
- 518
: 522 4 11 Cause
: 530 3 14  my
: 537 9 18  heart
: 578 4 18  it
: 585 5 16  ain't
: 594 4 14  that
: 602 7 14  bro
: 614 6 11 ken
- 635
: 650 4 11 I
: 657 3 14  sur
: 665 11 18 vived
: 706 3 18  way
: 713 5 16  worse
: 722 3 14  be
: 730 9 14 fore
- 750
: 774 3 14 And
: 781 3 14  all
: 788 3 14  these
* 795 2 18  words
* 798 1 17 ~
* 800 3 18 ~
* 804 10 21 ~
* 816 10 23 ~
: 833 5 18  ain't
: 843 3 16  got
: 850 4 14  me
: 858 8 14  cho
: 870 2 11 kin'
- 885
: 906 4 11 Cause
: 914 4 14  my
: 923 9 18  heart
: 966 3 18  it
: 972 3 16  ain't
: 979 4 14  that
: 987 7 14  bro
: 998 2 11 ken
- 1010
: 1023 2 21 And
: 1027 2 18  I
: 1031 2 16  can't
: 1035 1 16  hear
: 1039 2 14  you
: 1042 2 14  I'm
: 1046 2 14  like
- 1048
: 1050 2 16 I
: 1055 3 18  won't
: 1062 2 18  be
: 1067 2 18  mis
: 1072 2 16 sing,
: 1078 1 16  be
: 1082 2 16  mis
: 1090 3 14 sing
: 1098 2 9  you
- 1105
: 1114 2 16 Na
: 1118 4 18 na
: 1126 1 18 na
: 1130 2 18 na
: 1135 2 16 na
: 1140 2 21 na
: 1145 4 18 na
- 1160
: 1177 2 16 I
: 1182 4 18  won't
: 1189 2 18  be
: 1194 2 18  mis
: 1200 2 16 sing,
: 1205 2 16  be
: 1210 4 16  mis
: 1219 2 14 sing
: 1227 2 9  you
- 1234
: 1243 3 16 Na
: 1248 3 16 na
: 1253 2 16 na
: 1258 2 16 na
: 1263 4 14 na
: 1269 2 11 na
: 1274 11 14 na
- 1295
: 1307 3 18 Love
: 1312 1 18  can
: 1315 1 18  be
: 1319 2 18  like
: 1324 2 16  ma
: 1331 2 14 gic
- 1336
: 1339 1 18 What
: 1343 1 18  we
: 1347 2 18  had
: 1351 3 18  was
: 1356 4 16  tra
: 1362 1 14 gic
- 1366
: 1371 2 18 Do
: 1375 1 18  it
: 1379 2 18  ba
: 1383 1 18 by,
: 1388 2 16  set
: 1394 1 14  me
: 1399 5 18  free
- 1422
: 1435 2 18 There's
: 1440 1 18  no
: 1444 2 18  need
: 1447 1 18  to
: 1450 4 16  won
: 1457 1 14 der
- 1461
: 1463 3 18 Help,
: 1471 3 18  help
: 1478 2 18  me
: 1484 3 16  Rhon
: 1491 2 14 da
- 1497
: 1499 2 18 Get
: 1503 2 18  your
: 1507 1 18  hook
: 1511 2 18  right
: 1515 2 18  off
: 1519 1 16 ~
: 1522 2 14  for
: 1527 3 14  me
- 1558
: 1560 2 9 I'll
: 1564 2 14  do
: 1567 1 14  it
: 1570 2 14  on
: 1575 1 14  my
: 1578 4 18  own
- 1586
: 1588 2 14 And
: 1591 2 14  I'm
: 1599 3 14  rea
: 1604 2 14 dy
: 1607 1 14  to
: 1612 4 18  go
: 1619 2 16  now
- 1626
: 1628 2 18 Cut
: 1631 2 18  off
: 1635 2 18  e
: 1639 2 18 very
: 1644 2 16  tie
: 1650 2 14  that
: 1656 6 18  binds
- 1690
: 1692 2 14 They
: 1696 1 14  no
: 1700 2 14  need
: 1703 1 14  to
: 1707 6 18  fight,
: 1716 4 16  right?
- 1726
: 1729 1 14 Say
: 1733 2 14  nigh
: 1736 1 14 ty
: 1740 4 18  night
- 1753
: 1756 3 18 Bye
: 1763 4 18  bye
: 1771 5 16  Bir
: 1779 2 14 die
: 1784 4 16  bye
: 1792 4 14  bye
- 1802
: 1804 5 11 Cause
: 1812 4 14  my
: 1820 10 18  heart
: 1861 4 18  it
: 1868 5 16  ain't
: 1877 4 14  that
: 1884 6 14  bro
: 1895 3 11 ken
- 1914
: 1931 4 11 I
: 1940 3 14  sur
: 1948 9 18 vived
: 1988 4 18  way
: 1995 5 16  worse
: 2004 4 14  be
: 2013 7 14 fore
- 2039
: 2057 2 14 And
: 2063 2 14  all
: 2069 4 14  the
: 2075 4 18  words
: 2080 1 17 ~
: 2082 2 18 ~
: 2087 8 21 ~
: 2097 14 23 ~
: 2117 4 18  ain't
: 2123 3 16  got
: 2131 5 14  me
: 2141 7 14  cho
: 2153 4 11 kin'
- 2172
: 2188 5 11 Cause
: 2197 3 14  my
: 2205 14 18  heart
: 2248 3 18  it
: 2254 3 16  ain't
: 2262 4 14  that
: 2269 8 14  bro
: 2282 6 11 ken
- 2294
: 2305 2 21 And
: 2309 1 18  I
: 2313 2 16  can't
: 2317 2 16  hear
: 2321 2 14  you
: 2325 2 14  I'm
: 2329 2 14  like
- 2330
: 2332 2 16 I
: 2337 3 18  won't
: 2344 1 18  be
: 2348 2 18  mis
: 2353 2 16 sing,
: 2358 2 16  be
: 2365 3 16  mis
: 2372 2 14 sing
: 2380 8 9  you
- 2393
: 2396 2 16 Na
: 2400 3 18 na
: 2406 2 18 na
: 2411 2 18 na
: 2417 3 16 na
: 2423 2 21 na
: 2430 8 18 na
- 2451
: 2460 2 16 I
: 2465 3 18  won't
: 2472 1 18  be
: 2476 3 18  mis
: 2482 2 16 sing,
: 2488 2 16  be
: 2493 3 16  mis
: 2500 2 14 sing
: 2507 4 9  you
- 2522
: 2525 2 14 Na
: 2531 3 16 na
: 2536 2 16 na
: 2540 3 16 na
: 2547 2 14 na
: 2551 2 11 na
: 2555 5 14 na
- 2571
: 2574 4 14 Cause
: 2581 4 14  my
: 2590 10 18  heart
: 2633 3 18  it
: 2638 4 16  ain't
: 2646 3 14  that
: 2654 5 14  bro
: 2665 4 11 ken
- 2685
: 2701 4 11 I
: 2710 3 14  sur
: 2717 10 18 vived
: 2758 5 18  way
: 2765 6 16  worse
: 2774 2 14  be
: 2781 8 14 fore
- 2813
: 2824 2 14 And
: 2829 6 14  all
: 2838 4 14  these
: 2845 4 18  words
: 2851 1 17 ~
: 2854 1 18 ~
: 2857 10 21 ~
: 2869 12 23 ~
: 2886 3 18  ain't
: 2893 3 16  got
: 2901 3 14  me
: 2910 4 14  cho
: 2923 3 11 kin'
- 2940
: 2957 5 11 Cause
: 2966 4 14  my
: 2974 14 18  heart
: 3021 6 16  ain't
: 3030 4 14  that
: 3040 7 14  bro
: 3051 2 14 ken
- 3072
: 3086 6 11 Cause
: 3095 4 14  my
: 3103 18 18  heart
: 3141 4 18  it
: 3149 4 16  ain't
: 3158 5 14  that
: 3166 7 14  bro
: 3179 3 11 ken
- 3197
: 3213 4 11 I
: 3222 3 14  sur
: 3230 11 18 vived
: 3270 4 18  way
: 3278 5 16  worse
: 3288 3 14  be
: 3295 13 14 fore
- 3325
: 3338 3 14 And
: 3344 3 14  all
: 3351 4 14  these
: 3360 3 18  words
: 3364 1 17 ~
: 3366 2 18 ~
: 3370 8 21 ~
: 3380 13 23 ~
: 3400 3 18  ain't
: 3406 3 16  got
: 3413 2 14  me
: 3416 2 16 ~
: 3423 5 14  cho
: 3435 4 11 kin'
- 3455
: 3471 4 11 Cause
: 3479 3 14  my
: 3487 14 18  heart
: 3527 3 18  it
: 3535 5 16  ain't
: 3543 4 14  that
: 3550 6 14  bro
: 3564 3 11 ken
- 3583
: 3599 5 11 Cause
: 3607 4 14  my
: 3616 15 18  heart
: 3657 3 18  it
: 3663 5 16  ain't
: 3671 4 14  that
: 3679 6 14  bro
: 3691 3 14 ken
E