#TITLE:Break Stuff
#ARTIST:Limp Bizkit
#MP3:Limp Bizkit - Break Stuff.mp3
#VIDEO:Limp Bizkit - Break Stuff.mp4
#COVER:Limp Bizkit - Break Stuff.jpg
#BPM:440
#GAP:3800
#VIDEOGAP:0.7
#ENCODING:UTF8
: 0 4 3 It's
: 5 3 3  just
* 13 2 5  one
* 16 3 3  of
* 20 5 4  those
* 28 12 4  days
: 44 3 4  when
: 48 3 4  you
: 51 6 4  don't
: 59 5 5  wan
: 64 3 4 na
: 68 6 4  wake
: 75 6 4  up
- 85
: 88 4 4 Ev
: 93 3 4 ery
: 97 5 4 thing
: 102 3 3  is
: 108 12 5  fucked
- 122
: 122 4 7 Ev
: 126 4 5 ery
: 130 4 5 bo
: 134 4 5 dy
: 146 6 5  sucks
- 156
: 159 4 8 You
: 163 8 3  don't
: 171 4 4  real
: 175 4 4 ly
: 180 6 4  know
: 187 10 5  why
- 201
: 202 2 5 But
: 206 3 6  you
: 209 4 5  wan
: 213 4 5 na
: 218 4 5  jus
: 225 4 5 ti
: 230 9 6 fy
- 243
: 249 4 6 Rip
: 253 4 6 pin'
: 260 4 4  some
: 264 4 4 one's
: 270 5 4  head
: 276 6 1  off
- 286
: 290 6 2 No
: 298 4 3  hu
: 302 4 3 man
: 310 6 2  con
: 318 10 4 tact
- 332
: 335 3 3 And
: 339 4 3  if
: 343 3 3  you
: 347 5 5  int
: 355 4 4 er
: 360 7 4 act
- 371
: 374 3 4 Your
: 378 4 4  life
: 383 2 4  is
: 386 6 4  on
: 393 5 4  con
: 400 5 4 tract
: 405 4 1 ~
- 413
: 413 4 5 Your
: 417 4 5  best
: 424 4 5  bet
: 432 3 3  is
: 436 3 3  to
: 445 7 3  stay
: 453 3 6  a
: 457 6 2 way
: 464 4 0  moth
: 469 4 0 er
: 478 6 3 fuck
: 484 5 4 er
- 492
: 492 4 4 It's
: 498 4 4  just
: 507 4 3  one
: 511 3 3  of
: 515 5 3  those
: 523 8 3  days
: 531 4 2 ~
- 540
: 550 4 7 It's
: 554 4 7  all
: 560 3 4  a
: 564 4 5 bout
: 569 3 0  the
: 572 5 3  he
: 579 6 4  says
: 589 4 3  she
: 596 7 3  says
: 608 6 3  bull
: 617 11 3 shit
- 642
: 682 1 6 I
: 684 4 6  think
: 688 4 4  you
: 692 3 7  bet
: 696 4 7 ter
: 704 8 6  quit
- 716
: 716 4 7 Let
: 720 4 7 tin'
: 727 5 6  shit
: 738 10 7  slip
- 752
: 753 3 3 Or
: 757 4 3  you'll
: 761 4 3  be
: 765 4 3  leav
: 769 3 3 in'
: 773 4 3  with
: 777 3 3  a
: 781 5 3  fat
: 789 8 4  lip
- 801
: 809 4 7 It's
: 813 4 7  all
: 817 4 4  a
: 821 4 5 bout
: 825 3 0  the
: 829 4 1  he
: 836 8 3  says
: 846 5 3  she
: 853 7 3  says
: 865 6 4  bull
: 875 10 3 shit
- 899
: 938 3 7 I
: 941 4 7  think
: 946 3 5  you
: 950 3 6  bet
: 953 4 6 ter
: 964 7 3  quit,
: 973 5 4  talk
: 978 4 4 in'
: 982 4 4  that
: 991 7 6  shit
- 1006
: 1026 3 6 It's
: 1030 5 6  just
: 1038 4 4  one
: 1042 4 4  of
: 1046 6 4  those
: 1055 12 4  days
- 1071
: 1071 3 3 Feel
: 1074 4 3 ing
: 1078 5 3  like
: 1083 4 3  a
: 1087 5 4  freight
: 1095 8 4  train
- 1107
: 1113 3 3 First
: 1118 7 4  one
: 1125 4 4  to
: 1129 4 4  com
: 1134 10 3 plain
: 1150 6 3  leaves
: 1157 3 4  with
: 1161 4 4  a
: 1166 6 6  blood
: 1175 8 3  stain
- 1187
: 1191 7 2 Damn
: 1198 7 7  right
: 1206 4 1  I'm
: 1210 3 1  a
: 1214 4 3  ma
: 1218 4 3 ni
: 1222 8 -1 ac
- 1234
: 1235 4 1 You
: 1239 3 1  bet
: 1243 3 4 ter
: 1247 6 4  watch
: 1255 2 4  your
: 1260 9 4  back, 
: 1270 4 4 cuz
: 1275 2 4  I'm
: 1279 3 4  fuck
: 1282 4 2 ing
: 1287 3 1  up
: 1290 4 1  your
: 1295 7 3  pro
: 1303 9 2 gram
- 1316
: 1318 4 10 And
: 1326 4 10  if
: 1330 4 2  you're
: 1338 8 6  stuck
: 1347 5 4  up
- 1356
: 1363 4 3 You
: 1367 3 3  just
: 1373 10 3  lucked
: 1384 7 0  up
- 1395
: 1397 4 3 Next
: 1404 4 4  in
: 1409 5 2  line
: 1414 2 2  to
: 1416 4 2  get
: 1425 6 2  fucked
: 1432 5 2  up
- 1441
: 1444 4 5 You're
: 1449 2 8  best
: 1456 6 4  bet
: 1463 2 3  is
: 1466 3 2  to
: 1474 6 3  stay
: 1480 4 6  a
: 1484 7 2 way
: 1493 3 -1  moth
: 1497 3 -2 er
: 1506 5 4 fuck
: 1512 6 6 er
- 1522
: 1523 3 6 It's
: 1528 3 4  just
* 1536 3 3  one
* 1540 3 3  of
* 1544 5 3  those
* 1552 4 3  days
* 1557 6 2 ~
- 1568
: 1580 4 2 It's
: 1584 4 2  all
: 1589 2 2  a
: 1592 4 7 bout
: 1597 2 4  the
: 1600 4 4  he
: 1608 5 4  says
: 1616 4 3  she
: 1624 6 4  says
: 1632 8 4  bull
: 1645 5 3  shit
- 1665
: 1709 2 5 I
: 1712 3 6  think
: 1717 2 4  you
: 1720 3 4  bet
: 1724 3 3 ter
: 1730 7 7  quit
: 1738 3 3 ~
- 1745
: 1746 4 6 Let
: 1750 2 6 tin'
: 1756 4 6  shit
: 1766 9 7  slip
- 1779
: 1781 4 1 Or
: 1785 4 2  you'll
: 1789 4 3  be
: 1793 5 4  leav
: 1798 3 4 in'
: 1803 4 3  with
: 1807 2 3  a
: 1809 7 3  fat
: 1817 9 4  lip
- 1830
: 1837 4 7 It's
: 1841 4 7  all
: 1845 3 4  a
: 1850 6 5 bout
: 1856 4 2  the
: 1860 4 6  he
: 1866 6 3  says
: 1875 4 3  she
: 1883 6 3  says
: 1892 7 4  bull
: 1904 5 4  shit
- 1923
: 1968 4 3 I
: 1973 3 7  think
: 1976 4 7  you
: 1980 4 7  bet
: 1984 4 7 ter
: 1992 7 7  quit
- 2003
: 2003 5 5 Talk
: 2009 3 4 in
: 2015 3 4  that
: 2022 8 6  shit,
: 2032 12 4  punk!
: 2056 4 4  so
: 2061 4 4  come
: 2065 3 4  and
: 2068 4 4  get
: 2073 4 4  it
- 2091
: 2124 7 10 I
: 2137 6 9  feel
: 2145 4 9  like
: 2162 12 9  shit
- 2188
: 2204 4 -4 My
: 2212 3 -3  sug
: 2217 5 -2 gest
: 2229 7 -1 ion
- 2241
: 2246 3 -10 Is
: 2252 2 -10  to
: 2255 5 -7  keep
: 2265 2 -7  your
: 2270 5 -4  dis
: 2280 4 -8 tance
- 2288
: 2294 3 -9  Cuz
: 2298 6 3  right
: 2305 7 1  now
: 2313 7 1  I'm
: 2321 4 1  dan
: 2329 3 -2 ger
: 2334 5 -2 ous
- 2347
: 2364 6 5 We've
: 2372 10 6  all
: 2385 5 4  felt
: 2393 6 4  like
: 2406 9 0  shit
- 2419
: 2426 4 0 And
: 2430 4 4  been
: 2439 2 4  treat
: 2443 2 4 ed
: 2447 4 0  like
: 2456 10 0  shit
- 2474
: 2488 6 3 All
: 2496 5 0  those
: 2504 6 0  moth
: 2511 3 0 er
: 2523 5 -4 fuck
: 2529 5 -4 ers,
: 2544 4 0  that
: 2548 3 0  want
: 2552 2 0  to
: 2557 3 0  step
: 2560 5 0  up
- 2574
: 2591 4 2 I
: 2595 4 2  hope
: 2600 3 4  you
: 2606 3 2  know
: 2610 2 1  I
: 2615 2 9  pack
: 2618 2 8  a 
: 2624 5 -1 chain
: 2635 9 9 saw
- 2659
: 2676 3 0 I'll
: 2681 2 0  skin
: 2684 3 0  your
: 2690 7 0  ass
: 2701 7 0  raw
- 2722
: 2744 4 12 And
: 2748 4 11  if
: 2752 3 10  my
: 2756 6 11  day
: 2763 6 10  keeps
: 2772 4 10  go
: 2776 4 10 ing
: 2782 2 10  this
: 2788 4 10  way
: 2793 3 11  I
: 2797 3 10  just
: 2805 7 11  might
- 2816
: 2822 5 12 Break
: 2832 5 9  some
: 2839 5 9  thing
: 2844 2 9  to
: 2849 6 9 night
- 2862
: 2877 2 1  I
: 2880 3 11  pack
: 2884 2 5  a 
: 2891 4 0 chain
: 2900 5 1 saw
- 2915
: 2939 2 0 I'll
: 2943 6 0  skin
: 2950 2 0  your
: 2953 8 2  ass
: 2964 6 1  raw
- 2986
: 3006 3 12 And
: 3010 3 1  if
: 3014 4 0  my
: 3019 6 1  day
: 3026 5 0  keeps
: 3033 4 0  go
: 3038 4 0 ing
: 3044 2 0  this
: 3048 4 0  way
: 3052 4 1  I
: 3057 3 0  just
: 3064 10 1  might
- 3078
: 3082 7 0 Break
: 3091 7 0  some
: 3098 9 0  thing
: 3107 3 0  to
: 3110 9 0 night
- 3123
: 3132 3 4  I
: 3137 3 5  pack
: 3143 3 5  a 
: 3147 7 4 chain
: 3159 9 4 saw
- 3182
: 3201 2 5 I'll
: 3204 3 4  skin
: 3208 3 5  your
: 3212 6 4  ass
: 3223 5 7  raw
- 3246
: 3264 3 12 And
: 3268 3 6  if
: 3272 3 5  my
: 3276 6 6  day
: 3284 5 5  keeps
: 3292 4 5  go
: 3296 4 5 ing
: 3300 2 5  this
: 3305 5 6  way
: 3312 3 6  I
: 3316 2 5  just
: 3321 10 6  might
- 3335
: 3338 8 5 Break
: 3349 5 5  your
: 3358 6 5  fuck
: 3366 4 5 in'
: 3376 5 5  face
: 3383 3 4  to
: 3387 10 4 night
- 3401
: 3409 7 4 Give
: 3419 4 4  me
: 3425 4 4  some
: 3429 4 3 thing
: 3435 2 3  to
: 3441 6 3  break
- 3465
: 3549 6 4 Give
: 3556 4 5  me
: 3566 3 5  some
: 3570 4 3 thing
: 3577 2 3  to
: 3584 7 3  break
- 3606
: 3675 5 4 Just
: 3682 7 4  give
: 3691 6 4  me
: 3702 4 4  some
: 3706 2 3 thing
: 3711 3 3  to
: 3717 9 3  break
- 3740
: 3817 5 4 How
: 3823 6 5  'bout
: 3831 5 5  your
: 3843 4 3  fuck
: 3848 4 3  in'
: 3856 6 3  face
- 3878
: 3930 5 6 I
: 3935 4 6  hope
: 3939 4 4  you
: 3943 4 5  know
: 3947 4 4  I
: 3952 4 5  pack
: 3956 3 5  a 
: 3960 10 4 chain
: 3975 9 4 saw,
: 3986 11 4  what!
- 4011
: 4024 4 4 A
: 4030 6 5  chain
: 4043 6 5 saw,
: 4056 9 4  what!
- 4069
: 4076 4 4 A
: 4080 4 5  moth
: 4084 4 4 er
: 4089 3 5 fuck
: 4092 3 5 ing
* 4100 9 5  chain
* 4113 12 5 saw,
: 4127 10 4  what!
- 4151
: 4205 3 3 So
: 4208 4 4  come
: 4212 4 2  and
: 4217 6 2  get
: 4224 4 10  it
- 4234
: 4246 3 7 It's
: 4250 4 7  all
: 4255 2 4  a
: 4258 4 5 bout
: 4263 3 0  the
: 4267 5 3  he
: 4276 5 3  says
: 4286 4 3  she
: 4293 5 3  says
: 4300 8 4  bull
: 4314 8 3 shit
- 4336
: 4376 4 5 I
: 4380 4 5  think
: 4384 4 6  you
: 4388 4 7  bet
: 4392 4 7 ter
: 4399 7 6  quit
- 4410
: 4413 4 7 Let
: 4417 2 7 tin
: 4422 3 6  shit
: 4434 9 7  slip
- 4447
: 4450 3 3 Or
: 4453 4 3  you'll
: 4457 4 3  be
* 4461 4 3  leav
* 4465 4 3 in
* 4469 4 3  with
* 4473 3 3  a
* 4476 8 3  fat
* 4485 9 4  lip
- 4498
: 4505 3 7 It's
: 4509 4 7  all
: 4514 3 4  a
: 4517 4 5 bout
: 4521 4 3  the
: 4526 6 3  he
: 4533 7 3  says
: 4543 5 3  she
: 4549 6 3  says
: 4559 7 3  bull
: 4573 5 4 shit
- 4592
: 4636 2 3 I
: 4639 3 6  think
: 4643 3 5  you
: 4647 4 3  bet
: 4651 3 3 ter
: 4658 8 7  quit
- 4670
: 4671 4 5 Talk
: 4675 4 3 in
: 4679 5 4  that
: 4689 8 6  shit,
: 4699 12 4  punk!
- 4715
: 4725 3 6 So
: 4730 2 1  come
: 4733 2 0  and
: 4737 4 4  get
: 4743 2 10  it
E