#TITLE:In The End
#ARTIST:Linkin Park
#MP3:Linkin Park - In The End.mp3
#COVER:Linkin Park - In The End [CO].jpg
#BACKGROUND:Linkin Park - In The End [BG].jpg
#BPM:210,1
#GAP:17680
#ENCODING:UTF8
#LANGUAGE:English
#EDITION:[SC]-Songs
#YEAR:2001
: 0 2 10 It
: 5 5 10  starts
: 13 5 11  with
- 19
: 20 2 10 one
: 24 3 10  thing
: 34 1 10  I
: 36 2 10  don't
: 40 3 10  know
: 44 3 10  why
- 48
: 50 1 10 It
: 52 1 10  does
: 54 1 10 n't
: 56 1 10  e
: 58 1 10 ven
: 60 1 10  ma
: 62 1 10 tter
: 64 3 10  how
: 68 3 10  hard
: 72 1 10  you
: 74 4 10  try
- 80
: 82 3 10 keep
: 87 2 10  that
: 90 1 10  in
: 92 3 10  mind
- 96
: 96 1 10 I
: 98 1 10  de
: 100 3 10 signed
: 104 1 10  this
: 107 2 10  rhyme
- 110
: 110 1 10 To
: 112 1 10  ex
: 115 2 10 plain
: 118 1 10  in
: 120 3 10  due
: 124 3 10  time
- 129
: 132 5 10 All
: 140 6 11  I
: 148 7 10  know
- 156
: 156 2 10 Time
: 160 1 10  is
: 162 1 10  a
: 164 1 10  va
: 166 1 10 lua
: 168 1 10 ble
: 171 2 10  thing
- 175
: 178 2 10 Watch
: 182 1 10  it
: 184 3 10  fly
: 188 3 10  by
: 192 1 10  as
: 194 1 10  the
: 196 1 10  pen
: 198 1 10 du
: 200 1 10 lum
: 203 3 10  swings
- 208
: 210 3 10 Watch
: 214 1 10  it
: 216 2 10  count
: 220 3 10  down
: 224 1 10  to
: 226 1 10  the
: 228 1 10  end
: 230 1 10  of
: 232 1 10  the
: 234 3 10  day
- 238
: 238 1 10 The
: 240 2 10  clock
: 244 2 10  ticks
: 248 2 10  li
: 252 2 10 fe
: 255 1 10  away
- 256
: 256 2 8 It's
: 260 6 10  so
: 268 6 11  un
: 276 6 10 real
- 283
: 284 1 10 did
: 286 1 10 n't
: 288 2 10  look
: 292 2 10  out
: 296 1 10  be
: 298 4 10 low
- 304
: 306 2 10 Watch
: 310 1 10  the
: 312 2 10  time
: 316 3 10  go
: 320 1 10  right
: 323 2 10  out
: 326 1 10  the
: 328 3 10  win
: 332 2 10 dow
- 336
: 338 3 10 Trying
: 342 1 10  to
: 344 3 10  hold
: 348 2 10  on,
: 354 1 10  but
: 356 1 10  did
: 358 1 10 n't
: 360 1 10  e
: 362 1 10 ven
: 364 3 10  know
- 368
: 370 2 10 Was
: 374 1 10 ted
: 378 1 10  it
: 380 3 10  all
: 384 1 10  just
: 386 1 10  to
- 388
: 388 6 13 Watch
: 396 6 15  you
: 404 6 17  go...
- 410
: 410 1 10 I
: 412 2 10  kept
: 416 1 10  e
: 418 1 10 very
: 420 2 10 thing
: 423 2 10  in
: 426 3 10 side
- 430
: 430 1 10 and
: 432 1 10  e
: 434 1 10 ven
: 436 2 10  though
: 440 1 10  I
: 443 3 10  tried,
: 450 1 10  it
: 452 2 10  all
: 456 1 10  fell
: 458 1 10  a
: 460 3 10 part
- 465
: 468 1 10 What
: 470 1 10  it
: 472 1 10  meant
: 474 1 10  to
: 476 3 10  me
- 480
: 480 1 10 will
: 482 1 10  e
: 484 1 10 ven
: 486 1 10 tual
: 488 2 10 ly
: 492 2 10  be
- 494
: 494 1 10 a
: 496 1 10  me
: 498 1 10 mory
: 500 2 10  of
: 504 1 10  a
: 506 1 10  time
: 508 3 10  when
- 512
: 512 2 10 I
: 517 5 13  tried
: 525 5 15  so
: 533 6 17  hard
- 541
: 544 3 17 And
: 549 3 17  got
: 555 4 13  so
: 562 18 13  far
- 581
: 583 1 13 But
: 585 2 13  in
: 589 3 15  the
* 593 11 17  end
- 606
: 608 2 15 It
: 612 1 17  does
: 614 1 15 n't
: 616 3 17  e
: 620 2 18 ven
: 624 3 17  ma
: 628 3 15 ~t
: 632 5 15 ter
- 638
: 640 3 10 I
: 644 6 13  had
: 652 5 15  to
: 660 6 17  fall
- 668
: 672 3 17 To
: 676 4 17  lose
: 682 4 13  it
: 688 16 13  all
- 706
: 711 1 13 But
: 713 2 13  in
: 717 3 15  the
: 721 9 17  end
- 732
: 736 3 15 It
: 740 1 17  does
: 742 1 15 n't
: 744 3 17  e
: 748 2 15 ven
- 751
* 752 6 18 mat
: 760 3 17 te
: 764 3 15 ~
: 768 6 13 ~
: 776 1 15 ~
: 778 1 13 ~
: 780 6 10 ~er
- 787
: 788 3 10 One
: 792 3 10  thing,
: 802 1 10  I
: 804 3 10  don't
: 808 2 10  know
: 812 4 10  why
- 817
: 818 1 10 It
: 820 1 10  does
: 822 1 10 n't
: 824 1 10  e
: 826 1 10 ven
: 828 1 10  mat
: 830 1 10 ter
: 832 2 10  how
: 836 3 10  hard
: 840 1 10  you
: 842 4 10  try,
- 848
: 850 3 10 keep
: 854 2 10  that
: 858 1 10  in
: 860 3 10  mind
- 864
: 864 1 10 I
: 866 1 10  de
: 868 2 10 signed
: 872 1 10  this
: 874 2 10  rhyme,
: 878 1 10  to
: 880 1 10  re
: 882 3 10 mind
: 886 1 10  my
: 888 3 10 self
: 892 3 10  how
- 896
: 896 2 8 I
: 900 5 10  tried
: 908 6 11  so
: 916 5 10  hard
- 922
: 922 1 10 In
: 924 1 10  spite
: 926 1 10  of
: 928 1 10  the
: 930 2 10  way
: 934 1 10  you
: 936 1 10  were
: 938 2 10  mo
: 942 1 10 cking
: 944 3 10  me
- 949
: 952 1 10 Ac
: 954 1 10  ting
: 956 2 10 like
: 960 1 10  I
: 962 1 10  was
: 964 1 10  part
: 966 1 10  of
: 968 1 10  your
: 970 3 10  pro
: 974 1 10 per
: 976 3 10 ty
- 980
: 982 1 10 Re
: 984 1 10 mem
: 986 1 10 be
: 988 2 10 ring
- 991
: 992 1 10 all
: 994 1 10  the
: 996 2 10  times
: 1000 1 10  you
: 1003 2 10  fought
: 1006 1 10  with
: 1008 3 10  me
- 1013
: 1015 2 10 I'm
: 1018 1 10  sur
: 1020 3 10 prised
- 1024
: 1024 3 8 It
: 1028 6 10  got
: 1036 6 11  so...
- 1043
: 1044 4 10 Things
: 1052 4 10  aren't
: 1058 2 10  the
: 1060 2 10  way
: 1064 2 10  they
: 1066 4 10  were
: 1070 2 10  be
: 1072 3 10 fore
- 1077
: 1082 1 10 You
: 1084 1 10  would
: 1086 1 10 n't
: 1088 1 10  e
: 1090 1 10 ven
: 1092 1 10  re
: 1094 1 10 cog
: 1096 1 10 ni
: 1098 1 10 ze
: 1100 1 10  me
: 1102 1 10  any
: 1104 4 10 more
- 1110
: 1112 2 10 Not
: 1116 2 10  that
: 1120 1 10  you
: 1122 3 10  knew
: 1126 1 10  me
: 1128 3 10  back
: 1132 3 10  then
- 1136
: 1136 1 10 But
: 1138 1 10  it
: 1140 3 10  all
: 1144 2 10  comes
: 1148 2 10  back
: 1152 1 10  to
: 1154 2 10  me
- 1156
: 1156 5 13 In
: 1164 6 15  the
: 1172 5 17  end
- 1178
: 1178 1 10 You
: 1180 2 10  kept
: 1184 1 10  e
: 1186 1 10 very
: 1189 2 10 thing
: 1192 1 10  in
: 1194 3 10 side
- 1198
: 1198 1 10 and
: 1200 1 10  e
: 1202 1 10 ven
: 1204 2 10  though
: 1208 1 10  I
: 1210 4 10  tried,
- 1216
: 1218 1 10 it
: 1220 2 10  all
: 1224 1 10  fell
: 1226 1 10  a
: 1228 4 10 part
- 1234
: 1236 1 10 What
: 1238 1 10  it
: 1240 1 10  meant
: 1242 1 10  to
: 1244 3 10  me
- 1248
: 1248 1 10 will
: 1250 1 10  e
: 1252 1 10 ven
: 1254 1 10 tual
: 1256 3 10 ly
- 1260
: 1260 1 10 be
: 1262 1 10  a
: 1264 1 10  me
: 1266 1 10 mo
: 1268 2 10 ry
: 1272 1 10  of
: 1274 1 10  a
: 1276 3 10  time
: 1280 1 10  when
- 1282
: 1282 2 10 I
: 1285 5 13  tried
: 1293 5 15  so
: 1300 7 17  hard
- 1309
: 1312 2 17 And
: 1316 4 17  got
: 1323 3 13  so
: 1329 17 13  far
- 1348
: 1351 1 10 But
: 1353 2 13  in
: 1356 3 15  the
: 1360 10 17  end
- 1372
: 1376 2 15 It
: 1380 1 17  does
: 1382 1 15 n't
: 1384 3 17  e
: 1388 2 18 ven
: 1392 3 17  ma
: 1396 3 15 ~t
: 1400 5 15 ter
- 1406
: 1408 3 10 I
: 1412 6 13  had
: 1420 6 15  to
: 1428 7 17  fall
- 1437
: 1440 3 17 To
: 1444 5 17  lose
: 1450 4 13  it
: 1456 17 13  all
- 1475
: 1479 1 13 But
: 1481 2 13  in
: 1485 2 15  the
: 1489 10 17  end
- 1501
: 1504 3 15 It
: 1508 1 17  does
: 1510 1 15 n't
: 1512 2 17  e
: 1516 3 15 ven
- 1520
: 1520 7 18 mat
: 1528 3 17 te
: 1532 3 15 ~
: 1536 6 13 ~
: 1544 1 15 ~
: 1546 1 13 ~
: 1548 10 10 ~r
- 1560
: 1568 2 10 I've
: 1572 2 13  put
: 1576 5 13  my
* 1584 8 13  trust
: 1604 10 6  in
: 1616 6 8  you
: 1624 4 10 ~
- 1630
: 1637 2 8 Pushed
: 1641 5 13  as
: 1649 3 13  fa
: 1653 3 6 ~r
: 1658 4 6  as
: 1666 5 6  I
: 1674 4 10  can
: 1682 8 8  go
- 1692
: 1701 3 13 For
: 1705 6 13  all
: 1713 7 13  this
- 1722
: 1729 2 6 there's
: 1733 3 6  on
: 1737 5 6 ly
: 1745 5 10  one
: 1753 5 8  thing
- 1759
: 1761 5 6 you
: 1769 6 10  should
* 1777 29 8  kno
: 1808 1 10 ~
: 1810 1 8 ~
: 1812 6 6 ~w
- 1820
: 1825 2 10 I've
: 1829 3 18  put
: 1833 5 18  my
: 1841 10 18  trust
: 1861 8 15  in
: 1873 11 17  you
- 1886
: 1893 2 18 Pushed
: 1897 4 18  as
: 1905 3 18  fa
: 1909 2 15 ~r
: 1913 5 15  as
: 1921 6 15  I
: 1929 6 18  can
: 1937 10 17  go
- 1949
: 1957 2 18 For
: 1961 6 18  all
: 1969 7 18  this
- 1978
: 1985 2 15 There's
: 1989 3 15  on
: 1993 5 15 ly
: 2001 6 18  one
: 2009 5 17  thing
- 2015
: 2017 5 15 you
: 2025 6 18  should
: 2033 30 17  kno
: 2064 1 18 ~
: 2066 1 17 ~
: 2068 6 15 ~w
- 2076
: 2081 2 10 I
: 2085 5 13  tried
: 2093 6 15  so
* 2101 7 17  hard
- 2110
: 2113 2 17 And
: 2117 3 17  got
: 2123 3 13  so
* 2129 18 13  far.
- 2149
: 2151 1 13 But
: 2153 2 13  in
: 2157 3 15  the
: 2161 11 17  end
- 2174
: 2176 2 15 It
: 2180 1 17  does
: 2182 1 15 n't
: 2184 3 17  e
: 2188 2 18 ven
: 2192 3 17  ma
: 2196 3 15 ~t
: 2200 4 15 ter
- 2206
: 2208 2 10 I
: 2212 5 13  had
: 2221 5 15  to
: 2228 7 17  fall
- 2237
: 2241 2 17 To
: 2245 4 17  lose
: 2251 4 13  it
: 2257 15 13  all
- 2274
: 2279 1 10 But
: 2281 2 13  in
: 2285 3 15  the
: 2289 8 17  end
- 2299
: 2304 2 15 It
: 2308 1 17  does
: 2310 1 15 n't
: 2312 3 17  e
: 2316 2 15 ven
- 2319
: 2320 6 18 mat
: 2328 3 17 te
: 2332 3 15 ~
: 2336 6 13 ~
* 2344 1 15 ~
: 2346 1 13 ~
: 2348 13 10 ~r
E