#TITLE:In My Remains
#ARTIST:Linkin Park
#MP3:In my remains.mp3
#VIDEO:In my remains.mp4
#COVER:In my remains.jpg
#BPM:202
#GAP:33380
#ENCODING:UTF8
#LANGUAGE:English
#GENRE:Rock
#YEAR:2011
: 0 10 16 Se
: 12 2 12 pa
: 16 6 12 rate
- 24
: 32 2 12 Sift
: 36 2 12 ing
: 40 2 12  through
: 44 1 14  the
: 46 5 12  wreck
: 52 2 11 age
- 55
: 56 2 9 I
: 60 2 12  can't
: 64 8 16  con
: 76 2 11 cen
: 80 8 11 trate
- 90
: 96 2 12 Search
: 100 2 12 ing
: 104 2 12  for
: 108 1 14  the
: 110 4 12  mes
: 116 2 11 sage
- 119
: 120 2 9 In
: 124 2 11  the
* 128 8 16  fear
: 140 2 17  and
: 144 8 16  pain
- 154
: 160 3 16 Bro
: 164 2 14 ken
: 168 2 14  down
: 172 1 12  and
: 174 4 12  wait
: 180 2 11 ing
: 184 2 12  for
: 188 2 14  the
: 192 7 16  chance
- 201
: 204 2 17 To
: 208 3 16  feel
: 212 2 14 ~
: 216 3 14  a
: 220 2 16 ~
: 224 8 16 live
- 234
: 240 6 9 Now
: 248 3 11  in
: 252 2 9 ~
* 256 19 9  my
: 276 2 7 ~
: 280 3 7  re
: 284 2 4 ~
: 288 18 4 mains
- 308
: 316 2 7 Our
: 320 3 7  pro
: 324 3 5 mis
: 328 2 4 es
: 332 1 5  they
: 334 6 4  ne
: 344 3 4 ver
: 348 2 2 ~
: 352 8 2  came
- 362
: 368 5 9 Set
: 376 5 11  this
: 384 19 9  si
: 404 2 7 ~
: 408 3 7 lence
: 412 2 4 ~
: 416 16 4  free
- 434
: 444 2 7 To
: 448 2 7  wash
: 452 2 5  a
: 456 2 4 way
: 460 1 5  the
: 462 7 4  worst
: 472 3 4  of
: 476 2 2 ~
: 480 20 2  me
- 502
* 512 10 16 Come
: 524 2 12  a
: 528 8 12 part
- 538
: 544 3 12 Fall
: 548 2 12 ing
: 552 2 12  in
: 556 1 14  the
: 558 4 12  cracks
- 563
: 564 2 11 Of
: 568 2 9  e
: 572 2 12 very
: 576 10 16  bro
: 588 2 11 ken
: 592 8 11  heart
- 602
: 608 3 12 Digg
: 612 2 12 ing
: 616 2 12  through
: 620 1 14  the
: 622 4 12  wreck
: 628 2 11 age
- 631
: 632 2 9 Of
: 636 2 12  your
: 640 9 16  dis
: 652 2 17 re
: 656 10 16 gard
- 668
: 672 3 16 Sink
: 676 2 14 ing
: 680 2 14  down
: 684 1 12  and
: 686 4 12  wait
: 692 2 11 ing
: 696 2 12  for
: 700 2 14  the
* 704 7 16  chance
- 713
: 716 2 17 To
: 720 3 16  feel
: 724 2 14 ~
: 728 3 14  a
: 732 2 16 ~
: 736 8 16 live
- 746
: 752 6 9 Now
: 760 3 11  in
: 764 2 9 ~
: 768 19 9  my
: 788 2 7 ~
: 792 3 7  re
: 796 2 4 ~
: 800 18 4 mains
- 820
: 828 2 7 Our
: 832 3 7  pro
: 836 3 5 mis
: 840 2 4 es
: 844 1 5  they
: 846 6 4  ne
: 856 3 4 ver
: 860 2 2 ~
: 864 8 2  came
- 874
: 880 5 9 Set
* 888 5 11  this
: 896 19 9  si
: 916 2 7 ~
: 920 3 7 lence
: 924 2 4 ~
: 928 16 4  free
- 946
: 956 2 7 To
: 960 2 7  wash
: 964 2 5  a
: 968 2 4 way
: 972 1 5  the
: 974 7 4  worst
: 984 3 4  of
: 988 2 2 ~
: 992 32 2  me
- 1026
: 1136 5 2 Like
: 1144 5 4  an
* 1152 11 5  ar
: 1164 2 4 ~
: 1168 8 2 my
- 1178
: 1184 11 4 Fall
: 1196 2 2 ~
: 1200 6 0 ing
- 1208
: 1216 6 2 One
: 1224 6 4  by
: 1232 6 2  one
: 1240 3 0  by
: 1244 2 2 ~
: 1248 10 2  one
- 1260
: 1264 6 2 Like
: 1272 6 4  an
: 1280 11 5  ar
: 1292 2 4 ~
: 1296 8 2 my
- 1306
: 1312 11 4 Fall
: 1324 2 2 ~
: 1328 6 0 ing
- 1336
: 1344 6 2 One
: 1352 6 4  by
: 1360 6 2  one
: 1368 3 0  by
: 1372 2 2 ~
* 1376 10 2  one
- 1388
: 1392 6 2 Like
: 1400 6 4  an
: 1408 11 5  ar
: 1420 2 4 ~
: 1424 8 2 my
- 1434
: 1440 11 4 Fall
: 1452 2 2 ~
: 1456 6 0 ing
- 1464
: 1472 6 2 One
: 1480 6 4  by
: 1488 6 2  one
: 1496 3 0  by
: 1500 2 2 ~
: 1504 10 2  one
- 1516
: 1520 6 2 Like
: 1528 6 4  an
: 1536 11 5  ar
: 1548 2 4 ~
: 1552 8 2 my
- 1562
* 1568 11 4 Fall
: 1580 2 2 ~
: 1584 6 0 ing
- 1592
: 1600 6 2 One
: 1608 6 4  by
: 1616 6 2  one
: 1624 3 0  by
: 1628 2 2 ~
: 1632 9 2  one
- 1643
: 1648 6 9 Now
: 1656 3 11  in
: 1660 2 9 ~
: 1664 19 9  my
: 1684 2 7 ~
: 1688 3 7  re
: 1692 2 4 ~
: 1696 18 4 mains
- 1716
: 1724 2 7 Our
: 1728 3 7  pro
: 1732 3 5 mis
: 1736 2 4 es
: 1740 1 5  they
: 1742 6 4  ne
: 1752 3 4 ver
: 1756 2 2 ~
: 1760 8 2  came
- 1770
: 1776 5 9 Set
: 1784 5 11  this
* 1792 19 9  si
: 1812 2 7 ~
: 1816 3 7 lence
: 1820 2 4 ~
: 1824 16 4  free
- 1842
: 1852 2 7 To
: 1856 2 7  wash
: 1860 2 5  a
: 1864 2 4 way
: 1868 1 5  the
: 1870 7 4  worst
: 1880 3 4  of
: 1884 2 2 ~
: 1888 12 2  me
- 1902
: 1904 5 2 Like
: 1912 5 4  an
: 1920 11 5  ar
: 1932 2 4 ~
: 1936 8 2 my
- 1946
: 1953 11 4 Fall
: 1965 2 2 ~
: 1969 6 0 ing
- 1977
: 1986 6 2 One
* 1994 6 4  by
: 2003 6 2  one
: 2011 3 0  by
: 2015 2 2 ~
: 2019 10 2  one
- 2031
: 2036 6 2 Like
: 2044 6 4  an
: 2052 11 5  ar
: 2064 2 4 ~
: 2069 7 2 my
- 2078
: 2086 10 4 Fall
: 2097 2 2 ~
: 2101 6 0 ing
- 2109
: 2118 6 2 One
: 2126 6 4  by
: 2135 6 2  one
: 2143 3 0  by
: 2147 2 2 ~
: 2152 13 2  one
E