#TITLE:Breaking The Habit
#ARTIST:Linkin Park
#MP3:Linkin Park - Breaking The Habit.mp3
#VIDEO:Linkin Park - Breaking The Habit [VD#0].mpg
#COVER:Linkin Park - Breaking The Habit [CO].jpg
#BPM:100,06
#GAP:20000
#VIDEOGAP:0
#ENCODING:UTF8
: 0 4 71  Me -
: 4 4 67  mories
: 8 4 69  con -
: 12 6 64  sume
- 18
: 18 2 62  like
: 20 2 67  o -
: 22 1 67  pe -
: 23 3 67  ning
: 26 1 66  the
: 27 7 64  wound
- 34
: 34 2 62  I'm
: 36 2 67  pick -
: 38 1 67  ing
: 39 3 67  me
: 42 2 66  a -
: 44 2 67  part
: 46 1 66  a -
: 47 12 64  gain
- 60
: 64 4 71  You
: 68 4 67  all
: 72 4 69  as -
: 76 6 64  sume
- 82
: 82 2 62  I'm
: 84 2 67  safe
: 86 1 67  here
: 87 3 67  in
: 90 1 66  my
: 91 7 64  room
- 98
: 98 2 62  un -
: 100 2 67  less
: 102 1 67  I
: 103 3 67  try
: 106 2 66  to
: 108 2 67  start
: 110 1 69  a -
: 111 12 71  gain
- 123
: 124 2 74  I
: 126 1 74  don't
: 127 3 74  want
: 130 2 72  to
: 132 1 71  be
: 133 2 67  the
: 135 4 67  one
- 139
: 139 1 67  the
: 140 1 74  bat -
: 141 2 74  tles
: 143 2 74  al -
: 145 2 72  ways
: 147 6 71  choos
- 153
: 154 2 67  cause
: 156 3 74  in -
: 159 3 74  side
: 162 2 72  I
: 164 1 71  re -
: 165 2 67  a -
: 167 4 67  lize
- 171
: 171 1 67  that
: 172 2 74  I'm
: 174 1 74  the
: 175 3 74  one
: 178 2 72  con -
: 180 6 71  fused
- 186
: 186 2 71  I
: 188 2 79  don't
: 190 1 79  know
- 191
: 191 2 78  what's
: 193 3 76  worth
: 196 1 74  fight -
: 197 2 76  ing
: 199 4 76  for
- 203
: 203 1 71  or
: 204 2 79  why
: 206 1 79  I
: 207 2 78  have
: 209 2 76  to
: 211 6 78  scream
- 217
: 218 2 71  I
: 220 2 79  don't
: 222 1 79  know
: 223 2 78  why
- 225
: 225 3 76  I'm
: 228 1 74  in -
: 229 2 76  sti -
: 231 4 76  gate
- 235
: 235 1 71  and
: 236 2 79  say
: 238 1 79  what
: 239 2 78  I
: 241 2 76  don't
: 243 6 78  mean
- 249
: 250 2 71  I
: 252 2 79  don't
: 254 1 79  know
: 255 2 78  how
: 257 3 76  I
: 260 1 74  got
: 261 2 76  this
: 263 4 76  way
- 267
: 267 1 71  I
: 268 2 79  know
: 270 1 79  it's
: 271 2 78  not
: 273 2 76  al -
: 275 4 78  right
- 279
: 280 2 71  so
: 282 2 71  I'm
: 284 8 79  break -
: 292 4 78  ing
: 296 4 76  the
: 300 8 79  ha -
: 308 6 78  bit
- 314
: 314 2 71  I'm
: 316 8 79  brea -
: 324 4 78  king
: 328 4 76  the
: 332 8 79  ha -
: 340 6 78  bit
: 346 1 76  to -
: 347 3 76  night
- 380
: 384 4 71  Clutch -
: 388 4 67  ing
: 392 4 69  my
: 396 6 64  cure
- 402
: 402 2 62  I
: 404 2 67  tight -
: 406 1 67  ly
: 407 3 67  lock
: 410 1 66  the
: 411 7 64  door
- 418
: 418 2 62  I
: 420 2 67  try
: 422 1 67  to
: 423 3 67  catch
: 426 2 66  my
: 428 2 67  breath
: 430 1 66  a -
: 431 12 64  gain
- 444
: 448 4 71  I
: 452 4 67  hurt
: 456 4 69  much
: 460 6 64  more
- 466
: 466 2 62  than
: 468 2 67  a -
: 470 1 67  ny -
: 471 3 67  time
: 474 1 66  be -
: 475 7 64  fore
- 482
: 482 2 62  I
: 484 2 67  have
: 486 1 67  no
: 487 3 67  op -
: 490 2 66  tions
: 492 2 67  left
: 494 1 69  a -
: 495 12 71  gain
- 507
: 508 2 74  I
: 510 1 74  don't
: 511 3 74  want
: 514 2 72  to
: 516 1 71  be
: 517 2 67  the
: 519 4 67  one
- 523
: 523 1 67  the
: 524 1 74  bat -
: 525 2 74  tles
: 527 2 74  al -
: 529 2 72  ways
: 531 6 71  choose
- 537
: 538 2 67  cause
: 540 3 74  in -
: 543 3 74  side
: 546 2 72  I
: 548 1 71  re -
: 549 2 67  a -
: 551 4 67  lize
- 555
: 555 1 67  that
: 556 2 74  I'm
: 558 1 74  the
: 559 3 74  one
: 562 2 72  con -
: 564 6 71  fused
- 570
: 570 2 71  I
: 572 2 79  don't
: 574 1 79  know
- 575
: 575 2 78  what's
: 577 3 76  worth
: 580 1 74  fight -
: 581 2 76  ing
: 583 4 76  for
- 587
: 587 1 71  or
: 588 2 79  why
: 590 1 79  I
: 591 2 78  have
: 593 2 76  to
: 595 6 78  scream
- 601
: 602 2 71  I
: 604 2 79  don't
: 606 1 79  know
- 607
: 607 2 78  why
: 609 3 76  I'm
: 612 1 74  in -
: 613 2 76  sti -
: 615 4 76  gate
- 619
: 619 1 71  and
: 620 2 79  say
: 622 1 79  what
: 623 2 78  I
: 625 2 76  don't
: 627 6 78  mean
- 633
: 634 2 71  I
: 636 2 79  don't
: 638 1 79  know
- 639
: 639 2 78  how
: 641 3 76  I
: 644 1 74  got
: 645 2 76  this
: 647 4 76  way
- 651
: 651 1 71  I
: 652 2 79  know
: 654 1 79  it's
: 655 2 78  not
: 657 2 76  al -
: 659 4 78  right
- 663
: 664 2 71  so
: 666 2 71  I'm
: 668 8 79  break -
: 676 4 78  ing
: 680 4 76  the
: 684 8 79  ha -
: 692 6 78  bit
- 698
: 698 2 71  I'm
: 700 8 79  brea -
: 708 4 78  king
: 712 4 76  the
: 716 8 79  ha -
: 724 6 78  bit
- 730
: 730 1 76  to -
: 731 7 76  night
- 738
: 738 2 74  I'll
: 740 2 79  paint
: 742 1 79  it
: 743 2 79  on
: 745 3 81  the
: 748 16 81  walls
- 766
: 770 2 74  cause
: 772 2 79  I'm
: 774 1 79  the
: 775 2 79  one
: 777 3 81  at
: 780 16 81  fault
- 798
: 802 2 74  I'll
: 804 2 79  ne -
: 806 1 79  ver
: 807 2 79  fight
: 809 3 81  a -
: 812 16 81  gain
- 832
: 834 2 74  and
: 836 2 79  this
: 838 1 79  is
: 839 2 79  how
: 841 3 81  it
: 844 8 81  ends
- 854
: 858 2 71  I
: 860 2 79  don't
: 862 1 79  know
- 863
: 863 2 78  what's
: 865 3 76  worth
: 868 1 74  fight -
: 869 2 76  ing
: 871 4 76  for
- 875
: 875 1 71  or
: 876 2 79  why
: 878 1 79  I
: 879 2 78  have
: 881 2 76  to
: 883 6 78  scream
- 889
: 890 2 71  but
: 892 2 79  now
: 894 1 79  I
: 895 2 78  have
: 897 3 76  some
: 900 1 74  cla -
: 901 2 76  ri -
: 903 4 76  ty
- 907
: 907 1 71  to
: 908 2 79  show
: 910 1 79  you
: 911 2 78  what
: 913 2 76  I
: 915 6 78  mean
- 921
: 922 2 71  I
: 924 2 79  don't
: 926 1 79  know
: 927 2 78  how
: 929 3 76  I
: 932 1 74  got
: 933 2 76  this
: 935 4 76  way
- 939
: 939 1 71  I'll
: 940 2 79  ne -
: 942 1 79  ver
: 943 2 78  be
: 945 2 76  al -
: 947 4 78  right
- 951
: 952 2 71  so
: 954 2 71  I'm
: 956 8 79  break -
: 964 4 78  ing
: 968 4 76  the
: 972 8 79  ha -
: 980 6 78  bit
- 986
: 986 2 71  I'm
: 988 8 79  brea -
: 996 4 78  king
: 1000 4 76  the
: 1004 8 79  ha -
: 1012 6 78  bit
- 1018
: 1018 2 71  I'm
: 1020 8 79  brea -
: 1028 4 81  king
: 1032 4 79  the
: 1036 8 79  ha -
: 1044 6 78  bit
- 1050
: 1050 1 76  to -
: 1051 7 76  night
E