#TITLE:Cadillac Solitario
#ARTIST:Loquillo Y Trogloditas
#MP3:Loquillo Y Trogloditas - Cadillac Solitario.mp3
#COVER:Loquillo Y Trogloditas - Cadillac Solitario [CO].jpg
#BACKGROUND:Loquillo Y Trogloditas - Cadillac Solitario [BG].jpg
#BPM:300
#GAP:11700
#ENCODING:UTF8
#LANGUAGE:Spanish
#GENRE:Rock
#EDITION:SingStar Popworld ESP
#YEAR:1983
: 0 3 66 Siem
: 6 3 69 pre
: 11 3 69  qui
: 17 9 69 se
: 29 10 71  ir
- 41
: 54 2 66 A
: 60 3 69 ~
: 66 8 69 L.
: 77 10 66  A.
- 89
: 103 2 69 De
: 108 4 71 jar
: 114 7 69  un
* 127 13 71  dн
: 140 4 69 a
- 145
: 147 7 69 Es
: 157 3 71 ta
: 163 9 69  ciu
: 176 8 69 dad
- 186
: 201 3 66 Cru
: 207 3 66 zar
: 212 5 66  el
: 218 8 64 ~
: 229 9 64 mar
- 240
: 250 2 64 En
: 255 3 66  tu
: 261 2 64  com
: 266 2 66 pa
: 272 11 64 сн
: 283 8 62 a
- 293
: 391 6 71 Pe
: 397 4 69 ro
: 403 4 71  ya-ha
: 410 5 69 ce
: 420 3 71  ti
: 423 6 69 em
: 432 4 69 po
- 438
: 444 7 57 Que
: 452 3 69  me-has
: 457 4 69  de
: 461 10 66 ~
: 475 10 66 ja
: 488 9 66 do-y
- 499
: 502 3 74 Pro
: 507 4 71 ba
: 513 3 69 ble
: 519 4 74 men
: 523 4 71 ~
: 530 4 71 te
- 536
: 544 2 69 Me
: 547 2 69  ha
: 550 5 69 brбs
: 558 3 69  ol
: 564 3 69 vi
: 570 10 69 da
: 582 5 69 do
- 589
: 602 4 66 Sй
: 608 4 66  quй-a
: 614 5 66 ven
: 620 12 64 tu
: 632 3 57 ras
- 637
: 639 4 54 Cor
: 645 5 57 re
: 651 3 64 rй
: 657 3 66  sin
: 660 3 64 ~
: 664 6 62 ~
: 676 12 62 ti
- 690
: 792 3 71 Y-aho
: 797 4 71 ra
: 802 4 69  es
* 808 12 71 toy
- 822
: 829 2 71 A
: 834 3 74 quн
: 839 2 71  sen
: 841 11 69 ~
: 854 8 71 ta
: 864 5 71 do
- 870
: 870 2 71 En
: 875 2 71  un
: 879 2 71  vie
: 884 2 69 jo
: 889 8 71  Ca
: 898 8 71 dil
: 906 2 71 lac
- 909
: 911 2 71 Se
: 916 3 74 gun
: 920 2 71 da
: 923 10 69 ~
: 936 10 69 ma
: 947 4 69 no
- 953
: 958 2 66 Jun
: 964 2 67 to-al
: 969 2 66  Mer
: 973 8 64 vell
- 983
: 991 3 64 A
: 998 1 66  mis
: 999 3 66  pies
: 1004 3 66  mi
: 1009 4 66  ciu
: 1015 12 62 dad
- 1029
: 1122 4 71 Y-ha
: 1128 3 71 ce-un
: 1132 3 69  mo
: 1137 10 71 men
: 1152 4 71 to
- 1157
: 1158 4 71 Que
: 1163 2 74  me-ha
: 1167 2 71  de
: 1169 10 69 ~
: 1182 7 71 ja
: 1193 4 71 do
- 1198
: 1198 2 71 A
: 1203 3 71 quн-en
: 1208 4 71  la
: 1213 4 69  la
: 1218 13 71 de
: 1234 4 71 ra
- 1239
: 1239 3 69 Del
: 1244 3 74  Ti
: 1248 14 69 bi
: 1264 7 69 da
: 1273 4 69 bo
- 1279
: 1283 3 66 La-ъl
: 1288 3 66 ti
: 1293 3 66 ma
: 1298 4 69  ru
: 1305 2 69 bi
: 1307 4 69 a
- 1313
: 1321 4 57 Quien
: 1326 4 64  i
: 1331 4 64 ba-a
: 1336 5 64  pro
: 1342 10 62 bar
- 1354
: 1358 3 59 El
: 1362 3 59  a
: 1367 4 59 sien
* 1373 4 62 to
: 1378 4 59  de-at
: 1383 15 62 rбs
- 1400
: 1448 3 66 Qui
: 1454 4 69 zбs
: 1460 3 69  el
: 1466 3 66  Mar
: 1471 9 69 ti
: 1482 3 69 ni
- 1486
: 1488 4 69 Me-ha-he
: 1494 4 66 cho
: 1500 4 69  re
: 1506 4 69 cor
: 1510 11 66 ~
: 1526 8 66 dar
- 1536
: 1551 6 71 Ne
: 1559 4 71 na,
: 1564 3 69  por
: 1571 8 71 quй
: 1582 11 71  no
- 1595
: 1598 3 69 Vol
: 1604 3 69 vis
: 1609 4 69 te-a
: 1615 6 66  lla
: 1621 7 69 mar
- 1630
: 1644 6 57 Cre
: 1651 3 66 н
: 1656 3 66  que
: 1662 6 66  po
* 1670 10 64 dн
: 1680 8 57 a
- 1689
: 1689 4 57 Ol
: 1695 5 57 vi
: 1701 4 64 dar
: 1707 4 64 te
: 1713 5 64  sin
: 1719 8 62  mбs
: 1727 3 59 ~
- 1732
: 1740 3 59 Y-aъn
: 1746 3 59  a
: 1752 3 59  ra
: 1757 3 61 tos
: 1763 3 62  ya
: 1769 7 61  ves
: 1776 3 62 ~
: 1779 11 61 ~
- 1792
: 1834 3 71 Y-al
: 1840 3 71  ir
: 1845 3 71 se
: 1850 3 71  la
: 1856 12 71  ru
: 1870 4 71 bia
- 1875
: 1875 4 71 Me-he
: 1881 3 74  sen
: 1887 3 71 ti
: 1891 4 69 do-ex
* 1896 13 71 tra
: 1910 5 71 сo
- 1916
: 1918 3 71 Me-he
: 1923 3 71  que
: 1928 4 71 da
: 1933 3 69 do
: 1938 13 71  so
: 1953 4 71 lo
- 1958
: 1958 3 71 Fu
: 1963 2 74 man
: 1968 3 71 do-un
: 1973 3 69  ci
: 1977 14 69 gar
: 1993 3 69 ro
- 1998
: 2004 4 66 Qui
: 2010 2 66 zбs
: 2012 2 66  he
: 2015 3 66  pen
: 2020 3 69 sa
: 2024 9 69 do
- 2035
: 2043 2 64 Nos
: 2048 3 66 tal
: 2052 3 66 gia
: 2057 5 66  de
: 2062 9 62  ti
: 2072 2 61 ~
: 2074 5 59 ~
- 2081
: 2163 2 69 Y
: 2167 3 71  des
: 2172 3 71 de-es
: 2177 3 71 ta
: 2182 13 71  cur
: 2197 5 71 va
- 2203
: 2203 3 69 Don
: 2209 3 74 de-es
: 2214 3 71 toy
: 2219 3 69  pa
: 2224 13 71 ra
: 2239 7 71 do
- 2248
: 2250 3 71 Me-he
: 2255 3 71  sor
: 2259 3 69 pren
: 2264 12 71 di
: 2279 4 71 do
- 2284
: 2284 2 71 Mi
: 2289 3 74 ran
: 2295 2 71 do-a
: 2300 3 69  tu
: 2305 14 69  bar
: 2320 2 69 ri
: 2322 3 69 o
- 2327
: 2331 4 66 Me-han
: 2336 3 66  at
: 2340 4 66 ra
: 2347 4 69 pa
: 2353 5 69 do
- 2360
: 2362 4 62 Lu
: 2368 4 62 ces
: 2372 3 66  de
: 2377 5 66  ciu
: 2382 5 62 ~
: 2392 11 62 dad
- 2405
: 2494 4 66 El
: 2500 4 69  a
: 2507 4 69 ma
: 2513 2 66 ne
* 2519 7 69 cer
: 2530 7 69  me
- 2539
: 2543 5 66 Sor
: 2549 3 69 pren
: 2555 6 69 de
: 2561 9 66 ~
: 2573 7 66 rб
- 2582
: 2591 5 66 Dor
: 2597 4 71 mi
: 2603 3 71 do
: 2609 6 69  bor
: 2615 7 71 ra
: 2627 6 69 cho
- 2634
: 2635 4 69 En
: 2641 3 69  el
: 2646 3 71  Ca
: 2653 13 69 dil
: 2670 6 69 lac
- 2678
: 2686 3 57 Ba
: 2691 4 66 jo
: 2696 4 66  las
: 2703 5 66  pal
: 2708 10 64 ~
: 2720 5 64 me
: 2726 3 64 ras
- 2731
: 2733 3 57 Dul
: 2739 5 57 ce-y
: 2745 4 66  so
: 2751 7 66 li
: 2768 8 62 ta
: 2779 2 62 ri
: 2781 8 62 o
- 2791
: 2887 3 69 Y
: 2893 3 69  di
: 2899 3 69 ce
: 2905 3 66  la
: 2911 8 69  gen
: 2923 2 69 te
- 2927
: 2929 4 69 Que-aho
: 2934 4 66 ra-e
: 2940 9 69 res
: 2952 5 66  for
: 2963 11 66 mal
- 2976
: 2991 5 71 Yo-a
: 2997 4 71 quн
: 3002 5 69  bor
: 3008 10 71 ra
: 3020 5 69 cho
- 3026
: 3026 4 69 En
: 3033 3 69  el
: 3039 3 71  Ca
: 3046 14 69 dil
: 3064 4 69 lac
- 3070
: 3079 3 57 Ba
: 3085 4 66 jo
: 3090 3 66  las
: 3096 9 66  pal
: 3110 6 64 me
: 3118 3 64 ras
- 3123
: 3125 4 57 Dul
: 3131 4 57 ce-y
: 3136 3 66  so
: 3142 10 66 li
: 3160 11 62 ta
: 3171 2 62 ri
: 3173 8 62 o-y
- 3183
: 3186 3 62 No-es
: 3192 5 62 tбs
: 3198 4 59 ~
: 3204 6 62 tъ
: 3210 4 57 ~
- 3216
: 3234 4 64 Ne
* 3238 21 66 na
- 3261
: 3269 3 69 El
: 3274 4 69  a
: 3279 5 69 ma
: 3284 3 66 ne
: 3289 9 69 cer
- 3299
: 3301 7 69 Me
: 3311 3 69  sor
: 3315 3 69 pren
: 3321 5 69 de
: 3326 8 66 ~
: 3336 8 66 rб
- 3346
: 3352 3 66 Dor
: 3357 3 71 mi
: 3362 2 71 do
: 3367 4 69  bor
: 3372 8 71 ra
: 3382 3 69 cho
- 3386
: 3388 3 69 En
: 3393 3 69  el
: 3398 2 71  Ca
: 3403 12 69 dil
: 3417 5 69 lac
- 3424
: 3430 3 66 Ba
: 3435 4 66 jo
: 3439 3 69  las
: 3444 4 66  pal
: 3449 8 64 ~
: 3459 4 64 me
: 3464 3 64 ras
- 3468
: 3469 3 57 Dul
: 3474 3 57 ce-y
: 3480 3 66  so
: 3485 6 66 li
: 3499 8 62 ta
: 3507 2 62 ri
: 3510 5 62 o
: 3515 6 59 ~
- 3523
: 3595 3 66 Y
: 3600 2 69  di
: 3605 3 69 ce
: 3610 3 69  la
: 3616 6 69  gen
: 3626 2 69 te
- 3629
: 3630 4 73 Que-aho
: 3636 3 73 ra-e
: 3641 4 74 res
: 3652 6 73  for
: 3661 5 71 mal
: 3666 3 66 ~
- 3671
: 3676 4 69 Y
: 3682 3 71  yo-a
: 3688 3 71 quн
: 3693 3 69  bor
: 3698 5 71 ra
: 3707 5 69 cho
- 3713
: 3713 3 69 En
: 3719 3 69  el
: 3724 3 71  Ca
: 3729 5 69 dil
: 3734 7 66 ~
* 3743 5 69 lac
- 3750
: 3754 3 66 Ba
: 3759 3 66 jo
: 3764 3 69  las
: 3769 4 66  pal
: 3774 8 64 ~
: 3784 4 64 me
: 3789 3 64 ras
- 3793
: 3795 4 57 Dul
: 3799 3 57 ce-y
: 3804 4 66  so
: 3808 6 66 li
: 3814 8 62 ~
: 3824 7 62 ta
: 3833 2 62 ri
: 3835 2 62 o
- 3838
: 3839 4 62 Y
: 3844 4 62  no-es
: 3850 6 62 tбs
: 3860 6 62  tъ
: 3866 8 59 ~
- 3876
: 3885 4 66 Ne
: 3890 54 66 na
: 3944 40 64 ~
: 3984 6 62 ~
- 3992
: 4042 4 66 Ne
* 4047 57 66 na
: 4104 38 64 ~
: 4142 6 62 ~
- 4150
: 4198 3 57 Y
: 4202 3 59  no-es
: 4207 8 62 tбs
: 4220 42 62  tъ
: 4262 7 64 ~
- 4271
: 4273 5 57 Y
: 4283 3 66  no-es
: 4288 8 66 tбs
: 4298 13 62  tъ
- 4313
: 4358 3 57 Y
: 4363 3 59  no-es
: 4369 8 59 tбs
: 4381 40 62  tъ
: 4421 8 64 ~
- 4430
: 4432 5 57 Y
: 4442 2 66  no-es
: 4447 4 64 tбs
: 4451 3 66 ~
: 4457 8 62 tъ
- 4466
: 4467 3 71 Oh
: 4472 5 71  ne
: 4477 3 69 na
: 4482 4 71  ne
: 4487 3 69 na
- 4491
* 4492 14 71 Ne
: 4506 6 69 na
- 4514
: 4522 3 71 No-es
: 4528 5 69 tбs
: 4537 7 69  tъ
: 4544 9 66 ~
E