#TITLE:Sakura Sakura
#ARTIST:Love Hina
#MP3:Love Hina - Sakura Sakura.mp3
#COVER:Love Hina - Sakura Sakura [CO].jpg
#BACKGROUND:Love Hina - Sakura Sakura [BG].jpg
#BPM:170
#GAP:16000
: 0 2 72 En
: 2 2 72 ci
: 4 2 73 ma 
: 6 2 73 del 
: 8 4 74 te
: 12 2 73 ja
: 14 4 72 do,
-18
: 18 2 72 el 
: 20 2 73 cie
: 22 2 73 lo 
: 24 2 74 es 
: 26 2 73 a
: 28 4 72 zul,
-34
: 34 2 72 y 
: 36 2 73 el 
: 38 2 73 sol 
: 40 2 74 da 
: 42 2 81 calor 
: 44 2 72 y 
: 46 2 70 luz.
-55
: 64 2 74 Ten
: 66 2 74 go 
: 68 2 75 e
: 70 2 75 ner
: 72 4 76 gi
: 76 2 75 a, 
: 78 4 74 ga
: 82 2 74 nas 
: 84 2 75 de 
: 86 2 75 vi
: 88 4 76 vir,
-90
: 92 2 75 Ąy 
: 94 2 75 dis
: 96 2 74 fru
: 98 2 74 to 
: 100 2 75 de  
: 102 2 75 mi 
: 104 4 76 ju
: 108 2 72 ven
: 110 2 81 tud!
-120
: 132 8 81 Es 
: 140 4 79 fan
: 144 2 77 tás
: 146 2 69 ti
: 148 4 69 co,
-155
: 164 8 84 Yo 
: 172 4 82 soy 
: 176 2 81 muy 
: 178 4 74 fe
: 182 2 74 liz,
-184
: 194 2 77 con 
: 196 2 77 mis 
: 198 2 77 a
: 200 2 79 mi
: 202 2 80 gos 
: 206 4 77 lo 
: 210 2 77 ten
: 212 2 77 go 
: 214 2 77 to
: 216 2 79 do 
: 218 4 80 en 
: 222 2 80 co
: 224 14 79 mun, 
: 238 10 80 si!
-248
: 250 2 81 Es 
: 252 2 81 muy 
: 254 2 81 her
: 256 2 81 mo
: 258 2 84 sa 
: 260 2 77 es
: 262 2 81 ta 
: 264 2 72 vi
: 266 2 77 da 
-268
: 268 2 69 que 
: 270 2 74 me 
: 272 2 72 to
: 274 2 70 ca 
: 276 2 69 vi
: 278 2 70 vir,
-280
: 282 2 82 y 
: 284 2 82 es
: 286 2 82 tas 
: 288 2 82 co
: 290 2 86 sas 
: 292 2 79 de 
: 294 2 82 la 
: 296 2 76 vi
: 298 2 79 da 
-300
: 300 2 72 me 
: 302 2 74 han 
: 304 2 74 he
: 306 2 72 cho 
: 308 2 70 re
: 310 2 72 ir,
-320
: 322 2 74 y 
: 324 2 75 ca
: 326 2 74 da 
: 328 2 75 dí
: 330 2 74 a 
: 332 2 75 me 
: 334 2 74 lo 
: 336 4 72 pa
: 340 2 70 so 
: 342 6 77 bien,
-352
: 354 2 77 porque 
: 356 2 77 yo 
: 358 2 77 ten
: 360 2 77 go 
: 362 2 76 i
: 364 2 77 lu
: 366 10 79 sión.
-375
: 378 2 81 Y 
: 380 2 81 me 
: 382 2 81 des
: 384 2 81 pier
: 386 2 84 to 
: 388 2 77 ca
: 390 2 81 da 
-392
: 392 2 72 dí
: 394 2 77 a 
: 396 2 69 lle
: 398 2 74 na 
: 400 2 72 de 
: 402 2 70 e
: 404 2 69 mo
: 406 2 70 ción,
-408
: 410 2 82 y 
: 412 2 82 lue
: 414 2 82 go 
: 416 2 82 sal
: 418 2 86 go 
: 420 2 79 a 
: 422 2 82 bus
: 424 2 76 car
: 426 2 79 me 
-428
: 428 2 72 cual
: 430 2 74 quier 
: 432 2 74 di
: 434 2 72 ver
: 436 2 70 si
: 438 2 72 ón
-440
: 450 2 74 Y 
: 452 2 75 si 
: 454 2 74 lo 
: 456 2 72 ha
: 458 2 74 ces 
: 460 2 77 tu 
: 462 2 81 i
: 464 4 84 gual 
: 468 2 83 que 
: 470 6 82 yo,
-476
: 480 2 81 cono
: 482 2 80 ce
: 484 2 81 rás 
: 486 4 84 la 
: 490 4 81 ilu
: 494 10 77 sión!
-504
: 506 2 81 Es 
: 508 2 81 muy 
: 510 2 81 her
: 512 2 81 mo
: 514 2 84 so 
: 516 2 77 es
: 518 2 81 ta 
: 520 2 72 vi
: 522 2 77 da 
-524
: 524 2 69 que 
: 526 2 74 me 
: 528 2 72 to
: 530 2 70 ca 
: 532 2 69 vi
: 534 2 70 vir,
-536
: 538 2 82 y 
: 540 2 82 es
: 542 2 82 tas 
: 544 2 82 co
: 546 2 86 sas 
: 548 2 79 de 
: 550 2 82 la 
: 552 2 76 vi
: 554 2 79 da 
-556
: 556 2 72 me 
: 558 2 74 han 
: 560 2 74 he
: 562 2 72 cho 
: 564 2 70 re
: 566 2 72 ír.
-570
: 578 2 74 Y 
: 580 2 75 ca
: 582 2 74 da 
: 584 2 75 dí
: 586 2 74 a 
: 588 2 75 me 
: 590 2 74 lo 
: 592 4 72 pa
: 596 2 70 so 
: 598 6 77 bien 
-604
: 610 2 77 porque 
: 612 2 77 yo 
: 614 2 77 ten
: 616 2 77 go 
: 618 2 76 i
: 620 2 77 lu
: 622 10 79 sión.
-632
: 634 2 81 Y 
: 636 2 81 ca
: 638 2 81 da 
: 640 2 81 dí
: 642 2 84 a 
: 644 2 77 me 
: 646 2 81 le
: 648 2 72 van
: 650 2 77 to  
: 652 2 69 lle
: 654 2 74 na 
: 656 2 72 de 
: 658 2 70 e
: 660 2 69 mo
: 662 2 70 ción,
-664
: 666 2 82 y 
: 668 2 82 lue
: 670 2 82 go 
: 672 2 82 sal
: 674 2 86 go 
: 676 2 79 a 
: 678 2 82 bus
: 680 2 76 car
: 682 2 79 me 
: 684 2 72 cual
: 686 2 74 quier 
: 688 2 74 di
: 690 2 72 ver
: 692 2 70 si
: 694 2 72 ón,
-696
: 706 2 74 y 
: 708 2 75 si 
: 710 2 74 lo 
: 712 2 72 ha
: 714 2 74 ces 
: 716 2 77 tu 
: 718 2 81 i
: 720 4 84 gual 
: 724 2 83 que 
: 726 6 82 yo
-732
: 736 2 81 siem
: 738 2 80 pre 
: 740 2 81 ten
: 742 4 84 drás 
: 746 4 81 ilu
: 750 10 77 sión,
-760
: 768 2 81 siem
: 770 2 80 pre 
: 772 2 81 ten
: 774 4 84 drás 
: 778 4 81 ilu
: 782 10 77 sión,
-792
: 800 2 79 Ąmu
: 802 2 79 cha 
: 804 2 79 i
: 806 4 77 lu
: 810 4 76 si
: 814 18 84 ón!
E
