#TITLE:Super Sommer
#ARTIST:Luttenberger-Klug
#MP3:Luttenberger-Klug - Super Sommer.mp3
#COVER:Luttenberger-Klug - Super Sommer [CO].jpg
#BACKGROUND:Luttenberger-Klug - Super Sommer [BG].jpg
#EDITION:Singstar - Deutsch Rock-Pop 2
#LANGUAGE:Deutsch
#BPM:340,00
#GAP:10808,82
: 0 4 58 Wenn
: 7 3 58  sich
: 14 3 55  das
: 21 5 58  Licht
- 28 29
: 37 3 58 In
: 44 3 58  Luft
: 51 4 58 mo
: 56 3 55 le
: 63 4 58 kü
: 67 3 58 len
: 74 5 60  spie
: 80 12 58 gelt
- 94 95
: 116 5 58 Wenn
: 124 4 58  sich
: 131 6 58  die
: 139 7 63  war
: 146 3 62 me
* 150 4 62  Luft
- 156
: 159 6 60 In
: 166 4 60  un
: 172 4 58 s're
: 180 7 58  Po
: 187 4 55 ren
: 191 9 58  saugt
- 202 215
: 235 5 58 Seh'
: 242 3 58  ich
: 250 4 58  uns
: 257 8 63  in
: 265 5 62  der
- 271
: 272 3 58 Son
: 276 3 55 ne
: 280 6 58  lie
: 286 13 60 gen
- 301 302
: 323 3 58 Wir
* 330 4 58  tan
: 335 3 55 ken
: 339 16 58  auf
- 357
: 365 4 58 Nur
: 370 3 55  mit
: 375 4 60  Licht
: 383 5 58  ins
: 391 7 58  Le
: 398 6 60 ben
- 406 422
: 442 2 63 Ich
: 446 4 63  weiß
: 454 3 62  nicht
: 460 9 63  wann
- 471
: 475 2 62 Ha
: 477 2 62 ben
: 479 4 63  wir
: 484 3 62  das
: 490 4 63  letz
: 497 2 62 te
: 501 6 63  Mal
- 509
: 515 2 60 Das
: 520 6 63  Meer
: 527 2 65  ge
: 531 12 58 sehen
- 545 546
: 558 4 63 Es
: 565 3 63  ist
: 572 2 62  so
: 576 7 63 weit
- 585
: 593 4 62 Wir
: 597 4 63  gehen
: 601 3 62 ~
: 605 6 63  los
- 613 614
: 622 3 62 Wir
: 626 3 63  sind
: 630 3 62  be
: 634 7 63 reit
- 643 659
: 679 3 63 Für
: 682 3 60  die
: 686 2 63  bes
: 689 2 65 te
: 694 3 63  Zeit
: 697 25 65 ~
- 724 725
: 749 5 63 Ich
: 759 12 63  will
: 774 7 70  mit
: 786 7 65  dir
: 797 5 63  in
: 804 7 65  die
: 811 6 63 sen
- 818
: 818 7 65 Su
: 825 6 63 per
: 834 4 65  Som
: 838 3 65 mer
: 844 7 65  star
: 852 7 63 ten
- 861 862
: 870 4 63 Ich
: 877 14 63  will
: 893 6 70  mit
: 904 9 65  dir
- 914
: 915 4 63 Durch
: 922 6 65  die
: 930 4 63 sen
- 936
* 938 5 65 Su
: 945 4 63 per
: 951 3 65  Som
: 956 3 65 mer
: 963 7 65  gehen
: 970 4 63 ~
- 976
: 982 2 63 Es
: 986 5 63  wird
: 996 11 63  viel
: 1011 7 70  pas
: 1022 10 65 sier'n
- 1034 1035
: 1045 6 63 Weil
: 1055 7 72  wir
: 1062 4 70  nicht
: 1070 4 66  viel
: 1075 4 65  er
: 1081 6 65 war
: 1089 9 63 ten
- 1100 1109
: 1129 1 63 Au
: 1133 3 63 ßer
: 1137 3 65  ei
: 1140 2 63 nen
: 1144 4 65  Su
: 1151 6 67 per
: 1158 4 65  Som
: 1162 9 63 mer
- 1173 1227
: 1247 4 58 Wie
: 1252 3 58  wir
: 1260 6 63  Stun
: 1266 9 62 den
- 1276
: 1277 4 58 Ü
: 1281 3 55 ber
* 1290 5 60  Stun
: 1296 10 58 den
- 1308 1309
: 1336 4 58 Mit
: 1344 4 58  ge
: 1351 5 63 schlos
: 1359 5 62 s'nen
: 1366 8 63  Au
: 1374 5 62 gen
- 1380
: 1380 8 63 In
: 1388 6 62  den
: 1396 4 58  Him
: 1400 4 60 mel
: 1407 11 58  sehen
- 1420 1421
: 1447 4 58 Al
: 1452 2 58 les
: 1458 5 58  ver
: 1463 4 60 ges
: 1469 7 58 sen
- 1478 1479
: 1488 4 58 Du
: 1493 2 58  er
* 1499 7 67 zählst
: 1511 4 65  mir
: 1518 4 63  von
: 1525 16 58  dir
- 1543 1556
: 1576 3 58 Bis
: 1581 4 58  der
: 1588 5 63  Him
: 1593 3 62 mel
- 1597
: 1599 3 58 Vol
: 1603 3 55 ler
: 1611 6 58  Ster
: 1617 4 60 ne
: 1622 4 58  ist
- 1628 1666
: 1686 4 62 Wir
: 1691 3 63  müs
: 1695 2 63 sen
: 1699 9 63  los
- 1710
: 1718 1 63 Lass
: 1721 1 63  uns
: 1725 3 63  im
: 1731 5 67  Mond
: 1739 10 65 licht
- 1751
: 1754 3 63 Schwim
: 1757 4 65 men
: 1763 13 63  geh'n
- 1778 1779
: 1803 4 63 Es
: 1810 3 63  ist
: 1814 3 62  so
: 1817 8 63 weit
- 1827 1828
: 1836 4 62 Wir
: 1840 4 63  gehen
: 1844 3 62 ~
: 1847 7 63  los
- 1856
: 1864 2 62 Wir
: 1868 3 63  sind
: 1872 3 62  be
: 1876 7 63 reit
- 1885 1901
: 1921 3 63 Für
: 1924 2 60  die
: 1928 2 63  bes
: 1932 2 65 te
: 1936 4 63  Zeit
: 1940 27 65 ~
- 1969 1970
: 1991 5 63 Ich
: 2001 12 63  will
: 2016 7 70  mit
: 2028 7 65  dir
: 2039 5 63  in
: 2046 7 65  die
: 2053 6 63 sen
- 2060
: 2060 7 65 Su
: 2067 6 63 per
: 2076 4 65  Som
: 2080 3 65 mer
: 2086 7 65  star
: 2094 7 63 ten
- 2103 2104
: 2112 4 63 Ich
: 2121 12 63  will
: 2135 6 70  mit
: 2146 9 65  dir
- 2156
: 2157 4 63 Durch
: 2164 6 65  die
: 2172 4 63 sen
- 2178
: 2180 5 65 Su
: 2187 4 63 per
: 2193 3 65  Som
: 2198 3 65 mer
: 2205 7 65  gehen
: 2212 4 63 ~
- 2218
: 2224 2 63 Es
: 2228 5 63  wird
: 2238 11 63  viel
: 2253 7 70  pas
: 2264 10 65 sier'n
- 2276 2277
: 2287 6 63 Weil
: 2297 7 72  wir
: 2304 4 70  nicht
: 2312 4 66  viel
: 2317 4 65  er
: 2323 6 65 war
: 2331 9 63 ten
- 2342 2351
: 2371 1 63 Au
: 2375 3 63 ßer
: 2379 3 65  ei
: 2382 2 63 nen
: 2386 4 65  Su
: 2393 6 67 per
: 2401 4 65  Som
: 2405 8 63 mer
- 2415 2464
: 2484 2 62 Wir
: 2490 6 62  schal
: 2498 3 62 ten
: 2503 6 62  um
: 2512 10 62  auf
- 2524
* 2526 11 62 Au
: 2541 4 63 to
: 2549 6 62 pi
: 2556 13 63 lot
- 2571 2580
: 2600 5 62 Lass
: 2608 4 62  uns
: 2615 3 62  im
: 2619 7 65  Mond
: 2628 4 63 licht
- 2634
: 2637 6 63 Schwim
: 2643 4 62 men
: 2650 15 60  geh'n
- 2667 2701
: 2721 2 62 Wir
: 2727 6 62  schal
: 2735 3 62 ten
: 2740 6 62  um
: 2749 10 62  auf
- 2761
: 2763 11 62 Au
: 2778 4 63 to
: 2786 6 62 pi
: 2793 13 63 lot
- 2808 2817
: 2837 5 62 Lass
: 2845 4 62  uns
: 2852 3 62  im
* 2856 5 62  Mond
: 2866 8 58 licht
- 2876 2877
: 2898 4 63 Lass
: 2904 4 63  uns
: 2910 3 63  im
: 2914 8 67  Mond
: 2924 8 65 licht
- 2934
: 2937 5 65 Ich
: 2947 12 63  will
: 2962 7 70  mit
: 2974 7 65  dir
: 2985 5 63  in
: 2992 7 65  die
: 2999 6 63 sen
- 3006
: 3006 7 65 Su
: 3013 6 63 per
: 3022 4 65  Som
: 3026 3 65 mer
: 3032 7 65  star
: 3040 7 63 ten
- 3049 3050
: 3058 4 63 Ich
: 3065 14 63  will
: 3081 6 70  mit
: 3092 9 65  dir
- 3102
: 3103 4 63 Durch
: 3110 6 65  die
: 3118 4 63 sen
- 3124
: 3126 5 65 Su
: 3133 4 63 per
: 3139 3 65  Som
: 3144 3 65 mer
: 3151 7 65  gehen
: 3158 4 63 ~
- 3164
: 3170 2 63 Es
: 3174 5 63  wird
: 3184 11 63  viel
: 3199 7 70  pas
: 3210 10 65 sier'n
- 3222 3223
: 3233 6 63 Weil
: 3243 7 72  wir
* 3250 4 70  nicht
: 3258 4 67  viel
: 3263 4 65  er
: 3269 6 65 war
: 3277 9 63 ten
- 3288 3297
: 3317 1 63 Au
: 3321 3 63 ßer
: 3325 3 65  ei
: 3328 2 63 nen
: 3332 4 65  Su
: 3339 6 67 per
: 3347 4 65  Som
: 3351 9 63 mer
- 3362 3404
: 3424 3 63 Ich
* 3430 8 67  will
: 3438 4 65  mit
: 3447 9 65  dir
: 3459 4 63  in
: 3465 6 65  die
: 3473 3 63 sen
- 3478
: 3480 4 65 Su
: 3487 5 63 per
: 3494 3 67  Som
: 3499 5 65 mer
: 3506 7 65  star
: 3513 6 63 ten
- 3521 3522
: 3531 3 63 Ich
: 3539 12 63  will
: 3554 6 70  mit
: 3566 7 65  dir
- 3574
: 3575 4 63 Durch
* 3583 7 65  die
: 3590 4 63 sen
- 3595
: 3597 5 65 Su
: 3604 5 63 per
: 3612 4 67  Som
: 3616 4 65 mer
: 3624 7 65  gehen
: 3631 3 63 ~
- 3636
: 3643 2 63 Es
: 3647 4 63  wird
: 3657 9 63  viel
: 3672 6 70  pas
: 3682 10 65 sier'n
- 3694 3695
: 3705 8 63 Weil
: 3717 7 72  wir
: 3724 3 70  nicht
: 3732 4 66  viel
: 3736 4 65  er
: 3743 5 65 war
: 3750 14 63 ten
- 3766 3767
: 3788 4 63 Au
: 3795 4 63 ßer
: 3800 4 65  ei
: 3804 4 63 nen
: 3810 3 65  Su
: 3818 4 67 per
: 3825 5 65  Som
: 3830 26 63 mer
E
