#TITLE:Sweet Home Alabama
#ARTIST:Lynyrd Skynyrd
#LANGUAGE:Englisch
#EDITION:SingStar Legends
#GENRE:rock
#YEAR:1900
#MP3:Lynyrd Skynyrd - Sweet Home Alabama.mp3
#COVER:Lynyrd Skynyrd - Sweet Home Alabama [CO].jpg
#BACKGROUND:Lynyrd Skynyrd - Sweet Home Alabama [BG].jpg
#VIDEO:Lynyrd Skynyrd - Sweet Home Alabama [VD#0].avi
#VIDEOGAP:0
#BPM:340
#GAP:485,29
F 0 6 48 One
F 14 7 48  two
F 29 8 48  three
- 39 115
F 135 5 53 Turn
F 140 3 53  it
F 143 4 53  up
- 149 501
: 521 4 65 Big
: 525 3 64 ~
: 530 10 64 wheels
: 540 5 62 ~
: 547 3 62 keep
: 551 5 62  on
: 558 9 62  turn
: 567 5 64 in'
- 574 611
: 631 3 65 Car
: 634 3 64 ry
: 637 5 64  me
* 643 8 64  home
: 654 3 62  to
: 657 3 62  see
: 661 6 62  my
: 668 10 62  kin
- 680 721
: 741 4 65 Sing
: 745 4 64 in'
: 754 6 64  songs
: 762 3 62  a
: 765 8 62 bout
: 775 3 62  the
: 779 9 62  South
: 790 3 55 land
- 795 829
: 849 2 62 I
: 852 4 65  miss
: 856 5 64  Al'
* 863 8 64 ba
: 871 5 62 my
: 879 4 62  once
: 886 3 62  a
: 890 6 62 gain
- 897
: 897 2 62 And
: 900 5 62  I
: 907 3 62  think
: 911 2 62  it's
: 914 3 62  a
: 918 3 55  sin
- 923 924
F 939 5 55 Yes
- 946 1160
: 1180 4 62 Well
: 1184 3 62  I
: 1187 4 65  heard
: 1194 3 64  Mis
: 1198 2 64 ter
: 1201 9 64  Young
- 1212
: 1215 6 64 Sing
: 1221 2 62  a
: 1225 8 62 bout
: 1234 3 55  her
- 1239 1270
: 1290 3 62 Well
: 1293 3 62  I
: 1297 5 65  heard
: 1302 5 64  ol'
: 1308 10 64  Neil
: 1318 5 62 ~
: 1325 7 62 put
: 1332 4 64  her
: 1336 17 62  down
- 1355 1382
: 1402 3 62 Well
: 1405 2 62  I
: 1408 5 65  hope
: 1415 7 64  Neil
* 1423 7 64  Young
- 1432
: 1436 5 64 Will
: 1442 2 62  re
: 1446 8 62 mem
: 1456 3 55 ber
- 1461 1495
: 1515 2 62 A
: 1519 3 65  South
: 1522 5 64 ern
: 1528 10 64  man
: 1539 6 62  don't
: 1546 6 62  need
- 1553
: 1553 3 62 Him
: 1557 3 62  a
: 1560 10 62 round
: 1573 3 62  a
: 1576 3 62 ny
: 1581 4 50 how
- 1587 1609
: 1629 10 65 Sweet
: 1643 14 64  home
: 1659 10 62  Al
: 1669 2 60 a
: 1672 7 62 ba
: 1679 3 55 ma
- 1684 1722
: 1742 5 65 Where
: 1748 4 64  the
: 1755 13 64  skies
: 1770 6 62  are
: 1777 2 62  so
: 1780 8 62  blue
- 1790 1834
: 1854 8 65 Sweet
: 1866 13 64  home
* 1882 9 62  Al
: 1892 2 60 a
: 1895 5 62 ba
: 1902 3 55 ma
- 1907 1945
: 1965 6 65 Lord
: 1972 4 64  I'm
: 1979 4 64  com
: 1983 7 62 in'
: 1993 9 62  home
: 2003 2 64  to
: 2006 8 62  you
- 2016 2273
: 2293 4 62 In
* 2300 3 65  Bir
: 2304 5 64 ming
: 2311 7 64 ham
: 2320 6 62  they
- 2327
: 2327 5 62 Love
: 2335 2 60  the
: 2338 9 62  gov'
: 2348 4 55 nor
- 2354 2355
: 2369 11 65 Ooh
: 2384 11 64  ooh
: 2399 7 62  ooh
- 2407
: 2408 3 62 Now
: 2413 5 65  we
: 2418 6 64  all
: 2425 5 64  did
: 2434 5 62  what
: 2441 5 62  we
: 2448 2 62  could
: 2452 3 55  do
- 2457 2498
: 2518 6 62 Now
: 2525 3 65  Wa
: 2529 3 64 ter
: 2534 13 64 gate
: 2552 5 64  does
: 2559 6 62  not
- 2567
: 2573 11 62 Bo
: 2584 3 62 ther
: 2589 3 55  me
- 2594 2616
: 2636 5 65 Does
: 2642 5 64  your
: 2650 6 64  con
: 2657 3 62 science
: 2664 6 62  bo
: 2671 3 64 ther
: 2674 11 62  you?
- 2687
: 2691 6 62 Tell
: 2699 2 62  the
: 2702 4 55  truth
- 2708 2727
: 2747 9 65 Sweet
: 2761 13 64  home
: 2776 10 62  Al
: 2786 2 60 a
: 2789 7 62 ba
: 2796 3 55 ma
- 2801 2839
: 2859 6 65 Where
: 2867 3 64  the
: 2873 13 64  skies
: 2888 6 62  are
: 2895 2 62  so
: 2898 7 62  blue
- 2907 2951
: 2971 9 65 Sweet
: 2985 11 64  home
: 2999 9 62  Al
: 3009 2 60 a
: 3012 5 62 ba
: 3019 3 55 ma
- 3024 3025
F 3039 4 50 Ah
F 3043 7 50  yeah
- 3052 3062
: 3082 6 65 Lord
: 3089 4 64  I'm
: 3096 4 64  com
: 3100 7 62 in'
: 3110 9 62  home
: 3121 2 64  to
: 3124 6 62  you
- 3131
F 3131 3 55 Here
F 3136 2 55  I
F 3139 6 55  come
F 3158 15 55  Alabama
- 3175 3823
: 3843 27 69 Ah
: 3870 24 67  ah
: 3896 27 67  ah
: 3932 3 67  Al
: 3936 3 67 a
: 3940 4 67 ba
: 3946 5 67 ma
- 3952
: 3954 27 69 Ah
: 3981 24 67  ah
: 4009 27 67  ah
: 4044 3 67  Al
: 4048 3 67 a
: 4052 4 67 ba
: 4058 5 67 ma
- 4065 4276
: 4296 5 62 Now
* 4302 5 65  Mus
: 4308 3 64 cle
: 4314 9 64  Shoals
- 4324
: 4324 3 62 Has
: 4331 4 62  got
: 4338 2 62  the
: 4341 7 62  swamp
: 4351 4 55 ers
- 4357 4391
: 4411 3 62 And
: 4414 3 65  they've
: 4418 5 64  been
: 4424 6 64  known
: 4431 2 62  to
- 4434
: 4434 2 62 Pick
: 4437 2 62  a
: 4440 7 62  song
: 4447 3 62  or
: 4451 6 62  two
- 4459 4460
: 4470 4 67 Yes
: 4476 3 67  they
: 4481 5 74  do
- 4488 4503
: 4523 6 65 Lord
: 4531 4 64  they
: 4538 3 64  get
: 4544 4 62  me
: 4548 8 62  off
* 4564 11 62  so
: 4576 3 55  much
- 4581 4608
: 4628 5 62 They
: 4635 3 65  pick
: 4641 4 64  me
: 4645 4 64  up
: 4652 3 62  when
: 4655 5 62  I'm
: 4662 6 62  feel
: 4669 3 62 in'
: 4673 6 62  blue
- 4680
: 4681 2 62 And
: 4683 5 62  now
: 4690 3 62  how
: 4694 4 62  about
: 4700 5 55  you?
- 4707 4726
: 4746 10 65 Sweet
: 4760 14 64  home
: 4776 10 62  A
: 4786 2 60 la
: 4789 7 62 ba
: 4796 3 55 ma
- 4801 4838
: 4858 5 65 Where
: 4864 4 64  the
: 4872 13 64  skies
: 4887 6 62  are
: 4894 2 62  so
* 4897 7 62  blue
- 4906 4950
: 4970 11 65 Sweet
: 4984 11 64  home
: 4998 9 62  Al
: 5008 2 60 a
: 5011 5 62 ba
: 5018 3 55 ma
- 5023 5060
: 5080 6 65 Lord
: 5087 4 64  I'm
: 5094 4 64  com
: 5098 7 62 in'
* 5108 9 62  home
: 5118 2 64  to
: 5121 8 62  you
- 5131 5173
: 5193 10 65 Sweet
: 5207 13 64  home
: 5222 9 62  Al
: 5231 3 60 a
: 5235 5 62 ba
: 5241 4 55 ma
- 5247
F 5249 4 60 Oh
F 5253 5 60  sweet
F 5258 10 60  home
F 5268 7 60  baby
- 5277 5278
: 5304 5 65 Where
: 5310 4 64  the
: 5318 13 64  skies
: 5333 6 62  are
: 5340 2 62  so
: 5343 7 62  blue
- 5351
: 5352 3 62 And
: 5357 2 60  the
: 5360 4 62  go
: 5364 3 62 ver
: 5367 3 62 nor's
: 5372 3 55  true
- 5377 5396
: 5416 11 65 Sweet
: 5430 11 64  home
: 5444 9 62  Al
: 5454 2 60 a
: 5457 5 62 ba
: 5464 3 55 ma
- 5469
* 5477 18 62 Lor
: 5496 4 55 dy
- 5502 5503
: 5526 6 65 Lord
: 5533 4 64  I'm
: 5540 4 64  com
: 5544 7 62 in'
: 5554 9 62  home
: 5564 2 64  to
: 5567 8 62  you
- 5576
F 5576 6 64 Whoa,
F 5588 7 64  whoa
F 5601 21 64  yeah,
F 5623 4 55  yeah
- 5629 5651
F 5671 10 60 My
F 5684 26 60  Montgomery's
F 5711 5 60  got
F 5717 4 60  the
F 5721 11 60  answer
E
