#TITLE:American Pie
#ARTIST:Madonna
#MP3:Madonna - American Pie.mp3
#VIDEO:Madonna - American Pie [VD#0].avi
#COVER:Madonna - American Pie [CO].jpg
#BACKGROUND:Madonna - American Pie [BG].jpg
#BPM:247,8
#GAP:1158
#ENCODING:UTF8
#LANGUAGE:Englisch
#EDITION:[SC]-Songs
: 0 3 3 A
: 4 11 15  long
: 16 11 15  long
: 28 7 15  time
: 36 2 12  a
: 39 9 8 go
- 50
: 55 5 12 I
: 61 6 10  can
: 68 5 12  still
: 74 3 13  re
: 78 5 12 mem
: 84 8 10 ber
- 94
: 98 3 8 How
: 102 4 7  that
: 107 6 8  mu
: 114 4 7 sic
: 119 6 8  used
: 126 3 7  to
: 130 5 8  make
: 136 5 7  me
: 144 12 3  smile
- 158
: 179 2 15 And
: 182 5 15  I
: 188 5 15  knew
: 194 3 15  that
: 198 5 15  if
: 204 8 12  I
: 213 5 15  had
: 219 8 17  my
: 228 10 8  chance
- 240
: 246 4 10 I
: 251 4 12  could
: 256 3 13  make
: 260 6 12  those
: 268 4 10  peo
: 273 4 12 ple
: 278 10 13  dance
- 290
: 297 4 12 And
: 302 3 8  may
: 306 3 5 be
: 310 5 8  they'd
: 316 4 5  be
: 322 5 8  hap
: 328 8 5 py
: 344 3 8  for
: 348 3 12  a
* 352 16 10  while
- 370
: 664 3 15 Did
: 668 7 17  you
: 676 7 15  write
: 684 3 12  the
: 688 3 13  book
: 692 7 12  of
: 700 6 10  love
- 707
: 708 3 10 And
: 712 3 12  do
: 716 7 13  you
: 724 10 12  have
: 736 7 13  faith
: 744 7 12  in
: 752 7 13  God
: 760 3 12  a
: 764 14 10 bove
- 780
: 792 3 8 If
: 796 3 7  the
: 800 3 8  Bi
: 804 7 7 ble
: 812 7 8  tells
: 820 7 7  you
* 828 16 3  so
- 846
: 868 3 15 Now
: 872 3 15  do
: 876 4 17  you
: 881 6 15 ~
: 888 3 15  be
: 892 4 15 lie
: 896 3 13 ~ve
: 900 6 12  in
: 912 3 15  rock
: 916 7 15  'n
: 924 7 17  roll
- 933
: 936 3 12 And
: 940 3 12  can
: 944 3 13  mu
: 948 6 12 sic
: 964 7 13  save
: 972 7 12  your
: 980 7 15  mor
: 988 3 13 tal
: 992 8 12  soul
- 1002
: 1004 3 5 And
: 1008 3 8  can
: 1012 6 5  you
: 1020 6 8  teach
: 1028 6 5  me
: 1040 3 8  how
: 1044 6 5  to
: 1052 8 8  dance
- 1062
: 1072 10 12  real
: 1084 15 12  slo
: 1100 3 13 ~
: 1104 12 10 ~w
- 1118
: 1124 3 12 Well,
: 1128 7 12  I
* 1136 6 17  know
: 1144 6 12  that
: 1152 7 12  you're
: 1160 7 12  in
: 1168 7 13  love
: 1176 3 12  with
: 1180 8 15  him
- 1188
: 1188 3 12 Cause
: 1192 8 12  I
: 1204 6 17  saw
: 1212 3 12  you
: 1216 7 12  dan
: 1224 6 12 cin'
: 1232 7 13  in
: 1240 3 12  the
: 1244 12 15  gym
- 1258
: 1260 3 12 You
: 1264 6 13  both
: 1272 7 12  kicked
: 1280 7 10  off
: 1288 3 8  your
: 1292 12 10  shoes
- 1306
: 1316 3 20 Man,
: 1320 7 20  I
: 1328 7 20  dig
: 1336 7 20  those
: 1344 3 20  rhy
: 1348 3 20 thm
: 1352 3 22  and
: 1356 3 17  blu
: 1360 14 15 es
- 1376
: 1380 3 15 I
: 1384 3 15  was
: 1388 3 12  a
: 1392 7 15  lone
: 1400 3 15 ly
: 1404 7 15  teen
: 1412 8 15 age
: 1424 7 15  bron
: 1432 3 15 cin'
: 1436 8 17  buck
- 1446
: 1448 3 8 With
: 1452 3 8  a
: 1456 6 10  pink
: 1464 7 12  car
: 1472 3 13 na
: 1476 3 12 tion
: 1480 3 13  and
: 1484 3 12  a
: 1488 3 15  pick
: 1492 6 12 up
: 1500 6 12  truck
- 1507
: 1508 3 12 But
: 1512 6 12  I
* 1524 7 20  knew
: 1532 3 17  that
: 1536 7 17  I
: 1544 3 15  was
: 1548 11 17  out
: 1560 3 15  of
: 1564 6 12  luck
- 1572
: 1576 3 5 The
: 1580 20 8  day
: 1608 3 12  the
* 1612 23 13  mu
: 1636 7 12 sic
: 1644 24 8  died
- 1670
: 1684 3 15 I
: 1688 3 15  star
: 1692 3 15 ted
: 1696 3 17  sing
: 1700 7 15 ing
- 1709
* 1712 12 15 Bye
: 1724 3 13 ~
: 1728 7 13  bye
: 1736 3 13  Miss
: 1740 3 13  A
: 1744 3 12 me
: 1748 3 10 ri
: 1752 3 8 can
: 1756 6 10  Pie
- 1763
: 1764 7 15 Drove
: 1772 3 15  my
: 1776 3 15  che
: 1780 3 15 vy
: 1784 3 15  to
: 1788 3 12  the
: 1792 3 13  le
: 1796 4 13 vee
- 1800
: 1800 3 13 But
: 1804 3 13  the
: 1808 3 12  le
: 1812 3 10 vee
: 1816 3 8  was
: 1820 8 3  dry
- 1830
: 1836 3 15 And
: 1840 3 15  good
: 1844 4 15  o
: 1848 3 17 ~ld
: 1852 6 13  boys
- 1859
: 1860 3 13  were
: 1864 3 13  drin
: 1868 3 13 kin'
: 1872 3 12  whis
: 1876 3 10 key
: 1880 3 8  and
: 1884 7 10  rye
- 1893
: 1896 3 12 Sin
: 1900 3 10 gin'
: 1904 3 8  this
: 1908 3 5  will
: 1912 3 8  be
: 1916 2 5  the
: 1919 4 8  day
: 1924 3 7  that
: 1928 7 5  I
* 1936 18 10  die
- 1956
: 1968 3 8 This
: 1972 3 5  will
: 1976 3 8  be
: 1980 2 5  the
: 1983 4 8  day
: 1988 3 7  that
: 1992 7 5  I
: 2000 2 7  die
: 2002 2 5 ~
: 2004 18 3 ~
- 2024
: 2132 3 15 I
: 2136 2 15  met
: 2138 2 15  a
: 2140 10 15  girl
: 2152 7 12  who
: 2160 7 13  sang
: 2168 3 12  the
: 2172 8 10  blues
- 2181
: 2181 2 10 And
: 2184 8 12  I
: 2196 7 13  asked
: 2204 3 12  her
: 2208 7 13  for
: 2216 7 12  some
: 2224 3 13  hap
: 2228 7 12 py
: 2236 14 10  news
- 2252
: 2264 3 8 She
: 2268 6 7  just
: 2276 7 8  smiled
: 2284 3 7  and
: 2288 7 8  turned
: 2296 3 7  a
* 2300 18 3 way
- 2320
: 2340 3 15 Well,
: 2344 7 15  I
: 2352 7 15  went
: 2360 7 15  down
: 2368 3 15  to
: 2372 2 12 ~
: 2376 3 12  the
: 2380 7 15  sa
: 2388 6 15 cred
: 2396 8 17  store
- 2406
: 2408 3 8 Where
: 2412 3 8  I'd
: 2416 7 10  heard
: 2424 3 12  the
: 2428 7 13  mu
: 2436 6 12 sic
: 2448 7 10  years
: 2456 3 12  be
: 2460 10 13 fore
- 2472
: 2476 2 12 But
: 2478 2 12  the
: 2481 3 8  man
: 2485 9 5  there
- 2496
: 2508 2 8  said
: 2510 2 8  the
: 2513 2 8  mu
: 2516 4 5 sic
: 2528 3 8  would
: 2532 6 5 n't
: 2541 14 12  pla
: 2556 3 13 ~
: 2560 16 10 y
- 2578
: 2596 3 12 Well
: 2600 7 12  now
* 2608 7 17  in
: 2616 3 12  the
: 2620 8 12  streets
- 2630
: 2632 3 12  the
: 2636 7 13  chil
: 2644 7 12 dren
: 2652 12 15  screamed
- 2666
: 2668 3 12 The
: 2672 3 17  lo
: 2676 6 12 vers
: 2684 8 12  cried
: 2696 3 12  and
: 2700 3 12  the
: 2704 3 13  po
: 2708 6 12 ets
: 2716 12 15  dreamed
- 2730
: 2740 3 12 But
: 2744 3 13  not
: 2748 3 12  a
: 2752 7 10  word
: 2760 3 8  was
: 2764 7 12  spo
: 2772 12 10 ken
- 2786
: 2796 3 20 The
: 2800 7 20  church
: 2808 7 20  bells
: 2816 7 20  all
: 2824 3 22  were
: 2828 4 17  bro
: 2832 3 15 ~
: 2836 14 15 ken
- 2851
: 2853 6 15 And
: 2860 3 12  the
: 2864 7 15  three
: 2872 7 15  men
: 2880 7 15  I
: 2888 7 12  ad
: 2896 3 15 mi
: 2900 3 15 re
: 2904 3 15  the
: 2908 7 17  most
- 2917
: 2924 3 8 The
: 2928 3 10  Fa
: 2932 7 12 ther,
: 2940 8 13  Son
: 2952 3 12  and
: 2956 3 12  the
: 2960 3 15  Ho
: 2964 4 13 ly
: 2968 3 10 ~
: 2972 12 12  Ghost
- 2986
: 2996 3 20 They
: 3000 3 20  caught
: 3004 3 17  the
: 3008 7 17  last
: 3016 7 15  train
: 3024 7 17  for
: 3032 3 15  the
: 3036 8 8  coast
- 3046
: 3048 3 5 The
: 3052 20 8  day
: 3080 3 12  the
* 3084 23 13  mu
: 3108 7 12 sic
: 3116 24 8  died
- 3142
: 3156 3 15 We
: 3160 3 15  star
: 3164 3 15 ted
: 3168 3 17  sing
: 3172 4 15 ing
- 3178
* 3184 12 15 Bye
: 3196 3 13 ~
: 3200 7 13  bye
: 3208 3 13  Miss
: 3212 3 13  A
: 3216 3 12 me
: 3220 3 10 ri
: 3224 3 8 can
: 3228 6 10  Pie
- 3235
: 3236 7 15 Drove
: 3244 3 15  my
: 3248 3 15  che
: 3252 3 15 vy
: 3256 3 15  to
: 3260 3 12  the
: 3264 3 13  le
: 3268 4 13 vee
- 3272
: 3272 3 13 But
: 3276 3 13  the
: 3280 3 12  le
: 3284 3 10 vee
: 3288 3 8  was
: 3292 8 3  dry
- 3302
: 3308 3 15 And
: 3312 3 15  good
: 3316 3 15  o
: 3320 3 17 ~ld
: 3324 8 13  boys
- 3332
: 3332 3 13  were
: 3336 3 13  drin
: 3340 3 13 kin'
: 3344 3 12  whis
: 3348 3 10 key
: 3352 3 8  and
: 3356 8 10  rye
- 3366
: 3368 3 12 Sin
: 3372 3 10 gin'
: 3376 3 8  this
: 3380 3 5  will
: 3384 3 8  be
: 3388 2 5  the
: 3391 4 8  day
: 3396 3 7  that
: 3400 7 5  I
* 3408 16 10  die
- 3426
: 3440 3 8 This
: 3444 3 5  will
: 3448 3 8  be
: 3452 2 5  the
: 3455 4 8  day
: 3460 3 7  that
: 3464 7 5  I
: 3472 2 7  die
: 3474 2 5 ~
: 3476 20 3 ~
- 3498
* 3728 12 15 Bye
: 3740 3 13 ~
: 3744 7 13  bye
: 3752 3 13  Miss
: 3756 3 13  A
: 3760 3 12 me
: 3764 3 10 ri
: 3768 3 8 can
: 3772 6 10  Pie
- 3779
: 3780 7 15 Drove
: 3788 3 15  my
: 3792 3 15  che
: 3796 3 15 vy
: 3800 3 15  to
: 3804 3 12  the
: 3808 3 13  le
: 3812 4 13 vee
- 3816
: 3816 3 13 But
: 3820 3 13  the
: 3824 3 12  le
: 3828 3 10 vee
: 3832 3 8  was
: 3836 8 3  dry
- 3846
: 3852 3 15 And
: 3856 3 15  good
: 3860 3 15  o
: 3864 3 17 ~ld
: 3868 7 13  boys
: 3876 4 13  were
- 3880
: 3880 3 13  drin
: 3884 3 13 kin'
: 3888 3 12  whis
: 3892 3 10 key
: 3896 3 8  and
: 3900 8 10  rye
- 3910
: 3912 3 12 Sin
: 3916 3 10 gin'
: 3920 3 8  this
: 3924 3 5  will
: 3928 3 8  be
: 3932 2 5  the
: 3935 4 8  day
: 3940 3 7  that
: 3944 7 5  I
* 3952 20 10  die
- 3974
: 3984 3 8 This
: 3988 3 5  will
: 3992 3 8  be
: 3996 2 5  the
: 3999 4 8  day
: 4004 3 7  that
: 4008 7 5  I
: 4016 2 7  die
: 4018 2 5 ~
: 4020 20 3 ~
- 4042
: 4052 3 15 We
: 4056 3 15  star
: 4060 3 15 ted
: 4064 4 17  sin
: 4069 19 15 ging
- 4090
: 4116 3 15 We
: 4120 3 15  star
: 4124 3 15 ted
: 4128 4 17  sin
: 4133 19 15 ging
- 4154
: 4180 3 15 We
: 4184 3 15  star
: 4188 3 15 ted
: 4192 3 17  sin
: 4197 19 15 ging
- 4218
: 4244 3 15 We
: 4248 3 15  star
: 4252 3 15 ted
: 4256 3 17  sin
* 4261 21 15 ging
E