#TITLE:Ray Of Light
#ARTIST:Madonna
#MP3:Madonna - Ray Of Light.mp3
#COVER:Madonna - Ray Of Light [CO].jpg
#BACKGROUND:Madonna - Ray Of Light [BG].jpg
#BPM:260
#GAP:0
#ENCODING:UTF8
#LANGUAGE:Englisch
#EDITION:[SC]-Songs
: 669 2 2 Zeph
: 673 2 2 yr
: 677 2 2  in
: 681 3 2  the
: 690 4 5  sky
: 698 4 5  at
: 706 6 5  night
- 713
: 715 4 2 I
: 722 12 2  won
: 738 3 0 der
: 743 3 -2 ~
- 748
: 759 2 2 Do
: 763 4 2  my
: 771 5 0  tears
: 780 4 -2  of
: 792 8 2  mourn
: 804 4 -2 ing
- 810
: 824 4 2 Sink
: 832 3 2  be
: 837 4 0 neath
: 845 2 -2  the
: 849 8 2  sun
- 859
: 926 2 2 She's
: 930 3 2  got
: 935 2 2  her
: 939 2 2 self
: 943 3 2  a
: 951 4 5  u
: 959 4 5 ni
: 968 4 5 verse
- 974
: 976 5 2 Gone
: 984 11 2  quick
: 1000 2 0 ly
: 1004 4 -2 ~
- 1010
: 1021 4 2 For
: 1029 2 2  the
: 1033 5 0  call
: 1041 5 -2  of
: 1053 5 2  thun
: 1065 6 -2 der
- 1073
: 1086 2 2 Threat
: 1090 3 2 ens
: 1098 5 0  ev
: 1106 2 -2 ery
: 1111 17 2  o
* 1131 3 3 ~
: 1135 9 2 ~
: 1147 3 3 ~
: 1151 3 2 ~
: 1155 4 3 ~
: 1160 3 2 ~
: 1164 3 3 ~
: 1168 2 2 ~ne
- 1171
: 1172 3 10 And
: 1176 2 10  I
: 1181 3 12  feel
: 1185 7 10 ~
- 1194
: 1205 2 10 Like
: 1209 2 10  I
: 1213 3 12  just
: 1221 3 14  got
: 1229 5 10  home
- 1235
: 1237 3 8 And
: 1241 2 10  I
: 1245 3 12  feel
: 1249 9 10 ~
- 1260
: 1303 2 10 And
: 1307 2 10  I
: 1311 3 12  feel
: 1315 8 10 ~
- 1325
: 1336 2 10 Like
: 1340 2 10  I
: 1344 3 12  just
: 1352 3 14  got
: 1360 3 15  home
: 1364 3 14 ~
- 1368
: 1369 2 14 And
: 1373 2 14  I
: 1377 3 15  feel
: 1381 9 14 ~
: 1393 6 12 ~
: 1401 6 10 ~
: 1409 6 8 ~
: 1417 6 7 ~
: 1425 22 5 ~
- 1449
: 1584 3 2 Fas
: 1589 2 2 ter
: 1593 2 2  than
: 1597 3 2  the
: 1605 5 5  speed
: 1613 4 5 ing
: 1621 4 5  light
- 1627
: 1630 5 2 She's
: 1639 12 2  fly
: 1655 3 0 ing
: 1659 4 -2 ~
- 1665
: 1675 3 2 Try
: 1679 4 2 ing
: 1687 5 0  to
: 1695 4 -2  re
: 1707 6 2 mem
: 1720 4 -2 ber
- 1726
: 1740 3 2 Where
: 1745 3 2  it
: 1752 4 0  all
: 1760 2 -2  be
: 1764 12 2 gan
- 1778
: 1842 2 10 She's
* 1846 3 14  got
: 1850 2 14  her
: 1854 3 12 self
: 1859 4 12  a
: 1867 4 10  lit
: 1875 4 10 tle
: 1883 5 8  piece
: 1891 4 7  of
: 1899 4 8  hea
: 1904 8 7 ~
: 1916 10 5 ven
- 1928
: 1936 3 2 Wait
: 1940 4 2 ing
: 1949 3 0  for
: 1957 4 -2  the
: 1968 7 2  time
: 1981 9 5  when
- 1992
: 2001 4 2 Earth
: 2009 3 2  shall
: 2015 3 0  be
: 2022 4 -2  as
: 2034 9 2  o
: 2046 3 3 ~
: 2050 10 2 ~
* 2062 4 3 ~
: 2067 3 2 ~
: 2071 3 3 ~
: 2075 3 2 ~
* 2079 3 3 ~
: 2083 2 2 ~ne
- 2086
: 2087 3 10 And
: 2091 2 10  I
: 2095 3 12  feel
: 2099 7 10 ~
- 2108
: 2121 2 10 Like
: 2124 2 10  I
: 2129 3 12  just
: 2137 3 14  got
: 2145 5 10  home
- 2151
: 2153 2 8 And
: 2157 2 10  I
: 2161 3 12  feel
: 2165 15 10 ~
- 2182
: 2218 2 10 And
: 2222 2 10  I
: 2227 3 12  feel
: 2231 7 10 ~
- 2240
: 2251 2 10 Like
: 2255 2 10  I
: 2259 3 12  just
: 2267 4 14  got
* 2275 3 15  home
: 2279 3 14 ~
- 2283
: 2284 2 14 And
: 2288 2 14  I
* 2292 3 15  feel
: 2296 10 14 ~
: 2308 6 12 ~
: 2316 6 10 ~
: 2324 6 8 ~
: 2332 6 7 ~
: 2340 20 5 ~
- 2362
: 2500 3 14 Quick
: 2504 2 14 er
: 2509 2 12  than
: 2513 3 12  a
: 2521 5 10  ray
: 2529 4 10  of
: 2537 12 8  light
- 2551
: 2565 3 14 Quick
: 2569 2 14 er
: 2574 2 12  than
: 2578 3 12  a
: 2586 5 10  ray
: 2594 4 10  of
: 2602 12 8  light
- 2616
* 2631 3 17 Quick
* 2635 2 17 er
: 2639 3 15  than
: 2643 3 15  a
: 2651 4 14  ray
: 2659 4 14  of
: 2668 6 12  li
: 2676 6 10 ~
: 2684 7 8 ~
: 2693 6 7 ~
: 2701 6 5 ~
: 2709 6 3 ~
: 2717 6 2 ~
: 2725 6 3 ~
: 2733 18 5 ~ght
- 2753
: 3024 3 2 Ze
: 3029 2 2 phyr
: 3033 2 2  in
: 3037 3 2  the
: 3045 4 5  sky
: 3053 4 5  at
: 3061 4 5  night
- 3067
: 3069 5 2 I
: 3078 13 2  won
: 3095 2 0 de
: 3098 3 -2 ~r
- 3103
: 3114 3 2 Do
: 3119 4 2  my
: 3127 4 0  tears
: 3135 3 -2  of
: 3147 8 2  mourn
: 3159 6 -2 ing
- 3167
: 3179 3 3 Sink
: 3187 3 2  be
: 3191 4 0 neath
: 3199 2 -2  the
: 3204 14 2  sun
- 3220
: 3282 2 2 She's
: 3286 3 2  got
: 3290 2 2  her
: 3294 3 2 self
: 3299 3 2  a
: 3308 5 5  u
: 3316 4 5 ni
: 3324 3 5 verse
- 3329
: 3332 7 2 Gone
: 3344 10 2  quick
: 3357 3 0 ly
: 3361 2 -2 ~
- 3365
: 3376 4 2 For
: 3384 2 2  the
: 3388 4 0  call
: 3396 3 -2  of
: 3408 5 2  thun
: 3421 7 -2 der
- 3430
: 3440 3 2 Threat
: 3445 4 2 ens
: 3453 5 0  ev
: 3461 4 -2 ery
: 3469 13 2 o
: 3484 3 3 ~
: 3488 12 2 ~
* 3502 3 3 ~
: 3506 3 2 ~
* 3510 3 3 ~
: 3514 3 2 ~
* 3518 3 3 ~
: 3522 2 2 ~ne
- 3525
: 3527 3 10 And
: 3531 2 10  I
: 3535 3 12  feel
: 3539 13 10 ~
- 3554
: 3808 2 14 Quick
: 3812 2 14 er
: 3817 2 12  than
: 3821 3 12  a
: 3829 4 10  ray
: 3836 4 10  of
: 3845 4 8  light
- 3851
: 3854 3 7 Then
: 3862 3 8  gone
: 3866 7 7 ~
: 3878 5 5  for
- 3885
: 3898 3 2 Some
: 3903 4 2 one
: 3911 4 0  else
: 3919 3 -2  will
: 3931 9 2  be
: 3944 9 5  there
- 3955
: 3964 4 2 Through
: 3972 2 2  the
: 3976 3 0  end
: 3984 4 -2 less
: 3996 10 2  yea
: 4008 3 3 ~
: 4012 11 2 ~
: 4025 3 3 ~
: 4029 3 2 ~
* 4033 3 3 ~
: 4037 3 2 ~
: 4041 3 3 ~
: 4045 3 2 ~
: 4049 3 3 ~
: 4053 3 2 ~
* 4057 3 3 ~
: 4062 3 2 ~
: 4066 3 3 ~rs
- 4070
: 4070 3 2 Ah
: 4074 3 3  ah
* 4078 3 2  ah
: 4082 3 3  ah
: 4086 3 2  ah
: 4090 3 3  ah
* 4094 3 2  ah
: 4098 3 3  ah
: 4102 3 2  ah
: 4106 2 3  ah
- 4109
: 4110 3 2 Ah
: 4114 3 3  ah
* 4119 3 2  ah
: 4123 3 3  ah
: 4127 3 2  ah
: 4131 3 3  ah
* 4135 3 2  ah
: 4139 3 3  ah
: 4143 3 2  ah
: 4147 3 3  ah
- 4151
: 4152 3 2 Ah
: 4156 3 3  ah
: 4160 3 2  ah
: 4164 3 3  ah
: 4168 3 2  ah
: 4172 3 3  ah
: 4176 3 2  ah
: 4180 3 3  ah
: 4184 3 2  ah
* 4189 43 5  ah
- 4234
: 4327 2 10 She's
: 4331 3 14  got
: 4336 2 14  her
: 4340 2 12 self
: 4344 4 12  a
: 4352 4 10  u
: 4360 4 10 ni
: 4368 12 8 verse
- 4382
: 4393 2 10 She's
: 4397 2 14  got
: 4401 2 14  her
: 4405 2 12 self
: 4409 3 12  a
: 4417 4 10  u
: 4425 4 10 ni
: 4434 11 8 verse
- 4447
: 4458 2 14 She's
: 4462 2 17  got
: 4466 2 17  her
: 4470 3 15 self
: 4475 4 15  a
: 4483 5 14  u
: 4491 4 14 ni
: 4499 12 12 ver
: 4515 25 10 ~se
- 4542
: 4573 2 10 And
: 4577 2 10  I
: 4581 2 12  feel
: 4585 16 10 ~
- 4603
: 4638 2 10 And
: 4642 2 10  I
: 4647 3 12  feel
: 4651 17 10 ~
- 4670
: 4703 2 10 And
: 4707 2 10  I
: 4712 3 12  feel
: 4716 8 10 ~
- 4726
: 4737 3 10 Like
: 4741 2 10  I
: 4745 3 12  just
: 4753 3 14  got
: 4760 4 15  ho
: 4765 3 14 ~me
- 4769
: 4769 2 14  and
: 4773 2 14  I
: 4777 3 15  feel
: 4781 10 14 ~
: 4793 4 12 ~
: 4798 2 10 ~
: 4801 4 8 ~
: 4806 2 10 ~
: 4809 3 12 ~
: 4813 4 20 ~
: 4821 20 22 ~
: 4846 1 17 ~
: 4848 2 22 ~
- 4852
: 4986 3 5 Quick
: 4990 2 5 er
: 4994 2 7  than
: 4998 3 7  a
: 5006 4 10  ray
: 5014 4 10  of
: 5022 4 14  light
- 5028
: 5032 3 10 She's
* 5040 3 14  fly
: 5044 9 12 ~
: 5056 32 10 ing
- 5090
: 5117 3 8 Quick
: 5121 2 5 er
: 5125 3 8  than
: 5130 3 5  a
: 5137 3 8  ray
: 5145 4 10  of
: 5153 5 10  light
- 5159
: 5161 5 10 I'm
: 5175 10 12  fly
* 5191 23 10 ing
E