#TITLE:Toda
#ARTIST:Malú
#MP3:Malú - Toda.ogg
#COVER:Malú - Toda [CO].jpg
#BACKGROUND:Malú - Toda [BG].jpg
#EDITION:SingStar - Pop Hits ESP
#BPM:240
#GAP:3400
: 0 4 36 Uh 
: 9 4 36 uh 
-24
: 39 6 62 Ooh
: 45 5 57 
: 50 8 60 
: 59 2 58 
: 61 2 60 
: 63 12 58 
-86
: 96 5 64 Oh
: 101 6 65 
-112
: 116 6 64 Oh
: 122 5 65 
: 127 4 64 
: 131 2 62 
-144
: 224 4 36 Uh 
: 234 4 36 uh 
-249
: 286 1 57 A
: 288 3 65 quí 
: 293 3 65 me 
: 298 3 65 ves 
-304
: 305 1 57 Ren
: 307 2 65 di
: 310 2 64 da a 
: 315 1 65 tu 
: 317 2 67 vi
: 320 2 65 da 
-324
: 325 1 62 De 
: 327 3 65 diez 
: 332 3 65 a 
: 337 3 65 diez 
-343
: 344 1 62 Sin 
: 347 2 65 te
: 350 2 65 las 
: 353 1 65 ni 
: 356 2 65 jui
: 359 1 62 cios 
-361
: 361 1 62 Sin 
: 364 1 62 nin
: 367 2 67 gún 
: 371 3 67 por
: 376 3 67 qué 
-382
: 383 1 67 Sin
: 386 3 67 tién
: 389 3 65 do
: 393 1 67 me 
: 395 3 67 li
: 398 3 65 bre 
-402
: 402 2 67 Sin
: 405 3 69 tién
: 409 3 69 do
: 413 1 69 me 
: 415 3 67 tu
: 419 2 67 ya 
-422
: 422 2 67 Y a
: 425 5 65 mán
: 430 3 67 do
: 435 2 65 te 
-441
: 443 1 57 A
: 445 3 65 quí 
: 450 4 65 me 
: 454 2 65 ves 
-460
: 462 1 65 Aun
: 465 3 65 que 
: 468 2 64 li
: 472 2 65 be
: 474 3 67 ra
: 477 2 65 da 
-481
: 482 1 62 Soy 
: 485 3 65 tú 
: 489 3 65 re
: 493 3 65 hén 
-499
: 501 1 65 Se
: 504 2 65 du
: 507 2 64 ces 
: 511 1 65 en
: 513 2 65 can
: 517 2 62 tas 
-520
: 521 1 62 Qué 
: 524 3 67 pue
: 528 3 67 do ha
: 533 2 67 cer 
-538
: 540 2 67 De 
: 543 2 67 la en
: 546 1 65 cru
: 550 1 67 ci
: 553 3 67 ja
: 556 1 65 da 
-558
: 559 2 67 Que 
: 562 3 69 tie
: 565 2 69 nes 
: 569 2 69 mon
: 572 2 67 ta
: 575 2 67 da 
-578
: 578 2 67 No es
: 582 2 65 ca
: 587 3 67 pa
: 591 3 65 ré 
-598
: 601 5 65 Te a
: 607 4 67 bri
: 611 4 69 ré
: 615 2 65 
-618
: 618 2 65 Las 
: 622 2 65 puer
: 625 2 65 tas 
: 628 2 67 del 
: 631 3 69 al
: 634 3 67 ma 
-638
: 638 1 65 De 
: 641 4 64 par 
: 645 2 65 en
: 647 2 67  
: 650 3 67 par 
-656
: 657 2 64 Dis
: 661 2 64 pues
: 664 1 64 ta a ha
: 667 1 65 cer 
: 670 2 67 to
: 673 2 65 do a 
-676
: 677 2 64 Tu 
: 680 5 62 vo
: 685 3 65 lun
: 689 3 65 tad 
-695
: 697 1 62 Dis
: 700 1 62 pues
: 703 1 62 ta a ha
: 706 1 65 cer 
: 709 2 65 to
: 712 2 62 do 
-715
: 715 2 62 Lo 
: 719 3 67 que 
: 724 3 69 te 
: 729 3 67 dé 
: 733 3 69 la 
: 738 5 70 ga
: 743 4 69 
: 748 3 69 na 
-756
: 759 8 69 Qué 
: 768 4 67 me 
: 772 3 65 im
: 778 4 65 por
: 782 3 67 
: 787 3 67 ta 
-794
: 797 8 69 To
: 807 3 69 da 
-813
: 815 1 69 De a
: 817 4 67 rri
: 822 4 69 ba a a
: 827 2 65 ba
: 832 2 65 jo 
-835
: 836 10 69 To
: 846 2 69 da 
-852
: 854 2 69 En
: 856 4 67 te
: 861 3 69 ra y 
: 866 3 65 tu
: 871 2 65 ya 
-875
: 876 8 67 To
: 885 2 67 da 
-891
: 893 1 67 Aun
: 895 3 67 que 
: 900 4 69 mi 
: 905 4 65 vi
: 910 2 65 da 
-914
: 915 4 67 Co
: 920 2 65 rra 
: 924 5 69 pe
: 929 7 67 li
: 939 4 65 gro 
: 944 4 62 tu
: 949 3 62 ya 
-954
: 955 7 69 To
: 963 2 69 da 
-969
: 972 1 69 De 
: 974 1 67 fren
: 976 1 67 te y 
: 978 1 69 de 
: 980 2 69 re
: 984 2 65 pen
: 988 2 65 te 
-992
: 993 9 69 To
: 1002 3 69 da 
-1009
: 1011 1 69 De
: 1013 1 70 ses
: 1015 2 70 pe
: 1018 1 70 ra
: 1020 2 69 da
: 1023 2 67 men
: 1025 2 65 
: 1028 2 65 te 
-1031
: 1032 9 67 To
: 1042 2 67 da 
-1048
: 1050 1 67 Haz 
: 1052 3 67 to
: 1057 4 69 do 
: 1062 3 65 lo 
: 1067 2 65 que 
-1071
: 1072 3 65 Sue
: 1076 2 65 ńas 
: 1081 4 69 con
: 1086 5 67 mi
: 1091 4 65 
: 1096 3 65 go 
-1110
: 1146 1 57 A
: 1150 5 65 quí 
: 1155 4 65 me 
: 1159 4 65 ves 
-1166
: 1167 1 62 E
: 1170 1 65 res 
: 1173 1 64 mi 
: 1176 1 65 tes
: 1179 3 67 ti
: 1182 4 65 go 
-1187
: 1187 2 62 E
: 1189 2 65 res 
: 1194 2 65 mi 
: 1199 2 65 juez 
-1204
: 1206 1 65 Mi 
: 1209 2 65 tram
: 1212 3 64 pa 
: 1216 1 65 mi 
: 1219 2 67 vi
: 1222 2 65 cio y 
-1225
: 1226 2 62 Mi 
: 1229 2 67 no 
: 1233 3 67 sé 
: 1238 3 67 qué 
-1244
: 1246 1 67 Sin
: 1248 2 67 tién
: 1251 3 65 do
: 1255 1 67 me 
: 1258 1 67 fuer
: 1261 2 65 te 
-1264
: 1265 1 67 Sin
: 1268 2 69 tién
: 1271 2 69 do
: 1274 2 69 me al 
: 1277 2 67 fi
: 1281 2 67 lo 
-1284
: 1284 2 67 Y a
: 1287 3 65 mán
: 1292 3 67 do
: 1297 2 65 te 
-1302
: 1304 1 57 A
: 1307 4 65 quí 
: 1312 3 65 me 
: 1316 2 65 ves 
-1322
: 1324 2 65 Co
: 1327 2 65 mo hip
: 1329 2 64 no
: 1333 1 65 ti
: 1336 2 67 za
: 1339 2 65 da 
-1342
: 1343 2 62 Ca
: 1346 2 65 be
: 1351 2 65 za y 
: 1356 2 65 pies 
-1361
: 1363 1 65 Un 
: 1366 2 65 po
: 1369 2 64 co em
: 1373 1 65 bru
: 1376 2 67 ja
: 1378 2 65 da y 
-1382
: 1383 1 62 Pues 
: 1386 2 67 yo 
: 1390 2 67 qué 
: 1395 2 67 sé 
-1400
: 1402 2 67 Per
: 1405 2 67 di
: 1407 4 65 da en 
: 1412 1 67 la 
: 1415 3 67 ma
: 1418 2 65 gia 
-1421
: 1421 2 67 De 
: 1425 2 69 tan
: 1428 1 69 tas 
: 1431 2 69 pa
: 1435 2 67 la
: 1438 2 67 bras 
-1441
: 1441 2 67 Cre
: 1444 2 65 yén
: 1449 3 67 do
: 1454 2 65 te 
-1460
: 1463 5 65 Te a
: 1469 4 67 bri
: 1473 4 69 ré
: 1477 2 65 
-1480
: 1480 3 65 Las 
: 1484 2 65 puer
: 1487 2 65 tas 
: 1490 2 67 del 
: 1493 3 69 al
: 1496 2 67 ma 
-1499
: 1500 1 65 De 
: 1503 4 64 par 
: 1507 2 65 en
: 1509 2 67  
: 1512 3 67 par 
-1518
: 1520 2 64 Dis
: 1523 2 64 pues
: 1526 1 64 ta a ha
: 1529 1 65 cer 
: 1532 2 67 to
: 1535 2 65 do a 
-1538
: 1539 2 64 Tu 
: 1542 5 62 vo
: 1547 3 65 lun
: 1551 3 65 tad 
-1557
: 1559 1 62 Dis
: 1562 1 62 pues
: 1565 1 62 ta a ha
: 1568 1 65 cer 
: 1571 2 65 to
: 1574 2 62 do 
-1577
: 1577 2 62 Lo 
: 1581 3 67 que 
: 1586 3 69 te 
: 1591 3 67 dé 
: 1595 3 69 la 
: 1600 5 70 ga
: 1605 4 69 
: 1610 3 69 na 
-1618
: 1621 8 69 Qué 
: 1630 4 67 me 
: 1634 3 65 im
: 1640 4 65 por
: 1644 3 67 
: 1649 3 67 ta 
-1656
: 1659 8 69 To
: 1669 3 69 da 
-1675
: 1677 1 69 De a
: 1679 4 67 rri
: 1684 4 69 ba a a
: 1689 2 65 ba
: 1694 2 65 jo 
-1697
: 1698 10 69 To
: 1708 2 69 da 
-1714
: 1716 2 69 En
: 1718 4 67 te
: 1723 3 69 ra y 
: 1728 3 65 tu
: 1733 2 65 ya 
-1737
: 1738 8 67 To
: 1747 2 67 da 
-1753
: 1755 1 67 Aun
: 1757 3 67 que 
: 1762 4 69 mi 
: 1767 3 65 vi
: 1772 2 65 da 
-1776
: 1777 4 67 Co
: 1782 2 65 rra 
: 1786 5 69 pe
: 1791 7 67 li
: 1801 2 65 gro 
: 1806 4 62 tu
: 1811 2 62 ya 
-1816
: 1817 7 69 To
: 1826 2 69 da 
-1832
: 1834 1 69 De 
: 1836 1 67 fren
: 1838 1 67 te y 
: 1840 1 69 de 
: 1842 2 69 re
: 1846 2 65 pen
: 1850 2 65 te 
-1854
: 1855 9 69 To
: 1865 2 69 da 
-1871
: 1873 1 69 De
: 1875 1 70 ses
: 1877 2 70 pe
: 1880 1 70 ra
: 1882 2 69 da
: 1885 2 67 men
: 1887 2 65 
: 1890 2 65 te 
-1893
: 1894 9 67 To
: 1904 2 67 da 
-1910
: 1912 1 67 Haz 
: 1914 3 67 to
: 1919 4 69 do 
: 1924 2 65 lo 
: 1929 2 65 que 
-1933
: 1934 3 65 Sue
: 1938 2 65 ńas 
: 1943 4 69 con
: 1948 5 67 mi
: 1953 4 65 
: 1958 3 65 go 
-1972
: 1982 5 67 Con 
: 1988 2 65 tus 
: 1992 3 67 be
: 1998 3 69 sos 
: 2002 5 65 vue
: 2007 4 65 lo 
-2017
: 2022 4 67 En 
: 2027 3 65 tus 
: 2032 4 67 bra
: 2037 2 69 zos 
: 2041 5 65 ju
: 2047 4 65 ro 
-2052
: 2052 3 69 Me 
: 2057 2 69 sien
: 2061 2 70 to 
: 2066 5 69 más 
: 2076 6 60 mu
: 2086 6 62 jer
: 2093 3 60 
: 2096 3 58 
: 2099 3 60 
: 2102 2 58 
: 2104 2 60 
: 2106 8 58 
-2125
: 2134 3 67 Con
: 2139 4 65 ti
: 2144 3 65 go 
: 2149 3 67 des
: 2154 3 69 de 
: 2159 4 65 ce
: 2164 2 65 ro 
-2171
: 2174 5 67 A 
: 2179 3 65 don
: 2183 2 65 de 
: 2188 5 67 quie
: 2193 3 69 ras 
: 2198 4 65 lle
: 2203 2 65 go 
-2207
: 2208 4 69 E
: 2213 3 69 na
: 2218 4 70 mo
: 2222 6 69 rán
: 2232 5 72 do
: 2237 4 70 
: 2242 15 70 me 
-2268
: 2286 4 73 Y 
: 2291 3 73 de
: 2296 5 73 se
: 2302 3 73 án
: 2311 2 69 do
: 2313 4 67 
: 2321 6 69 te
: 2327 4 68 
: 2331 14 69 
-2355
: 2364 8 69 To
: 2374 3 69 da 
-2380
: 2382 1 69 De a
: 2384 4 67 rri
: 2389 4 69 ba a a
: 2394 2 65 ba
: 2399 2 65 jo 
-2403
: 2404 9 69 To
: 2413 2 69 da 
-2419
: 2421 2 69 En
: 2423 4 67 te
: 2428 3 67 ra y 
: 2433 3 72 tu
: 2438 17 72 ya 
-2458
: 2460 1 72 Aun
: 2462 3 72 que 
: 2467 4 72 mi 
: 2472 3 72 vi
: 2476 2 69 da 
-2482
: 2485 5 74 Co
: 2490 2 74 rra 
: 2494 5 72 pe
: 2499 4 74 li
: 2504 5 76 gro
: 2509 6 74 
: 2516 3 69 
-2521
: 2522 7 69 To
: 2531 2 69 da 
-2537
: 2539 1 69 A
: 2541 1 74 sí 
: 2543 1 74 de 
: 2545 1 72 re
: 2549 2 74 pen
: 2553 2 72 te
: 2555 2 74 
: 2557 2 72 
-2560
: 2560 10 69 To
: 2571 2 69 da 
-2576
: 2578 1 69 De
: 2580 1 70 ses
: 2582 2 70 pe
: 2585 1 70 ra
: 2587 2 69 da
: 2590 2 67 men
: 2592 2 65 
: 2595 2 65 te 
-2599
: 2600 8 67 To
: 2609 2 67 da 
-2615
: 2617 1 67 Haz 
: 2619 3 67 to
: 2624 4 69 do 
: 2629 2 65 lo 
: 2634 2 65 que 
-2638
: 2639 3 65 Sue
: 2644 2 65 ńas 
: 2648 4 69 con
: 2653 5 67 mi
: 2658 4 65 
: 2663 3 65 go 
-2673
: 2678 8 69 To
: 2688 2 69 da 
-2694
: 2696 1 69 De a
: 2698 4 69 rri
: 2703 2 69 ba a a
: 2708 2 69 ba
: 2713 2 69 jo 
-2716
: 2717 10 69 To
: 2727 2 69 da 
-2733
: 2735 2 69 En
: 2737 4 67 te
: 2742 3 69 ra y 
: 2747 3 72 tu
: 2752 15 72 ya 
-2771
: 2774 1 72 Aun
: 2776 3 72 que 
: 2781 4 72 mi 
: 2786 2 72 vi
: 2788 2 69 
: 2791 3 69 da 
-2798
: 2800 4 74 Co
: 2804 2 74 rra 
: 2808 3 72 pe
: 2814 4 69 li
: 2818 2 67 gro
: 2820 3 69 
: 2823 2 67 
: 2825 2 69 
: 2827 1 67 
: 2828 1 69 
: 2829 1 67 
: 2830 3 65 
-2835
: 2836 8 69 To
: 2845 2 69 da 
-2851
: 2853 1 69 De 
: 2855 1 67 fren
: 2857 1 67 te y 
: 2859 1 69 de 
: 2861 2 69 re
: 2865 2 70 pen
: 2869 6 70 te
: 2875 7 69 
-2888
: 2892 1 69 De
: 2894 1 69 ses
: 2896 2 69 pe
: 2899 1 69 ra
: 2901 2 69 da
: 2904 4 72 men
: 2909 12 72 te 
-2927
: 2931 1 72 Haz 
: 2933 3 72 to
: 2938 4 72 do 
: 2943 2 72 lo 
: 2948 2 69 que 
-2954
: 2956 3 74 Sue
: 2960 2 74 ńas 
: 2965 2 72 con
: 2970 5 74 mi
: 2975 1 72 go 
-2977
: 2977 4 74 Oh
: 2981 3 72 
: 2984 4 74 
: 2988 3 72 
: 2991 4 74 
: 2995 3 72 
: 2998 21 74 
-3026
: 3031 9 69 To
: 3041 2 69 da 
-3046
: 3048 1 69 En
: 3051 4 67 te
: 3056 2 69 ra y 
: 3060 4 65 tu
: 3065 2 65 ya 
-3069
: 3070 9 67 To
: 3080 2 67 da 
-3085
: 3087 1 67 Aun
: 3090 3 67 que 
: 3095 3 69 mi 
: 3100 3 65 vi
: 3105 2 65 da 
-3108
: 3109 4 67 Co
: 3113 3 65 rra 
: 3119 5 69 pe
: 3124 5 67 li
: 3129 3 65 
: 3134 2 65 gro 
: 3138 5 62 tu
: 3143 2 62 ya 
-3147
: 3148 9 69 To
: 3158 2 69 da 
E
