#TITLE:Dance With Somebody
#ARTIST:Mando Diao
#MP3:102_mando_diao-dance_with_somebody.mp3
#VIDEO:Mando Diao- Dance With Somebody.wmv
#COVER:Mando Diao - Dance With Somebody [CO].jpg
#BPM:300,05
#GAP:19750
#VIDEOGAP:-2,8
#ENCODING:UTF8
#LANGUAGE:English
#EDITION:[SC]-Songs
: 0 4 15 Break
: 7 3 16  your
: 12 4 16  hap
: 20 4 13 py
: 28 18 13  home
- 48
: 64 5 15 learn
: 71 2 16  to
: 76 6 16  sing
: 87 3 13  a
: 92 16 13 lone
- 110
: 116 2 8 to
: 120 2 8  the
: 124 2 10  mu
: 128 5 11 ~
: 136 3 8 ~
: 144 10 8 sic,
- 156
: 180 2 8 to
: 184 2 8  the
: 188 2 10  mu
: 192 5 11 ~
: 200 2 8 ~
: 208 9 8 sic
- 219
: 256 5 15 Clap
: 264 2 16  your
* 268 6 16  hands
: 277 3 13  and
: 286 14 13  shake
- 302
: 320 4 15 on
: 327 2 16  a
: 332 6 16  sum
: 340 3 13 mer's
: 348 13 13  day
- 363
: 372 2 8 to
: 376 2 8  the
: 380 2 10  mu
: 384 6 11 ~
: 392 2 8 ~
: 400 12 8 sic,
- 414
: 436 2 8 to
: 440 2 8  the
: 444 2 10  mu
* 448 9 11 ~
: 465 10 6 sic
- 477
: 492 2 1 I'm
: 496 3 8  fal
: 500 2 6 ling
: 504 2 4  in
: 508 8 6  love
: 520 2 6  with
: 524 2 4  your
: 528 3 6  fa
: 533 3 4 vorite
: 540 5 6  so~
: 547 3 8 ng
- 552
: 560 2 8 I'm
: 564 3 6  gon
: 568 2 4 na
: 572 7 6  sing
: 584 2 4  it
: 588 5 6  all
: 596 4 4  night
: 604 5 6  lo
: 612 3 8 ~ng
- 617
: 624 2 1 I'm
: 628 3 4  gon
: 632 2 6 na
* 636 3 8  da
: 640 3 1 ~nce
: 648 2 1  with
: 652 2 -1  some
: 656 3 1 bo
: 660 2 4 dy
- 664
: 668 2 6 da
: 672 3 8 ~
: 676 2 1 ~nce
: 680 2 1  with
: 684 2 -1  some
: 688 3 1 bo
: 692 2 4 dy
- 696
: 700 3 6 da
: 704 4 8 ~nce
: 716 3 6  da
: 720 4 8 ~nce
: 732 3 6  da
: 736 3 8 ~
: 740 5 4 ~nce
- 746
: 748 2 1 I'm
: 752 3 8  fal
: 756 2 6 ling
: 760 2 4  in
* 764 7 6  love
: 776 2 6  with
: 780 2 4  your
: 784 3 6  fa
: 788 4 4 vorite
: 796 6 6  so
: 804 3 8 ~ng
- 809
: 816 2 8 I'm
: 820 3 6  gon
: 824 2 4 na
: 828 6 6  sing
: 840 2 4  it
: 844 5 6  all
: 852 4 4  night
: 860 6 6  lo
: 868 3 8 ~ng
- 873
: 880 2 1 I'm
: 884 3 4  gon
: 888 2 6 na
: 892 3 8  da
: 896 3 1 ~nce
: 904 2 1  with
: 908 2 -1  some
: 912 3 1 bo
: 916 2 4 dy
- 920
: 924 3 6 da
* 928 3 8 ~
: 932 2 1 ~nce
: 936 2 1  with
: 940 2 -1  some
: 944 3 1 bo
: 948 2 4 dy
- 952
: 956 3 6 da
: 960 4 8 ~nce
- 966
: 972 3 6 da
: 976 4 8 ~nce
- 982
: 988 3 6 da
* 992 6 8 ~
: 1000 2 6 ~
: 1004 13 4 ~
: 1020 16 1 ~nce
- 1038
: 1076 2 -1 I'm
: 1080 3 1  gon
: 1084 2 -1 na
* 1088 5 4  dance
: 1096 2 1  with
: 1100 2 -1  some
: 1104 3 1 bo
: 1109 9 1 dy
- 1120
: 1280 4 15 When
: 1287 3 16  you're
: 1292 6 16  all
: 1300 3 13  a
: 1308 11 13 lone
- 1321
: 1344 4 15 We
: 1352 2 16  be
: 1356 5 16 come
: 1364 4 13  your
: 1373 11 13  home,
- 1386
: 1396 2 8 we're
: 1400 2 8  the
* 1404 9 11  mu
: 1416 4 8 ~
: 1424 10 8 sic,
- 1436
: 1460 2 8 we're
: 1464 2 8  the
: 1468 8 11  mu
: 1480 4 8 ~
: 1488 9 8 sic
- 1499
: 1536 3 15 When
: 1541 3 16  your
: 1548 5 16  love's
: 1556 3 13  a
: 1564 12 13 way
- 1578
: 1600 3 15 and
: 1605 3 16  you
: 1612 6 16  feel
: 1620 4 13  be
: 1628 11 13 trayed
- 1641
: 1652 2 8 we're
: 1656 2 8  the
: 1660 8 11  mu
: 1672 2 8 ~
: 1680 11 8 sic,
- 1693
: 1716 4 8 sweet
* 1724 8 11  mu
: 1736 4 6 ~
: 1744 10 6 sic!
- 1756
: 1772 2 1 I'm
: 1776 3 8  fal
: 1780 2 6 ling
: 1784 2 4  in
: 1788 8 6  love
: 1800 2 6  with
: 1804 2 4  your
: 1808 3 6  fa
: 1812 3 4 vorite
: 1820 5 6  so
: 1828 4 8 ~ng
- 1834
: 1840 2 8 I'm
: 1844 3 6  gon
: 1848 2 4 na
: 1852 7 6  sing
: 1864 2 4  it
: 1868 6 6  all
: 1876 4 4  night
: 1884 6 6  lo
: 1892 4 8 ~ng
- 1898
: 1904 2 1 I'm
: 1908 3 4  gon
: 1912 2 6 na
: 1916 3 8  da
: 1920 3 1 ~nce
: 1928 2 1  with
: 1932 2 -1  some
: 1936 3 1 bo
: 1940 2 4 dy
- 1944
: 1948 2 6 da
* 1952 3 8 ~
: 1956 2 1 ~nce
: 1960 2 1  with
: 1964 2 -1  some
: 1968 3 1 bo
: 1972 2 4 dy
- 1976
: 1980 3 6 da
: 1984 4 8 ~nce
: 1996 3 6  da
: 2000 4 8 ~nce
: 2012 3 6  da
: 2016 3 8 ~
: 2020 5 4 ~nce
- 2026
: 2028 2 1 I'm
: 2032 3 8  fal
: 2036 2 6 ling
: 2040 2 4  in
: 2044 7 6  love
: 2056 2 6  with
: 2060 2 4  your
: 2064 3 6  fa
: 2068 4 4 vorite
: 2076 6 6  so
: 2084 4 8 ~ng
- 2090
: 2096 2 8 I'm
: 2100 3 6  gon
: 2104 2 4 na
* 2108 6 6  sing
: 2120 2 4  it
: 2124 6 6  all
: 2132 4 4  night
: 2140 6 6  lo
: 2148 3 8 ~ng
- 2153
: 2160 2 1 I'm
: 2164 3 4  gon
: 2168 2 6 na
* 2172 3 8  da
: 2176 3 1 ~nce
: 2184 2 1  with
: 2188 2 -1  some
: 2192 3 1 bo
: 2196 2 4 dy
- 2200
: 2204 3 6 da
: 2208 3 8 ~
: 2212 2 1 ~nce
: 2216 2 1  with
: 2220 2 -1  some
: 2224 3 1 bo
: 2228 2 4 dy
- 2232
: 2236 3 6 da
: 2240 4 8 ~nce
- 2246
: 2252 3 6 da
: 2256 4 8 ~nce
- 2262
: 2268 3 6 da
: 2272 6 8 ~
: 2280 3 6 ~
: 2284 13 4 ~
* 2300 14 1 ~nce
- 2316
: 2332 9 13 Dance,
- 2343
: 2348 4 1 da
: 2354 4 -4 ~nce
- 2360
: 2364 3 -1 da
: 2368 3 1 ~
: 2372 2 -4 ~nce
- 2376
: 2380 10 1 dance,
- 2392
: 2396 9 1 dance,
- 2407
: 2412 6 1 da
: 2420 4 -1 ~nce
- 2426
: 2428 6 4 da
: 2436 3 1 ~nce
- 2441
: 2444 8 13 dance,
- 2454
: 2460 6 4 da
: 2468 3 1 ~nce
- 2473
: 2476 8 13 dance,
- 2486
: 2492 9 4 dance,
- 2503
: 2508 9 13 dance,
- 2519
: 2524 3 6 da
: 2528 5 8 ~nce
- 2535
: 2540 8 13 dance,
- 2550
: 2556 6 6 da
: 2564 3 4 ~nce
- 2569
: 2572 7 13 dance,
- 2581
: 2588 5 6 da
: 2594 3 4 ~nce
- 2599
: 2604 8 13 dance,
- 2614
: 2620 7 8 dance,
- 2629
: 2636 7 13 dance,
- 2645
: 2652 8 7 dance,
- 2662
: 2668 7 13 dance,
- 2677
: 2684 3 6 da
: 2688 6 8 ~nce
- 2696
: 2700 7 13 dance,
- 2709
* 2716 3 6 da
* 2720 5 8 ~nce
- 2727
: 2732 8 13 dance,
: 2748 7 13  dance,
: 2764 7 13  dance,
: 2780 7 13  dance,
: 2796 7 13  dance!
- 2805
* 3292 14 6 Yeah,
- 3307
: 3308 2 1 I'm
: 3312 3 8  fal
: 3316 2 6 ling
: 3320 2 4  in
: 3324 8 6  love
: 3336 2 6  with
: 3340 2 4  your
: 3344 3 6  fa
: 3349 3 4 vorite
: 3356 5 6  so
: 3364 4 8 ~ng
- 3370
: 3376 2 8 I'm
: 3380 3 6  gon
: 3384 2 4 na
* 3388 8 6  sing
: 3400 2 4  it
: 3404 6 6  all
: 3412 4 4  night
: 3420 5 6  lo
: 3428 4 8 ~ng
- 3434
: 3440 2 1 I'm
: 3444 3 4  gon
: 3448 2 6 na
: 3452 3 8  da
: 3456 3 1 ~nce
: 3464 2 1  with
: 3468 2 -1  some
: 3472 3 1 bo
: 3476 2 4 dy
- 3480
: 3484 2 6 da
* 3488 3 8 ~
: 3492 2 1 ~nce
: 3496 2 1  with
: 3500 2 -1  some
: 3504 3 1 bo
: 3508 2 4 dy
- 3512
: 3516 3 6 da
: 3520 4 8 ~nce
: 3532 3 6  da
: 3536 4 8 ~nce
: 3548 3 6  da
: 3552 3 8 ~
: 3556 4 4 ~nce
- 3562
: 3564 2 1 I'm
: 3568 3 8  fal
: 3572 2 6 ling
: 3576 2 4  in
: 3580 8 6  love
: 3592 2 6  with
: 3596 2 4  your
: 3600 3 6  fa
: 3605 3 4 vorite
: 3612 5 6  so
: 3620 4 8 ~ng
- 3626
: 3632 2 8 I'm
: 3636 3 6  gon
: 3640 2 4 na
: 3644 8 6  sing
: 3656 2 4  it
: 3660 5 6  all
: 3668 4 4  night
: 3676 5 6  lo
: 3684 3 8 ~ng
- 3689
: 3696 2 1 I'm
: 3700 3 4  gon
: 3704 2 6 na
: 3708 3 8  da
: 3712 3 1 ~nce
: 3720 2 1  with
: 3724 2 -1  some
: 3728 3 1 bo
: 3732 2 4 dy
- 3736
: 3740 2 6 da
* 3744 3 8 ~
: 3748 2 1 ~nce
: 3752 2 1  with
: 3756 2 -1  some
: 3760 3 1 bo
: 3764 2 4 dy
- 3768
: 3772 3 6 da
: 3776 4 8 ~nce
: 3788 3 6  da
: 3792 4 8 ~nce
: 3804 3 6  da
: 3808 3 8 ~
: 3812 5 4 ~nce
- 3818
: 3820 2 1 I'm
: 3824 3 8  fal
: 3828 2 6 ling
: 3832 2 4  in
* 3836 7 6  love
: 3848 2 6  with
: 3852 2 4  your
: 3856 3 6  fa
: 3861 3 4 vorite
: 3868 5 6  so
: 3876 4 8 ~ng
- 3882
: 3888 2 8 I'm
: 3892 3 6  gon
: 3896 2 4 na
: 3900 7 6  sing
: 3912 2 4  it
: 3916 5 6  all
: 3924 4 4  night
: 3932 5 6  lo
* 3940 4 8 ~ng
- 3946
: 3952 2 1 I'm
: 3956 3 4  gon
: 3960 2 6 na
: 3964 3 8  da
: 3968 3 1 ~nce
: 3976 2 1  with
: 3980 2 -1  some
: 3984 3 1 bo
: 3988 2 4 dy
- 3992
: 3996 2 6 da
: 4000 3 8 ~
: 4004 2 1 ~nce
: 4008 2 1  with
: 4012 2 -1  some
: 4016 3 1 bo
: 4020 2 4 dy
- 4024
: 4028 3 6 da
: 4032 4 8 ~nce
: 4044 3 6  da
: 4048 4 8 ~nce
: 4060 3 6  da
* 4064 3 8 ~
: 4068 5 4 ~nce
- 4074
: 4076 2 1 I'm
: 4080 3 8  fal
: 4084 2 6 ling
: 4088 2 4  in
: 4092 7 6  love
: 4104 2 6  with
: 4108 2 4  your
: 4112 3 6  fa
: 4117 3 4 vorite
: 4124 5 6  so
: 4132 4 8 ~ng
- 4138
: 4144 2 8 I'm
: 4148 3 6  gon
: 4152 2 4 na
: 4156 7 6  sing
: 4168 2 4  it
: 4172 5 6  all
: 4180 4 4  night
: 4188 5 6  lo
: 4196 4 8 ~ng
- 4202
: 4208 2 1 I'm
: 4212 3 4  gon
: 4216 2 6 na
* 4220 3 8  da
: 4224 3 1 ~nce
: 4232 2 1  with
: 4236 2 -1  some
: 4240 3 1 bo
: 4244 2 4 dy
- 4248
: 4252 2 6 da
: 4256 3 8 ~
: 4260 2 1 ~nce
: 4264 2 1  with
: 4268 2 -1  some
: 4272 3 1 bo
: 4276 2 4 dy
- 4280
: 4284 3 6 da
* 4288 4 8 ~nce
- 4294
: 4300 3 6 da
: 4304 3 8 ~nce
- 4309
: 4316 3 6 da
: 4320 6 8 ~
: 4328 2 6 ~
: 4332 12 4 ~
: 4348 13 1 ~nce
E