#TITLE:I Want To Know What Love Is
#ARTIST:Mariah Carey
#LANGUAGE:English
#MP3:I Want To Know What Love Is.mp3
#COVER:I Want To Know What Love Is.jpg
#VIDEO:I Want To Know What Love Is.avi
#BPM:242,28
#GAP:28460
: 0 1 -2 I 
: 2 2 -2 go
: 4 2 -2 tta 
: 9 5 -2 take 
: 15 3 -4 a 
: 18 3 -4 lit
: 21 2 -6 tle 
: 26 13 -6 ti
: 40 2 -9 me 
- 44
: 72 1 -2 A 
: 74 2 -2 li
: 76 3 -2 ttle 
: 81 5 -1 time 
: 87 2 -2 to 
: 90 3 -4 think 
: 96 5 -6 things 
: 104 4 -2 ov
: 110 20 -2 er 
- 132
: 168 1 -2 I 
: 171 2 -2 be
: 173 3 -2 tter 
: 179 3 -2 read 
: 183 2 -4 be
: 188 3 -4 tween 
: 193 2 -6 the 
: 196 9 -6 li
: 206 2 -9 nes 
- 210
: 242 2 -6 In 
: 246 2 -4 case 
: 250 3 -2 I 
: 256 6 -1 need 
: 263 2 -2 it 
: 268 3 -4 when 
: 271 2 -6 I'm 
: 277 5 -2 col
: 284 18 -2 de
* 302 2 -4 r
* 304 2 -2 ~
* 306 2 -4 ~
* 308 2 -6 ~
* 310 1 -9 ~ 
- 313
F 330 6 -6 Hey 
- 338
: 358 4 3 In 
: 364 6 6 my 
: 371 4 8 li
: 375 2 6 f
: 377 3 3 e 
: 407 4 3 there's 
: 413 2 3 be
: 415 2 3 en 
: 420 5 10 heart
: 425 3 8 ache 
: 431 2 6 and 
: 438 2 5 pa
: 440 4 3 in 
- 446
: 468 5 3 I 
: 475 8 6 don't 
: 487 3 8 kn
: 490 3 6 o
: 493 2 3 w 
: 504 2 3 if 
: 508 2 3 I 
: 512 3 3 can 
* 517 5 10 fa
: 522 5 8 ce 
: 534 2 6 it 
: 537 2 5 a
: 541 2 5 ga
: 543 6 3 in 
- 551
: 572 4 10 Can't 
: 580 6 6 stop 
: 590 4 8 n
: 594 2 6 o
: 596 2 3 w, 
: 607 2 3 I've 
: 610 3 3 tra
: 614 6 10 ve
: 622 3 8 led 
: 629 2 6 s
: 631 2 8 o 
: 638 2 6 f
: 640 5 3 ar 
- 647
: 658 2 3 To 
: 662 8 6 change 
: 674 5 10 this 
: 685 10 11 lo
: 697 4 10 nely 
: 704 3 6 li
: 709 17 3 ve
* 726 3 3 ~
* 729 3 1 ~
* 732 2 3 ~
* 734 4 3 ~
* 738 14 1 ~
* 752 2 3 ~
* 754 3 1 ~
* 757 8 1 ~
* 765 2 3 ~ 
- 769
: 774 2 10 I 
: 777 2 10 wa
: 780 2 10 nna 
: 783 4 10 know 
: 789 3 6 what 
: 793 7 6 love 
: 802 40 8 is 
- 844
: 876 3 1 I 
: 880 4 11 want 
: 887 4 10 You 
: 892 2 10 to 
: 899 5 10 sh
: 904 2 8 o
: 906 2 6 w 
: 910 24 8 me 
- 936
: 968 2 10 I 
: 971 2 10 wa
: 973 1 10 nna 
: 977 3 10 feel 
: 983 2 6 what 
: 986 7 6 love 
: 996 4 8 is
* 1000 4 10 ~
: 1004 36 8 ~ 
- 1042
: 1071 2 1 I 
: 1074 4 11 know 
: 1081 4 10 You 
: 1087 2 10 can 
: 1093 5 10 sh
: 1098 2 8 o
: 1100 2 6 w 
: 1104 44 8 me 
- 1150
: 1211 1 -2 I'm 
: 1213 2 -2 go
: 1215 2 -2 nna 
: 1220 4 -2 take 
: 1225 1 1 a 
: 1228 2 -4 lit
: 1231 2 -6 tle 
: 1235 10 -6 ti
: 1246 2 -9 me 
- 1250
: 1284 1 -6 A 
: 1286 2 -4 li
: 1289 2 -2 ttle 
: 1293 10 -1 time 
: 1307 2 -2 to 
: 1310 2 -4 look 
: 1314 2 -6 a
: 1319 4 -2 round 
: 1326 4 -2 me
: 1334 16 -2 ~ 
- 1352
: 1382 2 -2 I've 
: 1385 3 -2 got 
: 1391 5 3 no
: 1397 2 1 where 
: 1401 3 -2 left 
: 1406 1 -4 to 
* 1409 16 -6 hide
: 1428 2 -4 ~
: 1430 3 -2 ~
: 1433 10 -4 ~
: 1443 2 -2 ~ 
- 1447
: 1453 2 -6 It 
: 1457 2 -4 looks 
: 1462 3 -2 like 
: 1468 9 -1 love 
: 1479 1 -1 has 
: 1484 5 1 fin
: 1490 2 3 ally 
: 1496 6 -4 found 
: 1505 3 1 me
: 1509 4 -2 ~
: 1515 4 -2 ~
: 1521 4 -2 ~ 
- 1527
: 1541 5 -2 Oh
: 1547 4 1 ~
: 1552 2 3 ~
: 1555 2 6 ~ 
* 1559 6 10 I
: 1565 2 8 n 
: 1571 7 6 My 
: 1582 6 8 li
: 1588 2 6 f
: 1590 2 3 e 
- 1594
: 1620 2 3 There's 
: 1625 2 3 been 
: 1631 6 10 heart
: 1638 2 8 ache 
: 1643 2 6 and 
: 1650 2 5 pa
: 1652 6 3 in 
- 1660
: 1680 4 3 I 
: 1687 5 6 don't 
: 1698 6 8 kno
: 1705 2 10 w 
: 1716 2 3 if 
: 1720 2 3 I 
: 1724 3 3 can 
: 1730 5 10 fa
: 1735 5 8 ce 
: 1745 2 6 it 
: 1748 2 5 a
: 1753 3 5 ga
: 1756 4 3 in 
- 1762
: 1783 3 13 Ca
: 1786 2 10 n't 
: 1793 4 10 stop 
: 1801 2 8 n
: 1803 6 6 o
: 1809 2 3 w 
: 1818 2 3 I've 
: 1822 2 3 tra
: 1826 6 10 ve
: 1834 2 8 led 
: 1841 2 6 s
: 1843 2 8 o 
: 1850 2 6 f
: 1852 5 3 ar 
- 1859
: 1870 2 3 To 
: 1874 7 6 change 
: 1887 4 10 this 
: 1899 4 11 lo
: 1904 5 10 ne
: 1910 3 10 ly 
: 1916 3 6 li
: 1919 20 3 ve
* 1939 3 3 ~
* 1942 2 1 ~
* 1945 6 6 ~
* 1952 4 10 ~
* 1957 4 10 ~
* 1964 2 6 ~
* 1967 9 8 ~
* 1977 2 10 ~ 
- 1981
: 1986 2 1 Oh
: 1989 2 1 ~
: 1992 2 1 ~
* 1996 4 10 ~
: 2001 2 6 ~
: 2004 7 6 ~ 
: 2013 28 8 is 
- 2043
: 2055 6 1 Oh
: 2062 2 3 ~
: 2065 2 6 ~
: 2068 3 8 ~
: 2073 7 6 ~
: 2081 2 8 ~ 
- 2085
: 2088 2 1 I 
: 2092 4 11 want 
: 2099 4 10 You 
: 2104 2 10 to 
: 2111 5 10 sh
: 2116 3 8 ow 
: 2122 12 8 me
: 2138 1 1 ~
* 2139 7 15 ~
* 2146 2 13 ~
* 2148 2 11 ~
* 2150 4 10 ~
* 2154 12 8 ~
* 2166 3 6 ~
* 2169 4 10 ~ 
- 2175
: 2179 2 10 I 
: 2182 2 10 wa
: 2184 1 10 nna 
: 2188 3 10 feel 
: 2194 2 6 what 
: 2198 6 6 love 
: 2208 8 8 is
: 2217 2 6 ~
: 2220 4 10 ~
: 2225 4 8 ~ 
- 2231
: 2238 3 10 Feel 
: 2243 3 6 what 
: 2247 3 6 love 
: 2257 8 13 is
: 2268 5 10 ~
: 2273 3 8 ~ 
- 2277
: 2279 2 10 And 
: 2282 1 10 I 
: 2285 6 15 know 
: 2293 3 10 You 
: 2298 2 10 can 
: 2304 4 15 show 
: 2310 8 13 m
: 2318 1 10 e, 
: 2328 2 15 sh
: 2331 1 10 ow 
: 2334 10 13 m
: 2344 2 15 e 
- 2347
: 2349 2 15 I 
: 2352 2 10 wa
: 2355 2 11 nna 
: 2359 8 13 know, 
* 2371 11 15 Oh
* 2382 10 13 ~
* 2394 11 12 ~
* 2408 37 12 ~ 
- 2447
: 2468 10 17 Oh
: 2479 4 16 ~
: 2484 5 14 ~
: 2491 2 12 ~
: 2494 2 9 ~
: 2498 8 14 ~
: 2509 12 12 ~
: 2521 2 14 ~ 
- 2525
: 2570 2 2 And 
: 2573 2 5 I'm 
: 2577 4 5 feel
: 2582 2 5 ing 
: 2586 3 5 so 
: 2592 3 9 much 
: 2600 4 9 lo
: 2604 2 7 v
: 2606 5 5 e 
- 2613
: 2615 2 12 I 
: 2619 2 12 wa
: 2621 2 12 nna 
* 2625 2 12 feel
* 2627 3 14 ~
* 2630 3 17 ~
* 2633 6 17 ~
* 2639 2 19 ~
* 2641 3 21 ~
* 2644 2 22 ~
* 2646 6 21 ~
* 2652 3 19 ~
* 2655 12 19 ~
* 2667 2 21 ~ 
- 2671
: 2712 2 5 And 
: 2715 2 5 I
: 2717 2 7 ~ 
: 2722 5 14 know 
: 2728 4 12 You 
: 2734 2 12 can 
: 2740 7 14 sh
: 2747 3 12 ow 
: 2752 6 12 me 
- 2760
: 2765 5 14 E
: 2770 3 12 h
: 2777 8 12 ~ 
* 2789 10 14 Eh
* 2801 10 12 ~ 
: 2813 3 14 E
: 2817 2 12 h
: 2820 2 9 ~ 
: 2826 3 14 E
* 2830 18 12 h
: 2849 2 14 ~ 
- 2853
* 2873 8 14 Oh, 
: 2896 6 14 Eh
: 2903 3 14 ~
: 2906 3 12 ~
: 2909 2 9 ~ 
- 2913
: 2921 2 9 Let's 
: 2927 2 9 talk 
: 2930 2 10 a
: 2933 7 12 bout 
: 2946 3 9 lo
: 2949 4 7 ve 
E
