#TITLE:You're The Only One
#ARTIST:Maria Mena
#MP3:Maria Mena - You're The Only One.mp3
#COVER:Maria Mena - You're The Only One [CO].jpg
#BACKGROUND:Maria Mena - You're The Only One [BG].jpg
#BPM:248
#GAP:7500
#VIDEOGAP:0
#ENCODING:UTF8
#LANGUAGE:English
#GENRE:Pop
#EDITION:SingStar Pop Hits Nordic
#YEAR:2004
: 0 1 62 Well
: 2 2 64  I
: 5 4 64  saw
: 9 1 62  you
: 11 2 62  with
: 14 2 61  your
: 17 4 62  hands
- 22
: 23 1 61 A
: 25 2 62 bove
: 29 2 61  your
: 32 4 62  head
- 38
: 41 2 62 Spin
: 43 1 61 ning
: 45 2 61  a
: 47 3 62 round
- 51
: 53 2 62 Try
: 56 2 61 ing
: 59 2 62  not
: 63 1 61  to
: 65 2 62  look
* 69 4 62  down
- 74
: 75 1 62 But
: 77 2 61  you
: 81 2 62  did
: 84 1 61  and
: 86 2 62  you
: 91 5 62  fell
- 98
: 102 5 57 Hard
: 114 2 61  on
: 117 2 57  the
: 121 6 57  ground
- 128
: 128 2 61 Then
: 130 2 64  you
: 133 2 64  stumbl
: 137 1 62 ed
: 138 1 61  a
: 140 3 62 round
- 144
: 145 2 62 For
: 147 1 61  a
: 149 2 62  good
: 153 2 61  ten
: 156 1 62  mi
: 157 3 61 nutes
- 161
: 161 1 61 And
: 163 2 62  I
: 168 2 62  said
: 170 2 61  I'd
: 173 2 62  ne
: 175 2 61 ver
- 178
: 179 1 62 Seen
: 181 1 62  a
: 183 1 62 ny
: 185 2 62 one
: 189 2 62  look
- 192
: 193 2 61 So
* 197 2 61  dumb
: 201 1 59  be
: 203 4 59 fore
- 209
: 211 1 59 And
: 213 1 59  you
: 215 4 61  laughed
: 221 2 59  and
: 225 1 59  said
- 227
: 227 3 57 ''I
: 232 3 59  still
: 236 2 57  know
: 239 2 57  how
- 242
: 242 2 54 To
: 245 2 57  turn
: 248 2 61  you
: 250 4 54  on
: 256 4 52  though''
- 262
: 273 2 57 And
: 277 3 64  you're
: 281 2 66 ~
: 285 2 68 the
: 289 7 69  on
: 297 4 68 ly
: 301 2 66 ~
: 304 2 66 one
: 306 5 64 ~
- 313
: 317 7 66 Who
: 324 2 64 ~
- 328
: 337 5 64 Drags
: 345 4 64  me
: 353 2 69  kick
: 357 3 64 ing
: 361 2 64  and
: 369 3 69  scream
: 373 2 64 ing
- 376
: 377 2 64 Through
: 381 3 66  fast
: 389 6 66  dreams
- 397
: 401 2 57 And
: 405 3 64  you're
: 409 3 66 ~
: 413 3 68 the
: 417 7 69  on
: 425 4 68 ly
: 429 3 66 ~
: 433 3 66 one
: 436 5 64 ~
- 443
: 445 8 66 Who
: 453 2 64 ~
- 457
: 465 6 64 Knows
: 473 4 64  ex
* 480 4 73 act
: 485 2 69 ly
: 488 1 69  what
: 490 5 69  I
: 497 4 73  mean
: 501 4 71 ~
: 505 9 69 ~
- 516
: 637 2 61 And
: 639 2 64  I
: 643 3 64  pro
: 646 1 62 bab
: 648 2 62 ly
: 652 1 62  for
: 654 2 62 got
- 657
: 657 2 61 To
: 660 2 62  tell
: 663 2 61  you
: 665 2 62  this
- 668
: 669 2 61 Like
: 672 2 62  that
: 676 3 62  time
: 681 1 61  when
: 682 2 62  I
: 686 1 61  for
: 688 2 62 got
- 691
: 691 2 61 To
: 694 2 62  tell
: 697 2 61  you
: 700 2 62  'bout
: 704 1 61  the
* 708 5 62  scar
- 714
: 714 5 61 Remember
: 720 6 61  how
: 728 7 61  uncomfortable
- 736
: 736 2 61 That
: 740 3 59  made
: 744 2 61  you
: 749 4 61  feel?
- 755
: 766 1 61 See
: 768 2 64  you're
: 772 2 64  not
: 776 1 62  what
: 778 1 62  I
: 780 2 61  ex
: 785 3 62 pec
: 790 2 61 ted
- 794
: 798 1 62 But
: 800 2 62  you're
: 803 2 61  the
: 806 2 62  on
: 808 1 61 ly
: 810 2 62  one
- 813
: 813 2 61 Who
: 817 4 62  knows
: 823 1 62  how
: 825 1 61  to
* 827 2 62  han
: 830 2 62 dle
: 834 2 62  me
- 837
: 837 1 61 And
: 838 2 61  you're
: 844 2 62  such
: 849 2 61  a
: 854 3 61  great
: 861 5 61  kisser
- 867
: 867 2 59 And
: 870 2 59  I
: 873 3 59  know
: 877 2 57  that
: 880 2 57  you
: 883 5 57  agree
- 890
: 912 2 57 And
: 916 3 64  you're
: 920 2 66 ~
: 924 2 68 the
: 928 7 69  on
: 936 4 68 ly
: 940 2 66 ~
: 943 3 66 one
: 946 4 64 ~
- 952
: 957 7 66 Who
: 964 2 64 ~
- 968
: 980 5 64 Drags
: 987 3 64  me
: 993 2 69  kick
: 997 2 64 ing
: 1000 2 64  and
: 1007 3 69  scream
: 1012 2 64 ing
- 1015
: 1016 2 64 Through
: 1020 4 66  fast
: 1028 7 66  dreams
- 1037
: 1040 2 57 And
: 1044 3 64  you're
: 1048 3 66 ~
: 1052 3 68 the
: 1056 5 69  on
: 1064 4 68 ly
: 1068 3 66 ~
: 1072 3 66 one
: 1075 5 64 ~
- 1082
: 1084 8 66 Who
: 1092 2 64 ~
- 1096
: 1104 6 64 Knows
: 1112 4 64  ex
: 1119 4 73 act
: 1124 2 69 ly
: 1127 1 69  what
: 1129 5 69  I
: 1136 4 73  mean
: 1140 4 71 ~
: 1144 10 69 ~
- 1156
* 1407 3 64 I
: 1411 2 64  hope
: 1415 1 61  you
: 1417 2 62  can
: 1421 2 61  for
: 1424 3 62 give
: 1428 2 61  me
- 1431
: 1432 2 62 For
: 1434 2 61  that
: 1440 4 62  time
: 1445 1 61  when
: 1446 2 62  I
: 1450 2 62  put
- 1453
: 1453 3 61 My
: 1458 4 62  hand
: 1463 1 61  bet
: 1465 2 62 ween
: 1468 3 61  your
: 1472 3 62  legs
- 1476
: 1478 2 61 And
: 1483 1 62  said
: 1484 2 62  it
: 1487 2 61  was
: 1492 4 61  small
- 1498
: 1501 1 57 'Cause
: 1503 2 57  it's
: 1507 4 57  really
: 1512 3 61  not
: 1517 1 57  at
: 1519 4 57  all
- 1525
: 1535 2 61 I
: 1539 2 64  guess
: 1543 2 62  there's
: 1547 2 62  just
: 1550 1 61  a
: 1553 2 62  part
: 1556 2 61  of
: 1559 2 62  me
- 1562
: 1562 2 61 That
: 1566 2 62  likes
: 1571 1 61  to
: 1574 3 62  bring
: 1578 2 61  you
: 1581 6 62  down
- 1588
: 1590 2 62 Just
: 1593 1 61  to
: 1597 2 62  keep
: 1601 1 61  you
: 1603 1 62  a
: 1605 3 62 round
* 1608 2 61 ~
- 1612
: 1617 2 61 'Cause
: 1620 2 61  the
: 1623 2 62  day
: 1627 2 61  that
: 1630 2 62  you
: 1633 1 62  re
: 1634 2 62 a
: 1636 2 61 lise
- 1639
: 1640 1 61 How
: 1642 5 62  amazing
: 1648 1 62  you
: 1649 2 62  are
- 1652
: 1652 1 62 You're
: 1654 2 62  gonna
: 1659 4 63  leave
: 1665 4 64  me
- 1671
: 1680 2 57 And
: 1683 4 64  you're
: 1687 3 66 ~
: 1691 3 68 the
: 1696 6 69  on
: 1704 4 68 ly
: 1708 2 66 ~
: 1711 3 66 one
: 1714 5 64 ~
- 1721
: 1724 7 66 Who
: 1731 2 64 ~
- 1735
: 1743 5 64 Holds
: 1751 6 64  my
: 1759 7 69  hair
: 1767 4 64  back
- 1772
: 1772 1 64 When
: 1774 2 64  I'm
: 1780 3 69  drunk
: 1784 4 64  and
* 1790 3 67  get
: 1799 3 66  sick
- 1804
: 1807 2 57 And
: 1811 4 64  you're
: 1815 3 66 ~
: 1819 3 68 the
: 1823 7 69  on
: 1832 3 68 ly
: 1835 3 66 ~
: 1839 3 66 one
: 1842 5 64 ~
- 1849
: 1851 8 66 Who
: 1859 2 64 ~
- 1863
: 1871 6 64 Knows
: 1879 4 64  ex
: 1887 4 69 act
: 1894 5 68 ly
: 1899 3 66 ~
: 1903 3 66 what
: 1907 3 64  I
: 1911 7 64  mean
: 1919 3 64  ah
: 1922 2 61 ~
: 1924 4 59 ~
- 1930
: 1935 2 57 And
: 1939 4 64  you're
: 1943 3 66 ~
: 1947 3 68 the
: 1951 7 69  on
: 1959 4 68 ly
: 1963 3 66 ~
: 1967 3 66 one
: 1970 5 64 ~
- 1977
: 1979 8 66 Who
: 1987 2 64 ~
- 1991
: 2003 5 64 Drags
: 2011 3 64  me
* 2015 3 69  kick
: 2020 3 64 ing
: 2024 2 64  and
: 2031 3 69  scream
: 2035 2 64 ing
- 2038
: 2039 2 64 Through
: 2043 4 66  fast
: 2051 7 66  dreams
- 2060
: 2063 2 57 And
: 2067 4 64  you're
: 2071 3 66 ~
: 2075 3 68 the
: 2079 7 69  on
: 2087 4 68 ly
: 2091 3 66 ~
: 2095 3 66 one
: 2098 5 64 ~
- 2105
: 2107 7 66 Who
: 2114 2 64 ~
- 2118
: 2127 6 64 Knows
: 2135 4 64  ex
: 2142 4 73 act
: 2147 2 69 ly
: 2150 1 69  what
: 2152 5 69  I
: 2159 4 73  mean
: 2163 4 71 ~
: 2167 11 69 ~
- 2180
: 2282 2 64 Ex
: 2287 3 73 act
: 2292 2 69 ly
: 2295 1 69  what
: 2297 10 69  I
* 2310 4 73  mean
: 2314 4 71 ~
: 2318 13 69 ~
- 2333
: 2428 1 57 Well
: 2430 2 61  I
: 2435 2 64  saw
: 2438 1 62  you
: 2440 2 62  with
: 2443 2 61  your
: 2446 6 62  hands
- 2453
: 2454 1 61 A
: 2455 2 62 bove
: 2458 3 61  your
: 2463 3 61  head
- 2468
: 2470 2 62 Spin
: 2472 1 61 ning
: 2474 1 61  a
: 2476 4 61 round
- 2481
: 2482 2 61 Try
: 2485 2 61 ing
: 2489 2 62  not
: 2493 1 61  to
: 2495 2 62  look
: 2499 4 62  down
- 2504
: 2506 1 59 But
: 2508 2 61  you
: 2512 2 64  did
: 2515 1 61  and
: 2517 2 61  you
: 2521 4 61  fell
- 2527
: 2531 5 57 Hard
: 2543 2 61  on
: 2547 2 57  the
: 2551 8 57  ground
E