#TITLE:Valerie
#ARTIST:Mark Ronson feat. Amy Winehouse
#MP3:Mark Ronson feat. Amy Winehouse - Valerie.mp3
#VIDEO:Mark Ronson feat. Amy Winehouse - Valerie [VD#56].avi
#COVER:Mark Ronson feat. Amy Winehouse - Valerie [CO].jpg
#BACKGROUND:Mark Ronson feat. Amy Winehouse - Valerie [BG].jpg
#BPM:318,8
#GAP:10410
#VIDEOGAP:56
#ENCODING:UTF8
#LANGUAGE:English
#EDITION:[SC]-Songs
: 0 4 10 Well,
: 6 3 12  some
: 12 6 15 times
: 24 3 15  I
: 29 3 12  go
: 33 2 12  ou
: 36 8 15 ~t
- 45
: 47 2 15 by
: 50 3 15  my
: 57 5 12 self
- 64
: 76 3 15 and
: 80 3 12  I
: 85 3 15  look
: 89 2 12  a
: 95 3 15 cross
: 101 2 15  the
: 105 7 12  wa
: 113 9 15 ter,
* 125 4 17  ooh!
- 131
: 191 4 15 And
: 197 3 12  I
: 204 3 15  think
: 209 3 12  of
: 216 3 15  all
: 221 2 12  the
: 225 5 15  things,
- 232
: 239 4 17 what
: 245 2 12  you're
: 249 3 12  do
: 255 2 12 ing
- 259
: 261 2 10 and
: 264 2 10  in
: 267 4 12  my
: 273 4 15  hea
: 278 2 17 ~d
* 281 4 19  I
: 287 5 19  paint
: 293 2 19  a
: 297 4 19  pi
: 303 2 17 ~c
: 307 8 17 tu
: 317 6 19 ~re.
- 325
: 391 3 10 Cause
: 397 3 12  since
: 402 3 15  I've
: 408 3 15  come
: 413 2 12  on
: 417 2 15  ho
: 420 3 12 ~me
- 425
: 432 3 15 well,
: 438 3 17  my
: 444 5 12  bo
: 450 3 10 dy's
: 456 4 10  been
: 462 2 7  a
: 466 6 10  me
: 473 3 12 ~ss
- 478
: 481 2 10 and
: 484 3 10  I
: 490 2 10  mi
: 492 3 12 ~ss
: 498 3 15  your
: 505 4 15  gin
: 511 2 12 ger
: 515 5 15  hair
- 522
: 530 3 15 and
: 535 2 17  the
: 540 4 12  way
: 547 3 10  you
: 553 3 10  like
: 559 2 7  to
: 563 6 10  dre
: 571 3 12 ~ss
- 576
: 591 2 12 Ah,
: 594 2 15  won't
: 598 2 12  you
: 601 3 15  come
: 605 3 15  on
: 611 5 15  o
: 618 3 12 ver?
- 623
: 643 3 19 Stop
: 649 3 19  mak
: 655 2 19 ing
: 658 2 17  a
: 663 3 19  foo
: 667 3 17 ~l
- 671
: 673 5 19 out
: 679 2 19  of
: 683 3 19  me
: 687 2 20 ~
: 690 2 19 ~
: 693 3 17 ~
: 697 5 19 ~
- 704
: 733 3 17 why
: 737 2 19  don't
: 742 2 17  you
: 745 3 19  come
: 749 2 19  on
: 755 4 19  o
: 761 3 17 ver,
- 766
: 769 5 17 Va
: 775 3 19 ~
: 779 3 17 ~
: 783 2 19 ~
: 786 7 17 ~
: 795 3 15 le
: 799 7 15 rie
: 810 4 12 ~?
- 816
: 865 4 19 Va
: 870 2 19 le
: 875 3 19 rie
: 879 2 20 ~
: 883 5 17 ~
* 889 16 19 ~
- 907
: 961 4 19 Va
: 966 4 17 ~
: 973 11 17 ~
: 988 2 15 le
: 992 10 15 rie
: 1004 2 12 ~
: 1007 3 10 ~
- 1012
: 1057 4 19 Va
: 1064 2 17 le
: 1067 5 19 rie
: 1073 2 20 ~
: 1076 4 17 ~
: 1082 10 19 ~
- 1094
: 1155 3 10 Did
: 1160 3 12  you
: 1166 4 15  have
: 1172 3 12  to
* 1178 5 17  go
: 1184 2 12  to
: 1189 7 12  jail,
- 1198
: 1208 2 10 put
: 1212 2 12  your
: 1215 3 15  house
: 1221 2 12  o
: 1224 2 12 ~ut
: 1227 2 17  up
: 1232 2 12  for
: 1237 5 12  sale?
- 1243
: 1245 2 15 Did
: 1249 1 14  you
: 1251 3 15  get
: 1255 1 14  a
: 1257 4 17  good
: 1263 4 12  law
: 1269 4 15 ye
: 1275 5 17 ~
* 1281 11 19 ~r?
- 1294
: 1343 2 10 I
: 1346 4 10  hope
: 1352 4 12  you
: 1358 4 15  di
: 1363 3 12 dn't
: 1370 5 17  catch
: 1376 2 12  a
: 1380 8 12  tan
- 1390
: 1399 3 10 hope
: 1403 2 12  you
: 1408 7 15  found
: 1417 2 15  the
: 1422 3 17  right
: 1427 4 19  man,
- 1433
: 1435 4 19 who'll
: 1442 4 22  fix
: 1450 2 19  it
: 1456 5 19  fo
: 1462 2 17 ~r
: 1467 5 17  you
* 1473 17 19 ~.
- 1492
: 1538 3 15 Are
: 1543 3 12  you
: 1551 5 15  shop
: 1558 3 12 ping
: 1563 3 15  a
: 1567 3 17 ny
: 1572 6 19 whe
: 1579 4 17 ~re,
- 1585
: 1590 4 15 change
: 1595 2 12  the
: 1599 3 15  col
: 1603 4 12 our
: 1610 3 15  of
: 1615 2 17  your
: 1619 5 19  hai
: 1625 3 17 ~r?
- 1630
: 1639 5 19 A
: 1645 6 17 ~re
: 1652 3 15  you
: 1657 5 17  bu
: 1665 4 17 sy?
- 1671
: 1734 1 12 And
: 1736 2 15  did
: 1739 2 12  you
: 1742 4 15  have
: 1748 2 12  to
: 1752 4 15  pay
: 1758 2 17  that
: 1764 8 19  fine,
- 1774
: 1784 2 15  you
: 1787 2 12  were
: 1791 3 15  stock
: 1796 2 12 ing
: 1799 3 12  a
: 1803 3 15 ~ll
: 1808 2 17  the
: 1812 4 19  time?
- 1817
: 1818 2 17 Are
: 1821 4 19  you
* 1826 3 22 ~
: 1833 3 22  still
: 1839 5 19  frea
: 1845 4 17 ~
: 1851 8 17 zy?
- 1861
: 1937 3 12 Since
: 1942 3 15  I've
: 1948 3 15  come
: 1953 2 12  on
: 1957 2 15  ho
: 1960 3 12 ~me
- 1965
: 1972 3 15 well,
: 1978 3 17  my
: 1984 5 12  bo
: 1990 3 10 dy's
: 1996 4 10  been
: 2002 2 7  a
: 2006 5 10  me
: 2012 3 12 ~ss
- 2017
: 2021 2 10 and
: 2024 3 10  I
: 2030 5 12  miss
: 2038 3 15  your
: 2044 4 15  gin
: 2050 2 12 ger
: 2055 4 15  hair
- 2061
: 2069 3 15 and
* 2075 2 17  the
: 2080 4 12  way
: 2087 3 10  you
: 2093 3 10  like
: 2099 2 7  to
: 2103 6 10  dre
: 2111 3 12 ~ss.
- 2116
: 2135 2 15 Won't
: 2139 2 12  you
: 2142 3 15  come
: 2146 3 15  on
: 2152 5 15  o
: 2159 3 10 ver?
- 2164
: 2185 3 19 Stop
: 2191 3 19  mak
: 2197 2 19 ing
: 2200 2 17  a
: 2205 3 19  foo
: 2209 3 17 ~l
- 2213
: 2215 5 19  out
: 2221 2 19  of
: 2225 4 19  me
: 2230 2 20 ~
: 2233 2 19 ~
: 2236 2 17 ~
: 2239 8 19 ~
- 2249
: 2275 3 17 Why
: 2279 2 19  don't
: 2284 2 17  you
: 2287 3 19  come
: 2291 2 19  on
: 2297 4 19  o
: 2303 3 19 ver,
- 2308
: 2310 5 17 Va
: 2316 3 19 ~
: 2320 4 17 ~
: 2325 2 19 ~
: 2328 6 17 ~
: 2337 3 15 le
: 2341 7 15 rie
: 2351 3 12 ~
: 2355 3 10 ~?
- 2360
: 2408 4 19 Va
: 2414 2 19 le
: 2418 3 19 rie
: 2423 2 20 ~
: 2426 5 17 ~
: 2432 8 19 ~
- 2442
: 2505 4 19 Va
: 2510 4 19 ~
: 2516 4 17 ~
: 2521 2 15 le
: 2524 9 15 rie
- 2535
: 2603 4 19 Va
: 2609 2 17 le
* 2612 5 19 rie
: 2618 2 20 ~
: 2621 3 17 ~
: 2626 11 19 ~
- 2639
: 2699 4 10 Well,
: 2706 3 12  some
: 2712 5 15  times
- 2719
: 2725 2 15 I
: 2729 3 12  go
: 2735 7 15  out
: 2746 2 15  by
: 2750 3 14  my
: 2756 6 12 self
- 2764
: 2778 2 15 and
: 2781 3 12  I
: 2787 3 15  look
: 2791 2 12  a
: 2796 3 15 cross
: 2802 2 15  the
: 2807 6 12  wa
: 2815 9 15 ter,
: 2826 6 17  ooh!
- 2834
: 2893 4 15 And
: 2901 3 12  I
: 2907 3 15  think
: 2911 2 12  of
: 2914 2 12  a
: 2917 3 15 ~ll
: 2922 2 12  the
: 2927 5 15  things,
- 2934
: 2941 3 17 what
: 2946 2 12  you're
: 2950 4 12  do
: 2956 2 10 ing
- 2960
: 2963 1 10 and
: 2965 2 10  in
: 2968 2 12  my
: 2973 5 15  hea
: 2979 3 17 ~d
: 2983 3 19  I
: 2989 4 19  paint
: 2995 2 17  a
: 2998 4 19  pi
: 3003 3 17 ~c
* 3007 10 17 tu
: 3020 4 19 ~re
- 3026
: 3094 2 10 Cause
: 3099 3 12  since
: 3104 3 15  I've
: 3110 3 15  come
: 3116 2 12  on
: 3120 2 15  ho
: 3123 3 12 ~me
- 3128
: 3135 3 15 well,
: 3140 3 17  my
: 3146 5 12  bo
: 3152 3 10 dy's
: 3159 4 10  been
: 3165 2 7  a
: 3168 6 10  me
: 3175 3 12 ~ss
- 3180
: 3183 2 10 and
: 3186 3 10  I
: 3192 2 10  mi
: 3194 3 12 ~ss
: 3201 3 15  your
: 3207 4 15  gin
: 3213 2 12 ger
: 3217 5 15  hair
- 3224
: 3231 3 15 and
: 3236 2 17  the
: 3242 4 12  way
: 3248 3 10  you
: 3254 3 10  like
: 3260 2 7  to
: 3264 6 10  dre
: 3272 3 12 ~ss
- 3277
: 3295 2 12 Ah,
: 3298 2 15  won't
: 3301 2 12  you
: 3304 2 15  come
: 3308 3 15  on
: 3314 5 15  o
: 3321 3 12 ver?
- 3326
: 3346 3 19 Stop
: 3352 3 19  mak
: 3358 2 19 ing
: 3361 2 17  a
: 3366 2 19  foo
: 3369 3 17 ~l
- 3374
: 3376 4 19 out
: 3382 2 19  of
: 3385 4 19  me
: 3390 2 20 ~
: 3393 2 19 ~
: 3396 2 17 ~
: 3399 4 19 ~
- 3405
: 3435 3 17 Why
: 3439 2 19  don't
: 3445 2 17  you
: 3448 3 19  come
: 3452 3 19  on
: 3458 6 19  o
* 3466 3 20 ver,
- 3470
: 3471 5 19 Va
: 3477 3 19 ~
: 3481 5 17 ~
: 3487 2 15 le
: 3490 10 15 rie?
- 3502
: 3567 6 19 Va
: 3574 3 19 le
: 3578 4 19 rie
: 3583 2 20 ~
: 3586 4 17 ~
: 3591 13 19 ~
- 3606
* 3664 5 19 Va
: 3670 5 19 ~
: 3676 4 17 ~
: 3682 2 15 le
: 3686 7 15 rie
: 3695 2 12 ~
: 3698 3 10 ~
- 3703
: 3762 4 19 Va
: 3767 2 17 le
: 3770 5 19 rie
: 3776 2 20 ~
: 3779 4 17 ~
: 3785 9 19 ~
- 3796
: 3846 4 15 Hm
: 3852 5 12 mh,
: 3859 7 17  Va
: 3871 2 12 le
: 3874 4 12 rie
: 3880 2 13 ~
: 3883 2 10 ~
: 3887 23 12 ~
- 3912
: 3955 4 10 Va
: 3960 3 12 le
: 3965 3 15 rie
: 3969 2 14 ~
: 3972 2 12 ~
: 3975 2 14 ~
: 3978 14 15 ~,
: 3995 15 15  oh
- 4012
: 4053 2 12 Oh,
: 4056 2 15  Va
: 4059 2 17 le
: 4062 2 19 rie
: 4065 2 17 ~
: 4068 2 15 ~
: 4071 2 17 ~
* 4074 21 19 ~,
: 4098 18 19  ooh
- 4118
: 4141 4 10 Va
: 4147 5 22 ~
: 4153 3 22 le
* 4159 6 22 rie
: 4166 2 20 ~
: 4169 2 19 ~
: 4172 11 17 ~
- 4185
: 4201 5 15 Why
: 4208 4 12  don't
: 4214 3 15  you
: 4220 3 15  come
: 4226 4 17  on
: 4232 4 19  home
- 4237
: 4238 3 17 Oh,
: 4244 9 15  Va
: 4258 13 14 le
: 4273 4 15 rie
: 4279 7 14 ~
: 4288 6 12 ~
: 4296 15 10 ~?
E