#TITLE:Värsta Schlagern
#ARTIST:Markoolio Och Linda Bengtzing
#EDITION:Singstar Svenska Hits Schlager
#LANGUAGE:Swedish
#COVER:Markoolio Och Linda Bengtzing - Värsta Schlagern [CO].jpg
#BACKGROUND:Markoolio Och Linda Bengtzing - Värsta Schlagern [BG].jpg
#MP3:Markoolio Och Linda Bengtzing - Värsta Schlagern.mp3
#BPM:280,00
#GAP:30750,00
: 0 2 59 Det 
: 4 8 59 bör
: 12 2 59 jar 
: 16 10 60 bra 
- 26
: 28 2 59 Näs
: 32 2 59 tan 
: 36 6 57 in
: 44 3 55 tres
: 48 6 57 sant 
- 57
: 60 7 67 Ja, 
: 68 9 67 ja 
- 78
: 80 3 67 Men 
: 84 2 66 kans
: 88 2 66 ke 
: 92 2 66 li
: 96 2 66 te 
- 98
* 100 6 67 Väl 
: 108 2 66 be
: 112 8 64 kant 
- 124
: 128 3 55 Vi 
: 132 3 55 byg
: 136 3 55 ger 
: 140 3 55 upp 
: 144 2 57 till 
- 146
: 148 3 59 Bryg
: 152 3 57 gan 
: 156 3 55 min 
* 160 4 57 vän 
- 168
: 172 2 55 Men 
: 176 2 57 den 
: 180 2 59 kom
: 184 3 59 mer 
- 187
: 188 3 59 In
: 192 3 59 te 
: 196 4 59 rik
: 204 3 57 tigt 
: 208 5 57 än 
- 223
: 252 3 59 För 
: 256 3 59 vi 
: 260 7 59 har 
: 268 2 59 en 
* 272 10 60 halv 
- 282
: 284 5 59 Vers 
: 292 6 57 kvar 
: 300 3 55 att 
: 304 8 59 kö
: 312 3 57 ra 
- 317
: 320 3 67 En 
: 324 4 67 re
: 328 4 67 pe
: 332 4 67 ti
: 336 5 66 tion 
- 344
: 348 2 66 Som 
: 352 2 66 man 
: 356 6 67 bru
: 364 3 69 kar 
* 368 8 66 gö
: 376 4 64 ra 
- 382
: 384 3 55 Vi 
: 388 3 55 byg
: 392 3 55 ger 
: 396 3 55 upp 
: 400 2 57 till 
- 402
: 404 3 59 Bryg
: 408 3 57 gan 
: 412 3 55 i
: 416 4 57 gen 
- 424
: 428 2 55 Och 
: 432 2 57 här 
: 436 2 59 kom
: 440 3 57 mer 
: 444 3 55 den 
: 448 3 57 änt
: 456 4 55 li
: 460 2 59 gen
: 462 2 57  - 
: 464 4 59 - 
- 478
: 500 2 60 Spän
: 504 2 60 nin
: 508 2 60 gen 
: 512 6 62 sti
: 520 2 62 ger 
- 522
: 524 3 62 In
: 528 3 62 för 
: 532 2 60 lĺ
: 536 2 60 tens 
: 540 2 60 po
: 544 7 62 äng 
- 555
: 560 4 57 En 
: 564 4 59 rik
: 572 4 57 tigt 
: 576 4 59 fläs
: 584 4 57 kig 
: 588 4 59 re
: 596 6 59 fräng 
- 609
: 616 2 59 Och 
: 620 2 59 det 
: 624 3 59 är 
: 628 10 69 kär
: 640 7 68 lek 
- 647
: 648 2 66 Och 
: 652 2 66 det 
: 656 2 64 är 
: 660 9 66 vin
: 672 7 64 dar 
- 681
: 684 4 64 Det 
: 688 3 64 är 
* 692 10 64 ö
: 704 6 61 gon 
- 710
: 712 3 61 Och 
: 716 6 64 de 
: 724 10 68 tin
: 736 8 66 drar 
- 748
: 752 2 59 Och 
: 756 2 59 mas
: 760 4 59 sa 
: 764 3 59 an
: 768 2 59 dra 
- 770
: 772 2 59 Tröt
: 776 3 59 ta 
* 780 2 66 gam
: 784 3 64 la 
: 788 9 63 kly
: 800 7 61 schor 
- 807
: 808 2 61 Som 
: 812 3 61 sä
: 816 3 63 ger 
- 819
: 820 6 64 Allt 
: 828 2 66 och 
: 832 6 68 in
: 840 3 64 gen
: 844 5 66 ting 
- 859
: 872 2 59 Och 
: 876 2 59 det 
: 880 3 59 är 
: 884 10 69 stjär
: 896 7 68 nor 
- 903
: 904 2 66 Och 
: 908 5 66 de 
: 916 9 66 brin
: 928 7 64 ner 
- 937
: 940 4 64 Det 
: 944 3 64 är 
: 948 10 71 värl
: 960 6 69 den 
- 966
: 968 3 69 Och 
: 972 4 68 den 
: 976 3 69 förs
: 980 10 68 vin
: 992 8 66 ner 
- 1004
: 1008 2 64 Och 
: 1012 2 64 ti
: 1016 2 64 teln 
: 1020 2 64 ska 
: 1024 2 66 sit
: 1032 2 64 ta 
- 1034
: 1036 2 66 Som 
: 1040 2 68 ett 
: 1044 6 69 slag 
- 1050
: 1052 4 68 I 
: 1056 10 66 ma
: 1068 4 64 gen 
- 1076
: 1081 3 69 Det 
: 1084 4 69 är 
: 1088 4 68 ju 
: 1092 3 66 vär
: 1100 5 64 sta 
- 1106
: 1108 11 73 Schla
: 1120 20 71 gern 
- 1150
: 1184 2 59 Nu 
: 1188 6 59 blir 
: 1196 2 59 det 
: 1200 10 60 svĺrt 
- 1213
: 1216 2 59 Att 
: 1220 6 57 kom
: 1228 3 55 ma 
: 1232 8 59 pĺ
: 1240 5 57  - 
- 1246
: 1248 3 67 Nĺt 
: 1252 7 67 nytt 
: 1260 4 67 att 
* 1264 7 66 sä
: 1272 3 66 ga 
- 1277
: 1280 2 66 Men 
: 1284 6 67 sĺ 
: 1292 3 69 va
: 1296 8 66 dĺ
: 1304 4 64  - 
- 1310
: 1312 3 55 Det 
: 1316 3 55 här 
: 1320 3 55 är 
: 1324 3 55 än
: 1328 2 57 dĺ 
- 1330
: 1332 3 59 Ba
: 1336 3 57 ra 
: 1340 3 55 tran
: 1344 4 57 sport 
- 1354
: 1360 2 55 Som 
: 1364 4 59 folk 
: 1372 3 57 snart 
: 1380 3 55 glöm
: 1384 4 57 mer 
: 1392 2 59 bort
: 1394 2 57  - 
: 1396 3 59 - 
- 1409
: 1424 3 59 För 
: 1428 2 60 det 
: 1432 2 60 som 
: 1436 2 60 be
: 1440 6 62 lö
: 1448 2 62 nas 
- 1453
: 1456 3 62 Med 
: 1460 5 60 tolv 
: 1468 4 60 po
: 1472 7 62 äng 
- 1485
: 1492 8 59 Är 
: 1500 4 57 en 
: 1504 4 59 fläs
: 1512 4 57 kig 
: 1516 4 59 re
: 1524 6 59 fräng 
- 1537
: 1544 2 59 Och 
: 1548 2 59 det 
: 1552 3 59 är 
: 1556 10 69 kär
: 1568 7 68 lek 
- 1575
: 1576 3 66 Och 
: 1580 3 66 det 
: 1584 2 64 är 
* 1588 9 66 vin
: 1600 7 64 dar 
- 1609
: 1612 4 64 Det 
: 1616 3 64 är 
: 1620 10 64 ö
: 1632 6 61 gon 
- 1638
: 1640 3 61 Och 
: 1644 6 64 de 
: 1652 10 68 tin
: 1664 8 66 drar 
- 1676
: 1680 2 59 Och 
: 1684 2 59 mas
: 1688 4 59 sa 
: 1692 3 59 an
: 1696 2 59 dra 
- 1698
: 1700 2 59 Tröt
: 1704 3 59 ta 
: 1708 2 66 gam
: 1712 3 64 la 
: 1716 9 63 kly
: 1728 7 61 schor 
- 1735
: 1736 2 61 Som 
: 1740 3 61 sä
: 1744 3 63 ger 
- 1747
: 1748 6 64 Allt 
: 1756 2 66 och 
: 1760 6 68 in
: 1768 3 64 gen
: 1772 5 66 ting 
- 1787
: 1800 2 59 Och 
: 1804 2 59 det 
: 1808 3 59 är 
: 1812 10 69 stjär
: 1824 7 68 nor 
- 1831
: 1832 2 66 Och 
: 1836 7 66 de 
: 1844 9 66 brin
: 1856 7 64 ner 
- 1865
: 1868 4 64 Det 
: 1872 3 64 är 
: 1876 11 71 värl
: 1888 6 69 den 
- 1894
: 1896 3 69 Och 
: 1900 4 68 den 
: 1904 3 69 förs
: 1908 10 68 vin
: 1920 8 66 ner 
- 1932
: 1936 2 64 Och 
: 1940 2 64 ti
: 1944 2 64 teln 
: 1948 2 64 ska 
: 1952 2 66 sit
: 1960 2 64 ta 
- 1962
: 1964 2 66 Som 
: 1968 2 68 ett 
: 1972 6 69 slag 
- 1978
: 1980 4 68 I 
: 1984 10 66 ma
: 1996 4 64 gen 
- 2004
: 2009 3 69 Det 
: 2012 4 69 är 
: 2016 4 68 ju 
: 2020 3 66 vär
: 2028 5 64 sta 
- 2034
: 2036 11 73 Schla
: 2048 20 71 gern 
- 2078
: 2092 3 52 Om 
: 2096 3 52 man 
: 2100 8 52 in
: 2112 10 51 te 
: 2124 6 49 vill 
* 2132 11 49 sab
: 2144 5 47 ba 
- 2152
: 2156 2 47 Si
: 2160 3 51 na 
: 2164 9 56 chan
: 2176 11 54 ser 
: 2188 4 53 att 
: 2196 10 56 vin
: 2208 6 54 na 
- 2217
: 2220 3 56 Kan 
: 2224 3 58 man 
* 2228 9 59 sno 
: 2240 10 52 nĺt 
: 2252 6 54 frĺn 
: 2259 9 52 ab
: 2272 7 51 ba 
- 2279
: 2280 2 51 Och 
: 2284 7 52 se 
: 2292 10 51 ris
: 2304 10 49 ken 
: 2316 6 48 för
: 2324 10 51 svin
: 2336 11 49 na 
- 2353
: 2360 2 56 Sĺ 
: 2364 4 56 al
: 2368 4 53 li
: 2372 4 53 ho
: 2376 3 49 pa 
- 2379
: 2380 3 49 Hĺll 
: 2384 2 47 i 
: 2388 3 47 hat
: 2392 3 46 ten 
: 2396 8 46 nu 
- 2414
: 2424 3 44 Här 
: 2428 3 46 kom
: 2432 3 48 mer 
: 2436 3 49 höj
: 2440 3 51 nin
: 2444 3 53 gen 
: 2448 3 54 till 
- 2451
* 2452 32 56 Slut
: 2484 16 57  - 
: 2500 16 59 - 
: 2516 5 61 - 
- 2528
: 2536 2 61 Och 
: 2540 2 61 det 
: 2544 3 61 är 
: 2548 10 71 kär
: 2560 7 70 lek 
- 2567
: 2568 3 68 Och 
: 2572 3 68 det 
: 2576 2 66 är 
: 2580 9 68 vin
: 2592 7 66 dar 
- 2601
: 2604 4 66 Det 
: 2608 3 66 är 
: 2612 10 66 ö
: 2624 6 63 gon 
- 2630
: 2632 3 63 Och 
: 2636 6 66 de 
: 2644 10 70 tin
: 2656 8 68 drar 
- 2668
: 2672 2 61 Och 
: 2676 2 61 mas
: 2680 4 61 sa 
: 2684 3 61 an
: 2688 2 61 dra 
- 2690
: 2692 2 61 Tröt
: 2696 3 61 ta 
: 2700 2 68 gam
: 2704 3 66 la 
* 2708 9 65 kly
: 2720 7 63 schor 
- 2727
: 2728 2 63 Som 
: 2732 3 63 sä
: 2736 3 65 ger 
- 2739
: 2740 6 66 Allt 
: 2748 2 68 och 
: 2752 6 70 in
: 2760 3 66 gen
: 2764 5 68 ting 
- 2779
: 2792 2 61 Och 
: 2796 2 61 det 
: 2800 3 61 är 
: 2804 10 71 stjär
: 2816 7 70 nor 
- 2823
: 2824 2 68 Och 
: 2828 5 68 de 
: 2836 9 68 brin
: 2848 7 66 ner 
- 2857
: 2860 4 66 Det 
: 2864 3 66 är 
* 2868 10 73 värl
: 2880 6 71 den 
- 2886
: 2888 3 71 Och 
: 2892 4 70 den 
: 2896 3 71 förs
: 2900 10 70 vin
: 2912 8 68 ner 
- 2924
: 2928 2 66 Och 
: 2932 2 66 ti
: 2936 2 66 teln 
: 2940 2 66 ska 
: 2944 2 68 sit
: 2952 2 66 ta 
- 2954
: 2956 2 68 Som 
: 2960 2 70 ett 
: 2964 6 71 slag 
- 2970
: 2972 4 70 I 
: 2976 10 68 ma
: 2988 5 66 gen 
- 2997
: 3001 3 71 Det 
: 3004 4 71 är 
: 3008 4 70 ju 
: 3012 3 68 vär
: 3020 5 66 sta 
- 3026
* 3028 32 66 Schla
: 3060 31 65  - 
: 3092 5 66 gern 

