#TITLE:If I Never See Your Face Again
#ARTIST:Maroon 5 ft. Rihanna
#MP3:Maroon 5 ft. Rihanna - If I Never See Your Face Again.mp3
#VIDEO:Maroon 5 ft. Rihanna - If I Never See Your Face Again [VD#0].mp4
#COVER:Maroon 5 ft. Rihanna - If I Never See Your Face Again [CO].jpg
#BPM:211,95
#GAP:35380
#ENCODING:UTF8
#LANGUAGE:English
#EDITION:US Songs
: 0 4 18 Now 
: 4 4 18 as 
: 8 4 18 the 
: 12 4 18 sum
: 16 4 17 mer 
: 20 4 17 fades,
- 24
: 24 3 17 I 
: 27 5 17 let 
: 32 3 15 you 
: 35 5 15 slip 
: 40 4 13 a
: 44 8 15 way 
- 54
: 64 3 18 You 
: 67 5 18 say 
: 72 3 18 I'm 
: 75 5 18 not 
: 80 4 17 your 
: 84 4 17 type 
- 88
: 88 3 17 But 
: 91 4 17 I 
: 95 5 15 can 
: 100 4 15 make 
: 104 3 13 you 
* 107 9 15 sway.
- 118
: 128 3 18 It 
: 131 4 18 makes 
: 135 4 18 you 
: 139 5 17 burn 
: 144 2 17 to 
: 146 2 17 learn ,
- 150
: 152 4 17 You're 
: 156 4 17 not 
: 160 4 15 the 
: 164 4 15 on
: 168 3 13 ly 
: 171 9 15 one
- 182
: 192 3 18 I'd 
: 195 5 18 let 
* 200 4 18 you 
: 204 4 18 be
- 208
: 208 4 17 If 
: 212 4 17 you 
: 216 3 17 put 
: 219 5 17 down 
: 224 4 15 your 
: 228 3 15 bla
: 231 5 13 zing 
: 236 7 15 gun.
- 244
: 244 4 13 Now 
: 248 4 13 you've 
* 252 8 25 gone 
: 260 4 22 some 
: 264 4 22 where 
: 268 8 22 else 
: 276 4 18 far 
: 280 4 18 a
: 284 8 15 way 
- 292
: 292 4 15 I 
: 296 4 13 don't 
: 300 4 15 know 
: 304 4 13 if 
: 308 4 15 I 
: 312 4 13 will 
: 316 8 20 find 
: 324 8 18 you 
- 332
: 332 8 10 Find 
: 340 7 8 you, 
: 348 8 17 find 
: 356 8 13 you 
- 366
: 376 2 13 But 
: 378 2 13 you
* 380 8 25 ~ 
: 388 4 22 feel 
: 392 4 23 my 
: 396 8 22 breath 
: 404 4 18 on 
: 408 4 18 your 
: 412 8 15 neck 
- 420
: 420 4 15 Can't
: 424 4 13  be
: 428 4 15 lieve
: 432 4 13  i'm
: 436 2 15  right
: 438 2 15 ~
: 440 4 13  be
* 444 8 20 hind
: 452 8 18  you
- 460
: 460 8 13 Right  
: 468 8 10 be
: 476 8 17 hind 
: 484 7 13 you
- 492
: 492 8 13 Cause 
: 500 8 15 you 
* 508 8 18 keep 
: 516 7 15 me 
- 524
: 524 7 18 Co
: 531 4 15 ming 
: 535 8 18 back 
: 543 8 18 for 
: 551 4 13 more
- 557
* 564 4 13 And 
* 568 4 15 I 
* 572 4 18 feel 
: 576 2 18 a 
* 578 4 15 lit
* 582 4 13 tle 
: 586 4 18 bet
: 590 4 18 ter 
- 595
: 596 4 15 Than 
: 600 4 13 I 
: 604 8 18 did 
: 612 4 20 be
: 616 4 13 fore 
- 622
: 627 4 13 If 
: 631 4 13 I 
: 635 4 22 ne
: 639 4 22 ver 
: 643 4 20 see 
: 647 4 20 your
: 651 4 18 face 
: 655 4 18 a
: 659 8 15 gain 
- 667
: 667 4 13 I 
: 671 8 18 don't 
: 679 4 18 mind 
- 685
: 691 4 13 Cause 
: 695 4 13 we 
: 699 8 22 gone 
: 707 8 20 much 
: 715 4 18 far
: 719 4 18 ther 
- 723
: 723 4 15 Than 
: 727 4 13 I 
: 731 8 18 thought 
: 739 8 18 we'd 
: 747 8 17 get 
: 755 4 18 to 
: 759 4 20 ni
: 763 8 18 ght 
- 773
: 831 4 18 Some
: 835 4 18 times 
: 839 4 18 you 
: 843 4 18 move 
: 847 4 17 so 
: 851 4 17 well 
- 856
: 856 4 17 It's 
: 860 4 17 hard 
: 864 4 15 not 
: 868 4 15 to 
: 872 4 13 give 
: 876 8 15 in 
- 886
: 895 4 18 I'm 
: 899 4 18 lost, 
: 903 4 18 I 
* 907 4 18 can't 
: 911 4 17 tell
- 916
: 916 4 17 Where 
: 920 4 17 you 
: 924 4 17 end 
: 928 4 15 and, 
: 932 4 15 I 
: 936 4 13 be
: 940 8 15 gin.
- 950
: 959 4 18 It 
: 963 4 18 makes 
: 967 4 18 you 
* 971 4 18 burn 
* 975 2 18 to 
: 977 6 15 learn 
- 984
: 984 4 13 I'm
: 988 4 18 with 
: 992 4 18 a 
: 996 4 18 no 
: 1000 4 18 ther 
: 1004 8 15 man 
- 1014
: 1023 4 18 I 
: 1027 4 18 won
: 1031 4 18 der 
: 1035 4 18 if 
: 1039 4 18 he's 
: 1043 4 15 half
- 1048
: 1048 4 13 The 
: 1052 4 18 lo
: 1056 3 18 ver 
: 1059 4 18 that 
: 1063 4 18 I 
: 1067 8 15 am.
- 1075
: 1075 4 13 Now 
: 1079 4 13 you've 
* 1083 8 25 gone 
: 1091 4 22 some
: 1095 4 22 where 
: 1099 8 22 else
- 1107
: 1107 4 18 Far 
: 1111 4 18 a
: 1115 8 15 way 
- 1123
: 1123 4 15 I
: 1127 4 13 don't 
: 1131 4 15 know 
: 1135 4 13 if 
: 1139 4 15 I 
: 1143 4 13 will 
* 1147 8 20 find 
: 1155 8 18 you 
- 1164
: 1164 8 10 Find 
: 1172 7 8  you, 
: 1180 8 17 find 
: 1188 8 13 you
- 1198
: 1208 2 13 But 
* 1210 2 13 y
* 1212 8 25 ou 
: 1220 4 22 feel 
: 1224 4 23 my 
: 1228 8 22 breath 
- 1236
: 1236 4 18 On 
: 1240 4 18 your 
: 1244 7 15 neck
- 1251
: 1251 4 15 Can't 
: 1255 4 13 be
: 1259 4 15 lieve 
: 1263 4 13 I'm 
: 1267 2 15 right
: 1269 2 15 ~ 
: 1271 4 13 be
* 1275 8 20 hind 
: 1283 8 18 you
- 1292
: 1292 8 13 Right 
: 1300 7 10 be
: 1308 8 17 hind 
: 1316 7 13 you 
- 1323
: 1323 8 13 Cause 
: 1331 8 15 you 
: 1339 8 18 keep 
: 1347 8 15 me
- 1355
: 1355 8 18 Co
: 1363 4 15 ming 
: 1367 8 18 back 
: 1375 8 18 for 
: 1383 4 13 more 
- 1389
: 1396 4 13 And 
: 1400 4 15 I 
: 1404 4 18 feel 
: 1408 3 18 a 
: 1411 4 15 litt
: 1415 4 13 le 
: 1419 4 18 bet
: 1423 4 18 ter 
- 1428
: 1428 4 15 Than 
: 1432 3 13 I 
: 1435 8 18 did 
: 1443 4 20 be
: 1447 4 13 fore 
- 1453
: 1459 4 13 If 
: 1463 4 13 I 
: 1467 4 22 nev
: 1471 3 22 er 
: 1474 4 20 see 
: 1478 4 20 your 
: 1482 6 18 face 
: 1488 3 18 a
: 1491 8 15 gain 
- 1499
: 1499 4 13 I 
: 1503 8 18 don't 
: 1511 4 18 mind
- 1517
: 1524 3 13 Cause 
: 1527 4 13 we 
: 1531 8 22 gone 
: 1539 8 20 much 
: 1547 4 18 fur
: 1551 3 18 ther 
- 1555
: 1555 4 15 Than 
: 1559 4 13 I'd 
: 1563 8 18 thought 
: 1571 8 18 we'd 
: 1579 8 17 get 
: 1587 4 18 to
: 1591 4 20 ni
: 1595 8 18 ght 
- 1605
: 1628 3 18 Ba
: 1631 2 15 by, 
: 1633 3 18 Ba
: 1636 4 15 by
- 1641
* 1641 6 22 Please
* 1647 2 18 be
* 1649 3 18 lieve 
* 1652 6 15 me
- 1659
: 1659 4 18 Find 
: 1663 2 15 it 
: 1665 4 18 in 
: 1669 4 15 your 
* 1673 5 22 heart 
: 1678 2 18 to 
: 1680 4 18 reach 
: 1684 6 15 me
- 1691
: 1692 4 22 Pro
: 1696 4 18 mise 
: 1700 3 18 not 
: 1703 4 15 to 
: 1707 4 15 leave 
: 1711 4 18 me 
: 1715 4 22 be
: 1719 2 20 hind 
- 1722
* 1724 4 27 Promi
: 1728 2 23 se 
: 1730 4 22 not 
: 1734 4 20 to 
: 1738 4 22 leave 
: 1742 3 20 me 
: 1745 4 18 be 
: 1749 5 20 hind
- 1755
: 1755 4 18 Take 
: 1759 2 15 me 
: 1761 4 18 down 
: 1765 4 15 but 
: 1769 6 22 take 
: 1775 2 18 it 
: 1777 4 18 ea
: 1781 6 15 sy 
- 1788
: 1788 3 18 Make 
: 1791 2 15 me 
: 1793 4 18 think
: 1797 4 15 but 
* 1801 6 22 don't 
: 1807 2 18 de
: 1809 4 18 ceive 
: 1813 6 15 me
- 1820
: 1820 4 25 Talk 
: 1824 4 22 to 
: 1828 3 22 me 
: 1831 4 18 about 
: 1835 4 15 ta
: 1839 4 18 king 
: 1843 4 22 your 
: 1847 4 20 time 
- 1852
* 1852 4 27 Talk 
: 1856 2 22 to 
: 1858 4 22 me,
- 1862
: 1862 6 18 Talk 
: 1868 2 13 to 
: 1870 2 27 me
: 1872 2 25 ~
: 1874 1 27 ~
- 1875
: 1875 8 15 You 
: 1883 8 18 keep 
: 1891 8 15 me 
: 1899 8 18 co
: 1907 4 15 ming 
: 1911 8 18 back 
: 1919 8 18 for 
: 1927 4 13 more 
- 1933
: 1939 4 13 And 
: 1943 4 15 I 
: 1947 4 18 feel 
: 1951 4 18 a 
: 1955 4 15 li
: 1959 4 13 ttle 
: 1963 4 18 be
: 1967 4 18 tter 
: 1971 4 15 then
: 1975 4 13 I 
: 1979 8 18 did 
: 1987 4 20 be
: 1991 4 13 fore 
- 1997
: 2003 4 13 If 
: 2007 4 13 I 
: 2011 4 22 ne
: 2015 4 22 ver 
: 2019 4 20 see 
: 2023 4 20 your 
: 2027 4 18 face 
: 2032 3 18 a
: 2035 8 15 gain 
- 2043
: 2043 4 13 I 
: 2047 8 18 don't 
: 2055 4 18 mind 
- 2061
: 2067 4 13 Cause 
: 2071 4 13 we've 
: 2075 8 22 gone 
: 2083 8 20 much 
: 2091 4 18 far
: 2095 4 18 ther 
- 2099
: 2099 4 15 Than 
: 2103 4 15 I 
: 2107 8 18 thought 
: 2115 8 18 we'd 
: 2123 2 13 get
: 2125 6 17 ~ 
: 2131 2 15 to
: 2133 2 18 ni
: 2135 4 20 ght
- 2140
: 2140 8 18 Keep 
: 2148 7 15 me 
: 2155 8 18 co
: 2163 4 15 ming 
: 2167 8 18 back 
: 2175 8 18 for 
: 2183 4 13 more 
- 2189
: 2196 3 13 And 
: 2199 4 15 I 
: 2203 4 18 feel 
: 2207 4 18 a
: 2211 3 15 lit
* 2214 4 13 tle 
: 2218 4 18 be
: 2222 4 18 tter 
- 2227
: 2228 4 15 Than 
: 2232 4 13 I 
: 2236 8 18 did 
: 2244 4 20 be
: 2248 4 13 fore 
- 2254
: 2259 4 13 If 
: 2263 4 13 I 
: 2267 4 22 nev
: 2271 3 22 ver 
: 2274 4 20 see 
: 2278 4 20 your 
: 2282 4 18 face 
: 2287 4 18 a
: 2291 8 15 gain
- 2299
* 2299 4 13 I 
* 2303 8 18 don't 
* 2311 4 18 mind 
- 2317
: 2323 4 13 Cause 
: 2327 4 13 we 
: 2331 8 22 got 
: 2339 8 20 much 
: 2347 4 18 far
: 2351 4 18 ther 
- 2356
: 2356 4 15 Than 
: 2360 3 13 I 
: 2363 8 18 thought 
: 2371 7 18 we'd 
: 2378 9 17 get 
: 2387 4 18 to
: 2391 4 20 ni
: 2395 8 18 ght 
E