#TITLE:Sarah
#ARTIST:Mauro Scocco
#MP3:Mauro Scocco - Sarah.mp3
#COVER:Mauro Scocco - Sarah [CO].jpg
#BACKGROUND:Mauro Scocco - Sarah [BG].jpg
#EDITION:Singstar - Svenska Hits
#LANGUAGE:Swedish
#BPM:208,76
#GAP:20406,2
: 0 4 55 In
: 7 3 55 ga 
: 11 7 55 poj
: 19 5 54 kar 
: 24 7 55 so
: 31 6 54 ver 
- 46
: 56 2 57 Hon 
: 60 2 57 finns 
: 64 2 57 i 
: 66 4 57 al
: 71 3 59 la 
: 75 6 59 rum 
- 91
: 120 3 55 I 
: 124 3 55 luf
: 130 4 55 ten 
: 136 2 55 dom 
: 140 12 55 an 
: 152 3 54 - 
: 156 5 54 das 
- 169
: 177 5 57 Hen
: 183 3 57 nes 
: 188 2 57 kyss 
: 192 2 57 pĺ 
: 195 4 57 de
: 199 3 59 ras 
: 204 7 59 mun 
- 221
: 248 2 55 Dom 
: 253 3 55 smy
: 257 2 55 ger 
: 259 3 55 runt 
: 263 3 57 hennes 
: 268 7 57 port 
- 285
: 315 2 55 Med 
: 317 2 55 hen
: 319 2 55 nes 
: 322 4 55 bild 
: 327 3 57 i 
: 331 12 57 fick 
: 344 3 50 - 
: 349 4 50 an 
- 363
: 377 1 55 Dom 
: 379 1 55 är 
: 381 2 55 hjäl
: 385 1 55 tar
: 387 2 55 na 
: 392 2 55 i 
: 396 13 55 fil 
: 409 3 54 - 
: 413 5 54 men 
- 428
: 449 6 57 Hon 
: 456 4 57 är 
: 461 9 57 flick 
: 473 3 50 - 
: 477 6 50 an 
- 493
: 521 4 62 Dom 
: 525 4 66 ro
: 530 1 66 par 
: 532 3 66 hen
: 536 4 66 nes 
- 540
: 541 4 64 Namn 
: 546 3 62 fast 
: 550 2 61 in
: 552 3 61 gen 
: 557 12 62 hör 
- 577
: 586 3 66 Och 
: 590 5 66 stjär
: 596 4 66 nor
: 602 3 66 na 
- 605
: 606 5 64 Sjun
: 612 6 61 ger 
: 618 3 61 i 
* 621 9 62 kör 
- 636
: 643 2 55 Hon 
: 646 3 55 gĺr 
: 650 2 55 för
: 652 4 55 bi 
: 656 3 57 mitt 
: 660 5 57 hus 
- 675
: 700 1 55 Jag 
: 702 3 55 föl
: 706 1 55 jer 
: 708 3 55 var
: 712 3 57 je 
- 715
* 717 13 57 Steg 
: 730 3 50 hon 
: 734 5 50 tar 
- 749
: 762 2 55 Hon 
: 764 2 55 för
: 767 4 55 svin
: 773 3 55 ner 
- 776
: 778 3 55 Runt 
: 782 12 55 hör 
: 794 3 54 - 
: 798 7 54 net 
- 815
: 827 2 55 Och 
: 831 2 55 sen 
: 835 1 55 finns 
: 837 4 55 ba
: 841 4 57 ra 
- 845
: 846 10 57 Läng
: 858 3 50 tan 
* 863 6 50 kvar 
- 879
: 891 3 62 Dom 
: 895 3 67 sä
: 899 2 67 ger 
: 901 2 67 att 
- 903
: 905 3 67 Hon 
: 910 8 66 lever 
: 922 7 62 en
: 931 8 57 sam 
- 948
: 957 2 62 Och 
: 959 2 62 kan
: 963 3 62 ske 
: 966 4 64 vill 
: 970 3 66 hon 
- 973
: 974 7 66 Ha 
: 981 2 64 - 
: 983 4 62 det 
* 988 11 62 sĺ 
- 1009
: 1021 2 55 Men 
: 1023 3 55 om 
: 1027 2 55 hon 
: 1029 4 55 lär
: 1034 3 55 de 
: 1038 4 55 kän
: 1042 3 57 na 
: 1046 8 57 mig 
- 1064
: 1088 4 54 Skul
: 1093 5 55 le 
: 1099 3 57 det 
: 1103 7 57 än
: 1110 5 59 dra 
: 1115 5 55 nĺt 
: 1120 7 55 dĺ? 
- 1137
: 1164 3 62 Jag 
: 1168 3 66 stĺr 
: 1172 1 66 i 
: 1174 3 66 hen
: 1178 3 66 nes 
: 1184 3 64 port 
- 1187
: 1188 2 62 Hör 
: 1190 3 62 hjär
: 1194 3 61 tat 
: 1200 10 62 slĺ 
- 1219
: 1228 1 66 Jag 
: 1230 2 66 gĺr 
: 1232 3 66 fram 
: 1236 2 66 till 
: 1238 2 66 hen
: 1242 3 66 nes 
: 1248 2 64 dörr 
- 1250
: 1251 3 62 Och 
: 1255 2 62 rin
: 1258 4 61 ger 
: 1263 13 62 pĺ 
- 1284
: 1292 5 59 Ĺh 
: 1297 11 57 - 
- 1318
F 1328 2 45 Kom 
F 1330 2 45 ut 
F 1333 6 45 ikväll 
- 1347
: 1356 3 69 Ĺh 
* 1360 11 69 Sa 
: 1372 2 62 - 
: 1377 6 62 rah 
- 1387
: 1391 2 69 Kom 
: 1393 7 69 ut 
: 1405 2 62 i
: 1408 5 62 kväll 
- 1418
: 1423 2 64 Jag 
: 1425 5 67 vän
: 1432 2 67 tar 
: 1436 3 67 i 
: 1439 5 66 hör
: 1444 5 62 net 
- 1450
: 1452 4 64 Vid 
: 1457 6 67 Sev
: 1463 4 66 en 
: 1468 3 62 E
: 1473 6 62 le
: 1480 3 59 ven 
- 1486
: 1489 16 69 Sa
: 1505 7 62 rah 
- 1515
: 1518 1 69 Du 
: 1519 1 69 är 
: 1521 2 69 mer 
: 1523 3 69 än 
: 1527 4 62 jag 
: 1531 4 62 för
: 1536 7 62 stĺr 
- 1547
: 1551 3 64 Ta 
: 1554 4 67 pĺ 
: 1559 5 67 dig 
: 1564 7 66 jack
: 1571 9 62 an 
- 1581
: 1583 2 64 Sĺ 
: 1585 4 67 gĺr 
: 1591 5 67 vi 
: 1597 14 62 ut 
- 1612
: 1614 2 61 Och 
: 1616 40 62 gĺr 
- 1656
: 1657 2 62 Yeah 
: 1660 2 62 yeah 
: 1664 3 62 yeah 
- 1677
: 1734 5 55 Hon 
: 1741 3 55 är 
: 1746 7 55 vild 
: 1754 4 54 som 
: 1758 7 55 vin
: 1766 4 54 den 
- 1780
: 1799 4 57 Hon 
: 1805 3 57 är 
: 1810 4 57 varm 
: 1816 4 57 som 
- 1820
: 1822 2 57 En 
: 1826 5 57 som
: 1832 4 59 mar
: 1838 5 59 natt 
- 1850
: 1857 1 55 I 
: 1859 1 55 hen
: 1861 2 55 nes 
: 1864 4 55 ö
: 1870 3 55 gon 
: 1874 12 55 glit 
: 1886 3 54 - 
: 1890 6 54 trar 
- 1906
: 1917 3 57 En 
: 1922 4 57 out
: 1929 5 57 töm
: 1934 3 59 lig 
: 1940 7 59 skatt 
- 1957
: 1981 2 67 Det 
: 1985 2 67 finns 
: 1988 2 67 in
: 1990 2 67 get 
: 1993 2 67 jag 
: 1995 2 67 in
: 1998 2 67 te 
- 2000
: 2002 4 66 Skul
: 2006 3 66 le 
: 2009 4 62 gö
* 2015 11 57 ra 
- 2036
: 2047 1 62 För 
: 2048 1 62 att 
: 2051 6 62 ha 
: 2057 4 64 hen
: 2061 3 66 ne 
- 2064
: 2065 6 66 Här 
: 2072 2 64 - 
: 2074 14 62 - 
- 2098
: 2111 2 55 Jag 
: 2115 2 55 tar 
: 2119 2 55 ner 
- 2121
: 2122 2 55 Mĺnen 
: 2125 1 55 och 
: 2127 2 55 stjär
: 2131 6 55 nor
: 2138 4 57 na 
- 2152
: 2176 3 54 Jag 
: 2180 5 54 lo
: 2185 5 55 var 
: 2190 3 57 och 
* 2195 15 57 svär 
: 2212 7 62 - 
- 2229
: 2256 2 62 Jag 
: 2258 1 62 gĺr 
: 2260 2 66 fram 
: 2264 1 66 till 
- 2265
: 2266 2 66 Hen
: 2270 3 66 nes 
: 2275 2 64 dörr 
: 2279 2 62 och 
: 2283 3 62 rin
: 2287 4 61 ger 
: 2291 16 62 pĺ 
- 2314
: 2322 3 66 Pĺ 
: 2325 3 66 and
: 2328 2 66 ra 
: 2331 2 66 si
: 2336 3 66 dan 
- 2339
: 2341 2 64 Bör
: 2345 1 62 jar 
: 2347 3 62 nĺn 
: 2352 4 61 att 
: 2356 19 62 gĺ 
- 2379
: 2384 5 59 Ĺh 
: 2389 9 57 - 
- 2407
F 2416 3 45 Kom 
F 2419 2 45 ut 
F 2422 7 45 ikväll 
- 2438
: 2448 3 69 Ĺh 
: 2452 13 69 Sa 
: 2465 3 62 - 
: 2469 6 62 rah 
- 2478
: 2482 2 69 Kom 
* 2485 7 69 ut 
: 2497 2 62 i
: 2500 6 62 kväll 
- 2510
: 2515 2 64 Jag 
: 2517 5 67 vän
: 2524 2 67 tar 
: 2528 3 67 i 
: 2531 5 66 hör
: 2536 4 62 net 
- 2542
: 2544 4 59 Vid 
: 2549 6 67 Se
: 2555 4 66 ven 
: 2560 5 62 E
: 2565 7 62 le
: 2572 3 59 ven 
- 2578
: 2581 16 69 Sa
: 2597 6 62 rah 
- 2606
: 2609 2 69 Du 
: 2611 2 69 är 
: 2613 2 69 mer 
: 2615 3 69 än 
: 2619 5 62 jag 
: 2624 4 64 för
: 2628 8 62 stĺr 
- 2638
: 2641 1 64 Men 
: 2642 2 64 ta 
: 2645 4 67 pĺ 
: 2651 5 67 dig 
: 2657 7 66 jack
: 2664 6 62 an 
- 2672
: 2674 2 64 Sĺ 
: 2676 6 67 gĺr 
: 2683 5 67 vi 
: 2689 12 62 ut 
- 2701
: 2702 5 69 Ĺh 
: 2709 16 69 Sa
: 2725 7 62 rah 
- 2735
: 2738 2 69 Kom 
: 2741 7 69 ut 
: 2749 4 62 - 
: 2753 3 64 i
: 2756 8 62 kväll 
- 2768
: 2772 2 62 Jag 
: 2774 6 67 vän
: 2782 4 67 tar 
: 2786 2 66 i 
: 2788 5 67 hör
: 2793 5 62 net 
- 2800
: 2802 3 64 Vid 
: 2806 6 67 Se
: 2812 5 67 ven 
: 2817 4 66 E
: 2821 6 67 le
: 2829 6 69 ven 
- 2836
: 2838 14 69 Sa
: 2854 6 62 rah 
- 2863
: 2866 2 69 Du 
: 2868 2 69 är 
: 2870 2 69 mer 
: 2872 3 69 än 
: 2875 5 67 jag 
: 2880 4 66 för
: 2885 2 66 stĺr 
: 2887 2 64 - 
: 2889 7 62 - 
- 2900
: 2905 2 62 Men 
: 2907 2 59 tag 
: 2910 3 62 pĺ 
: 2913 2 59 dig 
: 2916 4 62 jack
: 2920 5 64 an 
- 2929
: 2933 1 67 Sĺ 
: 2934 7 67 gĺr 
: 2941 9 66 vi 
: 2950 8 67 ut 
- 2958
: 2959 3 69 Och 
: 2963 59 69 gĺr 
: 3025 3 67 - 
: 3028 2 66 - 
: 3031 3 64 - 
* 3035 49 62 - 
- 3094
: 3150 4 65 Yeah 
: 3154 4 67 - 
: 3158 6 66 - 
: 3164 2 64 - 
: 3166 5 62 - 
: 3171 3 64 - 
: 3174 14 62 - 
- 3191
: 3195 2 62 Kom 
: 3197 3 62 ut 
- 3202
: 3204 2 62 Kom 
: 3206 3 62 ut 
- 3210
: 3212 2 62 Kom 
: 3214 3 62 ut 
- 3218
: 3220 6 69 I
: 3228 5 69 kväll
* 3234 26 62 - 
E
