#TITLE:Objects In The Rear View Mirror May Appear Closer Than They Are
#ARTIST:Meat Loaf
#EDITION:[SC]-Songs
#LANGUAGE:Englisch
#MP3:Meat Loaf - Objects In The Rear View Mirror.mp3
#COVER:Meat Loaf - Objects In The Rear View Mirror [CO].jpg
#BACKGROUND:Meat Loaf - Objects In The Rear View Mirror [BG].jpg
#BPM:226
#GAP:20800
: 0 2 7 The
: 3 9 9  skies
: 12 3 9  were
: 17 11 9  pure
: 29 4 7  and
: 33 2 5  the
: 37 8 9  fields
: 46 3 9  were
: 50 10 9  green
- 62
: 66 2 7 The
: 70 6 9  sun
: 78 5 12  was
: 84 7 12  brigh
: 92 2 9 ter
: 95 3 12  than
: 99 3 12  it's
: 103 7 14  e
: 111 3 12 ver
: 115 8 12  been
- 123
: 123 4 12 When
: 128 3 12  I
: 132 3 12  grew
: 136 3 12  up
: 140 3 12  with
: 144 3 12  my
: 148 7 12  best
: 156 9 12  friend
: 167 5 12  Ken
: 172 4 9 ny
- 176
: 176 3 9 We
: 180 3 9  were
: 184 4 9  close
: 189 3 9  as
: 193 4 9  a
: 197 2 9 ny
: 201 4 9  bro
: 205 4 5 thers
- 209
: 209 3 5 That
: 213 4 5  you
: 218 2 5  e
* 221 8 9 ver
: 233 9 7  knew
- 244 245
: 258 3 5 It
: 263 3 7  was
: 267 7 9  al
: 275 3 9 ways
: 280 6 9  sum
: 288 3 5 mer
- 292
: 292 3 7 And
: 296 2 5  the
* 300 7 9  fu
: 308 3 9 ture
: 313 6 9  called
- 321
: 325 3 7 We
: 329 2 5  were
: 333 4 9  rea
: 338 2 12 dy
: 342 3 12  for
: 346 3 12  ad
: 350 3 12 ven
: 354 4 9 tures
- 358
: 358 3 12 and
: 362 3 12  we
: 366 3 14  wan
: 370 4 12 ted
: 375 3 12  them
: 379 5 12  all
- 386
: 390 3 9 There
: 394 2 9  was
: 398 4 12  so
: 406 5 12  much
: 414 6 12  left
: 423 3 12  to
: 427 7 12  dream
- 436
: 442 2 9 And
: 446 3 9  so
: 451 5 9  much
: 460 9 9  time
: 471 3 5  to
: 476 11 5  make
: 489 2 9  it
* 493 14 7  real
- 509 510
: 518 2 9 But
: 520 3 12  I
: 524 2 9  can
* 528 6 16  still
: 535 3 14  re
: 540 8 14 call
- 549
: 551 2 14 the
: 555 10 14  sting
: 567 4 12  of
: 572 7 12  all
: 582 3 12  the
: 586 9 12  tears
: 598 4 10  when
: 603 8 10  he
: 613 4 9  was
: 618 9 7  gone
- 629 630
: 640 3 9 They
: 644 4 12  said
: 649 2 9  he
* 653 6 16  crashed
: 660 3 14  and
: 665 5 14  burned
- 671
: 673 2 14 I
: 676 3 14  know
: 680 3 14  I'll
: 684 6 14  ne
: 691 3 12 ver
: 695 6 12  learn
- 702
: 703 3 12 why
: 707 2 14  a
: 710 2 16 ny
: 715 5 17  boy
: 722 3 14  should
: 726 5 17  die
: 734 7 21  so
: 745 6 19  young
- 753 754
: 767 3 17 We
: 771 3 17  were
: 775 3 17  ra
: 779 3 17 cing,
: 783 3 17  we
: 786 2 14  were
: 790 4 17  sol
: 794 3 14 diers
: 798 3 17  of
: 801 7 17  for
: 809 7 19 tune
- 818
: 824 3 19 We
: 828 3 19  got
: 832 2 17  in
: 835 4 21  trou
: 840 3 21 ble
: 844 3 21  but
: 847 2 21  we
: 851 3 21  sure
: 855 3 19  got
: 859 1 17  a
: 862 8 17 round
- 872 873
: 889 3 17 There
: 893 2 17  are
: 896 4 17  times
: 901 3 17  I
: 905 2 17  think
- 907
: 907 2 14  I
: 911 3 17  see
: 915 3 17  him
: 919 3 17  pee
: 923 2 14 ling
: 926 3 17  out
: 930 4 19  of
: 934 3 19  the
: 938 4 19  dark
- 944
: 946 2 17 I
: 949 3 19  think
: 953 2 17  he's
: 956 5 21  right
: 964 5 21  be
: 971 5 21 hind
: 979 3 21  me
: 983 5 21  now
- 990
: 995 2 21 and
: 998 3 21  he's
: 1002 5 21  gai
: 1008 4 19 ning
: 1013 7 17  ground!
- 1022 1050
: 1070 2 9 But
: 1073 3 9  it
: 1077 2 10  was
* 1081 6 12  long
: 1089 3 9  a
: 1093 6 12 go
- 1100
: 1102 3 12  and
: 1106 3 12  it
: 1110 2 12  was
: 1113 5 12  far
: 1121 2 12  a
* 1125 5 14 way
- 1132
: 1134 3 14 Oh
: 1138 2 14  God
: 1141 2 14  it
: 1145 6 14  seems
: 1152 4 12  so
: 1157 8 12  ve
: 1167 3 10 ry
: 1171 8 12  far
- 1181 1182
: 1200 3 9 And
: 1204 2 10  if
: 1208 5 12  life
: 1215 3 9  is
: 1219 9 12  just
: 1230 2 12  a
: 1235 5 12  high
* 1243 7 14 way
- 1252 1253
: 1261 3 14 then
: 1265 1 14  the
: 1269 6 14  soul
: 1277 3 12  is
: 1281 6 12  just
: 1292 3 10  a
: 1296 10 12  car
- 1308 1341
: 1361 3 5 And
: 1365 3 5  ob
: 1369 3 7 jects
: 1373 3 9  in
: 1377 4 10  the
: 1382 5 9  rear
: 1389 5 10  view
: 1396 6 9  mir
: 1404 4 7 ror
- 1410
: 1412 3 5 may
: 1416 3 7  ap
: 1420 3 9 pear
: 1424 6 7  clo
: 1434 3 5 ser
: 1439 6 7  than
: 1446 8 9  they
: 1457 11 9  are
- 1470 1471
: 1485 2 5 And
: 1488 2 5  ob
: 1491 3 7 jects
: 1495 3 9  in
: 1499 3 10  the
: 1503 6 9  rear
: 1510 6 10  view
: 1518 5 9  mir
: 1525 4 7 ror
- 1531
: 1534 3 5 may
: 1538 2 7  ap
: 1541 3 9 pear
: 1545 8 7  clo
: 1555 4 5 ser
: 1560 8 7  than
: 1570 5 5  they
: 1577 13 5  are
- 1592 1930
: 1950 2 5 And
: 1953 3 5  when
: 1957 2 5  the
: 1961 6 9  sun
: 1969 3 9  de
: 1974 5 9 scen
: 1982 4 5 ded
- 1987
: 1987 2 7  and
: 1991 2 5  the
: 1995 5 9  night
: 2003 3 9  a
: 2008 6 9 rose
- 2016
: 2021 2 8 I
: 2025 3 9  heard
: 2029 3 12  my
: 2033 3 12  fa
: 2037 3 12 ther
: 2041 3 12  cur
: 2045 3 9 sing
: 2049 3 12  e
: 2053 2 12 very
: 2057 6 14 one
: 2064 3 12  he
: 2068 7 12  knows
- 2077
: 2081 2 9 He
: 2084 2 10  was
: 2087 3 12  dan
: 2091 3 12 ge
: 2095 3 12 rous
: 2099 3 12  and
: 2103 3 12  drunk
: 2107 3 12  and
: 2111 2 12  de
: 2115 6 12 fea
: 2123 3 9 ted
- 2127
: 2127 3 9 And
: 2131 2 9  cor
: 2134 3 9 ro
: 2138 3 9 ded
: 2142 3 9  by
: 2146 6 9  fai
: 2153 4 5 lure
: 2158 3 5  and
: 2162 3 5  en
: 2169 2 5 vy
: 2173 3 9  and
: 2177 7 7  hate
- 2186 2187
: 2205 2 5 There
: 2208 3 7  were
: 2212 5 9  end
: 2219 2 9 less
: 2223 6 9  win
: 2231 3 5 ters
- 2235
: 2236 2 7 and
: 2239 2 5  the
: 2243 6 9  dreams
: 2251 3 9  would
: 2255 8 9  freeze
- 2265 2266
: 2274 3 9 No
: 2278 3 9 where
: 2282 2 12  to
: 2286 6 12  hide
: 2293 4 9  and
: 2298 3 12  no
: 2303 6 14  leaves
: 2310 2 12  on
: 2313 2 12  the
: 2317 5 12  trees
- 2324
: 2329 2 9 And
: 2332 2 12  my
: 2336 7 12  fa
: 2344 2 12 ther's
: 2348 9 12  eyes
: 2359 3 12  were
: 2364 9 12  blank
- 2374
: 2375 2 9 as
: 2378 3 9  he
: 2382 3 9  hit
: 2386 3 9  me
: 2390 3 9  a
: 2394 6 9 gain
: 2402 2 5  and
: 2405 3 5  a
: 2409 6 5 gain
: 2417 2 5  and
: 2420 3 9  a
: 2424 7 7 gain
- 2433 2434
: 2447 2 9 I
: 2450 4 12  know
: 2455 2 12  I
* 2459 6 16  still
: 2466 3 14  be
: 2470 6 14 lieve
: 2477 3 14  he'd
: 2481 3 14  ne
: 2484 3 14 ver
: 2488 6 14  let
: 2496 3 12  me
: 2500 7 12  leave
- 2508
: 2509 2 12 I
: 2512 3 12  had
: 2516 2 12  to
: 2519 5 12  run
: 2526 3 10  a
: 2530 7 10 way
: 2541 3 9  a
: 2545 6 7 lone
- 2553 2554
: 2567 3 9 So
: 2571 3 12  ma
: 2575 2 9 ny
* 2578 5 16  threats
: 2585 3 14  and
: 2589 6 14  fears
- 2596
: 2597 3 14 So
: 2601 3 14  ma
: 2604 2 14 ny
: 2607 6 14  was
: 2614 3 12 ted
: 2618 7 12  years
- 2626
: 2626 2 12  be
: 2629 3 14 fore
: 2633 3 16  my
: 2637 5 17  life
: 2644 2 14  be
: 2648 6 17 came
* 2655 9 21  my
: 2666 7 19  own
- 2675 2676
: 2684 2 17 And
: 2687 4 17  though
: 2692 2 17  the
: 2695 6 17  night
: 2702 5 17 mares
: 2709 5 17  should
: 2716 4 17  be
: 2721 6 17  o
: 2728 6 19 ver
- 2736
: 2742 3 17 Some
: 2746 2 19  of
: 2749 3 17  the
: 2753 3 21  ter
: 2756 3 21 rors
: 2760 3 21  are
: 2766 5 21  sti
: 2771 4 19 ll
: 2775 5 17  in
: 2781 5 17 tact
- 2788 2789
: 2800 2 17 I'll
: 2803 3 17  hear
: 2807 3 17  that
: 2811 3 17  ug
: 2817 4 17 ly
: 2824 4 17  co
: 2828 2 17 arse
: 2831 5 17  and
: 2838 4 17  vi
: 2842 2 17 o
: 2844 4 19 lent
: 2849 6 19  voice
- 2856
: 2857 2 17 And
: 2860 3 19  then
: 2864 2 17  he
: 2867 6 21  grabs
: 2874 4 21  me
: 2881 5 21  from
: 2888 3 21  be
: 2892 5 21 hind
- 2898
: 2900 3 21 and
: 2904 3 21  then
: 2908 2 21  he
: 2911 3 21  pu
: 2914 3 19 lls
: 2918 3 17  me
: 2922 8 17  back
- 2932 2953
: 2973 2 9 But
: 2977 3 9  it
: 2980 3 10  was
* 2984 6 12  long
: 2991 3 9  a
: 2995 6 12 go
- 3003
: 3005 3 12  and
: 3009 2 12  it
: 3012 2 9  was
: 3016 5 12  far
: 3022 3 12  a
* 3026 5 14 way
- 3033
: 3035 2 14 Oh
: 3039 3 14  God
: 3043 2 14  it
: 3047 5 14  seems
: 3054 3 12  so
: 3059 8 12  ve
: 3068 3 10 ry
: 3073 6 12  far
- 3081 3082
: 3099 3 9 And
: 3103 2 10  if
: 3107 6 12  life
: 3114 3 9  is
: 3119 8 12  just
: 3130 3 12  a
: 3134 5 12  high
* 3141 8 14 way
- 3151 3152
: 3161 2 14 then
: 3164 2 14  the
: 3168 5 14  soul
: 3174 3 12  is
: 3178 7 12  just
: 3189 2 10  a
: 3193 9 12  car
- 3204 3236
: 3256 2 5 And
: 3260 2 5  ob
: 3263 2 7 jects
: 3267 2 9  in
: 3271 2 10  the
: 3275 5 9  rear
: 3282 5 10  view
: 3290 5 9  mir
: 3297 4 7 ror
- 3303
: 3305 3 5 may
: 3309 2 7  ap
: 3312 4 9 pear
: 3317 8 7  clo
: 3327 3 5 ser
: 3331 7 7  than
: 3339 7 9  they
: 3349 10 9  are
- 3361 3362
: 3377 2 5 And
: 3380 2 5  ob
: 3384 2 7 jects
: 3387 3 9  in
: 3391 3 10  the
: 3395 6 9  rear
: 3402 6 10  view
: 3410 5 9  mir
: 3417 4 7 ror
- 3423
: 3425 3 5 may
: 3429 2 7  ap
: 3432 3 9 pear
: 3436 8 7  clo
: 3445 4 5 ser
: 3450 9 7  than
: 3460 5 5  they
: 3467 11 5  are
- 3480 3481
: 3496 2 5 And
: 3499 2 5  ob
: 3503 2 7 jects
: 3506 3 9  in
: 3510 3 10  the
: 3514 6 9  rear
: 3521 6 10  view
: 3528 5 9  mir
: 3535 4 7 ror
- 3541
: 3543 3 5 may
: 3547 2 7  ap
: 3550 3 9 pear
: 3554 8 7  clo
: 3564 4 5 ser
: 3569 7 7  than
: 3577 7 9  they
: 3586 11 9  ar
: 3598 3 7 ~
: 3602 5 5 ~e
- 3609
: 3613 2 5 And
: 3616 2 5  ob
: 3619 3 7 jects
: 3623 3 9  in
: 3627 3 10  the
: 3631 6 9  rear
: 3638 6 10  view
: 3646 5 9  mir
: 3653 4 7 ror
- 3659
: 3662 2 5 may
: 3665 2 7  ap
: 3668 3 9 pear
: 3672 8 7  clo
: 3682 3 5 ser
: 3686 8 7  than
: 3696 6 5  they
: 3703 9 5  are
- 3714 4051
: 4071 3 5 There
: 4075 4 7  was
: 4080 2 5  a
: 4084 6 9  beau
: 4091 3 9 ty
: 4096 5 9  li
: 4103 3 5 ving
- 4107
: 4108 2 7 On
: 4111 2 5  the
: 4115 5 9  edge
: 4122 2 9  of
: 4126 6 9  town
- 4134
: 4141 2 7 She
: 4145 2 9  al
: 4148 2 12 ways
: 4152 3 12  put
: 4156 2 12  the
: 4159 4 12  top
: 4164 3 9  up
- 4168
: 4168 3 12 And
: 4172 2 12  the
: 4175 7 14  ham
: 4183 3 12 mer
: 4187 6 12  down
- 4195
: 4199 3 12 And
: 4203 2 12  she
: 4207 3 12  taught
: 4214 6 12  me
: 4223 3 12  e
: 4226 3 12 very
: 4230 3 12 thing
: 4234 3 12  I'll
: 4238 6 12  e
: 4246 2 9 ver
: 4250 6 9  know
- 4257
: 4259 2 9 a
: 4261 3 9 bout
: 4265 2 9  the
: 4268 3 9  mys
: 4272 3 5 tery
: 4276 3 5  and
: 4280 2 5  the
: 4284 2 5  mus
: 4287 3 5 cle
: 4291 7 9  of
: 4299 11 7  love
- 4312 4313
: 4326 2 5 The
: 4330 7 9  stars
: 4338 3 9  would
: 4342 7 9  glim
: 4350 3 5 mer
- 4354
: 4354 3 7 and
: 4357 3 5  the
: 4361 6 9  moon
: 4368 3 9  would
: 4372 7 9  glow
- 4380
: 4380 3 5 I'm
: 4384 2 7  in
: 4387 3 5  the
: 4391 2 9  back
: 4395 3 12  seat
- 4399
: 4399 2 12 with
: 4402 3 12  my
: 4406 4 12  Jul
: 4410 3 9 ia
: 4414 3 12  like
: 4418 2 12  a
: 4422 6 14  Ro
: 4429 3 12 me
: 4433 7 12 o
- 4442
: 4445 3 9 And
: 4449 2 9  the
: 4452 8 12  signs
: 4463 2 12  a
: 4467 9 12 long
: 4478 2 12  the
: 4481 6 12  high
: 4489 6 9 way
: 4497 4 9  all
: 4504 5 9  said
- 4510
: 4511 3 9 Cau
: 4515 5 5 tion!
: 4527 5 5  Kids
: 4533 3 9  at
* 4537 9 7  play
- 4548 4549
: 4561 2 9 Those
: 4565 3 12  were
: 4569 2 9  the
* 4572 5 16  rites
: 4579 2 14  of
: 4583 7 14  spring
- 4591
: 4591 3 14 and
: 4595 3 14  we
: 4599 2 14  did
: 4602 6 14  e
: 4609 2 12 very
: 4612 7 12 thing
- 4620
: 4620 2 12 There
: 4624 2 12  was
: 4628 3 12  sal
: 4632 5 12 va
: 4639 2 10 tion
: 4643 9 10  e
: 4653 3 9 very
: 4657 10 7  night
- 4669 4670
: 4679 3 9 We
: 4683 2 12  got
: 4686 3 9  our
* 4690 6 16  dreams
: 4697 3 14  re
: 4701 5 14 born
- 4707
: 4708 2 14 and
: 4711 3 14  our
: 4715 3 14  up
: 4719 4 14 hol
: 4725 3 12 stery
: 4729 5 12  torn
- 4736
: 4739 2 12 But
: 4742 2 14  e
: 4745 3 16 very
: 4749 5 17 thing
: 4755 3 14  we
: 4759 6 17  tried
* 4766 6 21  was
: 4776 6 19  right
- 4784 4785
: 4794 3 17 She
: 4798 3 17  used
: 4802 3 17  her
: 4806 3 17  bo
: 4810 2 17 dy
: 4813 4 17  just
: 4820 6 17  like
: 4827 3 14  a
: 4831 6 17  ban
: 4838 8 19 dage
- 4848
: 4853 2 19 She
: 4856 3 19  used
: 4860 3 17  my
: 4864 3 21  bo
: 4867 3 21 dy
: 4871 4 21  just
: 4877 6 21  like
: 4884 3 19  a
: 4888 7 17  wound
- 4897 4898
: 4909 3 17 I'll
: 4913 3 17  pro
: 4917 3 17 bably
: 4921 5 17  ne
: 4927 3 17 ver
: 4931 6 17  know
: 4938 2 17  why
: 4941 5 17  she
: 4948 3 17  dis
: 4952 6 19 ap
: 4959 8 19 peared
- 4968
: 4968 2 17 But
: 4971 2 19  I
: 4974 2 17  can
: 4977 3 21  see
: 4981 2 21  her
: 4984 3 21  ri
: 4988 3 21 sing
: 4992 2 21  up
- 4995
: 4996 2 21  out
: 4999 3 21  of
: 5003 2 21  the
: 5006 3 21  back
: 5012 4 21  seat
: 5019 4 21  now
- 5024
: 5024 3 21 just
: 5028 2 21  like
: 5031 2 21  an
: 5035 3 21  an
: 5038 2 21 gel
: 5041 3 21  ri
: 5045 3 21 sing
: 5049 2 21  up
: 5052 3 19  from
: 5056 2 17  a
: 5059 8 17  tomb
- 5069 5092
: 5112 2 9 But
: 5116 3 9  it
: 5119 3 10  was
* 5123 6 12  long
: 5130 3 9  a
: 5134 6 12 go
- 5142
: 5144 3 12  and
: 5148 2 12  it
: 5152 2 9  was
: 5156 5 12  far
: 5163 3 12  a
* 5167 5 14 way
- 5174
: 5176 2 14 Oh
: 5180 3 14  God
: 5184 2 14  it
: 5188 5 14  seems
: 5195 3 12  so
: 5200 9 12  ve
: 5210 2 10 ry
: 5214 6 12  far
- 5222 5223
: 5242 3 9 And
: 5246 2 10  if
: 5250 6 12  life
: 5257 3 9  is
: 5262 8 12  just
: 5273 3 12  a
: 5277 5 12  high
* 5284 8 14 way
- 5294 5295
: 5304 2 14 then
: 5308 2 14  the
: 5312 5 14  soul
: 5319 2 12  is
: 5323 6 12  just
: 5334 3 10  a
: 5338 8 12  car
- 5348 5382
: 5402 2 5 And
: 5406 2 5  ob
: 5409 2 7 jects
: 5413 2 9  in
: 5417 2 10  the
: 5422 5 9  rear
: 5429 5 10  view
: 5437 5 9  mir
: 5444 4 7 ror
- 5450
: 5452 3 5 may
: 5456 2 7  ap
: 5459 4 9 pear
: 5464 8 7  clo
: 5474 3 5 ser
: 5478 7 7  than
: 5486 7 9  they
: 5496 10 9  are
- 5508 5509
: 5526 2 5 And
: 5529 2 5  ob
: 5532 3 7 jects
: 5536 3 9  in
: 5540 3 10  the
: 5544 6 9  rear
: 5551 6 10  view
: 5559 5 9  mir
: 5566 4 7 ror
- 5572
: 5575 3 5 may
: 5579 2 7  ap
: 5582 3 9 pear
: 5586 8 7  clo
: 5595 4 5 ser
: 5600 9 7  than
: 5610 5 5  they
: 5617 11 5  are
- 5630 5631
: 5647 2 5 And
: 5650 2 5  ob
: 5653 3 7 jects
: 5657 3 9  in
: 5661 3 10  the
: 5665 6 9  rear
: 5672 6 10  view
: 5679 5 9  mir
: 5686 4 7 ror
- 5692
: 5696 3 5 may
: 5700 2 7  ap
: 5703 3 9 pear
: 5707 8 7  clo
: 5717 3 5 ser
: 5721 7 7  than
: 5729 7 9  they
: 5739 11 9  ar
: 5751 2 7 ~
: 5754 4 5 ~e
- 5760
: 5768 2 5 And
: 5771 2 5  ob
: 5774 3 7 jects
: 5778 3 9  in
: 5782 3 10  the
: 5786 6 9  rear
: 5793 6 10  view
: 5801 5 9  mir
: 5808 4 7 ror
- 5814
: 5818 2 5 may
: 5821 2 7  ap
: 5825 3 9 pear
: 5829 7 7  clo
: 5838 3 5 ser
: 5842 8 7  than
: 5852 6 5  they
: 5859 9 5  are
- 5870 5871
: 5885 2 5 And
: 5887 2 5  ob
: 5891 2 7 jects
: 5894 2 9  in
: 5898 2 10  the
: 5903 5 9  rear
: 5910 4 10  view
: 5915 6 9  mir
: 5923 4 7 ror
- 5929
: 5931 2 5 may
: 5934 2 7  ap
: 5937 4 9 pear
: 5942 7 7  clo
: 5951 4 5 ser
: 5956 7 7  than
: 5964 7 9  they
: 5974 10 9  are
- 5986 5987
: 6000 2 5 And
: 6003 2 5  ob
: 6006 3 7 jects
: 6010 3 9  in
: 6014 3 10  the
: 6018 5 9  rear
: 6024 4 10  view
: 6031 4 9  mir
: 6038 4 7 ror
- 6044
: 6046 2 5 may
: 6049 2 7  ap
: 6053 3 9 pear
: 6057 7 7  clo
: 6066 3 5 ser
: 6070 8 7  than
: 6080 6 5  they
: 6087 9 5  are
- 6098 6216
: 6236 2 5 Ob
: 6240 2 7 jects
: 6243 2 9  in
: 6247 2 10  the
: 6251 5 9  rear
: 6258 5 10  view
: 6265 5 9  mir
: 6272 4 7 ror
- 6278
: 6281 2 5 may
: 6284 2 7  ap
: 6287 4 9 pear
: 6292 8 7  clo
: 6301 4 5 ser
: 6306 7 7  than
: 6314 7 9  they
: 6324 10 9  are
- 6336 6337
: 6355 2 5 Ob
: 6359 2 7 jects
: 6362 2 9  in
: 6366 2 10  the
: 6370 5 9  rear
: 6377 5 10  view
: 6384 5 9  mir
: 6391 4 7 ror
- 6397
: 6399 2 5 may
: 6402 2 7  ap
: 6406 3 9 pear
: 6410 8 7  clo
: 6419 4 5 ser
: 6424 7 7  than
: 6434 6 5  they
: 6441 10 5  are

