#TITLE:Con la Luna llena
#ARTIST:Melendi
#MP3:Melendi - Con la Luna llena.mp3
#COVER:Melendi - Con la Luna llena [CO].jpg
#BACKGROUND:Melendi - Con la Luna llena [BG].jpg
#BPM:328,0
#GAP:12800
: 0 2 64 Sen
: 4 4 64 ta
: 8 2 61 do 
: 10 2 61 en 
: 12 3 64 un 
-19
: 24 1 63 Co
: 25 2 61 
: 32 3 64 che 
: 36 3 68 de 
: 40 2 66 hie
: 44 4 66 lo
: 48 2 64   
-57
: 64 2 64 Que 
: 68 3 64 se 
: 72 2 61 der
: 76 3 64 ri
: 80 2 61 te 
-82
: 84 3 64 Ca
: 88 2 61 da a
: 92 3 69 ma
: 96 4 69 ne
: 104 4 69 cer 
-112
: 116 2 64 No 
: 120 4 64 pue
: 124 3 63 do 
-131
: 136 3 59 Pe
: 140 2 66 dir
: 144 2 66 te 
: 148 2 66 que 
: 152 2 66 te 
: 156 3 66 que
: 160 3 66 des 
-165
: 168 3 66 Has
: 176 2 63 ta 
: 180 2 59 ma
: 184 2 63 ńa
: 188 1 63 na
: 189 4 61   
-196
: 200 3 56 Per
: 204 3 56 dir
: 208 3 56 te 
: 212 3 56 que 
: 216 3 56 me en
: 220 3 56 re
: 224 3 68 des 
-229
: 232 2 68 Hoy 
: 236 2 68 en
: 238 2 66   
: 244 2 64 tu 
: 248 4 64 pe
: 252 4 63 lo
: 256 2 61   
-261
: 264 3 68 Qui
: 268 3 68 sie
: 272 2 68 ra ir 
: 276 3 68 de 
: 280 2 68 la 
: 284 4 68 ma
: 288 2 73 no 
-290
: 291 2 73 De es
: 296 2 73 te 
: 300 2 73 sen
: 303 3 71   
: 307 3 71 ti
: 311 8 71 mien
: 320 5 69 to 
-326
: 328 2 69 Que 
: 332 3 69 lle
: 336 2 69 vo 
: 340 2 68 tan 
: 344 3 69 den
: 352 5 73 tro y 
-358
: 360 2 73 Me 
: 364 3 73 cues
: 372 2 73 ta 
: 376 2 73 tan
: 380 3 71 to 
-391
: 399 3 71 Te
: 403 2 71 ner 
: 407 4 66 ca
: 412 2 71 lla
: 416 3 71 do 
-420
: 422 4 73 Cuan
: 428 2 71 do 
: 434 2 66 te en
: 439 4 69 cuen
: 447 5 69 tro
: 452 10 68   
-471
: 480 3 68 Por
: 484 2 68 que 
: 488 2 68 te 
: 492 3 68 quie
: 496 2 66 ro 
: 500 3 66 co
: 504 2 64 mo el 
: 508 3 68 mar 
-517
: 524 4 68 Quie
: 529 2 71 re a 
: 531 2 71 un 
: 536 5 71 pez 
: 544 6 71 que 
-550
: 552 6 69 Na
: 560 6 68 da 
: 568 4 66 den
: 576 6 63 tro 
-582
: 584 6 68 Dán
: 592 6 71 do
: 600 6 71 le 
: 608 6 71 de 
: 616 4 69 res
: 623 6 68 pi
: 632 8 69 rar 
-650
: 660 2 69 Pro
: 664 2 69 te
: 668 2 69 gién
: 672 6 69 do
: 681 4 69 lo 
-686
: 688 4 69 Del
: 692 4 71   
: 696 6 69 vien
: 704 8 69 to
: 712 15 68   
-731
: 736 3 68 Por
: 740 2 68 que 
: 744 2 68 te 
: 748 3 68 quie
: 752 2 66 ro 
: 756 3 66 di
: 760 2 64 bu
: 764 3 68 jar 
-773
: 780 2 68 Des
: 784 5 71 nu
: 792 4 71 da 
: 796 3 71 en 
: 800 6 71 el 
-806
: 808 6 69 Fir
: 816 6 68 ma
: 824 2 68 men
: 826 2 66   
: 832 4 63 to 
-838
: 840 6 68 Pa ha
: 848 6 71 cer 
: 856 6 71 toa
: 864 5 71 vía 
: 872 4 69 más 
: 879 6 68 bo
: 888 6 69 ni
: 894 2 69 to 
-906
: 916 2 69 Más 
: 920 3 69 bo
: 924 2 69 ni
: 928 3 69 to 
: 932 2 69 el 
-935
: 937 6 69 U
: 944 4 69 ni
: 948 4 71   
: 952 4 69 ver
: 960 8 69 so
: 968 7 68   
-983
: 992 2 68 Pa 
: 1000 2 68 su
: 1004 5 68 bir
: 1012 2 66 me a un 
: 1016 2 64 te
: 1020 4 63 ja
: 1024 2 61 do 
-1030
: 1034 2 61 Con 
: 1036 3 68 ca
: 1040 2 66 ra 
: 1044 2 64 de 
: 1048 1 64 pe
: 1049 5 63   
: 1054 3 61 na y 
-1060
: 1064 2 61 To
: 1067 3 68 car
: 1072 2 66 te 
: 1074 4 66 u
: 1078 2 64 na 
: 1084 4 63 te
: 1088 3 61 ta 
-1093
: 1096 4 59 Sin 
: 1103 3 61 que 
: 1107 3 63 me 
: 1112 3 64 ve
: 1116 2 59 as 
-1123
: 1128 2 68 Y ha
: 1132 3 68 cer 
: 1136 1 68 bi
: 1137 2 68 en 
: 1140 3 68 la 
: 1144 3 66 ma
: 1148 2 68 le
: 1151 2 66 ta 
-1154
: 1156 2 66 Pa 
: 1160 2 64 que
: 1164 3 66 dar
: 1168 2 66 me 
: 1170 2 64 en 
: 1176 3 66 ca
: 1184 2 66 sa 
-1189
: 1192 4 64 Ju
: 1196 3 66 gan
: 1202 4 66 do un 
: 1207 2 64 par
: 1212 4 66 chís 
-1216
: 1218 4 68 Con 
: 1224 2 68 la 
: 1228 4 68 lu
: 1232 3 71 na 
: 1240 4 72 lle
: 1246 4 72 na
: 1252 22 68   
-1284
: 1296 3 68 Por
: 1304 4 68 que es
: 1312 2 73 tá 
-1317
: 1320 3 68 Muy 
: 1324 2 68 dep
: 1328 2 66 ri
: 1332 2 66 mi
: 1336 2 66 da
: 1338 6 64   
-1354
: 1364 2 68 Y 
: 1368 2 68 se es
: 1372 4 68 tá 
: 1376 6 68 vol
: 1384 4 68 vien
: 1392 6 70 do 
: 1400 6 72 lo
: 1408 3 68 ca 
-1413
: 1416 4 70 Por
: 1424 4 72 que el 
: 1432 4 73 sol 
-1442
: 1448 2 71 Ya 
: 1452 4 71 no 
: 1456 5 73 la 
: 1464 4 73 mi
: 1472 5 69 ma 
-1478
: 1480 4 71 Por
: 1488 5 73 que el 
: 1496 4 75 sol 
-1502
: 1504 7 72 Ya 
: 1512 5 73 no 
: 1520 5 75 la 
: 1528 5 75 to
: 1536 5 72 ca 
-1542
: 1544 5 73 Pe
: 1552 4 75 ro 
: 1560 3 76 cuan
: 1568 3 73 do 
-1573
: 1576 2 69 Se 
: 1580 3 73 pon
: 1584 2 76 ga 
: 1588 2 76 bue
: 1591 5 69 na 
-1606
: 1616 3 68 Ay 
: 1620 2 68 bril
: 1623 2 68 la
: 1627 2 73 rá en 
: 1636 3 68 tu 
-1639
: 1640 2 68 Ven
: 1647 2 68 ta
: 1651 2 66 na 
: 1655 3 64 mo
: 1658 5 63 re
: 1664 7 64 na 
-1677
: 1684 3 64 Pa 
: 1688 2 64 de
: 1692 2 63 cir 
: 1696 4 63 con 
: 1702 3 63 luz 
-1705
: 1707 4 63 Blan
: 1713 2 66 ca 
: 1715 2 66 y 
: 1719 2 66 sin
: 1723 4 66 ce
: 1729 4 66 ra 
-1739
: 1746 3 73 Que es
: 1752 2 73 ta 
: 1756 8 73 no
: 1768 2 73 che
: 1770 17 69   
-1789
: 1792 3 69 Quie
: 1796 2 69 ro 
: 1800 2 69 mo
: 1804 2 69 rir
: 1808 2 76 me 
: 1810 2 76 a 
-1814
: 1816 2 76 Tu
: 1818 5 73   
: 1826 5 73 ve
: 1832 3 73 ra
: 1835 10 72   
-1850
: 1856 3 68 Por
: 1860 2 68 que 
: 1864 2 68 te 
: 1868 3 68 quie
: 1872 2 66 ro 
: 1876 3 66 co
: 1880 2 64 mo el 
: 1884 3 68 mar 
-1893
: 1900 4 68 Quie
: 1904 2 71 re a 
: 1906 2 71 un 
: 1912 5 71 pez 
: 1920 6 71 que 
-1926
: 1928 6 69 Na
: 1936 6 68 da 
: 1944 4 66 den
: 1952 4 63 tro 
-1958
: 1960 5 68 Dán
: 1968 6 71 do
: 1976 6 71 le 
: 1984 6 71 de 
: 1992 4 69 res
: 1999 6 68 pi
: 2008 6 69 rar 
-2024
: 2036 2 69 Pro
: 2040 2 69 te
: 2044 2 69 gién
: 2048 6 69 do
: 2057 4 69 lo 
-2062
: 2064 4 69 Del
: 2068 4 71   
: 2072 6 69 vien
: 2080 8 69 to
: 2088 11 68   
-2105
: 2112 3 68 Por
: 2116 2 68 que 
: 2120 2 68 te 
: 2124 3 68 quie
: 2128 2 66 ro 
: 2132 3 66 di
: 2136 2 64 bu
: 2140 3 68 jar 
-2149
: 2156 2 68 Des
: 2160 5 71 nu
: 2168 4 71 da 
: 2172 3 71 en 
: 2176 6 71 el 
-2182
: 2184 6 69 Fir
: 2192 6 68 ma
: 2200 2 68 men
: 2202 2 66   
: 2208 4 63 to 
-2214
: 2216 6 68 Pa ha
: 2224 6 71 cer 
: 2232 6 71 toa
: 2240 6 71 vía 
: 2248 4 69 más 
: 2255 6 68 bo
: 2264 6 69 ni
: 2270 2 69 to 
-2282
: 2292 2 69 Más 
: 2296 3 69 bo
: 2300 2 69 ni
: 2304 3 69 to 
: 2308 2 69 el 
-2311
: 2313 6 69 U
: 2320 4 69 ni
: 2324 4 71   
: 2328 4 69 ver
: 2336 8 69 so
: 2344 33 68   
-2387
: 2680 2 68 Qui
: 2684 4 69 sie
: 2689 3 69 ra 
: 2696 4 69 ser 
-2702
: 2704 2 69 Tu 
: 2707 4 69 a
: 2712 2 71 mu
: 2716 3 68 le
: 2722 4 66 to y 
-2726
: 2728 2 64 Ve
: 2732 3 66 ne
: 2736 2 66 no en
: 2744 3 64 tu 
: 2748 3 66 ai
: 2753 4 64 re 
-2767
: 2808 2 68 Qui
: 2812 4 69 sie
: 2816 3 69 ra 
: 2824 4 69 ser 
: 2830 6 69 pa
: 2838 4 69 ra 
-2842
: 2844 2 71 Ti 
: 2846 2 59 un 
: 2849 3 59 vi
: 2856 3 71 cio in
: 2864 3 69 con
: 2870 2 68 fe
: 2876 3 66 sab
: 2882 8 66 le 
-2900
: 2932 2 68 Yo 
: 2936 2 68 qui
: 2940 4 69 sie
: 2944 6 69 ra 
-2950
: 2952 2 69 Lle
: 2956 4 69 gar 
: 2960 2 69 has
: 2966 2 68 ta 
: 2972 4 66 Mar
: 2978 6 64 te 
-2992
: 3000 2 64 Des
: 3004 2 69 nu
: 3008 4 69 do 
: 3016 2 69 sob
: 3020 3 68 re
: 3023 3 66   
: 3027 4 64 tu 
: 3032 4 64 ca
: 3038 4 64 ma 
-3052
: 3064 2 68 Qui
: 3068 3 68 sie
: 3072 5 68 ra 
: 3078 2 68 vol
: 3083 5 68 ver 
-3088
: 3089 3 66 A he
: 3094 3 64 chi
: 3099 4 63 zar
: 3105 2 59 me 
-3107
: 3108 3 59 En 
: 3111 3 59 tu 
: 3115 3 59 bru
: 3121 4 64 ja 
: 3128 2 63 mi
: 3132 4 64 ra
: 3137 23 64 da 
-3164
: 3168 3 68 Por
: 3172 2 68 que 
: 3176 2 68 te 
: 3180 3 68 quie
: 3184 2 66 ro 
: 3188 3 66 co
: 3192 2 64 mo el 
: 3196 3 68 mar 
-3205
: 3212 4 68 Quie
: 3216 2 71 re a 
: 3218 2 71 un 
: 3224 5 71 pez 
: 3232 6 71 que 
-3238
: 3240 6 69 Na
: 3248 6 68 da 
: 3256 4 66 den
: 3264 4 63 tro 
-3270
: 3272 6 68 Dán
: 3280 6 71 do
: 3288 6 71 le 
: 3296 6 71 de 
: 3304 4 69 res
: 3311 6 68 pi
: 3320 8 69 rar 
-3338
: 3348 2 69 Pro
: 3352 2 69 te
: 3356 2 69 gién
: 3360 6 69 do
: 3369 4 69 lo 
-3374
: 3376 4 69 Del
: 3380 4 71   
: 3384 6 69 vien
: 3392 8 69 to
: 3400 15 68   
-3419
: 3424 3 68 Por
: 3428 2 68 que 
: 3432 2 68 te 
: 3436 3 68 quie
: 3440 2 66 ro 
: 3444 3 66 di
: 3448 2 64 bu
: 3452 3 68 jar 
-3461
: 3468 2 68 Des
: 3472 5 71 nu
: 3480 4 71 da 
: 3484 2 71 en 
: 3488 6 71 el 
-3494
: 3496 6 69 Fir
: 3504 6 68 ma
: 3512 2 68 men
: 3514 2 66   
: 3520 4 63 to 
-3526
: 3528 6 68 Pa ha
: 3536 6 71 cer 
: 3544 6 71 toa
: 3552 6 71 vía 
: 3560 4 69 más 
: 3567 6 68 bo
: 3576 6 69 ni
: 3582 2 69 to 
-3594
: 3604 2 69 Más 
: 3608 3 69 bo
: 3612 2 69 ni
: 3616 3 69 to 
: 3620 2 69 el 
-3623
: 3625 6 69 U
: 3632 4 69 ni
: 3636 4 71   
: 3640 4 69 ver
: 3648 8 69 so
: 3656 14 68   
-3680
E
Converted using SS2US by kTzAR
Credits to UltraStar Spanish User Grup (http://ultrastar.webcindario.com
Longitud del archivo de audio: 3:4
