#TITLE:We are the world
#ARTIST:Michael Jackson and Friends
#EDITION:UltraStar Michael Jackson
#MP3:Michael Jackson and Friends - We are the world.mp3
#COVER:Michael Jackson and Friends - We are the world [CO].jpg
#BACKGROUND:Michael Jackson and Friends - We are the world [BG].jpg
#VIDEO:Michael Jackson and Friends - We are the world.avi
#VIDEOGAP:-2
#BPM:73
#GAP:27000
: 0 1 66 There
: 1 1 68  comes
: 2 1 66  a
: 3 5 68  time
- 12
: 14 1 66 When
: 15 1 68  we
: 16 2 69  need
: 18 1 69  a
: 19 2 71  cer
: 21 1 71 tain
: 22 6 68  call
- 29
: 30 1 68 When
: 31 1 66  the
: 32 5 64  world
: 38 2 64  must
: 40 3 66  come
: 43 2 66  toge
: 45 1 64 ther
: 46 2 66  as
: 48 6 68  one
- 56
: 60 2 68 There
: 62 1 71  are
: 63 3 73  peo
: 66 1 68 ple
: 67 3 68  dy
: 70 5 68 ing
- 76
: 78 3 73 And it's
: 81 4 71  time
: 85 1 73  to
: 86 2 71  lend
: 88 1 69  a
: 89 4 68  hand
: 93 2 66  to
: 95 5 64  life
- 101
: 102 1 64 The
: 103 3 69  grea
: 106 2 68 test
: 108 2 69  gift
: 110 3 73  of
: 113 11 76  all
- 126
: 127 2 75 We
: 129 2 66  can't
: 131 1 68  go
: 132 4 66  on
: 143 1 68  pre
: 144 2 69 ten
: 146 1 69 ding
: 147 2 71  day
: 149 3 73  by
: 152 4 68  day
- 157
: 158 1 68 That
: 159 2 66  some
: 161 3 64 one,
: 166 3 64  some
: 169 3 66 where
- 171
: 171 1 64 Will
: 172 3 66  soon
: 175 1 64  make
: 176 1 66  a
: 177 9 68  change
- 187
: 191 2 68 We
: 193 1 71  are
: 194 3 73  all
: 197 1 68  a
: 198 2 68  part
: 200 6 68  of
: 207 3 73  God's
: 210 1 71  great
: 211 2 73  big
: 213 1 71  fa
: 214 2 69 mi
: 216 5 68 ly
- 222
: 222 2 68 And
: 224 1 66  the
: 225 4 64  truth
: 230 2 64  you know
: 232 3 69  love
: 235 2 68  is
: 237 1 69  all
: 238 3 73  we
: 241 7 76  ne
: 248 4 75 ed
- 252
: 252 1 68 We
: 253 2 66  are
: 255 1 64  the
: 256 6 61  world,
: 268 1 68  we
: 269 2 66  are
: 271 1 64  the
: 272 2 61  chil
: 274 6 59 dren
- 281
: 284 1 68 We
: 285 2 66  are
: 287 1 64  the
: 288 2 61  ones
: 290 2 61  who make
: 292 1 59  a
: 293 1 61  brigh
: 294 2 63 ter
: 296 2 63  day
- 299
: 299 1 64 So
: 300 2 66  let's
: 302 2 63  start
: 304 2 61  gi
: 306 6 59 ving
- 315
: 318 2 68 There's
: 320 1 71  a
: 321 2 73  choice
: 323 1 68  we're
: 324 5 68  making
- 331
: 335 2 73 We're
: 337 2 71  sa
: 339 1 73 ving
: 340 2 71  our
: 342 2 69  own
: 344 6 68  lives
- 351
: 351 1 68 It's
: 352 2 66  true
: 354 1 61  we'll
: 355 1 64  make
: 356 1 61  a
: 357 1 64  bet
: 358 2 66 ter
: 360 2 66  day,
- 363
: 363 1 64  just
: 364 2 64  you
: 366 1 63  and
: 367 9 64  me
- 388
: 395 6 71 We'll
: 401 1 71  send
: 402 1 64  them
: 403 2 64  your
: 405 4 68  heart
- 411
: 415 1 66 So
: 416 2 68  they
: 418 1 69  know
: 419 1 69  that
: 420 2 71  some
: 422 1 73 one
: 423 5 68  cares
- 430
: 431 1 68 And
: 432 1 66  their
: 433 5 64  lives
: 439 2 61  will
: 441 3 64  be
: 444 3 66  stron
: 447 1 66 ger
: 448 1 66  and
: 449 7 68  free
- 460
: 463 5 73 As God
: 468 1 73  has
: 469 2 68  shown
: 471 6 68  us
- 478
: 479 4 73 By
: 483 3 71  turning
: 486 2 69  stone
: 488 1 68  to
: 489 4 68  bread
- 494
: 494 1 68 And
: 495 3 66  so we
: 498 4 64  all
: 503 2 61  must
: 505 3 68  lend
: 508 1 68  a
: 509 2 69  hel
: 511 2 71 ping
: 513 11 71  hand
- 524
: 524 1 78 We
: 525 3 78  are the
: 528 8 76  world,
: 540 1 80  we
: 541 4 66  are
: 545 1 76  the
: 546 9 69  children
- 556
: 556 1 80 We
: 557 3 81  are the
: 560 3 80  ones who
: 563 2 76  make a
: 565 2 76  brigh
: 567 1 73 ter
: 568 3 78  day
- 571
: 571 2 75 So
: 573 2 76  let's
: 575 2 78  start
: 577 3 73  giv
: 580 5 71 ing
- 587
: 589 3 68 There's
: 592 1 68  a
: 593 3 73  choice
: 596 1 68  we're
: 597 2 68  ma
: 599 5 68 king
- 607
: 608 1 68 We're
: 609 2 71  sa
: 611 1 69 ving
: 612 1 71  our
: 613 3 69  own
: 616 4 68  lives
- 622
: 624 2 66 It's
: 626 1 64  true
: 627 1 61  we'll
: 628 1 64  make
: 629 1 61  a
: 630 1 64  bet
: 631 2 66 ter
: 633 3 68  day,
- 636
: 636 2 64 just
: 638 1 64  you
: 639 1 63  and
: 640 9 64  me
- 652
: 656 1 76 When
: 657 1 79  you're
: 658 1 76  down
: 659 1 79  and
: 660 3 76  out
- 664
: 664 2 76 There
: 666 2 81  seems
: 668 1 81  no
: 669 2 79  hope
: 671 1 78  at
: 672 8 76  all
- 684
: 688 2 76 But if
: 690 1 76  you
: 691 1 79  just
: 692 4 79  believe
- 696
: 696 2 76 There's
: 698 1 81  no
: 699 2 81  way
: 701 1 79  we
: 702 1 78  can
: 703 5 76  fall
- 709
: 711 5 71 Well,
: 716 3 76  let
: 719 2 75  us
: 721 3 73  rea
: 724 6 68 lize
- 731
: 733 2 73 That
: 735 1 73  a
: 736 5 71  change
: 741 2 73  can
: 743 1 69  on
: 744 1 66 ly
: 745 5 64  come
- 751
: 751 3 68 When
: 754 7 69  we
: 761 4 68  stand
: 765 1 64  to
: 766 1 69 ge
: 767 1 69 ther
: 768 2 71  as
: 770 10 71  one
- 781
: 782 1 68 We
: 783 2 66  are
: 785 1 64  the
: 786 8 61  world,
: 797 1 68  we
: 798 2 66  are
: 800 1 64  the
: 801 2 61  chil
: 803 7 59 dren
- 811
: 813 1 68 We
: 814 2 66  are
: 816 1 64  the
: 817 2 61  ones
: 819 1 61  who
: 820 1 61  make
: 821 1 59  a
: 822 1 61  brigh
: 823 2 63 ter
: 825 2 63  day
- 827
: 827 2 64 So
: 829 2 66  let's
: 831 2 63  start
: 833 3 61  gi
: 836 6 59 ving
- 843
: 846 2 68 There's
: 848 2 71  a
: 850 2 73  choice
: 852 1 68  we're
: 853 2 68  ma
: 855 6 68 king
- 863
: 864 2 73 We're
: 866 2 71  sa
: 868 2 73 ving
: 870 2 71  our
: 872 1 69  own
: 873 7 68  lives
- 880
: 880 1 66 It's
: 881 1 64  true
: 882 1 61  we'll
: 883 2 64  make
: 885 1 61  a
: 886 1 64  bet
: 887 2 66 ter
: 889 2 66  day,
- 892
: 892 1 64  just
: 893 1 64  you
: 894 2 63  and
: 896 8 64  me
- 907
: 909 1 68 We
: 910 2 66  are
: 912 1 64  the
: 913 9 61  world,
: 925 1 68  we
: 926 2 66  are
: 928 1 64  the
: 929 2 61  chil
: 931 7 59 dren
- 940
: 941 1 68 We
: 942 2 66  are
: 944 1 64  the
: 945 2 61  ones
: 947 1 61  who
: 948 1 61  make
: 949 1 59  a
: 950 1 61  brigh
: 951 2 63 ter
: 953 3 63  day
- 956
: 956 1 64 So
: 957 2 66  let's
: 959 2 63  start
: 961 2 61  gi
: 963 7 59 ving
- 972
: 974 2 64 There's
: 976 1 61  a
: 977 2 66  choice
: 979 2 61  we're
: 981 1 64  ma
: 982 4 66 king
- 990
: 992 2 64 We're
: 994 2 64  sa
: 996 2 61 ving
: 998 1 64  our
: 999 2 66  own
: 1001 3 61  lives
- 1006
: 1008 1 61 It's
: 1009 2 64  true
: 1011 1 61  we'll
: 1012 1 64  make
: 1013 1 61  a
: 1014 1 64  bet
: 1015 1 64 ter
: 1016 2 61  day
- 1019
: 1020 2 64 Just
: 1022 2 64  you
: 1024 1 61  and
: 1025 5 64  me
- 1033
: 1037 2 81 We
: 1039 1 79  are
: 1040 1 77  the
: 1041 8 74  world
: 1053 3 81  we are
: 1056 1 79  the
: 1057 2 77  chil
: 1059 4 74 dren
- 1067
: 1069 3 81 We are
: 1072 1 84  the
: 1073 2 81  ones
: 1075 1 82  who
: 1076 1 81  make
: 1077 1 81  a
: 1078 1 79  brigh
: 1079 2 79 ter
: 1081 3 77  day
- 1084
: 1084 1 76 So
: 1085 2 77  let's
: 1087 2 79  start
: 1089 2 75  gi
: 1091 5 74 ving
- 1100
: 1102 2 81 There's
: 1104 2 84  a
: 1106 2 86  choice
: 1108 1 81  we're
: 1109 2 81  ma
: 1111 5 80 king
- 1117
: 1120 2 86 We're
: 1122 2 84  sa
: 1124 2 86 ving
: 1126 2 84  our
: 1128 1 82  own
: 1129 5 80  lives
- 1135
: 1136 2 81 It's
: 1138 1 79  true
: 1139 1 74  we'll
: 1140 1 77  make
: 1141 1 74  a
: 1142 1 77  bet
: 1143 1 79 ter
: 1144 3 81  day,
- 1147
: 1147 2 79 Just
: 1149 1 77  you
: 1150 1 77  and
: 1151 5 76  me
- 1161
: 1172 2 81 We
: 1174 2 79  are
: 1176 1 77  the
: 1177 6 74  world,
: 1189 1 81  we
: 1190 2 84  are
: 1192 1 83  the
: 1193 2 81  chil
: 1195 2 79 dren
- 1197
: 1197 1 79 We
: 1198 2 81  are
: 1200 1 84  the
: 1201 2 81  ones
: 1203 1 82  who
: 1204 2 81  make
: 1206 1 81  brigh
: 1207 2 79 ter
: 1209 2 77  day
- 1212
: 1212 1 76 So
: 1213 2 77  let's
: 1215 2 76  start
: 1217 2 74  gi
: 1219 3 72 ving
- 1233
: 1235 1 81 There's
: 1236 1 84  a
: 1237 3 86  choice
: 1240 2 81  we're
: 1242 2 81  ma
: 1244 3 80 king
- 1248
: 1249 1 86 We're
: 1250 2 84  sa
: 1252 1 84 ving
: 1253 3 84  our
: 1256 2 84  own
: 1258 4 81  lives
- 1263
: 1264 3 79 It'S true
: 1267 1 77  we'll
: 1268 1 74  make
: 1269 1 77  a
: 1270 2 77  bet
: 1272 1 79 ter
: 1273 3 81  day,
: 1276 1 77  just
: 1277 1 77  you
: 1278 1 76  and
: 1279 7 77  me
E
