#TITLE:Je vole
#ARTIST:Michel Sardou
#MP3:Michel Sardou - Je vole.mp3
#VIDEO:Michel Sardou - Je vole.avi
#COVER:Michel Sardou - Je vole.jpg
#BPM:317.31
#GAP:758
#ENCODING:UTF8
#LANGUAGE:French
#GENRE:Vocal
#YEAR:1978
#CREATOR:mustangfred, PatTwo and asb
: 0 3 -13 Mes
: 7 3 -11  chers
: 14 4 -9  pa
: 19 6 -8 rents
- 32
: 35 1 -4 Je
: 39 7 -4  pars
- 67
: 101 2 -6 Je
: 104 2 -4  vous
* 107 6 -3  aime
: 121 2 -4  mais
: 124 2 -6  je
: 128 6 -4  pars
- 155
: 186 2 -6 Vous
: 190 2 -4  n'au
: 193 3 -3 rez
: 201 3 -4  plus
: 205 4 -6  d'en
: 213 2 -8 fant
: 216 2 -9 ~
: 219 4 -11 ~
- 233
: 253 1 -16 Ce
: 257 7 -13  soir
- 285
: 307 3 -13 Je
: 312 5 -11  n'm'en
: 321 3 -9 fuis
: 327 5 -8  pas
: 335 1 -6  je
* 338 8 -4  vole
- 367
: 395 3 -6 Com
: 401 2 -4 pre
: 404 1 -3 nez
: 407 7 -4  bien
: 420 2 -6  je
: 423 7 -4  vole
- 451
: 474 1 -8 Sans
: 476 1 -6 ~
* 480 1 -4  fu
* 482 4 -3 mée
: 491 3 -4  sans
: 495 4 -6  al
: 502 3 -8 cool
: 506 5 -11 ~
- 521
: 537 1 -15 Je
: 539 7 -13  vole
- 556
: 576 2 -11 Je
: 579 21 -13  vole
- 610
: 628 2 -16 C'est
: 632 2 -15  jeu
: 636 2 -13 di
- 648
: 668 2 -15 Il
: 671 1 -16  est
: 674 2 -15  cinq
: 678 2 -16  heures
: 683 1 -15  cinq
: 685 2 -13 ~
- 697
: 711 2 -16 J'ai
: 714 2 -15  bou
: 718 3 -13 clé
: 722 1 -15  une
: 725 2 -16  pe
: 728 1 -15 tite
: 732 2 -16  va
: 735 1 -15 lise
: 737 1 -13 ~
- 748
: 759 1 -18 Et
: 761 2 -16  je
: 765 2 -15  tra
: 768 4 -16 verse
- 776
: 778 1 -15 dou
: 782 2 -16 ce
: 785 1 -16 ment
: 787 1 -18  l'ap
: 790 2 -16 par
: 796 1 -18 te
: 798 2 -18 ment
: 802 1 -18  en
: 804 2 -18 dor
: 807 2 -18 mi
- 819
: 831 3 -13 J'ou
: 835 2 -16 vre
: 838 1 -16  la
: 842 2 -15  porte
: 847 2 -16  d'en
: 853 2 -15 trée
: 856 2 -18  en
: 859 2 -16  re
: 863 2 -18 te
: 866 1 -18 nant
: 869 2 -18  mon
: 875 4 -15  souffle
- 889
: 904 1 0 Et
: 906 2 0  je
: 909 3 0  marche
: 917 1 0  sur
: 920 1 0  la
: 923 2 0  pointe
: 927 2 0  des
: 932 5 0  pieds
- 946
: 949 2 0 Comme
: 952 2 0  les
: 957 4 0  soirs
: 962 2 0  oů
: 965 1 0  je
: 967 4 0  ren
: 974 2 0 trais
: 977 1 0  a
: 980 2 0 prčs
: 983 2 0  mi
: 986 3 0 nuit
- 999
: 1006 1 0 Pour
: 1008 1 0  ne
: 1010 2 0  pas
: 1014 2 0  qu'ils
: 1018 1 0  se
: 1021 1 0  ré
: 1023 5 0 veillent
- 1038
: 1063 1 0 Hi
: 1065 1 0 er
: 1069 2 0  soir
: 1072 1 0  ŕ
: 1075 5 0  table
- 1091
: 1095 2 0 J'ai
: 1098 3 0  bien
: 1103 3 0  cru
: 1107 2 0  que
: 1110 2 0  ma
: 1113 4 0  mčre
- 1121
: 1123 1 0 Se
: 1125 2 0  dou
: 1128 2 0 tait
: 1132 1 0  de
: 1134 2 0  quel
: 1137 2 0 que
: 1142 6 0  chose
- 1158
: 1181 2 0 Elle
: 1185 2 0  m'a
: 1188 1 0  de
: 1190 2 0 man
: 1193 8 0 dé
: 1207 2 0  si
: 1210 1 0  j'é
: 1212 2 0 tais
: 1215 2 0  ma
: 1218 4 0 lade
- 1228
: 1230 1 0 Et
: 1232 1 0  pour
: 1234 2 0 quoi
: 1237 2 0  j'é
: 1241 1 0 tais
: 1246 1 0  si
: 1249 5 0  pâle
- 1256
: 1258 1 0 J'ai
: 1261 2 0  dit
: 1273 1 0  que
: 1275 1 0  j'é
: 1278 2 0 tais
: 1284 3 0  trčs
: 1288 4 0  bien
- 1301
: 1305 1 0 Tout
: 1307 2 0  ŕ
: 1310 2 0  fait
: 1314 4 0  clair
- 1329
: 1333 1 0 Je
: 1336 3 0  pense
: 1343 1 0  qu'elle
: 1345 2 0  a
: 1348 2 0  fait
: 1352 2 0  sem
: 1356 2 0 blant
: 1361 1 0  d'me
: 1365 4 0  croire
- 1370
: 1372 1 0 Et
: 1375 1 0  mon
: 1379 2 0  pčre
: 1382 2 0  a
: 1387 2 0  sou
: 1390 2 0 ri
- 1402
: 1416 4 -13 La
: 1422 6 -11  la
: 1430 6 -9  la
: 1437 7 -8  la
: 1446 5 -6  la
: 1453 19 -4  la
- 1482
: 1500 8 -6 La
: 1510 2 -4  la
: 1513 6 -3  la
: 1520 1 -3  la
: 1522 1 -4 ~
: 1530 2 -6  la
: 1533 8 -4  la
- 1551
: 1578 5 -6 La
: 1585 4 -4  la
* 1591 5 -3  la
* 1597 1 -3  la
* 1599 1 -4 ~
: 1607 3 -6  la
: 1611 2 -8  la
: 1614 2 -9 la
: 1617 5 -11  la
- 1632
: 1636 4 -15 La
: 1642 5 -15  la
: 1650 6 -13  la
- 1677
: 1732 2 0 En
: 1736 2 0  pas
: 1741 2 0 sant
: 1744 1 0  ŕ
: 1747 1 0  cô
: 1749 2 0 té
: 1752 2 0  d'sa
: 1755 3 0  voi
: 1760 5 0 ture
- 1775
: 1786 1 0 J'ai
: 1788 1 0  res
: 1792 2 0 sen
: 1795 1 0 ti
: 1798 2 0  comme
: 1801 2 0  un
: 1804 4 0  drôle
: 1809 2 0  de
: 1813 2 0  coup
- 1823
: 1826 1 0 Je
: 1829 2 0  pen
: 1834 4 0 sais
: 1843 1 0  que
: 1846 1 0  ce
: 1849 2 0  s'rait
: 1855 1 0  plus
: 1858 3 0  dur
- 1862
: 1864 1 0 Et
: 1868 2 0  plus
: 1871 3 0  gri
: 1876 2 0 sant
: 1879 1 0  un
: 1883 2 0  peu
: 1888 2 0  comme
: 1891 2 0  une
: 1894 1 0  a
: 1896 2 0 ven
: 1901 2 0 ture
- 1914
: 1918 2 0 En
: 1921 3 0  moins
: 1925 1 0  dé
: 1930 2 0 chi
: 1933 1 0 rant
- 1945
: 1949 5 0 Oh
: 1967 2 0  sur
: 1971 2 0 tout
: 1974 1 0  ne
: 1977 3 0  pas
: 1983 1 0  se
: 1986 1 0  re
: 1989 2 0 tour
: 1993 1 0 ner
- 2004
: 2019 2 0 S'é
: 2022 2 0 loi
: 2025 2 0 gner
: 2028 2 0  un
: 2032 1 0  peu
: 2036 2 0  plus
- 2048
: 2074 2 0 Il
: 2077 1 0  y
: 2079 1 0  a
: 2081 1 0  la
: 2083 6 0  gare
- 2099
: 2110 2 0 Et
: 2113 1 0  a
: 2116 1 0 prčs
: 2119 1 0  la
: 2122 6 0  gare
- 2138
: 2145 1 0 Il
: 2147 1 0  y
: 2149 1 0  a
: 2151 1 0  l'A
: 2155 3 0 tlan
: 2161 3 0 tique
- 2174
: 2206 2 0 Et
: 2209 1 0  a
: 2214 1 0 prčs
: 2217 1 0  l'A
: 2221 2 0 tlan
: 2227 2 0 ti
: 2235 1 0 que
- 2278
: 2954 2 0 C'est
: 2958 1 0  bi
: 2961 4 0 zarre
: 2969 1 0  cette
: 2972 1 0  es
: 2976 2 0 pčce
: 2980 2 0  de
: 2985 5 0  cage
- 2996
: 2998 1 0 Qui
: 3000 1 0  me
: 3003 2 0  bloque
: 3009 1 0  la
: 3013 1 0  poi
: 3017 4 0 trine
- 3031
: 3051 1 0 Ça
: 3053 2 0  m'em
: 3057 3 0 pęche
: 3067 2 0  presque
: 3074 2 0  de
: 3078 2 0  res
: 3084 2 0 pi
: 3087 1 0 rer
- 3098
: 3113 2 0 Je
: 3116 1 0  me
: 3118 2 0  de
: 3121 5 0 mande
: 3129 2 0  si
: 3134 1 0  tout
: 3136 2 0  ŕ
: 3139 4 0  l'heure
- 3152
: 3156 1 0 Mes
: 3160 2 0  pa
: 3163 3 0 rents
: 3169 1 0  se
: 3171 1 0  dou
: 3174 1 0 te
: 3176 4 0 ront
- 3182
: 3184 1 0 Que
: 3186 1 0  je
: 3188 2 0  suis
: 3192 1 0  en
: 3196 3 0  train
: 3200 1 0  de
: 3205 3 0  pleu
: 3209 2 0 rer
- 3232
: 3256 4 0 Oh
: 3266 1 0  sur
: 3270 1 0 tout
: 3273 2 0  ne
: 3276 3 0  pas
: 3281 1 0  se
: 3283 2 0  re
: 3286 2 0 tour
: 3290 3 0 ner
- 3294
: 3296 1 0 Ni
: 3298 1 0  des
: 3302 3 0  yeux
: 3307 2 0  ni
: 3312 1 0  de
: 3314 1 0  la
: 3317 2 0  tęte
- 3329
: 3338 1 0 Ne
: 3340 3 0  pas
: 3344 1 0  re
: 3347 2 0 gar
: 3350 1 0 der
: 3353 2 0  der
: 3358 4 0 ričre
- 3372
: 3379 1 0 Seule
: 3381 3 0 ment
: 3386 5 0  voir
: 3395 1 0  ce
: 3397 1 0  que
: 3399 1 0  je
: 3401 1 0  me
: 3405 2 0  suis
: 3411 3 0  pro
: 3415 2 0 mis
- 3419
: 3421 2 0 Et
: 3424 2 0  pour
: 3429 1 0 quoi
: 3443 2 0  et
: 3446 2 0  oů
: 3464 1 0  et
: 3469 2 0  com
: 3473 2 0 ment?
- 3496
: 3544 1 0 Il
: 3546 1 0  est
: 3549 2 0  sept
: 3552 3 0  heures
: 3557 2 0  moins
: 3562 3 0  cinq
- 3575
: 3586 1 0 Je
: 3589 1 0  me
: 3592 2 0  suis
: 3595 2 0  ren
: 3598 2 0 dor
: 3602 2 0 mi
: 3605 2 0  dans
: 3610 1 0  ce
: 3613 4 0  train
- 3620
: 3622 1 0 qui
: 3626 1 0  s'é
: 3628 5 0 loigne
- 3642
: 3645 2 0 un
: 3648 1 0  peu
: 3652 2 0  plus
- 3664
: 3675 4 0 Oh
: 3708 2 0  sur
: 3712 2 0 tout
: 3715 1 0  ne
: 3719 2 0  plus
: 3724 2 0  se
: 3727 1 0  re
: 3730 2 0 tour
: 3734 1 0 ner
- 3745
: 3775 2 0 Ja
: 3780 2 0 mais
- 3803
: 3859 4 -13 Mes
: 3867 4 -11  chers
* 3876 4 -9  pa
* 3881 6 -8 rents
- 3897
: 3904 2 -6 Je
* 3909 9 -4  pars
- 3939
: 3985 2 -6 Je
: 3988 2 -4  vous
: 3991 6 -3  aime
: 4007 1 -3  mais
: 4010 1 -4  je
* 4014 5 -4  pars
- 4040
: 4071 2 -6 Vous
: 4074 2 -4  n'au
: 4077 3 -3 rez
: 4086 4 -4  plus
* 4091 4 -6  d'en
* 4099 3 -8 fant
* 4103 1 -9 ~
: 4105 5 -11 ~
- 4120
: 4136 1 -15 Ce
: 4140 6 -13  soir
- 4167
: 4189 4 -13 Je
: 4195 4 -11  n'm'en
: 4202 4 -9 fuis
: 4209 6 -8  pas
: 4216 2 -6  je
: 4220 16 -4  vole
- 4246
: 4273 3 -6 Com
: 4279 2 -4 pre
* 4282 2 -3 nez
: 4286 8 -4  bien
: 4296 2 -6  je
: 4299 15 -4  vole
- 4324
: 4347 4 -6 Sans
: 4353 3 -4  fu
* 4357 3 -3 mée
: 4364 3 -4  sans
: 4368 5 -6  al
: 4375 3 -8 cool
: 4379 1 -9 ~
: 4382 14 -11 ~
- 4405
: 4408 2 -15 Je
: 4411 17 -13  vole
- 4438
: 4452 2 -11 Je
: 4456 1 -9  vole
: 4459 27 -13 ~
- 4528
: 4762 2 -13 Je
: 4767 2 -11  n'm'en
: 4773 2 -9 fuis
: 4778 5 -8  pas
: 4786 1 -6  je
: 4789 18 -4  vole
- 4817
: 4828 4 -6 Na
: 4834 2 -4  na
: 4837 2 -4  na
: 4840 5 -3  na
: 4846 2 -4  na
: 4853 3 -6  na
: 4857 18 -4  na
- 4885
: 4897 4 -6 Na
: 4902 4 -4  na
: 4907 5 -3  na
: 4913 3 -4  na
: 4918 4 -6  na
: 4924 2 -8  na
: 4928 1 -9 ~
: 4931 18 -11  na
- 4950
: 4952 3 -15 Na
: 4957 17 -13  na
- 4983
: 4986 4 -11 Na
: 4992 4 -13  na
: 4997 5 -13  na
: 5003 4 -11  na
: 5008 5 -9  na
: 5014 3 -8  na
: 5019 5 -6  na
: 5025 19 -4  na
- 5054
: 5064 3 -6 Na
: 5069 4 -4  na
: 5075 3 -3  na
: 5079 5 -1  na
: 5088 1 1  na
: 5091 15 -1  na
- 5116
: 5129 3 -6 Na
: 5134 4 -4  na
: 5140 4 -3  na
: 5145 4 -4  na
: 5151 3 -6  na
: 5156 2 -8  na
: 5159 2 -9 ~
: 5162 15 -11  na
- 5183
: 5186 2 -15 Na
: 5190 16 -13  na
- 5215
: 5219 2 -11 Na
: 5222 3 -13  na
- 5226
: 5228 2 -13 Je
: 5231 4 -11  n'm'en
: 5239 2 -9 fuis
: 5243 4 -8  pas
: 5248 3 -6  je
: 5252 17 -4  vole
- 5279
: 5291 1 -8 Com
: 5293 2 -6 ~
: 5298 2 -4 pre
: 5302 3 -3 nez
: 5307 5 -1  bien
: 5315 2 1  je
: 5318 1 1  vole
: 5320 18 -1 ~
- 5348
: 5356 3 -6 Na
: 5360 4 -4  na
: 5365 4 -3  na
: 5371 4 -4  na
: 5376 3 -6  na
: 5382 2 -8  na
: 5385 1 -9 ~
: 5387 16 -11  na
E