#TITLE:Je Vais T'aimer
#ARTIST:Michel Sardou
#MP3:Michel Sardou - Je Vais T'aimer.mp3
#VIDEO:Michel Sardou - Je Vais T'aimer.avi
#COVER:Michel Sardou - Je Vais T'aimer.jpg
#BPM:342,2
#GAP:8328
#ENCODING:UTF8
#LANGUAGE:French
#GENRE:Variété Française
#YEAR:1976
#CREATOR:Lord_Tenebro (Special Thxs to Mustangfred)
: 0 2 4 A
: 6 4 5  faire
: 15 3 7  pâ
: 19 7 5 lir
: 31 2 4  tous
: 34 4 2  les
* 40 4 0  Mar
: 48 6 2 quis
: 55 1 4  de
: 60 2 2  Sade
: 64 15 4 ~
- 101
: 160 2 2 A
: 166 5 4  faire
* 175 4 5  rou
* 181 6 4 gir
: 190 3 2  les
: 201 3 0  pu
: 207 6 -1 tains
: 215 1 0  de
: 217 3 2  la
: 223 8 2  rade
: 232 1 -1 ~
- 255
: 308 2 0 A
: 314 4 2  faire
: 323 3 4  cri
: 328 5 2 er
: 337 5 0  grâce
: 343 1 -3 ~
- 350
: 352 1 0 A
: 357 2 -3  tous
: 360 4 -1  les
: 367 2 0  é
: 373 13 0 chos
- 396
: 422 3 -3 A
: 428 3 -1  faire
* 436 4 0  trem
* 443 5 5 bler
: 450 2 5  les
: 454 7 5  murs
: 464 3 4  de
: 469 2 2  Jé
: 474 3 -1 ri
: 481 10 4 cho
- 492
: 494 5 -1 Je
: 502 6 0  vais
* 516 2 2  t'ai
* 521 4 0 mer
: 527 15 -3 ~
- 587
: 703 3 4 A
: 709 5 5  faire
: 720 6 7  flam
: 728 4 5 ber
: 734 3 4  des
: 740 4 2  en
: 748 5 0 fers
: 755 4 2  dans
: 762 2 2  tes
: 765 5 4 ~
: 773 2 2  yeux
: 776 18 4 ~
- 816
: 864 3 2 A
: 870 6 4  faire
: 881 3 5  ju
: 886 6 4 rer
- 898
: 901 1 2 Tous
: 903 3 0  les
: 910 2 -1  ton
: 913 7 0 nerres
: 924 1 2  de
: 927 13 2  Dieu
- 962
: 1017 3 0 A
: 1023 4 2  faire
: 1032 3 4  dres
: 1040 4 2 ser
: 1048 3 0  tes
: 1057 4 -1  seins
: 1062 5 -3  et
: 1075 3 -1  tous
: 1079 3 0  les
* 1088 10 0  Saints
- 1108
: 1134 2 -3 A
: 1141 3 -1  faire
: 1149 3 0  pri
: 1154 6 5 er
: 1161 3 4  et
: 1168 3 2  sup
: 1175 5 -1 pli
: 1181 3 0 er
: 1186 4 2  nos
: 1192 2 2  mains
: 1195 11 4 ~
- 1212
: 1214 5 -1 Je
: 1222 7 0  vais
* 1234 3 2  t'ai
* 1240 4 0 mer
: 1246 20 -3 ~
- 1276
: 1286 8 -3 Je
: 1297 9 1  vais
: 1309 9 4  t'ai
: 1321 8 9 mer
- 1334
: 1336 3 7 Comme
: 1340 4 7  on
: 1345 2 5  ne
: 1351 7 5  t'a
: 1361 3 4  ja
: 1365 4 4 mais
: 1373 3 2  ai
: 1377 15 2 mée
- 1402
: 1430 3 -5 Je
: 1435 4 -1  vais
: 1442 6 2  t'ai
: 1451 1 2 mer
: 1453 1 5 ~
: 1455 7 7 ~
- 1464
: 1466 3 5 Plus
: 1470 6 5  loin
: 1479 2 4  que
: 1485 3 4  tes
: 1490 5 2  ręves
: 1496 3 2  ont
: 1503 2 0  i
: 1506 4 0 ma
: 1512 2 4 gi
: 1515 16 4 né
- 1541
: 1565 2 -3 Je
: 1569 3 0  vais
: 1575 5 0  t'ai
: 1584 4 5 mer
: 1589 2 4 ~
: 1592 38 2 ~
* 1631 18 4 ~
- 1650
: 1652 6 4 Je
: 1660 10 4  vais
: 1673 2 2  t'ai
: 1676 5 4 ~
: 1683 25 4 mer
- 1718
: 1728 7 -3 Je
: 1738 7 1  vais
: 1749 4 4  t'ai
: 1755 1 4 mer
: 1757 1 7 ~
: 1759 6 9 ~
- 1766
* 1768 3 7 Com
* 1774 3 7 me
: 1782 3 5  per
: 1790 3 5 son
: 1795 1 4 ne
: 1798 4 4  n'a
: 1804 4 2  o
: 1811 2 2 sé
: 1817 3 0  t'ai
: 1822 9 2 mer
- 1841
: 1869 3 -5 Je
: 1874 3 -1  vais
: 1880 4 2  t'ai
: 1886 1 2 mer
: 1888 1 5 ~
: 1890 4 7 ~
- 1896
: 1898 4 5 Comme
: 1906 3 5  j'au
: 1910 2 4 rai
: 1916 5 4  tel
: 1923 3 2 l'ment
: 1927 4 2  ai
: 1935 5 0 mé
: 1944 5 0  ętre
: 1955 4 4  ai
: 1961 9 4 mé
- 1980
: 1998 4 -3 Je
: 2004 3 -1  vais
: 2010 4 0  t'ai
: 2016 11 4 mer
- 2049
: 2086 4 4 Je
: 2092 6 2  vais
: 2102 5 4  t'ai
: 2110 4 0 mer
: 2115 2 -5 ~
: 2118 26 -3 ~
- 2189
: 2885 3 4 A
: 2892 4 5  faire
* 2899 1 5  vieil
* 2901 2 7 ~
* 2905 7 5 lir,
: 2914 2 4  ŕ
: 2920 5 2  faire
: 2929 5 0  blan
: 2938 2 2 chir
: 2942 3 4  la
: 2946 13 4  nuit
- 3004
: 3056 4 2 A
: 3063 6 4  faire
: 3074 3 5  brű
: 3079 6 4 ler
: 3087 3 2  la
: 3091 4 0  lu
: 3099 6 -1 mičre
: 3110 2 0  jus
: 3118 5 2 qu'au
: 3125 13 2  jour
- 3160
: 3221 3 0 A
: 3226 3 2  la
: 3232 3 4  pas
: 3239 5 2 sion
: 3246 2 0  et
: 3252 2 -1  jus
: 3261 3 -3 qu'ŕ
: 3266 5 -1  la
: 3277 5 0  fo
: 3284 9 0 lie
- 3315
: 3345 3 -3 Je
: 3350 3 -1  vais
: 3356 3 0  t'ai
: 3361 9 5 mer,
: 3373 2 5  je
: 3377 5 5  vais
: 3386 4 4  t'ai
: 3392 3 2 mer
: 3398 4 -1  d'a
: 3404 21 4 mour
- 3447
: 3471 3 4 A
: 3478 4 5  faire
* 3488 4 7  cer
* 3495 4 5 ner
: 3501 3 4  ŕ
: 3507 8 2  faire
: 3520 4 0  fer
: 3526 5 2 mer
: 3533 2 2  nos
: 3536 5 4 ~
: 3544 10 4  yeux
- 3599
: 3646 2 2 A
: 3652 5 4  faire
: 3663 3 5  souf
: 3671 8 4 frir,
: 3681 2 2  ŕ
: 3687 4 0  faire
: 3698 3 -1  mou
: 3705 4 0 rir
: 3712 4 2  nos
: 3720 14 2  corps
- 3756
: 3806 3 0 A
: 3813 4 2  faire
: 3821 3 4  vo
: 3826 5 2 ler
: 3833 3 0  nos
: 3840 7 -1  âmes
: 3849 4 -3  aux
: 3861 2 -3  sep
: 3867 5 0 tičmes
: 3878 10 0  cieux
- 3898
: 3930 3 -3 A
: 3936 2 -1  se
: 3942 3 0  croire
* 3949 7 5  mort
: 3958 3 5  et
: 3965 6 5  faire
: 3973 5 4  l'a
: 3980 4 2 mour
: 3986 5 -1  en
: 3994 11 4 core
- 4007
: 4009 5 -1 Je
: 4017 6 0  vais
: 4030 3 2  t'ai
: 4037 4 0 mer
: 4042 1 -5 ~
: 4044 14 -3 ~
- 4068
: 4091 7 -3 Je
: 4101 8 1  vais
: 4113 6 4  t'ai
: 4122 1 4 mer
: 4124 1 6 ~
: 4126 7 9 ~
- 4135
* 4137 3 7 Comme
* 4142 3 7  on
: 4147 1 5  ne
: 4152 6 5  t'a
: 4163 3 4  ja
: 4168 4 4 mais
: 4175 3 2  ai
: 4180 16 2 mée
- 4206
: 4240 4 -5 Je
: 4246 2 -1  vais
: 4252 2 2  t'ai
: 4256 1 2 mer
: 4258 1 4 ~
: 4260 6 7 ~
- 4269
: 4271 2 5 Plus
* 4275 6 5  loin
: 4284 1 4  que
: 4289 3 4  tes
: 4295 4 2  ręves
: 4301 3 2  ont
: 4308 1 0  i
: 4311 4 0 ma
: 4317 2 4 gi
: 4320 16 4 né
- 4346
: 4369 4 -3 Je
: 4375 3 -1  vais
: 4380 4 0  t'ai
* 4388 4 5 mer
: 4394 38 2 ~
: 4433 19 4 ~
- 4453
: 4455 1 2 Je
: 4457 4 4 ~
: 4463 10 4  vais
: 4476 2 2  t'ai
: 4479 4 4 ~
: 4485 24 4 mer
- 4519
: 4531 7 -3 Je
: 4541 7 1  vais
: 4552 5 4  t'ai
: 4559 1 4 mer
: 4561 1 6 ~
: 4563 4 9 ~
- 4569
* 4571 4 7 Com
* 4577 4 7 me
: 4585 4 5  per
: 4595 4 5 son
: 4600 1 4 ne
: 4603 4 4  n'a
: 4609 3 2  o
: 4615 3 2 sé
: 4621 3 0  t'ai
: 4626 10 2 mer
- 4646
: 4671 4 -5 Je
: 4677 2 -1  vais
* 4683 2 2  t'ai
* 4687 1 4 mer
* 4689 1 5 ~
* 4691 3 7 ~
- 4696
: 4698 4 5 Comme
: 4706 3 5  j'au
: 4710 2 4 rai
: 4717 5 4  tel
: 4725 3 2 l'ment
: 4729 3 2  ai
: 4736 4 0 mé
: 4746 4 0  ętre
: 4755 3 4  ai
: 4761 9 4 mé
- 4780
: 4799 4 -3 Je
: 4805 2 -1  vais
: 4811 4 0  t'ai
: 4817 13 4 mer
- 4852
: 4893 4 4 Je
: 4899 9 2  vais
: 4912 6 4  t'ai
: 4921 3 0 mer
: 4926 1 -1 ~
: 4928 1 -5 ~
: 4930 49 -3 ~
E