#TITLE:Pour un flirt
#ARTIST:Michel Delpech
#MP3:Michel Delpech - Pour Un Flirt.mp3
#VIDEO:Michel Delpech - Pour Un Flirt.mp4
#COVER:Michel Delpech - Pour Un Flirt.jpg
#BPM:342.1
#GAP:12006
#VIDEOGAP:-0.3
#ENCODING:UTF8
#LANGUAGE:French
#GENRE:Vocal
#YEAR:1971
#CREATOR:cinemalin
: 0 6 6 La
: 9 5 6  la
: 17 5 6  la
: 25 3 6  la
: 33 5 6  la
: 41 4 6  la
: 49 3 4  la
: 54 2 6  la
: 57 2 7  la
: 61 7 6  la
- 71
: 73 4 6 La
: 81 5 6  la
: 88 6 6  la
: 97 5 6  la
: 105 1 6  la
- 111
* 113 2 4 La
: 117 2 6  la
: 121 2 7  la
: 125 4 4  la
- 134
: 136 3 4 La
: 144 6 4  la
: 153 3 4  la
: 161 2 4  la
: 168 2 4  la
- 174
: 176 3 2 La
: 181 1 4  la
: 184 3 6  la
: 189 4 2  la
- 215
: 240 2 6 Pour
: 243 5 9  un
* 255 6 11  flirt
: 272 3 6  a
: 276 3 9 vec
: 283 8 11  toi
- 300
: 303 2 6 Je
* 311 5 9  fe
* 318 4 16 rais
: 327 3 14  n'im
: 335 2 14 por
: 341 2 13 te
: 346 4 11  quoi
: 351 1 11 ~
- 362
: 366 3 6 Pour
: 370 4 9  un
: 382 6 4  flirt
- 398
: 429 4 6 A
: 434 3 9 vec
: 443 5 4  toi
: 450 2 6 ~
- 462
: 493 2 6 Je
* 501 3 9  se
* 506 7 11 rais
: 525 2 6  prêt
: 530 2 9  à
: 537 5 11  tout
- 553
: 557 2 6 Pour
: 560 6 9  un
* 572 5 18  sim
* 581 5 16 ple
: 589 4 14  ren
: 594 4 13 dez-
: 600 2 13 vous
: 604 3 11 ~
- 617
: 621 3 6 Pour
: 625 4 9  un
: 636 7 4  flirt
- 653
: 683 5 6 A
: 689 3 9 vec
: 697 3 4  toi
: 702 5 6 ~
- 729
: 764 46 6 Pour
: 812 2 4  un
: 816 2 6  pe
: 819 3 7 tit
: 825 37 6  tour
- 871
: 875 2 4 Un
: 880 1 6  pe
: 883 2 7 tit
: 889 41 4  jour
- 936
: 939 2 2 En
: 943 1 4 tre
: 946 3 6  tes
: 952 17 2  bras
- 991
: 1020 45 9 Pour
: 1066 2 7  un
: 1070 1 9  pe
: 1074 1 11 tit
: 1079 39 9  tour
- 1127
: 1130 2 7 Au
: 1135 1 9  pe
: 1139 1 11 tit
: 1144 42 7  jour
- 1192
: 1195 2 6 En
: 1199 1 7 tre
: 1203 2 9  tes
: 1207 26 6  draps
- 1243
: 1274 7 6 La
: 1284 4 6  la
: 1291 4 6  la
: 1300 2 6  la
: 1307 6 6  la
: 1315 5 6  la
: 1323 3 4  la
: 1328 2 6  la
: 1332 2 7  la
: 1336 5 6  la
- 1345
: 1347 3 6 La
: 1352 8 6  la
: 1363 2 6  la
: 1371 4 6  la
: 1379 1 6  la
- 1385
: 1387 2 4 La
: 1391 1 6  la
: 1394 2 7  la
: 1399 7 4  la
- 1409
: 1411 5 4 La
: 1419 3 4  la
: 1427 5 4  la
: 1435 3 4  la
: 1442 1 4  la
- 1449
: 1451 2 2 La
: 1455 1 4  la
: 1458 4 6  la
: 1464 5 2  la
: 1471 3 2 ~
- 1484
: 1514 1 6 Je
: 1521 4 9  pour
: 1526 8 11 rais
: 1546 2 6  tout
: 1552 2 9  quit
: 1558 8 11 ter
- 1575
: 1578 2 6 Quitte
: 1582 3 9  à
* 1592 8 16  fai
* 1602 2 14 re
: 1610 3 14  dé
: 1615 3 13 mo
: 1621 7 11 dé
- 1638
: 1642 2 6 Pour
* 1645 5 9  un
: 1657 7 4  flirt
- 1674
: 1704 4 6 A
: 1709 3 9 vec
: 1717 3 4  toi
: 1722 6 6 ~
- 1738
: 1769 1 6 Je
: 1776 5 9  pour
: 1782 8 11 rais
: 1801 2 6  me
* 1808 4 9  dam
* 1813 8 11 ner
- 1830
: 1834 3 6 Pour
: 1838 4 9  un
* 1848 6 18  seul
: 1857 3 16  bai
: 1865 3 14 ser
: 1870 5 13  vo
: 1877 6 11 lé
- 1893
: 1897 2 6 Pour
: 1900 5 9  un
: 1912 7 4  flirt
- 1929
* 1960 4 6 A
* 1965 4 9 vec
: 1973 3 4  toi
: 1978 6 6 ~
- 2006
: 2041 46 6 Pour
: 2089 2 4  un
: 2093 1 6  pe
: 2097 1 7 tit
: 2102 38 6  tour
- 2150
: 2154 1 4 Un
: 2158 1 6  pe
: 2162 1 7 tit
: 2167 42 4  jour
- 2215
: 2218 2 2 En
: 2222 1 4 tre
: 2226 1 6  tes
: 2230 20 2  bras
- 2272
: 2299 45 9 Pour
: 2346 2 7  un
: 2350 1 9  pe
: 2354 1 11 tit
: 2359 38 9  tour
- 2406
: 2410 2 7 Au
: 2415 1 9  pe
: 2419 1 11 tit
: 2423 42 7  jour
- 2472
: 2475 2 6 En
: 2479 1 7 tre
: 2482 2 9  tes
: 2486 35 6  draps
- 2531
: 2554 7 6 La
: 2563 6 6  la
: 2572 5 6  la
: 2579 6 6  la
: 2587 6 6  la
: 2595 5 6  la
: 2603 3 4  la
: 2608 2 6  la
: 2611 2 7  la
: 2615 7 6  la
- 2625
: 2627 6 6 La
: 2635 4 6  la
: 2643 5 6  la
: 2651 4 6  la
: 2659 1 6  la
- 2665
: 2667 2 4 La
: 2671 2 6  la
: 2675 2 7  la
: 2679 7 4  la
- 2689
: 2691 3 4 La
: 2699 5 4  la
: 2707 5 4  la
: 2715 4 4  la
: 2722 1 4  la
- 2729
: 2731 2 2 La
: 2735 1 4  la
: 2738 3 6  la
: 2743 4 -1  la
: 2748 3 1 ~
: 2752 4 2 ~
- 2766
: 2795 1 6 Je
* 2803 4 9  fe
* 2808 7 11 rais
: 2826 3 6  l'a
: 2834 4 9 mou
: 2840 6 11 reux
- 2855
: 2859 2 6 Pour
: 2864 2 9  te
* 2874 8 16  ca
* 2884 3 14 li
* 2891 4 14 ner
: 2896 4 13  un
: 2904 6 11  peu
- 2919
: 2923 3 6 Pour
: 2927 5 9  un
: 2939 7 4  flirt
- 2956
: 2987 4 6 A
: 2992 3 9 vec
: 3001 3 4  toi
: 3006 3 6 ~
- 3019
: 3052 1 6 Je
: 3060 3 9  fe
: 3065 6 11 rais
: 3084 2 6  des
* 3092 3 9  fo
* 3096 6 11 lies
- 3112
: 3116 3 6 Pour
* 3120 8 9  ar
* 3130 6 18 ri
* 3139 4 16 ver
: 3147 4 14  dans
: 3154 4 13  ton
: 3160 5 11  lit
- 3176
: 3180 3 6 Pour
* 3184 5 9  un
: 3196 7 4  flirt
- 3213
: 3243 3 6 A
: 3248 3 9 vec
: 3256 6 4  toi
: 3263 3 6 ~
- 3288
: 3325 45 6 Pour
: 3372 1 4  un
: 3377 1 6  pe
: 3380 1 7 tit
: 3385 35 6  tour
- 3432
: 3436 2 4 Un
: 3440 1 6  pe
: 3444 1 7 tit
: 3450 38 4  jour
- 3497
: 3500 2 2 En
: 3504 1 4 tre
: 3508 2 6  tes
: 3513 27 2  bras
- 3550
: 3581 46 9 Pour
: 3629 1 7  un
: 3633 1 9  pe
: 3636 2 11 tit
: 3641 37 9  tour
- 3688
: 3692 2 7 Au
: 3696 2 9  pe
: 3700 2 11 tit
: 3705 42 7  jour
- 3754
: 3757 2 6 En
: 3761 1 7 tre
: 3765 2 9  tes
: 3769 34 6  draps
- 3813
: 3836 7 6 La
: 3846 5 6  la
: 3854 5 6  la
: 3862 6 6  la
: 3870 5 6  la
: 3878 4 6  la
: 3886 3 4  la
: 3891 1 6  la
: 3894 2 7  la
: 3898 6 6  La
- 3907
: 3909 5 6 La
: 3917 7 6  la
: 3926 3 6  la
: 3934 4 6  la
: 3941 1 6 ~
- 3948
: 3950 2 4 La
: 3954 1 6  la
: 3957 2 7  la
: 3962 8 4  la
: 3973 3 4  la
: 3981 5 4  la
: 3990 3 4  la
: 3997 5 4  la
: 4004 1 4  la
- 4011
: 4013 3 2 La
: 4018 1 4  la
: 4021 2 6  la
: 4025 3 4  la
: 4029 7 6 ~
: 4037 1 6 ~
E