#TITLE:Thriller
#ARTIST:Michael Jackson
#MP3:Michael Jackson - Thriller.mp3
#COVER:Michael Jackson - Thriller [CO].jpg
#BACKGROUND:Michael Jackson - Thriller [BG].jpg
#BPM:237,06
#GAP:59160
#ENCODING:UTF8
#LANGUAGE:Englisch
#EDITION:[SC]-Songs
: 1 2 11 It's
: 5 2 13  close
: 9 1 15  to
: 11 13 16  mid
: 29 1 13 night
: 31 1 11 ~
: 33 1 8 ~
- 36
: 43 1 8 and
: 45 2 11  some
: 49 2 13 thing
: 53 2 13  e
: 57 2 11 vil's
: 61 2 13  lurk
: 65 2 11 ing
: 69 2 13  in
: 73 1 16  the
: 75 3 13  dark
: 79 1 11 ~
: 81 1 8 ~ .
- 84
: 129 2 11 Un
: 134 2 13 der
: 137 1 15  the
* 139 14 16  moon
: 158 1 13 light
: 160 1 11 ~
: 162 1 8 ~
- 165
: 171 2 8 you
: 174 2 11  see
: 177 2 13  a
: 181 3 13  sight
: 186 1 11  that
: 188 3 13  al
: 194 2 11 most
- 197
: 198 2 13  stops
: 201 2 16  your
: 204 2 13  heart
: 208 1 11 ~
: 210 2 8 ~ .
- 214
: 226 2 13 You
: 230 2 16  try
: 233 1 20  to
: 236 3 18  scream
: 241 1 16 ~
: 243 7 13 ~ ,
- 252
: 264 2 18 but
: 270 1 18  ter
: 272 2 16 ror
: 276 2 16  takes
: 280 2 15  the
: 284 2 15  sound
- 287
: 288 2 13 be
: 292 2 13 fore
: 296 2 15  you
: 300 2 16  make
: 304 3 11  it
: 309 7 13 ~ .
- 318
: 354 2 13 You
: 358 2 16  start
: 361 2 20  to
: 364 3 18  freeze
: 369 2 16 ~
: 372 8 13 ~
- 382
: 392 3 18 as
: 398 1 18  hor
: 400 2 16 ror
: 404 2 16  looks
: 408 2 15  you
: 412 2 15  right
: 415 2 13  bet
: 419 2 13 ween
: 423 2 15  the
: 426 6 16  eyes,
- 434
: 446 2 16 you're
: 450 2 18  pa
: 454 2 16 ra
: 457 2 20 lyzed
: 460 1 16 ~
: 462 6 18 ~ .
- 470
: 482 2 20 'Cause
: 486 2 23  this
: 490 2 20  is
: 494 4 25  thril
* 500 12 23 ler,
- 514
: 526 5 23  thril
: 534 3 22 ler
: 538 1 20 ~
: 542 3 20  night
: 546 2 18 ~ .
- 550
: 554 2 20 And
: 558 3 20  no
: 563 2 18  one's
: 566 2 18  gon
: 569 2 16 na
: 573 3 16  save
: 578 2 13  you
- 581
: 582 3 16 from
: 586 1 18  the
: 588 4 20  beast
: 594 2 18  a
: 598 2 18 bout
: 602 1 16  to
: 604 2 18  strike.
- 608
: 610 2 20 You
: 614 2 23  know,
: 618 2 20  it's
: 622 4 25  thril
: 628 11 23 ler,
- 641
: 654 6 23  thril
: 663 3 22 ler
: 667 1 20 ~
: 670 3 20  night
: 674 2 18 ~ .
- 678
: 682 2 20 You're
: 686 3 20  fight
: 691 2 18 ing
: 695 2 18  for
: 698 1 16  your
: 700 3 16  life
- 705
: 707 2 13 in
: 711 3 16 side
: 715 2 18  a
: 722 2 16  kil
: 726 2 13 ler,
: 735 2 19  thril
: 739 2 16 ler
- 743
: 747 2 23  to
* 751 9 25 night
: 761 1 23 ~
: 763 6 20 ~
: 770 3 18 ~
: 774 4 16 ~ .
- 780
: 898 3 11 You
: 903 3 13  hear
: 907 1 15  the
: 909 12 16  door
: 927 1 13  slam
: 929 1 11 ~
: 931 1 8 ~
- 934
: 941 1 8 and
: 943 2 11  re
: 947 2 13 a
: 951 2 13 lize
: 955 2 11  there's
: 959 2 13  no
: 963 2 11 where
: 967 2 13  left
: 970 2 16  to
: 973 2 13  run
: 977 1 11 ~
: 979 1 8 ~ .
- 982
: 1027 2 11 You
: 1031 2 13  feel
: 1034 2 15  the
* 1038 12 16  cold
: 1055 3 13  hand
: 1059 1 11 ~
: 1061 1 8 ~
- 1064
: 1069 1 8 and
: 1071 2 11  won
: 1075 2 13 der
: 1079 2 13  if
: 1083 2 11  you'll
- 1086
: 1087 2 13 e
: 1091 2 11 ver
: 1095 2 13  see
: 1099 1 16  the
: 1101 3 13  sun
: 1105 1 11 ~
: 1107 1 8 ~ .
- 1110
: 1123 2 13 You
: 1127 2 16  close
: 1131 2 20  your
: 1134 2 18  eyes
: 1137 2 16 ~
: 1140 11 13 ~
- 1153
: 1162 2 18 and
: 1167 2 18  hope
: 1171 2 16  that
: 1175 2 16  this
: 1179 2 15  is
: 1183 2 15  just
- 1186
: 1187 1 13 i
: 1189 2 13 ma
: 1193 2 15 gi
: 1197 3 16 na
: 1202 7 13 tion.
- 1211
: 1251 2 13 But
: 1255 2 16  all
: 1259 2 20  the
: 1262 2 18  while
: 1265 2 16 ~
: 1268 11 13 ~ ,
- 1281
: 1290 2 18 you
: 1294 2 18  hear
: 1298 2 16  a
: 1302 2 16  crea
: 1305 2 15 ture
: 1309 2 15  creep
: 1312 1 13 in'
: 1314 2 13  up
: 1318 2 15  be
: 1322 8 16 hind.
- 1332
: 1343 2 16 You're
: 1347 2 18  out
: 1350 2 16  of
: 1355 1 20  time
: 1357 1 16 ~
: 1359 7 18 ~ .
- 1368
: 1379 2 20 'Cause
: 1383 2 23  this
: 1387 2 20  is
* 1391 5 25  thril
: 1398 10 23 ler,
- 1410
: 1423 6 23  thril
: 1431 3 22 ler
: 1435 1 20 ~
: 1439 3 20  night
: 1443 2 18 ~ .
- 1447
: 1451 2 20 There
: 1455 2 20  ain't
: 1459 2 18  no
: 1463 2 18  se
: 1467 1 16 cond
: 1469 3 16  chance
- 1473
: 1475 2 13 a
: 1479 2 16 gainst
: 1483 1 18  the
: 1485 4 20  thing
: 1491 2 18  with
: 1495 2 18  for
: 1499 1 16 ty
: 1502 7 20  eyes.
- 1511
: 1535 6 30 Hoo,
* 1543 11 28  hoo!
- 1556
: 1579 2 20 You're
: 1583 3 20  fight
: 1587 2 18 ing
: 1591 2 18  for
: 1595 1 16  your
: 1597 3 16  life
- 1601
: 1603 2 13 in
: 1607 3 16 side
: 1611 2 18  a
: 1619 3 16  kil
: 1623 2 13 ler,
: 1631 3 19 thril
: 1635 2 16 ler
- 1639
: 1643 2 23  to
* 1647 27 25 night.
- 1676
: 1679 4 25  Night
: 1685 3 23  crea
: 1691 2 22 tures
: 1695 5 20  call
- 1701
: 1701 3 18 and
: 1707 2 16  the
: 1711 4 15  dead
: 1717 3 13  start
: 1723 2 15  to
: 1727 3 18  walk
- 1731
: 1733 2 16 in
: 1739 2 15  their
: 1743 6 15  mas
: 1751 3 16 ~
: 1759 2 11 que
: 1763 16 13 rade.
- 1781
: 1807 2 25 There's
: 1812 2 23  no
: 1818 2 22  es
: 1823 2 20 ca
: 1829 2 18 pin'
: 1834 2 16  the
: 1839 2 15  jaws
: 1842 2 13 ~
- 1845
: 1845 2 13 of
: 1849 2 15  the
: 1855 3 16  a
: 1860 2 18 lien
: 1864 4 20  this
: 1872 3 18  time
: 1876 1 16 ~
: 1878 6 13 ~ .
- 1886
: 1903 3 16 This
: 1909 2 18  is
: 1914 2 20  the
: 1919 7 23  end
: 1929 2 21  of
: 1933 2 20  your
: 1937 4 20  life
: 1942 2 21 ~
: 1944 2 20 ~
: 1946 3 18 ~
* 1951 17 20 ~ .
- 1970
: 2019 2 11 They're
: 2023 2 13  out
: 2027 1 15  to
* 2029 12 16  get
: 2047 1 13  you
: 2049 1 11 ~
: 2051 1 8 ~ .
- 2054
: 2061 1 8 The
: 2063 2 11  de
: 2067 2 13 mons
: 2071 2 13  clos
: 2075 2 11 ing
: 2079 2 13  in
: 2083 2 11  on
: 2087 2 13  eve
: 2091 1 16 ry
: 2093 2 13  side
: 2097 1 11 ~
: 2099 4 8 ~ .
- 2105
: 2147 2 11 They
: 2151 2 13  will
: 2155 2 15  pos
: 2158 10 16 sess
: 2175 1 13  you
: 2177 1 11 ~
: 2179 1 8 ~
- 2182
: 2189 1 8 un
: 2191 2 11 less
: 2195 2 13  you
: 2199 2 13  change
: 2203 2 11  that
- 2206
: 2207 2 13  num
: 2211 2 11 ber
: 2215 2 13  on
: 2219 1 16  your
: 2221 3 13  dial
: 2225 1 11 ~
: 2227 3 8 ~ .
- 2232
: 2243 2 13 Now
: 2247 2 16  is
: 2251 2 20  the
: 2254 4 18  time
: 2259 2 16 ~
: 2262 7 13 ~
- 2271
: 2283 2 18 for
: 2287 2 18  you
: 2289 2 16  and
: 2293 2 16  I
: 2297 2 15  to
: 2301 2 15  cud
: 2305 2 13 dle
: 2309 2 13  close
: 2313 2 15  to
: 2317 2 16 ge
: 2322 5 13 ther.
- 2329
: 2371 2 13 All
: 2375 2 16  through
: 2379 1 20  the
: 2381 5 18  night
: 2387 3 16 ~
: 2391 7 13 ~
- 2400
: 2411 2 18 I'll
: 2415 1 18  save
: 2417 2 16  you
: 2421 2 16  from
: 2425 2 15  the
: 2429 2 15  ter
: 2433 2 13 ror
: 2437 2 13  on
: 2440 2 15  the
: 2444 7 16  screen.
- 2453
: 2463 2 16 I'll
: 2467 2 18  make
: 2471 2 16  you
: 2476 2 20  see
: 2479 2 16 ~
: 2482 5 18 ~ ,
- 2489
: 2499 2 20 that
: 2503 2 23  this
: 2507 2 20  is
: 2511 1 23  th
: 2513 2 25 ril
: 2517 11 23 ler,
- 2530
* 2543 6 23  thril
: 2551 3 22 ler
: 2555 1 20 ~
: 2559 3 20  night
: 2563 2 18 ~ .
- 2567
: 2571 2 20 'Cause
: 2575 2 20  I
: 2579 2 18  can
: 2583 2 18  thrill
: 2587 2 16  you
: 2590 2 16  more
- 2593
: 2595 2 13 than
: 2599 1 16  a
: 2601 2 18 ny
: 2605 4 20  ghost
: 2611 2 18  would
: 2615 2 18  have
: 2619 1 16  to
: 2621 6 20  dare
: 2631 1 18  try
: 2633 1 16 ~
: 2635 3 13 ~ .
- 2639
: 2639 5 25 Thril
: 2647 4 23 ler,
- 2653
: 2671 5 23 thril
: 2679 4 22 ler
: 2687 7 20  night.
- 2696
: 2701 1 20 So
: 2703 2 20  let
: 2707 2 18  me
: 2711 3 18  hold
: 2715 1 16  you
: 2717 2 16  tight
: 2723 2 13  and
: 2727 3 16  share
: 2731 2 18  a
- 2735
: 2739 2 16 kil
: 2743 2 13 ler,
: 2751 2 19  dil
: 2755 2 16 ler,
: 2763 2 22  chil
: 2767 2 19 ler,
- 2771
: 2775 2 25 thril
: 2779 2 22 ler
: 2787 2 28  here
: 2791 2 25  to
* 2795 18 30 night.
- 2815
: 2819 2 20 'Cause
: 2823 2 23  this
: 2827 2 20  is
: 2831 4 25  thril
: 2838 11 23 ler,
- 2851
: 2863 5 23  thril
: 2871 3 22 ler
: 2875 1 20 ~
: 2879 3 20  night
: 2883 3 18 ~ .
- 2888
: 2891 2 20 Girl,
: 2895 2 20  I
: 2899 2 18  can
: 2903 2 18  thrill
: 2907 1 16  you
: 2909 2 16  more
- 2913
: 2915 2 13 than
: 2919 1 16  a
: 2921 2 18 ny
: 2925 4 20  ghost
: 2931 2 18  would
: 2935 2 18  have
: 2939 1 16  to
* 2941 6 20  dare
: 2954 1 18  try
: 2956 1 16 ~
: 2958 3 13 ~ .
- 2963
: 2972 7 30 Hoo,
* 2984 5 28  hoo!
- 2990
: 2991 5 23 Thril
: 2999 5 22 ler
: 3007 8 20  night.
- 3017
: 3019 2 20 So
: 3023 2 20  let
: 3027 2 18  me
: 3031 2 18  hold
: 3035 1 16  you
: 3037 2 16  tight
: 3043 2 13  and
: 3047 2 16  share
: 3051 2 18  a
- 3055
: 3059 2 16 Kil
: 3063 2 13 ler,
: 3071 2 19  thril
: 3075 2 16 ler,
* 3080 6 25  oow!
E