#TITLE:They don´t care about us
#ARTIST:Michael Jackson
#EDITION:UltraStar Michael Jackson
#MP3:Michael Jackson - They don´t care about us.mp3
#COVER:Michael Jackson - They don´t care about us [CO].jpg
#VIDEO:Michael Jackson - They don´t care about us.avi
#BPM:179,76
#GAP:41090
: 1 2 5 Skin 
: 5 2 2 head 
: 9 2 5 dead 
: 13 2 2 head 
- 16
: 17 1 4 E
: 19 1 4 very
: 21 1 0 bo
: 23 1 0 dy 
: 25 2 4 gone 
: 29 2 0 bad 
- 32
: 33 1 5 Si
: 35 1 5 tu
: 37 1 2 a
: 39 1 2 tion 
: 41 1 5 ag
: 43 1 5 gra
: 45 1 2 va
: 47 2 2 tion 
- 49
: 49 1 4 E
: 51 1 4 very
: 53 1 0 bo
: 55 1 0 dy 
: 57 1 4 al
: 59 1 4 le
: 61 1 0 ga
: 63 2 0 tion 
- 65
: 65 1 5 In 
: 67 1 5 the 
: 69 3 2 suite 
: 73 1 5 on 
: 75 1 5 the 
: 77 3 2 news 
- 81
: 81 1 4 E
: 83 1 4 very
: 85 1 0 bo
: 87 1 0 dy 
: 89 2 4 dog 
: 93 2 0 food 
- 96
: 97 2 5 Bang 
: 101 2 2 bang 
: 105 2 5 shot 
: 109 2 2 dead 
- 112
: 113 1 4 E
: 115 1 4 very
: 117 1 0 bo
: 119 1 0 dy's 
: 121 2 4 gone 
: 125 2 0 mad 
- 128
: 129 1 5 All 
: 131 1 4 I 
: 133 1 5 wan
: 135 1 4 na 
: 137 1 5 say 
: 139 1 5 is 
: 141 2 2 that 
- 145
: 145 1 4 They 
: 147 1 2 don't 
: 149 1 4 real
: 151 1 2 ly 
: 153 1 4 care 
: 155 1 2 a
: 157 1 0 bout
: 159 1 2 ~ 
: 161 2 2 us 
- 165
: 193 1 5 All 
: 195 1 4 I 
: 197 1 5 wan
: 199 1 4 na 
: 201 1 5 say 
: 203 1 5 is 
: 205 2 2 that 
- 208
: 209 1 4 They 
: 211 1 2 don't 
: 213 1 4 real
: 215 1 2 ly 
: 217 1 4 care 
: 219 1 2 a
: 221 1 0 bout
: 223 1 2 ~ 
: 225 2 2 us 
- 229
: 257 2 5 Beat 
: 261 2 2 me 
: 265 2 5 hate 
: 269 2 2 me 
- 272
: 273 1 4 You 
: 275 1 4 can 
: 277 1 0 ne
: 279 1 0 ver 
: 281 2 4 break 
: 285 2 0 me 
- 288
: 289 2 5 Will 
: 293 2 2 me 
: 297 2 5 thrill 
: 301 2 2 me 
- 304
: 305 1 4 You 
: 307 1 4 can 
: 309 1 0 ne
: 311 1 0 ver 
: 313 2 4 kill 
: 317 2 0 me 
- 320
: 321 2 5 Jew 
: 325 2 2 me 
: 329 2 5 Sue 
: 333 2 2 me 
- 336
: 337 1 4 E
: 339 1 4 very
: 341 1 0 bo
: 343 1 0 dy 
: 345 2 4 do 
: 349 2 0 me 
- 352
: 353 2 5 Kick 
: 357 2 2 me 
: 361 2 5 Kike 
: 365 2 2 me 
- 368
: 369 1 4 Don't 
: 371 1 2 you 
: 373 1 4 black 
: 375 1 2 or 
: 377 1 4 white 
: 381 2 0 me 
- 384
: 385 1 5 All 
: 387 1 4 I 
: 389 1 5 wan
: 391 1 4 na 
: 393 1 5 say 
: 395 1 5 is 
: 397 2 2 that 
- 400
: 401 1 4 They 
: 403 1 2 don't 
: 405 1 4 real
: 407 1 2 ly 
: 409 1 4 care 
: 411 1 2 a
: 413 1 0 bout
: 415 1 2 ~ 
: 417 2 2 us 
- 421
: 449 1 5 All 
: 451 1 4 I 
: 453 1 5 wan
: 455 1 4 na 
: 457 1 5 say 
: 459 1 5 is 
: 461 2 2 that 
- 464
: 465 1 4 They 
: 467 1 2 don't 
: 469 1 4 real
: 471 1 2 ly 
: 473 1 4 care 
: 475 1 2 a
: 477 1 0 bout
: 479 1 2 ~ 
: 481 2 2 us 
- 485
: 517 1 9 Tell 
: 519 1 7 me 
: 521 1 9 what 
: 523 1 7 has 
: 525 1 5 be
: 527 3 7 come 
: 531 1 7 of 
: 533 1 7 my 
: 537 4 7 life 
- 542
: 547 1 7 I 
: 549 1 9 have 
: 551 1 7 a 
: 553 1 9 wife 
: 555 1 7 and 
: 557 1 5 two 
: 559 3 7 chil
: 563 2 7 dren 
- 565
: 565 1 7 Who 
: 567 4 9 love 
: 573 4 5 me 
- 578
: 579 1 7 I 
: 581 1 9 am 
: 583 1 7 the 
: 585 1 9 vic
: 587 2 7 tim 
- 589
: 589 1 5 Of 
: 591 1 5 po
: 593 2 7 lice 
: 597 2 7 bru
: 601 2 5 ta
: 605 4 12 li
: 610 1 9 ty
: 612 1 7 ~
: 614 2 5 ~ 
: 617 4 5 now
- 623
: 643 1 5 I'm 
: 645 1 9 tired 
: 647 1 7 of 
: 649 1 9 be
: 651 1 7 in' 
- 653
: 653 1 5 The 
: 655 2 7 vic
: 659 1 7 tim 
: 661 2 7 of 
: 665 2 7 hate 
- 670
: 675 1 5 You're 
: 677 1 9 ra
: 679 1 7 pin' 
: 681 1 9 me 
: 683 1 7 of 
: 685 1 5 my 
: 687 3 7 pride 
- 689
: 689 1 7 Oh
: 691 1 7 ~ 
: 693 1 7 for 
: 695 3 9 God's 
: 701 1 7 sake
: 703 1 5 ~
- 707
: 707 1 5 I 
: 709 1 9 look 
: 711 1 7 to 
: 713 1 9 hea
: 715 1 7 ven 
: 717 1 5 to 
: 719 1 5 ful
: 721 1 7 fill 
- 723
: 725 2 7 Its 
: 729 2 5 pro
: 733 2 12 phe
: 739 6 9 cy... 
- 746
: 751 2 12 Set 
: 755 2 7 me 
: 760 2 7 free 
- 764
: 769 2 5 Skin 
: 773 2 2 head 
: 777 2 5 dead 
: 781 2 2 head 
- 784
: 786 1 4 E
: 788 1 4 very
: 790 1 0 bo
: 792 1 0 dy 
: 794 3 4 gone 
: 798 2 0 bad 
- 801
: 801 1 5 Tre
: 803 1 5 pi
: 805 1 2 da
: 807 1 2 tion 
: 809 1 5 spe
: 811 1 5 cu
: 813 1 2 la
: 815 1 2 tion 
- 817
: 817 1 4 E
: 819 1 4 very
: 821 1 0 bo
: 823 1 0 dy 
: 825 1 4 al
: 827 1 4 le
: 829 1 0 ga
: 831 1 0 tion 
- 833
: 834 1 5 In 
: 836 1 5 the 
: 838 2 2 suite 
: 841 1 5 on 
: 843 1 5 the 
: 845 2 2 news 
- 848
: 849 1 4 E
: 851 1 4 very
: 853 1 0 bo
: 855 1 0 dy 
: 857 2 4 dog 
: 861 2 0 food 
- 864
: 865 2 5 Black 
: 869 2 2 man 
: 873 2 5 black 
: 877 2 2 mail 
- 879
: 881 1 4 Throw 
: 883 1 4 your 
: 885 1 0 bro
: 887 1 0 ther 
: 889 2 4 in 
: 893 2 0 jail 
- 897
: 898 1 5 All 
: 900 1 4 I 
: 902 1 5 wan
: 904 1 4 na 
: 906 1 5 say 
: 908 1 5 is 
: 910 2 2 that 
- 913
: 914 1 4 They 
: 916 1 2 don't 
: 918 1 4 real
: 920 1 2 ly 
: 922 1 4 care 
: 924 1 2 a
: 926 1 0 bout
: 928 1 2 ~ 
: 930 2 2 us 
- 934
: 962 1 5 All 
: 964 1 4 I 
: 966 1 5 wan
: 968 1 4 na 
: 970 1 5 say 
: 972 1 5 is 
: 974 2 2 that 
- 978
: 978 1 4 They 
: 980 1 2 don't 
: 982 1 4 real
: 984 1 2 ly 
: 986 1 4 care 
: 988 1 2 a
: 990 1 0 bout
: 992 1 2 ~ 
: 994 1 2 us 
- 996
F 997 6 2 Woah! 
- 1005
: 1030 1 9 Tell 
: 1032 1 7 me 
: 1034 1 9 what 
: 1036 1 7 has 
: 1038 1 5 be
: 1040 3 7 come 
: 1044 1 7 of 
: 1046 3 7 my 
: 1050 4 7 rights 
- 1056
: 1060 1 7 Am 
: 1062 1 9 I 
: 1064 1 7 in
: 1066 1 9 vi
: 1068 1 7 si
: 1070 1 5 ble 
- 1055
: 1072 1 7 cause 
: 1076 1 7 you 
: 1078 1 7 i
: 1080 1 7 gnore
: 1082 3 9 ~ 
: 1086 1 7 me
: 1088 1 5 ~?
- 1090
: 1092 1 5 Your 
: 1094 1 9 pro
: 1096 1 7 cla
: 1098 1 9 ma
: 1100 1 7 tion 
- 1102
: 1102 1 5 Pro
: 1104 1 5 mised 
: 1106 3 7 me 
: 1110 3 7 free 
: 1114 3 5 li
: 1118 4 12 ber
: 1124 1 9 ty
: 1126 1 7 ~
: 1128 1 5 ~ 
: 1130 4 5 now 
- 1136
: 1156 1 5 I'm 
: 1158 1 9 tired 
: 1160 1 7 of 
: 1162 1 9 be
: 1164 1 7 in' 
- 1166
: 1166 1 5 The 
: 1168 3 7 vic
: 1172 1 7 tim 
: 1174 2 7 of 
: 1178 2 7 shame 
- 1182
: 1188 1 5 They're 
: 1190 1 9 throw
: 1192 1 7 ing 
: 1194 2 9 me 
- 1197
: 1197 1 9 In 
: 1199 1 5 a 
: 1201 2 7 class 
: 1204 1 7 with 
: 1206 1 7 a 
: 1208 5 9 bad 
: 1214 4 5 name 
- 1219
: 1220 1 5 I 
: 1222 1 9 can't 
: 1224 1 7 be
: 1226 1 9 lieve 
: 1228 1 7 this 
: 1230 1 5 is 
: 1232 1 5 the 
: 1234 4 7 land 
- 1238
: 1238 3 7 From 
: 1242 3 5 which 
: 1246 4 12 I 
: 1252 5 9 came 
- 1262
: 1276 1 7 You 
: 1278 1 7 know 
: 1280 1 9 I 
: 1282 1 10 real
: 1284 2 10 ly 
- 1288
: 1288 2 9 Hate 
: 1292 1 7 to 
: 1294 4 5 say 
: 1299 1 7 it 
- 1307
: 1308 1 5 The 
: 1310 1 5 go
: 1312 1 7 vern
: 1314 3 9 ment 
: 1318 1 7 don't 
: 1320 1 5 wan
: 1322 2 7 na 
: 1325 4 9 see 
- 1338
: 1340 1 5 But 
: 1342 2 7 if 
: 1346 3 9 Roo 
: 1350 1 7 se
: 1352 3 7 velt 
: 1358 2 5 was 
: 1362 1 5 liv
: 1364 2 7 in' 
- 1364
: 1374 2 9 He 
: 1378 2 13 would
: 1382 2 9 n't 
: 1386 2 13 let 
: 1390 2 9 this 
: 1394 2 13 be 
: 1398 5 9 no 
: 1404 5 9 no 
- 1409
: 1410 2 5 Skin 
: 1414 2 2 head 
: 1418 2 5 dead 
: 1422 2 2 head 
- 1425
: 1426 1 4 E
: 1428 1 4 very
: 1430 1 0 bo
: 1432 1 0 dy 
: 1434 2 4 gone 
: 1438 2 0 bad 
- 1441
: 1442 1 5 Si
: 1444 1 5 tu
: 1446 1 2 a
: 1448 1 2 tion 
: 1450 1 5 Spe
: 1452 1 5 cu
: 1454 1 2 la
: 1456 1 2 tion 
- 1457
: 1458 1 4 E
: 1460 1 4 very
: 1462 1 0 bo
: 1464 1 0 dy 
: 1466 1 4 li
: 1468 1 4 ti
: 1470 1 0 ga
: 1472 1 0 tion 
- 1474
: 1474 2 5 Beat 
: 1478 2 2 me 
: 1482 2 5 bash 
: 1486 2 2 me 
- 1489
: 1490 1 4 You 
: 1492 1 4 can 
: 1494 1 0 ne
: 1496 1 0 ver 
: 1498 2 4 trash 
: 1502 1 0 me 
- 1505
: 1506 2 5 Hit 
: 1510 2 2 me 
: 1514 2 5 kick 
: 1518 2 2 me 
- 1520
: 1522 1 4 You 
: 1524 1 4 can 
: 1526 1 0 ne
: 1528 1 0 ver 
: 1530 2 4 get 
: 1534 2 0 me 
- 1537
: 1538 1 5 All 
: 1540 1 4 I 
: 1542 1 5 wan
: 1544 1 4 na 
: 1546 1 5 say 
: 1548 1 5 is 
: 1550 2 2 that 
- 1554
: 1554 1 4 They 
: 1556 1 2 don't 
: 1558 1 4 real
: 1560 1 2 ly 
: 1562 1 4 care 
: 1564 1 2 a
: 1566 1 0 bout
: 1568 1 2 ~ 
: 1570 1 2 us 
- 1574
: 1602 1 5 All 
: 1604 1 4 I 
: 1606 1 5 wan
: 1608 1 4 na 
: 1610 1 5 say 
: 1612 1 5 is 
: 1614 2 2 that 
- 1618
: 1618 1 4 They 
: 1620 1 2 don't 
: 1622 1 4 real
: 1624 1 2 ly 
: 1626 1 4 care 
: 1628 1 2 a
: 1630 1 0 bout
: 1632 1 2 ~ 
: 1634 1 2 us 
- 1640
: 1926 2 5 Some 
: 1930 2 5 things 
: 1934 2 5 in 
: 1938 2 7 life 
: 1942 2 7 they 
: 1946 2 5 just 
: 1950 2 7 don't 
: 1954 2 9 wan
: 1958 1 12 na 
: 1960 6 9 see 
- 1966
: 1980 1 5 But 
: 1982 1 7 if 
: 1986 2 9 Mar
: 1990 1 7 tin 
: 1992 3 5 Lu
: 1996 1 5 ther 
: 1998 3 5 was 
: 2002 1 5 li
: 2004 4 2 vin' 
- 2011
: 2015 2 9 He 
: 2019 2 13 would
: 2023 2 9 n't 
: 2027 2 13 let 
: 2031 2 9 this 
: 2035 2 13 be 
: 2038 4 9 Oh 
: 2044 4 9 no!
- 2048
: 2050 2 5 Skin 
: 2054 2 2 head 
: 2058 2 5 dead 
: 2062 2 2 head 
- 2066
: 2066 1 4 E
: 2068 1 4 very
: 2070 1 0 bo
: 2072 1 0 dy 
: 2074 2 4 gone 
: 2078 1 0 bad 
- 2081
: 2082 1 5 Si
: 2084 1 5 tu
: 2086 1 2 a
: 2088 1 2 tion 
: 2090 1 5 Se
: 2092 1 5 gre
: 2094 1 2 ga
: 2096 1 2 tion 
- 2098
: 2098 1 4 E
: 2100 1 4 very
: 2102 1 0 bo
: 2104 1 0 dy 
: 2106 1 4 al
: 2108 1 4 le
: 2110 1 0 ga
: 2112 1 0 tion 
- 2113
: 2114 1 5 In 
: 2116 1 5 the 
: 2118 3 2 suite 
: 2122 1 5 on 
: 2124 1 5 the 
: 2126 3 2 news 
- 2130
: 2130 1 4 E
: 2132 1 4 very
: 2134 1 0 bo
: 2136 1 0 dy 
: 2138 3 4 dog 
: 2142 1 0 food 
- 2145
: 2146 2 5 Kick 
: 2150 2 2 me 
: 2154 2 5 Kike 
: 2158 2 2 me 
- 2161
: 2162 1 4 Don't 
: 2164 1 2 you 
: 2166 1 4 wrong 
: 2168 1 2 or 
: 2170 2 4 right 
: 2174 2 0 me 
- 2177
: 2178 1 5 All 
: 2180 1 4 I 
: 2182 1 5 wan
: 2184 1 4 na 
: 2186 1 5 say 
: 2188 1 5 is 
: 2190 2 2 that 
- 2194
: 2194 1 4 They 
: 2196 1 2 don't 
: 2198 1 4 real
: 2200 1 2 ly 
: 2202 1 4 care 
: 2204 1 2 a
: 2206 1 0 bout
: 2208 1 2 ~
: 2210 1 2 us 
- 2216
: 2242 1 5 All 
: 2244 1 4 I 
: 2246 1 5 wan
: 2248 1 4 na 
: 2250 1 5 say 
: 2252 1 5 is 
: 2254 2 2 that 
- 2258
: 2258 1 4 They 
: 2260 1 2 don't 
: 2262 1 4 real
: 2264 1 2 ly 
: 2266 1 4 care 
: 2268 1 2 a
: 2270 1 0 bout
: 2272 1 2 ~ 
: 2274 1 2 us 
- 2278
: 2306 1 5 All 
: 2308 1 4 I 
: 2310 1 5 wan
: 2312 1 4 na 
: 2314 1 5 say 
: 2316 1 5 is 
: 2318 2 2 that 
- 2322
: 2322 1 4 They 
: 2324 1 2 don't 
: 2326 1 4 real
: 2328 1 2 ly 
: 2330 1 4 care 
: 2332 1 2 a
: 2334 1 0 bout
: 2336 1 2 ~ 
: 2338 1 2 us 
- 2342
: 2370 1 5 All 
: 2372 1 4 I 
: 2374 1 5 wan
: 2376 1 4 na 
: 2378 1 5 say 
: 2380 1 5 is 
: 2382 2 2 that 
- 2386
: 2386 1 4 They 
: 2388 1 2 don't 
: 2390 1 4 real
: 2392 1 2 ly 
: 2394 1 4 care 
: 2396 1 2 a
: 2398 1 0 bout
: 2400 1 2 ~
- 2402
: 2402 1 5 All 
: 2404 1 4 I 
: 2406 1 5 wan
: 2408 1 4 na 
: 2410 1 5 say 
: 2412 1 5 is 
: 2414 2 2 that 
- 2418
: 2418 1 4 They 
: 2420 1 2 don't 
: 2422 1 4 real
: 2424 1 2 ly 
: 2426 1 4 care 
: 2428 1 2 a
: 2430 1 0 bout
: 2432 1 2 ~
- 2433
: 2434 1 5 All 
: 2436 1 4 I 
: 2438 1 5 wan
: 2440 1 4 na 
: 2442 1 5 say 
: 2444 1 5 is 
: 2446 2 2 that 
- 2450
: 2450 1 4 They 
: 2452 1 2 don't 
: 2454 1 4 real
: 2456 1 2 ly 
: 2458 1 4 care 
: 2460 1 2 a
: 2462 1 0 bout
: 2464 1 2 ~ 
: 2466 1 2 us 
- 2472
: 2472 3 17 Hee 
: 2477 3 14 hee 
- 2494
: 2494 6 19 Wo
: 2501 6 17 ah
: 2508 5 14 ~
E
