#TITLE:Une Belle Histoire
#ARTIST:Michel Fugain
#MP3:Michel Fugain - Une Belle Histoire.mp3
#VIDEO:Michel Fugain - Une Belle Histoire.mp4
#COVER:Michel Fugain - Une Belle Histoire.jpg
#BPM:221.91
#GAP:12280
#VIDEOGAP:2.1
#ENCODING:UTF8
#LANGUAGE:French
#GENRE:Variété Française
#YEAR:1972
#CREATOR:mustangfred et PatTwo
: 0 1 -3 C'est
: 3 2 -1  un
: 6 3 0  beau
: 11 1 -3  ro
: 14 15 0 man
- 31
: 33 3 2 C'est
: 38 13 -1  u
: 52 1 -3 ne
: 55 1 -1  belle
: 59 1 -3  his
: 61 11 -1 toire
- 82
: 86 1 -7 C'est
: 89 2 -5  u
: 92 3 -3 ne
* 96 2 -7  ro
* 100 15 -3 man
* 118 4 -1 ce
: 124 1 -4  d'au
: 126 2 -3 jour
: 130 16 -1 d'hui
- 156
: 171 2 -3 Il
: 174 2 -1  ren
: 177 2 0 trait
: 181 2 -3  chez
: 185 14 0  lui
* 201 6 2  lŕ-
* 208 12 -1 haut
: 222 2 -3  vers
: 225 1 -1  le
: 227 2 -3  brou
: 230 10 -1 illard
- 250
: 257 2 -7 El
: 260 1 -5 le
: 262 2 -3  de
: 268 1 -7 scen
: 270 12 -3 dait
- 288
: 291 2 -1 dans
: 294 2 -4  le
: 297 2 -3  mi
: 300 12 -1 di
: 313 1 -1  le
* 315 2 2  mi
* 318 10 4 di
- 337
: 341 2 0 Ils
: 345 1 2  se
: 347 3 4  sont
: 352 2 0  trou
* 355 18 5 vés
: 374 1 4  au
: 377 11 2  bord
: 390 1 0  du
: 393 2 2  che
: 396 1 0 ~
: 398 6 4 min
- 414
: 427 2 -3 Sur
: 430 1 -1  l'au
: 432 2 0 to
: 435 2 -1 rou
: 438 1 -3 te
: 441 4 4  des
: 446 2 2  va
: 449 8 0 can
: 460 2 2 ces
- 468
: 471 1 -3 C'é
: 473 1 -1 tait
: 476 2 0  sans
: 479 1 -1  doute
: 481 2 -3  un
* 485 3 4  jour
: 489 2 2  de
: 493 8 0  chan
: 503 3 2 ce
- 511
: 513 2 0 Ils
: 516 2 2  a
: 519 2 4 vaient
: 522 1 0  le
: 526 18 5  ciel
: 546 1 4  ŕ
: 549 9 2  por
: 561 2 0 tée
* 564 2 2  de
* 567 1 0 ~
* 570 5 4  main
- 585
: 598 2 -3 Un
: 602 2 -1  ca
: 605 1 0 deau
: 607 4 -3  de la
: 613 5 4  pro
: 619 1 2 vi
: 621 8 0 den
: 631 3 2 ce
- 640
: 642 2 -3 A
: 645 1 -1 lors
: 648 1 0  pour
: 650 1 -1 quoi
: 653 1 -3  pen
: 656 4 4 ser
: 661 2 2  au
: 664 9 0  len
: 674 4 2 de
: 679 8 -3 main
: 688 2 -5 ~
: 691 7 -3 ~
: 699 2 -5 ~
: 702 6 -3 ~
: 709 2 -5 ~
: 712 6 -3 ~
: 719 2 0 ~
: 722 2 -3 ~
: 725 2 -5 ~
: 728 6 -3 ~
- 748
: 770 2 -3 Ils
: 773 1 -1  se
: 777 2 0  sont
: 780 2 -3  ca
: 784 12 0 chés
- 797
: 799 7 2 Dans
: 808 10 -1  un
: 821 1 -3  grand
: 824 2 -1  champ
: 827 1 -3  de
: 830 7 -1  blé
- 847
: 856 2 -7 Se
: 859 1 -5  lais
: 862 2 -3 sant
: 866 1 -7  por
: 871 10 -3 ter
- 887
: 890 2 -1 Par
: 893 1 -4  le
: 897 1 -3  cou
: 899 17 -1 rant
- 926
: 940 1 -3 Se
: 943 2 -1  sont
: 946 2 0  ra
: 949 3 -3 con
: 954 14 0 tés
- 969
: 971 5 2 Leurs
: 978 10 -1  vies
: 990 1 -3  qui
: 994 2 -1  com
: 997 2 -3 men
: 1002 4 -1 çaient
- 1016
: 1026 2 -7 Ils
: 1029 1 -5  n'é
: 1031 2 -3 taient
: 1034 3 -7  en
: 1039 11 -3 core
- 1057
: 1060 2 -1 que
: 1063 2 -4  des
: 1066 3 -3  en
: 1071 9 -1 fants
: 1082 1 -1  des
* 1085 3 2  en
* 1090 1 4 fants
* 1092 1 2 ~
* 1094 6 4 ~
- 1108
: 1111 1 0 Qui
: 1113 1 2  s'é
: 1116 1 4 taient
: 1119 4 0  trou
: 1124 17 5 vés
: 1143 1 4  au
: 1146 10 2  bord
: 1158 1 0  du
: 1161 1 2  che
: 1163 1 0 ~
: 1165 6 4  min
- 1181
: 1196 1 -3 Sur
: 1198 2 -1  l'au
: 1201 1 0 to
: 1203 2 -1 rou
: 1206 1 -3 te
: 1209 4 4  des
: 1214 1 2  va
: 1217 8 0 can
: 1227 3 2 ces
- 1236
: 1238 1 -3 C'é
: 1241 1 -1 tait
: 1244 2 0  sans
: 1247 1 -1  doute
: 1249 2 -3  un
: 1252 4 4  jour
: 1257 1 2  de
: 1260 8 0  chan
: 1271 3 2 ce
- 1279
: 1281 1 0 Qui
: 1284 2 2  cueil
: 1287 2 4 lirent
: 1291 1 0  le
* 1294 18 5  ciel
: 1313 1 4  au
: 1317 10 2  creux
: 1329 2 0  de
: 1332 1 2  leurs
: 1334 2 0 ~
: 1337 6 4  mains
- 1353
: 1367 2 -3 Comme
: 1370 1 -1  on
: 1373 2 0  cueil
: 1376 1 -1 le
: 1378 1 -3  la
: 1381 4 4  pro
: 1386 2 2 vi
: 1389 8 0 den
: 1399 3 2 ce
- 1408
: 1410 1 -3 Re
: 1413 1 -1 fu
: 1415 2 0 sant
: 1418 1 -1  de
: 1420 2 -3  pen
: 1424 4 4 ser
: 1429 2 2  au
: 1432 8 0  len
: 1441 4 2 de
: 1447 8 -3 main
: 1456 1 -5 ~
: 1458 7 -3 ~
: 1466 2 -5 ~
: 1469 7 -3 ~
: 1477 2 -5 ~
: 1480 6 -3 ~
: 1487 2 0 ~
: 1490 2 -3 ~
: 1493 2 -5 ~
: 1496 6 -3 ~
- 1516
: 1538 1 -3 C'est
: 1540 2 -1  un
: 1543 4 0  beau
: 1548 2 -3  ro
: 1551 15 0 man
- 1567
: 1569 4 2 C'est
: 1575 13 -1  u
: 1589 1 -3 ne
: 1592 1 -1  belle
: 1594 2 -3  his
: 1597 11 -1 toire
- 1619
: 1623 2 -7 C'est
: 1626 2 -5  u
: 1629 3 -3 ne
: 1633 2 -7  ro
: 1636 16 -3 man
: 1655 4 -1 ce
: 1660 2 -4  d'au
: 1664 1 -3 jour
: 1666 22 -1 d'hui
- 1698
: 1709 2 -3 Il
: 1712 1 -1  ren
: 1715 2 0 trait
: 1720 2 -3  chez
: 1723 15 0  lui
: 1740 5 2  lŕ-
: 1746 12 -1 haut
: 1760 2 -3  vers
: 1763 1 -1  le
: 1766 1 -3  brouil
: 1769 9 -1 lard
- 1790
: 1794 2 -7 El
: 1797 1 -5 le
: 1799 3 -3  de
: 1805 1 -7 scen
: 1808 15 -3 dait
: 1826 4 -1  dans
: 1831 2 -4  le
: 1834 1 -3  mi
: 1836 13 -1 di
: 1850 1 -1  le
* 1853 2 2  mi
: 1856 1 4 di
: 1858 1 2 ~
: 1860 4 4 ~
- 1874
: 1878 2 0 Ils
: 1881 1 2  se
: 1884 3 4  sont
: 1889 1 0  quit
: 1892 16 5 tés
: 1909 2 4  au
: 1913 11 2  bord
: 1926 1 0  du
: 1929 1 2  ma
: 1931 1 0 ~
: 1934 7 4  tin
- 1951
: 1964 2 -3 Sur
: 1967 1 -1  l'au
: 1969 2 0 to
: 1972 1 -1 rou
: 1975 1 -3 te
: 1977 4 4  des
: 1982 2 2  va
: 1985 8 0 can
: 1996 2 2 ces
- 2004
: 2007 1 -3 C'é
: 2009 1 -1 tait
: 2013 1 0  fi
: 2015 1 -1 ni
: 2017 1 -3  le
: 2020 4 4  jour
: 2025 1 2  de
: 2028 8 0  chan
: 2038 3 2 ce
- 2046
: 2048 2 0 Ils
: 2051 2 2  re
: 2054 2 4 prirent
: 2059 2 0  a
: 2062 14 5 lors
: 2080 1 4  cha
: 2083 11 2 cun
: 2096 3 0  leur
: 2101 1 2  che
: 2103 1 0 ~
: 2105 5 4  min
- 2120
: 2134 2 -3 Sa
: 2137 2 -1 luč
: 2140 1 0 rent
: 2142 1 -1 ~
: 2145 1 -3  la
: 2148 4 4  pro
: 2153 2 2 vi
: 2156 7 0 den
: 2166 2 2 ce
- 2174
: 2177 1 -3 En
: 2180 1 -1  se
: 2182 1 0  fai
: 2184 2 -1 sant
: 2188 1 -3  un
: 2191 3 4  si
: 2196 1 2 gne
: 2199 8 0  de
: 2208 4 2  la
: 2213 8 -3  main
: 2222 1 -5 ~
: 2224 7 -3 ~
: 2232 2 -5 ~
: 2235 7 -3 ~
: 2243 2 -5 ~
: 2246 6 -3 ~
: 2253 2 0 ~
: 2256 2 -3 ~
: 2259 2 -5 ~
: 2262 6 -3 ~
- 2282
: 2303 2 -3 Il
: 2306 2 -1  ren
: 2309 3 0 tra
: 2314 1 -3  chez
: 2317 16 0  lui
: 2335 2 2  lŕ-
: 2338 14 -1 haut
: 2355 1 -3  vers
: 2357 2 -1  le
: 2360 1 -3  brouil
: 2362 13 -1 lard
- 2385
: 2389 2 -7 Elle
: 2392 1 -5  est
: 2394 2 -3  de
: 2399 2 -7 scen
: 2402 12 -3 due
- 2420
: 2423 2 -1 Lŕ-
: 2426 1 -4  bas
: 2429 2 -3  dans
: 2432 29 -1  le
: 2463 3 -3  mi
: 2468 34 -3 di
- 2503
: 2505 4 2 C'est
: 2511 13 -1  u
: 2525 1 -3 ne
: 2527 2 -1  belle
: 2530 2 -3  his
: 2533 12 -1 toire
- 2555
: 2559 1 -7 C'est
: 2562 1 -5  u
: 2564 4 -3 ne
: 2569 1 -7  ro
: 2572 15 -3 man
: 2590 4 -1 ce
: 2596 1 -4  d'au
: 2598 2 -3 jour
: 2601 35 -1 d'hui
: 2638 38 -3 ~
E