#TITLE:Ayo Technology
#ARTIST:Milow
#LANGUAGE:English
#EDITION:Romantik
#MP3:Milow - Ayo Technology.mp3
#COVER:Milow - Ayo Technology [CO].jpg
#VIDEO:Milow - Ayo Technology.avi
#BPM:256,08
#GAP:11080
: 0 1 11 She
: 2 2 14  work
: 5 1 14  it
: 7 3 14  girl
- 12
: 16 1 11 she
: 18 3 14  work
: 22 1 14  the
: 24 1 14  po
: 26 3 13 ~le
- 30
: 31 1 11 She
: 34 2 14  break
: 37 1 14  it
: 39 4 14  down
- 44
: 46 1 14 She
: 49 2 14  take
: 53 2 16  it
: 57 2 16  low.
- 60
: 61 2 13 She
: 66 2 13  fine
: 69 1 11  as
: 72 3 13  hell
- 76
: 76 1 13 She's
: 78 1 11  a
: 80 2 13 bout
: 83 1 11  the
: 86 3 13  dough,
- 91
: 98 1 13 do
: 100 1 13 ing
: 102 1 14  her
: 105 2 14  thing
: 110 3 13  right
: 114 2 11  on
* 117 1 9  the
: 120 3 11  floor
- 124
: 125 2 11 Her
* 129 3 14  mon
: 133 1 13 ey,
: 136 2 14  mon
: 139 1 13 ey
: 142 1 13  she
: 146 3 14  ma
: 151 2 11 kin'
- 155
: 158 2 14 Look
: 161 2 14  at
: 164 1 13  the
: 167 2 14  way
: 173 1 13  she
: 177 3 14  sha
: 183 3 11 kin'
- 188
: 190 1 14 Make
: 192 1 14  you
: 194 2 13  wan
: 197 1 13 na
: 200 2 13  touch,
- 203
: 204 1 14 you
: 206 1 13  wan
: 208 1 11 na
: 211 4 14  taste
- 216
: 218 2 13 Have
: 221 1 14  you
: 224 2 13  lus
: 229 2 11 tin'
: 233 2 11  for
: 238 3 11  her
- 243 244
: 270 4 14 gone
: 278 3 14  cra
: 282 1 13 zy,
: 286 3 13  face
: 292 6 11  it
- 300 330
: 350 1 11 She's
: 354 1 13  so
: 357 1 14  much
: 360 3 14  more
: 365 1 14  than
: 367 1 13  you're
: 370 2 14  used
: 375 2 11  to
- 379
: 381 2 11 knows
: 385 2 14  just
: 389 1 14  how
: 391 1 13  to
: 393 3 14  move
- 397
: 397 1 14 and
: 399 1 13  se
: 402 2 14 duce
: 407 2 11  you
- 410
: 412 1 11 She
: 414 2 11  gon'
: 417 2 13  do
: 420 1 13  the
: 422 2 13  right
: 426 2 13  thing
- 429
: 429 1 14 and
: 431 2 13  touch
: 435 1 13  the
: 437 2 13  right
: 441 2 13  spot
- 444
: 446 2 13 Dance
: 450 2 14  in
: 454 2 14  you're
: 458 2 14  lap
: 461 1 14  'till
: 463 1 14  you're
: 465 1 14  rea
: 467 1 11 dy
: 469 1 11  to
: 472 2 11  pop
- 476
: 478 2 11 She
: 482 5 14  al
: 490 4 14 ways
: 498 6 14  rea
: 506 2 11 dy
- 509
: 510 2 11 when
: 514 2 14  you
: 518 3 14  want
: 522 1 14  it,
: 526 2 14  she
: 530 2 14  want
: 534 2 14  it
- 537
: 538 2 14 Like
: 542 2 13  a
: 546 4 16  nym
: 554 2 16 pho
* 558 2 14  the
: 562 4 16  in
* 570 2 16 fo
- 574
: 578 2 18 show
: 582 2 19  you
: 586 2 19  where
: 590 2 19  to
: 594 2 19  meet
: 598 2 18  her
- 601
: 602 2 16 On
: 606 1 14  the
: 610 3 18  late
: 615 4 18  night
- 620
: 622 2 14 'till
: 626 2 18  day
: 631 3 18  light
* 639 1 14  the
: 642 3 18  club
: 647 2 18  jum
: 651 2 18 pin'
- 653
: 653 2 18 If
: 657 1 18  you
: 659 1 18  want
: 661 1 18  a
: 665 2 18  good
: 669 7 16  time
- 678 679
: 691 1 14 she
: 693 2 16  gon'
: 697 2 18  give
: 702 5 18  you
: 709 2 16  what
: 713 2 14  you
: 718 4 14  want
- 724 725
: 742 1 14 Ba
: 744 1 14 by,
: 746 2 14  it's
: 750 2 14  a
: 754 3 14  ne
: 758 2 13 ~w
: 762 3 13  a
: 766 4 11 ~ge
- 772
: 774 2 14 You
: 778 3 14  like
: 782 2 14  my
: 786 3 14  ne
: 790 2 13 ~w
: 794 3 13  cra
: 798 4 11 ~ze
- 804
: 806 2 13 Let's
: 810 2 13  get
: 816 1 13  to
: 818 3 13 ge
: 822 2 11 ther
- 825
: 826 2 11 May
: 830 2 9 be
: 834 2 14  we
: 838 2 14  can
: 842 2 14  start
: 846 2 14  a
: 850 3 14  ne
: 854 2 11 ~w
: 858 6 11  phase
- 866
: 870 1 14 The
: 874 3 14  smoke's
: 878 1 14  got
: 880 1 14  the
: 882 3 14  club
: 886 2 13  all
: 890 2 13  ha
: 894 1 11 zy
- 896
: 898 2 14 Spot
: 902 2 14 lights
: 906 2 14  don't
: 910 1 14  do
: 912 1 14  you
: 914 2 14  jus
: 918 1 13 tice,
: 922 2 13  ba
: 926 2 11 by
- 930
: 934 3 13 Why
: 938 2 13  don't
: 942 2 13  you
* 946 2 16  come
: 950 2 14  o
: 954 2 13 ver
: 958 5 11  he
: 965 2 9 ~re
- 969
: 974 2 14 you
: 978 2 14  got
: 982 2 11  me
: 986 2 11  say
: 990 2 11 ing
- 993
* 995 9 14 A
* 1006 6 11 yo
- 1014
: 1022 2 11 I'm
: 1026 2 14  tired
: 1030 2 13  of
: 1034 2 14  us
: 1038 2 13 ing
: 1042 2 14  tech
: 1046 2 14 no
: 1050 2 13 lo
: 1054 3 14 gy
: 1058 3 13 ~
: 1062 2 11 ~
: 1066 4 9 ~
- 1072 1073
: 1086 1 14 Why
: 1088 1 14  don't
: 1090 2 14  you
: 1094 2 14  sit
: 1098 3 14  down
: 1102 2 14  on
: 1106 2 14  top
: 1110 2 11  of
: 1114 3 11  me?
- 1119
: 1123 9 14 A
: 1134 6 11 yo
- 1142
: 1150 2 11 I'm
: 1154 2 14  tired
: 1158 2 13  of
: 1162 2 14  us
: 1166 2 13 ing
: 1170 3 14  tech
: 1174 2 14 no
: 1178 2 13 lo
: 1182 3 14 gy
* 1186 3 13 ~
* 1190 2 11 ~
* 1194 3 9 ~
- 1199 1200
: 1214 2 11 I
: 1218 3 14  need
: 1222 2 14  you
: 1226 3 14  right
: 1230 2 14  in
: 1234 3 14  fro
: 1238 5 13 ~
: 1245 3 11 ~nt
- 1250 1251
: 1270 4 9 of
: 1278 13 11  me
- 1293 1386
: 1406 1 11 In
: 1408 1 11  her
: 1410 2 14  fan
: 1414 1 13 ta
: 1417 3 14 sy
: 1422 2 11  its
: 1426 2 14  plain
: 1429 1 13  to
: 1433 4 14  see
- 1438
: 1438 2 11 Just
: 1442 2 14  how
: 1445 2 13  it
: 1449 3 14  be
: 1454 4 14  on
: 1462 4 14  me
- 1468
: 1474 3 16 back
: 1480 4 16  stro
: 1486 2 14 kin'
- 1489
: 1491 2 16 Sweat
: 1496 3 16  soa
: 1502 4 14 king
- 1507
: 1507 2 14 All
: 1511 1 13  in
: 1514 2 14 to
: 1518 2 14  my
: 1522 2 16  set
: 1527 2 11  sheets
- 1531
: 1534 1 11 When
: 1536 1 11  she
: 1538 1 14  rea
: 1540 1 14 dy
: 1542 1 13  to
: 1544 4 14  ride
- 1549
: 1550 2 11 I'm
: 1554 1 14  rea
: 1556 1 14 dy
: 1558 1 13  to
: 1560 4 14  roll
- 1565
: 1567 1 13 I'll
: 1569 1 11  be
: 1571 2 14  in
: 1574 1 14  this
: 1578 2 14  bitch
: 1582 1 14  till
: 1584 1 13  the
: 1586 3 14  club
* 1592 3 14  close
- 1597
: 1600 1 14 What
: 1602 2 16  should
: 1605 1 16  I
: 1609 2 16  do
: 1612 1 16  on
: 1614 1 14  all
: 1618 5 18  force?
- 1625
: 1632 1 14 Now
: 1634 3 19  that
: 1638 2 19  bad
: 1642 2 19  shit
: 1646 1 19  should
: 1648 1 19  be
: 1650 3 19  'gainst
: 1654 1 18  the
: 1657 3 18  law
- 1662
: 1667 2 16 Diff'
: 1671 2 18 rent
: 1675 3 16  sty
: 1679 2 18 ~le
: 1683 2 16  diff'
: 1687 2 18 rent
: 1691 3 16  mo
: 1695 2 18 ~ve
- 1698
: 1698 2 16 Damn,
: 1702 2 18  I
: 1706 2 16  like
: 1710 2 18  the
: 1714 2 16  way
: 1718 2 14  you
: 1722 3 11  mo
: 1726 2 9 ~ve
- 1729
: 1730 2 16 Girl,
: 1734 2 18  you
: 1738 2 16  got
: 1742 2 18  me
: 1746 2 16  thin
: 1750 2 18 king
: 1754 3 16  'bou
: 1758 2 18 ~t
- 1762
: 1766 1 16 All
: 1768 1 18  the
: 1770 2 16  things
: 1774 3 14  I
: 1778 1 14  do
: 1780 2 14  to
: 1784 5 18  you
- 1791
: 1798 2 18 Let's
: 1802 2 16  get
: 1806 2 18  it
: 1810 2 16  pop
: 1814 2 18 pin'
: 1818 2 16  shor
: 1822 2 18 ty
- 1825
: 1826 2 16 We
: 1830 2 18  can
: 1834 2 16  switch
: 1838 2 18  po
: 1842 2 16 si
: 1846 2 18 ~
: 1850 5 18 tions
- 1857 1858
: 1866 2 14 From
: 1870 2 16  the
: 1874 5 16  couch
- 1880
* 1882 2 16 to
* 1886 2 14  the
* 1890 3 19  coun
: 1894 2 19 ters
: 1898 2 19  of
: 1902 2 19  my
: 1906 2 19  kit
: 1910 5 18 che
: 1918 2 16 ~n
- 1922
: 1927 1 14 Ba
: 1929 1 14 by,
: 1931 2 14  it's
: 1935 2 14  a
: 1939 3 14  ne
: 1943 2 13 ~w
: 1947 3 13  a
: 1951 4 11 ~ge
- 1956
: 1958 2 13 You
: 1962 3 14  like
: 1966 2 14  my
: 1970 3 14  ne
: 1974 2 13 ~w
: 1979 3 13  cra
: 1983 3 11 ~ze
- 1988
: 1990 2 13 Let's
: 1994 2 13  get
: 2000 1 13  to
: 2002 3 13 ge
: 2006 2 11 ther
- 2009
: 2010 2 11 May
: 2014 2 9 be
: 2018 2 14  we
: 2022 2 14  can
: 2026 2 14  start
: 2030 2 14  a
: 2034 3 14  ne
: 2038 2 11 ~w
: 2042 6 11  phase
- 2050
: 2054 1 14 The
: 2058 3 14  smoke's
: 2062 1 14  got
: 2064 1 14  the
: 2066 3 14  club
: 2070 2 13  all
: 2074 2 13  ha
: 2078 1 11 zy
- 2080
: 2082 2 14 Spot
: 2086 2 14 lights
: 2090 2 14  don't
: 2094 1 14  do
: 2096 1 14  you
: 2098 2 14  jus
: 2102 1 13 tice,
: 2106 2 13  ba
: 2110 2 11 by
- 2114
: 2118 3 13 Why
: 2122 2 13  don't
: 2126 2 13  you
* 2130 2 16  come
: 2134 2 14  o
: 2138 2 13 ver
: 2142 5 11  he
: 2149 2 9 ~re
- 2153
: 2158 2 14 you
: 2162 2 14  got
: 2166 2 11  me
: 2170 2 11  say
: 2174 2 11 ing
- 2177
* 2179 9 14 A
* 2190 6 11 yo
- 2198
: 2206 2 11 I'm
: 2210 2 14  tired
: 2214 2 13  of
: 2218 2 14  us
: 2222 2 13 ing
: 2226 2 14  tech
: 2230 2 14 no
: 2234 2 13 lo
: 2238 3 14 gy
: 2242 3 13 ~
: 2246 2 11 ~
: 2250 4 9 ~
- 2256 2257
: 2270 1 13 Why
: 2272 1 11  don't
: 2274 2 11  you
: 2278 2 14  sit
: 2282 3 14  down
: 2286 2 14  on
: 2290 2 14  top
: 2294 2 11  of
: 2298 3 11  me?
- 2303
: 2307 9 14 A
: 2318 6 11 yo
- 2326
: 2334 2 11 I'm
: 2338 2 14  tired
: 2342 2 13  of
: 2346 2 14  us
: 2350 2 13 ing
: 2354 3 14  tech
: 2358 2 14 no
: 2362 2 13 lo
* 2366 6 16 gy
: 2374 3 13 ~
: 2378 2 11 ~
: 2382 4 9 ~
- 2388 2389
: 2398 2 11 I
: 2402 3 14  need
: 2406 2 14  you
: 2410 3 14  right
: 2414 2 14  in
: 2418 2 13  front
: 2422 2 11  of
: 2426 4 11  me
- 2432
: 2435 5 11 Ooh,
: 2447 2 18  she
: 2451 5 16  wants
: 2459 4 18  it
- 2465
: 2467 5 11 Ooh,
: 2478 2 18  she
: 2483 4 16  wants
: 2491 3 18  it
- 2496
: 2499 6 9 Mmh,
: 2510 2 18  she
: 2515 4 16  wants
: 2523 3 18  it
- 2528
: 2534 2 14 I
: 2538 3 16  got
: 2542 2 14  to
: 2546 3 16  give
: 2550 2 14  it
: 2554 2 14  to
: 2558 3 18  he
: 2562 5 18 ~r
- 2569
: 2574 2 18 She
: 2579 4 16  wants
: 2587 3 18  it
- 2592
: 2595 6 11 Mmh,
: 2607 2 18  she
: 2611 5 16  wants
: 2619 3 18  it
- 2624
: 2627 6 23 Mmh,
: 2639 2 18  she
: 2643 5 16  wants
: 2651 3 18  it
- 2656
: 2662 2 14 I
: 2666 3 16  got
: 2670 2 14  to
: 2674 3 16  give
: 2678 2 14  it
: 2682 2 14  to
: 2686 3 18  he
: 2690 3 18 ~
: 2694 5 18 ~
: 2700 2 16 ~
: 2703 2 14 ~
: 2706 11 14 ~r
- 2719
: 2726 2 14 I
: 2730 3 18  got
: 2734 2 18  to
: 2738 3 18  give
: 2742 2 16  it
: 2746 2 14  to
* 2751 6 16  he
* 2758 1 13 ~
* 2760 2 11 ~
* 2763 10 9 ~r
- 2775 2802
: 2822 1 14 Ba
: 2824 1 14 by,
: 2826 2 14  it's
: 2830 2 14  a
: 2834 3 14  ne
: 2838 2 13 ~w
: 2842 3 13  a
: 2846 4 11 ~ge
- 2852
: 2854 2 14 You
: 2858 3 14  like
: 2862 2 14  my
: 2866 3 14  ne
: 2870 2 13 ~w
: 2874 3 13  cra
: 2878 4 11 ~ze
- 2884
: 2886 2 13 Let's
: 2890 2 13  get
: 2896 1 13  to
: 2898 3 13 ge
: 2902 2 13 ther
- 2905
: 2906 2 13 May
: 2910 2 11 be
: 2914 2 14  we
: 2918 2 14  can
: 2922 2 14  start
: 2926 2 14  a
: 2930 5 14  new
: 2938 6 14  phase
- 2946
: 2950 1 13 The
: 2954 3 14  smoke's
: 2958 1 14  got
: 2960 1 14  the
: 2962 3 14  club
: 2966 2 13  all
: 2970 2 13  ha
: 2974 1 11 zy
- 2976
: 2978 2 14 Spot
: 2982 2 14 lights
: 2986 2 14  don't
: 2990 1 14  do
: 2992 1 14  you
: 2994 2 14  jus
: 2998 1 13 tice,
: 3002 2 13  ba
: 3006 2 11 by
- 3010
: 3014 3 13 Why
: 3018 2 13  don't
: 3022 2 13  you
* 3026 2 16  come
: 3030 2 14  o
: 3034 2 13 ver
: 3038 6 11  he
: 3046 3 9 ~re
- 3051
: 3054 2 14 you
: 3058 2 14  got
: 3062 2 11  me
: 3066 2 11  say
: 3070 2 9 ing
- 3073
* 3075 9 14 A
* 3086 6 11 yo
- 3094
: 3102 2 11 I'm
: 3106 2 14  tired
: 3110 2 13  of
: 3114 2 14  us
: 3118 2 13 ing
: 3122 2 14  tech
: 3126 2 14 no
: 3130 2 13 lo
: 3134 3 14 gy
: 3138 3 13 ~
: 3142 2 11 ~
: 3146 4 9 ~
- 3152 3153
: 3166 1 11 Why
: 3168 1 9  don't
: 3170 2 14  you
: 3174 2 14  sit
: 3178 3 14  down
: 3182 2 14  on
: 3186 2 14  top
: 3191 2 11  of
: 3195 3 11  me?
- 3200
: 3203 9 14 A
: 3215 6 11 yo
- 3223
: 3230 2 11 I'm
: 3234 2 14  tired
: 3238 2 13  of
: 3242 2 14  us
: 3246 2 13 ing
: 3250 3 14  tech
: 3254 2 14 no
: 3258 2 13 lo
: 3263 3 14 gy
* 3267 3 13 ~
* 3271 2 11 ~
* 3275 3 9 ~
- 3280 3281
: 3295 2 11 I
: 3299 3 14  need
: 3303 2 14  you
: 3307 3 14  right
: 3311 2 14  in
: 3317 4 14  fro
: 3322 4 13 ~
: 3328 3 11 ~nt
: 3333 3 11  of
: 3338 4 9  me
: 3343 16 11 ~
E
