#TITLE:Porcelain
#ARTIST:Moby
#MP3:Moby - Porcelain.mp3
#VIDEO:Moby - Porcelain.mp4
#COVER:Moby - Porcelain.jpg
#BPM:297.5
#GAP:16080
#ENCODING:UTF8
#LANGUAGE:English
: 495 1 2 Eh 
: 497 1 0 - 
: 499 10 -2 - 
- 511
: 545 1 2 Eh 
: 547 1 0 - 
: 549 10 -2 - 
- 561
: 595 1 2 Eh 
: 597 1 0 - 
: 599 9 -2 - 
- 610
: 646 2 2 O
: 649 3 0 ah 
: 664 8 -5 o
: 673 10 -2 ah 
- 685
: 695 1 2 Eh 
: 697 1 0 - 
: 699 9 -2 - 
- 710
: 746 1 2 Eh 
: 748 1 0 - 
: 750 10 -2 - 
- 762
: 796 1 2 Eh 
: 798 1 0 - 
: 800 9 -2 - 
- 811
: 847 3 2 O
: 851 4 0 ah 
: 865 8 -5 o
: 874 5 -2 ah 
- 881
: 895 5 2 In 
: 901 11 2 my 
: 913 14 2 dreams 
: 928 11 2 I'm 
: 940 11 3 dy
: 952 12 2 ing 
: 965 11 0 all 
: 977 11 2 the 
: 989 18 -2 time 
- 1009
: 1097 6 2 As 
: 1104 11 2 I 
: 1116 10 2 wake 
: 1127 10 2 its 
: 1138 6 2 ka
: 1145 7 3 lei
: 1153 8 2 do
: 1162 13 0 sco
: 1176 12 2 pic 
: 1189 16 -2 mind 
- 1207
: 1304 3 2 I 
: 1308 4 3 ne
: 1313 5 2 ver 
: 1320 7 3 meant 
: 1328 9 2 to 
: 1339 10 3 hurt 
: 1350 12 2 you 
- 1364
: 1415 4 2 I 
: 1420 6 3 ne
: 1427 4 2 ver 
: 1432 8 2 meant 
: 1441 9 3 to 
: 1451 10 0 lie 
: 1462 12 2 - 
- 1476
: 1564 5 -5 So 
: 1570 9 0 this 
: 1580 7 0 is 
: 1588 13 2 good
: 1602 9 -2 bye 
- 1613
: 1672 7 0 This 
: 1680 8 0 is 
: 1689 14 2 good
: 1704 9 -2 bye 
- 1715
: 1747 1 2 Eh 
: 1749 1 0 - 
: 1751 9 -2 - 
- 1762
: 1797 1 2 Eh 
: 1799 1 0 - 
: 1801 9 -2 - 
- 1812
: 1847 3 2 O
: 1851 11 0 ah 
: 1868 5 -5 o
: 1874 12 -2 ah 
- 1888
: 1897 2 2 Eh 
: 1900 2 0 - 
: 1903 14 -2 - 
- 1919
: 1947 2 2 Eh 
: 1950 2 0 - 
: 1953 8 -2 - 
- 1963
: 1998 1 2 Eh 
: 2000 1 0 - 
: 2002 9 -2 - 
- 2013
: 2047 4 2 O
: 2052 8 0 ah 
: 2071 4 -5 o
: 2076 8 -2 ah 
- 2086
: 2098 8 2 Tell 
: 2107 9 2 the 
: 2117 12 2 truth 
: 2130 11 2 you 
: 2143 11 3 ne
: 2155 12 2 ver 
: 2169 9 0 wan
: 2179 12 2 ted 
: 2192 12 -2 me 
- 2206
: 2272 9 -2 Tell 
: 2285 10 -2 me 
- 2297
: 2410 7 -1 Mh 
: 2418 6 0 - 
: 2425 9 2 - 
: 2435 6 0 - 
: 2442 6 -1 - 
: 2449 5 -1 - 
: 2455 4 -3 - 
: 2460 26 -3 - 
- 2488
: 2700 4 2 In 
: 2705 12 2 my 
: 2718 13 2 dreams 
: 2732 10 2 I'm 
: 2743 11 3 jea
: 2755 13 2 lous 
: 2769 11 0 all 
: 2781 11 2 the 
: 2793 14 -2 time 
- 2809
: 2900 6 2 As 
: 2907 9 2 I 
: 2917 13 2 wake 
: 2931 10 2 I'm 
: 2942 9 3 go
: 2953 14 2 ing 
: 2968 10 0 out 
: 2979 11 0 of 
: 2993 9 2 my 
: 3005 9 -2 mind 
- 3016
: 3049 5 3 Go
: 3055 11 2 ing 
: 3067 12 0 out 
: 3080 11 0 of 
: 3092 14 2 my 
: 3107 10 -2 mind 
- 3119
: 3149 1 2 Eh 
: 3151 1 0 - 
: 3153 8 -2 - 
- 3163
: 3201 1 2 Eh 
: 3203 1 0 - 
: 3205 9 -2 - 
- 3216
: 3249 1 2 Eh 
: 3251 1 0 - 
: 3253 9 -2 - 
- 3264
: 3300 3 2 O
: 3304 9 0 ah 
: 3321 5 -5 o
: 3327 11 -2 ah 
- 3340
: 3349 1 2 Eh 
: 3351 1 0 - 
: 3353 9 -2 - 
- 3364
: 3400 1 2 Eh 
: 3402 1 0 - 
: 3404 9 -2 - 
- 3415
: 3450 1 2 Eh 
: 3452 1 0 - 
: 3454 9 -2 - 
- 3465
: 3499 5 2 O
: 3505 9 0 ah 
: 3520 7 -5 o
: 3529 10 -2 ah 
- 3541
: 3550 1 2 Eh 
: 3552 1 0 - 
: 3554 9 -2 - 
- 3565
: 3600 1 2 Eh 
: 3602 1 0 - 
: 3604 7 -2 - 
- 3613
: 3651 1 2 Eh 
: 3653 1 0 - 
: 3655 9 -2 - 
- 3666
: 3701 3 2 O
: 3705 8 0 ah 
: 3721 6 -5 o
: 3728 12 -2 ah 
- 3742
: 3750 1 2 Eh 
: 3752 1 0 - 
: 3754 9 -2 - 
- 3765
: 3802 1 2 Eh 
: 3804 1 0 - 
: 3806 9 -2 - 
- 3817
: 3851 1 2 Eh 
: 3853 1 0 - 
: 3855 9 -2 - 
- 3866
: 3901 4 2 O
: 3906 9 0 ah 
: 3923 6 -5 o
: 3931 10 -2 ah 
E