#TITLE:Coconut Tree
#ARTIST:Mohombi ft. Nicole Scherzinger
#MP3:Mohombi ft. Nicole Scherzinger - Coconut Tree.mp3
#VIDEO:Mohombi ft. Nicole Scherzinger - Coconut Tree.mp4
#COVER:Mohombi ft. Nicole Scherzinger - Coconut Tree.jpg
#BPM:260
#GAP:1220
#ENCODING:UTF8
#PREVIEWSTART:22,038
#LANGUAGE:English
#GENRE:Pop
#YEAR:2011
: 0 1 2 I'll
: 2 2 2  al
: 6 2 2 ways
: 10 1 2  re
: 12 2 2 mem
: 16 2 2 ber
- 20
: 32 2 2 Our
: 36 2 2  sum
: 40 3 2 mer
: 46 2 2  in
: 50 1 2  Ha
: 52 2 2 wai
: 56 2 2 i
- 60
: 74 1 2 A
: 76 2 2 lo
: 80 2 2 ha
: 84 2 2  Nu
: 88 1 2 i
: 90 1 2  Lo
: 92 2 2 a
- 96
: 100 2 2 Un
: 104 2 2 der
: 108 2 0  the
: 112 5 0  co
: 120 2 -2 co
: 124 4 -2 nut
: 132 6 -2  tree
: 140 2 -3  we
: 144 10 -2  stay
- 156
: 164 2 2 Fall
: 168 2 2  and
: 172 2 0  crush
* 176 6 0  in
: 184 2 -2 to
: 188 6 -2  me
: 196 6 -2  like
: 204 2 5  a
: 208 10 0  wave
- 220
: 228 2 2 You
: 232 2 2  bring
: 236 2 0  the
: 240 6 0  fool
: 248 2 -2  out
: 252 2 -2  of
: 256 2 -2  my
: 260 3 -2  coo
: 264 3 -5 ~l
- 269
: 272 6 0 Ba
: 280 2 -2 by,
: 284 2 -2  use
: 288 2 -2  your
: 292 6 -2  tools
- 300
: 308 2 -2 Make
: 312 2 -2  me
: 316 2 -2  wan
: 320 2 -2 na
* 324 6 5  change
: 332 2 -2  my
: 336 10 0  ways
- 348
: 356 2 0 Un
: 360 2 2 der
: 364 2 0  the
: 368 5 0  co
: 376 2 -2 co
: 380 4 -2 nut
: 388 4 -2  tree
- 394
: 396 2 -2 You'll
: 400 2 -2  be
: 404 2 -2  chil
: 408 2 -2 ling
* 412 6 -2  with
: 420 6 -2  me
- 428
: 432 1 -2 Ma
: 434 1 -2 king
: 436 2 -2  love
: 440 2 -7  to
: 444 2 -7  you
: 448 1 -2  in
: 450 1 -2  a
: 452 2 -2  bed
: 456 2 -7  so
: 460 2 -7  true
- 463
: 464 6 0 Made
: 472 2 0  of
: 476 2 2  sand
: 480 2 0  and
: 484 4 0  sea
- 490
: 492 2 0 No
: 496 6 0  place
: 504 2 -2  I'd
* 508 2 -2  ra
: 512 2 -2 ther
: 516 4 -2  be
- 522
: 524 2 -2 No
: 528 2 -2  one
: 532 2 -2  else
: 536 2 -2  I
: 540 2 -2  wan
: 544 2 -2 na
: 548 6 -2  please
- 556
: 560 2 -2 No
: 564 2 -2  one
: 568 2 -7  but
: 572 2 -7  you,
* 576 2 -2  boo
: 580 2 -2  I
: 584 2 -7  got
: 588 2 -7  you
- 591
: 592 6 0 Got
: 600 2 0  the
: 604 2 2  best
: 608 2 0  of
: 612 4 0  me
- 618
: 628 7 7 Hey
: 636 3 5 ~
: 640 2 2 ~,
: 644 7 7  hey
: 652 3 5 ~
: 656 2 2 ~
- 659
: 660 1 5 U
: 662 1 5 sual
: 664 2 5 ly
: 668 2 5  I'll
: 672 2 3  be
: 676 2 3  gone
: 680 2 2  be
: 684 2 2 fore
: 688 2 0  the
* 692 2 0  mor
: 696 2 2 ning
: 700 10 2  lights
- 712
: 724 3 10 Oo
: 728 3 9 ~
: 732 2 5 ~h,
: 736 7 10  oo
: 744 3 9 ~
: 748 3 5 ~h
- 753
: 756 7 7 O
* 764 3 5 ~
: 768 2 2 ~h...
- 772
: 784 1 7 But
: 786 1 7  your
: 788 2 7  eyes
: 792 2 5  keep
: 796 2 5  tel
: 800 2 3 ling
: 804 2 3  me
- 807
: 808 2 2 It's
: 812 2 2  not
: 816 2 0  the
: 820 2 0  case
: 824 2 2  to
: 828 10 2 night
- 840
: 868 2 2 You
: 872 1 2  gon
: 874 1 2 na
* 876 2 0  make
: 880 2 -2  me
: 884 4 -2  stay
- 890
: 904 1 -2 Gon
: 906 1 -2 na
: 908 2 0  make
: 912 2 2  me
: 916 3 2  stay
: 920 3 3 ~
: 924 4 2 ~
- 930
: 932 2 3 You
: 936 1 3  gon
: 938 1 3 na
: 940 2 3  make
: 944 2 3  me
: 948 5 2  stay
* 954 1 0 ~
: 956 6 -2 ~
- 964
: 972 2 -2 For
* 976 6 5 e
: 984 6 0 ver
- 992
: 996 2 2 You
: 1000 1 2  gon
: 1002 1 2 na
: 1004 2 0  make
: 1008 2 -2  me
: 1012 4 -2  stay
- 1018
: 1032 1 -2 Gon
: 1034 1 -2 na
: 1036 2 0  make
: 1040 2 2  me
: 1044 3 2  stay
: 1048 3 3 ~
: 1052 4 2 ~
- 1058
: 1060 2 3 You
: 1064 1 3  gon
: 1066 1 3 na
: 1068 2 3  make
: 1072 2 3  me
: 1076 5 2  stay
: 1082 1 0 ~
: 1084 6 -2 ~
- 1092
: 1100 2 -2 For
: 1104 6 5 e
: 1112 6 0 ver
- 1120
: 1124 2 0 Un
: 1128 2 2 der
: 1132 2 0  the
: 1136 5 0  co
* 1144 2 -2 co
: 1148 4 -2 nut
: 1156 6 -2  tree
: 1164 2 -3  we
: 1168 10 -2  stay
- 1180
: 1188 2 0 Watch
: 1192 2 2  as
: 1196 2 0  the
: 1200 10 0  night
: 1212 6 -2  turns
: 1220 6 -2  in
: 1228 2 5 to
: 1232 10 0  day
- 1244
: 1252 2 0 We
: 1256 2 2  let
: 1260 2 0  the
* 1264 6 0  fi
: 1272 2 -2 re
: 1276 2 -2  be
: 1280 2 -2  the
: 1284 3 -2  li
: 1288 2 -5 ~ght
- 1292
: 1296 6 0 Sky's
: 1304 2 -2  the
: 1308 2 -2  floor
: 1312 2 -2  to
: 1316 6 -2 night
- 1324
: 1332 2 -2 Fly
: 1336 2 -2  me
: 1340 2 -2  with
* 1344 2 -2  your
: 1348 6 5  gent
: 1356 2 -2 lest
: 1360 10 0  way
- 1372
: 1380 2 0 Un
: 1384 2 2 der
: 1388 2 0  the
* 1392 5 0  co
: 1400 2 -2 co
: 1404 4 -2 nut
: 1412 4 -2  tree
- 1418
: 1420 2 -2 You'll
: 1424 2 -2  be
: 1428 2 -2  chil
: 1432 2 -2 ling
: 1436 6 -2  with
: 1444 6 -2  me
- 1452
: 1456 1 -2 Ma
: 1458 1 -2 king
: 1460 2 -2  love
: 1464 2 -7  to
: 1468 2 -7  you
: 1472 1 -2  in
: 1474 1 -2  a
: 1476 2 -2  bed
: 1480 2 -7  so
: 1484 2 -7  true
- 1487
: 1488 6 0 Made
: 1496 2 0  of
* 1500 2 2  sand
: 1504 2 0  and
: 1508 4 0  sea
- 1514
: 1516 2 0 No
: 1520 6 0  place
: 1528 2 -2  I'd
: 1532 2 -2  ra
: 1536 2 -2 ther
: 1540 4 -2  be
- 1546
: 1548 2 5 No
: 1552 2 5  one
: 1556 2 5  else
: 1560 2 7  I
: 1564 2 7  wan
: 1568 2 7 na
: 1572 6 7  please
- 1580
: 1584 2 -2 No
: 1588 2 -2  one
: 1592 2 -7  but
: 1596 2 -7  you,
: 1600 2 -2  boo
: 1604 2 -2  I
: 1608 2 -7  got
: 1612 2 -7  you
- 1615
* 1616 6 0 Got
: 1624 2 0  the
: 1628 2 2  best
: 1632 2 0  of
: 1636 4 0  me
- 1642
: 1652 7 7 Hey
: 1660 3 5 ~
: 1664 2 2 ~,
* 1668 7 7  hey
: 1676 3 5 ~
: 1680 2 2 ~
- 1683
: 1684 1 5 U
: 1686 1 5 sual
: 1688 2 5 ly
: 1692 2 5  I'll
: 1696 2 3  be
: 1700 2 3  gone
: 1704 2 2  be
: 1708 2 2 fore
: 1712 2 0  the
: 1716 2 0  mor
: 1720 2 2 ning
: 1724 10 2  lights
- 1736
: 1748 3 10 Oo
: 1752 3 9 ~
: 1756 2 5 ~h,
: 1760 7 10  oo
* 1768 3 9 ~
: 1772 3 5 ~h
- 1777
: 1780 7 7 O
: 1788 3 5 ~
: 1792 2 2 ~h...
- 1796
: 1808 1 7 But
: 1810 1 7  your
: 1812 2 7  eyes
* 1816 2 5  keep
: 1820 2 5  tel
: 1824 2 3 ling
: 1828 2 3  me
- 1831
: 1832 2 2 It's
: 1836 2 2  not
: 1840 2 0  the
: 1844 2 0  case
: 1848 2 2  to
: 1852 10 2 night
- 1864
: 1892 2 2 You
: 1896 1 2  gon
: 1898 1 2 na
: 1900 2 0  make
: 1904 2 -2  me
: 1908 4 -2  stay
- 1914
: 1928 1 -2 Gon
: 1930 1 -2 na
: 1932 2 0  make
* 1936 2 2  me
: 1940 3 2  stay
: 1944 3 3 ~
: 1948 4 2 ~
- 1954
: 1956 2 3 You
: 1960 1 3  gon
: 1962 1 3 na
: 1964 2 3  make
: 1968 2 3  me
: 1972 5 2  stay
: 1978 1 0 ~
: 1980 6 -2 ~
- 1988
: 1996 2 -2 For
: 2000 6 5 e
: 2008 6 0 ver
- 2016
: 2020 2 2 You
: 2024 1 2  gon
: 2026 1 2 na
: 2028 2 0  make
: 2032 2 -2  me
: 2036 4 -2  stay
- 2042
: 2056 1 -2 Gon
: 2058 1 -2 na
: 2060 2 0  make
: 2064 2 2  me
: 2068 3 2  stay
* 2072 3 3 ~
: 2076 4 2 ~
- 2082
: 2084 2 3 You
: 2088 1 3  gon
: 2090 1 3 na
: 2092 2 3  make
: 2096 2 3  me
: 2100 5 2  stay
: 2106 1 0 ~
: 2108 6 -2 ~
- 2116
: 2124 2 -2 For
: 2128 6 5 e
: 2136 6 0 ver
- 2144
: 2180 4 7 Sing
: 2186 4 7  it
: 2192 2 7  to
: 2196 4 5  me,
: 2202 4 0  ba
: 2208 2 0 by,
: 2212 4 0  that
* 2218 4 2  me
: 2224 2 3 lo
: 2228 2 5 dy
- 2232
: 2244 4 5 I
: 2250 3 2  hear
: 2256 2 0  the
: 2260 3 0  dru
: 2264 4 -2 ~ms
- 2270
: 2276 2 3 You
: 2280 2 2  gon'
: 2284 2 0  make
: 2288 2 -2  me
: 2292 4 -5  stay
- 2298
: 2308 2 3 We
: 2312 2 2  gon'
: 2316 2 0  let
: 2320 2 -2  it
: 2324 4 -3  play
- 2330
: 2340 2 0 Ba
: 2344 2 0 by,
* 2348 2 2  turn
: 2352 2 3  it
: 2356 2 5  up,
: 2362 2 5  up
- 2366
: 2368 2 5 You
: 2372 4 5  sound
: 2378 4 2  just
: 2384 2 0  like
: 2388 3 0  lo
: 2392 2 -2 ~ve
- 2396
: 2404 2 3 You
: 2408 2 2  gon'
: 2412 2 0  make
: 2416 2 -2  me
: 2420 4 -5  stay
- 2426
: 2436 2 3 We
: 2440 2 2  gon'
: 2444 2 0  let
: 2448 2 -2  it
: 2452 4 -3  play
- 2458
: 2468 2 0 Ba
: 2472 2 0 by,
: 2476 2 2  turn
: 2480 2 3  it
: 2484 2 5  up,
: 2490 2 5  up
- 2494
: 2496 2 5 You
* 2500 4 5  sound
: 2506 4 2  just
: 2512 2 0  like
: 2516 3 0  lo
: 2520 2 -2 ~ve
- 2524
: 2532 6 2 Just
: 2540 6 0  like
: 2548 5 2  lo
: 2554 1 0 ~
: 2556 10 -2 ~ve
- 2568
: 2580 1 5 U
: 2582 1 5 sual
: 2584 2 5 ly
: 2588 2 5  I'll
: 2592 2 3  be
: 2596 2 3  gone
: 2600 2 2  be
: 2604 2 2 fore
: 2608 2 0  the
: 2612 2 0  mor
: 2616 2 2 ning
: 2620 10 2  lights
- 2632
: 2644 3 10 Oo
: 2648 3 9 ~
* 2652 2 5 ~h,
: 2656 7 10  oo
: 2664 3 9 ~
: 2668 3 5 ~h
- 2673
: 2676 7 7 O
: 2684 3 5 ~
: 2688 2 2 ~h...
- 2692
: 2704 1 7 But
: 2706 1 7  your
: 2708 2 7  eyes
: 2712 2 5  keep
: 2716 2 5  tel
: 2720 2 3 ling
: 2724 2 3  me
- 2727
: 2728 2 2 It's
: 2732 2 2  not
: 2736 2 0  the
: 2740 2 0  case
* 2744 2 2  to
: 2748 10 2 night
- 2760
: 2788 2 2 You
: 2792 1 2  gon
: 2794 1 2 na
: 2796 2 0  make
: 2800 2 -2  me
: 2804 4 -2  stay
- 2810
* 2824 1 -2 Gon
: 2826 1 -2 na
: 2828 2 0  make
: 2832 2 2  me
: 2836 3 2  stay
: 2840 3 3 ~
: 2844 4 2 ~
- 2850
: 2852 2 3 You
: 2856 1 3  gon
: 2858 1 3 na
: 2860 2 3  make
: 2864 2 3  me
: 2868 5 2  stay
: 2874 1 0 ~
: 2876 6 -2 ~
- 2884
: 2892 2 -2 For
: 2896 6 5 e
* 2904 6 0 ver
- 2912
: 2916 2 2 You
: 2920 1 2  gon
: 2922 1 2 na
: 2924 2 0  make
: 2928 2 -2  me
: 2932 4 -2  stay
- 2938
: 2952 1 -2 Gon
: 2954 1 -2 na
: 2956 2 0  make
: 2960 2 2  me
: 2964 3 2  stay
: 2968 3 3 ~
: 2972 4 2 ~
- 2978
: 2980 2 3 You
: 2984 1 3  gon
: 2986 1 3 na
: 2988 2 3  make
: 2992 2 3  me
* 2996 5 2  stay
: 3002 1 0 ~
: 3004 6 -2 ~
- 3012
: 3020 2 -2 For
: 3024 6 5 e
: 3032 6 0 ver
- 3040
: 3060 7 7 Hey
: 3068 3 5 ~
: 3072 2 2 ~,
: 3076 7 7  hey
* 3084 3 5 ~
: 3088 2 2 ~
- 3091
: 3092 1 5 U
: 3094 1 5 sual
: 3096 2 5 ly
: 3100 2 5  I'll
: 3104 2 3  be
: 3108 2 3  gone
: 3112 2 2  be
: 3116 2 2 fore
: 3120 2 0  the
: 3124 2 0  mor
: 3128 2 2 ning
: 3132 10 2  lights
- 3144
: 3156 3 10 Oo
* 3160 3 9 ~
: 3164 2 5 ~h,
: 3168 7 10  oo
: 3176 3 9 ~
: 3180 3 5 ~h
- 3185
: 3188 7 7 O
: 3196 3 5 ~
: 3200 2 2 ~h...
- 3204
: 3216 1 7 But
: 3218 1 7  your
* 3220 2 7  eyes
: 3224 2 5  keep
: 3228 2 5  tel
: 3232 2 3 ling
: 3236 2 3  me
- 3239
: 3240 2 2 It's
: 3244 2 2  not
: 3248 2 0  the
: 3252 2 0  case
: 3256 2 2  to
: 3260 10 2 night
- 3272
: 3300 2 2 You
: 3304 1 2  gon
: 3306 1 2 na
: 3308 2 0  make
: 3312 2 -2  me
: 3316 4 -2  stay
- 3322
: 3336 1 -2 Gon
: 3338 1 -2 na
: 3340 2 0  make
: 3344 2 2  me
: 3348 3 2  stay
: 3352 3 3 ~
: 3356 4 2 ~
- 3362
: 3364 2 3 You
: 3368 1 3  gon
: 3370 1 3 na
: 3372 2 3  make
: 3376 2 3  me
: 3380 5 2  stay
: 3386 1 0 ~
: 3388 6 -2 ~
- 3396
* 3404 2 -2 For
: 3408 6 5 e
: 3416 6 0 ver
- 3424
: 3428 2 2 You
: 3432 1 2  gon
: 3434 1 2 na
: 3436 2 0  make
: 3440 2 -2  me
: 3444 4 -2  stay
- 3450
: 3464 1 -2 Gon
: 3466 1 -2 na
: 3468 2 0  make
: 3472 2 2  me
: 3476 3 2  stay
* 3480 3 3 ~
: 3484 4 2 ~
- 3490
: 3492 2 3 You
: 3496 1 3  gon
: 3498 1 3 na
: 3500 2 3  make
: 3504 2 3  me
: 3508 5 2  stay
: 3514 1 0 ~
: 3516 6 -2 ~
- 3524
: 3532 2 -2 For
: 3536 6 5 e
* 3544 6 0 ver
- 3552
: 3584 1 2 I'll
: 3586 2 2  al
: 3590 2 2 ways
: 3594 1 2  re
: 3596 2 2 mem
: 3600 2 2 ber
- 3604
: 3616 2 2 Our
: 3620 2 2  sum
: 3624 3 2 mer
: 3630 2 2  in
: 3634 1 2  Ha
: 3636 2 2 wai
: 3640 2 2 i
- 3644
: 3658 1 2 A
: 3660 2 2 lo
: 3664 2 2 ha
: 3668 2 2  Nu
: 3672 1 2 i
: 3674 1 2  Lo
: 3676 2 2 a
E