#TITLE:Broken Wings
#ARTIST:Mr Mister
#LANGUAGE:English
#EDITION:SingStar Ballad
#GENRE:Pop
#YEAR:1985
#MP3:Mr Mister - Broken Wings.mp3
#COVER:Mr Mister - Broken Wings [CO].jpg
#BACKGROUND:Mr Mister - Broken Wings [BG].jpg
#VIDEO:Mr Mister - Broken Wings [VD#0].avi
#VIDEOGAP:0
#BPM:198
#GAP:14545,45
: 0 5 63 Ba
: 6 3 63 by
- 11 12
: 20 3 56 Don't
: 24 2 56  un
: 28 1 63 der
: 32 9 63 stand
- 43 44
: 56 3 56 Why
: 60 2 63  we
: 64 4 63  can't
: 70 1 61  just
: 74 2 58  hold
: 78 1 54 ~
: 80 7 56 on
- 89
: 94 1 56 To
: 96 4 63  each
: 102 3 61  o
: 107 1 54 thers'
* 111 25 56  hands
- 138 235
: 255 4 63 This
: 262 5 63  time
- 269
: 275 3 56 Might
: 279 3 56  be
: 284 2 63  the
: 287 5 63  last
: 297 1 54  I
: 302 8 56  fear
- 312
: 316 2 63 Un
: 319 3 63 less
: 326 6 63  I
- 334 335
: 343 2 56 Make
: 347 3 63  it
: 351 5 63  all
: 358 3 54  too
: 364 6 56  clear
- 371
: 371 2 56 I
: 375 3 59  need
: 380 4 63  you
* 388 29 61  so
- 419 420
: 439 5 56 Whoa
: 445 5 63 ~
: 450 33 61 ~
- 485 486
: 511 5 68 Take
- 518 519
: 531 2 61 These
: 535 2 64  bro
: 539 2 68 ken
: 543 5 68  wings
- 550 551
: 563 2 61 And
: 567 2 64  learn
: 571 1 68  to
: 573 5 68  fly
: 579 1 66  a
: 581 3 66 gain
- 586
: 591 3 66 Learn
: 595 1 64  to
: 597 2 66  live
: 602 4 68  so
: 609 2 66  free
: 611 2 64 ~
: 613 3 61 ~
- 618 619
: 631 1 61 When
: 635 3 68  we
: 639 5 68  hear
- 646 647
: 658 1 61 The
: 660 3 64  voi
: 665 3 68 ces
: 671 4 68  sing
- 677 678
: 690 1 61 The
: 693 2 64  book
: 697 4 68  of
: 703 2 68  love
: 707 1 66  will
: 709 2 66  o
: 713 5 66 pen
: 719 2 66  up
- 723
: 725 1 64 And
: 727 1 66  let
: 729 4 68  us
: 736 2 66  in
: 738 2 64 ~
: 740 4 61 ~
- 746 747
: 766 6 68 Take
- 774 775
: 786 2 61 These
: 790 3 64  bro
: 795 2 68 ken
: 799 48 68  wings
- 849 875
: 895 4 63 Ba
: 901 3 63 by
- 906 907
: 917 1 56 I
: 919 2 56  think
: 923 2 63  to
: 927 5 63 night
- 934 935
: 950 2 56 We
: 954 2 63  can
: 959 4 63  take
: 965 2 61  what
: 969 1 59  was
: 974 8 56  wrong
- 984 985
* 995 1 51 And
: 997 2 61  make
: 1001 1 59  it
: 1006 9 56  right
- 1017 1036
: 1056 42 61 Mmm
: 1103 8 56  mmm
- 1113 1127
* 1147 9 68 Ba
: 1157 4 63 by
- 1163 1164
: 1172 1 56 It's
: 1174 3 56  all
: 1178 2 63  I
: 1182 6 63  know
- 1190 1191
: 1206 2 56 That
: 1210 2 63  you're
: 1214 4 63  half
: 1220 2 61  of
: 1224 2 59  the
: 1229 2 56  flesh
- 1233 1234
: 1242 2 56 And
: 1246 3 63  blood
: 1250 1 63  that
: 1252 2 61  makes
: 1256 2 59  me
- 1260
: 1262 11 56 Whole
: 1273 2 59 ~
: 1275 2 61 ~
: 1277 2 63 ~
: 1279 27 61 ~
- 1308 1309
: 1333 1 56 I
: 1334 2 56  need
: 1338 4 63  you
: 1345 29 61  so
- 1376 1377
: 1402 3 64 So
: 1406 5 68  take
- 1413 1414
: 1426 2 61 These
: 1430 3 64  bro
: 1434 2 68 ken
* 1438 10 68  wings
- 1450
: 1458 2 61 And
: 1462 3 64  learn
: 1466 1 68  to
: 1468 5 68  fly
: 1474 1 66  a
: 1476 4 66 gain
- 1482
: 1486 3 66 Learn
: 1490 1 64  to
: 1492 2 66  live
: 1496 5 68  so
: 1503 2 66  free
: 1505 2 64 ~
: 1507 5 61 ~
- 1514 1515
: 1524 1 59 And
: 1526 3 61  when
: 1530 3 68  we
: 1534 6 68  hear
- 1542 1543
: 1554 1 61 The
: 1556 1 64  voi
: 1560 3 68 ces
: 1565 5 68  sing
- 1572 1573
: 1585 1 61 The
: 1587 2 64  book
: 1592 3 68  of
: 1597 3 68  love
: 1602 1 66  will
: 1604 2 66  o
: 1608 4 66 pen
: 1613 2 66  up
- 1617 1618
: 1627 1 64 And
: 1629 3 68  let
: 1633 4 66  us
: 1641 7 64  in
- 1650
: 1653 8 66 Yeah,
: 1666 21 61  yeah
- 1689 1761
: 1781 2 61 Let
: 1784 2 64  us
* 1788 89 64  in
- 1879 2017
: 2037 2 61 Let
: 2040 1 64  us
: 2044 4 66  in
: 2048 79 64 ~
- 2129 2153
: 2173 5 63 Ba
: 2179 4 63 by
- 2185 2186
: 2195 1 56 It's
: 2197 2 56  all
: 2201 2 63  I
: 2205 5 63  know
- 2212 2213
: 2229 2 56 That
: 2233 2 63  you're
: 2237 4 63  half
: 2243 3 61  of
: 2247 2 59  the
: 2251 2 56  flesh
- 2255
: 2261 1 56 And
: 2265 4 68  blood
: 2269 3 66 ~
: 2273 1 63 that
: 2275 2 66  makes
: 2279 3 66  me
: 2284 4 66  whole
- 2290
: 2293 5 68 Yeah,
: 2301 6 66  yeah,
: 2311 7 63  yeah
: 2318 13 61 ~
- 2333 2334
: 2357 11 68 Yeah,
: 2371 2 65  yeah
: 2373 2 63 ~
: 2375 18 61 ~
- 2395 2405
: 2425 2 64 So
* 2429 4 68  take
- 2435 2436
: 2449 1 61 These
: 2453 2 64  bro
: 2457 1 68 ken
: 2461 5 68  wings
- 2468 2469
: 2481 1 61 And
: 2485 2 64  learn
: 2489 1 68  to
: 2491 5 68  fly
: 2497 1 66  a
: 2499 4 66 gain
- 2505
: 2508 3 66 Learn
: 2512 1 64  to
: 2515 1 66  live
: 2519 4 68  so
: 2525 2 66  free
: 2527 2 64 ~
: 2529 3 61 ~
- 2534 2535
: 2547 1 59 And
: 2548 3 61  when
: 2552 4 68  we
: 2557 6 68  hear
- 2565 2566
: 2576 1 61 The
: 2578 3 64  voi
* 2583 2 68 ces
: 2588 4 68  sing
- 2594 2595
: 2608 1 61 The
: 2610 2 64  book
: 2614 4 68  of
: 2620 3 68  love
: 2624 2 66  will
: 2627 1 66  o
: 2630 5 66 pen
: 2636 2 66  up
- 2640
: 2642 1 64 And
* 2643 3 66  let
: 2647 4 68  us
: 2654 2 66  in
: 2656 4 64 ~
- 2662 2663
* 2673 2 71 Take
: 2675 21 73 ~
- 2698
: 2704 1 71 These
: 2709 2 66  bro
: 2713 1 64 ken
: 2717 6 64  wings
- 2725 2726
: 2736 1 61 You've
: 2738 1 64  got
: 2742 4 68  to
: 2748 3 68  learn
: 2752 1 66  to
: 2754 5 66  fly
- 2761
: 2765 2 66 Learn
: 2768 1 64  to
: 2770 3 66  live
: 2774 4 64  your
: 2779 2 68  life
: 2784 5 66  so
: 2791 4 64  free
- 2797
: 2802 1 59 And
: 2804 2 61  when
: 2808 4 68  we
: 2813 8 68  hear
- 2823 2824
: 2832 1 61 The
: 2834 3 64  voi
: 2840 5 64 ces
: 2847 3 61  sing
- 2852 2853
: 2864 1 61 The
: 2867 1 64  book
: 2871 3 68  of
: 2876 2 68  love
: 2880 1 66  will
: 2882 3 66  o
: 2886 5 66 pen
: 2892 2 66  up
: 2896 2 64  for
: 2898 2 66  us
- 2901
: 2902 3 64 And
: 2908 2 68  let
: 2912 4 66  us
: 2920 4 64  in
- 2925
: 2927 7 66 Yeah,
: 2937 16 61  yeah
- 2955 3036
: 3056 16 66 Yeah,
: 3075 31 61  yeah
- 3108 3155
: 3175 4 68 Ooh
: 3179 2 69 ~
: 3181 4 68 ~
: 3185 2 69 ~
: 3187 8 68 ~
: 3198 13 66 ooh
E
