#TITLE:Believe
#ARTIST:Mumford and Sons
#MP3:Mumford and Sons - Believe.mp3
#VIDEO:Mumford and Sons - Believe.mp4
#COVER:Mumford and Sons - Believe [CO].png
#BPM:230.00
#GAP:7206
#ENCODING:UTF8
#LANGUAGE:English
#GENRE:Rock
#YEAR:2015
#CREATOR:gun88
: 0 3 -3 You
* 4 3 9  may
: 8 13 9  call
: 22 3 6  it
: 26 11 4  in
: 38 3 2  this
: 42 4 4  eve
: 49 4 -1 ning
- 62
: 66 2 -3 But
* 69 4 9  you've
: 74 11 9  on
: 86 2 6 ly
: 90 6 4  lost
: 104 2 2  the
: 107 9 4  night
- 123
: 126 4 -3 Pre
: 131 4 9 sent
: 139 11 9  all
: 151 4 6  your
: 156 10 4  pret
: 167 3 2 ty
: 171 3 4  feel
: 176 7 -1 ings
- 192
: 195 3 -3 May
: 199 3 9  they
: 203 8 9  com
: 216 4 6 fort
: 221 8 4  you
: 233 3 2  to
: 237 8 4 night
- 254
: 258 3 -3 And
: 262 2 6  I'm
: 265 3 9 ~
: 270 10 9  climb
: 282 3 6 ing
: 286 8 4  o
: 296 2 2 ver
: 301 5 4  some
: 307 6 -1 thing
- 323
: 327 2 -3 And
* 330 3 9  I'm
: 334 10 9  run
: 346 4 6 ning
: 351 2 4  through
: 354 7 2 ~
: 363 3 2  these
: 367 8 4  walls
- 384
: 387 3 4 I
: 391 3 6  don't
: 395 3 4  e
: 399 3 2 ven
: 403 6 4  know
* 412 3 -1  if
: 416 7 2  I
: 424 3 4  be
: 428 6 6 lieve
- 444
: 452 3 4 I
: 456 3 6  don't
: 460 3 4  e
: 464 3 2 ven
: 468 6 4  know
* 477 3 -1  if
: 481 7 2  I
: 489 3 4  be
: 493 6 6 lieve
- 509
: 517 3 4 I
: 521 3 6  don't
: 525 3 4  e
: 529 3 2 ven
: 533 6 4  know
: 542 3 -1  if
: 546 7 2  I
: 554 3 4  be
: 558 6 6 lieve
- 574
: 583 3 6 Eve
: 587 3 6 ry
: 591 3 4 thing
: 595 3 2  you're
: 599 3 4  try
: 603 3 4 ing
: 607 2 2  to
: 611 7 4  say
: 619 2 2  to
: 623 8 4  me
- 661
: 916 2 6 I
: 921 8 9  had
* 932 3 6  the
: 936 9 4  strang
: 947 4 2 est
: 952 4 4  feel
: 959 6 -1 ing
- 977
: 981 3 9 Your
: 985 9 9  world's
: 999 3 6  not
: 1003 6 4  all
* 1015 3 2  it
: 1019 8 4  seems
- 1037
: 1046 3 9 So
: 1050 8 9  tired
* 1063 3 6  of
: 1067 5 4  mis
: 1079 3 2 con
: 1083 3 4 ceiv
: 1088 6 -1 ing
- 1104
: 1112 3 9 What
: 1116 8 9  else
: 1128 3 6  this
: 1132 7 4  could
: 1144 3 2 've
: 1148 8 4  been
- 1165
: 1169 3 4 I
: 1173 3 6  don't
: 1177 3 4  e
: 1181 3 2 ven
: 1185 6 4  know
: 1194 3 -1  if
: 1198 7 2  I
: 1206 3 4  be
: 1210 6 6 lieve
- 1226
: 1234 3 4 I
: 1238 3 6  don't
: 1242 3 4  e
: 1246 3 2 ven
: 1250 6 4  know
* 1259 3 -1  if
: 1263 7 2  I
: 1271 3 4  be
: 1275 6 6 lieve
- 1291
: 1299 3 4 I
: 1303 3 6  don't
: 1307 3 4  e
: 1311 3 2 ven
: 1315 6 4  know
* 1324 3 -1  if
: 1328 7 2  I
: 1336 3 4  be
: 1340 6 6 lieve
- 1356
: 1365 3 6 Eve
* 1369 3 6 ry
: 1373 3 4 thing
: 1377 3 2  you're
: 1381 3 4  try
: 1385 3 4 ing
: 1389 2 2  to
: 1393 7 4  say
: 1401 2 2  to
: 1405 8 4  me
- 1422
: 1425 3 -1 So
: 1429 3 6  o
: 1433 3 6 pen
: 1437 3 4  up
: 1441 4 2  my
: 1446 10 2  eyes
: 1459 11 11 ~
: 1471 10 9 ~
- 1490
: 1494 3 6 Tell
: 1498 3 6  me
: 1502 3 4  I'm
: 1506 4 2  a
: 1511 10 2 live
: 1524 11 11 ~
: 1536 10 9 ~
- 1556
: 1560 3 6 This
: 1564 3 6  is
: 1568 3 4  nev
: 1572 3 2 er
: 1576 5 4  gon
* 1584 4 -1 na
: 1589 3 2  go
: 1594 5 4  our
: 1602 9 6  way
- 1615
: 1617 3 -1 If
: 1621 2 -1  I'm
* 1624 3 7  gon
: 1628 3 6 na
: 1632 3 4  have
: 1636 3 2  to
: 1640 5 4  guess
- 1647
: 1649 4 2 What's
* 1654 5 4  on
: 1661 3 2  your
: 1665 8 4  mind
- 1703
: 2035 7 6 Say
: 2043 3 4  some
: 2047 3 2 thing
: 2051 7 6  say
: 2059 3 4  some
: 2063 1 2 thing
- 2065
: 2067 3 2 Some
: 2071 3 2 thing
: 2075 3 2  like
: 2079 3 4  you
* 2083 1 4  love
: 2085 4 6 ~
: 2090 2 4 ~
: 2095 4 4  me
- 2114
: 2135 1 2 Less
: 2137 1 2  you
: 2139 3 2  want
* 2143 1 4  to
: 2145 8 6  move
* 2157 1 4  a
: 2159 8 2 way
- 2182
: 2199 1 2 From
* 2201 3 4  the
: 2205 9 6  noise
* 2219 1 4  of
: 2221 4 4  this
: 2227 7 2  place
- 2249
: 2265 1 2 Well
: 2267 3 6  I
: 2271 3 6  don't
: 2275 3 4  e
: 2279 3 2 ven
: 2283 3 4  know
* 2287 3 -1 ~
: 2291 3 -1  if
: 2295 7 2  I
: 2303 3 4  be
: 2307 8 6 lieve
- 2327
: 2331 3 6 I
: 2335 3 6  don't
: 2339 3 4  e
: 2343 3 2 ven
: 2347 3 4  know
: 2351 3 -1 ~
: 2355 3 -1  if
: 2359 7 2  I
: 2367 3 4  be
: 2371 3 6 lieve
: 2375 4 4 ~
- 2391
: 2395 3 6 I
: 2399 3 6  don't
: 2403 3 4  e
: 2407 3 2 ven
: 2411 3 4  know
: 2415 3 -1  if
: 2419 3 -1  I
: 2423 3 9  wan
: 2427 3 9 na
: 2431 3 9  be
: 2435 3 6 lieve
: 2439 4 4 ~
- 2455
: 2459 3 6 An
* 2463 3 6 y
: 2467 3 4 thing
: 2471 3 2  you're
: 2475 3 4  try
: 2479 3 4 ing
: 2483 3 2  to
: 2487 7 4  say
: 2495 3 2  to
: 2499 5 4  me
- 2514
: 2523 3 6 O
* 2527 3 6 pen
: 2531 3 4  up
: 2535 3 2  my
: 2539 7 2  eyes
: 2547 3 -1 ~
: 2551 7 2 ~
: 2559 3 -1 ~
: 2563 8 2 ~
- 2583
: 2587 3 6 Tell
* 2591 3 6  me
: 2595 3 4  I'm
: 2599 3 2  a
: 2603 7 2 live
: 2611 3 -1 ~
: 2615 7 2 ~
: 2623 3 -1 ~
: 2627 8 2 ~
- 2647
: 2651 3 6 This
: 2655 3 6  is
: 2659 3 4  nev
: 2663 3 2 er
: 2667 3 4  gon
: 2671 3 -1 ~
: 2675 3 -1 na
: 2679 4 2  go
: 2685 5 4  our
: 2691 3 6  way
* 2695 1 4 ~
: 2697 6 2 ~
- 2705
: 2707 3 -1 If
: 2711 3 -1  I'm
: 2715 3 7  gon
: 2719 3 6 na
: 2723 3 4  have
: 2727 3 2  to
: 2731 4 4  guess
- 2737
: 2739 3 2 What's
* 2743 4 4  on
: 2749 4 2  your
: 2755 6 4  mind
- 2771
: 2779 3 4 O
* 2783 3 6 pen
: 2787 3 4  up
: 2791 3 2  my
: 2795 8 2  eyes
: 2807 7 9 ~
* 2815 1 6 ~
* 2817 1 4 ~
: 2819 8 6 ~
- 2839
: 2843 3 6 Tell
* 2847 3 6  me
: 2851 3 4  I'm
: 2855 3 2  a
: 2859 7 2 live
: 2867 3 -1 ~
: 2871 7 2 ~
: 2879 3 -1 ~
: 2883 3 2 ~
: 2887 1 -1 ~
: 2889 2 -3 ~
- 2903
: 2907 3 6 This
: 2911 3 6  is
: 2915 3 4  nev
: 2919 3 2 er
: 2923 3 4  gon
: 2927 3 -1 ~
: 2931 3 -1 na
: 2935 4 2  go
: 2941 5 4  our
: 2947 3 6  way
* 2951 1 4 ~
: 2953 4 2 ~
- 2961
: 2963 3 -1 If
: 2967 3 -1  I'm
: 2971 3 7  gon
: 2975 3 6 na
: 2979 3 4  have
: 2983 3 2  to
: 2987 4 4  guess
- 2993
: 2995 3 2 What's
* 2999 4 4  on
: 3005 4 2  your
: 3011 6 4  mind
E