#TITLE:In the summertime
#ARTIST:Mungo Jerry
#MP3:Mungo Jerry - In The Summertime.mp3
#COVER:Mungo Jerry - In The Summertime [CO].jpg
#BACKGROUND:Mungo Jerry - In The Summertime [BG].jpg
#BPM:164,78
#GAP:17950
#ENCODING:UTF8
#LANGUAGE:Englisch
#EDITION:[SC]-Songs
: 0 1 11 In
: 2 1 13  the
: 5 1 16  su
: 7 2 16 mmer
: 11 4 16 time,
- 16
: 17 1 13  when
: 19 1 11  the
: 21 1 13  wea
: 23 1 11 ther
: 25 1 8  is
: 27 3 11  hot,
- 31
: 33 1 11 you
: 35 1 13  can
: 37 1 16  stretch
: 39 3 16  right
: 43 3 16  up
- 47
: 49 1 13  and
: 51 1 11 ~
: 53 1 13  touch
: 55 1 11 ~
: 57 1 8  the
: 59 2 11  sky.
- 63
: 65 1 6 When
: 67 1 8  the
: 69 1 6  wea
: 71 2 4 ther's
: 75 2 1  fine,
- 79
: 81 1 6 you
: 83 1 8  got
: 85 1 6  wom
: 87 1 4 en,
- 89
: 89 1 6  you
: 91 1 8  got
: 93 1 6  wom
: 95 1 4 en
: 97 1 1  on
: 99 1 8  your
: 101 4 4  mind.
- 107
: 129 1 6 Have
: 131 1 8  a
: 134 2 11  drink,
: 138 1 11  have
: 140 1 11  a
: 142 3 11  drive,
- 147
: 149 1 6 go
: 151 1 6  out
: 153 1 8  and
: 156 2 6  see
: 159 1 4  what
: 161 1 1  you
: 163 1 6  can
: 166 5 4  find!
- 173
: 193 1 11 If
: 195 1 13  her
: 197 2 16  da
: 200 2 16 ddy's,
* 204 3 16  rich
- 208
: 210 1 13  take
: 212 1 11  her
: 214 1 13  out
: 216 1 11  for
: 218 1 8  a
: 220 2 11  meal.
- 224
: 226 1 11 If
: 228 1 13  her
: 230 1 16  da
: 232 1 16 ddy's
: 236 3 16  poor,
- 240
: 242 2 13  just
: 246 1 13  do
: 248 1 11  what
: 250 1 8  you
: 252 3 11  feel.
- 256
: 258 1 6 Speed
: 260 1 8  a
: 262 2 6 long
: 266 1 4  the
: 268 2 1  lane,
- 272
: 274 1 6 you
: 276 1 8  can
: 278 2 6  dine
: 282 1 4  or
: 284 1 8  re
: 286 1 6 turn
: 288 1 4  her
: 290 1 1  twen
: 292 1 6 ty
: 294 4 4 five.
- 300
: 322 1 4 When
: 324 1 6  the
: 326 1 11  sun
: 328 2 11  goes
: 332 4 11  down,
- 337
: 338 1 6 you
: 340 1 8  can
: 342 1 6  make
: 344 1 4  it,
- 346
: 346 1 1  make
: 348 1 8  it
: 350 1 6  good
: 352 1 4  in
: 354 1 1  a
: 356 1 6  lay-
: 358 4 4 by.
- 364
: 385 1 11 We're
: 387 1 13  no
: 390 4 16  threat,
: 396 3 16  peo
: 400 1 16 ple.
- 402
: 402 1 13 We're
: 404 1 11  not
: 406 1 13  dir
: 408 1 11 ty,
: 410 1 8  we're
: 412 1 8  not
: 414 2 11  mean.
- 417
: 418 1 11 We
: 420 1 13  love
* 422 3 16  e
: 426 1 16 v'ry
: 428 3 16 bo
: 432 1 16 dy,
- 434
: 434 1 13 but
: 436 1 11  we
: 438 1 13  do
: 440 1 11  as
: 442 1 8  we
: 444 4 11  please.
- 449
: 450 1 6 When
: 452 1 7  the
: 454 1 6  wea
: 456 2 4 ther's
: 460 3 1  fine,
- 464
: 466 1 6 we
: 468 1 8  go
: 470 1 6  fi
: 472 1 4 shin'
: 474 1 1  or
: 476 1 8  go
: 478 1 6  swi
: 480 1 4 mmin'
: 482 1 1  in
: 484 1 6  the
: 486 4 4  sea.
- 492
: 512 1 4 We're
: 514 1 6  al
: 516 1 8 ways
* 518 4 11  ha
: 524 2 11 ppy.
- 528
: 530 1 6 Life's
: 532 1 8  for
: 534 1 6  li
: 536 1 4 vin',
- 538
: 538 1 1  yeah,
: 540 1 8  that's
: 542 1 6  our
: 544 1 4  phi
: 546 1 6 lo
: 548 1 6 so
: 550 3 4 phy.
- 555
: 578 1 23 Sing
: 580 1 25  a
: 582 3 28 long
: 586 1 28  with
: 588 2 28  us!
- 592
: 594 1 25 Dee
: 596 1 23  dee
: 598 1 25  dee
: 600 2 23  dee
: 604 2 23  dee!
- 607
: 609 2 23 Dah
: 612 1 25  dah
: 614 1 28  dah
* 616 2 28  dah
: 620 2 28  dah!
- 623
: 625 1 25 Yeah,
: 627 1 23  we're
: 629 1 25  ha
: 631 2 23 ~pa
: 635 3 20 ~py.
- 640
: 645 4 18 Dah
: 652 2 16  dah
: 656 3 13  dah!
- 660
: 661 1 18 Dee
: 663 1 16  dah
: 665 1 13  do
: 667 1 18  dee
: 669 1 16  dah
: 671 1 13  do
: 673 1 18  dah
: 675 1 16  do
* 677 5 20  dah!
- 684
: 705 1 18 Dah
: 707 1 20  do
: 709 1 23  dah
: 711 2 23  dah
: 715 3 23  dah!
- 720
: 725 1 18 Dah
: 727 2 18  dah
: 731 2 18  dah
: 735 1 16  do
: 737 1 18  dah
* 739 4 20  dah!
- 745
: 961 1 11 When
: 963 1 13  the
: 965 2 16  win
: 968 2 16 ter's
: 972 3 16  here,
- 976
: 977 1 13 yeah,
: 979 1 11  it's
: 981 1 13  par
: 983 2 11 ty
: 987 3 11  time.
- 991
: 993 1 11 Bring
: 995 1 13  your
: 997 1 16  bo
: 999 1 16 ttle,
: 1001 1 16  wear
: 1003 1 16  your
: 1005 1 16  bright
: 1007 1 11  clothes,
- 1009
: 1009 1 13 it
: 1011 1 11 'll
: 1013 1 13  soon
: 1015 1 11  be
: 1017 1 13  su
: 1019 1 11 mmer
: 1021 2 8 time.
- 1024
: 1025 1 6 And
: 1027 1 4  we'll
: 1030 1 6  sing
: 1032 2 4  a
: 1035 3 1 gain,
- 1039
: 1041 1 6 we'll
: 1043 1 7  go
: 1045 1 6  dri
: 1047 1 4 vin'
: 1049 1 1  or
: 1051 1 7  may
: 1053 1 6 be
: 1055 1 4  we'll
: 1057 1 6  se
: 1059 1 8 ttle
* 1061 5 4  down.
- 1068
: 1089 1 4 If
: 1091 1 6  she's
: 1093 3 11  rich,
: 1098 1 11  if
: 1100 1 11  she's
: 1102 2 11  nice,
- 1105
: 1105 1 6 bring
: 1107 1 8  your
: 1109 3 6  friends
- 1113
: 1113 1 4  and
: 1115 1 8  we'll
: 1117 1 6  all
: 1119 1 4  go
: 1121 1 6  in
: 1123 1 8 to
: 1125 4 4  town.
- 1131
: 1389 1 11 In
: 1391 1 13  the
: 1393 2 16  su
: 1396 1 16 mmer
* 1400 3 16 time
- 1404
: 1405 1 13  when
: 1407 1 11  the
: 1409 1 13  wea
: 1411 1 11 ther
: 1413 1 8  is
: 1415 3 11  hot,
- 1419
: 1421 1 11 you
: 1423 1 13  can
: 1425 2 16  stretch
: 1428 3 16  right
: 1432 3 16  up
- 1436
: 1437 1 13  and
: 1439 1 11 ~
: 1441 1 13  touch
: 1443 1 11 ~
: 1445 1 8  the
: 1447 3 11  sky.
- 1451
: 1453 1 6 When
: 1455 1 7  the
: 1457 2 6  wea
: 1460 2 4 ther's
: 1464 3 1  fine,
- 1468
: 1469 1 6 you
: 1471 1 8  got
: 1474 1 6  wom
: 1476 1 4 en,
- 1478
: 1478 1 1  you
: 1480 1 8  got
: 1482 1 6  wom
: 1484 1 4 en
: 1486 1 1  on
: 1488 1 8  your
: 1490 4 4  mind.
- 1496
: 1518 1 4 Have
: 1520 1 6  a
: 1522 2 11  drink,
: 1526 1 11  have
: 1528 1 11  a
* 1530 3 11  drive,
- 1535
: 1538 1 6 go
: 1540 1 6  out
: 1542 1 8  and
: 1545 2 6  see
: 1548 1 4  what
: 1550 1 1  you
: 1552 1 8  can
: 1555 4 4  find!
- 1561
: 1582 1 11 If
: 1584 1 13  her
: 1586 1 16  da
: 1588 2 16 ddy's
* 1592 3 16  rich,
- 1596
: 1598 1 13  take
: 1600 1 11  her
: 1602 1 13  out
: 1604 1 11  for
: 1606 1 8  a
: 1608 3 11  meal.
- 1612
: 1614 1 11 If
: 1616 1 13  her
: 1618 1 16  da
: 1620 2 16 ddy's
: 1624 3 16  poor,
- 1628
: 1630 2 13  just
: 1634 1 13  do
: 1636 1 11  what
: 1638 1 8  you
: 1640 3 11  feel.
- 1644
: 1646 1 6 Speed
: 1648 1 7  a
: 1650 3 6 long
: 1654 1 4  the
: 1656 3 1  lane,
- 1660
: 1662 1 6 you
: 1664 1 8  can
: 1666 3 6  dine
: 1670 1 4  or
: 1672 1 8  re
: 1674 1 6 turn
: 1676 1 4  her
: 1678 1 1  twen
: 1680 1 6 ty
* 1683 4 4 five.
- 1689
: 1710 1 4 When
: 1712 1 6  the
: 1714 1 11  sun
: 1717 2 11  goes
: 1721 3 11  down,
- 1725
: 1726 1 6 you
: 1728 1 8  can
: 1730 1 6  make
: 1732 1 4  it,
- 1734
: 1734 1 1  make
: 1736 1 8  it
: 1738 1 6  good
: 1740 1 4  in
: 1742 1 1  a
: 1744 1 8  lay-
: 1746 4 4 by.
- 1752
: 1774 1 11 We're
: 1776 1 13  no
: 1778 4 16  threat,
: 1784 3 16  peo
: 1788 1 16 ple.
- 1790
: 1790 1 13 We're
: 1792 1 11  not
: 1794 1 13  dir
: 1796 1 11 ty,
: 1798 1 8  we're
: 1800 1 9  not
: 1802 3 11  mean.
- 1806
: 1806 1 11 We
: 1808 1 13  love
* 1810 3 16  e
: 1814 1 16 v'ry
: 1816 2 16 bo
: 1820 1 16 dy,
- 1822
: 1822 1 13  but
: 1824 1 11  we
: 1826 1 13  do
: 1828 1 11  as
: 1830 1 8  we
: 1833 4 11  please.
- 1838
: 1838 1 6 When
: 1840 1 7  the
: 1842 2 6  wea
: 1845 1 4 ther's
: 1849 3 1  fine,
- 1853
: 1854 1 6 we
: 1856 1 8  go
: 1858 1 6  fi
: 1860 1 4 shin'
: 1862 1 1  or
: 1864 1 8  go
: 1866 1 6  swi
: 1868 1 4 mmin'
: 1870 1 1  in
: 1872 1 8  the
: 1875 4 4  sea.
- 1881
: 1900 1 4 We're
: 1902 1 6  al
: 1904 1 8 ways
* 1906 4 11  ha
: 1912 2 11 ppy.
- 1916
: 1918 1 6 Life's
: 1920 1 8  for
: 1922 1 6  li
: 1924 1 4 vin',
- 1926
: 1926 1 1  yeah,
: 1928 1 8  that's
: 1930 1 6  our
: 1932 1 4  phi
: 1934 1 6 lo
: 1936 1 8 so
: 1938 3 4 phy.
- 1943
: 1966 1 23 Sing
: 1968 1 25  a
: 1970 2 28 long
: 1974 1 28  with
: 1977 3 28  us!
- 1981
: 1982 1 25 Dee
: 1984 1 23  dee
: 1986 1 25  dee
: 1988 3 23  dee
: 1992 3 23  dee!
- 1996
: 1998 1 23 Dah
: 2000 1 25  dah
: 2002 1 28  dah
* 2005 2 28  dah
: 2008 2 28  dah!
- 2012
: 2014 1 25 Yeah,
: 2016 1 23  we're
: 2018 1 25  ha
: 2020 2 23 ~pa
: 2024 2 20 ~py.
- 2028
: 2034 4 18 Dah
: 2040 2 16  dah
: 2044 3 13  dah!
- 2048
: 2050 1 18 Dee
: 2052 1 16  dah
: 2054 1 13  do
: 2056 1 18  dee
: 2058 1 16  dah
: 2060 1 13 do
: 2062 1 16  dah
: 2064 1 13  do
* 2066 5 20  dah!
E