#TITLE:Feeling Good
#ARTIST:Muse
#LANGUAGE:English
#GENRE:Rock
#YEAR:2001
#CREATOR:gun88
#MP3:Muse - Feeling Good.mp3
#COVER:Muse - Feeling Good [CO].jpg
#VIDEO:Muse - Feeling Good.mp4
#MEDLEYSTARTBEAT:786
#MEDLEYENDBEAT:1503
#BPM:300
#GAP:11174
: 0 4 7 Birds
: 5 5 10  fly
: 11 6 12 ing
: 19 33 14  high
- 53
: 55 4 12 You
: 61 4 12  know
: 67 4 12  how
: 72 4 7  I
: 77 6 10  feel
: 84 16 12 ~
- 110
: 132 5 7 Sun
: 139 5 7  in
: 145 3 5  the
: 150 5 7  sky
: 156 4 10 ~
: 162 5 12 ~
: 168 17 14 ~
- 188
: 190 7 17 You
: 198 4 14  know
: 203 4 12 ~
: 208 5 14  how
: 214 3 12  I
: 218 14 14  feel
- 238
* 240 31 22 Reeds
* 272 2 19 ~
: 275 3 17 ~
- 279
: 281 5 14 Drift
: 287 6 12 ing
: 294 8 12  on
: 303 3 10  by
: 307 7 7 ~
- 319
: 321 4 7 You
: 326 5 10  know
: 332 5 12  how
: 338 4 13  I
: 343 7 12  feel
: 351 10 10 ~
- 370
: 374 4 7 It's
: 379 4 5  a
: 385 8 7  new
: 394 7 10  dawn
- 402
: 404 4 12 It's
: 409 4 10  a
: 415 9 12  new
: 426 9 14  day
- 436
: 438 5 14 It's
: 444 5 12  a
: 450 9 14  new
: 460 24 17  life
- 491
: 494 4 14 For
: 499 4 12 ~
: 504 4 10 ~
: 509 5 7 ~
: 516 34 12  me
- 556
: 558 3 7 And
: 562 3 7  I'm
: 566 6 12  feel
: 573 5 10 ~
: 579 5 7 ing
: 585 26 7  good
- 651
: 731 4 7 Fish
: 736 5 10  in
: 742 5 12  the
: 751 30 14  sea
* 782 1 12 ~
- 784
: 786 5 12 You
: 792 5 12  know
: 798 4 12  how
: 803 3 7  I
: 807 6 10  feel
: 814 29 12 ~
- 852
: 856 5 7 Ri
: 862 5 7 ver
: 868 5 10  run
: 874 5 12 ning
: 882 28 14  free
- 916
: 918 9 17 You
: 928 5 14  know
: 934 3 12 ~
: 938 3 14  how
: 942 5 12  I
: 948 20 14  feel
- 974
* 976 5 19 Blos
: 983 15 19 som
: 999 2 17  in
: 1002 4 14  the
: 1007 7 14  trees
: 1015 3 12 ~
: 1019 6 10 ~
: 1026 17 7 ~
- 1044
: 1046 4 7 You
: 1051 4 10  know
: 1056 5 12  how
: 1062 3 13  I
: 1066 5 12  feel
: 1072 20 10 ~
- 1097
: 1099 3 7 It's
: 1103 3 5  a
: 1107 7 7  new
: 1115 10 10  dawn
- 1126
: 1128 4 12 It's
: 1133 4 10  a
: 1138 9 12  new
: 1148 4 12  day
: 1153 4 14 ~
- 1158
: 1160 4 14 It's
: 1165 4 12  a
: 1170 8 14  new
: 1179 24 17  life
- 1210
: 1213 4 14 For
: 1218 4 12 ~
: 1223 4 10 ~
: 1228 5 7 ~
: 1235 32 12  me
- 1273
* 1275 2 7 And
: 1278 3 7  I'm
: 1282 6 12  fee
: 1289 4 10 ~
: 1294 6 7 ling
: 1303 26 7  good
- 1369
: 1443 2 14 Drag
: 1446 3 12 on
: 1450 8 14 fly
: 1459 2 13  all
: 1462 10 14  out
: 1473 3 13  in
: 1477 2 12  the
: 1480 23 14  sun
- 1508
: 1510 10 17 You
: 1521 6 14  know
* 1528 1 12 ~
: 1530 3 14  what
: 1534 4 12  I
: 1540 5 14  mean
: 1546 7 12 ~
- 1554
: 1556 6 12 Don't
: 1563 5 10  you
: 1569 15 7  know
- 1589
: 1591 3 14 But
: 1595 2 12 ter
: 1598 5 14  flies
: 1604 2 12 ~
: 1607 4 12  are
: 1612 5 14  all
: 1618 3 14  hav
: 1622 6 12 ving
: 1629 11 14  fun
- 1645
: 1647 8 17 You
: 1656 8 14  know
: 1665 2 12 ~
: 1668 2 14  what
: 1671 3 12  I
: 1675 2 14 ~
: 1678 13 14  mean
- 1698
* 1701 28 26 Sleep
: 1730 6 24  in
: 1737 4 22 ~
: 1742 6 24  peace
: 1749 5 22 ~
: 1755 3 19 ~
: 1759 23 22 ~
- 1785
* 1787 1 7 When
: 1789 3 7  the
: 1793 4 10  day
: 1798 6 12  is
: 1805 21 14  done
- 1832
: 1834 3 7 And
: 1838 6 7  this
: 1845 7 10  old
: 1854 12 12  world
: 1867 5 12  is
: 1873 5 10  a
: 1879 7 12  new
: 1887 11 14  world
- 1899
: 1901 3 14 And
: 1905 5 12  a
: 1911 9 14  bold
: 1922 26 17  world
- 1957
: 1961 12 14 For
: 1975 63 14  me
: 2043 3 12 ~
: 2047 7 14 ~
: 2057 5 13 ~
: 2064 47 14 ~
- 2120
: 2124 5 7 Stars
: 2130 3 10  when
: 2134 4 12  you
: 2139 34 14  shine
- 2175
: 2177 3 12 You
: 2181 5 12  know
: 2187 4 12  how
: 2193 4 7  I
: 2198 5 10  feel
: 2204 30 12 ~
- 2244
: 2252 5 7 Scent
: 2258 3 7  of
: 2262 5 5  the
: 2268 6 7  pine
: 2275 3 10 ~
: 2279 6 12 ~
: 2286 16 14 ~
- 2306
: 2308 7 17 You
: 2316 8 14  know
: 2325 5 14  how
: 2331 3 13  I
: 2335 15 14  feel
- 2352
: 2354 3 19 Yeah
: 2358 4 19 ~
* 2363 5 22  free
: 2369 12 22 dom
: 2382 3 19 ~
: 2386 4 19  is
: 2391 38 19  mine
- 2434
: 2436 4 17 And
: 2441 4 14  you
: 2446 5 12  know
: 2455 4 14  how
: 2460 5 12  I
* 2466 1 12  feel
: 2468 3 13 ~
: 2472 11 7 ~
- 2487
: 2489 2 10 It's
* 2492 1 7  a
: 2494 8 10  new
: 2503 12 12  dawn
- 2516
: 2518 2 12 It's
: 2521 2 10  a
: 2524 12 12  new
: 2537 9 14  day
- 2547
: 2549 3 14 It's
: 2553 4 12  a
: 2558 8 14  new
: 2567 23 17  life
- 2598
: 2601 4 14 For
: 2606 4 12 ~
: 2611 4 10 ~
: 2616 5 7 ~
: 2623 24 12  me
- 2652
* 2654 1 17 Feel
: 2656 4 19 ing
: 2661 67 21  good
- 2731
* 2733 3 21 Oh
* 2737 4 21 ~
: 2742 5 21 ~
: 2748 5 19 ~
: 2754 16 19 ~
: 2771 17 17 ~
- 2790
: 2792 16 17 Ah
: 2809 33 15 ~
- 2848
: 2850 10 15 Oh
: 2861 85 14  ~
- 2955
: 2958 80 26 Oh
- 3044
* 3046 9 26 Oh
: 3057 4 26  ah
: 3062 3 24 ~
* 3066 2 22 ~
: 3069 20 19 ~
- 3095
* 3098 13 26 Fre
: 3112 6 24 er
: 3119 10 22  than
: 3130 3 21  you
: 3134 3 22 ~
: 3138 42 21 ~
: 3182 4 22 ~
: 3187 7 21 ~
: 3197 7 21 ~
: 3205 33 19 ~
- 3248
* 3252 38 26 Ah
- 3296
* 3299 5 29 Ah
: 3305 4 26 ~
: 3311 4 26 ~
: 3317 4 24 ~
: 3322 4 22 ~
: 3327 6 24 ~
: 3335 4 24 ~
: 3340 3 22 ~
: 3344 4 19 ~
: 3349 27 22 ~
- 3383
: 3386 3 24 Ah
: 3390 5 22 ~
: 3396 21 21 ~
- 3418
: 3420 4 22 Ah
: 3425 6 21 ~
: 3432 5 21 ~
: 3438 39 19 ~
- 3478
: 3480 40 21 Ah
: 3526 22 19 ~
- 3558
: 3571 3 10 Feel
* 3575 6 12 ~
: 3582 6 10 ~
: 3589 7 7 ing
: 3597 16 7  good
E
