#TITLE:Starlight
#ARTIST:Muse
#LANGUAGE:English
#MP3:Muse - Starlight.mp3
#VIDEO:Muse - Starlight.mp4
#PREVIEWSTART:92,699
#MedleyStartBeat:1103
#MedleyEndBeat:1771
#BPM:243,1
#GAP:23900
: 0 9 13 Far
: 12 2 11  a
: 16 10 11 way,
- 28
: 36 2 13 this
: 40 2 13  ship
: 44 2 11  is
: 48 3 13  ta
: 52 2 15 king
: 56 4 13  me
: 64 10 13  far
: 76 2 11  a
: 80 12 11 way.
- 94
: 100 5 13 Far
: 108 2 11  a
: 112 2 13 way
: 116 2 15  from
: 120 4 13  the
: 128 8 13  me
: 140 2 15 mo
: 144 10 15 ries
- 156
: 164 5 15 of
: 172 2 13  the
: 176 3 15  peo
* 180 2 16 ple
: 184 5 15  who
- 190
: 192 5 15 care
: 200 2 15  if
: 204 2 16  i
: 208 3 15  live
: 212 3 13  o
: 216 2 11 ~r
: 220 18 11  die.
- 240
* 256 10 13 Sta
: 268 2 11 ~r
: 272 11 11 light,
- 285
: 292 2 13 I
: 296 2 13  will
: 300 2 11  be
: 304 2 13  cha
: 308 2 15 sing
: 312 4 13  your
: 320 10 13  sta
: 332 2 11 ~r
: 336 12 11 light,
- 350
: 356 2 13 un
: 360 2 13 til
: 364 2 11  the
: 368 2 13  end
: 372 2 15  of
: 376 3 13  my
: 380 2 11 ~
: 384 10 13  li
: 396 2 15 ~
: 400 12 15 ~fe.
- 414
: 420 5 15 I
: 428 2 13  don't
: 432 3 15  know
: 436 3 16  if
: 442 3 15  it's
: 448 5 15  worth
: 456 3 15  i
: 460 2 16 ~t
: 464 3 15  a
: 468 3 13 ny
: 472 2 11 ~
: 476 16 11 more.
- 494
* 512 28 18 Hold
: 548 5 16  you
: 556 6 23  i
: 564 4 15 ~n
: 572 12 16  my
: 592 12 15  arms.
- 606
: 612 5 16 I
: 620 2 15  just
: 624 5 16  wan
: 630 2 15 ted
: 635 3 16  to
: 639 2 18 ~
: 643 25 18  hold
- 670
: 676 5 16 you
* 684 6 23  i
: 692 3 15 ~n
: 700 11 16  my
: 720 14 15  arms.
- 736
: 768 11 13 My
: 780 2 11 ~
: 784 10 13  life,
- 796
: 804 5 13 you
: 812 2 11  e
: 816 2 13 lec
: 820 3 15 tri
: 826 4 13 fy
: 833 8 13  my
: 843 3 11 ~
: 848 11 11  life.
- 861
: 868 4 13 Let's
: 876 2 11  con
: 880 3 13 spire
: 885 2 15  to
: 889 2 13  i
: 892 2 11 ~g
: 896 10 13 ni
: 908 2 15 ~
: 912 8 15 ~te
- 922
: 932 5 15 all
: 940 2 13  the
: 944 4 15  cells
: 950 3 16  that
: 956 2 15  would
: 960 4 15  die
- 966
: 968 2 15 just
: 972 2 16  to
: 976 3 15  feel
: 980 3 13  a
: 984 2 11 ~
* 988 14 11 live.
- 1004
: 1032 14 16 I'll
: 1052 6 16  ne
: 1060 4 16 ver
: 1068 3 15  let
: 1075 3 16  you
: 1079 3 16 ~
: 1083 10 15 ~
- 1095
: 1103 2 13 if
: 1107 4 15  you
* 1115 6 16  pro
: 1123 3 15 mise
: 1131 4 13  not
: 1139 5 11  to
- 1146
: 1151 18 13 fa
: 1171 2 14 ~de
: 1175 2 13  a
: 1179 3 13 way
: 1183 7 11 ~.
- 1192
: 1198 3 8 Ne
: 1202 3 11 ver
: 1210 24 13  fade
: 1238 2 13  a
* 1242 24 15 way.
- 1268
: 1290 2 11 And
: 1294 8 15  our
: 1306 7 15  hopes
: 1318 5 15  and
: 1326 4 13  ex
: 1334 4 15 pec
: 1342 17 16 ta
* 1362 3 18 ~
: 1366 3 16 ~
: 1370 4 15 ~
: 1377 19 15 tions,
- 1398
: 1422 8 15 black
: 1434 9 15  holes
: 1446 4 15  and
: 1454 3 13  re
: 1458 5 15 ve
* 1466 21 16 la
: 1489 3 18 ~
: 1493 3 16 ~
: 1497 5 15 ~
: 1505 15 15 tions.
- 1522
: 1546 2 11 And
: 1550 6 15  our
: 1562 7 15  hopes
: 1574 5 15  and
: 1582 4 13  ex
: 1590 4 15 pec
: 1598 17 16 ta
: 1618 3 15 ~
: 1622 3 16 ~
: 1626 4 15 ~
: 1634 17 15 tions,
- 1653
: 1678 8 15 black
: 1690 9 15  holes
: 1702 4 15  and
: 1710 3 13  re
: 1714 5 15 ve
: 1722 25 16 la
: 1753 18 16 tions.
- 1773
: 1918 28 18 Hold
: 1954 5 16  you
* 1962 6 23  i
: 1970 4 15 ~n
: 1978 12 16  my
: 1998 12 15  arms.
- 2012
: 2018 5 16 I
: 2026 2 15  just
: 2031 5 16  wan
: 2037 2 15 ted
: 2041 3 16  to
: 2045 2 18 ~
: 2049 25 18  hold
- 2076
: 2082 5 16 you
: 2090 6 23  i
: 2098 3 15 ~n
: 2106 11 16  my
: 2126 13 15  arms.
- 2141
: 2175 9 13 Far
: 2186 2 11  a
: 2190 10 11 way,
- 2202
: 2210 2 13 this
: 2214 2 13  ship
: 2218 2 11  is
: 2222 3 13  ta
: 2226 2 15 king
: 2232 3 13  me
* 2238 10 13  far
: 2250 2 11  a
: 2254 12 11 way.
- 2268
: 2274 5 13 Far
: 2282 2 11  a
: 2286 2 13 way
: 2290 2 15  from
: 2294 4 13  the
: 2302 8 13  me
: 2314 2 15 mo
: 2318 10 15 ries
- 2330
: 2338 5 15 of
: 2346 2 13  the
: 2350 3 15  peo
: 2354 2 16 ple
: 2358 5 15  who
- 2364
: 2366 5 15 care
: 2374 2 15  if
: 2378 2 16  i
: 2382 3 15  live
: 2386 3 13  o
: 2390 2 11 ~r
: 2394 18 11  die.
- 2414
* 2438 14 16 I'll
: 2458 6 16  ne
: 2466 4 16 ver
: 2474 3 15  let
: 2481 2 16  you
: 2485 3 16 ~
: 2490 9 15 ~,
- 2501
: 2510 2 13 if
: 2514 4 15  you
: 2521 6 16  pro
: 2529 3 15 mise
: 2537 4 13  not
: 2545 5 11  to
- 2552
: 2557 18 13 fa
: 2577 2 14 ~de
: 2581 2 13  a
: 2585 3 13 way
: 2589 7 11 ~.
- 2598
: 2605 3 8 Ne
: 2609 3 11 ver
: 2616 24 13  fade
: 2644 2 13  a
: 2648 24 15 way.
- 2674
: 2696 2 11 And
: 2700 6 15  our
: 2712 7 15  hopes
: 2724 5 15  and
: 2732 2 13  ex
: 2737 4 15 pec
: 2745 18 16 ta
* 2767 3 18 ~
: 2771 3 16 ~
: 2775 4 15 ~
: 2782 19 15 tions,
- 2803
: 2827 8 15 black
: 2839 8 15  holes
: 2851 4 15  and
: 2859 3 13  re
: 2863 5 15 ve
: 2871 21 16 la
: 2894 3 18 ~
: 2898 3 16 ~
: 2902 5 15 ~
: 2910 15 15 tions.
- 2927
: 2954 2 15 And
: 2958 4 13  our
: 2966 6 15  hopes
: 2978 5 15  and
: 2986 4 13  ex
: 2994 4 15 pec
: 3001 17 16 ta
: 3021 3 15 ~
: 3025 3 16 ~
: 3029 4 15 ~
: 3037 17 15 tions,
- 3056
: 3082 6 15 black
: 3093 9 15  holes
: 3105 4 15  and
: 3113 3 13  re
: 3117 5 15 ve
: 3125 25 16 la
: 3157 16 16 tions.
- 3175
* 3191 28 18 Hold
: 3227 5 16  you
: 3235 6 23  i
: 3243 4 22 ~n
: 3251 3 22  my
: 3255 5 20 ~
: 3263 3 20  a
: 3267 16 15 ~rms.
- 3285
: 3291 5 16 I
: 3299 2 15  just
: 3303 5 16  wan
: 3309 2 15 ted
: 3314 3 16  to
: 3318 3 18 ~
: 3323 25 18  hold
- 3350
: 3355 5 16 you
* 3363 6 23  i
: 3371 3 15 ~n
: 3379 11 16  my
: 3398 12 15  arms.
- 3412
: 3418 5 16 I
: 3426 2 15  just
: 3430 5 16  wan
: 3436 2 15 ted
: 3441 3 16  to
: 3445 3 18 ~
: 3450 36 18  hold
E
