#TITLE:Psycho
#ARTIST:Muse
#MP3:Muse - Psycho.mp3
#VIDEO:Muse - Psycho.mp4
#COVER:Muse - Psycho [CO].png
#BPM:250
#GAP:7702
#ENCODING:UTF8
#LANGUAGE:English
#GENRE:Rock
#YEAR:2015
#CREATOR:gun88
: 0 2 -7 If
: 3 2 -7  you
: 6 2 -7  do
: 9 4 -7  not
: 14 5 -7  do
: 20 2 -7  what
: 23 3 -7  you're
: 27 4 -7  told
: 32 1 -7  to
: 34 3 -7  do
- 39
: 41 3 -7 When
: 45 2 -7  you're
: 48 2 -7  told
: 51 1 -7  to
: 53 1 -7  do
: 55 2 -7  it
- 58
: 60 2 -7 You
: 63 3 -7  will
: 67 2 -7  be
: 70 1 -7  pun
: 72 1 -7 ished
- 74
: 76 2 -7 Do
: 79 2 -7  you
: 82 1 -7  un
: 84 3 -7 der
: 88 3 -7 stand?
- 92
: 94 4 -7 Aye
: 102 6 -7  Sir!
- 109
: 111 3 -7 If
: 115 2 -7  you
: 118 2 -7  leave
: 121 2 -7  my
: 124 5 -7  base
- 132
: 134 1 -7 With
: 136 3 -7 out
: 140 2 -7  prop
: 143 1 -7 er
: 145 1 -7  au
: 147 1 -7 thor
: 149 1 -7 i
: 151 2 -7 sa
: 154 2 -7 tion
- 157
: 159 2 -7 I
: 162 2 -7  will
: 165 2 -7  hunt
: 168 3 -7  you
: 172 5 -7  down
- 178
: 180 3 -7 And
: 184 1 -7  throw
: 186 2 -7  your
: 189 3 -7  ass
: 193 1 -7  in
: 195 5 -7  jail
- 202
: 204 2 -7 Do
: 207 2 -7  you
: 210 1 -7  un
: 212 2 -7 der
: 215 3 -7 stand?
- 219
: 221 6 -7 Aye
: 228 7 -7  Sir!
- 236
: 238 3 -7 I
: 242 3 -7  can't
: 246 4 -7  hear
: 251 2 -7  you!
- 254
: 256 6 -7 Aye
: 263 7 -7  Sir!
- 271
: 273 4 -7 Scream
: 278 4 -7  it!
- 283
: 285 7 -7 Aye
: 293 7 -7  Sir!
- 301
: 303 3 -7 Your
: 307 4 -7  ass
: 312 2 -7  be
: 315 3 -7 longs
: 319 1 -7  to
: 321 3 -7  me
: 325 7 -7  now!
- 333
: 335 5 -7 Aye
: 341 8 -7  Sir!
- 382
: 1118 22 9 Love
- 1150
: 1158 3 9 It
: 1163 2 7  will
: 1166 3 9  get
: 1171 3 9  you
: 1178 12 12  no
: 1198 9 9 where
- 1218
: 1222 3 9 You
: 1227 2 7  are
: 1230 3 9  on
: 1235 3 9  your
: 1242 27 12  own
- 1279
: 1286 6 12 Lost
: 1294 6 14  in
: 1302 3 12  the
: 1307 5 12  wild
: 1314 9 11 ~
- 1333
: 1350 6 11 So
: 1358 6 11  come
: 1366 3 9  to
: 1370 6 9  me
: 1378 11 2  now
- 1399
: 1414 3 9 I
: 1419 2 7  could
: 1422 3 9  use
: 1427 5 9  some
: 1434 6 12 one
: 1442 6 12  like
: 1450 7 9  you
- 1467
: 1478 6 9 Some
: 1486 3 9 one
: 1491 6 9  who'll
: 1499 16 12  kill
: 1519 12 17 ~
: 1534 5 16 ~
- 1540
: 1542 6 16 On
: 1550 10 14  my
: 1562 6 12  com
: 1570 11 11 mand
- 1591
: 1606 6 11 And
: 1614 6 11  asks
: 1626 4 9  no
: 1634 6 9  ques
: 1642 7 2 tions
- 1659
: 1667 2 5 I'm
: 1670 4 5  gon
: 1675 2 5 na
: 1678 7 5  break
: 1686 8 5  you
- 1697
: 1699 2 5 I'm
: 1702 4 5  gon
: 1707 2 5 na
: 1710 7 5  make
: 1718 8 5  you
- 1728
: 1730 2 14 A
: 1733 3 24  fuck
: 1738 2 23 ing
: 1741 3 24  psy
: 1746 6 17 cho
- 1785
: 1859 2 14 A
: 1862 3 24  fuck
* 1867 2 23 ing
: 1870 3 24  psy
: 1875 6 17 cho
- 1914
: 1973 3 12 Oh
: 1977 4 12  yeah!
- 1985
: 1987 2 2 A
: 1990 3 5  fuck
: 1994 3 7 ing
: 1998 4 7  psy
: 2003 4 7 cho
- 2008
: 2010 3 9 Your
: 2014 32 16  ass
: 2054 3 16  be
: 2059 5 16 longs
: 2066 6 19  to
: 2074 8 19  me
: 2086 4 17  now
: 2091 2 16 ~
: 2094 3 17 ~
: 2099 2 16 ~
: 2102 3 14 ~
: 2107 13 12 ~
: 2122 11 13 ~
- 2139
: 2142 2 5 Are
: 2145 1 5  you
: 2147 1 5  a
: 2149 1 5  hu
: 2151 3 5 man
: 2155 1 5  drone?
- 2157
: 2159 5 5 Aye
: 2165 4 5  Sir!
- 2170
: 2172 2 5 Are
: 2175 1 5  you
: 2177 1 5  a
: 2179 2 5  kill
: 2182 1 5 ing
: 2184 1 5  ma
: 2186 3 5 chine?
- 2191
: 2193 6 5 Aye
: 2200 7 5  Sir!
- 2208
: 2210 3 5 I'm
: 2214 1 5  in
: 2216 2 5  con
: 2219 2 5 trol
: 2222 1 5  moth
: 2224 2 5 er
: 2227 2 5 fuck
: 2230 2 5 er
- 2233
: 2235 2 5 Do
: 2238 1 5  you
: 2240 1 5  un
: 2242 3 5 der
: 2246 4 5 stand?
- 2251
: 2253 6 5 Aye
: 2260 4 5  Sir!
- 2265
: 2267 2 2 Your
: 2270 26 9  mind
- 2306
: 2310 6 9 Is
: 2318 3 9  just
: 2323 4 9  a
: 2330 12 12  pro
: 2350 10 9 gram
- 2370
: 2379 2 7 And
: 2382 3 9  I'm
: 2387 3 9  the
: 2394 28 12  vi
: 2430 3 12 rus
- 2439
: 2442 3 9 I'm
: 2446 6 14  chang
: 2454 3 12 ing
: 2459 3 11  the
: 2466 3 12  sta
: 2471 7 11 tion
- 2488
: 2498 3 7 And
: 2502 3 11  I'll
: 2507 2 9  im
: 2510 6 11 prove
: 2518 3 9  your
: 2523 4 9  thresh
: 2530 10 2 olds
- 2550
: 2563 2 2 I'll
: 2566 3 9  turn
: 2571 2 7  you
: 2574 3 9  in
: 2578 7 9 to
: 2586 2 2  a
: 2589 3 9  su
: 2594 2 7 per
: 2597 4 9  drone
- 2604
: 2606 4 9 Su
: 2611 2 9 per
: 2614 8 9  drone
- 2628
: 2630 6 9 And
: 2638 4 9  you
: 2643 5 9  will
: 2650 18 12  kill
: 2670 14 17 ~
: 2686 4 16 ~
- 2692
: 2694 6 16 On
: 2702 10 14  my
: 2714 6 12  com
: 2722 11 11 mand
- 2743
: 2755 2 9 And
: 2758 5 11  I
: 2766 6 11  won't
: 2774 3 9  be
: 2779 2 7  re
: 2782 3 9 spon
* 2787 2 2 si
: 2790 7 2 ble
- 2807
: 2819 2 5 I'm
: 2822 4 5  gon
: 2827 2 5 na
: 2830 7 5  break
: 2838 8 5  you
- 2849
: 2851 2 5 I'm
: 2854 4 5  gon
: 2859 2 5 na
: 2862 7 5  make
: 2870 8 5  you
- 2880
: 2882 2 14 A
: 2885 3 24  fuck
: 2890 2 23 ing
: 2893 3 24  psy
: 2898 6 17 cho
- 2937
: 3011 2 14 A
: 3014 3 24  fuck
* 3019 2 23 ing
: 3022 3 24  psy
: 3027 6 17 cho
- 3066
: 3139 2 2 A
: 3142 3 5  fuck
: 3146 3 7 ing
: 3150 3 7  psy
: 3155 4 7 cho
- 3160
: 3162 3 9 Your
: 3166 32 16  ass
: 3206 3 16  be
: 3211 6 16 longs
: 3218 6 19  to
: 3226 8 19  me
: 3238 4 17  now
: 3243 2 16 ~
: 3246 3 17 ~
: 3251 2 16 ~
: 3254 3 14 ~
: 3259 13 12 ~
: 3274 11 13 ~
- 3294
: 3298 2 5 Are
: 3301 1 5  you
: 3303 1 5  a
: 3305 1 5  psy
: 3307 3 5 cho
: 3311 1 5  kill
: 3313 4 5 er?
- 3318
: 3320 2 5 Say
: 3323 1 5  "I'm
: 3325 1 5  a
: 3327 3 5  psy
: 3331 2 5 cho
: 3334 2 5  kill
: 3337 3 5 er!"
- 3341
: 3343 2 5 I
: 3346 1 5  am
: 3348 2 5  a
: 3351 2 5  psy
: 3354 3 5 cho
: 3358 2 5  kill
: 3361 4 5 er!
- 3366
: 3368 3 5 Scream
: 3372 3 5  it!
- 3376
: 3378 3 5 I
: 3382 2 5  am
: 3385 2 5  a
: 3388 3 5  psy
: 3392 2 5 cho
: 3395 3 5  kill
: 3399 5 5 er!
- 3405
: 3407 2 5 Show
: 3410 1 5  me
: 3412 3 5  your
: 3416 3 5  war
: 3420 9 5  face!
- 3430
: 3432 25 5 Ah!
- 3458
: 3460 2 5 You
: 3463 2 5  are
: 3466 2 5  a
: 3469 3 5  puss
: 3473 3 5 y!
- 3478
: 3480 1 5 I
: 3482 4 5  said
: 3487 4 5  show
: 3492 2 5  me
: 3495 2 5  your
: 3498 3 5  war
: 3502 9 5  face!
- 3512
: 3514 30 5 Ah!
- 3577
: 3683 2 5 I'm
: 3686 4 5  gon
: 3691 2 5 na
: 3694 7 5  make
: 3702 8 5  you
- 3713
: 3715 2 5 I'm
: 3718 4 5  gon
: 3723 2 5 na
: 3726 7 5  break
: 3734 8 5  you
- 3745
: 3747 2 5 I'm
: 3750 4 5  gon
: 3755 2 5 na
: 3758 7 5  make
: 3766 8 5  you
- 3776
: 3778 2 14 A
: 3781 3 24  fuck
* 3786 2 23 ing
: 3789 3 24  psy
: 3794 6 26 cho
- 3833
: 3907 2 14 A
: 3910 3 24  fuck
* 3915 2 23 ing
: 3918 3 24  psy
: 3923 6 17 cho
- 3962
: 4035 2 2 A
: 4038 3 5  fuck
: 4042 3 7 ing
: 4046 3 7  psy
: 4051 3 7 cho
- 4056
: 4058 3 9 Your
: 4062 32 16  ass
: 4102 3 16  be
: 4107 5 16 longs
* 4114 6 19  to
: 4122 8 19  me
: 4134 4 17  now
: 4139 2 16 ~
: 4142 3 17 ~
: 4147 2 16 ~
: 4150 3 14 ~
: 4155 13 12 ~
: 4170 12 13 ~
- 4215
: 4472 2 5 I
: 4475 2 5  will
: 4478 3 5  break
: 4482 4 5  you
- 4496
: 4510 3 5 Do
: 4514 1 5  you
: 4516 1 5  un
: 4518 2 5 der
: 4521 5 5 stand?
- 4559
: 4600 2 5 I
: 4603 2 5  will
: 4606 3 5  break
: 4610 4 5  you
- 4624
: 4638 3 5 Do
: 4642 1 5  you
: 4644 1 5  un
: 4646 2 5 der
: 4649 5 5 stand?
- 4687
: 4728 2 5 I
: 4731 2 5  will
: 4734 3 5  break
: 4738 4 5  you
- 4752
: 4766 3 5 Do
: 4770 1 5  you
: 4772 1 5  un
: 4774 2 5 der
: 4777 5 5 stand?
- 4815
: 4855 2 5 I
: 4858 2 5  will
: 4861 3 5  break
: 4865 4 5  you
- 4879
: 4893 3 5 Do
: 4897 1 5  you
: 4899 1 5  un
: 4901 2 5 der
: 4904 5 5 stand?
- 4912
: 4914 7 5 Aye
: 4922 5 5  Sir!
- 4928
: 4930 3 2 You
: 4934 3 5  fuck
* 4938 3 7 ing
: 4942 3 7  psy
: 4946 4 7 cho
- 4952
: 4954 3 9 Your
: 4958 32 16  ass
: 4998 3 16  be
: 5003 5 16 longs
: 5010 6 19  to
: 5018 8 19  me
: 5034 20 14  now
- 5058
: 5060 2 14 Yeah
: 5063 3 12 ~
- 5078
: 5082 3 9 Your
: 5086 32 16  ass
: 5126 3 16  be
: 5131 5 16 longs
: 5138 6 19  to
: 5146 8 19  me
: 5158 4 17  now
: 5163 2 16 ~
: 5166 3 17 ~
: 5171 2 16 ~
: 5174 3 14 ~
: 5179 13 12 ~
: 5194 16 13 ~
- 5212
: 5214 36 14 Uh
- 5260
: 5269 3 14 Uh
: 5274 62 25  uh
* 5342 68 26 ~
E