#TITLE:Hysteria
#ARTIST:Muse
#LANGUAGE:English
#EDITION:Rock
#YEAR:2003
#MP3:Muse - Hysteria.mp3
#COVER:muse.jpg
#VIDEO:Muse - Hysteria.mp4
#PREVIEWSTART:46,436
#BPM:279,5
#GAP:46436
: 0 3 11 It's
: 6 4 12  bu
: 12 3 9 ~g
: 18 3 9 ging
: 24 4 14  me
: 30 15 16 ~
- 47
: 54 5 11 Gra
: 60 4 8 ~t
: 66 3 8 ing
: 72 4 14  me
: 78 12 16 ~
- 92
: 96 3 16 And
: 102 4 17  twi
: 108 3 14 ~st
: 114 3 14 ing
: 120 10 21  me
: 132 7 21  a
: 144 2 20 rou
: 147 2 21 ~
: 150 4 20 ~
: 156 11 16 ~nd
- 169
: 180 5 12 Yeah,
: 190 4 12  I'm
: 198 5 12  e
: 204 3 9 ~nd
: 210 3 9 less
: 216 3 14 ly
* 222 13 16 ~
- 237
: 246 5 11 Ca
: 252 4 8 ~v
: 258 4 8 ing
: 265 14 16  in
- 281
: 288 3 16 And
: 294 4 17  turn
: 300 4 14 ~
: 306 4 14 ing
: 313 6 21  in
: 324 8 21 side
: 336 15 21  out
- 353
: 369 2 16 'Cause
: 372 3 16  I
: 378 4 16  want
: 384 3 15  it
: 390 23 16  now
- 415
: 420 4 16 I
: 426 5 16  want
: 434 5 14  it
: 444 4 16  no
* 450 31 17 ~w
- 483
: 493 3 17 Give
: 499 3 17  me
: 505 3 16  your
: 511 6 17  heart
: 521 4 17  and
: 528 5 16  your
: 539 8 16  sou
: 551 5 9 ~l
- 558
: 561 2 16 And
: 564 3 16  I'm
: 570 4 16  break
: 576 3 15 ing
: 582 21 16  out
- 605
: 612 4 16 I'm
: 618 5 16  break
: 627 7 14 ing
: 636 4 16  ou
: 642 32 17 ~t
- 676
: 684 4 17 Last
: 690 4 17  chance
: 696 3 16  to
: 702 4 17  lose
: 710 5 16  con
: 720 46 16 trol
- 768
: 948 5 12 Yeah
: 957 3 12  it's
: 966 4 12  ho
: 972 4 9 ~ld
: 978 3 9 ing
* 984 18 16  me
- 1004
: 1014 4 11 Mo
: 1020 3 8 ~rph
: 1026 3 8 ing
: 1034 14 16  me
- 1050
: 1056 3 16 And
: 1062 4 17  fo
: 1068 3 14 ~rc
: 1074 3 14 ing
* 1080 8 21  me
: 1092 6 21  to
: 1104 4 20  stri
: 1110 3 21 ~
: 1116 12 16 ~ve
- 1130
: 1140 5 12 To
: 1150 5 12  be
: 1158 4 12  e
: 1164 3 9 ~nd
: 1170 2 9 less
: 1176 18 16 ly
- 1196
: 1206 4 11 Co
: 1212 3 8 ~ld
: 1218 3 8  with
: 1224 14 16 in
- 1240
: 1248 4 16 And
: 1254 4 17  drea
: 1260 3 14 ~m
: 1266 3 14 ing
: 1272 9 21  I'm
: 1284 8 21  a
* 1296 4 20 li
* 1302 12 21 ~ve
- 1316
: 1329 2 16 'Cause
: 1332 3 16  I
: 1338 3 16  want
: 1344 4 15  it
: 1350 18 16  now
- 1370
: 1380 4 16 I
: 1387 5 16  want
: 1395 4 14  it
: 1404 3 16  no
: 1410 31 17 ~w
- 1443
: 1452 4 17 Give
: 1458 3 17  me
: 1464 3 16  your
: 1470 5 17  heart
: 1479 4 17  and
: 1487 5 16  your
: 1499 8 16  sou
: 1510 4 9 ~l
- 1516
: 1520 2 16 I'm
: 1524 3 16  not
: 1530 3 16  break
: 1536 3 15 ing
: 1542 19 16  down
- 1563
: 1572 3 16 I'm
: 1579 5 16  break
: 1587 6 14 ing
* 1596 36 17  out
- 1634
: 1644 3 17 Last
: 1650 4 17  chance
: 1656 3 16  to
: 1662 2 17  lo
: 1665 3 16 ~se
: 1672 4 16  con
: 1680 38 16 trol
- 1720
: 2674 2 16 And
: 2677 3 16  I
: 2683 3 16  want
: 2689 3 15  you
: 2695 22 16  now
- 2719
: 2724 4 16 I
: 2731 4 16  want
: 2739 7 14  you
: 2749 35 17  now
- 2786
: 2796 3 17 I
: 2802 4 17  feel
: 2808 3 16  my
: 2815 5 17  heart
: 2823 5 16  im
: 2832 9 16 plo
* 2846 11 9 ~de
- 2859
: 2865 2 16 And
: 2868 3 16  I'm
: 2874 4 16  break
: 2880 4 15 ing
: 2886 21 16  out
- 2909
: 2916 2 16 Es
: 2922 2 16 ca
: 2925 5 14 ~p
: 2932 4 14 ing
: 2940 36 17  now
- 2978
: 2988 3 17 Feel
: 2994 3 17 ing
: 3000 3 16  my
: 3006 5 17  faith
: 3016 5 16  e
: 3024 39 16 rode
E
