#TITLE:I'm Not Okay (I Promise)
#ARTIST:My Chemical Romance
#EDITION:[SC]-Songs
#LANGUAGE:English
#MP3:My Chemical Romance - I'm Not Okay (I Promise).mp3
#COVER:My Chemical Romance - I'm Not Okay (I Promise) [CO].jpg
#BACKGROUND:My Chemical Romance - I'm Not Okay (I Promise) [BG].jpg
#BPM:359,6
#GAP:34150
: 0 3 13 Well,
: 4 2 14  if
: 9 5 13  you
: 18 4 14  want
: 26 4 13 ed
: 33 9 16  hon
: 45 2 14 es
: 49 5 13 ty,
- 55
: 57 5 14 that's
: 65 9 13  all
: 77 2 13  you
: 81 5 14  had
: 89 4 13  to
: 97 4 14  say
: 101 13 13 ~.
- 116
: 129 2 13 I
: 133 2 14  nev
: 137 4 13 er
: 144 5 14  want
: 153 4 13  to
: 161 4 16  let
: 169 5 14  you
: 177 6 13  down
- 184
: 185 4 14 or
: 193 10 13  have
: 205 2 14  you
: 209 5 14  go,
- 215
: 217 5 14 it's
: 229 3 21  bet
: 233 3 19 ter
: 241 4 18  off
: 249 4 16  this
: 257 6 19  way.
- 265
: 269 2 16 For
: 273 4 16  all
: 281 3 18  the
: 289 5 18  dir
: 298 3 19 ty
: 305 5 19  looks,
- 312
: 321 2 11 the
: 325 2 11  pho
: 329 4 16 to
: 337 5 16 graphs
: 345 4 18  your
: 353 5 18  boy
: 361 4 19 friend
: 369 4 19  took,
- 375
: 385 2 11 re
: 389 2 11 mem
: 393 4 16 ber
: 401 5 16  when
: 409 4 18  you
: 417 5 18  broke
: 425 4 19  your
: 433 5 19  foot
- 439
: 441 3 14 from
: 449 5 18  jump
: 457 6 16 ing
: 465 4 18  out
: 473 3 16  the
: 481 6 18  sec
: 489 4 16 ond
: 497 5 14  floor?
- 503
: 505 5 16 I'm
: 517 6 16  no
: 525 14 18 ~
: 541 6 16 ~t
: 549 23 16  O
: 573 6 14 ~
: 581 14 14 K
- 597
: 605 4 14 I'm
: 613 8 14  not
: 629 13 21  O
: 645 6 21 K
: 653 11 19 ~
: 669 12 18 ~
: 685 12 14 ~
: 701 14 13 ~
: 717 7 11 ~
- 726
: 733 5 14 I'm
: 741 7 14  not
: 757 7 21  O
: 765 4 19 ~
: 773 28 19 K
: 805 27 18 ~
: 837 13 16 ~
- 852
: 861 4 4 You
: 869 6 6  wea
: 877 6 2 ~r
: 885 13 2  me
: 901 6 2  ou
: 909 54 4 ~t
- 965
: 1023 4 13 What
: 1029 2 14  will
: 1033 3 14  it
: 1041 4 14  take
: 1049 3 13  to
: 1057 9 16  show
: 1069 3 14  you
: 1073 4 14  that
- 1079
: 1081 4 14 it's
: 1089 8 13  not
: 1101 2 13  the
: 1105 5 14  life
: 1113 4 13  it
: 1122 11 14  seems?
- 1135
: 1153 2 13 I've
: 1157 2 14  told
: 1161 4 13  you
: 1169 6 14  time
: 1177 5 13  and
: 1186 2 14  ti
: 1189 6 16 ~me
: 1197 2 14  a
: 1201 5 13 gain
- 1207
: 1209 4 14 you
: 1217 9 13  sing
: 1229 2 14  the
: 1233 5 14  words
- 1239
: 1241 4 14 but
: 1246 2 14  I
: 1252 3 21  don't
: 1257 5 19  know
: 1265 4 18  what
: 1273 5 16  it
: 1281 6 19  means
- 1293
: 1293 2 4 to
: 1297 6 4  be
: 1305 4 6  a
: 1313 5 6  joke
: 1321 5 7  and
: 1329 5 7  look,
- 1345
: 1345 2 -1 a
: 1349 2 -1 no
: 1353 4 4 ther
: 1361 8 4  line
: 1373 2 6  with
: 1377 6 6 out
: 1385 4 7  a
: 1393 5 7  hook
- 1400
: 1409 2 2 I
: 1413 2 -1  held
: 1417 4 4  you
: 1425 5 4  close
: 1433 4 6  as
: 1441 5 6  we
: 1449 5 7  both
: 1457 5 7  shook,
- 1463
: 1465 2 4 for
: 1469 2 4  the
: 1473 5 6  last
: 1481 7 4  time
- 1490
: 1497 4 7 take
: 1505 2 6  a
: 1509 4 6  good
: 1517 5 4  hard
: 1525 4 4  look!
- 1529
: 1529 6 16 I'm
: 1540 7 16  no
: 1549 14 18 ~
: 1565 4 16 ~t
: 1573 21 16  O
: 1597 4 14 ~
: 1605 12 14 K
- 1619
: 1629 4 14 I'm
: 1637 6 14  not
: 1653 12 21  O
: 1669 6 21 K
: 1677 11 19 ~
: 1693 12 18 ~
: 1709 12 14 ~
: 1725 14 13 ~
: 1741 7 11 ~
- 1750
: 1757 5 14 I'm
: 1765 6 14  not
: 1781 7 21  O
: 1789 4 19 ~
: 1797 27 19 K
: 1829 27 18 ~
: 1861 13 16 ~
- 1876
: 1885 4 4 You
: 1893 6 6  wea
: 1901 6 2 ~r
: 1909 13 2  me
: 1925 6 2  ou
: 1933 53 4 ~t
- 1988
: 2565 2 11 For
: 2569 2 9 get
: 2573 6 16  a
: 2582 4 16 bout
: 2589 5 18  the
: 2597 5 18  dir
: 2605 5 19 ty
: 2613 5 19  looks,
- 2620
: 2629 2 11 the
: 2633 3 9  pho
: 2637 4 16 to
: 2645 5 16 graphs
: 2653 4 18  your
: 2661 4 18  boy
: 2669 4 19 friend
: 2677 4 19  took.
- 2683
: 2693 2 11 You
: 2697 2 16  said
: 2701 6 16  you
: 2709 4 16  read
: 2717 6 18  me
: 2725 5 18  like
: 2733 4 19  a
: 2741 4 18  book,
- 2747
: 2749 2 14 but
: 2753 2 14  the
: 2758 4 21  pa
: 2765 5 19 ges
: 2773 4 19  are
: 2781 5 18  all
: 2789 6 19  torn
: 2797 4 19  and
: 2805 6 19  frayed.
- 2813
F 2825 22 21 I'm
F 2857 19 21  O
F 2888 21 21 K
- 2911
F 2937 8 21 I'm
F 2953 60 21  changed
- 3015
: 3050 9 18 I'm
: 3065 12 19  O
: 3081 6 18 K
: 3088 4 16 ~,
: 3097 11 16  now
- 3110
: 3113 9 18 I'm
: 3129 12 19  O
: 3145 7 18 K
: 3153 4 16 ~,
: 3161 8 16  now
- 3171
F 3173 2 21 But
F 3177 2 21  you
F 3181 2 21  real
F 3185 2 21 ly
F 3189 2 21  need
F 3192 1 21  to
F 3194 2 21  lis
F 3197 2 21 ten
F 3200 1 21  to
F 3202 4 21  me
- 3208
F 3219 2 9 Be
F 3222 2 9 cause
F 3225 2 9  I'm
F 3229 2 9  tel
F 3233 2 9 ling
F 3237 2 9  you
F 3241 2 9  the
F 3245 9 9  truth
- 3256
F 3265 3 9 I
F 3269 5 9  mean
F 3277 4 9  this,
F 3289 2 9  I'm
F 3293 5 9  O
F 3301 11 9 K
- 3313
F 3314 4 9 Trust
F 3322 3 9  Me
- 3325
: 3325 6 16 I'm
: 3337 6 16  no
: 3345 14 18 ~
: 3361 5 16 ~t
: 3369 21 16  O
: 3393 5 14 ~
: 3401 15 14 K
- 3418
: 3425 5 14 I'm
: 3433 6 14  not
* 3449 12 21  O
: 3465 9 14 K
- 3476
: 3485 2 14 Well
: 3489 2 16  I'm
: 3493 5 18  not
: 3501 4 16  O
: 3509 6 14 K
- 3516
: 3517 4 16 I'm
: 3529 4 18  not
: 3537 4 16  O
: 3545 2 14  fu
: 3549 4 16 cking
: 3557 11 18  K
- 3570
: 3577 10 21  O
: 3593 30 19 K
: 3626 28 18 ~
: 3657 16 16 ~
- 3675
: 3681 5 4 I'm
: 3689 8 4  not
: 3705 10 6  O
: 3721 23 6 K
: 3745 5 7 ~
: 3753 29 7 ~
- 3783
: 3785 22 11 Kay
: 3809 6 13 ~
: 3817 28 9 ~
: 3849 50 2 ~?
E
