#TITLE:Ainsi Soit Je
#ARTIST:Mylène Farmer
#MP3:Mylène Farmer - Ainsi Soit Je.mp3
#VIDEO:Mylène Farmer - Ainsi Soit Je.mp4
#COVER:Mylène Farmer - Ainsi Soit Je.jpg
#BPM:200.50
#GAP:63593
#ENCODING:UTF8
#LANGUAGE:French
#GENRE:Pop
#YEAR:1988
#CREATOR:mustangfred and PatTwo
: 0 1 10 Bulle
: 4 1 15  de
: 10 1 17  cha
: 14 12 18 grin,
: 28 5 18  boule
: 36 1 18  d'in
: 39 18 18 cer
* 61 1 20 ti
: 64 11 17 tude
- 85
: 100 3 10 Tant
: 106 5 15  de
: 113 1 17  ma
: 116 9 18 tins
- 127
: 129 1 18 que
: 132 5 18  rien
: 139 1 18  ne
: 143 16 18  dis
: 164 1 20 si
: 167 11 17 mule
- 188
: 196 2 18 Je
: 199 2 17  veux
: 202 3 15  mon
: 206 2 14  hi
: 209 13 15 ver
- 232
: 244 1 18 M'en
: 248 2 18 dor
: 251 1 17 mir
: 254 1 15  loin
: 257 1 14  de
: 260 1 15  tes
* 267 1 17  chi
* 270 3 14 mères
- 283
: 295 1 18 Je
: 298 1 18  sais
: 301 1 17  bien
: 305 1 15  que
: 308 1 14  je
: 311 5 15  mens
- 329
: 347 1 18 Je
: 350 1 18  sais
: 352 1 17  bien
: 356 1 15  que
: 359 1 14  j'ai
: 362 2 15  froid
: 369 1 17  de
: 372 4 14 dans
- 402
: 435 2 10 Bulle
: 440 1 15  de
: 446 1 17  cha
: 449 4 18 grin
- 462
: 466 4 18 Boule
: 472 1 18  d'in
: 475 15 18 cer
: 497 1 20 ti
: 501 6 17 tude
- 520
: 536 1 10 De
: 539 5 15  nos
: 549 1 17  des
: 552 2 18 tins
: 555 3 17 ~
- 566
: 569 3 18 naît
: 575 1 18  que
: 578 20 18  so
* 600 1 20 li
: 604 6 17 tude
- 620
: 629 1 17 Tu
* 632 1 18  dis
: 635 1 17  qu'il
: 639 1 15  faut
: 642 1 14  du
: 645 12 15  temps
- 667
: 680 1 18 Qu'ai
: 683 1 18 mer
: 686 1 17  n'est
: 689 2 15  pas
: 692 2 14  un
: 696 1 15  jeu
: 702 1 17  d'en
: 707 2 14 fant
- 719
: 731 1 18 Je
: 734 1 18  sais
: 737 1 17  bien
: 740 1 15  que
: 743 2 14  tu
: 747 7 15  mens
- 767
: 783 1 18 Mais
: 785 1 18  je
: 789 1 17  suis
: 792 1 15  si
: 795 2 14  seul
: 798 1 15  à
: 805 1 17  pré
: 808 3 14 sent
- 824
: 844 1 15 Ain
: 847 6 20 si
* 856 2 22  soit
: 860 8 23  Je
- 870
: 872 1 23 Ain
: 876 3 20 si
: 882 1 22  soit
* 885 3 23  Tu
- 892
: 894 1 20 Ain
: 898 6 22 si
: 907 1 23  soit
: 911 18 22  Il
- 939
: 946 1 15 Ain
: 950 7 20 si
: 959 1 22  moi
: 962 9 23  Je
- 973
: 975 1 23 Prie
: 978 4 20  pour
: 985 1 22  que
: 988 6 23  tu
: 998 2 25  fuis
: 1001 8 20  mon
: 1010 1 23  e
: 1013 21 22 xil
- 1043
: 1047 2 22 Mais
: 1051 9 23  quel
: 1061 1 25  es
: 1064 8 27 poir
: 1074 2 22  pour
: 1077 7 23 rais-
: 1085 1 25 je
* 1087 1 25  a
* 1090 4 27 voir
- 1097
: 1099 2 22 Quand
: 1103 8 23  tout
: 1112 1 25  est
* 1115 2 25  noir
: 1118 15 27 ~?
- 1143
: 1151 1 22 Ain
: 1154 7 23 si
: 1163 2 25  soit
: 1167 6 27  Je
- 1175
: 1177 1 23 Ain
: 1180 6 25 si
: 1189 1 27  soit
: 1193 6 28  Tu,
: 1200 1 28  ain
: 1202 3 25 si
: 1208 4 27  soit
* 1214 1 28  ma
: 1218 18 19  vie
- 1249
: 1265 1 19 Tant
: 1269 13 20  pis
- 1295
: 1330 3 -2 Bulle
: 1336 1 3  de
: 1342 1 5  cha
: 1345 3 6 grin
- 1358
: 1362 4 6 Boule
: 1368 1 6  d'in
: 1372 16 6 cer
: 1394 1 8 ti
: 1397 8 5 tude
- 1418
: 1433 1 -2 Deux
: 1436 5 3  or
: 1445 1 5 phe
: 1447 5 6 lins
- 1458
: 1461 1 6 Que
: 1463 1 6  le
: 1467 7 6  temps
: 1476 13 6  dé
: 1496 1 8 fi
: 1499 7 5 gure
- 1516
: 1525 1 5 Je
: 1528 1 6  vou
: 1530 2 5 drais
: 1534 2 3  mon
: 1537 2 2  hi
: 1540 12 3 ver
- 1562
: 1575 2 6 M'en
: 1579 2 6 dor
: 1582 1 5 mir
: 1586 1 3  loin
: 1589 1 2  de
: 1592 1 3  tes
* 1599 1 5  chi
* 1601 5 2 mères
- 1616
: 1627 1 6 Tu
: 1630 1 6  sais
: 1633 1 5  bien
: 1636 1 3  que
: 1639 1 2  je
: 1642 8 3  mens
- 1663
: 1678 1 6 Tu
: 1681 1 6  sais
: 1684 1 5  bien
: 1688 1 3  que
: 1690 1 2  j'ai
: 1694 2 3  froid
: 1701 1 5  de
: 1704 2 2 dans
- 1719
: 1739 1 15 Ain
: 1743 6 20 si
: 1752 1 22  soit
* 1755 10 23  Je
- 1766
: 1768 1 23 Ain
: 1771 4 20 si
: 1777 1 22  soit
: 1781 3 23  Tu
- 1788
: 1790 1 20 Ain
: 1793 7 22 si
* 1803 1 23  soit
: 1807 15 22  Il
- 1832
: 1841 1 15 Ain
: 1845 8 20 si
: 1855 1 22  moi
: 1857 10 23  Je
- 1868
: 1870 1 23 Prie
: 1873 4 20  pour
: 1880 1 22  que
: 1883 7 23  tu
* 1893 1 25  fuis
: 1896 8 19  mon
: 1905 1 23  e
: 1909 16 22 xil
- 1935
: 1942 1 22 Mais
: 1947 8 23  quel
: 1956 1 25  es
: 1960 5 27 poir
: 1969 2 22  pour
: 1972 7 23 rais-
: 1981 1 25 je
* 1983 1 25  a
* 1985 4 27 voir
- 1993
: 1995 1 22 Quand
: 1998 7 23  tout
: 2008 1 25  est
* 2011 2 25  noir
* 2014 15 27 ~?
- 2039
: 2046 1 22 Ain
: 2050 5 23 si
: 2058 2 25  soit
: 2062 6 27  Je
- 2070
: 2072 1 23 Ain
: 2075 7 25 si
: 2084 1 27  soit
: 2088 6 28  Tu,
: 2095 1 28  ain
: 2098 3 25 si
: 2103 5 27  soit
: 2109 1 28  ma
: 2113 16 19  vie
- 2142
: 2161 1 19 Tant
: 2165 11 20  pis
- 2202
: 2634 1 15 Ain
: 2638 6 20 si
: 2647 1 22  soit
* 2650 9 23  Je
- 2662
: 2664 1 23 Ain
: 2666 4 20 si
: 2673 1 22  soit
: 2676 3 23  Tu
- 2683
: 2685 1 20 Ain
: 2689 6 22 si
: 2698 1 23  soit
: 2702 18 22  Il
- 2732
: 2736 1 15 Ain
: 2741 6 20 si
: 2749 2 22  moi
: 2753 8 23  Je
- 2764
: 2766 1 23 Prie
: 2768 4 20  pour
: 2775 1 22  que
: 2778 6 23  tu
: 2788 1 25  fuis
: 2791 8 20  mon
: 2801 1 23  e
: 2804 18 22 xil
- 2832
: 2839 1 22 Mais
: 2842 4 23  quel
: 2851 2 25  es
* 2855 6 27 poir
: 2865 2 22  pour
: 2868 6 23 rais-
: 2876 1 25 je
: 2878 1 25  a
: 2880 4 27 voir
- 2888
: 2890 1 22 Quand
: 2894 7 23  tout
* 2903 1 25  est
: 2906 2 25  noir
: 2909 19 27 ~?
- 2937
: 2941 1 22 Ain
: 2945 5 23 si
: 2954 1 25  soit
: 2957 6 27  Je
- 2965
: 2967 1 23 Ain
: 2971 6 25 si
: 2979 1 27  soit
: 2983 5 28  Tu,
: 2990 1 28  ain
: 2993 2 25 si
* 2998 4 27  soit
: 3005 1 28  ma
: 3008 14 19  vie
- 3035
: 3056 1 19 Tant
: 3060 6 20  pis
E