#TITLE:Nackidei
#ARTIST:Möhre
#MP3:Möhre - Nackidei.mp3
#COVER:Möhre - Nackidei [CO].jpg
#BACKGROUND:Möhre - Nackidei [BG].jpg
#BPM:288,11
#GAP:4911
#MedleyStartBeat:313
#MedleyEndBeat:689
#ENCODING:UTF8
#PREVIEWSTART:21,207
#LANGUAGE:German
: 0 6 4 Der
: 8 6 7  E
: 16 5 4 ber
: 24 4 9  sagt
: 32 4 4  zu
: 40 4 7  sei
: 45 3 4 ner
: 52 8 9  Frau
- 62
: 84 4 4 "Hör
: 90 10 7  zu,
- 102
: 113 3 4 du
: 119 4 9  sü
: 126 3 4 ße
: 132 6 7  klei
: 140 3 6 ne
: 146 8 5  Sau
- 156
: 179 4 5 wir
: 185 4 5  ma
: 191 4 2 chen
: 197 7 7  heut
- 206
: 213 2 2 ne
: 219 5 5  Schwei
: 225 3 2 ne
: 230 9 7 rei
- 241
: 255 2 7 und
: 260 4 7  gehn
: 266 4 7  mal
: 273 5 7  wie
: 280 3 5 der
: 286 2 4  nac
: 290 4 2 ki
* 297 7 0 dei"
- 306
: 313 3 7 Nac
: 317 3 4 ki
: 323 7 9 dei,
: 337 3 7  Nac
: 341 3 4 ki
: 347 8 9 dei,
- 357
: 361 4 7 al
: 367 3 4 le
: 373 3 9  sind
: 379 3 4  heut
: 385 3 7  nac
: 390 3 6 ki
: 395 7 5 dei
- 404
: 409 3 5 Nac
: 414 3 2 ki
: 419 7 7 dei,
: 433 3 5  Nac
: 438 3 2 ki
: 443 7 7 dei,
- 452
: 457 4 7 kei
: 463 3 7 ner
: 469 4 7  fin
: 475 3 5 det
: 481 3 4  was
: 487 2 2  da
: 491 6 0 bei
- 499
: 505 3 7 Nac
: 510 3 4 ki
: 515 7 9 dei,
: 529 3 7  Nac
: 534 3 4 ki
: 539 7 9 dei,
- 548
: 553 4 7 al
: 559 2 4 le
: 565 3 9  sind
: 571 3 4  heut
: 577 3 7  nac
: 582 3 6 ki
: 587 7 5 dei
- 596
: 601 3 5 Nac
: 606 3 2 ki
: 611 7 7 dei,
: 625 3 5  Nac
: 630 3 2 ki
: 635 7 7 dei,
- 644
: 649 4 7 kei
: 655 3 7 ner
: 661 4 7  fin
: 667 3 5 det
: 673 3 4  was
: 679 2 2  da
: 683 6 0 bei
- 691
: 739 3 4 Dem
: 745 4 7  Schaf
: 751 3 4  wird
: 757 3 9  in
: 763 3 4  der
: 769 3 7  Wol
: 773 3 4 le
* 779 6 9  heiß
- 787
: 790 2 4 und
: 793 3 7  von
: 799 3 4  der
: 805 4 9  Stirn
: 811 3 4  rinnt
: 817 4 7  ihm
: 823 2 6  der
: 827 5 5  Schweiß
- 834
: 839 2 2 doch
: 842 3 5  nach
: 847 3 2  der
: 853 4 7  Schur
: 859 3 2  sagt
: 865 3 5  es
: 871 2 2  "Ja
: 875 5 7  mei
- 882
: 888 2 5 des
: 891 3 7  ist
: 896 3 7  fon
: 902 3 7 tas
: 908 3 5 tisch
: 914 2 4  nac
: 918 3 2 ki
: 923 5 0 dei"
- 930
: 937 3 7 Nac
: 941 3 4 ki
* 947 8 9 dei,
: 961 3 7  Nac
: 965 3 4 ki
: 971 8 9 dei,
- 981
: 985 4 7 al
: 991 3 4 le
: 997 4 9  sind
: 1003 4 4  heut
: 1009 3 7  nac
: 1014 3 6 ki
* 1019 7 5 dei
- 1028
: 1033 3 5 Nac
: 1037 3 2 ki
: 1043 6 7 dei,
: 1057 3 5  Nac
: 1061 3 2 ki
: 1067 6 7 dei,
- 1075
: 1081 4 7 kei
: 1087 3 7 ner
: 1093 3 7  fin
: 1099 3 5 det
: 1105 3 4  was
: 1111 2 2  da
: 1115 6 0 bei
- 1123
: 1129 3 7 Nac
: 1133 4 4 ki
: 1139 8 9 dei,
: 1153 3 7  Nac
: 1157 4 4 ki
: 1163 7 9 dei,
- 1172
: 1177 4 7 al
: 1183 3 4 le
: 1189 3 9  sind
: 1195 3 4  heut
: 1201 3 7  nac
: 1205 4 6 ki
: 1211 7 5 dei
- 1220
: 1225 3 5 Nac
: 1229 4 2 ki
: 1235 7 7 dei,
: 1249 3 5  Nac
: 1253 3 2 ki
: 1259 6 7 dei,
- 1267
: 1273 4 7 kei
: 1279 3 7 ner
: 1285 4 7  fin
: 1291 3 5 det
: 1297 3 4  was
: 1303 2 2  da
: 1307 5 0 bei
- 1314
: 1555 3 4 Das
: 1561 4 7  Kü
: 1567 3 4 ken
: 1573 3 9  hält
: 1579 3 4  es
: 1585 3 7  nicht
: 1591 2 4  mehr
: 1595 5 9  aus
- 1602
: 1606 2 4 will
: 1609 3 7  end
: 1615 2 4 lich
: 1621 3 9  aus
: 1627 3 4  dem
: 1633 3 7  Ei
: 1638 2 6  her
: 1642 5 5 aus
- 1649
: 1655 2 2 zer
: 1658 3 5 pickt
: 1664 3 2  die
: 1670 4 7  Scha
: 1676 3 2 le
: 1682 3 5  eins
: 1688 2 2  zwei
: 1692 6 7  drei
- 1700
* 1706 5 12 Plumps!
: 1715 2 7  Da
: 1718 4 7  liegt
: 1724 2 5  es
: 1730 3 4  nac
: 1734 3 2 ki
: 1740 6 0 dei
- 1748
: 1753 3 7 Nac
: 1757 3 4 ki
: 1763 7 9 dei,
: 1777 3 7  Nac
: 1781 4 4 ki
: 1787 8 9 dei,
- 1797
: 1801 4 7 al
: 1807 3 4 le
: 1813 3 9  sind
: 1819 3 4  heut
: 1825 3 7  nac
: 1829 3 6 ki
: 1835 6 5 dei
- 1843
: 1849 3 5 Nac
: 1853 3 2 ki
: 1859 6 7 dei,
: 1873 3 5  Nac
: 1877 3 2 ki
: 1883 7 7 dei,
- 1892
: 1897 4 7 kei
: 1903 3 7 ner
: 1909 3 7  fin
: 1915 3 5 det
: 1921 3 4  was
: 1927 2 2  da
: 1931 5 0 bei
- 1938
: 1945 3 7 Nac
: 1949 4 4 ki
: 1955 6 9 dei,
: 1969 3 7  Nac
: 1973 3 4 ki
* 1979 7 9 dei,
- 1988
: 1993 4 7 al
: 1999 3 4 le
: 2005 4 9  sind
: 2011 4 4  heut
: 2017 3 7  nac
: 2021 3 6 ki
: 2027 7 5 dei
- 2036
: 2041 3 5 Nac
: 2045 3 2 ki
: 2051 8 7 dei,
: 2065 3 5  Nac
: 2069 3 2 ki
: 2075 7 7 dei,
- 2084
: 2089 4 7 kei
: 2095 3 7 ner
: 2101 4 7  fin
* 2107 3 5 det
: 2113 3 4  was
: 2119 2 2  da
: 2123 7 0 bei
- 2132
: 2330 3 7 Da
: 2334 3 4  dap
* 2340 7 9  da,
: 2354 3 7  Da
: 2358 3 4  dap
: 2364 6 9  da,
- 2372
: 2375 2 4 Da
: 2378 3 7  dap
: 2383 3 4  dap
: 2389 4 9  dap
: 2395 4 4  dap
: 2402 3 7  dap
: 2406 3 6  da
: 2412 6 5  da
- 2420
: 2426 3 5 Da
: 2430 3 2  dap
: 2436 5 7  da,
: 2450 3 5  Da
: 2454 3 2  dap
: 2460 5 7  da,
- 2467
: 2472 2 7 Da
: 2475 3 7  dap
: 2480 3 7  dap
: 2486 3 7  dap
: 2492 3 5  dap
: 2498 3 4  dap
: 2502 3 2  da
: 2508 5 0  da
- 2515
: 2564 4 4 Dem
: 2570 3 7  Kar
: 2576 3 4 pfen
: 2582 4 9  falln
: 2588 3 4  die
: 2594 3 7  Schup
: 2598 3 4 pen
: 2604 4 9  ab
- 2610
: 2615 2 4 er
: 2618 3 7  guckt
: 2624 4 4  und
: 2630 4 9  guckt
: 2636 3 4  und
: 2642 3 7  lacht
: 2648 2 6  sich
* 2652 5 5  schlapp
- 2659
: 2663 2 2 was
: 2666 3 5  schwebt
: 2672 3 2  da
: 2678 4 7  an
: 2684 3 2  der
: 2690 4 5  Schnur
: 2696 2 2  vor
: 2699 6 7 bei
- 2707
* 2711 2 7 Ein
* 2714 5 12  Wurm!
: 2725 2 7  Und
: 2728 3 7  dann
: 2733 3 5  noch
: 2738 3 4  nac
: 2743 3 2 ki
: 2748 6 0 dei
- 2756
: 2762 3 7 Nac
: 2766 3 4 ki
: 2772 7 9 dei,
: 2786 3 7  Nac
: 2790 4 4 ki
: 2796 8 9 dei,
- 2806
: 2810 4 7 al
: 2816 3 4 le
: 2822 3 9  sind
: 2828 3 4  heut
: 2834 3 7  nac
: 2838 3 6 ki
: 2844 6 5 dei
- 2852
: 2858 3 5 Nac
: 2862 3 2 ki
: 2868 6 7 dei,
: 2882 3 5  Nac
: 2886 3 2 ki
: 2892 7 7 dei,
- 2901
: 2906 4 7 kei
: 2912 3 7 ner
: 2918 3 7  fin
: 2924 3 5 det
: 2930 3 4  was
: 2936 2 2  da
: 2940 5 0 bei
- 2947
: 2954 3 7 Nac
: 2958 4 4 ki
: 2964 6 9 dei,
: 2978 3 7  Nac
: 2982 3 4 ki
* 2988 7 9 dei,
- 2997
: 3002 4 7 al
: 3008 3 4 le
: 3014 4 9  sind
: 3020 4 4  heut
: 3026 3 7  nac
: 3030 3 6 ki
: 3036 7 5 dei
- 3045
: 3050 3 5 Nac
: 3054 3 2 ki
: 3060 8 7 dei,
: 3074 3 5  Nac
: 3078 3 2 ki
: 3084 7 7 dei,
- 3093
: 3098 4 7 kei
: 3104 3 7 ner
: 3110 4 7  fin
* 3116 3 5 det
: 3122 3 4  was
: 3128 2 2  da
: 3132 7 0 bei
- 3141
: 3146 3 7 Da
: 3150 3 4  dap
* 3156 7 9  da,
: 3170 3 7  Da
: 3174 3 4  dap
: 3180 6 9  da,
- 3188
: 3192 2 4 Da
: 3195 3 7  dap
: 3200 3 4  dap
: 3206 4 9  dap
: 3212 4 4  dap
: 3219 3 7  dap
: 3223 3 6  da
: 3229 6 5  da
- 3237
: 3243 3 5 Da
: 3247 3 2  dap
: 3253 5 7  da,
: 3267 3 5  Da
: 3271 3 2  dap
: 3277 5 7  da,
- 3284
: 3290 3 7 dap
: 3296 3 7  dap
: 3302 3 7  dap
: 3308 3 5  dap
: 3314 3 4  dap
: 3319 3 2  da
: 3324 5 0  da
- 3331
: 3339 3 7 Dap
: 3345 3 7  dap
: 3351 4 7  dap
: 3357 3 5  dap
: 3363 2 4  da
: 3367 3 2  da
: 3373 7 0  da
- 3382
: 3387 4 7 dap
: 3393 4 7  dap
: 3399 4 7  dap
: 3405 4 7  dap
: 3411 2 9  da
: 3415 3 11  da
: 3421 7 12  da
- 3430
: 3447 2 7 Da
: 3450 2 9  ba
: 3453 2 11  da
: 3457 10 12  da
E