#TITLE:Loko
#ARTIST:Mürfila
#MP3:Mürfila - Loko.mp3
#COVER:Mürfila - Loko [CO].jpg
#BACKGROUND:Mürfila - Loko [BG].jpg
#BPM:328,0
#GAP:300
#ENCODING:UTF8
: 0 4 57 Lo
: 4 4 56 co, 
: 8 4 57 lo
: 12 4 56 co, 
: 16 4 57 lo
: 20 3 56 co 
- 23
: 24 4 57 Lo
: 28 4 56 co, 
: 32 4 57 lo
: 36 4 56 co, 
: 40 4 57 lo
: 44 4 56 co 
- 58
: 128 4 57 Lo
: 132 4 56 co, 
: 136 4 57 lo
: 140 4 56 co, 
: 144 4 57 lo
: 148 3 56 co 
- 151
: 152 4 57 Lo
: 156 4 56 co, 
: 160 4 57 lo
: 164 4 56 co, 
: 168 4 57 lo
: 172 4 56 co 
- 186
: 256 4 57 Lo
: 260 4 56 co, 
: 264 4 57 lo
: 268 4 56 co, 
: 272 4 57 lo
: 276 4 56 co, 
: 280 4 57 lo
: 284 4 56 co, 
: 288 4 57 lo
: 292 3 56 co 
- 295
: 296 4 57 Va
: 300 4 56 mos a ha
: 304 4 57 cer 
: 308 4 56 el 
: 312 4 57 a
: 316 8 56 mor 
: 324 8 52 tú y 
: 332 6 52 yo 
- 338
: 340 4 52 En 
: 344 4 52 es
: 348 4 54 te 
: 352 8 56 mun
: 360 4 54 do 
: 364 4 52 lo
: 372 4 49 co 
- 380
: 384 4 57 Lo
: 388 4 56 co, 
: 392 4 57 lo
: 396 4 56 co, 
: 400 4 57 lo
: 404 4 56 co, 
: 408 4 57 lo
: 412 4 56 co, 
: 416 4 57 lo
: 420 3 56 co 
- 423
: 424 4 57 Va
: 428 4 56 mos a ha
: 432 4 57 cer 
: 436 4 56 el 
: 440 4 57 a
: 444 8 56 mor 
: 452 8 52 tú y 
: 460 6 52 yo 
- 466
: 468 4 52 En 
: 472 4 52 es
: 476 4 54 te 
: 480 8 56 mun
: 488 4 54 do 
: 492 4 52 lo
: 500 4 49 co 
- 514
: 764 4 45 El 
: 768 4 45 mun
: 772 4 47 do 
: 776 4 47 va al 
: 780 4 47 re
: 784 6 47 vés 
- 790
: 792 2 45 Es
: 794 2 45 tá 
: 796 4 45 lo
: 800 4 45 qui
: 804 4 47 to, 
: 808 4 47 lo
: 812 4 47 co 
: 816 6 47 él 
- 822
: 824 4 45 Ne
: 828 4 45 ce
: 832 4 45 si
: 836 4 47 to u
: 840 4 47 na 
: 844 4 47 ma
: 848 4 47 no 
- 854
: 856 4 45 Que 
: 860 4 45 me 
: 864 4 45 di
: 868 4 47 ga 
: 872 4 47 ''to
: 876 4 47 do 
: 880 6 47 bien'' 
- 886
: 888 4 45 Da
: 892 4 45 me 
: 896 4 45 mu
: 900 4 47 mu
: 904 4 47 cha 
: 908 4 47 ca
: 912 6 47 lor 
- 918
: 920 4 45 Ten
: 924 4 45 go 
: 928 4 45 frí
: 932 4 47 o, 
: 936 4 47 żno 
: 940 4 47 lo 
: 944 2 47 ves? 
- 949
: 952 4 45 Vá
: 956 4 45 mo
: 960 4 45 nos 
: 964 4 47 de es
: 968 4 47 te 
: 972 4 47 ca
: 976 6 47 os 
- 982
: 984 4 47 Va
: 988 4 45 mos a ha
: 992 4 47 cer 
: 996 4 47 al
: 1000 4 47 go 
: 1004 4 47 me
: 1008 2 47 jor 
- 1013
: 1016 4 47 Mien
: 1020 4 47 tras 
: 1024 4 47 la 
: 1028 4 49 tie
: 1032 4 49 rra 
: 1036 4 49 se 
: 1040 4 49 quie
: 1044 2 49 bra 
- 1046
: 1048 4 49 Y 
: 1052 4 49 el 
: 1056 4 49 cie
: 1060 4 49 lo 
: 1064 4 49 se 
: 1068 4 49 des
: 1072 4 49 plo
: 1076 2 49 ma 
- 1078
: 1080 4 49 Có
: 1084 4 49 ge
: 1088 4 50 me 
: 1092 4 50 de 
: 1096 4 50 la 
: 1100 4 50 ma
: 1104 4 50 ni
: 1108 2 50 ta 
- 1110
: 1112 4 50 Va
: 1116 4 50 mos a ha
: 1120 4 52 cer 
: 1124 4 52 mu
: 1128 4 52 cha 
: 1132 4 52 pu
: 1136 4 52 pi
: 1140 2 52 ta 
- 1142
: 1144 4 52 Có
: 1148 4 50 ge
: 1152 4 49 me 
- 1166
: 1188 6 52 De 
: 1196 6 50 la 
: 1204 6 49 ma
: 1212 6 50 ni
: 1220 4 52 ta 
: 1224 4 52 a
: 1228 16 52 mor 
- 1254
: 1268 4 52 Y 
: 1272 4 50 có
: 1276 4 50 ge
: 1280 4 49 me 
- 1294
: 1316 6 52 De 
: 1324 6 50 la 
: 1332 6 49 ma
: 1340 6 50 ni
: 1348 4 52 ta 
: 1352 4 52 a
: 1356 16 52 mor 
- 1382
: 1408 4 56 Va
: 1412 4 56 mos 
: 1416 4 56 a ha
: 1420 6 56 cer 
: 1428 8 54 mu
: 1436 4 56 cha 
: 1444 8 54 pu
: 1452 8 56 pi
: 1460 6 54 ta 
- 1469
: 1472 4 57 Va
: 1476 4 57 mos 
: 1480 4 57 a ha
: 1484 6 57 cer 
: 1492 6 56 pu
: 1500 6 59 pi
: 1508 78 57 ta 
- 1593
: 1600 4 57 Lo
: 1604 4 56 co, 
: 1608 4 57 lo
: 1612 4 56 co, 
: 1616 4 57 lo
: 1620 4 56 co, 
: 1624 4 57 lo
: 1628 4 56 co, 
: 1632 4 57 lo
: 1636 3 56 co 
- 1639
: 1640 4 57 Va
: 1644 4 56 mos a ha
: 1648 4 57 cer 
: 1652 4 56 el 
: 1656 4 57 a
: 1660 8 56 mor 
: 1668 8 52 tú y 
: 1676 6 52 yo 
- 1682
: 1684 4 52 En 
: 1688 4 52 es
: 1692 4 54 te 
: 1696 8 56 mun
: 1704 4 54 do 
: 1708 4 52 lo
: 1716 4 49 co 
- 1724
: 1728 4 57 Lo
: 1732 4 56 co, 
: 1736 4 57 lo
: 1740 4 56 co, 
: 1744 4 57 lo
: 1748 4 56 co, 
: 1752 4 57 lo
: 1756 4 56 co, 
: 1760 4 57 lo
: 1764 3 56 co 
- 1767
: 1768 4 57 Va
: 1772 4 56 mos a ha
: 1776 4 57 cer 
: 1780 4 56 el 
: 1784 4 57 a
: 1788 8 56 mor 
: 1796 8 52 tú y 
: 1804 6 52 yo 
- 1810
: 1812 4 52 En 
: 1816 4 52 es
: 1820 4 54 te 
: 1824 8 56 mun
: 1832 4 54 do 
: 1836 4 52 lo
: 1844 4 49 co 
- 1852
: 1856 4 61 Lo
: 1860 32 59 co
: 1892 12 57   
: 1904 4 56   
- 1914
: 1920 4 61 Lo
: 1924 32 59 co
: 1956 12 57   
: 1968 4 56   
- 1978
: 1984 4 54 Lo
: 1988 4 54 co, 
: 1992 4 54 lo
: 1996 4 54 co, 
: 2000 4 54 lo
: 2004 4 56 co, 
: 2008 4 56 lo
: 2012 4 56 co, 
: 2016 4 56 lo
: 2020 3 57 co 
- 2023
: 2024 4 57 Lo
: 2028 4 57 co, 
: 2032 4 57 lo
: 2036 4 59 co, 
: 2040 4 59 lo
: 2044 4 59 co, 
: 2048 5 59 lo
: 2053 7 57 co, 
: 2060 8 56 lo
: 2068 14 52 co 
- 2092
: 2108 4 47 Y la 
: 2112 6 49 gen
: 2118 4 49 te 
: 2124 4 47 se 
: 2128 6 49 hie
: 2134 4 49 re 
- 2138
: 2140 2 49 Mi 
: 2144 4 52 a
: 2148 6 52 mor 
- 2161
: 2168 4 49 Y 
: 2172 4 49 la 
: 2176 6 50 gen
: 2182 4 50 te 
: 2188 4 50 se 
: 2192 6 50 ma
: 2198 4 50 ta 
- 2202
: 2204 4 50 Mi 
: 2208 4 52 a
: 2212 6 52 mor 
- 2225
: 2232 4 47 Y 
: 2236 4 47 la 
: 2240 6 49 gen
: 2246 4 49 te 
: 2252 4 47 se 
: 2256 6 49 o
: 2262 4 49 dia 
- 2266
: 2268 4 49 Mi 
: 2272 4 52 a
: 2276 6 52 mor 
- 2289
: 2296 3 45 Vá
: 2300 4 45 mo
: 2304 3 54 nos 
: 2309 4 54 le
: 2316 4 54 jos 
: 2324 4 54 de a
: 2332 6 54 quí 
- 2338
: 2340 6 52 Por 
: 2348 4 49 fa
: 2352 4 47 vor 
- 2358
: 2360 4 45 Va
: 2364 4 47 mos a 
: 2368 6 49 ma
: 2374 4 49 tar
: 2380 4 47 nos a 
: 2384 6 49 be
: 2390 4 49 sos 
- 2396
: 2398 2 49 Mi 
: 2400 4 52 a
: 2404 6 52 mor 
- 2417
: 2424 4 52 Te 
: 2428 4 52 de
: 2432 6 50 cla
: 2438 4 50 ro 
: 2444 4 49 la 
: 2448 6 50 gue
: 2454 4 50 rra 
- 2458
: 2460 4 50 Mi 
: 2464 4 52 a
: 2468 6 52 mor 
- 2481
: 2488 4 47 La 
: 2492 4 47 gue
: 2496 6 49 rra 
: 2502 4 49 de 
: 2508 4 47 los 
: 2512 6 49 be
: 2518 4 49 sos 
- 2522
: 2524 4 49 Mi 
: 2528 4 52 a
: 2532 6 52 mor 
- 2545
: 2552 3 45 Vá
: 2556 4 45 mo
: 2560 3 54 nos 
: 2565 4 54 le
: 2572 4 54 jos 
: 2580 4 54 de a
: 2588 4 54 quí 
- 2594
: 2596 4 52 Por 
: 2604 4 49 fa
: 2608 2 47 vor 
- 2610
: 2612 2 49 Y 
: 2616 4 47 có
: 2620 4 45 ge
: 2624 4 45 me 
- 2638
: 2660 6 52 De 
: 2668 6 50 la 
: 2676 6 49 ma
: 2684 6 50 ni
: 2692 4 52 ta 
: 2696 4 52 a
: 2700 16 52 mor 
- 2726
: 2740 4 49 Y 
: 2744 4 47 có
: 2748 4 45 ge
: 2752 4 45 me 
- 2766
: 2788 6 52 De 
: 2796 6 50 la 
: 2804 6 49 ma
: 2812 6 50 ni
: 2820 4 52 ta 
: 2824 4 52 a
: 2828 16 52 mor 
- 2854
: 2880 4 56 Va
: 2884 4 56 mos 
: 2888 4 56 a ha
: 2892 6 56 cer 
: 2900 8 54 mu
: 2908 4 56 cha 
: 2916 8 54 pu
: 2924 8 56 pi
: 2932 6 54 ta 
- 2941
: 2944 4 57 Va
: 2948 4 57 mos 
: 2952 4 57 a ha
: 2956 6 57 cer 
: 2964 6 56 pu
: 2972 6 59 pi
: 2980 78 57 ta 
- 3065
: 3072 4 57 Lo
: 3076 4 56 co, 
: 3080 4 57 lo
: 3084 4 56 co, 
: 3088 4 57 lo
: 3092 4 56 co, 
: 3096 4 57 lo
: 3100 4 56 co, 
: 3104 4 57 lo
: 3108 3 56 co 
- 3111
: 3112 4 57 Va
: 3116 4 56 mos a ha
: 3120 4 57 cer 
: 3124 4 56 el 
: 3128 4 57 a
: 3132 8 56 mor 
: 3140 8 52 tú y 
: 3148 6 52 yo 
- 3154
: 3156 4 52 En 
: 3160 4 52 es
: 3164 4 54 te 
: 3168 8 56 mun
: 3176 4 54 do 
: 3180 4 52 lo
: 3188 4 49 co 
- 3196
: 3200 4 57 Lo
: 3204 4 56 co, 
: 3208 4 57 lo
: 3212 4 56 co, 
: 3216 4 57 lo
: 3220 4 56 co, 
: 3224 4 57 lo
: 3228 4 56 co, 
: 3232 4 57 lo
: 3236 3 56 co 
- 3239
: 3240 4 57 Va
: 3244 4 56 mos a ha
: 3248 4 57 cer 
: 3252 4 56 el 
: 3256 4 57 a
: 3260 8 56 mor 
: 3268 8 52 tú y 
: 3276 6 52 yo 
- 3282
: 3284 4 52 En 
: 3288 4 52 es
: 3292 4 54 te 
: 3296 8 56 mun
: 3304 4 54 do 
: 3308 4 52 lo
: 3316 4 49 co 
- 3324
: 3328 4 61 Lo
: 3332 32 59 co
: 3364 12 57   
: 3376 4 56   
- 3386
: 3392 4 61 Lo
: 3396 32 59 co
: 3428 12 57   
: 3440 4 56   
- 3450
: 3456 4 54 Lo
: 3460 4 54 co, 
: 3464 4 54 lo
: 3468 4 54 co, 
: 3472 4 54 lo
: 3476 4 56 co, 
: 3480 4 56 lo
: 3484 4 56 co, 
: 3488 4 56 lo
: 3492 3 57 co 
- 3495
: 3496 4 57 Lo
: 3500 4 57 co, 
: 3504 4 57 lo
: 3508 4 59 co, 
: 3512 4 59 lo
: 3516 4 59 co, 
: 3520 5 59 lo
: 3525 7 57 co, 
: 3532 8 56 lo
: 3540 14 52 co 
- 3564
: 3584 4 57 Lo
: 3588 4 56 co, 
: 3592 4 57 lo
: 3596 4 56 co, 
: 3600 4 57 lo
: 3604 3 56 co 
- 3607
: 3608 4 57 Lo
: 3612 4 56 co, 
: 3616 4 57 lo
: 3620 4 56 co, 
: 3624 4 57 lo
: 3628 4 56 co 
- 3642
: 3712 4 57 Lo
: 3716 4 56 co, 
: 3720 4 57 lo
: 3724 4 56 co, 
: 3728 4 57 lo
: 3732 3 56 co 
- 3735
: 3736 4 57 Lo
: 3740 4 56 co, 
: 3744 4 57 lo
: 3748 4 56 co, 
: 3752 4 57 lo
: 3756 4 56 co 
- 3770
: 3840 4 57 Lo
: 3844 4 56 co, 
: 3848 4 57 lo
: 3852 4 56 co, 
: 3856 4 57 lo
: 3860 3 56 co 
- 3863
: 3864 4 57 Lo
: 3868 4 56 co, 
: 3872 4 57 lo
: 3876 4 56 co, 
: 3880 4 57 lo
: 3884 4 56 co 
- 3898
: 3968 4 57 Lo
: 3972 4 56 co, 
: 3976 4 57 lo
: 3980 4 56 co, 
: 3984 4 57 lo
: 3988 3 56 co 
- 3991
: 3992 4 57 Lo
: 3996 4 56 co, 
: 4000 4 57 lo
: 4004 4 56 co, 
: 4008 4 57 lo
: 4012 4 56 co 
- 4026
: 4096 4 57 Lo
: 4100 4 56 co, 
: 4104 4 57 lo
: 4108 4 56 co, 
: 4112 4 57 lo
: 4116 4 56 co, 
: 4120 4 57 lo
: 4124 4 56 co, 
: 4128 4 57 lo
: 4132 3 56 co 
- 4135
: 4136 4 57 Va
: 4140 4 56 mos a ha
: 4144 4 57 cer 
: 4148 4 56 el 
: 4152 4 57 a
: 4156 8 56 mor 
: 4164 8 52 tú y 
: 4172 6 52 yo 
- 4178
: 4180 4 52 En 
: 4184 4 52 es
: 4188 4 54 te 
: 4192 8 56 mun
: 4200 4 54 do 
: 4204 4 52 lo
: 4212 4 49 co 
- 4220
: 4224 4 57 Lo
: 4228 4 56 co, 
: 4232 4 57 lo
: 4236 4 56 co, 
: 4240 4 57 lo
: 4244 4 56 co, 
: 4248 4 57 lo
: 4252 4 56 co, 
: 4256 4 57 lo
: 4260 3 56 co 
- 4263
: 4264 4 57 Va
: 4268 4 56 mos a ha
: 4272 4 57 cer 
: 4276 4 56 el 
: 4280 4 57 a
: 4284 8 56 mor 
: 4292 8 52 tú y 
: 4300 6 52 yo 
- 4306
: 4308 4 52 En 
: 4312 4 52 es
: 4316 4 54 te 
: 4320 8 56 mun
: 4328 4 54 do 
: 4332 4 52 lo
: 4340 4 49 co 
- 4348
: 4352 4 61 Lo
: 4356 32 59 co
: 4388 12 57   
: 4400 4 56   
- 4410
: 4416 4 61 Lo
: 4420 32 59 co
: 4452 12 57   
: 4464 4 56   
- 4474
: 4480 4 54 Lo
: 4484 4 54 co, 
: 4488 4 54 lo
: 4492 4 54 co, 
: 4496 4 54 lo
: 4500 4 56 co, 
: 4504 4 56 lo
: 4508 4 56 co, 
: 4512 4 56 lo
: 4516 3 57 co 
- 4519
: 4520 4 57 Lo
: 4524 4 57 co, 
: 4528 4 57 lo
: 4532 4 59 co, 
: 4536 4 59 lo
: 4540 4 59 co, 
: 4544 5 59 lo
: 4549 7 57 co, 
: 4556 8 56 lo
: 4564 14 52 co 
- 4588
: 4608 4 54 Lo
: 4612 4 54 co, 
: 4616 4 54 lo
: 4620 4 54 co, 
: 4624 4 54 lo
: 4628 4 56 co, 
: 4632 4 56 lo
: 4636 4 56 co, 
: 4640 4 56 lo
: 4644 3 57 co 
- 4647
: 4648 4 57 Lo
: 4652 4 57 co, 
: 4656 4 57 lo
: 4660 4 59 co, 
: 4664 4 59 lo
: 4668 4 59 co, 
: 4672 5 59 lo
: 4677 7 57 co, 
: 4684 8 56 lo
: 4692 14 52 co 
- 4716
: 4736 4 61 Lo
: 4740 32 59 co
: 4772 12 57   
: 4784 4 56   
- 4794
: 4800 4 61 Lo
: 4804 32 59 co
: 4836 12 57   
: 4848 4 56   
E