#TITLE:En El 2000
#ARTIST:Natalia Lafourcade
#MP3:Natalia Lafourcade - En El 2000.mp3
#COVER:Natalia Lafourcade - En El 2000 [CO].jpg
#BACKGROUND:Natalia Lafourcade - En El 2000 [BG].jpg
#BPM:190
#GAP:13110
#ENCODING:UTF8
#END:215220
: 0 1 13 En 
: 1 2 14 el 
: 3 2 13 dos 
: 5 2 14 mil 
: 7 2 13 - 
: 9 2 14 bus
: 11 2 13 co 
: 13 2 14 hom
: 15 2 13 bres 
: 17 2 14 de 
: 19 2 13 Pa
: 21 3 14 rís 
- 24
: 25 2 14 Un 
: 27 2 13 ce
: 29 2 14 re
: 31 2 13 bro in
: 33 2 14 te
: 35 2 13 li
: 37 2 14 gen
: 39 1 13 te 
- 40
: 41 2 14 Que 
: 43 2 13 no 
: 45 2 14 se em
: 47 2 7 bo
: 49 2 7 rra
: 51 2 9 che en 
: 53 4 11 vier
: 57 4 7 nes 
- 62
: 64 2 7 Ni un 
: 66 2 7 ton
: 68 2 9 to 
: 70 4 11 lo
: 74 5 7 co 
- 79
: 80 2 7 Que e
: 82 2 7 se 
: 84 2 9 ba
: 86 2 11 bo
: 88 1 7 so 
- 89
: 90 2 7 Ni un 
: 92 2 7 in
: 94 2 11 stin
: 96 2 14 to 
: 98 1 14 a
: 99 1 14 ni
: 100 2 14 mal 
- 102
: 103 4 14 Que el 
* 107 4 17 se
: 111 2 14 xo 
: 113 2 12 vuel
: 115 2 11 va 
: 117 4 12 lo
: 121 4 11 co 
- 126
: 128 2 13 En 
: 130 2 14 el 
: 132 2 13 dos 
: 134 2 14 mil 
: 136 2 13 - 
: 138 2 14 las 
: 140 2 13 mu
: 142 2 14 je
: 144 2 13 res 
: 146 2 14 vis
: 148 2 13 ten 
: 150 2 14 gris 
- 152
: 153 3 14 Los 
: 156 2 13 ti
: 158 2 14 ran
: 160 2 13 tes 
: 162 2 14 tran
: 164 2 13 spa
: 166 2 14 ren
: 168 1 13 tes 
- 169
: 170 2 14 Mas 
: 172 2 13 a
: 174 2 14 bier
: 176 2 7 ta 
: 178 2 7 ya 
: 180 2 9 la 
: 182 4 11 men
: 186 4 7 te 
- 190
: 192 2 7 Nos 
: 194 2 7 vuel
: 196 2 9 ve 
: 198 4 11 lo
: 202 4 7 cas 
: 208 2 7 un 
: 210 2 7 po
: 212 1 9 co 
: 213 4 11 son
: 217 1 7 sas 
- 218
: 219 2 7 Si 
: 221 2 11 ven 
: 223 2 14 a 
: 225 2 14 Ri
: 227 2 13 cky 
: 229 2 14 Mar
: 231 2 13 tin 
: 233 2 14 en 
: 235 2 14 re
: 237 2 17 vis
: 239 1 14 tas 
- 240
: 241 2 12 Lo 
: 243 2 10 re
: 245 2 12 cor
: 247 5 10 tan 
- 257
: 262 2 18 Pe
: 264 4 18 ro 
: 268 4 18 el 
: 272 4 18 pla
: 276 3 18 ne
: 279 4 19 ta 
- 283
: 285 2 12 Gi
: 287 2 11 ra y 
: 289 2 12 gi
: 291 2 11 ra a 
: 293 2 12 la 
: 295 4 11 de
: 299 4 12 re
: 305 10 14 cha 
- 318
: 321 2 18 Ca
: 323 2 18 da 
: 325 4 18 vez 
: 329 2 18 ya 
: 331 2 18 la 
: 333 3 18 no
: 336 3 18 che es 
: 339 2 18 mas 
: 341 4 18 ti
: 345 5 19 bia 
- 352
: 354 2 12 Sin 
: 356 2 11 a
: 358 2 12 mor 
: 360 5 14 se en
: 365 5 16 frí
: 373 5 14 a 
- 381
: 384 2 18 No 
: 386 2 18 ten
: 388 2 18 go un 
: 390 4 18 hom
: 394 2 18 bre 
: 396 2 18 ni 
: 398 2 18 a 
: 400 3 18 Gael 
: 403 3 18 Gar
: 406 2 18 cí
: 408 1 19 a 
- 409
: 410 5 19 Me 
: 416 3 12 sien
: 419 3 11 to 
: 422 2 12 tan 
: 424 3 11 va
: 427 5 12 cí
: 432 6 14 a 
- 438
: 440 6 11 A 
: 446 7 9 ver 
: 453 6 11 - 
: 459 5 7 - 
: 471 6 11 a 
: 477 11 7 ver 
- 491
: 495 1 7 Que 
: 496 3 7 pa
: 499 2 7 sa
: 501 2 9 ra el 
: 503 2 11 si
: 505 5 9 guien
* 510 12 11 te 
: 522 8 9 dí
: 530 6 7 a 
- 546
: 640 1 13 En 
: 641 2 14 el 
: 643 2 13 dos 
: 645 2 14 mil 
: 647 2 13 - 
: 649 2 14 Mar
: 651 2 13 tha 
: 653 2 14 es 
: 655 2 13 u
: 657 2 14 na 
: 659 2 13 lom
: 661 3 14 briz 
- 664
: 665 2 14 Que 
: 667 2 13 no 
: 669 2 14 de
: 671 2 13 ja 
: 673 2 14 de 
: 675 2 13 mi
: 677 2 14 rar 
: 679 2 13 de 
: 681 2 14 cri
: 683 2 13 ti
: 685 1 14 car 
- 686
: 687 2 7 To
: 689 2 7 da 
: 691 2 9 la 
: 693 4 11 gen
: 697 4 7 te 
- 702
: 704 2 7 De 
: 706 2 7 di
: 708 2 9 vi
: 710 4 11 dir
: 714 5 7 la 
- 719
: 720 2 7 De 
: 722 2 7 ser 
: 724 2 9 ra
: 726 2 11 ci
: 728 2 7 sta e
: 730 2 7 xis
: 732 2 7 ten 
: 734 2 11 fre
: 736 1 14 sas 
- 737
: 738 1 14 Ri
: 739 2 14 cos 
: 741 2 14 pob
: 743 1 14 res 
- 744
: 745 2 14 Me
: 747 2 14 xi
: 749 2 17 ca
: 751 2 14 nos 
: 753 2 12 y 
: 755 2 11 pa
: 757 4 12 nis
: 761 4 11 tas 
- 766
: 768 2 13 En 
: 770 2 14 el 
: 772 2 13 dos 
: 774 2 14 mil 
: 776 2 13 - 
: 778 2 14 mi 
: 780 2 13 her
: 782 2 14 ma
: 784 2 13 na 
: 786 2 14 va a 
: 788 2 13 pa
: 790 2 14 rir 
- 792
: 793 3 14 U
: 796 2 13 na 
: 798 2 14 cé
: 800 2 13 lu
: 802 2 14 la 
: 804 2 13 que 
: 806 2 14 sien
: 808 1 13 te 
- 809
: 810 2 14 De u
: 812 2 13 na 
: 814 2 14 re
: 816 2 7 la
: 818 2 7 ción 
: 820 2 9 ca
: 822 4 11 lien
: 826 4 7 te 
- 830
: 832 2 7 Y 
: 834 2 7 de
: 836 2 9 pri
: 838 4 11 mi
: 842 4 7 da 
- 846
: 848 2 7 Tam
: 850 2 7 bién 
: 852 1 9 ar
: 853 2 11 di
: 855 1 7 da 
- 856
: 857 2 7 Ob
: 859 2 7 ra 
: 861 2 11 de e
: 863 2 14 se 
: 865 2 14 ser 
: 867 2 14 hu
: 869 2 14 ma
: 871 1 14 no 
- 872
: 873 2 14 Que 
: 875 2 14 se 
* 877 2 17 ha i
: 879 2 14 do y 
: 881 2 12 la ha 
: 883 2 10 de
: 885 2 12 ja
: 887 5 10 do 
- 897
: 902 2 18 Pe
: 904 4 18 ro 
: 908 4 18 el 
: 912 4 18 pla
: 916 3 18 ne
: 919 5 19 ta 
- 924
: 925 2 12 Gi
: 927 2 11 ra y 
: 929 2 12 gi
: 931 2 11 ra a 
: 933 2 12 la 
: 935 4 11 de
: 939 4 12 re
: 945 10 14 cha 
- 957
: 959 2 18 Y 
: 961 2 18 ca
: 963 3 18 da 
: 966 3 18 vez 
: 969 2 18 ya 
: 971 2 18 la 
: 973 3 18 no
: 976 3 18 che es 
: 979 2 18 mas 
: 981 4 18 ti
: 985 5 19 bia 
- 992
: 994 2 12 Sin 
: 996 2 11 a
: 998 2 12 mor 
: 1000 5 14 se en
: 1005 5 16 frí
: 1013 5 14 a 
- 1021
: 1024 2 18 No 
: 1026 2 18 ten
: 1028 2 18 go un 
: 1030 4 18 hom
: 1034 2 18 bre 
: 1036 2 18 ni 
: 1038 2 18 a 
: 1040 3 18 Gael 
: 1043 3 18 Gar
: 1046 2 18 cí
: 1048 1 19 a 
- 1049
: 1050 4 19 Me 
: 1054 3 12 si
: 1057 3 11 en
: 1060 3 11 to 
: 1063 3 12 tan 
: 1066 2 11 va
: 1068 4 12 cí
: 1072 6 14 a 
- 1080
: 1082 4 11 A 
: 1086 7 9 ver 
: 1093 6 11 - 
: 1099 5 7 - 
: 1111 5 7 a 
: 1116 12 9 ver 
- 1132
: 1136 1 7 Qué 
: 1137 2 7 pa
: 1139 2 7 sa 
: 1141 2 9 si 
: 1143 2 11 yo 
: 1145 2 9 di
: 1147 2 11 go 
- 1151
: 1154 5 19 Ya 
: 1159 6 16 no 
: 1165 6 14 soy 
* 1171 5 19 ya 
: 1176 4 16 no 
: 1180 6 14 soy 
: 1186 4 16 - 
- 1192
: 1195 2 11 La 
: 1197 3 12 in
: 1200 3 11 fan
: 1203 4 12 til 
: 1207 2 11 cri
: 1209 2 11 a
: 1211 4 14 tu
: 1215 3 12 ra 
- 1218
: 1220 2 12 La 
: 1222 2 12 i
: 1224 4 11 no
: 1228 4 14 cen
: 1232 4 12 cia 
: 1236 4 12 se a
: 1240 5 11 ca
: 1245 8 7 bó 
- 1259
: 1265 4 11 Eh 
: 1269 4 11 eh 
: 1273 4 14 eh 
- 1279
: 1281 6 19 Ya 
: 1287 6 16 no 
: 1293 4 14 soy 
* 1299 4 19 ya 
: 1303 4 16 no 
: 1307 8 14 soy 
- 1319
: 1323 3 11 La 
: 1326 2 12 de e
: 1328 4 11 se 
: 1332 4 12 cuer
: 1336 2 11 po 
: 1338 1 11 ex
: 1339 5 12 tra
: 1344 2 11 ńo 
- 1346
: 1347 5 12 Aho
: 1352 4 11 ra 
: 1356 3 14 sien
: 1359 4 14 te el 
: 1363 5 14 co
: 1368 4 14 ra
: 1372 16 7 zón 
- 1394
: 1401 4 11 Eh 
: 1412 4 19 ya 
: 1416 5 16 no 
: 1421 6 14 soy 
* 1427 4 19 ya 
: 1431 5 16 no 
: 1436 7 14 soy 
- 1447
: 1452 2 11 La 
: 1454 2 12 in
: 1456 4 11 fan
: 1460 3 12 til 
: 1463 2 11 cri
: 1465 2 11 a
: 1467 5 14 tu
: 1472 3 12 ra 
- 1475
: 1476 2 12 La 
: 1478 2 12 i
: 1480 3 11 no
: 1483 5 14 cen
: 1488 4 12 cia 
: 1492 4 12 se a
: 1496 3 11 ca
: 1499 7 7 bó 
- 1506
: 1508 4 16 Se a
: 1512 4 16 ca
: 1516 7 14 bó 
: 1523 8 11 - 
- 1535
: 1540 4 19 Ya 
: 1544 5 16 no 
: 1549 6 14 soy 
* 1555 4 19 ya 
: 1559 5 16 no 
: 1564 6 14 soy 
: 1570 7 16 - 
- 1578
: 1580 2 11 La 
: 1582 2 12 de e
: 1584 4 11 se 
: 1588 3 12 cuer
: 1591 2 11 po 
: 1593 2 11 ex
: 1595 5 14 tra
: 1600 3 12 ńo 
- 1603
: 1604 4 12 Aho
: 1608 3 11 ra 
: 1611 5 14 sien
: 1616 4 14 te el 
: 1620 4 14 co
: 1624 3 14 ra
: 1627 4 7 zón 
: 1631 4 16 y a 
: 1635 7 14 ver 
- 1645
: 1648 2 7 Qué 
: 1650 2 7 pa
: 1652 2 7 sa en 
: 1654 2 9 el 
: 1656 2 10 si
: 1658 4 9 guien
: 1662 12 9 te 
: 1674 8 9 dí
: 1682 4 6 a 
- 1696
: 1711 2 14 Qué 
: 1713 2 14 pa
: 1715 2 14 sa en 
: 1717 2 14 el 
: 1719 2 11 si
: 1721 4 9 guien
: 1725 12 9 te 
: 1737 8 9 dí
: 1745 4 6 a 
- 1759
: 1922 5 19 Ya 
: 1927 6 16 no 
: 1933 6 14 soy 
* 1939 5 19 ya 
: 1944 4 16 no 
: 1948 6 14 soy 
- 1958
: 1963 2 11 La 
: 1965 3 12 in
: 1968 3 11 fan
: 1971 4 12 til 
: 1975 2 11 cri
: 1977 2 11 a
: 1979 4 14 tu
: 1983 4 12 ra 
- 1987
: 1988 2 12 La 
: 1990 2 12 i
: 1992 4 11 no
: 1996 4 14 cen
: 2000 4 14 cia 
: 2004 4 16 se a
: 2008 5 16 ca
: 2013 8 7 bó 
- 2031
: 2049 6 19 Ya 
: 2055 6 16 no 
: 2061 4 14 soy 
* 2066 6 19 ya 
: 2072 5 16 no 
: 2077 6 14 soy 
: 2083 5 16 - 
- 2089
: 2091 3 11 La 
: 2094 2 12 de e
: 2096 4 11 se 
: 2100 4 12 cuer
: 2104 2 11 po 
: 2106 1 11 ex
: 2107 5 14 tra
: 2112 2 12 ńo 
- 2114
: 2115 5 12 Aho
: 2120 4 11 ra 
: 2124 3 14 sien
: 2127 4 12 te el 
: 2131 5 12 co
: 2136 4 11 ra
: 2140 3 7 zón 
: 2143 4 16 y a 
: 2147 4 14 ver 
- 2155
: 2159 2 7 Qué 
: 2161 2 7 pa
: 2163 2 7 sa en 
: 2165 2 9 el 
: 2167 2 10 si
: 2169 5 9 guien
: 2174 12 9 te 
: 2186 8 9 dí
: 2194 7 7 a 
- 2210
: 2220 2 11 La 
: 2222 2 12 in
: 2224 4 11 fan
: 2228 3 12 til 
: 2231 2 11 cri
: 2233 2 11 a
: 2235 5 14 tu
: 2240 3 12 ra 
- 2243
: 2244 2 12 La 
: 2246 2 12 i
: 2248 3 11 no
: 2251 5 14 cen
: 2256 4 12 cia 
: 2260 4 12 se a
: 2264 3 11 ca
: 2267 7 7 bó 
- 2280
: 2287 2 7 Qué 
: 2289 2 7 pa
: 2291 2 7 sa en 
: 2293 2 9 el 
: 2295 2 10 si
: 2297 5 9 guien
: 2302 20 9 te 
: 2322 3 9 dí
: 2325 5 7 a 
- 2339
: 2348 2 11 La 
: 2350 2 12 de e
: 2352 4 11 se 
: 2356 3 12 cuer
: 2359 2 11 po 
: 2361 2 11 ex
: 2363 5 14 tra
: 2368 3 12 ńo 
- 2371
: 2372 4 12 Aho
: 2376 3 11 ra 
: 2379 5 14 sien
: 2384 4 14 te el 
: 2388 4 14 co
: 2392 3 14 ra
: 2395 5 7 zón 
- 2408
: 2416 2 7 Qué 
: 2418 2 7 pa
: 2420 2 7 sa en 
: 2422 2 9 el 
: 2424 2 10 si
: 2426 4 9 guien
* 2430 12 9 te 
: 2442 8 9 dí
: 2450 14 7 a 
E