#TITLE:Torn
#ARTIST:Natalie Imbruglia
#LANGUAGE:Englisch
#EDITION:SingStar '90s
#GENRE:Pop
#YEAR:1998
#MP3:Natalie Imbruglia - Torn.mp3
#COVER:Natalie Imbruglia - Torn [CO].jpg
#BACKGROUND:Natalie Imbruglia - Torn [BG].jpg
#VIDEO:Natalie Imbruglia - Torn [VD#0].avi
#VIDEOGAP:0
#BPM:340
#GAP:13102,94
: 0 2 60 I
: 4 2 60  thought
: 8 2 60  I
: 14 4 65  saw
: 21 5 60  a
: 27 13 60  man
- 41
: 41 4 58 Brought
: 49 4 57  to
: 55 8 57  life
: 63 3 55 ~
: 66 6 57 ~
- 74 94
: 114 4 57 He
: 118 4 60  was
: 126 7 60  warm
- 135
: 137 3 60 He
: 144 3 60  came
: 150 3 57  a
: 153 9 60 round
- 164
: 167 3 57 Like
: 171 3 60  he
: 176 3 62  was
* 183 3 56  dig
: 189 3 55 ni
: 196 9 55 fied
- 207 219
: 239 2 60 He
: 243 3 65  showed
: 249 6 60  me
: 256 3 60  what
: 260 2 60  it
: 268 3 60  was
: 275 2 60  to
: 279 3 60  cry
: 282 8 62 ~
- 292 312
: 332 2 60 Well
: 335 2 60  you
: 341 2 60  could
: 345 4 60 n't
: 352 3 65  be
: 359 4 60  that
: 366 7 60  man
- 375
: 380 7 58 I
: 387 3 57  a
: 394 8 57 dored
: 402 3 55 ~
: 405 6 57 ~
- 413 423
: 443 2 57 You
: 447 5 57  don't
: 455 5 57  seem
: 462 2 60  to
: 465 7 60  know
- 474 475
: 483 4 57 Seem
: 489 2 60  to
: 493 7 60  care
- 502 503
: 511 2 60 What
: 515 6 62  your
: 525 4 56  heart
: 529 4 55  is
: 535 3 53  for
: 538 7 55 ~
- 547 558
: 578 2 60 But
: 581 3 65  I
: 585 3 60  don't
: 592 3 60  know
: 599 3 60  him
: 607 2 60  a
: 610 2 60 ny
: 617 8 62 more
- 627
: 634 2 60 There's
: 640 3 69  no
: 643 5 67 thing
: 650 2 65  where
: 652 4 67 ~
- 658
: 663 2 60 He
: 667 5 69  used
: 673 3 67  to
: 677 3 65  lie
: 680 7 67 ~
- 689 690
: 702 4 69 Con
: 706 4 67 ver
: 713 3 69 sa
: 719 3 67 tion
: 724 3 69  has
: 731 4 67  run
: 738 3 65  dry
: 741 5 67 ~
- 748 749
: 772 4 69 That's
: 779 4 69  what's
: 786 7 69  goin'
* 793 7 70  on
: 800 6 69 ~
- 808 809
: 833 3 70 No
: 840 3 70 thing's
: 847 6 70  fine
- 854
: 854 4 69 I'm
: 862 11 69  torn
- 875 876
: 890 4 69 I'm
: 896 4 69  all
: 902 4 69  out
: 907 2 67  of
: 913 8 67  faith
- 923 924
: 945 3 67 This
: 952 3 67  is
: 959 8 69  how
: 967 2 65  I
: 973 5 65  feel
: 978 8 62 ~
- 988 989
: 1001 3 62 I'm
: 1005 6 68  cold
: 1011 4 67  and
: 1016 7 67  I
: 1023 3 65  am
: 1031 7 58  shamed
- 1040
: 1048 6 58 Ly
: 1054 3 57 ing
: 1058 4 58  na
: 1065 3 57 ked
- 1070
: 1072 7 58 On
: 1080 2 57  the
: 1087 10 57  floor
- 1099 1100
: 1111 2 57 Il
: 1116 6 69 lu
: 1123 4 69 sion
: 1129 4 69  ne
: 1133 3 67 ver
: 1140 9 67  changed
- 1151 1152
: 1171 4 67 In
: 1178 4 67 to
: 1186 4 69  some
: 1193 6 65 thing
: 1200 3 65  real
: 1203 7 62 ~
- 1212 1213
: 1227 2 62 I'm
: 1232 7 68  wide
: 1239 3 67  a
: 1243 3 67 wake
: 1249 4 65  and
- 1254
: 1256 4 69 I
: 1263 4 67  can
: 1270 7 67  see
: 1278 2 65  the
- 1282
: 1285 4 69 Per
: 1292 2 67 fect
: 1299 7 65  sky
: 1306 3 67  is
: 1314 11 69  torn
- 1327 1328
: 1341 5 69 You're
: 1348 5 69  a
: 1355 4 69  lit
: 1359 4 67 tle
: 1365 9 67  late
- 1376 1377
: 1397 6 67 I'm
: 1405 6 67  al
: 1412 3 67 rea
: 1415 3 65 dy
: 1423 4 69  torn
: 1427 7 67 ~
: 1434 3 65 ~
: 1437 12 62 ~
- 1451 1565
: 1585 2 60 So
: 1588 3 60  I
: 1596 2 65  guess
: 1602 2 60  the
- 1606
: 1609 2 60 For
: 1616 4 57 tune
: 1624 5 58  tel
: 1629 2 57 ler's
: 1634 10 57  right
- 1646 1677
: 1697 3 57 Should
: 1701 3 60 've
: 1708 4 60  seen
- 1714
: 1719 2 60 Just
: 1725 4 60  what
: 1732 2 57  was
: 1736 5 60  there
- 1743
: 1750 3 57 And
: 1754 3 60  not
: 1760 4 62  some
: 1768 4 56  ho
: 1772 4 55 ly
: 1779 3 53  light
: 1782 6 55 ~
- 1790 1801
: 1821 2 60 To
* 1825 3 65  crawl
: 1831 2 60  be
: 1835 3 60 neath
: 1842 3 60  my
- 1847
: 1849 7 60 Veins
: 1860 3 60  and
: 1866 6 62  now
- 1874
: 1881 4 68 I
: 1885 4 67  don't
: 1892 4 65  care
: 1896 4 67 ~
- 1902
: 1906 2 60 I
: 1909 5 68  have
: 1916 5 67  no
: 1923 3 65  luck
: 1926 3 67 ~
- 1931 1932
: 1944 4 69 I
: 1948 5 68  don't
: 1955 3 69  miss
: 1961 2 67  it
- 1964
: 1966 5 69 All
: 1972 2 67  that
: 1977 3 65  much
: 1980 4 67 ~
- 1986 1987
: 2011 4 69 There's
: 2018 2 69  just
: 2023 6 69  so
* 2030 3 70  ma
: 2033 4 69 ny
: 2042 3 67  things
: 2045 6 69 ~
- 2053 2054
: 2071 1 60 That
: 2075 4 70  I
: 2082 4 70  can't
: 2089 4 70  touch
- 2094
: 2096 4 69 I'm
: 2103 12 69  torn
- 2117 2118
: 2133 4 69 I'm
: 2139 4 69  all
: 2145 4 69  out
: 2150 2 67  of
: 2156 8 67  faith
- 2166 2167
: 2188 3 67 This
: 2195 3 67  is
: 2202 8 69  how
: 2210 2 65  I
: 2216 5 65  feel
: 2221 8 62 ~
- 2231 2232
: 2244 3 62 I'm
: 2248 6 68  cold
: 2255 3 67  and
: 2259 7 67  I
: 2266 3 65  am
: 2274 7 58  shamed
- 2283
: 2291 6 58 Ly
: 2297 3 57 ing
: 2301 4 58  na
: 2308 3 57 ked
- 2313
: 2315 7 58 On
: 2323 2 57  the
: 2330 10 57  floor
- 2342 2343
: 2354 2 57 Il
: 2359 6 69 lu
: 2366 4 69 sion
: 2372 4 69  ne
: 2376 3 67 ver
: 2383 9 67  changed
- 2394 2395
: 2414 4 67 In
: 2421 4 67 to
: 2429 4 69  some
: 2436 6 65 thing
: 2443 3 65  real
: 2446 7 62 ~
- 2455 2456
: 2470 2 62 I'm
: 2475 7 68  wide
: 2482 3 67  a
: 2486 3 67 wake
: 2492 4 65  and
- 2497
: 2499 4 69 I
: 2506 4 67  can
: 2513 7 67  see
: 2521 2 65  the
- 2525
: 2528 4 69 Per
: 2535 2 67 fect
: 2542 7 65  sky
: 2549 3 67  is
* 2557 11 69  torn
- 2570 2571
: 2584 5 69 You're
: 2591 5 69  a
: 2598 4 69  lit
: 2602 4 67 tle
: 2608 9 67  late
- 2619 2620
: 2640 6 67 I'm
: 2648 6 67  al
: 2655 3 67 rea
: 2658 3 65 dy
: 2666 4 69  torn
: 2670 7 67 ~
: 2677 3 65 ~
: 2680 12 62 ~
- 2694 2765
: 2785 7 65 Torn
: 2792 3 64 ~
: 2795 14 62 ~
- 2811 2880
: 2900 86 69 Ooh
- 2988 2989
: 2997 13 69 Ooh
: 3010 56 65 ~
: 3067 43 67 ~
- 3112
: 3119 2 60 There's
: 3125 3 69  no
: 3128 5 67 thing
: 3135 2 65  where
: 3137 4 67 ~
- 3143
: 3148 2 60 He
* 3152 5 69  used
: 3158 3 67  to
: 3162 3 65  lie
: 3165 7 67 ~
- 3174 3175
: 3183 1 60 My
: 3187 4 69  in
: 3195 3 68 spi
: 3199 3 69 ra
: 3205 3 67 tion
: 3210 3 69  has
: 3216 5 67  run
: 3224 3 65  dry
: 3227 4 67 ~
- 3233 3234
: 3257 4 69 That's
: 3264 4 69  what's
: 3271 7 69  goin'
: 3278 7 70  on
: 3285 6 69 ~
- 3293 3294
: 3318 3 70 No
: 3325 3 70 thing's
* 3332 7 70  right
- 3340
: 3340 3 69 I'm
: 3347 11 69  torn
- 3360 3361
: 3376 4 69 I'm
: 3382 4 69  all
: 3388 4 69  out
: 3393 2 67  of
: 3399 8 67  faith
- 3409 3410
: 3431 3 67 This
: 3438 3 67  is
: 3445 8 69  how
: 3453 2 65  I
: 3459 5 65  feel
: 3464 8 62 ~
- 3474 3475
: 3487 3 62 I'm
: 3491 6 69  cold
: 3498 3 67  and
: 3503 6 67  I
: 3509 3 65  am
* 3517 7 58  shamed
- 3526
: 3534 6 58 Ly
: 3540 3 57 ing
: 3544 4 58  na
: 3551 3 57 ked
: 3558 7 58  on
: 3566 2 57  the
: 3573 10 57  floor
- 3585 3586
: 3597 2 57 Il
: 3602 6 69 lu
: 3609 4 69 sion
: 3615 4 69  ne
: 3619 3 67 ver
: 3626 9 67  changed
- 3637 3638
: 3657 4 67 In
: 3664 4 67 to
: 3672 4 69  some
: 3679 6 65 thing
: 3686 4 65  real
: 3690 6 62 ~
- 3698 3699
: 3713 2 57 I'm
* 3718 5 68  wide
: 3725 3 67  a
: 3729 3 67 wake
: 3735 4 65  and
- 3740
: 3742 4 69 I
: 3749 4 67  can
: 3756 7 67  see
: 3764 2 65  the
- 3768
: 3771 4 69 Per
: 3778 2 67 fect
: 3785 7 65  sky
: 3792 3 67  is
: 3800 11 69  torn
- 3813 3814
: 3827 5 69 I'm
: 3834 5 69  all
: 3841 4 69  out
: 3845 4 67  of
: 3851 9 67  faith
- 3862 3863
: 3884 5 67 This
: 3891 4 67  is
: 3898 7 69  how
* 3905 3 70  I
: 3912 4 70  feel
: 3916 6 69 ~
: 3922 4 67 ~
: 3926 8 65 ~
- 3936
: 3940 2 65 I'm
: 3944 6 67  cold
: 3950 2 67  and
: 3954 6 65  I'm
: 3961 2 65  a
: 3967 8 65 shamed
- 3977 3978
: 3986 5 65 Bound
: 3992 2 64  and
: 3996 4 67  bro
: 4003 6 65 ken
- 4010
: 4010 4 65 On
: 4018 3 65  the
: 4025 12 65  floor
- 4039 4040
: 4053 6 69 You're
: 4060 7 69  a
: 4068 4 69  lit
: 4072 5 67 tle
: 4078 7 67  late
- 4087 4088
: 4110 4 67 I'm
: 4117 4 67  al
: 4123 4 67 rea
: 4127 3 65 dy
: 4134 4 69  torn
: 4138 7 67 ~
: 4145 3 65 ~
: 4148 11 62 ~
- 4161 4233
: 4253 8 65 Torn
: 4261 3 64 ~
: 4264 15 62 ~
- 4281 4357
: 4377 10 69 Oh
- 4389 4807
: 4827 6 65 Oh
: 4834 6 65  yeah
- 4842 4843
: 4855 5 65 Oh
: 4861 5 65  yeah
E
