#TITLE:Big Girl Now
#ARTIST:New Kids On The Block feat. Lady GaGa
#LANGUAGE:English
#YEAR:2009
#MP3:New Kids On The Block feat. Lady GaGa - Big Girl Now.mp3
#COVER:New Kids On The Block feat. Lady GaGa - Big Girl Now.jpg
#VIDEO:New Kids On The Block feat. Lady GaGa - Big Girl Now.mp4
#BPM:246
#GAP:450
#AUTHOR:michas17j
: 0 2 -1 I'm 
: 4 2 -1 a 
: 8 2 2 big 
: 12 2 2 boy, 
: 16 2 1 you're 
: 20 2 1 a 
: 24 2 -3 big 
: 28 2 -3 girl 
: 32 4 -1 now, 
: 44 4 -1 now, 
: 52 4 -1 now
- 58
: 64 2 -1 I'm 
: 68 2 -1 a 
: 72 2 2 big 
: 76 2 2 girl, 
: 80 2 1 you're 
: 84 2 1 a 
: 88 2 -3 big 
: 92 2 -3 boy 
: 96 4 -1 now, 
: 108 4 -1 now, 
: 116 4 -1 now
- 122
: 132 2 -1 Back 
: 136 2 2 in 
: 140 2 2 the, 
: 144 2 2 day 
: 148 2 -1 when 
: 152 2 1 you 
: 156 2 2 were 
: 160 8 2 young
- 170
: 196 1 -1 Lit
: 198 1 -1 tle 
: 200 2 2 girl, 
: 204 2 2 didn't 
: 208 2 2 think 
: 212 2 -1 you 
: 216 2 1 were 
: 220 2 2 the 
: 224 8 2 one
- 234
: 260 2 -1 Your 
: 264 2 2 se
: 268 2 2 xy 
: 272 2 -1 walk, 
: 276 2 -1 your 
: 280 2 1 se
: 284 2 2 xy 
: 288 8 2 talk
- 298
: 324 1 -1 Lit
: 326 1 -1 tle 
: 328 2 2 girl, 
: 332 2 2 you're 
: 336 2 -1 clear
* 340 2 -1 ly 
: 344 2 1 not 
: 348 2 2 the
- 351
: 352 4 6 Same 
: 360 4 4 kid 
: 368 4 2 from 
: 376 2 -1 the 
: 380 8 -1 block
- 390
F 392 2 -1 Lit
F 396 2 -1 tle 
F 400 2 -1 girl 
F 404 2 -1 no 
F 408 4 2 more, 
F 416 2 2 not 
F 420 2 -1 no 
F 424 4 2 more 
F 432 2 2 that's 
F 436 2 -1 for 
F 440 4 -1 sure
- 444
F 444 2 4 Boy 
F 448 2 6 your 
F 452 2 4 get 
F 456 2 2 ass 
F 460 2 2 out 
F 464 2 -1 on 
F 468 2 -1 the 
F 472 4 2 floor
- 478
F 480 2 2 Lets 
F 484 2 -1 ex
F 488 6 -1 plore, 
F 496 2 -1 lets 
F 500 2 -1 ex
F 504 8 -1 plore
- 514
: 516 2 2 You 
: 520 2 2 know 
: 524 2 2 I 
: 528 2 2 like 
: 532 2 2 the 
: 536 2 2 way 
: 540 2 4 you
- 543
: 544 6 6 Move 
: 552 2 4 it
: 556 2 2 ~, 
: 560 6 6 move 
: 568 2 4 it
: 572 2 2 ~
- 576
: 580 1 4 Girl, 
: 582 1 4 you're 
: 584 2 4 all 
: 588 2 4 grown 
: 592 2 4 up 
: 596 2 2 and 
: 600 2 4 now 
: 604 2 2 you're
- 607
: 608 4 6 Rea
: 616 4 6 dy 
: 624 2 6 to 
: 628 2 4 let 
: 632 2 2 it 
: 636 2 2 go
: 640 2 -1 ~
- 643
: 644 1 2 Wan
: 646 1 2 na 
: 648 2 2 be 
: 652 2 2 a 
: 656 2 2 big 
: 660 2 2 girl 
: 664 2 2 'bout 
: 668 2 4 to
- 671
: 672 6 6 Prove 
: 680 2 4 it
: 684 2 2 ~, 
: 688 6 6 prove 
: 696 2 4 it
: 700 2 2 ~
- 704
: 708 1 4 With 
: 710 1 4 a 
: 712 1 4 bo
: 714 1 4 dy 
: 716 2 4 like 
: 720 2 4 that, 
: 724 2 2 you've 
: 728 2 4 got 
: 732 2 2 a
- 735
: 736 6 6 Grown 
: 744 6 6 man 
: 752 2 6 rea
: 756 2 4 dy 
: 760 2 2 to 
: 764 2 2 blow
- 767
: 768 2 -1 I'm 
: 772 2 -1 a 
: 776 2 2 big 
: 780 2 2 boy, 
: 784 2 1 you're 
: 788 2 1 a 
: 792 2 -3 big 
: 796 2 -3 girl 
: 800 4 -1 now, 
: 812 4 -1 now, 
: 820 4 -1 now
- 826
: 832 2 -1 I'm 
: 836 2 -1 a 
: 840 2 2 big 
: 844 2 2 girl, 
: 848 2 1 you're 
: 852 2 1 a 
: 856 2 -3 big 
: 860 2 -3 boy 
: 864 4 -1 now, 
: 876 4 -1 now, 
: 884 4 -1 now
- 890
: 900 2 -1 Back 
: 904 2 2 in 
: 908 2 2 the, 
: 912 2 2 day 
: 916 2 -1 when 
: 920 2 1 I 
: 924 2 2 was 
: 928 8 2 young
- 938
: 964 1 -1 But 
: 966 1 -1 I 
: 968 2 2 al
: 972 2 2 ways 
: 976 2 2 knew 
: 980 2 -1 I'd 
: 984 2 1 be 
: 988 2 2 the 
: 992 8 2 one
- 1002
: 1028 1 6 Gon
: 1030 1 6 na 
: 1032 2 2 get 
: 1036 2 2 you 
: 1040 2 4 wet, 
: 1044 1 4 gon
: 1046 1 2 na 
: 1048 2 4 make 
: 1052 4 9 you 
: 1060 2 6 sweat
: 1064 2 4 ~
- 1068
: 1092 1 -1 Gon
: 1094 1 -1 na 
: 1096 2 2 give 
: 1100 2 2 you 
: 1104 2 2 some
: 1108 2 -1 thing 
: 1112 2 1 you 
: 1116 2 2 ain't
- 1119
: 1120 6 6 Ne
: 1128 6 4 ver 
: 1136 2 2 gon
: 1140 2 -1 na 
: 1144 2 -1 for
: 1148 4 -1 get
- 1154
F 1156 2 -1 No 
F 1160 2 -1 lit
F 1164 2 -1 tle 
F 1168 2 -1 girl 
F 1172 2 -1 no 
F 1176 2 -1 more
- 1179
F 1180 2 -1 No 
F 1184 2 -1 that's 
F 1188 2 -1 for 
F 1192 2 -1 sure, 
F 1196 2 -1 yup, 
F 1200 1 -1 boo
F 1202 1 -1 ty 
F 1204 2 -1 like 
F 1208 2 -1 ohh...
- 1211
F 1212 1 -1 Wan
F 1214 1 -1 na 
F 1216 1 -1 work 
F 1218 1 -1 it 
F 1220 1 -1 like 
F 1222 1 -1 a 
F 1224 2 -1 big 
F 1228 2 -1 girl, 
F 1232 2 -1 let's 
F 1236 2 -1 ex
F 1240 2 -1 plore
- 1243
F 1244 2 -1 Now, 
F 1248 1 -1 drop 
F 1250 1 -1 it 
F 1252 1 -1 to 
F 1254 1 -1 the 
F 1256 4 -1 floor, 
F 1264 1 -1 ba
F 1266 1 -1 by, 
F 1268 2 -1 get 
F 1272 4 -1 more
- 1278
: 1284 2 2 You 
: 1288 2 2 know 
: 1292 2 2 I 
: 1296 2 2 like 
: 1300 2 2 the 
: 1304 2 2 way 
: 1308 2 4 you
- 1311
: 1312 6 6 Move 
: 1320 2 4 it
: 1324 2 2 ~, 
: 1328 6 6 move 
: 1336 2 4 it
: 1340 2 2 ~
- 1344
: 1348 1 4 Girl, 
: 1350 1 4 you're 
: 1352 2 4 all 
: 1356 2 4 grown 
: 1360 2 4 up 
: 1364 2 2 and 
: 1368 2 4 now 
: 1372 2 2 you're
- 1375
: 1376 4 6 Rea
: 1384 4 6 dy 
: 1392 2 6 to 
: 1396 2 4 let 
: 1400 2 2 it 
: 1404 2 2 go
: 1408 2 -1 ~
- 1411
: 1412 1 2 Wan
: 1414 1 2 na 
: 1416 2 2 be 
: 1420 2 2 a 
: 1424 2 2 big 
: 1428 2 2 girl 
: 1432 2 2 'bout 
: 1436 2 4 to
- 1439
: 1440 6 6 Prove 
: 1448 2 4 it
: 1452 2 2 ~, 
: 1456 6 6 prove 
: 1464 2 4 it
: 1468 2 2 ~
- 1472
: 1476 1 4 With 
: 1478 1 4 a 
: 1480 1 4 bo
: 1482 1 4 dy 
: 1484 2 4 like 
: 1488 2 4 that, 
: 1492 2 2 you've 
: 1496 2 4 got 
: 1500 2 2 a
- 1503
: 1504 6 6 Grown 
: 1512 6 6 man 
: 1520 2 6 rea
: 1524 2 4 dy 
: 1528 2 2 to 
: 1532 2 2 blow
: 1536 2 -1 ~
- 1540
: 1542 1 2 You 
: 1544 2 2 know 
: 1548 2 2 I 
: 1552 2 2 like 
: 1556 2 2 the 
: 1560 2 2 way 
: 1564 2 4 you
- 1567
: 1568 6 6 Move 
: 1576 2 4 it
: 1580 2 2 ~, 
: 1584 6 6 move 
: 1592 2 4 it
: 1596 2 2 ~
- 1600
: 1604 1 4 Girl, 
: 1606 1 4 you're 
: 1608 2 4 all 
: 1612 2 4 grown 
: 1616 2 4 up 
: 1620 2 2 and 
: 1624 2 4 now 
: 1628 2 2 you're
- 1631
: 1632 4 6 Rea
: 1640 4 6 dy 
: 1648 2 6 to 
: 1652 2 4 let 
: 1656 2 2 it 
: 1660 2 2 go
: 1664 2 -1 ~
- 1667
: 1668 1 2 Wan
: 1670 1 2 na 
: 1672 2 2 be 
: 1676 2 2 a 
: 1680 2 2 big 
: 1684 2 2 girl 
: 1688 2 2 'bout 
: 1692 2 4 to
- 1695
: 1696 6 6 Prove 
: 1704 2 4 it
: 1708 2 2 ~, 
: 1712 6 6 prove 
: 1720 2 4 it
: 1724 2 2 ~
- 1728
: 1732 1 4 With 
: 1734 1 4 a 
: 1736 1 4 bo
: 1738 1 4 dy 
: 1740 2 4 like 
: 1744 2 4 that, 
: 1748 2 2 you've 
: 1752 2 4 got 
: 1756 2 2 a
- 1759
: 1760 6 6 Grown 
: 1768 6 6 man 
: 1776 2 6 rea
: 1780 2 4 dy 
: 1784 2 2 to 
: 1788 2 2 blow
- 1791
: 1792 2 -1 I'm 
: 1796 2 -1 a 
: 1800 2 2 big 
: 1804 2 2 boy, 
: 1808 2 1 you're 
: 1812 2 1 a 
: 1816 2 -3 big 
: 1820 2 -3 girl 
: 1824 4 -1 now, 
: 1836 4 -1 now, 
: 1844 4 -1 now
- 1850
: 1856 2 -1 I'm 
: 1860 2 -1 a 
: 1864 2 2 big 
: 1868 2 2 girl, 
: 1872 2 1 you're 
: 1876 2 1 a 
: 1880 2 -3 big 
: 1884 2 -3 boy 
: 1888 4 -1 now, 
: 1900 4 -1 now, 
: 1908 4 -1 now
- 1914
: 1920 2 -1 I'm 
: 1924 2 -1 a 
: 1928 2 2 big 
: 1932 2 2 boy, 
: 1936 2 1 you're 
: 1940 2 1 a 
: 1944 2 -3 big 
: 1948 2 -3 girl 
: 1952 4 -1 now, 
: 1964 4 -1 now, 
: 1972 4 -1 now
- 1978
: 1984 2 -1 I'm 
: 1988 2 -1 a 
: 1992 2 2 big 
: 1996 2 2 girl, 
: 2000 2 1 you're 
: 2004 2 1 a 
: 2008 2 -3 big 
: 2012 2 -3 boy 
: 2016 4 -1 now, 
: 2028 4 -1 now, 
: 2036 4 -1 now
- 2042
: 2048 2 -1 I've 
: 2052 2 2 been 
: 2056 2 6 wait
: 2060 2 2 ing 
: 2064 2 4 too 
: 2068 2 2 long 
: 2072 2 -1 for 
: 2076 10 2 you 
- 2087
: 2088 2 2 To 
: 2092 2 -1 get 
: 2096 2 2 naugh
: 2100 2 4 ty
- 2104
: 2112 2 -1 Beat 
: 2116 2 2 this, 
: 2120 2 6 spank 
: 2124 2 2 me 
: 2128 2 4 dad
: 2132 2 2 dy, 
: 2136 2 -1 come 
: 2140 6 2 on
- 2147
: 2148 4 2 Touch 
: 2156 2 -1 my 
: 2160 2 2 bo
: 2164 2 4 dy
- 2167
: 2168 1 -6 See
: 2170 1 -6 ~ 
: 2172 2 -1 that 
: 2176 6 -1 good 
: 2184 4 -1 things 
: 2192 6 -3 come 
: 2200 2 -3 to 
: 2204 6 -4 those 
: 2212 6 -4 who 
: 2220 4 -6 wait
- 2226
: 2240 6 -1 Come 
: 2248 2 -1 take
: 2252 2 -3 ~ 
: 2256 2 -3 me 
: 2260 2 -3 on 
: 2264 2 -3 be
: 2268 6 -4 fore 
: 2276 6 -4 it's 
: 2284 2 -4 too 
: 2288 4 -6 late
- 2294
: 2312 2 4 Ooh
: 2316 10 2 ~
- 2328
: 2332 10 11 Ba
: 2344 1 11 by
: 2346 1 9 ~
: 2348 2 6 ~
- 2351
: 2352 2 6 Ooh
: 2356 2 2 ~
: 2360 2 4 ~
: 2364 2 2 ~
: 2368 2 -1 yeah
: 2372 4 -3 ~
- 2378
: 2380 2 9 Ooh
: 2384 6 11 ~
: 2392 2 6 ~
: 2396 2 9 yeah
: 2400 2 4 ~
- 2403
: 2404 2 6 You 
: 2408 2 4 know 
: 2412 2 2 I 
: 2416 2 4 like 
: 2420 2 2 the 
: 2424 2 2 way
: 2428 2 -1 ~ 
: 2432 4 -1 yeah
- 2436
: 2436 2 2 You 
: 2440 2 2 know 
: 2444 2 2 I 
: 2448 2 2 like 
: 2452 2 2 the 
: 2456 2 2 way 
: 2460 2 4 you
- 2463
: 2464 6 6 Move 
: 2472 2 4 it
: 2476 2 2 ~, 
: 2480 6 6 move 
: 2488 2 4 it
: 2492 2 2 ~
- 2496
: 2500 1 4 Girl, 
: 2502 1 4 you're 
: 2504 2 4 all 
: 2508 2 4 grown 
: 2512 2 4 up 
: 2516 2 2 and 
: 2520 2 4 now 
: 2524 2 2 you're
- 2527
: 2528 4 6 Rea
: 2536 4 6 dy 
: 2544 2 6 to 
: 2548 2 4 let 
: 2552 2 2 it 
: 2556 2 2 go
: 2560 2 -1 ~
- 2563
: 2564 1 2 Wan
: 2566 1 2 na 
: 2568 2 2 be 
: 2572 2 2 a 
: 2576 2 2 big 
: 2580 2 2 girl 
: 2584 2 2 'bout 
: 2588 2 4 to
- 2591
: 2592 6 6 Prove 
: 2600 2 4 it
: 2604 2 2 ~, 
: 2608 6 6 prove 
: 2616 2 4 it
: 2620 2 2 ~
- 2624
: 2628 1 4 With 
: 2630 1 4 a 
: 2632 1 4 bo
: 2634 1 4 dy 
: 2636 2 4 like 
: 2640 2 4 that, 
: 2644 2 2 you've 
: 2648 2 4 got 
: 2652 2 2 a
- 2655
: 2656 6 6 Grown 
: 2664 6 6 man 
: 2672 2 6 rea
: 2676 2 4 dy 
: 2680 2 2 to 
: 2684 2 2 blow
: 2688 2 -1 ~
- 2691
: 2692 2 2 You 
: 2696 2 2 know 
: 2700 2 2 I 
: 2704 2 2 like 
: 2708 2 2 the 
: 2712 2 2 way 
: 2716 2 4 you
- 2719
: 2720 6 6 Move 
: 2728 2 4 it
: 2732 2 2 ~, 
: 2736 6 6 move 
: 2744 2 4 it
: 2748 2 2 ~
- 2752
: 2756 1 4 Girl, 
: 2758 1 4 you're 
: 2760 2 4 all 
: 2764 2 4 grown 
: 2768 2 4 up 
: 2772 2 2 and 
: 2776 2 4 now 
: 2780 2 2 you're
- 2783
: 2784 4 6 Rea
: 2792 4 6 dy 
: 2800 2 6 to 
: 2804 2 4 let 
: 2808 2 2 it 
: 2812 2 2 go
: 2816 2 -1 ~
- 2819
: 2820 1 2 Wan
: 2822 1 2 na 
: 2824 2 2 be 
: 2828 2 2 a 
: 2832 2 2 big 
: 2836 2 2 girl 
: 2840 2 2 'bout 
: 2844 2 4 to
- 2847
: 2848 6 6 Prove 
: 2856 2 4 it
: 2860 2 2 ~, 
: 2864 6 6 prove 
: 2872 2 4 it
: 2876 2 2 ~
- 2880
: 2884 1 4 With 
: 2886 1 4 a 
: 2888 1 4 bo
: 2890 1 4 dy 
: 2892 2 4 like 
: 2896 2 4 that, 
: 2900 2 2 you've 
: 2904 2 4 got 
: 2908 2 2 a
- 2911
: 2912 6 6 Grown 
: 2920 6 6 man 
: 2928 2 6 rea
: 2932 2 4 dy 
: 2936 2 2 to 
: 2940 2 2 blow
: 2944 4 -1 ~
- 2950
: 2952 4 2 Hey, 
: 2968 4 2 hey
- 2974
: 2984 4 6 Hey, 
: 3000 4 6 hey
- 3006
: 3016 14 4 Hey, 
: 3032 2 1 yeah
: 3036 1 1 ~
: 3038 1 -1 ~
: 3040 2 -3 ~
: 3044 2 -6 ~
: 3048 2 -3 ~
: 3052 6 -1 
- 3059
: 3060 4 4 Ey, 
: 3068 4 4 ey
: 3074 4 6 ~
E
