#TITLE:Wanderlust
#ARTIST:Nightwish
#MP3:Nightwish - Wanderlust.mp3
#COVER:Nightwish - Wanderlust [CO].jpg
#BACKGROUND:Nightwish - Wanderlust [BG].jpg
#BPM:129
#GAP:21500
: 0 3 69 I 
: 3 3 65 want 
: 6 2 64 to 
: 8 3 62 see 
: 11 3 65 where 
: 14 2 67 the 
: 16 3 69 si
: 19 3 67 rens 
: 22 2 65 sing
- 24 
: 24 3 60 Hear 
: 27 3 65 how 
: 30 2 67 the 
: 32 3 69 wolves 
: 35 3 67 ho
: 38 2 65 wl
- 40
: 40 4 62 Sail 
: 46 2 69 the 
: 48 3 70 dead 
: 51 3 69 calm 
: 54 2 67 wa
: 56 3 67 ters 
: 59 3 70 of 
: 62 2 74 the 
: 64 2 73 Pa
: 66 2 70 -
: 68 2 69 ci
: 70 2 67 fic
- 72
: 72 3 62 Dance 
: 75 3 65 in 
: 78 2 67 the 
: 80 3 69 fields 
: 83 3 67 of 
: 86 2 65 co
: 88 3 60 ral
- 91
: 91 3 65 Be 
: 94 2 67 blin
: 96 3 69 ded 
: 99 3 67 by 
: 102 2 65 the 
: 104 4 62 white
- 108
: 110 2 69 Dis
: 112 3 70 co
: 115 3 69 ver 
: 118 2 67 the 
: 120 3 67 de
: 123 3 70 e
: 126 2 74 pest 
: 128 4 74 jun
: 132 4 73 gle
- 136
: 140 2 74 I 
: 142 6 74 want 
: 148 2 74 to 
: 150 6 75 find 
: 156 2 75 The 
: 158 4 74 Se
: 162 4 72 cret 
: 166 4 74 Path
- 170
: 204 2 74 A 
: 206 6 74 bird 
: 212 4 74 de
: 216 2 70 live
: 218 4 70 red 
: 222 4 69 in
: 226 2 69 to 
: 228 4 67 my 
: 232 14 70 heart
: 246 1 69 -
: 247 1 67 -
: 248 8 69 -
- 256
: 256 3 74 It's 
: 259 3 70 not 
: 262 2 69 the 
: 264 8 67 end
- 272
: 272 2 74 Not 
: 274 1 74 the 
: 275 3 70 king
: 278 2 69 dom 
: 280 8 67 come
- 288
: 288 3 74 It 
: 291 3 70 is 
: 294 2 69 the 
: 296 3 67 jour
: 299 3 69 ney 
: 302 2 70 that 
: 304 3 72 matt
: 307 3 74 ers
- 310
: 310 2 75 the 
: 312 4 77 dis
: 316 4 79 tant 
: 320 4 74 wan
: 324 4 72 de
: 328 8 70 rer
- 336
: 336 3 74 Call 
: 339 3 70 of 
: 342 2 69 the 
: 344 8 67 wild
- 352
: 352 3 74 in 
: 355 3 70 me 
: 358 2 69 for
: 360 1 67 e
: 361 1 67 ver 
: 362 2 67 and 
: 364 1 69 e
: 365 1 69 ver 
: 366 2 69 and 
: 368 1 70 e
: 369 1 70 ver 
: 370 2 70 for
: 372 2 72 e
: 374 2 72 ver
- 376
: 376 4 74 Wan
: 380 4 75 der
: 384 4 74 lust
: 388 4 72 -
- 392
: 392 3 74 Ah
: 395 3 72 -
: 398 2 70 -
: 400 3 69 -
: 403 3 70 -
: 406 2 69 -
: 408 3 67 -
: 411 3 69 -
: 414 2 70 -
: 416 2 69 -
- 418
: 420 2 70 Ah
: 422 2 72 -
: 424 3 74 -
: 427 3 72 -
: 430 2 70 -
: 432 3 75 -
: 435 3 74 -
: 438 2 72 -
- 440
: 440 4 74 Wan
: 444 4 75 der
: 448 4 74 lust
: 452 4 72 -
- 456 635
: 640 3 69 I 
: 643 3 65 want 
: 646 2 64 to 
: 648 3 62 love 
: 651 3 65 by 
: 654 2 67 the 
: 656 2 69 Blue 
: 658 1 69 La
: 659 3 67 goon
: 662 2 65 -
- 664
: 664 3 60 Kiss 
: 667 3 65 under 
: 670 2 67 the 
: 672 3 69 wa
: 675 3 67 ning 
: 678 2 65 moon
- 680
: 680 4 62 Straying, 
: 686 2 69 clai
: 688 3 70 ming 
: 691 3 69 my 
: 694 2 67 place 
: 696 3 67 in 
: 699 3 70 this 
: 702 2 74 mor
: 704 2 73 tal 
: 706 2 70 co
: 708 2 69 il
: 710 2 67 -
- 712
: 712 3 62 Ri
: 715 3 65 ding 
: 718 2 67 the 
: 720 3 69 dol
: 723 3 67 phins
: 726 2 65 -
- 728
: 728 3 60 As
: 731 3 65 king 
: 734 2 67 the 
: 736 3 69 moun
: 739 3 67 tains
: 742 2 65 -
- 744
: 744 3 62 Dream
: 747 3 67 ing 
: 750 2 69 A
: 752 3 70 las
: 755 3 69 ka
- 758
: 758 2 67 The 
: 760 3 67 Earth 
: 763 3 70 can 
: 766 2 74 have 
: 768 4 74 but 
: 772 4 73 Earth
- 780
: 780 2 74 I 
: 782 6 74 want 
: 788 2 74 to 
: 790 6 75 find 
: 796 2 75 The 
: 798 4 74 Se
: 802 4 72 cret 
: 806 4 74 Path
- 810
: 844 2 74 A 
: 846 6 74 bird 
: 852 4 74 de
: 856 2 70 live
: 858 4 70 red 
: 862 4 69 in
: 866 2 69 to 
: 868 4 67 my 
: 872 14 70 heart
: 886 1 69 -
: 887 1 67 -
: 888 8 69 -
- 896
: 896 3 74 I'ts 
: 899 3 70 not 
: 902 2 69 the 
: 904 8 67 end
- 912
: 912 2 74 Not 
: 914 1 74 the 
: 915 3 70 king
: 918 2 69 dom 
: 920 8 67 come
- 928
: 928 3 74 It 
: 931 3 70 is 
: 934 2 69 the 
: 936 3 67 jour
: 939 3 69 ney 
: 942 2 70 that 
: 944 3 72 matt
: 947 3 74 ers
- 950
: 950 2 75 the 
: 952 4 77 dis
: 956 4 79 tant 
: 960 4 74 wan
: 964 4 72 de
: 968 8 70 rer
- 976
: 976 3 74 Call 
: 979 3 70 of 
: 982 2 69 the 
: 984 8 67 wild
- 992
: 992 3 74 In 
: 995 3 70 me 
: 998 2 69 for
: 1000 1 67 e
: 1001 1 67 ver 
: 1002 2 67 and 
: 1004 1 69 e
: 1005 1 69 ver 
: 1006 2 69 and 
: 1008 1 70 e
: 1009 1 70 ver 
: 1010 2 70 for
: 1012 2 72 e
: 1014 2 72 ver
- 1016
: 1016 4 74 Wan
: 1020 4 75 der
: 1024 4 74 lust
: 1028 4 72 -
- 1032
: 1032 3 74 Ah
: 1035 3 72 -
: 1038 2 70 -
: 1040 3 69 -
: 1043 3 70 -
: 1046 2 69 -
: 1048 3 67 -
: 1051 3 69 -
: 1054 2 70 -
: 1056 2 69 -
- 1060
: 1060 2 70 Ah
: 1062 2 72 -
: 1064 3 74 -
: 1067 3 72 -
: 1070 2 70 -
: 1072 3 75 -
: 1075 3 74 -
: 1078 2 72 -
- 1080
: 1080 4 74 Wan
: 1084 4 75 der
: 1088 4 74 lust
: 1092 4 72 -
- 1096 1414
: 1414 4 61 Drown
: 1418 2 61 - 
: 1420 4 63 in
: 1424 2 63 to 
: 1426 4 64 my 
: 1430 4 66 eyes 
: 1434 2 66 and 
: 1436 6 68 see 
: 1442 4 69 the 
: 1446 12 68 Wan
: 1458 4 66 de
: 1462 16 68 rer
- 1478
: 1478 4 61 See 
: 1482 2 61 the 
: 1484 4 63 mirrors 
: 1488 2 63 of 
: 1490 4 64 a 
: 1494 4 66 wolf
- 1498
: 1498 2 66 be
: 1500 6 68 hold 
: 1506 4 69 the 
: 1510 12 68 path
: 1522 4 66 fin
: 1526 8 68 der
: 1534 8 66 -
- 1542
: 1668 4 61 Drown
: 1672 2 61 - 
: 1674 4 63 in
: 1678 2 63 to 
: 1680 4 64 my 
: 1684 4 66 eyes 
: 1688 2 66 and 
: 1690 6 68 see 
: 1696 4 69 the 
: 1700 12 68 wan
: 1712 4 66 de
: 1716 16 68 rer
- 1732
: 1732 4 61 See 
: 1736 2 61 the 
: 1738 4 63 mirrors 
: 1742 2 63 of 
: 1744 4 64 a 
: 1748 4 66 wolf
- 1752
: 1752 2 66 be
: 1754 6 68 hold 
: 1760 4 69 the 
: 1764 12 68 path
: 1776 4 66 fin
: 1780 8 68 der
: 1788 8 66 -
- 1796
: 1796 24 73 Ah
: 1820 8 75 -
: 1828 32 76 -
- 1860
: 1860 16 76 Ah
: 1876 6 78 -
: 1882 6 76 -
: 1888 4 75 -
: 1892 32 76 -
- 1924
: 1924 24 73 Ah
: 1948 8 75 -
: 1956 32 76 -
- 1988
: 1988 16 74 Ah
: 2004 16 78 -
: 2020 32 76 -
- 2052
: 2052 24 73 Ah
: 2076 8 75 -
: 2084 32 76 -
- 2116
: 2116 16 76 Ah
: 2132 6 78 -
: 2138 6 76 -
: 2144 4 75 -
: 2148 32 76 -
- 2180
: 2180 24 73 Ah
: 2204 8 75 -
: 2212 32 76 -
- 2244
: 2244 16 74 Ah
: 2260 16 78 -
: 2276 32 76 -
E
