#ARTIST:Nightwish
#TITLE:Storytime
#LANGUAGE:Englisch
#GENRE:Rock
#YEAR:2011
#MP3:Nightwish - Storytime.mp3
#COVER:Nightwish - Storytime [CO].jpg
#VIDEO:Nightwish - Storytime.mp4
#BPM:312.8
#GAP:28360
: 0 2 8 It 
: 5 2 8 was 
: 8 3 8 the 
: 12 3 8 night 
: 16 3 7 be
: 20 4 7 fore. 
: 31 4 10 When 
: 37 4 10 all 
: 45 3 10 through 
: 49 2 12 the 
: 52 3 8 wor
: 56 3 7 ld.
- 59
: 69 5 8 No 
: 75 4 8 words
: 79 3 7 ~, 
: 86 4 7 no 
: 92 7 0 dreams, 
: 101 4 5 then 
: 107 5 4 one 
: 117 6 1 day
- 123
: 128 3 8 A 
: 133 7 8 writer 
: 141 2 8 by 
: 144 3 7 a 
: 150 6 7 fire, 
: 161 11 10 imagined 
: 173 4 10 a
: 177 2 12 ll 
: 181 3 8 Ga
: 184 3 7 ia
- 187
: 197 3 8 Took 
: 201 2 8 a 
: 205 3 8 jour
: 209 6 7 ney 
: 217 3 7 in
: 220 3 12 to 
: 225 6 12 a 
: 237 7 13 child-
: 245 5 7 man`s 
: 253 2 5 heart
- 255
: 259 3 8 A 
: 263 4 8 painter 
: 268 3 8 on 
: 273 2 7 the 
: 278 6 7 shore, 
: 291 9 10 imagined 
: 301 3 10 all 
: 305 2 12 the 
: 309 3 8 wor
: 313 3 7 ld
- 316
: 325 5 8 With
: 331 4 8 in
: 336 4 7 ~ 
: 341 4 7 a 
: 348 8 4 snow
: 357 7 5 flake 
: 365 4 1 on 
: 374 5 -1 his 
: 382 3 0 palm
- 385
: 385 3 8 Un
: 389 3 8 framed 
: 393 3 8 by 
: 397 3 8 po
: 401 8 7 etry. 
: 417 3 10 A 
: 421 7 10 canvas 
: 429 4 10 o
: 434 2 12 f 
: 437 4 8 aw
: 442 5 7 e
- 447
: 454 3 7 Pla
: 458 3 8 net 
: 462 2 8 E
: 465 2 7 arth 
: 470 6 7 falling 
: 478 4 8 back 
: 487 4 8 in
: 493 4 10 to 
: 502 3 7 the 
: 509 19 5 stars
- 530
: 545 4 1 I 
: 550 3 1 am 
: 554 2 0 the 
: 557 4 0 voice 
: 562 2 -2 of 
: 565 3 -2 Ne
: 569 3 -4 ver 
: 573 6 -2 Ne
: 581 6 0 ver-
* 589 14 -9 Land
- 603
: 610 3 0 The 
: 614 2 0 in
: 617 7 -2 nocense, 
: 626 2 -4 the 
: 629 3 -4 dreams 
: 633 3 -5 of 
: 637 7 -4 ever
: 646 5 -2 y 
* 653 15 -9 man
- 668
: 673 3 3 I 
: 677 3 3 am 
: 681 3 1 the 
: 686 2 1 em
: 689 2 0 pty 
: 692 4 0 crib 
: 698 2 -2 of 
: 703 5 0 Pet
: 709 4 1 er 
* 717 17 -7 Pan
- 734
: 735 2 1 A 
: 741 3 1 si
: 745 3 0 lent 
: 750 2 0 kite 
: 753 6 -2 against 
: 760 2 -4 the 
: 764 6 -2 blue, 
: 772 5 0 blue 
* 781 17 -7 sky
- 798
: 804 3 1 E
: 808 2 0 very 
: 812 2 0 chim
: 815 4 -2 ney, 
: 822 2 -2 ever
: 825 3 -4 y 
: 829 8 -2 moon
: 838 3 0 lit 
* 844 17 -9 sight
- 861
: 864 2 0 I 
: 867 3 0 am 
: 872 2 -2 the 
: 875 4 -2 stor
: 880 3 -4 y 
: 885 2 -4 that 
: 889 2 -5 will 
: 893 7 -4 read 
: 902 4 -2 you 
* 908 16 -9 real
- 924
: 931 3 3 E
: 935 2 1 very 
: 940 3 1 me
: 944 6 0 mory 
: 951 2 -2 that 
: 956 4 0 you 
: 962 7 1 hold 
* 972 16 -7 dear
- 990
: 1409 3 8 I 
: 1413 3 8 am 
: 1417 2 8 the 
: 1420 3 8 jo
: 1424 3 7 ur
: 1428 8 7 ney. 
: 1441 2 10 I 
: 1445 2 10 am 
: 1449 2 10 the 
: 1452 3 10 des
: 1457 2 12 ti
: 1461 3 8 na
: 1467 4 7 tion
- 1471
: 1473 2 8 I 
: 1476 3 8 am 
: 1481 3 8 the 
: 1485 2 8 ho
: 1488 2 7 me. 
: 1492 5 7 The 
: 1501 6 4 tale 
: 1509 4 5 that 
: 1517 7 1 reads 
: 1525 6 -1 you
- 1531
: 1537 2 8 A 
: 1540 4 8 way 
: 1545 2 8 to 
: 1549 3 8 taste 
: 1553 2 7 the 
: 1557 8 7 night. 
* 1574 2 10 The 
* 1577 6 10 elus
* 1584 3 15 ive 
* 1589 1 10 hi
* 1590 1 9 ~
* 1591 1 8 ~
* 1593 5 7 gh
- 1598
: 1602 6 8 Follow 
: 1609 2 8 the 
: 1613 3 8 ma
: 1617 11 7 dness. 
: 1629 7 12 Alice, 
: 1638 5 12 you 
: 1645 7 13 know 
: 1654 6 7 once 
: 1662 4 5 did
- 1666
: 1668 12 8 Imagina
: 1682 9 7 rium. 
: 1697 3 10 A 
: 1701 3 10 dream 
: 1706 6 10 empo
: 1713 3 12 ri
: 1717 4 8 
: 1723 5 7 um
- 1728
: 1730 6 8 Caress 
: 1737 2 8 the 
: 1741 4 8 ta
: 1746 3 7 les 
: 1750 7 7 and 
: 1759 6 4 they 
: 1766 6 5 will 
: 1774 8 1 dream 
: 1785 4 -1 you 
: 1790 3 0 real
- 1793
: 1794 1 5 A 
: 1797 11 8 storytel
: 1809 3 7 ler`s 
: 1814 8 7 game. 
: 1826 3 10 Lips 
: 1830 2 10 that 
: 1833 5 10 into
: 1841 4 12 xi
: 1847 2 8 ca
: 1850 6 7 te 
- 1856
: 1857 3 8 The 
: 1862 3 8 core 
: 1866 2 8 of 
: 1869 3 8 all 
: 1873 4 7 life 
: 1878 2 7 is 
: 1882 2 7 a 
: 1886 15 8 limitless 
: 1902 4 10 chest 
: 1909 2 5 o
: 1912 4 7 f 
: 1918 22 5 tales
- 1940
: 1953 2 1 I 
: 1957 3 1 am 
: 1961 3 0 the 
: 1966 3 0 voice 
: 1970 2 -2 of 
: 1973 3 -2 Ne
: 1977 3 -4 ver-
: 1981 7 -2 Ne
: 1989 6 0 ver-
* 1996 18 -4 Land
- 2014
: 2018 2 0 The 
: 2021 3 0 in
: 2025 7 -2 nocense, 
: 2033 2 -4 the 
: 2037 3 -4 dreams 
: 2041 3 -5 of 
: 2047 5 -4 ever
: 2054 4 -2 y 
* 2061 16 -9 man
- 2077
: 2082 2 3 I 
: 2085 2 3 am 
: 2089 3 1 the 
: 2094 2 1 em
: 2097 3 0 pty 
: 2101 2 0 crib 
: 2104 3 -2 of 
: 2109 6 0 Pet
: 2117 5 1 er 
* 2124 16 -7 Pan
- 2140
: 2144 2 1 A 
: 2149 3 1 si
: 2153 2 0 lent 
: 2157 3 0 kite 
: 2161 7 -2 against 
: 2169 2 -4 the 
: 2173 4 -2 blue, 
: 2181 5 0 blue 
* 2189 18 -7 sky
- 2207
: 2212 2 1 E
: 2215 3 0 very 
: 2220 3 0 chim
: 2224 3 -2 ney, 
: 2229 2 -2 ever
: 2232 3 -4 y 
: 2238 5 -2 moon
: 2245 4 0 lit 
* 2252 16 -9 sight
- 2268
: 2273 2 0 I 
: 2277 2 0 am 
: 2280 2 -2 the 
: 2285 2 -2 stor
: 2288 4 -4 y 
: 2293 2 -4 that 
: 2296 3 -5 will 
: 2301 6 -4 read 
: 2310 5 -2 you 
* 2317 17 -9 real
- 2334
: 2341 2 3 E
: 2344 3 1 very 
: 2348 3 1 me
: 2352 6 0 mory 
: 2359 2 -2 that 
: 2364 4 0 you 
: 2372 6 1 hold 
* 2380 16 -7 dear
- 2400
: 2465 2 1 I 
: 2469 2 1 am 
: 2472 2 0 the 
: 2475 4 0 voice 
: 2480 2 -2 of 
: 2483 3 -2 Ne
: 2487 4 -4 ver-
: 2493 4 -2 Ne
: 2500 5 0 ver-
* 2508 16 -9 Land
- 2524
: 2528 2 0 The 
: 2531 3 0 in
: 2535 7 -2 nocense, 
: 2543 2 -2 the 
: 2547 4 -4 dreams 
: 2552 3 -5 of 
: 2557 5 -4 ever
: 2564 5 -2 y 
* 2572 17 -9 man
- 2589
* 2595 3 3 Search
* 2599 3 1 ing 
* 2603 3 1 hea
* 2607 3 0 vens 
* 2612 3 0 for 
* 2617 2 -2 an
* 2620 3 0 o
* 2626 7 1 ther 
* 2638 41 5 Earth
- 2688
: 3582 3 1 I 
: 3586 3 1 am 
: 3590 2 0 the 
: 3593 4 0 voice 
: 3598 2 -2 of 
: 3601 4 -2 Ne
: 3606 3 -4 ver-
: 3610 6 -2 Ne
: 3618 5 0 ver-
* 3625 16 -9 Land
- 3641
: 3645 3 0 The 
: 3649 3 0 in
: 3653 7 -2 nocense, 
: 3661 2 -4 the 
: 3664 4 -4 dreams 
: 3670 2 -5 of 
: 3674 6 -4 ever
: 3681 3 -2 y 
* 3687 17 -9 man
- 3704
: 3709 3 3 I 
: 3713 3 3 am 
: 3717 2 1 the 
: 3721 3 1 em
: 3725 3 0 pty 
: 3729 3 0 crib 
: 3733 3 -2 of 
: 3737 5 0 Pet
: 3744 6 1 er 
* 3752 17 -7 Pan
- 3769
: 3771 2 -2 A 
: 3776 3 1 si
: 3780 4 0 lent 
: 3785 3 0 kite 
: 3789 6 -2 against 
: 3797 2 -4 the 
: 3801 6 -2 blue, 
: 3810 5 0 blue 
* 3816 18 -7 sky
- 3834
: 3840 2 1 E
: 3843 3 0 very 
: 3848 3 0 chim
: 3852 3 -2 ney, 
: 3856 3 -2 ever
: 3860 2 -4 y 
: 3864 6 -2 moon
: 3872 4 0 lit 
* 3879 16 -9 sight
- 3895
: 3900 3 0 I 
: 3904 2 0 am 
: 3907 2 -2 the 
: 3910 5 -2 stor
: 3916 3 -4 y 
: 3920 2 -4 that 
: 3923 2 -5 will 
: 3928 7 -4 read 
: 3938 5 -2 you 
* 3944 16 -9 real
- 3960
: 3968 2 3 E
: 3971 3 1 very 
: 3975 3 1 me
: 3980 5 0 mory 
: 3986 2 -2 that 
: 3991 5 0 you 
: 4000 6 1 hold 
* 4008 23 -7 dear
- 4031
* 4033 9 1 Oh
* 4043 4 0 ~
* 4048 3 -2 ~
* 4052 3 -4 ~
* 4056 3 -2 ~
* 4060 38 -4 ~
* 4099 2 -2 ~
* 4102 4 0 ~
* 4107 8 3 ~
* 4116 3 0 ~
* 4120 4 -2 ~
* 4125 57 0 ~
* 4183 3 -1 ~
* 4187 47 -2 ~
* 4235 5 -4 ~
* 4241 5 -7 ~
E
