#TITLE:Smells Like Teen Spirit
#ARTIST:Nirvana
#MP3:Nirvana - Smells Like Teen Spirit.mp3
#VIDEO:Nirvana - Smells Like Teen Spirit [VD#-1].mpg
#COVER:Nirvana - Smells Like Teen Spirit [CO].jpg
#BACKGROUND:Nirvana - Smells Like Teen Spirit [BG].jpg
#BPM:340
#GAP:25450
#VIDEOGAP:-1
#ENCODING:UTF8
#EDITION:Singstar Legends
: 0 6 60 Load
: 7 7 63  up
: 18 6 65  on
: 30 10 56  guns
- 42
: 53 11 65 Bring
: 65 4 63 ~
: 70 6 61  your
: 77 15 60  friends
- 93
: 95 4 61 It's
: 100 15 60  fun
: 117 4 58  to
: 124 10 56  lose
- 136
: 141 3 58 And
: 147 11 60  to
: 159 4 58 ~
: 164 4 56  pre
: 171 8 55 tend
- 181
: 188 5 60 She's
: 194 10 63  ov
: 206 7 65 er
: 219 9 56 bored
- 230
: 242 10 65 Self
: 253 5 63 ~
: 259 3 61  as
: 265 17 60 sured
- 283
: 283 4 61 Oh
: 289 16 60  no
: 306 4 58  I
: 312 8 56  know
: 329 4 58  a
: 335 11 60  dir
: 347 5 58 ~
: 352 3 56 ty
: 360 8 55  word
- 370
: 376 6 56 Hel
: 382 17 55 lo,
: 401 6 56  hel
: 407 15 55 lo
- 423
: 424 6 56 Hel
: 430 11 55 lo
: 442 10 56  how
: 453 4 55  low
: 458 7 53 ~?
- 467
: 469 6 56 Hel
: 475 17 55 lo,
: 494 6 56  hel
: 500 15 55 lo
- 516
: 517 6 56 Hel
: 523 11 55 lo
: 535 10 56  how
: 546 4 55  low
: 551 7 53 ~?
- 560
: 563 6 56 Hel
: 569 17 55 lo,
: 588 6 56  hel
: 594 15 55 lo
- 610
: 611 6 56 Hel
: 617 11 55 lo
: 629 10 56  how
: 640 4 55  low
: 645 7 53 ~?
- 654
: 657 6 56 Hel
: 663 16 55 lo,
: 680 6 56  hel
: 686 15 55 lo,
: 703 6 56  hel
: 709 9 55 lo
- 719
: 719 6 68 With
: 725 3 67  the
: 731 8 67  lights
: 743 12 65  out
- 757
: 765 4 70 It's
: 771 3 70  less
: 777 12 70  dan
: 790 2 68 ge
: 792 10 68 rous
- 804
: 812 5 61 Here
: 818 5 61  we
: 824 11 61  are
: 836 12 60  now
- 850
: 859 5 70 En
: 865 5 70 ter
: 871 11 70 tain
: 882 11 68  us
- 895
: 905 5 68 I
: 911 4 67  feel
: 917 9 67  stu
: 928 14 65 pid
- 944
: 951 5 70 And
: 957 5 70  con
: 963 11 70 ta
: 975 13 68 gious
- 990
: 998 5 61 Here
: 1004 5 61  we
: 1010 10 61  are
: 1021 14 60  now
- 1037
: 1045 5 70 En
: 1051 5 70 ter
: 1057 10 70 tain
: 1068 12 68  us
- 1082
: 1091 5 68 A
: 1097 5 67  mu
: 1103 10 67 lat
: 1114 13 65 to
- 1129
: 1136 5 70 An
: 1142 5 70  al
: 1148 11 70 bi
: 1159 13 68 no
- 1174
: 1182 5 61 A
: 1188 5 61  mos
: 1194 11 61 qui
: 1206 15 60 to
- 1223
: 1228 5 70 My
: 1234 5 70  li
: 1240 10 70 bi
: 1251 14 68 do
- 1267
: 1279 13 68 Yeah
- 1294
: 1327 9 60 Ay
- 1338
: 1421 10 60 Yay
- 1433
: 1679 4 60 I'm
: 1684 10 63  worse
: 1696 7 65  at
: 1708 8 56  what
- 1718
: 1732 11 65 I
: 1743 4 63 ~
: 1749 3 61  do
: 1754 13 60  best
- 1769
: 1772 4 61 And
: 1778 16 60  for
: 1795 3 58  this
: 1801 13 56  gift
- 1816
: 1818 4 58 I
: 1824 13 60  feel
: 1837 6 58 ~
: 1843 4 56 ~
: 1849 8 55  blessed
- 1859
: 1865 4 60 Our
: 1872 11 63  lit
: 1884 8 65 tle
: 1896 10 56  group
- 1908
: 1914 4 63 Has
: 1920 4 63  al
: 1925 7 65 ~
: 1932 4 63 ~
: 1937 3 61 ways
: 1943 18 60  been
- 1962
: 1962 5 61 And
: 1968 16 60  al
: 1985 4 58 ways
: 1991 15 56  will
- 2007
: 2007 3 58 Un
: 2013 5 58 til
: 2018 6 60 ~
: 2024 7 58 ~
: 2031 5 56  the
: 2037 11 55  end
- 2050
: 2054 6 56 Hel
: 2060 17 55 lo,
: 2079 6 56  hel
: 2085 15 55 lo
- 2101
: 2102 6 56 Hel
: 2108 11 55 lo
: 2120 10 56  how
: 2131 4 55  low
: 2136 7 53 ~?
- 2145
: 2147 6 56 Hel
: 2153 17 55 lo,
: 2172 6 56  hel
: 2178 15 55 lo
- 2194
: 2195 6 56 Hel
: 2201 11 55 lo
: 2213 10 56  how
: 2224 4 55  low
: 2229 7 53 ~?
- 2238
: 2241 6 56 Hel
: 2247 17 55 lo,
: 2266 6 56  hel
: 2272 15 55 lo
- 2288
: 2289 6 56 Hel
: 2295 11 55 lo
: 2307 10 56  how
: 2318 4 55  low
: 2323 7 53 ~?
- 2332
: 2335 6 56 Hel
: 2341 16 55 lo,
: 2358 6 56  hel
: 2364 13 55 lo,
: 2380 6 56  hel
: 2386 9 55 lo
- 2396
: 2396 6 68 With
: 2402 3 67  the
: 2408 8 67  lights
: 2419 13 65  out
- 2434
: 2442 4 70 It's
: 2448 3 70  less
: 2454 12 70  dan
: 2467 2 68 ge
: 2469 10 68 rous
- 2481
: 2489 5 61 Here
: 2495 5 61  we
: 2501 11 61  are
: 2513 12 60  now
- 2527
: 2535 5 70 En
: 2541 5 70 ter
: 2547 11 70 tain
: 2558 11 68  us
- 2571
: 2582 5 68 I
: 2588 4 67  feel
: 2594 9 67  stu
: 2605 14 65 pid
- 2621
: 2628 5 70 And
: 2634 5 70  con
: 2640 11 70 ta
: 2652 13 68 gious
- 2667
: 2675 5 61 Here
: 2681 5 61  we
: 2687 10 61  are
: 2698 14 60  now
- 2714
: 2720 5 70 En
: 2726 5 70 ter
: 2732 10 70 tain
: 2743 12 68  us
- 2757
: 2767 5 68 A
: 2773 5 67  mu
: 2779 10 67 lat
: 2790 13 65 to
- 2805
: 2812 5 70 An
: 2818 5 70  al
: 2824 11 70 bi
: 2835 13 68 no
- 2850
: 2858 5 61 A
: 2864 5 61  mos
: 2870 11 61 qui
: 2882 15 60 to
- 2899
: 2904 5 70 My
: 2910 5 70  li
: 2916 10 70 bi
: 2927 14 68 do
- 2943
: 2955 14 68 Yeah
- 2971
: 3003 9 60 Ay
- 3014
: 3095 10 60 Yay
- 3107
: 3718 5 60 And
: 3724 10 63  I
: 3736 10 65  for
: 3747 10 56 get
- 3759
: 3764 5 63 Just
: 3771 5 63  why
: 3776 6 65 ~
: 3784 5 63  I
: 3794 13 60  taste
- 3809
: 3811 6 61 Oh
: 3817 16 60  yeah
: 3835 4 58  I
: 3841 14 56  guess
- 3857
: 3859 3 58 It
: 3864 5 58  makes
: 3869 5 60 ~
: 3875 6 58 ~
: 3882 5 56  me
: 3888 10 55  smile
- 3900
: 3905 3 60 I
: 3911 11 63  found
: 3923 7 65  it
: 3936 7 56  hard
- 3945
: 3952 4 56 It's
: 3958 5 63  hard
: 3963 6 65 ~
: 3970 4 63 ~
: 3976 4 61  to
: 3982 14 60  find
- 3997
: 3999 5 61 Oh
: 4005 14 60  well
: 4021 4 58  what
: 4027 15 56 ev
: 4045 4 58 er
- 4050
: 4051 5 58 Ne
: 4057 5 60 ~
: 4063 5 58 ~
: 4069 5 56 ver
: 4076 14 55 mind
- 4091
: 4091 6 56 Hel
: 4097 17 55 lo,
: 4116 6 56  hel
: 4122 15 55 lo
- 4138
: 4139 6 56 Hel
: 4145 11 55 lo
: 4157 10 56  how
: 4168 4 55  low
: 4173 7 53 ~?
- 4182
: 4184 6 56 Hel
: 4190 17 55 lo,
: 4209 6 56  hel
: 4215 15 55 lo
- 4231
: 4232 6 56 Hel
: 4238 11 55 lo
: 4250 10 56  how
: 4261 4 55  low
: 4266 7 53 ~?
- 4275
: 4278 6 56 Hel
: 4284 15 55 lo,
: 4300 6 56  hel
: 4306 15 55 lo
- 4322
: 4323 6 56 Hel
: 4329 11 55 lo
: 4341 10 56  how
: 4352 4 55  low
: 4357 7 53 ~?
- 4366
: 4369 6 56 Hel
: 4375 16 55 lo,
: 4392 6 56  hel
: 4398 15 55 lo,
: 4415 6 56  hel
: 4421 7 55 lo
- 4429
: 4431 6 68 With
: 4437 3 67  the
: 4443 8 67  lights
: 4455 12 65  out
- 4469
: 4477 4 70 It's
: 4483 3 70  less
: 4489 12 70  dan
: 4502 2 68 ge
: 4504 10 68 rous
- 4516
: 4524 5 61 Here
: 4530 5 61  we
: 4536 11 61  are
: 4548 12 60  now
- 4562
: 4570 5 70 En
: 4576 5 70 ter
: 4582 11 70 tain
: 4593 11 68  us
- 4606
: 4616 5 68 I
: 4622 4 67  feel
: 4628 9 67  stu
: 4639 14 65 pid
- 4655
: 4662 5 70 And
: 4668 5 70  con
: 4674 11 70 ta
: 4686 13 68 gious
- 4701
: 4708 5 61 Here
: 4714 5 61  we
: 4720 10 61  are
: 4731 14 60  now
- 4747
: 4754 5 70 En
: 4760 5 70 ter
: 4766 8 70 tain
: 4776 10 68  us
- 4788
: 4799 5 68 A
: 4805 5 67  mu
: 4811 10 67 lat
: 4822 13 65 to
- 4837
: 4845 5 70 An
: 4851 5 70  al
: 4857 11 70 bi
: 4868 13 68 no
- 4883
: 4890 5 61 A
: 4896 5 61  mos
: 4902 10 61 qui
: 4913 15 60 to
- 4930
: 4936 5 70 My
: 4942 5 70  li
: 4948 10 70 bi
: 4959 14 68 do
- 4975
: 4982 6 68 A
: 4988 4 67  de
: 4993 9 67 ni
: 5004 14 65 al
- 5020
: 5027 6 68 A
: 5033 4 67  de
: 5038 9 67 ni
: 5049 14 65 al
- 5065
: 5074 6 68 A
: 5080 4 67  de
: 5085 9 67 ni
: 5096 14 65 al
- 5112
: 5121 6 68 A
: 5127 4 67  de
: 5132 9 67 ni
: 5143 14 65 al
- 5159
: 5167 6 68 A
: 5173 4 67  de
: 5178 9 67 ni
: 5189 14 65 al
- 5205
: 5213 6 68 A
: 5219 5 67  de
: 5225 8 67 ni
: 5235 14 65 al
- 5251
: 5259 6 68 A
: 5265 5 67  de
: 5271 8 67 ni
: 5281 14 65 al
- 5297
: 5305 6 68 A
: 5311 4 67  de
: 5316 9 67 ni
: 5327 14 65 al
- 5343
: 5351 6 68 A
: 5357 4 67  de
: 5362 11 67 ni
: 5375 73 65 al
E