#TITLE:Don't Speak
#ARTIST:No Doubt
#MP3:No Doubt - Don't Speak.mp3
#VIDEO:No Doubt - Don't Speak [VD#1,78].avi
#COVER:No Doubt - Don't Speak [CO].jpg
#BACKGROUND:No Doubt - Don't Speak [BG].jpg
#BPM:300
#GAP:6000
#VIDEOGAP:1,78
#ENCODING:UTF8
#LANGUAGE:Englisch
#EDITION:[SC]-Songs
: 17 2 5 You
: 21 2 7  and
: 26 14 5  me
- 42
: 76 2 3 We
: 79 3 5  used
: 84 2 5  to
: 88 9 5  be
: 102 2 3  to
: 107 8 7 ge
: 118 2 0 ther
- 122
: 142 3 5 Eve
: 146 2 7 ry
: 150 12 5 day
: 165 2 3  to
: 169 9 7 ge
: 181 3 0 ther
- 186
: 198 12 7 al
: 213 14 5 ways
- 229
: 265 2 3 I
: 268 3 5  real
: 272 2 7 ly
: 276 14 5  f
: 292 6 3 e
: 300 9 2 el
- 311
: 324 2 -2 That
: 327 2 -2  I'm
: 331 6 5  los
: 339 4 7 ing
- 345
: 355 2 0 my
* 360 5 7  best
: 371 8 0  friend
- 381
: 390 2 0 I
: 394 3 5  can't
: 399 3 7  bel
: 403 12 5 ieve,
: 419 2 3  this
: 423 5 7  could
: 433 5 0  be
- 440
: 451 11 7 the
: 466 13 5  end
- 481
: 513 2 5 It
: 517 21 5  looks
: 545 2 3  as
: 550 8 7  though
- 560
: 577 7 10 you're
- 586
* 601 6 12 let
: 609 2 8 ting
: 613 10 5  go
- 625
: 644 2 -2 And
: 648 3 7  if
: 653 3 7  it's
: 660 4 7  real,
: 668 4 7  well
: 675 4 5  I
: 683 4 2  don't
: 691 5 -2  want
: 700 2 5  to
: 706 5 5  kno
* 713 24 4 ~w
- 739
: 773 5 5 Don't
: 781 8 8  speak
- 791
: 797 2 0 I
: 801 7 1  know
: 811 2 5  just
: 816 6 7  what
: 824 4 5  you're
: 832 5 8  say
: 841 4 7 ing
- 847
: 864 4 0 So
: 872 5 4  please
: 880 5 7  stop
: 888 4 5  ex
: 896 9 7 plai
: 908 5 5 nin
- 915
: 925 3 0 Don't
: 930 6 0  tell
: 938 2 0  me
: 943 10 7  'cause
: 955 2 4  it
: 959 9 5  hurts
- 970
: 1025 5 5 Don't
* 1033 7 8  speak
- 1042
: 1055 2 1 I
: 1060 5 5  know
: 1068 5 7  what
: 1076 4 5  you're
: 1084 6 8  think
: 1093 6 7 ing
- 1101
: 1120 3 0 I
: 1124 4 4  don't
: 1132 4 7  need
: 1140 4 8  your
: 1148 8 7  rea
: 1160 4 8 sons
- 1166
: 1176 4 12 Don't
: 1183 6 12  tell
: 1192 2 10  me
: 1196 9 10  'cause
: 1207 3 8  it
: 1212 11 8  hurts
- 1225
: 1273 2 3 Our
: 1278 3 5  me
: 1283 2 7 mo
* 1288 20 5 ries,
- 1310
: 1341 2 5 They
: 1345 2 7  can
: 1350 7 5  be
- 1359
: 1365 3 3 in
: 1370 8 7 vi
: 1381 3 0 ting
- 1386
: 1393 2 -2 But
: 1397 3 0  some
: 1401 2 -2  are
: 1405 3 5  all
: 1410 2 7  to
: 1414 10 5 ge
: 1428 2 3 ther,
: 1433 9 7  migh
: 1445 3 0 ty
- 1450
: 1461 11 7 frighte
: 1476 19 5 ning
- 1497
: 1529 20 5 As
: 1554 2 3  we
: 1559 9 7  die
- 1570
: 1586 8 10 both
- 1596
: 1610 5 12 you
: 1618 3 8  and
: 1622 5 5  I
: 1629 2 7 ~
- 1633
: 1665 2 -2 With
: 1669 2 -2  my
: 1673 3 7  head
: 1677 2 7  in
: 1681 2 7  my
: 1685 9 5  hands,
: 1697 2 2  I
* 1701 5 -2  sit
: 1709 4 5  and
: 1717 3 5  cry
: 1722 3 4 ~
: 1726 3 2 ~
: 1730 21 4 ~
- 1753
: 1782 5 5 Don't
: 1790 8 8  speak,
- 1800
: 1807 2 0 I
: 1811 6 1  know
: 1822 2 5  just
: 1827 5 7  what
: 1835 3 5  you're
: 1842 9 8  say
: 1854 3 7 ing
- 1859
: 1874 4 0 So
: 1882 5 4  please
: 1890 6 7  stop
: 1899 4 8  ex
: 1907 10 7 plai
: 1919 3 8 nin
- 1924
: 1935 3 0 Don't
: 1941 5 0  tell
: 1948 3 0  me
: 1953 10 7  'cause
: 1965 2 4  it
* 1969 9 5  hurts
- 1980
: 2000 3 0 No
: 2004 2 1 ~
: 2008 3 1 ~
- 2013
: 2016 3 3 No
: 2020 2 5 ~
: 2024 2 6 ~
: 2028 3 7 ~
- 2033
: 2036 4 5 Don't
: 2044 7 8  speak
- 2053
: 2065 3 1 I
: 2071 4 5  know
: 2079 4 7  what
: 2087 4 5  you're
: 2095 9 8  thin
: 2107 5 7 king
- 2114
: 2128 2 12 And
* 2132 3 12  I
: 2136 4 10  don't
: 2143 5 10  need
: 2151 4 8  your
: 2159 8 7  rea
: 2172 4 8 sons
- 2178
: 2189 3 12 Don't
* 2194 4 12  tell
: 2201 3 10  me
: 2206 9 10  'cause
: 2217 2 8  it
: 2222 13 8  hurts
- 2237
: 2290 11 8 It's
* 2305 9 13  all
: 2317 6 10  en
: 2328 9 8 ding,
- 2341
: 2341 2 8  I
: 2344 2 6  got
: 2347 2 5 ta
: 2352 6 6  stop
: 2367 8 6  pre
: 2379 7 8 ten
: 2391 5 6 ding
- 2398
: 2406 3 4 who
: 2411 3 3  we
: 2415 16 4  are
- 2433
: 3049 3 5 You
: 3053 3 7  and
: 3058 9 5  me
- 3069
: 3108 3 5 I
: 3113 2 7  can
: 3118 12 5  see
: 3134 2 3  us
* 3139 8 7  dy
: 3149 3 0 ing
- 3154
: 3163 5 5 are
: 3170 6 7 ~
: 3180 33 5  we?
- 3215
: 3234 5 5 Don't
* 3243 7 8  speak,
- 3252
: 3258 3 0 I
: 3263 6 1  know
: 3275 2 5  just
: 3279 5 7  what
: 3287 3 5  you're
: 3295 9 8  say
: 3307 4 7 ing
- 3313
: 3327 3 0 So
: 3335 4 4  please
: 3343 5 7  stop
: 3351 4 8  ex
: 3359 9 7 plai
: 3370 4 8 nin
- 3376
: 3386 4 12 Don't
: 3393 5 12  tell
: 3401 3 10  me
: 3406 9 10  'cause
: 3417 2 8  it
: 3421 12 8  hurts
- 3435
: 3456 3 12 No
: 3460 4 10 ~,
: 3469 6 8  no
: 3476 4 7 ~,
- 3482
: 3486 3 12 don't
: 3490 3 10 ~
: 3497 3 10  speak
: 3501 3 8 ~,
- 3506
: 3517 3 10 I
* 3523 5 10  know
: 3532 4 10  what
: 3539 3 8  you're
: 3547 8 12  thin
: 3558 6 10 king
- 3566
: 3579 2 7 And
: 3583 2 7  I
: 3587 4 7  don't
: 3595 5 7  need
: 3603 3 8  your
: 3611 8 7  rea
: 3623 4 8 sons
- 3629
: 3637 5 12 Don't
: 3645 5 12  tell
: 3653 2 10  me
: 3657 10 10  'cause
: 3670 2 8  it
: 3674 10 8  hurts
- 3686
: 3701 5 12 Don't
: 3709 5 12  tell
: 3717 2 10  me
: 3721 9 10  'cause
: 3732 2 8  it
: 3736 10 12  hurts
- 3748
: 3767 4 12 I
: 3775 6 10  know
: 3784 5 8  what
: 3793 3 8  you're
: 3800 9 8  say
: 3812 4 7 ing
- 3818
: 3832 4 12 So
: 3840 4 10  please
: 3847 5 8  stop
: 3856 4 7  ex
: 3864 9 7 plai
: 3876 5 8 nin
- 3883
: 3895 7 12 don't
: 3906 3 10  speak
: 3910 5 8 ~
- 3917
: 3926 7 12 don't
: 3938 3 10  speak
: 3942 5 8 ~
- 3949
: 3958 7 12 don't
: 3968 3 10  speak
: 3972 9 8 ~
- 3983
: 3990 14 8  No
- 4006
: 4022 3 8 I
* 4028 5 8  know
: 4036 4 8  what
: 4044 3 8  you're
: 4052 8 8  thin
: 4063 6 7 king
- 4071
: 4084 2 7 And
: 4088 2 7  I
: 4092 4 7  don't
: 4099 5 7  need
: 4107 3 8  your
: 4116 8 7  rea
: 4128 4 8 sons
- 4134
: 4139 3 3 I
: 4143 3 3  know
: 4147 3 3  you're
: 4151 9 5  good
- 4162
: 4170 3 3 I
* 4174 3 3  know
: 4178 3 3  you're
: 4182 8 5  good
- 4192
: 4202 2 3 I
* 4206 2 3  know
: 4210 2 3  you're
: 4214 3 5  real
: 4222 16 5  good
- 4240
: 4243 13 5 Oh
- 4258
: 4277 7 8 La
: 4289 9 7  la
: 4301 6 5  la
: 4310 9 3  la
- 4321
: 4340 8 8 La
: 4353 9 7  la
: 4365 5 5  la
: 4373 9 5  la
- 4384
: 4400 14 12 Don't
- 4416
: 4433 13 12 Don't
- 4448
: 4465 4 12 Uh
: 4470 4 10 ~
: 4480 5 10  uh
: 4486 5 8 ~
E