#TITLE:Ring Of Steel
#ARTIST:Nocturnal Rites
#MP3:Nocturnal Rites - Ring Of Steel.mp3
#COVER:Nocturnal Rites - Ring Of Steel [CO].jpg
#BACKGROUND:Nocturnal Rites - Ring Of Steel [BG].jpg
#BPM:300
#GAP:120570
#ENCODING:UTF8
: 0 4 62 The
: 4 5 64  queen
: 9 5 64  sent
: 14 4 62  out
: 18 3 64  a
: 21 7 64  mes
: 28 5 64 sage,
- 34
: 34 4 62 She
: 38 8 64  heard
: 46 7 62  a
: 53 7 60 bout
: 62 7 59  the
: 70 13 60  ri
: 83 15 59 ng
- 100
: 104 12 64 Uhmm,
: 116 12 62  uhm
- 129
: 131 4 62 With
: 135 5 64  pow
: 140 4 64 ers
: 144 4 62  that
: 148 3 64  no
: 151 9 64  man,
- 161
: 163 4 62 That
: 167 5 64  no
: 172 6 64  man
: 179 4 62  would
: 183 8 64  dare
: 192 5 69  to
: 198 12 67  fa
: 210 3 64 ~
: 213 3 62 ~
: 216 16 60 ce
- 234
: 260 3 62 The
: 263 4 64  war
: 267 3 64 rior
: 270 5 62  head
: 275 5 64 ed
: 280 10 64  north,
- 292
: 295 4 64 Ri
: 299 4 64 ding
: 303 4 62  through
: 307 4 64  the
: 311 8 62  night
: 319 8 60  a
: 327 12 59 lo
: 339 2 60 ~
: 341 3 59 ~
: 344 14 57 ne
- 360
: 389 6 64 Search
: 395 4 64 ing
: 399 4 62  night
: 403 4 64  and
: 407 7 64  day
: 415 4 62  for
: 419 3 64  the
- 422
: 422 9 64 Se
: 431 8 62 cret
: 439 8 64  of
: 447 5 69  the
: 454 25 67  ri
: 479 4 67 ~
: 483 4 65 ~
: 487 24 67 ng
- 513
: 530 4 57 The
: 534 8 57  se
: 542 8 60 cret
: 550 8 60  of
: 558 7 59  the
: 565 6 57  le
: 571 12 55 gend
- 585
: 598 7 64 Lives
: 606 7 62  for
: 613 13 59 e
: 626 3 60 ~
: 629 6 59 ~
: 635 11 57 ver
- 648
: 658 3 57 The
: 661 5 60  le
: 666 7 60 gend
: 673 11 62  brought
: 684 6 60  the
: 691 9 62  queen
: 700 8 60  to
: 708 24 64 ge
: 732 4 62 ~
: 736 4 60 ~
: 740 24 64 ther
- 766
: 772 20 57 In
: 795 5 59  from
: 800 4 61  the
: 804 16 64  dark
: 820 8 66 ness
: 828 7 68  the
: 835 14 69  war
: 849 3 68 ri
: 852 7 68 or
: 859 9 66  re
: 868 20 64 turned
- 889
: 891 4 66 And
: 896 4 68  the
: 900 15 69  ring
: 915 6 68  that
: 921 7 66  he
: 928 20 64  held
: 948 4 61  in
: 952 7 64  his
: 959 15 66  hand,
- 976
: 978 9 68 Had
: 987 4 69  the
: 991 6 68  pow
: 997 18 68 ers
- 1017
: 1020 5 64 To
: 1027 24 69  freeze
: 1051 7 71  the
: 1058 4 68  wor
: 1062 2 67 ~
: 1064 11 66 ld,
- 1077
: 1083 3 66 While
: 1086 5 68  the
: 1091 13 69  queen
: 1106 8 68  would
: 1115 7 66  bring
: 1122 15 68  mad
: 1137 19 64 ness
- 1158
: 1171 6 66 It's
: 1177 7 69  the
: 1185 24 69  ring
: 1210 6 68  of
: 1217 44 69  steel
- 1263
: 1278 3 57 A
: 1281 9 64  new
: 1290 6 64  day
: 1296 3 62  is
: 1299 5 64  ri
: 1304 5 64 sing,
- 1310
: 1311 3 62 The
: 1314 9 64  queen
: 1323 7 62  is
: 1331 7 60  laugh
: 1338 7 59 ing
: 1346 13 62  sti
: 1359 3 63 ~
: 1362 2 62 ~
: 1364 13 60 ll
- 1378
: 1379 15 64 Uhmm,
: 1394 9 62  uhmm
- 1404
: 1406 4 62 The
: 1410 8 64  ring
: 1419 5 62  that
: 1424 3 64  she
: 1427 15 64  wears
- 1444
: 1450 5 62 It's
: 1455 4 64  the
: 1459 6 64  e
: 1465 6 62 vil
: 1471 4 69  it
: 1475 20 67 se
: 1495 3 64 ~
: 1498 3 62 ~
: 1501 8 60 lf
- 1511
: 1549 4 57 The
: 1553 7 57  se
: 1560 9 60 cret
: 1570 8 60  of
: 1578 7 59  the
: 1586 8 57  le
: 1594 11 55 gend
- 1607
: 1617 9 64 Lives
: 1626 8 62  for
: 1634 12 59 e
: 1646 2 60 ~
: 1648 8 59 ~
: 1656 9 57 ver
- 1667
: 1679 3 57 The
: 1682 4 60  le
: 1686 9 60 gend
: 1695 10 62  brought
: 1705 7 60  the
: 1712 9 62  queen
: 1721 7 60  to
: 1728 33 64 ge
: 1761 23 64 ther
- 1786
: 1793 21 57 In
: 1816 5 59  from
: 1821 3 61  the
: 1824 16 64  dark
: 1840 8 66 ness
: 1848 8 68  the
: 1856 12 69  war
: 1868 5 68 ri
: 1873 5 68 or
: 1879 9 66  re
: 1888 18 64 turned
- 1908
: 1911 4 66 And
: 1915 4 68  the
: 1919 14 69  ring
: 1934 6 68  that
: 1941 7 66  he
: 1949 16 64  held
: 1966 5 61  in
: 1971 8 64  his
: 1980 18 66  hand,
- 1999
: 1999 7 68  had
: 2007 4 69  the
: 2011 7 68  pow
: 2018 15 68 ers
- 2035
: 2038 5 64 To
: 2045 24 69  freeze
: 2070 8 71  the
: 2078 3 68  wor
: 2081 4 67 ~
: 2085 9 66 ld,
- 2096
: 2101 4 66 While
: 2106 4 68  the
: 2110 13 69  queen
: 2124 8 68  would
: 2132 8 66  bring
: 2140 16 68  mad
: 2156 17 64 ness
- 2175
: 2189 7 66 It's
: 2197 7 69  the
: 2204 22 69  ring
: 2228 6 68  of
: 2235 77 69  steel
- 2320
: 3662 5 61 The
: 3670 7 61  ring
: 3678 6 61  was
: 3686 10 59  found
: 3698 3 56  a
: 3701 8 56 gain
- 3710
: 3710 4 54 By
: 3714 4 56  the
: 3718 7 57  right
: 3725 6 57 ful
: 3734 7 59  own
: 3741 6 59 ers
: 3750 8 57  strong
: 3761 4 56  de
: 3765 13 56 mand
- 3780
: 3787 6 57 The
: 3795 8 57  queen
: 3804 5 57  is
: 3811 7 57  laugh
: 3818 5 56 ing
: 3825 9 56  still
: 3841 16 57  out
: 3858 11 56  of
: 3869 4 57  con
: 3873 59 59 trol
- 3934
: 3994 22 57 In
: 4017 5 59  from
: 4022 3 61  the
: 4025 15 64  dark
: 4040 9 66 ness
: 4049 7 68  the
: 4056 13 69  war
: 4069 4 68 ri
: 4073 6 68 or
: 4082 7 66  re
: 4089 19 64 turned
- 4110
: 4112 4 66 And
: 4116 4 68  the
: 4120 15 69  ring
: 4135 5 68  that
: 4140 10 66  he
: 4151 15 64  held
: 4167 4 61  in
: 4171 10 64  his
: 4182 14 66  hand,
- 4197
: 4199 8 68  had
: 4207 4 69  the
: 4211 7 68  pow
: 4218 17 68 ers
- 4236
: 4237 6 64 To
: 4246 24 69  freeze
: 4270 5 71  the
: 4276 3 68  wor
: 4279 3 68 ~
: 4282 11 66 ld,
- 4295
: 4300 5 66 While
: 4305 4 68  the
: 4309 13 69  queen
: 4324 8 68  would
: 4332 8 66  bring
: 4341 14 68  mad
: 4355 17 64 ness
- 4374
: 4386 9 66 It's
: 4396 8 69  the
: 4404 23 69  ring
: 4427 6 68  of
: 4434 63 69  steel
- 4499
: 4514 9 66 It's
: 4524 7 69  the
: 4533 5 69  ri
: 4538 41 68 ng
: 4581 13 68  of
: 4595 48 69  steel!
: 4643 16 68 ~
: 4659 31 69 ~
: 4690 26 68 ~
: 4716 4 69 ~
: 4720 4 68 ~
: 4724 44 66 ~
E