#TITLE:Forogj Világ (Ungarn 2005)
#ARTIST:NOX
#LANGUAGE:Hungarian
#EDITION:Ultrastar Eurovision Edition Vol.3
#GENRE:Folk
#MP3:NOX - Forogj Világ (Ungarn 2005).mp3
#COVER:NOX - Forogj Világ (Ungarn 2005) [CO].jpg
#BACKGROUND:NOX - Forogj Világ (Ungarn 2005) [BG].jpg
#VIDEO:NOX - Forogj Világ (Ungarn 2005) [VD#0].avi
#BPM:140,01
#GAP:31090
: 0 2 11 Fo
: 2 2 11 rogj, 
: 6 1 13 vi
: 8 4 11 lág! - 
: 16 2 11 so
: 18 3 11 dor
: 22 1 13 j á 
: 24 2 14 fé
: 26 2 13 ny
: 28 1 11 re, 
- 30
: 30 1 9 Vagy 
: 32 1 7 ném 
: 34 4 7 é
: 38 1 7 lek 
: 40 2 7 ho
: 42 2 9 - 
: 44 2 7 lna
: 46 1 6 p 
: 48 8 7 már, 
- 58
: 64 2 10 Vád 
: 66 4 10 éj
: 70 1 11 sza
: 72 6 13 ká
: 78 1 10 d 
: 80 2 10 mé
: 82 3 10 gol, 
: 86 1 11 bár 
: 88 2 13 cso
: 90 2 11 k
: 92 2 10 ká
: 94 2 7 l 
: 96 12 6 vár, 
- 110
: 128 1 11 Né 
: 130 3 11 bánts, 
: 134 2 13 vi
: 136 2 13 lá
: 138 2 14 g! - 
: 142 1 11 né 
: 144 2 11 ö
: 146 3 11 lelj, 
: 150 1 13 né 
: 152 4 14 é
: 156 3 18 rezz, 
- 160
: 160 2 19 Sze
: 162 4 19 rel
: 166 1 18 méd 
* 168 3 19 job
: 172 2 18 ban 
: 176 2 19 fá
: 178 2 18 - 
: 180 6 16 j!
- 188
: 192 1 18 Né 
: 194 3 18 játssz, 
: 198 2 16 vi
: 200 2 16 lá
: 202 4 18 - 
: 206 1 16 g! - 
- 208
: 208 2 16 e
: 210 2 16 ressz, 
: 214 1 18 há 
: 216 2 16 bo
: 218 2 14 l
: 220 2 13 do
: 222 1 11 g 
: 224 9 11 táj 
: 236 6 18 hi
: 242 1 19 - 
: 243 1 18 - 
: 244 2 16 - 
: 246 6 18 v!
- 254
: 258 1 18 Háj
: 260 1 18 ná
: 262 1 19 ná
: 264 1 18 ná
: 266 1 16 ná
: 268 2 18 ná, 
- 274
: 274 1 18 Háj
: 276 1 18 ná
: 278 1 19 ná
: 280 1 18 ná
: 282 1 16 ná
: 284 2 18 ná, 
- 290
: 290 2 16 El
: 292 2 16 vá
: 294 1 16 gyom 
: 296 2 16 ré
: 298 1 18 gés - 
* 300 2 16 ré
: 302 1 15 gén 
: 304 4 16 más
: 308 2 15 ho
: 310 4 16 vá!
- 316
: 322 1 21 Háj
: 324 1 21 ná
: 326 1 23 ná
: 328 1 21 ná
: 330 1 20 ná
: 332 2 21 ná, 
- 338
: 338 1 21 Háj
: 340 1 21 ná
: 342 1 23 ná
: 344 1 21 ná
: 346 1 20 ná
: 348 2 21 ná, 
- 354
: 354 1 18 Ném 
: 356 2 18 lá
: 358 1 18 tok 
: 360 2 18 fényt, 
: 362 1 19 ném 
: 364 2 18 vá
: 366 1 16 rok 
: 368 1 18 rá
: 369 1 19 - 
: 370 10 18 -!
- 382
: 386 1 19 Háj
: 388 1 18 ná
: 390 1 19 ná
: 392 1 18 ná
: 394 1 16 ná
: 396 2 18 ná, 
- 402
: 402 1 18 Háj
: 404 1 18 ná
: 406 1 19 ná
: 408 1 18 ná
: 410 1 16 ná
: 412 2 18 ná, 
- 418
: 418 2 16 El
: 420 2 16 tu
: 422 1 16 nok 
* 424 2 16 é
: 426 1 18 gen - 
: 428 2 16 föl
: 430 1 15 dön 
: 432 4 16 bár
: 436 2 15 ho
: 438 4 16 vá!
- 444
: 450 1 23 Háj
: 452 1 21 ná
: 454 1 23 ná
: 456 1 21 ná
: 458 1 20 ná
: 460 2 21 ná, 
- 466
: 466 1 23 Háj
: 468 1 21 ná
: 470 1 23 ná
: 472 1 21 ná
: 474 1 20 ná
: 476 2 21 ná, 
- 482
: 482 2 18 Igy 
: 484 2 18 vál
: 486 1 18 hát 
: 488 2 18 min
: 490 1 16 dén 
: 492 2 14 bá
: 494 1 13 nat 
: 496 4 11 á
: 500 2 10 lom
: 502 6 11 má, 
- 510
: 704 2 11 Fo
: 706 2 11 rogj, 
: 710 1 13 vi
: 712 4 11 lág! - 
: 720 2 11 sö
: 722 3 11 tét
: 726 1 13 ben 
: 728 2 14 fá
: 730 2 13 - 
: 732 2 11 zo
: 734 1 9 m, 
- 736
: 736 1 7 á 
: 738 4 7 re
: 742 1 7 menyek 
: 744 2 7 vé
: 746 2 9 - 
: 748 2 7 gé
: 750 1 6 n 
: 752 8 7 jársz, 
- 762
: 768 2 10 Bo
: 770 3 10 lond 
* 774 2 11 vil
: 776 2 11 lá
: 778 4 13 - 
: 782 1 10 g, 
- 784
: 784 2 10 Tu
: 786 3 10 zelsz, 
: 790 1 10 dé 
: 792 2 13 jé
: 794 2 11 g
: 796 2 10 gé
: 798 1 7 - 
: 800 12 6 válsz, 
- 814
: 832 1 11 Né 
: 834 3 11 bánts, 
: 838 2 13 vi
: 840 2 13 lá
: 842 2 14 g! - 
: 848 2 11 u
: 850 2 11 tad 
: 854 1 13 nem 
: 856 4 14 já
: 860 3 18 rom, 
- 864
: 864 1 19 Né 
: 866 3 19 kérj, 
: 870 1 18 né 
: 872 3 19 hivj, 
: 876 1 18 né 
: 878 2 19 lá
: 880 2 18 - 
: 882 8 16 ss!
- 892
: 896 1 18 Né 
: 898 3 18 bánd, 
: 902 2 16 vi
: 904 2 16 lá
: 906 4 18 - 
: 910 1 16 g! - 
- 912
: 912 5 16 Tiéd 
: 918 1 18 lett 
: 920 2 16 mi
: 922 2 14 n
: 924 2 13 de
: 926 1 11 n 
: 928 9 11 más 
: 940 6 18 szí
: 946 2 16 - 
: 948 6 14 v, 
- 956
: 962 1 18 Háj
: 964 1 18 ná
* 966 1 19 ná
: 968 1 18 ná
: 970 1 16 ná
: 972 2 18 ná, 
- 978
: 978 1 18 Háj
: 980 1 18 ná
: 982 1 19 ná
: 984 1 18 ná
: 986 1 16 ná
: 988 2 18 ná, 
- 994
: 994 2 16 él
: 996 2 16 vá
: 998 1 16 gyom 
: 1000 2 16 ré
: 1002 1 18 gés - 
: 1004 2 16 ré
: 1006 1 15 gén 
: 1008 4 16 más
: 1012 2 15 ho
: 1014 4 16 vá!
- 1020
: 1026 1 21 Háj
: 1028 1 21 ná
: 1030 1 23 ná
: 1032 1 21 ná
: 1034 1 20 ná
: 1036 2 21 ná, 
- 1042
: 1042 1 21 Háj
: 1044 1 21 ná
: 1046 1 23 ná
: 1048 1 21 ná
: 1050 1 20 ná
: 1052 2 21 ná, 
- 1058
: 1058 1 18 Nem 
: 1060 2 18 lá
: 1062 1 18 tok 
: 1064 2 18 fényt, 
: 1066 1 19 nem 
: 1068 2 18 vá
: 1070 1 16 rok 
: 1072 1 18 rá
: 1073 1 19 - 
: 1074 10 18 -!
- 1086
: 1090 1 19 Háj
: 1092 1 18 ná
: 1094 1 19 ná
: 1096 1 18 ná
: 1098 1 16 ná
: 1100 2 18 ná, 
- 1106
: 1106 1 18 Háj
: 1108 1 18 ná
: 1110 1 19 ná
: 1112 1 18 ná
: 1114 1 16 ná
: 1116 2 18 ná, 
- 1122
: 1122 2 16 El
: 1124 2 16 tu
: 1126 1 16 nok 
: 1128 2 16 é
: 1130 1 18 gén - 
* 1132 2 16 föl
: 1134 1 15 dön 
: 1136 4 16 bár
: 1140 2 15 ho
: 1142 4 16 vá!
- 1148
: 1154 1 21 Háj
: 1156 1 21 ná
: 1158 1 23 ná
: 1160 1 21 ná
: 1162 1 20 ná
: 1164 2 21 ná, 
- 1170
: 1170 1 21 Háj
: 1172 1 21 ná
: 1174 1 23 ná
: 1176 1 21 ná
: 1178 1 20 ná
: 1180 2 21 ná, 
- 1186
: 1186 2 18 Igy 
: 1188 2 18 vál
: 1190 1 18 hát 
: 1192 2 18 min
: 1194 1 16 den 
: 1196 2 14 bá
: 1198 1 13 nat 
: 1200 4 11 á
: 1204 2 10 lom
: 1206 6 11 má, 
E
