#TITLE:Roc
#ARTIST:Nâdiya
#MP3:Nâdiya - Roc.mp3
#VIDEO:Nâdiya - Roc.avi
#COVER:Nâdiya - Roc.jpg
#BPM:340
#GAP:15176,47
#VIDEOGAP:0
#ENCODING:UTF8
#LANGUAGE:French
#GENRE:Pop
#EDITION:SingStar PopHit French
#YEAR:2006
: 0 15 36 Welcome
- 16
: 18 3 36 To
: 22 3 36  the
: 26 6 36  roc
- 34
: 80 6 68 Comme
: 87 5 68  un
: 93 3 68  roc
- 98
: 187 6 68 Comme
: 194 6 68  un
: 201 3 68  roc
- 206
: 293 5 68 Comme
: 300 5 68  un
: 307 3 68  roc
- 312
: 327 2 68 En
: 333 5 70 sem
: 340 2 72 ble
: 347 5 70  comme
: 353 5 68  un
: 360 4 68  roc
: 364 2 65 ~
: 366 3 63 ~
- 371
: 380 2 68 Tous
: 387 6 70  u
: 393 2 72 nis
: 400 5 68  comme
: 406 6 68  un
: 413 4 68  roc
- 419
: 427 8 72 Tous
: 440 14 68  tel
: 454 3 65  un
: 461 9 70  bloc
: 470 3 68 ~
: 473 3 65 ~
- 478
: 493 6 65 So
: 500 2 68 lides
: 507 5 70  comme
: 513 5 72  le
: 520 3 65  roc
- 525
: 540 3 68 En
: 547 5 70 sem
: 553 2 72 ble
: 561 5 70  comme
: 566 5 68  un
: 573 4 68  roc
: 577 3 65 ~
: 580 2 63 ~
- 584
: 594 2 68 En
: 600 5 70  ce
: 607 2 72  lieu
: 614 4 68  comme
: 619 6 68  un
: 626 3 68  roc
- 631
: 641 8 72 Boos
: 654 13 68 tés
: 667 2 65  ŕ
: 673 9 70  bloc
: 683 2 68 ~
: 685 4 65 ~
- 691
: 707 5 68 So
: 713 3 68 lides
: 720 5 68  comme
: 726 5 68  le
: 733 4 68  roc
- 739
: 780 4 36 Roc,
: 794 4 36  roc,
: 806 4 36  roc
- 812
: 814 5 68 So
: 820 3 68 lides
: 827 5 68  comme
: 834 4 68  le
: 840 4 68  roc
- 846
: 887 4 36 Roc,
: 900 4 36  roc,
: 913 4 36  roc
- 919
: 954 2 61 Des
: 960 4 61  traces
- 966
: 970 3 60 Que
: 973 3 61  la
: 976 3 60  rai
: 980 9 61 son
- 991
: 1007 5 60 Me
: 1015 3 60 nace
- 1020
: 1023 2 53 De
: 1027 4 60  lave
: 1033 4 60  en
* 1040 4 58  fu
: 1047 6 56 sion
- 1055
: 1060 3 61 D'es
: 1067 4 61 pace
- 1073
: 1077 2 60 Que
: 1080 2 61  les
: 1083 2 60  sai
: 1087 9 61 sons
- 1098
: 1113 4 60 En
: 1120 6 60  face
- 1128
: 1130 2 53 Des
: 1134 4 60  murs
: 1141 3 61  de
: 1148 3 63  pri
: 1154 6 65 son
- 1162
: 1167 4 65 L'au
: 1174 4 61 dace
- 1180
: 1183 3 60 Qu'on
: 1187 2 61  em
: 1190 3 60 pri
: 1194 7 58 sonne
- 1203
: 1220 2 56 Cette
: 1223 3 58  é
: 1227 5 60 ner
: 1233 2 60 gie
- 1236
: 1237 4 58 Qui
: 1243 2 56  ré
: 1247 14 56 sonne
- 1263
: 1274 4 61 Un
: 1281 5 61  cri
- 1288
: 1290 2 60 Qu'on
: 1294 2 61  a
: 1297 2 63 ban
: 1300 7 65 donne
- 1309
: 1320 5 65 U
: 1326 4 68 nis
: 1333 7 68 sons
: 1340 4 70  nos
* 1347 8 72  voix
- 1357
: 1360 5 68 Comme
: 1367 5 68  un
: 1373 3 68  roc
- 1378
: 1394 3 68 En
: 1400 4 70 sem
: 1407 3 72 ble
: 1413 7 70  comme
: 1420 5 68  un
: 1427 4 68  roc
: 1431 2 65 ~
: 1433 3 63 ~
- 1438
: 1447 2 68 Tous
: 1454 6 70  u
: 1460 2 72 nis
: 1467 5 68  comme
: 1473 6 68  un
: 1480 4 68  roc
- 1486
: 1494 8 72 Tous
: 1507 14 68  tel
: 1521 3 65  un
: 1528 9 70  bloc
: 1537 3 68 ~
: 1540 3 65 ~
- 1545
: 1560 6 65 So
: 1567 2 68 lides
: 1574 5 70  comme
: 1580 5 72  le
: 1587 3 65  roc
- 1592
: 1607 3 68 En
: 1614 5 70 sem
: 1620 2 72 ble
: 1628 5 70  comme
: 1633 5 68  un
: 1640 4 68  roc
: 1644 3 65 ~
: 1647 2 63 ~
- 1651
* 1661 2 68 En
: 1667 5 70  ce
: 1674 2 72  lieu
: 1681 4 68  comme
: 1686 6 68  un
: 1693 3 68  roc
- 1698
: 1708 8 72 Boos
: 1721 13 68 tés
: 1734 2 65  ŕ
: 1740 9 70  bloc
: 1750 2 68 ~
: 1752 4 65 ~
- 1758
: 1774 5 68 So
: 1780 3 68 lides
: 1787 5 68  comme
: 1793 5 68  le
: 1800 4 68  roc
- 1806
: 1860 4 61 D'al
: 1868 4 61 liés
- 1874
: 1877 3 60 Que
: 1880 3 61  les
: 1883 2 60  re
: 1886 8 61 gards
- 1896
: 1914 6 60 Pi
: 1922 6 60 liers
- 1929
: 1930 1 58 Qui
: 1933 5 60  por
: 1940 6 60 tent
: 1947 3 58  l'es
: 1954 6 56 poir
- 1962
* 1967 4 61 Dé
: 1974 7 61 vier
- 1982
: 1984 3 60 Que
: 1987 2 61  les
: 1989 3 60  rem
: 1993 7 61 parts
- 2002
: 2020 3 60 Dres
: 2027 6 60 sés
- 2034
: 2036 2 58 Au
: 2039 6 60  pied
: 2046 5 61  de
: 2053 4 63  l'his
: 2059 6 65 toire
- 2067
: 2073 6 65 Ne
: 2081 6 61  lier
- 2088
: 2089 3 60 Que
: 2092 2 61  no
: 2096 2 60 tre
: 2100 9 61  foi
- 2111
: 2126 2 56 Qui
: 2129 2 58  nous
: 2133 6 60  pousse
: 2140 1 58  ŕ
: 2144 3 58  chaque
: 2150 2 56 ~
: 2154 8 56 pas
- 2164
: 2180 4 61 Scel
: 2186 7 61 lée
- 2195
: 2197 3 60 Au
: 2200 2 61  fond
: 2203 2 63  de
* 2206 7 65  soi
- 2215
: 2226 7 65 U
: 2233 4 68 nis
: 2239 5 68 sons
: 2246 4 72  nos
: 2253 9 72  voix
- 2264
: 2267 5 68 Comme
: 2273 5 68  un
: 2280 3 68  roc
- 2285
: 2301 2 68 En
: 2307 4 70 sem
: 2314 2 72 ble
: 2320 7 70  comme
: 2327 5 68  un
: 2334 4 68  roc
: 2338 2 65 ~
: 2340 3 63 ~
- 2345
: 2354 2 68 Tous
: 2361 6 70  u
: 2367 2 72 nis
: 2374 5 68  comme
: 2380 6 68  un
: 2387 3 68  roc
- 2392
: 2401 8 72 Tous
: 2414 14 68  tel
: 2428 3 65  un
: 2435 9 70  bloc
: 2444 3 68 ~
: 2447 3 65 ~
- 2452
: 2467 6 65 So
: 2474 2 68 lides
: 2481 5 70  comme
: 2487 5 72  le
: 2494 3 65  roc
- 2499
: 2514 3 68 En
: 2521 5 70 sem
: 2527 2 72 ble
: 2535 5 70  comme
: 2540 5 68  un
: 2547 4 68  roc
: 2551 3 65 ~
: 2554 2 63 ~
- 2558
: 2568 2 68 En
: 2574 5 70  ce
: 2581 2 72  lieu
: 2588 4 68  comme
: 2593 6 68  un
: 2600 3 68  roc
- 2605
: 2614 9 72 Boos
: 2627 14 68 tés
: 2641 2 65  ŕ
: 2647 9 70  bloc
: 2657 2 68 ~
: 2659 4 65 ~
- 2665
: 2681 5 68 So
: 2687 3 68 lides
: 2694 5 68  comme
: 2700 5 68  le
: 2707 3 57  roc
- 2712
: 2813 6 36 Roc
- 2821
: 2920 104 36 Ah
- 3025
: 3027 99 36 Yeah
- 3128
: 3134 6 36 Roc
- 3142
: 3188 37 74 Ah
- 3226
: 3226 9 75 Ah
: 3235 9 74 ~
: 3244 11 72 ~
- 3256
: 3257 10 75 Ah
: 3267 11 74 ~
: 3279 27 70 ~
- 3308
: 3315 8 79 Ah
: 3324 10 81 ~
: 3334 11 82 ~
: 3346 7 77 ~
: 3354 6 70 ~
- 3361
* 3362 22 82 Ah
: 3384 10 81 ~
: 3394 37 77 ~
- 3432
: 3432 9 79 Ah
: 3441 10 77 ~
: 3451 53 72 ~
- 3505
: 3506 6 36 Roc
- 3513
: 3515 3 36 Ŕ
: 3520 12 36  vous
- 3534
: 3567 4 36 Plus
: 3572 13 36  fort
- 3587
: 3680 6 36 Huh
- 3688
: 3733 6 36 Roc
- 3741
: 3760 6 68 Comme
: 3767 5 68  un
: 3773 4 68  roc
: 3777 2 65 ~
: 3779 2 63 ~
- 3783
: 3794 2 68 En
: 3800 6 70  ce
: 3806 3 72  lieu
: 3813 5 68  comme
: 3819 6 68  un
: 3826 3 68  roc
- 3831
: 3841 7 72 Boos
: 3854 12 68 tés
: 3867 2 65  ŕ
: 3874 9 70  bloc
: 3883 2 68 ~
: 3886 2 65 ~
- 3890
* 3908 4 68 So
: 3913 3 68 lides
: 3920 5 68  comme
: 3927 5 68  le
: 3933 3 68  roc
- 3938
: 3954 2 68 En
: 3960 4 70 sem
: 3967 2 72 ble
: 3973 7 70  comme
: 3980 5 68  un
: 3987 4 68  roc
: 3991 2 65 ~
: 3993 3 63 ~
- 3998
: 4007 2 68 Tous
: 4014 6 70  u
: 4020 2 72 nis
: 4027 5 68  comme
: 4033 6 68  un
: 4040 4 68  roc
- 4046
: 4054 8 72 Tous
* 4067 14 68  tel
: 4081 2 65  un
: 4088 9 70  bloc
: 4097 3 68 ~
: 4100 3 65 ~
- 4105
: 4120 6 65 So
: 4127 2 68 lides
: 4134 5 70  comme
: 4140 5 72  le
: 4147 3 65  roc
- 4152
: 4167 2 68 En
: 4174 5 70 sem
: 4180 2 72 ble
: 4188 5 70  comme
: 4193 5 68  un
: 4200 4 68  roc
: 4204 3 65 ~
: 4207 2 63 ~
- 4211
: 4221 2 68 En
: 4227 5 70  ce
* 4234 2 72  lieu
: 4241 4 68  comme
: 4246 6 68  un
: 4253 3 68  roc
- 4258
: 4268 8 72 Boos
: 4281 13 68 tés
: 4294 2 65  ŕ
: 4300 9 70  bloc
: 4310 2 68 ~
: 4312 2 65 ~
- 4316
: 4334 5 68 So
: 4340 3 68 lides
: 4347 5 68  comme
: 4353 5 68  le
: 4360 3 68  roc
- 4365
: 4406 4 36 Roc,
: 4420 4 36  roc,
: 4432 4 36  roc
- 4438
: 4440 5 68 So
: 4446 3 68 lides
: 4453 5 68  comme
: 4460 4 68  le
* 4467 3 68  roc
- 4472
: 4513 4 36 Roc,
: 4527 4 36  roc,
: 4539 4 36  roc
- 4545
: 4548 4 36 Roc
- 4554
: 4562 4 68 Comme
: 4567 5 68  un
: 4573 4 68  roc
- 4579
: 4589 103 36 Ah
- 4693
: 4693 94 36 Yeah
- 4789
: 4867 5 68 Comme
: 4873 5 68  un
: 4879 3 68  roc
E