#TITLE:Don't look back in anger
#ARTIST:Oasis
#MP3:Oasis - Don't look back in anger.mp3
#COVER:Oasis - Don't look back in anger [CO].jpg
#BACKGROUND:Oasis - Don't look back in anger [BG].jpg
#BPM:297,5
#GAP:11920
#ENCODING:UTF8
#LANGUAGE:Englisch
#EDITION:[SC]-Songs
: 0 2 16 Slip
: 4 3 14  in
: 12 6 14 side
: 19 3 12 ~
- 23
: 24 3 12 The
: 28 5 14  eye
: 35 2 12  of
: 41 6 16  your
: 50 7 14  mind
: 60 3 12 ~
: 64 3 9 ~
- 69
: 78 3 14 Don't
: 82 2 12  you
: 86 4 14  know
: 93 2 12  you
: 97 6 16  might
: 108 8 14  find
: 118 3 12 ~
: 122 5 9 ~
- 129
: 148 2 9 A
: 152 2 12  bet
: 155 2 9 ter
: 160 4 12  place
: 166 2 9  to
: 171 5 12  play
: 177 3 9 ~
: 181 2 7 ~
- 185
* 233 3 16 You
* 240 8 14  said
: 250 2 12 ~
- 253
: 254 2 12 That
: 259 4 14  you'd
: 268 5 12  ne
: 276 4 16 ver
: 283 10 14  been
: 294 3 12 ~
: 298 3 9 ~
- 303
: 309 2 12 That
: 312 2 14  all
: 316 2 12  the
: 320 4 14  things
: 327 3 12  that
: 335 3 16  you've
* 341 10 14  seen
* 352 3 16 ~
* 356 3 12 ~
- 361
: 380 2 9 Will
: 384 2 12  slow
: 388 2 9 ly
: 392 5 12  fade
: 399 3 9  a
: 403 13 12 way
- 418
: 471 2 14 So
: 474 2 12  I
: 479 2 14  start
: 483 2 12  a
: 486 2 14  re
: 490 2 12 vo
: 494 3 14 lu
: 500 2 12 tion
: 505 4 14  from
: 515 7 12  my
: 528 9 7  bed
- 539
: 573 2 7 Cause
: 576 2 7  you
: 581 4 14  said
: 587 2 12  the
: 592 5 14  brains
: 602 3 12  I
: 607 4 14  had
- 613
: 617 4 12 Went
: 624 2 14  to
: 628 10 12  my
: 644 13 7  head
- 659
: 696 3 14 Step
: 701 3 12  out
: 709 8 14 side
- 719
: 723 2 12 The
: 726 3 14  sum
: 730 3 15 mer
: 736 11 14 time's
: 750 3 12  in
: 756 27 7  bloo
: 784 6 9 ~m
- 792
: 813 2 14 Stand
: 817 4 14  up
: 824 2 12  be
: 828 4 14 side
: 834 2 12  the
: 839 4 14  fi
: 845 2 12 re
: 849 8 14 place
- 859
: 871 3 15 Take
: 878 4 14  that
: 885 4 14  look
: 892 3 12  from
: 897 3 14  off
: 903 2 16  your
: 908 5 12  face
- 915
: 929 4 16 You
: 936 4 14  ain't
: 943 3 14  e
: 948 4 12 ver
: 955 8 14  gon
: 965 2 12 na
: 969 5 14  burn
: 977 11 16  my
- 989
: 991 3 12 heart
: 995 3 9 ~
* 1002 41 12  out
: 1045 3 9 ~
: 1049 18 7 ~
- 1069
: 1162 19 19 So
: 1191 4 17  Sa
: 1198 4 19 lly
: 1205 4 17  can
: 1212 16 16  wait
- 1230
: 1241 4 14 She
: 1248 4 14  knows
: 1255 4 16  it's
: 1264 3 12  too
: 1271 10 12  late
- 1283
: 1285 5 14 As
: 1292 3 16  we're
: 1299 11 14  wal
: 1314 3 12 king
: 1318 6 16  on
: 1329 9 12  by
: 1339 3 9 ~
: 1343 8 7 ~
- 1353
: 1387 3 7 Her
: 1394 20 19  soul
: 1423 10 17  slides
: 1438 5 19  a
: 1445 14 16 way
- 1461
: 1491 2 16 But
: 1495 5 21  don't
: 1502 3 16  look
: 1507 5 19  back
: 1517 2 16  in
: 1521 4 14  an
: 1528 7 12 ger
- 1537
: 1549 3 12 I
: 1553 4 14  heard
: 1560 2 16  you
: 1566 23 12  say
- 1591
: 1801 4 16 Take
: 1808 2 14  me
: 1812 7 14  to
: 1820 3 12 ~
- 1824
: 1825 3 12 The
: 1829 5 14  place
: 1837 4 12  where
: 1845 4 16  you
: 1852 8 14  go
: 1862 3 12 ~
: 1866 4 9 ~
- 1872
: 1880 4 14 Where
: 1888 4 14  no
: 1895 4 12 bo
: 1902 5 16 dy
: 1910 8 14  knows
: 1921 2 16 ~
: 1925 12 12 ~
- 1939
: 1952 3 12 If
: 1956 2 9  it's
: 1961 2 12  night
: 1965 4 12  or
: 1972 4 12  day
: 1977 2 9 ~
: 1981 2 7 ~
- 1985
: 2033 4 16 Please
: 2041 4 14  don't
: 2048 3 14  put
: 2055 5 12  your
: 2062 4 14  life
: 2070 3 12  in
: 2077 4 16  the
: 2084 9 14  hands
: 2094 2 12 ~
: 2098 4 9 ~
- 2104
: 2112 2 14 Of
: 2116 2 12  a
: 2120 4 14  Rock
: 2127 2 12  'n'
: 2132 5 16  Roll
: 2142 8 14  band
* 2152 3 16 ~
* 2156 8 12 ~
- 2166
: 2181 2 9 Who'll
: 2185 2 12  throw
: 2189 2 9  it
: 2193 4 12  all
: 2200 2 9  a
: 2204 8 12 way
- 2214
: 2268 2 12 I'm
: 2272 2 14  gon
: 2275 2 12 na
: 2280 2 14  start
: 2283 2 12  a
: 2287 2 14  re
: 2291 2 12 vo
: 2295 4 14 lu
: 2301 2 12 tion
: 2306 4 14  from
: 2313 7 12  my
: 2327 14 7  bed
- 2343
: 2375 2 7 Cause
: 2379 2 7  you
: 2383 3 14  said
: 2389 2 12  the
: 2393 6 14  brains
: 2403 3 12  I
: 2407 4 14  had
- 2413
: 2416 5 12 Went
: 2425 2 14  to
: 2429 10 12  my
: 2444 11 7  head
- 2457
: 2497 3 14 Step
: 2502 3 12  out
: 2509 8 14 side
- 2519
: 2523 2 12 Cause
: 2527 2 14  sum
: 2531 2 15 mer
: 2536 8 14 time's
: 2549 3 12  in
: 2556 27 7  bloom
- 2585
: 2614 2 15 Stand
: 2618 4 14  up
: 2625 2 12  be
: 2630 4 14 side
: 2636 2 12  the
: 2640 4 14  fi
: 2646 2 12 re
: 2651 8 14 place
- 2661
: 2673 4 21 Take
: 2680 4 15  that
: 2687 3 14  look
: 2694 3 12  from
: 2698 4 14  off
: 2704 3 16  your
: 2709 9 12  face
- 2720
* 2725 3 12 Cause
* 2730 5 21  you
: 2737 5 16  ain't
: 2744 3 14  e
: 2748 4 12 ver
: 2756 7 14  gon
: 2766 3 12 na
: 2771 5 14  burn
: 2779 10 16  my
- 2790
: 2792 4 12 heart
: 2797 4 9 ~
: 2803 40 12  out
: 2846 3 9 ~
: 2850 18 7 ~
- 2870
: 2962 18 19 So
: 2991 6 17  Sa
: 2999 5 19 lly
: 3006 4 17  can
: 3014 18 16  wait
- 3034
: 3043 4 14 She
: 3050 4 14  knows
: 3058 4 16  it's
: 3065 5 12  too
: 3072 13 12  late
- 3086
: 3087 4 14 As
: 3094 3 16  she's
: 3101 9 14  wal
: 3115 3 12 king
: 3119 7 16  on
: 3130 9 12  by
: 3140 3 9 ~
: 3144 12 7 ~
- 3158
* 3187 4 7 My
* 3195 20 19  soul
: 3224 9 17  slides
: 3240 4 19  a
: 3246 16 16 way
- 3264
: 3293 2 16 But
: 3297 4 21  don't
: 3304 2 16  look
: 3308 6 19  back
: 3318 2 16  in
: 3322 4 14  an
: 3330 6 12 ger
- 3338
: 3352 2 7 I
: 3356 4 14  heard
: 3362 2 16  you
: 3367 16 12  say
- 3385
: 4126 22 19 So
: 4154 5 17  Sa
: 4162 4 19 lly
: 4169 4 17  can
: 4176 13 16  wait
- 4191
: 4206 3 14 She
: 4212 5 14  knows
: 4220 4 16  it's
: 4227 4 12  too
: 4234 11 12  late
- 4247
: 4250 3 14 As
: 4256 4 16  we're
: 4263 9 14  wal
: 4277 3 12 king
: 4281 7 16  on
: 4292 9 12  by
: 4302 3 9 ~
: 4306 10 7 ~
- 4318
: 4351 3 7 Her
: 4358 22 19  soul
: 4387 10 17  slides
: 4402 4 19  a
: 4409 19 16 way
- 4430
: 4455 2 16 But
: 4459 4 21  don't
: 4465 3 16  look
: 4470 4 19  back
: 4480 2 16  in
: 4484 4 14  an
: 4491 6 12 ger
- 4499
: 4513 3 7 I
: 4517 4 14  heard
: 4524 2 16  you
: 4528 19 12  say
- 4549
* 4589 18 19 So
: 4618 5 17  Sa
: 4626 4 19 lly
: 4633 4 17  can
: 4641 14 16  wait
- 4657
: 4670 3 14 She
: 4677 4 14  knows
: 4684 4 16  it's
: 4692 4 12  too
: 4699 9 12  late
- 4710
: 4713 4 14 As
: 4720 5 16  she's
: 4728 10 14  wal
: 4742 3 12 king
: 4746 3 16  on
: 4757 9 12  by
: 4768 3 9 ~
: 4772 4 7 ~
- 4778
: 4815 4 7 My
: 4822 23 19  soul
: 4851 11 17  slides
: 4867 4 19  a
: 4873 22 16 way
- 4897
: 4919 2 16 But
: 4924 4 21  don't
: 4930 3 16  look
: 4935 7 19  back
: 4946 3 16  in
: 4951 3 14  an
: 4958 7 12 ger
- 4967
: 4983 5 21 Don't
: 4990 4 16  look
: 4995 6 19  back
: 5005 3 16  in
: 5010 4 14  an
: 5017 12 12 ger
- 5031
: 5095 3 7 I
: 5099 5 14  heard
: 5107 2 16  you
: 5111 12 12  say
- 5125
: 5267 2 7 At
: 5272 4 12  least
: 5281 4 12  not
: 5290 3 14  to
: 5298 26 12 day
E