#TITLE:Story Of My Life
#ARTIST:One Direction
#MP3:One Direction - Story Of My Life.mp3
#VIDEO:One Direction - Story Of My Life.mp4
#COVER:One Direction - Story Of My Life.jpg
#BPM:242
#GAP:20306
#ENCODING:UTF8
#LANGUAGE:English
#AUTHOR:Sing-Girl
: 0 2 -2 Writ
: 4 2 -2 ten
: 8 2 -2  in
: 12 2 -2  these
: 16 6 -2  walls
: 24 4 -7  are
: 30 2 -7  the
: 34 4 -2  sto
: 40 2 -2 ries
: 44 2 -2  that
: 48 2 -2  I
: 52 6 -5  can't
: 60 2 -7  ex
: 64 8 -5 plain
- 74
: 126 2 -7 I
: 130 2 -2  leave
: 134 4 -2  my
: 140 4 -2  heart
: 146 2 -2  o
: 150 2 -7 pen
: 154 2 -7  but
: 157 1 -7  it
: 160 6 -2  stays
: 168 4 -2  right
: 174 2 -2  here
: 178 4 -2  emp
: 184 2 -7 ty
: 188 2 -7  for
* 192 14 -5  days
- 208
: 252 2 -5 She
: 256 2 0  told
: 260 2 0  me
: 264 2 0  in
* 268 2 2  the
: 272 2 0  morn
: 276 1 -2 ing
- 278
: 279 1 -5 She
: 282 2 -5  don't
: 286 4 0  feel
: 292 2 0  the
: 296 2 0  same
: 300 1 2  a
: 303 2 0 bout
: 307 2 -2  us
: 311 2 -5  in
: 315 2 -7  her
* 319 12 -5  bones
- 333
: 379 2 -5 It
: 383 2 -2  seems
: 387 2 -2  to
: 391 2 -2  me
: 395 2 -2  that
: 399 2 -2  when
: 403 2 -5  I
: 407 2 -5  die
- 410
: 412 2 -5 These
: 416 4 -4  words
: 422 2 -4  will
: 426 4 -4  be
: 432 2 -4  writ
: 436 2 -5 ten
: 440 2 -5  on
: 444 2 -5  my
* 448 2 -5  stone
* 452 2 -7 ~
* 456 2 -9 ~
- 460
: 500 2 -5 And
: 504 2 -7  I'll
: 508 2 -9  be
: 512 12 -9  gone,
: 528 6 -7  gone
: 536 4 -5  to
: 542 10 -5 night
- 554
: 558 1 -5 The
: 560 2 -3  ground
: 564 1 -5  be
: 566 4 -7 neath
: 572 2 -9  my
: 576 8 -9  feet
: 586 2 -9  is
: 590 10 -7  o
: 602 2 -5 pen
* 606 12 -5  wide
- 620
: 622 1 -5 The
: 624 2 -3  way
: 628 2 -5  that
: 632 4 -7  I
: 638 2 -9  been
: 642 6 -9  hol
: 650 2 -9 din'
: 654 8 -7  on
: 664 2 -5  too
: 668 10 -5  tight
- 680
: 684 2 -5 With
: 688 2 -3  no
: 692 2 -5 thing
: 696 2 -7  in
: 700 2 -9  be
: 704 12 -7 tween
- 718
: 763 2 0 The
: 767 2 3  sto
: 771 2 3 ry
: 775 2 3  of
: 779 2 3  my
* 783 8 7  life
- 793
: 795 2 3 I
: 799 6 3  take
: 807 4 3  her
: 813 10 7  home
- 825
: 828 2 3 I
: 832 4 3  drive
: 838 4 3  all
* 844 8 8  night
- 854
: 860 2 3 To
: 864 6 3  keep
: 872 4 3  her
: 878 4 8  warm
: 884 4 7 ~
- 889
: 890 2 7 And
: 894 2 7  time
: 898 2 5 ~
: 902 2 3 ~
- 906
* 924 4 3 Is
* 930 4 8  fro
* 936 4 7 ~
* 942 4 8 ~
* 948 2 7 ~
* 952 2 8 ~
* 956 2 7 ~
* 960 2 7 zen
* 964 2 5 ~
* 968 2 3 ~
- 972
: 988 2 0 The
: 992 2 3  sto
: 996 2 3 ry
: 1000 2 3  of,
- 1003
: 1004 2 0 The
: 1008 2 3  sto
: 1012 2 3 ry
: 1016 2 3  of
- 1019
* 1020 2 0 The
* 1024 2 3  sto
* 1028 2 3 ry
* 1032 2 3  of
* 1036 2 3  my
* 1040 8 7  life
- 1050
: 1052 2 3 I
: 1056 6 3  give
: 1064 4 3  her
: 1070 6 7  hope
- 1078
: 1084 2 3 I
: 1088 6 3  spend
: 1096 2 3  her
: 1100 8 8  love
- 1110
: 1116 2 3 Un
: 1120 4 3 til
: 1126 6 3  she's
: 1134 4 8  broke
: 1140 4 7 ~
: 1146 4 7  in
: 1152 2 7 side
: 1156 2 5 ~
: 1160 2 3 ~
- 1164
* 1196 2 3 The
* 1200 2 8  sto
* 1204 2 8 ry
* 1208 2 8  of
* 1212 4 8  my
* 1218 4 7  life
* 1224 2 5 ~
* 1228 2 3 ~
- 1232
: 1244 2 3 The
: 1248 2 3  sto
: 1252 2 3 ry
: 1256 2 3  of,
- 1259
: 1260 2 3 The
: 1264 2 3  sto
: 1268 2 3 ry
: 1272 2 3  of
- 1276
: 1278 2 -2 Writ
: 1282 2 -2 ten
: 1286 2 -2  on
: 1290 4 -2  these
: 1296 4 -2  walls
: 1302 4 -7  are
: 1308 2 -7  the
: 1312 2 -2  co
: 1316 6 -2 lors
: 1324 2 -2  that
: 1328 2 -2  I
* 1332 6 -7  can't
: 1340 6 -5  change
- 1348
: 1408 4 -2 Leave
: 1414 4 -2  my
: 1420 4 -2  heart
: 1426 4 -2  o
: 1432 2 -7 pen
: 1436 2 -7  but
: 1440 2 -7  it
: 1444 6 -2  stays
: 1452 4 -2  right
: 1458 6 -2  here
: 1466 2 -5  in
: 1470 2 -7  its
: 1474 8 -5  cage
- 1484
: 1534 2 -5 I
: 1538 2 0  know
: 1542 2 0  that
: 1546 2 0  in
: 1549 1 2  the
: 1552 2 0  mor
: 1556 2 -2 ning
: 1560 4 -5  now
- 1565
: 1566 1 -5 I'll
: 1568 2 0  see
: 1572 2 0  us
: 1576 2 0  in
: 1580 2 2  the
: 1584 2 0  light
: 1588 2 -2  u
: 1592 2 -5 pon
: 1596 2 -7  the
: 1600 10 -5  hill
- 1612
: 1660 2 -5 Al
: 1664 6 -2 though
: 1672 2 -5  I
: 1676 2 -5  am
: 1680 4 -5  bro
: 1686 2 -7 ken,
* 1692 4 -7  my
* 1698 4 -7  heart
* 1704 4 -7  is
* 1710 4 -7  un
* 1716 12 -7 tamed
* 1730 14 -7  still
- 1746
* 1780 2 -5 And
* 1784 4 -7  I'll
* 1790 2 -9  be
* 1794 10 -9  gone,
* 1810 6 -7  gone
* 1818 2 -5  to
* 1822 10 -5 night
- 1834
: 1838 1 -5 The
: 1840 2 -3  fire
: 1844 2 -5  be
: 1848 2 -7 neath
: 1852 2 -9  my
: 1856 8 -9  feet
: 1866 2 -9  is
: 1870 2 -9  burn
: 1874 6 -7 ~
: 1882 2 -5 ing
: 1886 10 -5  bright
- 1898
: 1901 1 -5 The
: 1903 2 -3  way
: 1907 2 -5  that
: 1911 2 -7  I
: 1915 2 -9  been
: 1919 8 -9  hol
: 1929 2 -9 din'
: 1933 4 -7  on
: 1939 6 -5  so
* 1947 4 -5  tight
* 1953 2 -7 ~
* 1957 2 -9 ~
- 1961
: 1966 1 -5 With
: 1968 2 -3  no
: 1972 2 -5 thing
: 1976 2 -7  in
: 1980 2 -9  be
* 1984 8 -7 tween
- 1994
: 2044 2 0 The
: 2048 2 3  sto
: 2052 2 3 ry
: 2056 2 3  of
: 2060 2 3  my
: 2064 8 7  life
- 2074
: 2076 2 3 I
: 2080 6 3  take
: 2088 4 3  her
* 2094 10 7  home
- 2106
: 2108 4 3 I
: 2114 4 3  drive
: 2120 4 3  all
* 2126 8 8  night
- 2136
: 2140 2 3 To
: 2144 6 3  keep
: 2152 4 3  her
* 2158 4 8  warm
* 2164 4 7 ~
- 2169
: 2170 2 7 And
: 2174 2 7  time
: 2178 2 5 ~
: 2182 2 3 ~
- 2186
: 2204 4 3 Is
: 2210 4 8  fro
: 2216 4 7 ~
: 2222 4 8 ~
: 2228 2 7 ~
: 2232 2 8 ~
: 2236 2 7 ~
: 2240 2 7 zen
: 2244 2 5 ~
: 2248 2 3 ~
- 2252
: 2268 2 3 The
: 2272 2 3  sto
: 2276 2 3 ry
: 2280 2 3  of,
- 2283
: 2284 2 3 The
: 2288 2 3  sto
: 2292 2 3 ry
: 2296 2 3  of
- 2299
: 2300 2 0 The
: 2304 2 3  sto
: 2308 2 3 ry
: 2312 2 3  of
: 2316 2 3  my
: 2320 8 7  life
- 2330
: 2332 2 3 I
: 2336 4 3  give
: 2342 4 3  her
: 2348 6 7  hope
- 2356
: 2364 2 3 I
: 2368 4 3  spend
: 2374 4 3  her
: 2380 8 8  love
- 2390
: 2396 2 3 Un
: 2400 4 3 til
: 2406 6 3  she's
: 2414 4 8  broke
: 2420 4 7 ~
* 2426 4 7  in
* 2432 4 7 side
* 2438 2 5 ~
* 2442 2 3 ~
- 2446
: 2476 2 3 The
: 2480 2 8  sto
: 2484 2 8 ry
: 2488 2 8  of
: 2492 4 8  my
: 2498 4 7  life
: 2504 2 5 ~
: 2508 2 3 ~
- 2512
: 2548 2 -2 And
: 2552 4 3  I
: 2558 2 3  been
: 2562 4 3  wait
: 2568 2 3 ing
: 2572 8 3  for
: 2582 6 3  this
: 2590 2 3  time
: 2594 6 0 ~
: 2604 2 0  to
: 2608 6 3  come
* 2616 4 5  a
* 2622 22 5 round
- 2646
: 2678 2 0 But
: 2682 2 3  ba
: 2686 2 0 by
: 2690 2 3  run
: 2694 6 0 ning
: 2702 4 3  af
: 2708 6 0 ter
: 2716 2 3  you
: 2720 2 0 ~
: 2730 2 0  is
: 2734 2 0  like
: 2738 2 3  chas
: 2742 4 3 ing
: 2748 2 5  the
* 2752 26 5  clouds
* 2780 4 7 ~
- 2786
: 2812 2 -12 The
: 2816 2 -9  sto
: 2820 2 -9 ry
: 2824 2 -9  of
: 2828 2 -9  my
: 2832 10 -5  life
- 2843
: 2844 2 -9 I
: 2848 6 -9  take
: 2856 2 -9  her
: 2860 8 -5  home
- 2870
: 2876 2 -9 I
: 2880 4 -9  drive
: 2886 6 -9  all
: 2894 6 -4  night
- 2902
: 2908 2 -9 To
: 2912 4 -9  keep
: 2918 6 -9  her
: 2926 8 -4  warm
- 2935
* 2936 6 -5 And
* 2944 2 -5  time
* 2948 2 -7 ~
* 2952 2 -9 ~
- 2956
* 2972 4 -9 Is
* 2978 4 -4  fro
* 2984 4 -5 ~
* 2990 4 -4 ~
* 2996 2 -5 ~
* 3000 2 -4 ~
* 3004 2 -5 ~
* 3008 2 -5 zen
* 3012 2 -7 ~
* 3016 2 -9 ~
- 3020
: 3068 2 3 The
: 3072 2 3  sto
: 3076 2 3 ry
: 3080 2 3  of
: 3084 2 3  my
: 3088 8 7  life
- 3098
: 3100 2 3 I
: 3104 4 3  give
: 3110 4 3  her
: 3116 6 7  hope
- 3124
* 3130 2 3 I
* 3134 6 3  spend
* 3142 4 3  her
* 3148 8 8  love
- 3158
: 3164 2 3 Un
: 3168 4 3 til
: 3174 6 3  she's
* 3182 4 8  broke
: 3188 4 7 ~
: 3194 4 7  in
: 3200 4 7 side
: 3206 2 5 ~
: 3210 2 3 ~
- 3214
: 3244 2 3 The
: 3248 2 8  sto
: 3252 2 8 ry
: 3256 2 8  of
: 3260 4 8  my
: 3266 4 7  life
: 3272 2 5 ~
: 3276 2 3 ~
- 3280
* 3308 2 3 The
* 3312 2 3  sto
* 3316 2 3 ry
* 3320 2 3  of
* 3324 6 3  my
* 3332 4 5  life
* 3338 32 7 ~
* 3372 4 5 ~
* 3378 4 3 ~
* 3384 4 2 ~
* 3390 10 0 ~
- 3402
: 3436 2 3 The
: 3440 2 3  sto
: 3444 2 3 ry
: 3448 2 3  of
: 3452 4 3  my
: 3458 4 5  life
: 3464 34 7 ~
: 3500 4 5 ~
: 3506 4 3 ~
: 3512 4 2 ~
: 3518 10 0 ~
- 3530
* 3564 2 -5 The
* 3568 4 0  sto
* 3574 4 -2 ry
* 3580 2 -2  of
* 3584 4 -5  my
* 3590 2 -7 ~
* 3594 14 -9  life
E