#TITLE:Fireflies
#ARTIST:Owl City
#MP3:Owl City - Fireflies.mp3
#VIDEO:Owl City - Fireflies.mp4
#COVER:Owl City - Fireflies.jpg
#BPM:270.05
#GAP:25710
#ENCODING:UTF8
#LANGUAGE:English
#GENRE:Pop
: 0 2 10 You
: 3 4 17  would
: 9 4 17  not
: 15 2 15  be
: 18 4 17 lieve
: 24 4 15  your
: 30 9 10  eyes
- 41
: 48 2 10 If
: 51 4 12  ten
: 57 2 12  mi
: 60 3 10 llion
: 66 4 12  fi
: 72 4 15 re
: 79 9 17 flies
- 90
* 96 5 19 Lit
: 103 4 17  up
: 109 2 15  the
: 112 4 10  world
- 117
: 117 2 10 As
: 120 3 10  I
: 126 2 17  fell
: 129 3 15  a
: 135 9 12 sleep
- 146
: 192 2 10 Cause
: 195 4 17  they
: 201 3 17  fill
: 207 2 15  the
: 210 4 17  o
: 216 3 15 pen
: 222 7 10  air
- 231
: 237 2 10 And
: 240 3 12  leave
: 246 3 12  tear
: 252 4 10 drops
: 258 2 12  e
: 261 3 15 very
: 267 5 17 where
- 274
: 276 2 10 You'd
: 279 3 10  think
: 285 3 19  me
: 291 4 17  rude
- 296
: 297 3 15 But
: 303 3 10  I
: 309 2 10  would
: 312 3 19  just
: 318 3 17  stand
* 324 6 12  and
: 342 9 15  stare
- 353
: 384 4 19 I'd
: 390 3 17  like
: 396 2 15  to
: 399 4 22  make
: 406 6 19  my
: 414 3 17 self
: 421 2 15  be
: 424 21 17 lieve
- 447
: 456 3 10 That
: 462 4 15  pla
: 468 2 14 net
: 472 17 12  earth
- 491
: 498 7 10 Turns
: 522 16 14  slow
: 546 10 12 ly
- 558
: 567 2 10 It's
: 570 3 12  hard
: 576 2 15  to
: 579 4 15  say
- 584
: 585 2 15 That
: 588 3 19  I'd
: 594 2 17  ra
: 597 3 15 ther
: 606 4 10  stay
: 612 2 10  a
: 618 4 12 wake
- 623
: 625 2 10 When
: 628 5 15  I'm
: 636 2 17  a
: 642 7 12 sleep
- 651
: 663 2 10 Cause
: 666 4 12  e
: 672 3 15 very
: 678 4 15 thing
- 683
: 684 3 19 Is
: 690 2 17  ne
: 693 2 15 ver
: 696 6 10  as
- 703
: 705 2 15 It
: 711 2 15  see
* 714 20 17 ~
: 735 2 15 ~
: 738 6 12 ~ms
- 746
: 768 2 10 Cause
: 771 3 17  I'd
: 777 3 17  get
: 783 2 15  a
: 786 4 17  thou
: 792 4 15 sand
: 798 7 10  hugs
- 807
: 816 2 10 From
: 819 4 12  ten
: 825 2 12  thou
: 828 3 10 sand
: 834 4 12  light
: 840 3 15 ning
: 846 7 17  bugs
- 855
: 861 2 10 As
* 864 3 19  they
: 870 4 17  try
: 876 2 15  to
: 879 4 10  teach
: 885 6 19  me
- 892
: 894 4 17 How
: 900 2 15  to
: 904 9 12  dance
- 915
: 960 2 10 A
: 963 3 17  fox
: 969 4 17 trot
: 975 2 15  a
: 978 3 17 bove
: 984 3 15  my
: 990 8 10  head
- 1000
: 1008 2 10 A
: 1011 3 12  sock
: 1017 3 12  hop
: 1023 2 10  be
: 1026 3 12 neath
: 1032 3 15  my
: 1038 5 17  bed
- 1044
: 1044 2 10 A
: 1047 3 10  dis
: 1053 4 19 co
: 1059 2 17  ba
: 1062 5 15 ~ll
- 1068
: 1069 2 12 Is
: 1072 3 10  just
: 1078 2 10  han
: 1081 3 19 ging
* 1086 4 17  by
: 1093 2 12  a
: 1098 6 15  thread
- 1106
: 1152 4 19 I'd
: 1158 3 17  like
: 1164 2 15  to
: 1167 5 22  make
: 1174 4 19  my
: 1182 3 17 self
: 1188 2 15  be
: 1194 16 17 lieve
- 1212
: 1224 4 10 That
: 1230 4 15  pla
: 1236 2 14 net
* 1240 20 12  earth
- 1262
: 1267 12 10 Turns
: 1290 18 14  slow
: 1314 11 12 ly
- 1327
: 1335 2 10 It's
: 1338 4 12  hard
: 1344 2 10  to
: 1347 5 15  say
- 1353
: 1353 2 12 That
: 1356 4 19  I'd
: 1362 2 17  ra
: 1366 5 15 ther
: 1374 4 10  stay
: 1380 3 10  a
: 1386 4 12 wake
- 1391
: 1392 2 10 When
: 1396 5 15  I'm
: 1404 2 17  a
: 1410 8 12 sleep
- 1420
: 1432 2 10 Cause
: 1435 4 12  e
: 1441 3 15 very
: 1447 5 15 thing
- 1452
: 1452 4 19 Is
: 1458 2 17  ne
: 1461 2 15 ver
* 1464 8 10  as
: 1474 3 15  it
: 1479 2 15  see
: 1482 20 17 ~ms
- 1504
: 1509 2 10 When
: 1512 4 19  I
: 1518 4 17  fall
: 1524 2 15  a
: 1530 11 15 sleep
- 1543
: 1585 3 10 Leave
: 1591 3 17  my
: 1596 4 15  door
: 1602 2 17  o
: 1606 4 15 pen
: 1615 3 17  just
: 1620 2 15  a
: 1625 9 12  crack
- 1636
: 1678 2 10 Cause
: 1681 3 17  I
: 1686 3 17  feel
: 1692 3 15  like
: 1698 3 17  such
: 1702 3 15  an
: 1706 2 10  in
: 1710 4 17 so
* 1716 2 19 mni
: 1720 7 15 ac
- 1729
: 1776 3 17 Why
: 1782 2 17  do
: 1785 4 15  I
: 1792 4 17  ti
: 1798 3 15 re
: 1804 2 10  of
: 1807 3 17  coun
: 1812 3 15 ting
: 1818 7 12  sheep
- 1827
: 1870 2 10 When
: 1873 3 17  I'm
: 1878 4 17  far
: 1885 3 15  too
: 1890 3 17  tir
: 1894 3 15 ed
: 1899 2 10  to
: 1902 3 17  fall
: 1908 3 19  a
: 1914 5 15 sleep
- 1921
: 1968 2 10 To
* 1971 4 17  ten
: 1977 2 17  mi
: 1980 3 15 llion
: 1986 4 17  fi
: 1992 3 15 re
: 1998 10 10 flies
- 2010
: 2016 2 8 I'm
: 2019 4 12  weird
: 2025 2 12  cause
: 2028 3 10  I
: 2034 4 12  hate
: 2040 3 15  good
: 2046 7 17 byes
- 2055
: 2061 2 10 I
: 2064 3 19  got
: 2070 3 17  mis
: 2076 2 15 ty
: 2079 4 10  eyes
- 2084
: 2085 2 10 As
: 2088 3 10  they
* 2094 5 17  said
: 2103 5 15  fare
: 2112 12 12 well
- 2126
: 2157 2 10 But
: 2160 4 17  I'll
: 2166 4 17  know
: 2172 3 15  where
: 2178 3 17  se
: 2182 2 15 veral
: 2188 9 10  are
- 2199
: 2205 2 8 If
: 2208 3 12  my
: 2214 3 12  dreams
: 2220 4 10  get
: 2226 4 12  real
: 2233 2 15  bi
: 2236 6 17 zarre
- 2243
: 2244 2 10 Cause
: 2247 4 10  I'd
: 2253 4 10  save
: 2260 2 19  a
: 2263 3 17  few
- 2267
: 2268 2 15 And
: 2271 4 10  I'd
: 2277 3 10  keep
: 2284 2 19  them
: 2287 2 17  in
: 2290 3 12  a
: 2296 9 15  jar
- 2307
: 2352 4 19 I'd
: 2358 3 17  like
: 2364 2 15  to
* 2367 5 22  make
: 2374 4 19  my
: 2382 3 17 self
: 2388 2 15  be
: 2394 16 17 lieve
- 2412
: 2424 4 10 That
: 2430 4 15  pla
: 2436 2 14 net
: 2440 20 12  earth
- 2462
: 2467 12 10 Turns
* 2490 18 14  slow
: 2514 11 12 ly
- 2527
: 2535 2 10 It's
: 2538 4 12  hard
: 2544 2 10  to
: 2547 5 15  say
- 2553
: 2553 2 12 That
: 2556 4 19  I'd
: 2562 2 17  ra
: 2566 5 15 ther
: 2574 4 10  stay
: 2580 3 10  a
: 2586 4 12 wake
- 2591
: 2592 2 10 When
: 2596 4 15  I'm
: 2604 2 17  a
: 2610 8 12 sleep
- 2620
: 2632 2 10 Cause
: 2635 4 12  e
: 2641 3 15 very
: 2647 5 15 thing
- 2652
: 2652 4 19 Is
: 2658 2 17  ne
: 2661 2 15 ver
: 2664 8 10  as
: 2674 3 15  it
: 2679 2 15  see
* 2682 20 17 ~ms
- 2704
: 2737 3 19 I'd
: 2742 3 17  like
: 2748 2 15  to
: 2751 5 22  make
: 2758 4 19  my
: 2766 3 17 self
: 2772 2 15  be
: 2778 16 17 lieve
- 2796
: 2808 4 10 That
: 2814 4 15  pla
: 2820 2 14 net
: 2824 20 12  earth
- 2846
: 2851 12 10 Turns
: 2874 18 14  slow
: 2898 11 12 ly
- 2911
: 2919 2 10 It's
: 2922 4 12  hard
: 2928 2 10  to
: 2931 5 15  say
- 2937
: 2937 2 12 That
: 2940 4 19  I'd
: 2946 2 17  ra
: 2950 5 15 ther
: 2958 4 10  stay
: 2965 3 10  a
: 2970 4 12 wake
- 2975
: 2976 2 10 When
: 2980 5 15  I'm
: 2988 2 17  a
* 2994 8 12 sleep
- 3004
: 3016 2 10 Cause
: 3019 4 12  e
: 3025 3 15 very
: 3031 5 15 thing
- 3036
: 3036 4 19 Is
: 3042 2 17  ne
: 3045 2 15 ver
: 3048 8 10  as
: 3058 3 15  it
: 3063 2 15  see
: 3066 20 17 ~ms
- 3088
: 3093 2 10 When
: 3096 4 19  I
: 3102 4 17  fall
: 3108 2 15  a
: 3114 5 15 sleep
- 3120
: 3121 4 19 I'd
: 3127 3 17  like
: 3133 2 15  to
: 3136 4 22  make
: 3142 4 19  my
: 3151 3 17 self
: 3157 2 15  be
* 3160 19 17 lieve
- 3181
: 3193 3 10 That
: 3199 4 15  pla
: 3205 2 14 net
: 3209 18 12  earth
- 3229
: 3235 9 10 Turns
: 3259 17 14  slow
: 3283 9 12 ly
- 3294
: 3304 2 10 It's
: 3307 4 12  hard
: 3313 2 12  to
: 3316 4 15  say
- 3321
: 3322 2 12 That
: 3325 4 19  I'd
: 3331 2 17  ra
: 3335 4 15 ther
: 3343 4 10  stay
: 3349 2 10  a
: 3354 4 12 wake
- 3359
: 3361 2 10 When
: 3364 5 15  I'm
: 3373 2 17  a
* 3379 7 19 sleep
- 3388
: 3400 2 10 Be
: 3403 3 12 cause
: 3409 3 15  my
: 3415 6 15  dreams
- 3422
: 3424 2 19 Are
: 3427 3 17  burs
: 3433 3 15 ting
: 3438 4 10  at
: 3445 2 15  the
: 3450 18 17  seems
E