#TITLE:Billy Don’t Be A Hero
#ARTIST:Paper Lace
#MP3:Paper Lace - Billy Don?t Be A Hero.mp3
#VIDEO:Paper Lace - Billy Don?t Be A Hero.mp4
#COVER:Paper Lace - Billy Don?t Be A Hero.jpg
#BPM:231.4
#GAP:30700
#ENCODING:UTF8
: 0 2 2 The
: 4 2 2  mar
: 8 2 2 ching
: 12 3 2  ba
: 17 2 -3 ~nd
: 20 2 -3  came
: 24 6 -3  down
: 32 2 2  a
: 36 5 2 long
: 44 4 4  Main
: 51 3 2  Street
- 56
: 64 2 0 The
: 68 2 0  sold
: 72 2 0 ier
: 76 5 0  blues
: 84 3 -5  fell
: 89 6 -5  in
: 97 2 0  be
: 100 6 0 hind
- 108
: 130 2 2 I
: 134 2 2  looked
: 138 2 2  a
: 142 2 2  cro
: 145 2 -3  ~ss
: 149 3 -3  and
: 154 6 -3  there
: 162 2 2  I
: 166 3 2  saw
: 173 7 4  Bil
: 182 3 2 ly
- 187
: 194 2 0 Wait
: 198 2 0 ing
: 202 2 0  to
: 206 3 0  go
: 211 2 -5 ~
: 214 2 -5  and
: 218 6 -5  join
: 226 2 0  the
: 230 5 0  line
- 237
: 259 2 9 And
: 263 2 7  with
: 266 2 5  her
: 270 3 5  hea
: 274 2 2 ~d
: 279 2 2  up
: 283 4 0 on
: 291 3 -1  his
: 298 7 -3  shoul
: 307 5 -1 der
- 314
: 323 3 9 His
: 328 2 7  young
: 331 2 5  and
: 334 4 4  love
: 339 3 0 ~
: 343 2 0 ly
: 348 4 4  Fi
: 356 5 2 an
: 363 8 2 cee
- 373
: 387 3 2 From
: 391 2 2  where
: 395 2 2  I
: 399 3 2  stoo
: 404 2 -3 ~d
: 408 2 -3  I
: 412 5 -3  saw
: 419 3 2  she
: 424 3 2  was
: 430 8 4  cry
: 440 6 2 in'
- 448
: 452 2 9 And
: 456 2 7  through
: 460 2 5  her
: 464 2 4  tea
: 468 2 0 ~rs
: 472 2 0  I
: 476 6 4  heard
: 484 2 2  her
: 487 6 2  say
- 495
* 512 4 4 Bil
* 519 2 4 ly
* 527 2 4  don't
* 531 2 2  be
* 535 2 0  a
* 540 6 4  he
* 550 5 4 ro
- 557
: 559 2 4 Don't
: 563 2 5  be
: 567 2 7  a
: 570 4 7  foo
: 575 2 5 ~l
: 579 2 5  with
: 583 2 4  your
* 586 2 5  li
* 590 1 2 ~
* 593 7 2 fe
- 602
: 638 5 5 Bil
: 646 2 5 ly
: 653 2 5  don't
: 657 2 4  be
: 661 2 2  a
: 665 9 5  he
: 677 3 5 ro
- 682
: 685 2 5 Come
: 689 2 7  back
: 693 2 9  and
: 697 5 9  make
: 705 3 7  me
: 710 2 7  your
* 714 2 7  wi
* 717 1 6 ~
* 719 4 4 fe
- 725
: 753 2 4 And
: 757 2 4  as
: 761 8 7  Bil
: 772 2 7 ly
: 777 5 7  start
: 785 2 9 ed
: 789 2 4  to
* 793 4 9  g
* 799 3 7 o
- 804
: 815 3 5 She
: 820 3 7  said
- 825
: 827 6 9 Keep
: 835 3 9  your
: 840 4 9  pret
: 847 2 7 ty
: 852 4 5  head
* 859 15 8  l
* 876 7 7 o
* 885 5 5 w
- 891
: 893 5 4 Bil
: 900 3 4 ly
: 908 2 4  don't
: 913 2 5  be
: 917 2 4  a
: 921 4 4  he
: 928 4 2 ro
- 934
: 940 5 5 Come
: 947 3 4  back
: 952 3 2  to
* 959 3 2  me
* 963 2 2 ~
* 966 4 0 ~
- 972
: 1088 2 2 The
: 1092 2 2  sold
: 1096 2 2 ier
: 1100 6 2  blues
: 1108 2 -3  were
: 1112 6 -5  trapped
: 1121 6 2  on
: 1129 2 2  a
: 1133 5 4  hill
: 1140 3 2 side
: 1144 3 1 ~
- 1149
: 1153 2 0 The
: 1157 2 0  bat
: 1161 2 0 tle
: 1165 5 0  rag
: 1173 2 -5 in'
: 1178 6 -5  all
: 1186 2 0  a
: 1189 6 0 round
- 1197
: 1218 2 2 The
: 1222 2 2  Ser
: 1226 2 2 gent
: 1230 6 2  cried
: 1238 2 -3  we've
: 1242 6 -3  got
: 1250 3 2 ta
: 1255 5 2  hang
: 1263 4 4  on
: 1270 3 2  boys
: 1275 3 0 ~
- 1280
: 1283 2 0 We
: 1287 2 0  got
: 1291 2 0 ta
: 1295 4 0  hold
: 1302 2 -5  this
: 1306 6 -5  piece
: 1314 2 0  of
: 1318 7 0  ground
- 1327
: 1347 2 9 I
: 1351 2 7  need
: 1354 2 5  a
: 1358 3 4  vo
: 1362 2 2 ~l
: 1366 2 2 un
: 1370 4 0 teer
: 1378 4 -1  to
: 1385 5 -3  ride
: 1395 3 -1  out
- 1400
: 1410 2 9 And
: 1414 2 7  bring
: 1418 2 5  us
: 1422 3 4  back
: 1429 4 0  some
* 1435 4 4  ex
* 1441 2 2 tra
* 1445 6 2  men
- 1453
: 1474 2 2 And
: 1478 2 2  Bil
: 1482 2 2 ly's
: 1486 3 2  ha
: 1491 2 -3 ~nd
: 1495 2 -3  was
: 1499 3 -3  up
: 1507 5 2  in
: 1515 2 2  a
: 1519 5 4  mo
: 1526 3 2 ment
- 1531
: 1539 2 9 For
: 1542 2 7 get
: 1546 3 5 ting
: 1551 2 4  all
: 1554 2 2 ~
: 1558 2 0  the
: 1562 5 4  words
: 1569 2 2  she
: 1573 8 2  said
- 1583
: 1593 3 0 She
: 1598 9 3  sai
: 1609 3 2 ~d
- 1614
: 1629 6 5 Bil
: 1637 3 5 ly
: 1645 3 5  don't
: 1650 2 3  be
: 1654 2 1  a
: 1658 7 5  he
: 1669 3 5 ro
- 1674
: 1677 2 5 Don't
: 1681 2 6  be
: 1685 2 8  a
: 1689 2 5  foo
: 1693 2 6 ~l
: 1697 2 6  with
: 1701 2 5  your
* 1705 3 6  li
* 1710 1 3 ~
* 1713 12 3 fe
- 1727
: 1758 4 6 Bil
: 1764 3 6 ly
: 1773 2 6 don't
: 1777 2 5  be
: 1781 2 3  a
: 1785 8 6  he
: 1796 3 6 ro
- 1801
: 1805 2 6 Come
: 1809 2 8  back
: 1813 2 10  and
: 1817 5 10  make
: 1825 3 8  me
: 1830 2 8  your
* 1834 2 8  wi
* 1837 1 6 ~
* 1839 4 5 fe
- 1845
: 1872 2 5 And
: 1876 2 5  as
: 1880 8 8  Bil
: 1891 2 8 ly
: 1896 5 8  start
: 1904 2 10 ed
: 1908 2 5  to
* 1912 4 10  g
* 1918 3 8 o
- 1923
: 1935 2 6 She
: 1939 5 8  said
- 1945
: 1947 6 10 Keep
: 1955 3 10  your
: 1960 5 10  pret
: 1967 3 8 ty
: 1972 4 6  head
* 1978 5 8  l
* 1985 9 9 o
* 1997 4 8 w
* 2004 4 6 ~
- 2010
: 2014 4 5 Bil
: 2020 3 5 ly
: 2029 2 5  don't
: 2033 2 6  be
: 2037 2 5  a
: 2040 3 5  he
: 2044 2 3 ~
: 2048 3 3 ro
- 2053
: 2061 4 6 Come
: 2067 3 5  back
: 2073 3 3  to
* 2080 2 3  m
* 2083 2 3 e
* 2086 2 1 ~
- 2090
: 2146 3 3 I
: 2151 3 3  heard
: 2156 2 3  his
: 2161 3 3  Fi
: 2166 2 -2 an
: 2171 5 -2 cee
: 2179 5 3  got
: 2187 2 3  a
: 2191 4 5  let
: 2197 3 3 ter
- 2202
: 2212 2 1 That
: 2216 4 1  told
: 2223 3 1  how
: 2229 3 1  Bil
: 2234 2 -4 ly
: 2238 5 -4  died
: 2245 2 1  that
: 2251 2 1  day
: 2255 2 -2 ~
- 2259
: 2279 2 3 The
: 2282 2 3  let
: 2286 2 1 ter
: 2291 8 3  said
: 2301 3 -2  that
: 2306 4 -2  he
: 2313 4 3  was
: 2320 2 3  a
: 2323 5 5  he
: 2330 3 3 ro
- 2335
: 2344 3 -4 She
: 2349 3 1  should
: 2354 2 1  be
: 2359 5 0  proud
: 2368 2 -4  he
: 2373 4 -4  died
: 2379 2 1  that
: 2383 7 1  way
- 2392
: 2412 3 1 I
: 2417 3 1  heard
: 2422 3 1  she
: 2427 6 1  threw
: 2436 2 -4  the
: 2440 6 -2  let
: 2448 7 1 ter
- 2457
* 2468 3 0 A
* 2473 27 1 way
E