#TITLE:Hos Dig Är Jag Underbar
#ARTIST:Patrik Isaksson
#MP3:Patrik Isaksson - Hos Dig Är Jag Underbar.mp3
#COVER:Patrik Isaksson - Hos Dig Är Jag Underbar [CO].jpg
#BACKGROUND:Patrik Isaksson - Hos Dig Är Jag Underbar [BG].jpg
#EDITION:Singstar - Svenska Hits
#LANGUAGE:Swedish
#BPM:267,72
#GAP:24484,5
: 0 3 56 Hos 
: 4 3 56 dig 
: 8 3 56 är 
: 12 5 57 jag 
: 17 9 56 stark 
- 36
: 64 3 56 Hos 
: 68 3 56 dig 
: 71 4 57 är 
: 76 2 57 jag 
: 79 11 56 un
: 94 8 52 der
: 107 5 49 bar 
- 119
: 127 2 56 Hos 
: 130 3 56 dig 
: 134 3 56 har 
: 138 2 57 jag 
: 142 8 56 allt 
- 160
: 190 3 52 Där 
: 193 3 56 vĺ
: 197 3 56 gar 
: 201 4 57 jag 
: 205 8 56 stan
: 220 9 52 na 
: 229 6 54 kvar 
- 240
: 245 2 52 Men 
: 248 2 52 när 
: 252 3 54 du 
: 256 3 56 in
: 260 4 57 te 
: 264 14 56 ser 
- 288
: 311 3 52 När 
: 315 3 54 du 
: 319 4 56 in
: 323 4 57 te 
: 327 9 56 rör 
: 343 10 51 mig 
- 362
: 371 3 52 Kan 
: 375 3 52 du 
: 379 3 54 ha 
: 383 2 56 hit
: 386 3 57 tat 
: 390 4 59 nĺn 
* 395 11 59 an
: 410 6 52 nan 
- 422
: 429 10 61 Säg 
: 441 6 63 nu 
: 449 4 64 hur 
: 453 4 66 du 
: 457 7 64 ser 
: 466 11 61 mig 
- 483
: 489 3 54 Jag 
: 493 8 61 un
: 505 5 63 drar 
: 512 4 64 om 
* 516 9 64 du 
- 535
: 548 2 64 Ha
: 552 2 64 de 
: 556 3 64 kraft 
: 562 4 61 ĺ 
: 568 6 63 ge 
: 575 7 64 dig 
: 583 12 63 av 
- 603
: 611 3 63 El
: 615 3 63 ler 
: 619 3 63 mod 
: 625 4 59 ĺ 
: 631 6 61 stan
: 638 7 63 na 
: 646 12 64 kvar 
- 666
: 674 3 64 Vĺ
: 678 3 64 gat 
: 682 5 64 byg
: 688 4 61 ga 
: 693 8 63 pĺ 
: 701 6 64 nĺt 
: 709 4 64 nytt 
: 713 10 66 - 
- 732
: 741 3 56 Jag 
: 745 8 68 un
: 756 6 66 drar 
: 764 6 63 om 
: 772 11 64 du 
- 789
: 796 3 61 Har 
: 800 3 68 kun
: 804 3 68 nat 
: 808 5 68 ge 
: 816 3 64 och 
: 820 4 64 kun
: 827 6 61 nat 
* 835 12 66 ta 
- 855
: 863 4 64 Kun
: 867 3 66 nat 
: 871 5 68 öp
: 878 4 66 pna 
- 882
: 883 6 64 Dig 
: 890 7 63 som 
: 898 2 64 jag 
: 900 2 63 - 
: 902 11 61 - 
- 919
: 926 2 61 Vĺ
: 930 2 61 gat 
: 934 7 68 va
: 942 3 66 ra 
- 945
: 946 7 64 Här 
: 954 5 63 och 
: 962 2 64 nu 
: 964 2 63 - 
: 966 9 61 - 
- 980
: 985 3 61 För 
: 989 3 61 allt 
: 993 3 61 jag 
: 997 6 68 krä
: 1005 3 66 ver 
- 1008
: 1009 7 64 Är 
: 1017 5 63 ett 
: 1025 2 64 svar 
: 1027 2 63 - 
: 1029 14 61 - 
- 1053
: 1260 3 47 När 
: 1264 3 56 jag 
: 1268 3 56 tag
: 1272 3 57 it 
: 1276 7 56 slut 
- 1293
: 1323 3 52 När 
: 1327 2 56 jag 
: 1331 3 56 in
: 1335 4 57 te 
: 1340 10 56 or
: 1355 7 52 kar 
: 1367 4 49 mer 
- 1379
: 1388 2 56 Om 
: 1391 2 56 räds
: 1394 3 56 lan 
: 1398 3 57 tar 
: 1402 9 56 vid 
- 1421
: 1449 3 56 Den 
: 1453 3 56 räds
: 1457 4 56 lan 
: 1461 4 57 för
: 1465 10 56 stĺr 
* 1481 12 52 mig 
: 1493 5 54 mer 
- 1501
: 1504 3 47 Dĺ 
: 1508 3 52 kan 
: 1512 3 54 jag 
: 1516 3 56 in
: 1520 3 57 te 
: 1524 9 56 se 
- 1543
: 1571 3 52 Kan 
: 1575 3 54 jag 
: 1579 3 56 in
: 1583 4 57 te 
: 1588 8 56 rö
: 1603 3 51 ra 
: 1607 6 51 dig 
- 1622
: 1631 3 52 Har 
: 1635 2 52 jag 
: 1638 4 54 dĺ 
: 1642 3 56 hit
: 1646 4 57 tat 
: 1650 3 59 nĺn 
: 1654 13 59 an
: 1670 5 52 nan 
- 1682
: 1689 11 61 Säg 
: 1701 6 63 nu 
: 1709 4 64 hur 
: 1713 3 66 du 
: 1718 5 64 ser 
: 1726 11 61 mig 
- 1742
: 1748 3 54 Jag 
: 1753 10 61 un
: 1765 6 63 drar 
: 1771 4 64 om 
: 1776 9 64 du 
- 1795
: 1808 3 64 Ha
: 1812 2 64 de 
: 1816 3 64 kraft 
: 1822 3 61 ĺ 
: 1827 5 63 ge 
: 1835 5 64 dig 
* 1843 11 63 av 
- 1862
: 1870 3 63 El
: 1874 3 63 ler 
: 1878 4 63 mod 
: 1883 5 59 ĺ 
: 1890 4 61 stan
: 1897 6 63 na 
: 1906 12 64 kvar 
- 1925
: 1933 3 64 Vĺ
: 1937 3 64 gat 
: 1941 5 64 byg
: 1947 5 61 ga 
: 1953 7 63 pĺ 
: 1961 7 64 nĺt 
: 1969 4 64 nytt 
: 1973 9 66 - 
- 1991
: 2000 3 56 Jag 
: 2005 8 68 un
: 2016 6 66 drar 
: 2024 6 63 om 
: 2032 11 64 du 
- 2049
: 2056 3 61 Har 
: 2060 3 68 kun
: 2064 3 68 nat 
: 2068 6 68 ge 
: 2075 3 64 och 
: 2079 5 64 kun
: 2087 7 61 nat 
: 2095 12 66 ta 
- 2114
: 2122 3 64 Kun
: 2126 3 66 nat 
: 2130 5 68 öp
: 2138 4 66 pna 
- 2142
: 2143 6 64 Dig 
: 2151 4 63 som 
: 2158 2 64 jag 
: 2160 2 63 - 
: 2162 13 61 - 
- 2180
: 2186 3 61 Vĺ
: 2190 3 61 gat 
: 2194 6 68 va
: 2201 3 66 ra 
- 2204
: 2205 7 64 Här 
: 2213 4 63 och 
: 2221 2 64 nu 
: 2223 2 63 - 
: 2225 9 61 - 
- 2239
: 2244 3 61 För 
: 2248 3 61 allt 
: 2252 3 61 jag 
: 2256 6 68 krä
: 2264 3 66 ver 
- 2267
: 2268 6 64 Är 
: 2276 5 63 ett 
: 2284 2 64 svar 
: 2286 2 63 - 
: 2288 17 61 - 
- 2315
: 2724 3 56 Jag 
: 2729 6 61 un
: 2741 4 63 drar 
: 2747 3 64 om 
: 2752 9 64 du 
- 2771
: 2784 2 64 Ha
: 2788 2 64 de 
: 2792 4 64 kraft 
: 2799 4 61 ĺ 
: 2804 6 63 ge 
: 2811 5 64 dig 
: 2819 12 63 av 
- 2839
: 2847 3 63 El
: 2851 3 63 ler 
: 2855 3 63 mod 
: 2860 4 59 ĺ 
: 2866 6 61 stan
: 2874 7 63 na 
* 2883 10 64 kvar 
- 2901
: 2910 3 64 Vĺ
: 2914 3 64 gat 
: 2918 4 64 byg
: 2924 4 61 ga 
- 2928
: 2930 4 63 Pĺ 
: 2937 5 64 nĺt 
: 2945 9 66 nytt 
: 2955 2 64 - 
: 2957 10 63 - 
- 2971
: 2976 4 64 Jag 
: 2981 9 68 un
: 2992 7 66 drar 
: 3001 6 63 om 
: 3009 11 64 du 
- 3026
: 3032 3 61 Har 
: 3036 3 68 kun
: 3040 3 68 nat 
: 3044 4 68 ge 
: 3052 3 64 och 
: 3056 6 64 kun
: 3064 5 61 nat 
: 3072 11 66 ta 
- 3090
: 3098 3 64 Kun
: 3102 3 66 nat 
: 3106 5 68 öp
: 3114 4 66 pna 
- 3118
: 3119 7 64 Dig 
: 3127 5 63 som 
: 3135 2 64 jag 
: 3137 2 63 - 
: 3139 12 61 - 
- 3156
: 3162 3 61 Allt 
: 3166 3 61 jag 
* 3170 7 68 krä
: 3178 3 66 ver 
- 3181
: 3182 7 64 Är 
: 3190 5 63 ett 
: 3198 8 64 svar 
: 3206 4 63 - 
: 3210 18 61 - 
- 3238
: 3418 3 56 Jag 
* 3422 8 68 un
: 3434 6 66 drar 
: 3442 6 63 om 
: 3450 11 64 du 
- 3467
: 3473 3 61 Har 
: 3477 3 68 kun
: 3481 3 68 nat 
: 3485 6 68 ge 
: 3492 2 64 och 
: 3496 6 64 kun
: 3505 7 61 nat 
: 3513 12 66 ta 
- 3532
: 3540 3 64 Kun
: 3544 3 66 nat 
: 3548 5 68 öp
: 3555 5 66 pna 
: 3560 5 64 dig 
: 3568 5 68 som 
* 3575 6 66 jag 
: 3581 2 64 - 
: 3584 4 61 - 
- 3595
: 3603 3 61 Vĺ
: 3607 3 61 gat 
: 3611 7 68 va
: 3619 3 66 ra 
- 3622
: 3623 6 64 Här 
: 3630 6 63 och 
: 3639 2 64 nu 
: 3641 2 63 - 
: 3643 9 61 - 
- 3657
: 3662 3 61 För 
: 3666 3 61 allt 
: 3670 3 61 jag 
: 3674 7 68 krä
: 3682 3 66 ver 
- 3685
: 3686 6 64 Är 
: 3693 7 63 ett 
: 3702 2 64 svar 
: 3704 2 63 - 
* 3706 30 61 - 
- 3746
: 3811 3 56 Hos 
: 3815 4 56 dig 
: 3820 3 56 är 
: 3824 3 57 jag 
: 3829 11 56 stark 
- 3850
: 3875 3 56 Hos 
: 3879 4 56 dig 
: 3884 3 56 är 
: 3889 4 57 jag 
: 3894 10 56 un
: 3908 6 52 der
: 3923 5 49 bar 
E
