#TITLE:Y Yo Sigo Aqui
#ARTIST:Paulina Rubio
#MP3:Paulina Rubio - Y Yo Sigo Aqui.mp3
#COVER:Paulina Rubio - Y Yo Sigo Aqui [CO].jpg
#BACKGROUND:Paulina Rubio - Y Yo Sigo Aqui [CO].jpg
#BPM:340
#GAP:22764,71
#ENCODING:UTF8
#LANGUAGE:Spanish
#GENRE:Pop
#EDITION:SingStar - Latino
#YEAR:2001
: 0 2 60 Tu
: 4 2 65  quí
: 7 3 65 mi
: 11 2 62 ca
: 15 3 62  con
: 20 3 60  mi
: 23 6 60  piel
- 31
: 43 3 60 Ha
: 46 2 58 cen
: 49 2 58  car
: 53 2 58 ga
: 57 2 60  po
: 63 2 60 si
: 68 8 60 ti
: 77 2 60 va
- 81
: 87 2 60 Tu
: 90 2 65  quí
: 93 3 65 mi
: 97 2 62 ca
: 101 3 62  con
: 106 3 60  mi
: 110 6 60  piel
- 118
: 129 3 60 Ha
: 133 2 58 cen
: 136 2 58  car
: 139 2 58 ga
: 143 2 60  po
: 149 2 60 si
: 154 8 60 ti
: 163 2 60 va
- 167
: 173 2 60 Y
: 177 2 60  cuan
: 180 2 60 do
: 183 3 60  me-a
: 188 3 62 cer
: 192 3 65 co-a
: 198 8 64  ti
- 208
: 216 2 64 Hay
: 219 2 67  u
: 223 2 67 na
: 226 2 67  bom
: 230 2 67 ba-ex
: 235 3 65 plo
: 240 6 69 si
: 246 3 65 ~
: 250 3 65 va
- 255
: 260 2 60 Y
: 263 2 60  cuan
: 266 2 60 do
: 269 3 60  me-a
: 274 3 62 cer
: 278 3 65 co-a
* 284 8 64  ti
- 294
: 303 2 64 Hay
: 306 2 67  u
: 309 2 67 na
: 312 2 67  bom
: 316 2 67 ba-ex
: 322 3 65 plo
: 327 6 69 si
: 333 3 65 ~
: 337 3 65 va
- 342
: 347 2 57 Tu
: 350 2 62  bo
: 353 3 65 ca
: 357 2 62  tie
: 360 3 62 ne
: 364 3 60  la
: 370 6 60  sal
- 378
: 388 3 57 Mi
: 392 4 58  cuer
: 398 4 62 po-el
: 404 2 60  a
: 409 7 60 zú
: 419 5 60 car
- 426
: 433 2 60 Tu
: 436 2 65  bo
: 439 3 65 ca
: 443 2 62  tie
: 447 3 62 ne
: 451 3 60  la
: 456 6 60  sal
- 464
: 476 3 58 Mi
: 479 4 58  cuer
: 485 5 62 po-el
: 490 2 60  a
* 495 8 60 zú
: 506 4 60 car
- 512
: 519 2 60 Y
: 522 2 60  mi
: 525 2 60  co
: 528 2 60 ra
: 533 4 62 zón
: 538 3 65  es
: 544 8 64 tá
- 554
: 563 2 67 Bus
: 568 2 67 ca
: 572 2 67  que
: 576 4 65  te
: 581 5 69  bus
: 586 4 65 ~
: 592 5 65 ca
- 599
: 604 2 60 Y
: 607 2 60  mi
: 611 2 60  co
: 614 2 60 ra
: 620 3 62 zón
: 625 3 65  es
: 630 8 64 tá
- 640
: 647 2 67 Bus
: 651 2 67 ca
: 656 2 67  que
: 662 3 65  te
: 667 6 69  bus
: 673 4 65 ~
: 679 4 65 ca
- 684
: 684 5 65 Y
: 689 2 65  yo
: 695 9 65  si
: 705 7 69 go-a
: 716 6 67 quí
- 724
: 727 2 67 Es
: 732 4 67 pe
: 737 9 67 rán
: 748 8 70 do
: 759 5 69 te-y
: 765 3 65 ~
- 769
: 769 3 65 Que
: 775 3 65  tu
: 780 8 65  dul
: 791 8 69 ce
: 802 2 70  bo
: 807 3 70 ca
: 813 3 70  rue
: 818 3 69 de
- 822
: 823 4 67 Por
: 829 3 65 ~
: 834 9 65 mi
: 846 5 65  piel
- 853
: 857 5 65 Y
: 862 2 65  yo
: 867 8 65  si
: 878 5 69 go-a
: 883 4 67 ~
: 888 6 67 quí
- 896
: 899 2 67 Es
: 904 2 67 pe
: 910 8 67 rán
: 921 7 70 do
: 931 7 69 te-y
- 940
: 942 3 65 Que
: 948 3 65  tu
: 953 8 65  dul
: 964 8 69 ce
: 974 2 70  bo
: 980 2 70 ca
: 985 3 70  rue
: 991 4 69 de
- 996
: 997 3 67 Por
: 1002 3 65 ~
: 1007 7 65 mi
: 1018 9 65  piel
- 1029
* 1040 9 65 Pen
: 1054 5 69 sa
: 1059 4 67 ~
: 1063 7 67 ré
- 1072
: 1080 2 67 Si
: 1082 2 67  que
: 1085 5 67 da-al
: 1091 2 67 gu
: 1094 3 67 na
: 1099 2 65  ma
: 1104 6 69 ne
: 1110 4 65 ~
: 1115 6 65 ra
- 1123
: 1126 10 65 Pen
: 1141 4 69 sa
: 1145 4 67 ~
: 1149 7 67 ré
- 1158
: 1164 2 67 Si
: 1169 3 67  que
: 1172 4 67 da-al
: 1177 2 67 gu
: 1180 3 67 na
: 1185 3 65  ma
: 1190 5 69 ne
: 1195 5 65 ~
: 1201 4 65 ra
- 1207
: 1209 2 60 Pa'
: 1212 2 60  que
: 1215 2 60  te
: 1220 2 60  fi
: 1223 2 62 jes
: 1229 2 65  en
: 1234 7 64  mí
- 1243
: 1249 2 67 Y-en
: 1255 2 67 ton
: 1260 2 67 ces
: 1266 2 65  me
: 1271 4 69  quie
: 1277 3 65 ~
: 1282 5 65 ras
- 1289
: 1295 2 59 Pa'
: 1298 2 60  que
: 1301 3 60  te
: 1306 2 60  fi
: 1309 3 62 jes
: 1314 3 65  en
: 1320 5 64  mí
- 1327
: 1336 2 67 Y-en
: 1341 2 67 ton
: 1347 2 67 ces
: 1353 2 65  me
: 1357 5 69  quie
: 1363 2 65 ~
: 1369 4 65 ras
- 1375
: 1509 2 67 Y-en
: 1514 2 67 ton
: 1520 3 67 ces
: 1525 3 65  me
: 1531 5 69  quie
: 1536 4 65 ~
: 1541 5 65 ras
- 1548
: 1681 2 67 Y-en
: 1687 2 67 ton
: 1692 3 67 ces
: 1698 4 65  me
: 1703 5 69  quie
: 1709 4 65 ~
: 1714 5 65 ras
- 1721
: 1727 2 60 Si-a
: 1731 2 65  ti
: 1734 3 65  te
: 1737 2 62  gus
: 1741 4 62 ta
: 1746 3 60  mor
: 1751 6 60 der
- 1759
: 1770 3 57 El
: 1773 2 58  man
: 1776 2 58 go
: 1780 2 58  bien
: 1784 3 62  ma
: 1790 2 60 du
: 1795 8 60 ri
: 1805 3 60 to
- 1810
: 1814 2 60 Si-a
: 1817 2 65  ti
: 1820 3 65  te
: 1824 2 62  gus
: 1828 3 62 ta
: 1833 3 60  mor
: 1838 6 60 der
- 1846
: 1857 3 57 El
: 1860 2 58  man
: 1863 2 58 go
: 1866 2 58  bien
: 1870 2 62  ma
: 1876 2 60 du
: 1881 8 60 ri
: 1890 2 60 to
- 1894
: 1900 2 60 Ven
: 1904 4 60  mí
: 1909 3 62 ra
: 1914 4 60 me-a
: 1920 8 64  mí
- 1930
: 1943 2 60 Ten
: 1946 3 60 go
: 1952 4 62  co
: 1957 2 60 lor
* 1962 8 65 ci
: 1973 5 65 to
- 1980
: 1986 2 60 Ven
: 1990 3 60  mí
: 1994 3 60 ra
: 2000 3 65 me-a
: 2005 10 64  mí
- 2017
: 2028 3 67 Ten
: 2033 2 67 go
: 2037 4 67  co
: 2043 2 64 lor
: 2049 5 69 ci
: 2054 5 65 ~
: 2060 6 65 to
- 2068
: 2073 2 60 Si-en
: 2077 2 65  la
: 2079 3 65  vi
: 2083 2 62 da-hay
: 2087 3 62  que-es
: 2091 3 60 co
: 2097 6 60 ger
- 2105
: 2115 3 57 Por
: 2119 4 58  mu
: 2125 4 62 chos
: 2131 2 60  ca
: 2136 7 60 mi
: 2146 5 60 nos
- 2153
: 2160 2 60 Si-en
: 2163 2 65  la
: 2166 3 65  vi
: 2170 2 62 da-hay
: 2174 3 62  que-es
: 2178 3 60 co
: 2183 6 60 ger
- 2191
: 2203 3 58 Por
: 2206 4 58  mu
: 2211 3 62 chos
: 2217 3 60  ca
: 2222 8 60 mi
: 2233 4 60 nos
- 2239
: 2246 2 60 Es
: 2248 3 60 có
: 2254 5 60 ge
: 2260 3 65 me-a
: 2265 8 64  mí
- 2275
: 2286 2 67 E
: 2292 5 67 so
: 2297 4 67  yo
: 2303 4 65  te
: 2308 5 69  pi
: 2313 4 65 ~
: 2319 5 65 do
- 2326
: 2331 2 60 Es
: 2335 3 60 có
: 2341 4 60 ge
: 2346 4 65 me-a
: 2351 8 64  mí
- 2361
: 2372 2 67 E
: 2378 4 67 so
: 2383 2 67  yo
: 2389 3 65  te
: 2394 6 69  pi
: 2400 4 65 ~
: 2406 4 65 do
- 2411
: 2411 5 65 Y
: 2416 3 65  yo
: 2422 9 65  si
: 2432 7 69 go-a
: 2443 7 67 quí
- 2452
: 2454 2 67 Es
: 2459 4 67 pe
: 2464 9 67 rán
* 2475 8 70 do
: 2486 6 69 te-y
: 2492 2 65 ~
- 2495
: 2496 3 65 Que
: 2502 3 65  tu
: 2507 8 65  dul
: 2518 8 69 ce
: 2529 2 70  bo
: 2534 3 70 ca
: 2540 3 70  rue
: 2545 3 69 de
- 2549
: 2550 4 67 Por
: 2556 3 65 ~
: 2561 9 65 mi
: 2573 5 65  piel
- 2580
: 2584 4 65 Y
: 2588 2 65  yo
: 2594 8 65  si
: 2605 5 69 go-a
: 2610 4 67 ~
: 2615 6 67 quí
- 2623
: 2626 2 67 Es
: 2631 2 67 pe
: 2637 8 67 rán
: 2648 7 70 do
: 2658 8 69 te-y
- 2667
: 2669 3 65 Que
: 2675 3 65  tu
: 2680 8 65  dul
: 2691 8 69 ce
: 2701 2 70  bo
: 2707 3 70 ca
: 2712 4 70  rue
: 2718 4 69 de
- 2723
: 2724 5 67 Por
: 2729 4 65 ~
: 2734 7 65 mi
: 2745 9 65  piel
- 2756
: 3063 2 67 Y-en
: 3069 2 67 ton
: 3074 2 67 ces
: 3079 2 65  me
: 3085 4 69  quie
: 3090 4 65 ~
: 3096 5 65 ras
- 3103
: 3112 9 65 Pen
: 3127 5 69 sa
: 3132 4 67 ~
: 3136 7 67 ré
- 3145
: 3153 2 67 Si
: 3155 2 67  que
: 3158 5 67 da-al
: 3164 2 67 gu
: 3167 3 67 na
: 3172 2 65  ma
* 3177 6 69 ne
: 3183 4 65 ~
: 3188 6 65 ra
- 3196
: 3199 10 65 Pen
: 3214 4 69 sa
: 3218 4 67 ~
: 3222 7 67 ré
- 3231
: 3238 2 67 Si
: 3242 3 67  que
: 3245 4 67 da-al
: 3250 2 67 gu
: 3253 3 67 na
: 3258 3 65  ma
: 3263 5 69 ne
: 3268 5 65 ~
: 3274 4 65 ra
- 3280
: 3282 2 60 Pa'
: 3285 2 60  que
: 3288 2 60  te
: 3293 2 60  fi
: 3296 2 62 jes
: 3302 2 65  en
: 3307 7 64  mí
- 3316
: 3322 2 67 Y-en
: 3328 2 67 ton
: 3333 2 67 ces
: 3339 2 65  me
: 3344 4 69  quie
: 3350 3 65 ~
: 3355 5 65 ras
- 3362
: 3368 2 60 Pa'
: 3371 2 60  que
: 3373 3 60  te
: 3379 2 60  fi
: 3382 3 62 jes
: 3387 3 65  en
: 3393 5 64  mí
- 3400
: 3409 2 67 Y-en
: 3414 2 67 ton
: 3420 2 67 ces
* 3426 2 65  me
: 3430 5 69  quie
: 3436 2 65 ~
: 3442 4 65 ras
- 3447
: 3448 4 65 Y
: 3452 3 65  yo
: 3458 9 65  si
: 3468 7 69 go-a
: 3479 7 67 quí
- 3488
: 3490 2 67 Es
: 3495 4 67 pe
: 3500 9 67 rán
: 3511 8 70 do
: 3522 5 69 te-y
: 3527 2 65 ~
- 3530
: 3532 3 65 Que
: 3538 3 65  tu
: 3543 8 65  dul
: 3554 8 69 ce
: 3565 2 70  bo
: 3570 3 70 ca
: 3576 3 70  rue
: 3581 3 69 de
- 3585
: 3586 4 67 Por
: 3592 3 65 ~
: 3597 9 65 mi
: 3609 5 65  piel
- 3616
: 3620 6 65 Y
: 3626 2 65  yo
: 3630 8 65  si
: 3641 5 69 go-a
: 3646 4 67 ~
: 3651 6 67 quí
- 3659
: 3662 2 67 Es
: 3667 2 67 pe
: 3673 8 67 rán
: 3684 7 70 do
: 3694 8 69 te-y
- 3703
: 3705 3 65 Que
: 3711 3 65  tu
: 3716 8 65  dul
: 3727 8 69 ce
: 3737 2 70  bo
: 3743 2 70 ca
: 3748 3 70  rue
: 3754 4 69 de
- 3759
: 3760 3 67 Por
: 3765 3 65 ~
: 3771 7 65 mi
: 3781 9 65  piel
- 3792
: 3803 9 65 Pen
: 3818 4 69 sa
: 3822 4 67 ~
: 3826 7 67 ré
- 3835
: 3843 2 67 Si
: 3846 2 67  que
: 3849 4 67 da-al
: 3854 2 67 gu
: 3857 3 67 na
: 3862 2 65  ma
: 3867 4 69 ne
: 3873 4 65 ~
: 3878 6 65 ra
- 3886
: 3889 10 65 Pen
: 3904 4 69 sa
: 3908 4 67 ~
: 3912 7 67 ré
- 3921
: 3929 2 67 Si
: 3932 3 67  que
: 3935 4 67 da-al
: 3940 2 67 gu
* 3943 3 67 na
: 3948 3 65  ma
: 3953 5 69 ne
: 3958 5 65 ~
: 3964 4 65 ra
- 3970
: 3972 2 60 Pa'
: 3975 2 60  que
: 3978 2 60  te
: 3983 2 60  fi
: 3986 2 62 jes
: 3992 2 65  en
: 3997 7 64  mí
- 4006
: 4012 2 67 Y-en
: 4018 2 67 ton
: 4023 2 67 ces
: 4029 2 65  me
: 4034 4 69  quie
: 4040 3 65 ~
: 4045 5 65 ras
- 4052
: 4059 2 60 Pa'
: 4062 2 60  que
: 4064 3 60  te
: 4069 2 60  fi
: 4072 3 62 jes
: 4077 3 65  en
: 4083 5 64  mí
- 4090
: 4099 2 67 Y-en
: 4104 2 67 ton
: 4110 2 67 ces
: 4116 2 65  me
: 4121 4 69  quie
: 4126 4 65 ~
: 4132 4 65 ras
- 4137
: 4138 4 65 Y
: 4142 3 65  yo
: 4148 9 65  si
: 4159 7 69 go-a
: 4170 7 67 quí
- 4179
: 4181 2 67 Es
: 4186 4 67 pe
: 4191 9 67 rán
: 4202 8 70 do
: 4213 6 69 te-y
: 4219 2 65 ~
- 4222
: 4223 3 65 Que
: 4229 3 65  tu
: 4234 8 65  dul
: 4245 8 69 ce
: 4256 2 70  bo
: 4261 3 70 ca
: 4267 3 70  rue
: 4272 3 69 de
- 4276
: 4277 4 67 Por
: 4283 3 65 ~
: 4288 9 65 mi
: 4300 5 65  piel
- 4307
: 4311 5 65 Y
: 4316 2 65  yo
: 4321 8 65  si
: 4332 5 69 go-a
: 4337 4 67 ~
: 4342 6 67 quí
- 4350
: 4353 2 67 Es
: 4358 2 67 pe
: 4364 8 67 rán
* 4375 7 70 do
: 4385 8 69 te-y
- 4394
: 4396 3 65 Que
: 4402 3 65  tu
: 4407 8 65  dul
: 4418 8 69 ce
: 4428 2 70  bo
: 4434 2 70 ca
: 4439 3 70  rue
: 4445 4 69 de
- 4450
: 4451 3 67 Por
: 4456 3 65 ~
: 4462 7 65 mi
: 4472 9 65  piel
- 4482
: 4483 5 65 Y
: 4488 2 65  yo
: 4494 8 65  si
: 4505 5 69 go-a
: 4510 4 67 ~
: 4515 6 67 quí
- 4523
: 4526 2 67 Es
: 4531 2 67 pe
: 4537 8 67 rán
: 4547 7 70 do
: 4558 6 69 te-y
: 4564 2 65 ~
- 4567
: 4569 3 65 Que
: 4575 3 65  tu
: 4580 8 65  dul
: 4591 8 69 ce
: 4601 2 70  bo
: 4607 2 70 ca
: 4612 3 70  rue
: 4618 4 69 de
- 4623
: 4623 3 67 Por
: 4628 3 65 ~
: 4634 7 65 mi
* 4644 9 65  piel
- 4654
: 4656 5 65 Y
: 4661 2 65  yo
: 4666 8 65  si
: 4677 5 69 go-a
: 4682 4 67 ~
: 4687 6 67 quí
- 4695
: 4698 2 67 Es
: 4703 2 67 pe
: 4709 8 67 rán
: 4720 7 70 do
: 4730 8 69 te-y
- 4739
: 4741 3 65 Que
: 4747 3 65  tu
: 4752 8 65  dul
: 4763 8 69 ce
: 4774 2 70  bo
: 4779 2 70 ca
: 4784 3 70  rue
: 4790 4 69 de
- 4795
: 4796 3 67 Por
: 4801 3 65 ~
: 4807 7 65 mi
: 4817 9 65  piel
E