#TITLE:Daft Punk
#ARTIST:Pentatonix
#MP3:Pentatonix - Daft Punk.mp3
#VIDEO:Pentatonix - Daft Punk.mp4
#COVER:Pentatonix - Daft Punk.jpg
#BPM:266,11
#GAP:3725,56
#ENCODING:UTF8
#LANGUAGE:Englisch
#AUTHOR:Ai-chan
#END:247400
: 1 3 2 Buy
: 6 2 2  it,
: 10 2 2  use
: 14 1 2  it,
: 17 2 2  break
: 21 1 2  it,
: 25 3 2  fix
: 30 1 2  it,
- 32
: 34 2 2 Trash
: 38 1 2  it,
: 42 2 2  change
: 46 1 2  it,
: 50 2 2  mail,
: 54 2 2  up
: 58 2 2 grade
: 62 2 2  it.
- 65
: 65 3 2 Charge
: 70 1 2  it,
: 74 2 2  point
: 78 1 2  it,
: 82 3 2  zoom
: 86 1 2  it,
: 90 2 2  press
: 94 1 2  it,
- 96
: 98 3 2 Snap
: 102 1 2  it,
: 106 3 2  work
: 110 1 2  it,
: 113 2 2  quick,
: 118 2 2  e
: 122 2 2 rase
: 126 1 2  it.
- 128
: 130 2 2 Write
: 134 1 2  it,
: 138 2 2  cut
: 142 1 2  it,
: 146 2 2  paste
: 150 1 2  it,
: 154 3 2  save
: 158 1 2  it,
- 161
: 163 2 2 Load
: 166 1 2  it,
: 170 2 2  check
: 174 1 2  it,
: 177 2 2  quick,
: 182 2 2  re
: 186 3 2 write
: 190 1 2  it.
- 192
: 194 2 6 Plug
: 198 1 6  it,
: 202 2 6  play
: 206 1 6  it,
: 210 2 6  burn
: 214 1 6  it,
: 217 2 6  rip
: 221 1 6  it,
- 224
: 226 2 2 Drag
: 230 1 2  and
: 234 2 2  drop
: 238 1 2  it,
: 242 2 2  zip,
: 246 2 2  un
: 249 2 2 zip
: 253 1 2  it.
- 256
: 258 2 7 Lock
: 262 1 7  it,
: 266 2 7  fill
: 270 1 7  it,
: 274 2 7  call
: 278 1 7  it,
: 282 2 7  find
: 285 1 7  it,
- 288
: 291 2 7 View
: 295 1 7  it,
: 298 2 7  code
: 302 1 7  it,
: 306 2 7  jam,
: 310 2 6  un
: 313 3 6 lock
: 318 1 6  it.
- 320
: 322 2 2 Surf
: 326 1 2  it,
: 330 2 2  scroll
: 334 1 2  it,
: 338 2 2  pause
: 342 1 2  it,
: 346 2 2  click
: 350 1 2  it,
- 352
: 354 2 2 Cross
: 358 1 2  it,
: 362 2 2  crack
: 366 1 2  it,
: 370 2 2  switch,
: 374 2 2  up
: 378 3 2 date
: 383 1 2  it.
- 385
: 386 3 2 Name
: 391 1 2  it,
: 394 3 2  rate
: 399 1 2  it,
: 402 3 2  tune
: 407 1 2  it,
: 410 3 2  print
: 415 1 2  it,
- 417
: 418 2 2 Scan
: 422 1 2  it,
: 426 3 2  send
: 431 1 2  it,
: 434 2 2  fax,
: 438 2 2  re
: 442 2 2 name
: 446 1 2  it.
- 448
: 450 2 6 Touch
: 454 1 6  it,
: 458 2 6  bring
: 462 1 6  it,
: 466 2 6  pay
: 469 1 6  it,
: 474 2 6  watch
: 478 1 6  it,
- 480
: 482 2 2 Tech
: 486 2 2 no
: 490 2 2 lo
: 494 2 2 gic
- 497
: 497 4 6 One
: 506 4 4  more
: 514 3 2  ti
: 519 4 -1 ~me!
- 525
: 626 4 6 One
: 635 4 4  more
: 643 2 2  ti
: 647 4 -1 ~me!
- 653
: 745 2 -6 Like
: 750 1 -6  the
: 754 2 -1  le
: 757 2 -3 gend
: 761 1 -4  of
: 764 1 -3  the
: 768 2 -4  Phoe
: 771 1 -6 ~
: 773 3 -6 nix
- 778
: 790 6 -6 Yeah
- 798
: 813 3 -6 All
: 818 4 -1  ends
: 824 2 -4  with
: 828 2 -3  be
: 832 2 -4 gin
: 837 7 -6 nings
- 846
: 854 6 -6 Oh
: 861 2 -4 ~
: 865 11 -8 ~
- 877
: 878 2 -8 What
: 882 3 -1  keeps
: 886 1 -3  the
: 889 2 -4  pla
: 892 2 -3 net
: 896 3 -4  spin
: 901 5 -3 ning
- 908
: 923 10 -4 Ah
- 935
: 942 2 -6 The
: 946 3 -1  force
: 950 1 -3  from
: 953 2 -4  the
: 957 2 -3  be
: 960 2 -4 gin
: 964 6 -6 ning
- 972
: 983 1 -6 Oh
: 985 1 -4 ~
: 987 1 -6 ~
: 989 1 -8 ~
: 991 1 -11 ~
: 993 14 -8 ~
- 1009
: 1027 14 6 We've
: 1046 3 4  come
: 1050 2 6  too
: 1055 13 9  far
- 1070
: 1078 2 9 To
: 1082 2 11  give
: 1086 20 13  up
: 1110 2 13  who
: 1114 2 16  we
: 1119 25 11  are
- 1146
: 1151 2 6 So
: 1155 15 6  let's
: 1174 3 4  raise
: 1178 2 6  the
: 1182 18 9  bar
- 1202
: 1206 2 9 And
: 1210 2 11  our
: 1215 17 13  cups
: 1238 2 9  to
: 1243 2 16  the
: 1247 22 16  stars
- 1271
: 1286 2 2 We're
: 1289 1 2  up
: 1292 2 2  all
: 1295 4 2  night
: 1300 1 2  to
: 1302 1 2  the
: 1306 5 4  sun
- 1313
: 1318 2 2 We're
: 1321 1 2  up
: 1324 2 2  all
: 1328 3 2  night
: 1332 1 2  to
: 1335 1 2  get
: 1340 5 4  some
- 1347
: 1350 2 2 We're
: 1353 1 2  up
: 1356 2 2  all
: 1360 3 2  night
: 1364 1 2  for
: 1366 2 2  good
: 1370 5 4  fun
- 1377
: 1382 2 2 We're
: 1385 1 2  up
: 1388 2 2  all
: 1391 3 2  night
: 1396 1 2  to
: 1399 2 4  get
: 1403 2 2  lu
: 1407 1 0 cky
- 1410
: 1414 2 2 We're
: 1417 1 2  up
: 1420 2 2  all
: 1423 4 2  night
: 1428 1 2  to
: 1430 1 2  the
: 1434 5 4  sun
- 1441
: 1446 2 2 We're
: 1449 1 2  up
: 1452 2 2  all
: 1456 3 2  night
: 1460 1 2  to
: 1463 1 2  get
: 1468 5 4  some
- 1475
: 1478 2 2 We're
: 1481 1 2  up
: 1484 2 2  all
: 1488 3 2  night
: 1492 1 2  for
: 1494 2 2  good
: 1498 5 4  fun
- 1505
: 1510 2 2 We're
: 1513 1 2  up
: 1516 2 2  all
: 1519 3 2  night
: 1524 1 2  to
: 1527 2 4  get
: 1531 2 2  lu
: 1535 1 0 cky
- 1538
: 1542 2 2 We're
: 1545 1 2  up
: 1548 2 2  all
: 1551 3 2  night
: 1556 1 2  to
: 1559 2 4  get
: 1563 2 2  lu
: 1567 1 0 cky
- 1570
: 1574 2 2 We're
: 1577 1 2  up
: 1580 2 2  all
: 1584 2 2  night-
- 1587
: 1589 2 2 All
: 1592 2 2  night
: 1596 1 2  to
: 1598 2 4  get-
- 1602
: 1604 2 2 All
: 1608 3 2  night
: 1612 1 2  to
: 1614 2 4  get-
- 1617
: 1618 2 4 Get-
: 1621 2 4  get
F 1625 3 0  lucky
- 1630
: 1770 2 6 Last
: 1773 3 7 ~
: 1778 3 6  night
: 1782 2 4 ~,
: 1790 2 2  I
: 1794 2 4  had
: 1798 2 2  this
: 1802 3 4  dream
: 1807 3 2  a
: 1812 4 6 bout
: 1819 2 4  you
: 1823 3 2 ~
- 1828
: 1832 3 6 In
: 1836 2 9  this
: 1842 7 11  dream,
: 1855 2 2  I'm
: 1859 3 4  dan
: 1863 2 2 cing
: 1867 2 4  right
: 1870 2 2  be
: 1874 5 6 side
: 1883 2 4  you
: 1887 3 2 ~
- 1892
: 1895 2 2 There's
: 1898 2 7  no
: 1902 2 7 thing
: 1906 3 6  wrong
: 1911 3 4 ~
- 1916
: 1918 3 2 with
: 1923 2 4  just
: 1927 1 2  a
: 1931 2 4  little
: 1934 2 2 ~
: 1938 2 4  bit
: 1943 2 2  of
: 1947 6 6  fun.
- 1955
: 1961 2 2 We
: 1965 4 2  were
: 1971 2 2  dan
: 1975 4 2 cing
: 1982 5 2  all
: 1990 5 2  night
: 1998 7 -1  long
: 2007 8 -3 ~
- 2016
: 2018 10 6 Oh
: 2030 2 4 ~
- 2034
: 2055 2 7 I
: 2059 2 7  don't
: 2063 2 7  know
: 2067 3 6 ~
: 2071 2 6  what
: 2075 1 6  to
: 2079 11 6  do
- 2092
: 2121 5 2 'bout 
: 2127 2 2  this
: 2130 3 2  dream
: 2135 6 6  and
: 2142 6 6  you
: 2150 2 4 ~
- 2154
: 2183 2 7 I
: 2187 2 7  hope
: 2191 2 7  this
: 2195 2 7  dre
: 2199 2 6 ~am
: 2203 4 6  comes
: 2210 3 6  true
: 2214 3 7 ~
: 2218 4 9 ~
: 2223 5 9 ~
: 2231 3 6 ~
: 2235 3 2 ~
: 2240 15 4 ~
- 2256
: 2258 4 6 One
: 2267 4 4  more
: 2275 2 2  ti
: 2279 4 -1 ~me!
- 2285
: 2303 4 2 Hey,
: 2311 1 -1  we're
: 2314 2 2  gon
: 2318 2 2 na
: 2322 3 2  ce
: 2326 2 4 le
: 2330 4 2 bra
: 2335 2 -3 ~
: 2339 3 -1 te
- 2344
: 2347 4 4 Aw
: 2355 4 2  yeah,
: 2362 6 4  Al
: 2371 4 2 right
- 2375
: 2375 2 -1 Don't
: 2379 2 2  stop
: 2383 1 2  the
: 2387 4 4  dan
: 2394 4 2 cing
: 2400 6 -1 ~
- 2408
: 2418 3 6 One
: 2423 2 6  mo
: 2427 2 7 ~re
: 2431 5 6  time
- 2437
: 2438 2 -1 we're
: 2442 2 2  gon
: 2446 2 2 na
: 2450 3 2  ce
: 2454 2 4 le
: 2458 4 2 bra
: 2463 2 -3 ~
: 2468 5 -1 te
: 2476 4 -1 ~
: 2484 4 -1 ~
: 2492 3 -1 ~
: 2499 18 9 ~
- 2519
: 2533 1 -10 Work
: 2535 1 -5  it,
: 2539 2 0  har
: 2543 1 2 der
- 2545
: 2546 2 6 Make
: 2551 1 2  it,
: 2554 3 -1  bet
: 2559 2 2 ter
- 2562
: 2563 1 -6 Do
: 2567 1 -1  it,
: 2571 2 2  fas
: 2575 2 -3 ter
- 2578
: 2579 2 4 Makes
: 2583 1 2  us,
: 2587 3 1  stron
: 2591 2 2 ger
- 2594
: 2596 1 -4 More
: 2599 1 -1  than,
: 2603 2 11  e
: 2606 2 8 ver
- 2609
: 2611 3 16 Hou
: 2615 2 14 ~r
: 2619 2 11  af
: 2623 3 8 ter
- 2627
: 2627 3 -1 Our
: 2631 2 -8 ~
: 2635 3 -1  work
: 2639 1 2  is
- 2641
: 2643 2 -8 Ne
: 2646 2 -8 ver
: 2650 5 -13  over
- 2657
: 2659 2 -3 Work
: 2663 2 -1  it
: 2667 2 2  har
: 2671 2 -1 der
- 2674
: 2675 2 6 make
: 2679 1 4  it
: 2683 3 2  bet
: 2687 2 -1 ter
- 2690
: 2691 2 -3 Do
: 2695 2 -1  it
: 2699 2 2  fas
: 2703 2 -1 ter
- 2706
: 2707 2 6 makes
: 2711 2 4  us
: 2715 3 2  stron
: 2719 3 -1 ger
- 2723
: 2723 2 9 More
: 2727 2 11  than
: 2731 2 14  e
: 2734 2 11 ver
: 2739 2 18  hou
: 2742 2 16 ~r
: 2747 2 14  af
: 2751 2 11 ter
- 2754
: 2755 2 -3 Ou
: 2758 2 -1 ~r
: 2762 3 2  work
: 2767 1 4  is
F 2770 6 0  never
F 2778 6 0  over
- 2786
: 2915 2 3 Work
: 2919 3 2  it,
: 2924 2 -1  har
: 2927 2 -1 der
- 2930
: 2931 3 4 Make
: 2936 1 6  it,
: 2939 3 4  bet
: 2943 2 6 ter
- 2946
: 2947 2 16 Do
: 2951 1 14  it,
: 2955 2 -3  fas
: 2959 2 -1 ter
- 2962
: 2963 1 4 Makes
: 2967 1 6  us,
: 2971 2 14  stron
: 2975 2 14 ger
- 2978
: 2979 3 16 More
: 2984 2 16  than
: 2988 2 16  e
: 2992 2 16 ver
: 2996 4 16  hour
: 3001 3 16  after
- 3005
: 3006 3 6 Our
: 3010 3 4 ~
: 3014 2 2 ~
: 3018 3 -1  work
: 3023 1 -3  is
F 3026 6 -6  never
F 3035 6 -6  over
- 3043
: 3058 3 -13 Te
: 3062 8 -10 le
: 3072 5 -8 vi
: 3080 18 -10 sion
- 3100
: 3123 5 -5 Rules
: 3131 2 -5  the
: 3135 6 -6  na
: 3145 9 -8 tion
- 3156
: 3162 10 0 Oh
: 3174 9 0  yeah
- 3185
: 3187 3 -13 Te
: 3191 8 -10 le
: 3201 5 -8 vi
: 3209 18 -10 sion
- 3229
: 3251 5 -5 Rules
: 3259 2 -5  the
: 3263 6 -6  na
: 3273 9 -8 tion
- 3284
: 3299 2 -1 Mu
: 3302 2 2 sic's
: 3307 2 2  got
: 3311 1 -1  me
: 3315 3 2  fee
: 3319 2 2 lin
: 3323 1 -1  so
: 3327 5 2  free
- 3334
: 3363 3 -3 Ce
: 3367 2 -1 le
: 3371 2 2 brate
: 3375 2 4  and
: 3379 7 6  dance
: 3387 2 2  so
: 3392 2 -1  free
: 3396 4 -3 ~
- 3402
: 3411 2 2 One
: 3416 2 2  more
: 3422 3 2  time
- 3426
: 3428 2 6 Mu
: 3431 2 4 sic's
: 3436 2 2  got
: 3440 1 4  me
: 3444 2 2  fee
: 3447 2 -1 lin
: 3451 2 -3  so
: 3455 4 2  free
- 3461
: 3464 2 2 We're
: 3468 3 2  gon
: 3472 2 2 na
: 3476 2 2  ce
: 3480 2 4 le
: 3483 3 2 brate
- 3488
: 3491 3 -1 Ce
: 3495 2 2 le
: 3499 2 2 brate
: 3503 2 -1  and
: 3507 7 2  dance
: 3515 2 -1  so
: 3520 3 2  free
- 3525
: 3547 3 -1 To
: 3552 5 2 night
- 3559
: 3568 10 6 Hey
- 3580
: 3583 2 2 Just
: 3587 2 4  feel
: 3590 1 6 ~
: 3592 2 4 ~
: 3596 7 2  it
- 3605
: 3620 2 4 Mu
: 3623 2 2 sic's
: 3628 2 2  got
: 3632 2 -1  me
: 3636 2 2  fee
: 3639 2 2 lin
- 3643
: 3667 2 2 One
: 3671 4 2  more
: 3678 4 2  time
- 3683
: 3684 2 -1 Mu
: 3687 2 2 sic's
: 3692 2 2  got
: 3696 1 -1  me
: 3700 3 2  fee
: 3704 2 2 lin
: 3708 1 -1  so
: 3712 4 2  free
- 3717
: 3719 2 -1 We're
: 3723 3 2  gon
: 3727 2 2 na
: 3731 2 2  ce
: 3735 2 4 le
: 3738 3 4 brate
- 3743
: 3747 3 4 Ce
: 3751 2 6 le
: 3755 2 6 brate
: 3760 2 4  and
: 3763 3 6  dance
- 3767
: 3767 2 6 To
: 3771 2 9  the
: 3776 32 11  stars!
- 3810
: 3815 2 11 We're
: 3818 1 11  up
: 3821 2 11  all
: 3824 4 11  night
: 3829 1 11  to
: 3831 1 11  the
: 3835 5 14  sun
- 3842
: 3846 2 11 We're
: 3849 1 11  up
: 3852 2 11  all
: 3856 3 11  night
: 3860 1 11  to
: 3863 1 11  get
: 3868 5 14  some
- 3875
: 3879 2 11 We're
: 3882 1 11  up
: 3885 2 11  all
: 3889 3 11  night
: 3893 1 11  for
: 3895 2 11  good
: 3899 5 14  fun
- 3906
: 3911 2 9 We're
: 3914 1 9  up
: 3917 2 9  all
: 3920 3 9  night
: 3925 1 9  to
: 3927 2 11  get
: 3931 2 9  lu
: 3935 1 7 cky
- 3938
: 3943 2 11 We're
: 3946 1 11  up
: 3949 2 11  all
: 3952 4 11  night
: 3957 1 11  to
: 3959 1 11  the
: 3963 5 14  sun
- 3970
: 3975 2 11 We're
: 3978 1 11  up
: 3981 2 11  all
: 3985 3 11  night
: 3989 1 11  to
: 3992 1 16  get
: 3997 5 14  some
- 4004
: 4007 2 11 We're
: 4010 1 11  up
: 4013 2 11  all
: 4017 3 11  night
: 4021 1 11  for
: 4023 2 11  good
: 4027 5 14  fun
- 4034
: 4039 2 9 We're
: 4044 2 9  up
: 4047 2 9  for
- 4050
: 4052 4 6 One
: 4061 3 4  more
: 4067 4 2  time
- 4072
: 4072 1 11 We're
: 4074 1 11  up
: 4077 2 11  all
: 4080 4 11  night
: 4085 1 11  to
: 4087 1 11  the
: 4091 5 14  sun
- 4098
: 4100 6 0 Eh,
: 4108 9 0  celebrate
: 4119 1 0  the
: 4125 18 0  world
- 4145
: 4149 2 14 Fee
: 4152 2 14 ling
: 4155 2 14  so
: 4159 3 13  free!
- 4164
F 4168 10 0 Woah,
: 4180 5 14  one
: 4188 4 13  more
: 4195 4 11  night!
- 4199
: 4199 2 11 We're
: 4202 1 11  up
: 4205 2 11  all
: 4208 4 11  night
: 4214 1 11  to
: 4216 1 11  the
: 4219 5 14  sun
- 4225
F 4227 4 3 Hey,
: 4235 2 -3  ce
: 4239 3 -1 le
: 4244 5 2 brate
: 4251 3 2  the
: 4256 5 4  wo
: 4263 5 2 ~rld
- 4270
: 4275 3 11 Fee
: 4280 2 11 lin
: 4284 5 11  so
- 4290
: 4291 4 11 Our
- 4297
: 4299 3 -1 Work
: 4304 2 -1  is
- 4307
: 4308 6 0 Never
- 4315
: 4317 9 0 Over
E