#TITLE:Only the very best
#ARTIST:Peter Kingsbery
#MP3:Peter Kingsbery - Only the very best.mp3
#VIDEO:Peter Kingsbery - Only the very best.mp4
#COVER:Peter Kingsbery - Only the very best.jpg
#BPM:235.06
#GAP:17165
#ENCODING:UTF8
#LANGUAGE:English
#GENRE:Musical
#YEAR:1992
#CREATOR:mustangfred
: 0 3 1 No
: 5 1 -1  one
: 9 2 -3  can
: 13 6 -1  have
- 28
: 32 3 -1 More
: 37 2 -3  than
: 41 3 -4  their
: 45 3 -3  due
: 49 2 -6 ~
- 82
: 126 3 1 I
: 130 2 -1  want
: 133 3 -3 ed
: 138 5 -1  life
- 154
: 158 2 -3 I
: 162 3 -4  want
: 167 2 -6 ed
: 171 3 -3  you
: 175 17 -4 ~
: 193 3 -6 ~
- 211
: 251 1 -1 On
: 253 5 1 ~
: 260 1 -3 ly
: 262 1 -1 ~
: 264 2 -3  the
* 268 3 -1  Ver
* 272 4 1 y
* 277 2 2  best
* 280 1 1 ~
- 291
: 304 1 -3 A
: 306 11 -4  rea
: 323 2 -4 son
: 326 1 -4 a
: 328 3 -3 ble
: 333 2 -1  re
: 338 5 1 quest
- 353
: 363 9 -18 This
: 379 3 -15  is
: 386 3 -11  too
: 391 1 -8  high
: 393 8 -6 ~
: 406 2 -6  a
: 410 1 -6  price
: 412 3 -3 ~
* 417 3 1  to
* 422 1 1  pay
* 425 37 6 ~
- 471
: 474 2 12 Now
: 477 2 13  they've
: 481 3 12  tak
: 485 2 13 en
: 489 3 9  you
: 494 3 6  a
: 498 23 4 way
: 522 3 1 ~
- 533
: 536 2 2 Might
: 540 2 4  as
: 544 3 2  well
: 549 3 4  take
: 556 1 -1  me
: 558 28 1 ~
- 596
: 616 10 -18 Down
: 632 5 -15  down
: 640 2 -11  to
: 644 2 -8  hell
: 647 6 -6 ~
: 659 2 -6  for
: 662 2 -6  I
: 665 4 -3 ~
: 670 3 1  don't
: 674 2 1  care
: 678 38 6 ~
- 724
: 727 2 12 They
* 731 2 13  can
* 734 2 12  put
* 738 3 13  me
: 743 3 9  an
: 747 2 6 y
: 751 18 4 where
: 770 2 4 ~
: 773 4 2 ~
- 785
: 788 3 2 Throw
: 793 2 4  a
: 796 3 2 way
: 801 1 4  the
: 805 42 1  key
: 849 2 -1 ~
: 852 6 -3 ~
- 868
: 883 2 11 Aah
: 886 70 13 ~
- 971
: 1004 5 1 I
: 1010 2 1  al
: 1014 4 1 ways
: 1021 3 1  walked
: 1025 2 -1 ~
- 1034
: 1037 2 -3 a
: 1041 2 -3  def
: 1045 3 -1 i
: 1049 2 1 nite
: 1053 2 -1  line
: 1056 8 1 ~
- 1079
: 1100 1 -1 Cut
: 1102 1 1 ~
: 1104 2 1 ting
: 1107 2 1  a
: 1110 6 1  dash
- 1126
: 1136 3 -3 Cut
: 1140 3 -1 ting
: 1145 1 1  it
: 1149 2 -1  fine
: 1152 8 1 ~
- 1170
: 1186 1 -1 And
: 1188 1 1 ~
: 1191 4 1  once
: 1201 3 2  on
: 1206 2 1 ly
: 1209 3 -1  once
: 1220 1 -1  did
: 1222 2 -3  I
: 1225 2 -1  lose
: 1230 3 1  con
: 1235 7 2 trol?
- 1248
: 1250 2 1 I
: 1254 4 1  gave
: 1259 5 2 ~
: 1266 3 1  her
: 1271 3 -1  my
: 1276 1 -1  soul
: 1278 3 -1 ~
: 1282 3 -4 ~
- 1296
: 1300 1 -8 And
: 1302 3 -6  I
: 1308 4 -6  gave
: 1317 1 -6  and
: 1319 3 -3  I
: 1324 4 -3  gave
: 1333 1 -3  and
: 1335 3 -1  I
: 1340 1 -3  gave
: 1342 4 1 ~
- 1351
: 1353 9 2 her
: 1364 4 1  my
: 1371 3 11  soul
: 1375 53 13 ~
- 1459
: 1691 10 -18 I
: 1705 5 -15  was
: 1715 1 -11  im
: 1718 2 -8 mor
: 1721 6 -6 ~
: 1729 2 -6 tal
: 1737 5 -3  till
: 1744 3 1  to
: 1748 1 1 day
: 1751 37 6 ~
- 1797
* 1800 2 12 Now
* 1804 2 13  I
* 1808 2 12  feel
: 1811 2 13  a
: 1816 5 9  cold
: 1824 1 6  de
: 1828 18 4 cay
: 1848 5 1 ~
- 1859
: 1861 5 2 Crawl
: 1867 3 4 ing
: 1871 3 2  o
: 1875 3 4 ver
: 1879 2 -1  me
: 1882 30 1 ~
- 1927
: 1965 10 1 O
: 1976 1 -1 ~
: 1978 9 -3 ~
: 1989 2 -3 ver
: 1994 70 13  me
- 2074
: 2084 2 1 No
: 2088 2 -1  one
: 2092 2 -3  can
: 2096 8 -1  have
- 2112
: 2115 3 -1 More
: 2119 3 -3  than
: 2124 3 -4  their
: 2128 10 -3  due
- 2169
: 2207 1 -1 I
: 2209 5 1 ~
: 2216 3 -1  want
: 2220 4 -3 ed
: 2225 5 -1  life
- 2239
: 2242 4 -3 I
: 2247 4 -4  want
: 2253 3 -6 ed
: 2259 15 -4  you
: 2277 2 -6 ~
: 2280 2 -6 ~
- 2297
: 2331 3 -1 On
: 2335 6 1 ~
: 2342 4 -1 ly
: 2347 2 -3  the
: 2352 4 -1  Ver
: 2357 4 1 y
: 2363 3 2  best
- 2376
: 2391 2 -4 No
: 2394 8 -3 ~
: 2405 3 -3  oth
: 2409 4 -4 er
: 2415 3 -3  in
: 2421 2 -1 ter
: 2424 4 1 est
- 2438
: 2455 6 -18 This
: 2467 5 -15  is
: 2476 3 -11  the
: 2481 2 -11  way
: 2485 7 -6 ~
: 2499 2 -6  you
: 2503 4 -3  should
: 2509 3 1  re
* 2514 1 1 main
* 2517 37 6 ~
- 2563
: 2566 3 12 Nev
: 2570 2 13 er
: 2574 4 12  feel
: 2579 2 13 ing
: 2583 3 9  an
: 2587 2 6 y
: 2591 20 4  pain
: 2613 5 2 ~
- 2628
: 2632 2 2 Nev
: 2635 3 4 er
: 2640 3 2  grow
: 2644 3 4 ing
: 2649 2 -1  old
: 2652 18 1 ~
- 2685
: 2717 4 -18 Sleep
: 2730 2 -15  lit
: 2733 4 -11 tle
: 2738 2 -8  one
: 2741 7 -6 ~
: 2757 4 -6  your
: 2763 5 -3  night
: 2770 3 1  is
: 2775 1 1  here
: 2778 38 6 ~
- 2824
: 2827 3 12 Mine
: 2831 3 13  is
: 2836 3 12  grow
: 2840 2 13 ing
: 2844 4 9  ver
: 2849 3 6 y
: 2854 23 4  near
: 2879 5 2 ~
- 2899
: 2933 2 1 Oh
: 2936 7 2 ~
: 2945 1 2  it's
: 2950 3 2  get
: 2954 3 4 ting
: 2961 3 -1  cold
: 2965 51 1 ~
E