#TITLE:Manchmal Mochte Ich Schon Mit Dir
#ARTIST:Peter Wackel
#MP3:Peter Wackel - Manchmal Mochte Ich Schon Mit Dir.mp3
#VIDEO:Peter Wackel - Manchmal Mochte Ich Schon Mit Dir [VD#0].avi
#COVER:Peter Wackel - Manchmal Mochte Ich Schon Mit Dir [CO].jpg
#BACKGROUND:Peter Wackel - Manchmal Mochte Ich Schon Mit Dir [CO].jpg
#BPM:260
#GAP:1730,77
#VIDEOGAP:0
#ENCODING:UTF8
#EDITION:SS Mallorca P
: 0 10 56 Manch
: 12 6 56 mal
: 20 7 56  möch
: 28 4 54 te
: 32 3 52  ich
- 36
: 36 6 59 Schon
: 44 6 59  mit
: 52 8 59  dir
- 62
: 123 5 55 Küh
: 128 4 57 ler
: 132 3 59  A
: 136 2 59 bend
: 140 2 59 wind
: 144 3 59  fängt
- 148
: 148 3 60 Sich
: 152 3 60  in
: 156 4 60  dei
* 160 4 62 nen
: 164 6 60  Haa
: 170 4 59 ren
- 176
: 188 4 55 Und
: 192 4 57  du
: 196 3 59  sagst
- 200
: 200 3 59 Halt
: 204 3 59  mich
: 208 3 59  ganz
: 212 3 60  fest
- 216
: 216 3 60 In
: 220 4 62  dei
: 224 4 64 nen
: 228 6 62  Ar
: 234 5 60 men
- 241
: 252 4 57 Und
: 256 4 59  im
: 260 3 60  Spie
: 264 3 60 gel
- 268
: 268 4 60 Dei
: 272 2 62 ner
: 274 5 64  sehn
: 280 3 64 suchts
: 284 4 64 vol
: 288 3 63 len
- 292
: 292 6 64 Au
: 298 8 59 gen
- 308
: 318 6 59 Seh
: 324 3 58  ich
: 328 3 58  die
: 332 3 58  ro
: 336 3 56 te
- 340
: 340 3 56 Son
: 343 2 54 ne
: 346 6 54  un
: 352 4 52 ter
: 356 8 54 geh'n
- 366
: 380 4 55 Dei
: 384 4 57 ne
: 388 3 59  Stim
: 392 3 59 me
- 396
: 396 3 59 Flü
: 400 3 59 stert
: 404 3 60  zärt
: 408 3 60 lich
- 412
: 412 4 62 Mei
: 416 3 60 nen
: 420 5 60  Na
: 426 5 59 men
- 433
: 444 4 55 Die
: 448 4 57  Be
: 452 3 59 rüh
: 456 3 59 rung
: 460 3 59  dei
: 464 4 59 ner
: 468 3 60  Hand
- 472
: 472 3 60 Setzt
: 476 3 62  mich
: 479 3 64  in
: 484 4 62  Flam
: 488 6 60 men
- 496
: 508 4 57 Und
: 512 4 59  die
: 516 3 60  Tür
: 520 3 60  zu
: 524 4 60  dei
: 528 3 62 ner
- 532
: 532 3 64 Kü
: 536 3 64 che
: 540 4 64  lässt
: 544 4 63  du
: 548 6 64  of
* 554 10 59 fen
- 566
: 574 6 59 Wie
: 580 2 58  lan
: 582 5 58 ge
: 588 4 58  kann
: 592 2 56  ich
- 595
: 596 2 56 Dir
: 598 2 54 ~
: 600 3 54 noch
: 604 4 54  wi
: 608 4 52 der
: 612 14 54 steh'n
- 628
: 674 9 56 Manch
: 684 6 56 mal
: 692 7 56  möch
: 700 3 54 te
: 703 4 52  ich
- 708
: 708 6 59 Schon
: 716 6 59  mit
: 724 8 59  dir
- 734
: 736 2 61 In
: 738 2 59  der
: 740 3 58  Kü
: 744 3 59 che
: 748 3 61  auf
: 752 3 59  dem
: 756 3 58  Tisch
- 760
: 760 3 59 Und
: 764 3 57  auf
: 768 3 56  dem
: 772 8 56  Tre
: 780 7 57 sen
- 789
: 802 8 61 Manch
: 812 7 61 mal
: 820 7 61  möcht
- 828
: 828 4 59 Ich
: 832 3 57  so
: 836 6 61  gern
: 844 6 61  mit
: 852 6 61  dir
- 860
: 864 4 61 Doch
: 868 4 60  du
: 872 4 61  bist
: 876 3 62  schon
- 880
: 880 3 61 Mit
: 884 4 60  vie
: 888 3 61 len
: 892 3 59  dort
: 896 3 57  ge
: 900 3 57 we
: 903 4 59 ~
: 908 7 59 sen
- 917
: 920 4 57 Und
: 924 4 56  das
: 928 4 52  tut
: 932 15 54  weh
- 949
: 956 4 54 Tut
: 960 4 52  so
: 964 15 54  weh
- 980
: 980 9 56 Au,
: 996 10 57  au,
: 1012 11 59  au
- 1025
: 1028 7 56 Manch
: 1036 6 56 mal
: 1044 7 56  möch
: 1052 3 54 te
: 1055 4 52  ich
- 1060
: 1060 6 59 Schon
: 1068 6 59  mit
: 1076 8 59  dir
- 1086
: 1088 2 61 In
: 1090 2 59  der
: 1092 3 58  Kü
: 1096 3 59 che
: 1100 3 61  auf
: 1104 3 59  dem
: 1108 3 58  Tisch
- 1112
: 1112 3 59 Und
: 1116 3 57  auf
: 1120 3 56  dem
: 1124 8 56  Tre
: 1132 7 57 sen
- 1141
: 1154 8 61 Manch
: 1164 7 61 mal
: 1172 7 61  möcht
- 1180
: 1180 4 59 Ich
: 1184 3 57  so
: 1188 6 61  gern
: 1196 6 61  mit
: 1204 6 61  dir
- 1212
: 1216 4 61 Doch
: 1220 4 60  du
: 1224 4 61  bist
: 1228 3 62  schon
- 1232
: 1232 3 61 Mit
: 1236 4 60  vie
: 1240 3 61 len
: 1244 3 59  dort
: 1248 3 57  ge
: 1252 3 57 we
: 1255 4 59 ~
: 1260 7 59 sen
- 1269
: 1272 4 57 Ich
: 1276 4 56  bin
: 1280 4 52  ein
: 1284 11 54  Mann
- 1297
: 1304 4 56 Stell
: 1308 4 54  Dich
: 1312 4 51  nicht
: 1316 15 52  an
- 1333
: 1372 3 55 Trotz
: 1376 4 57 dem
: 1380 3 59  füh
: 1384 3 59 le
- 1388
: 1388 3 59 Ich
: 1392 3 59  mich
: 1396 2 60  hin
: 1398 3 60 und
- 1402
: 1402 2 60 Her
: 1404 3 62 ~
: 1408 3 60 ge
: 1412 4 60 ris
: 1416 8 59 sen
- 1426
: 1436 4 55 Und
: 1440 4 57  die
* 1444 3 59  Sehn
: 1448 3 59 sucht
- 1452
: 1452 3 59 Macht
: 1456 3 59  sich
: 1460 3 60  breit
- 1464
: 1464 3 60 Auf
: 1468 4 62  mei
: 1472 4 64 nem
: 1476 6 62  Kis
: 1482 7 60 sen
- 1491
: 1500 4 57 Du
: 1504 3 59  ver
: 1508 3 60 sprichst
: 1512 3 60  mir
- 1516
: 1516 3 60 Die
: 1519 3 62  Er
: 1522 3 64 fül
: 1526 4 64 lung
: 1532 4 64  mei
: 1536 4 63 ner
: 1540 6 64  Träu
: 1546 3 59 ~
: 1550 7 59 me
- 1559
: 1566 5 59 Da
: 1572 4 59  Nein
: 1576 3 58  zu
: 1580 4 58  sa
: 1584 3 56 gen
- 1588
: 1588 4 56 Fällt
: 1592 2 54  un
: 1594 5 54 end
: 1600 3 52 lich
: 1604 15 54  schwer
- 1621
: 1666 9 56 Manch
: 1676 6 56 mal
: 1684 7 56  möch
: 1692 3 54 te
: 1695 4 52  ich
- 1700
: 1700 6 59 Schon
: 1708 6 59  mit
: 1716 8 59  dir
- 1726
: 1728 2 61 In
: 1730 2 59  der
: 1732 3 58  Kü
: 1736 3 59 che
: 1740 3 61  auf
: 1744 3 59  dem
: 1748 3 58  Tisch
- 1752
: 1752 3 59 Und
: 1756 3 57  auf
: 1760 3 56  dem
: 1764 8 56  Tre
: 1772 7 57 sen
- 1781
: 1794 8 61 Manch
: 1804 7 61 mal
* 1812 7 61  möcht
- 1820
: 1820 4 59 Ich
: 1824 3 57  so
: 1828 6 61  gern
: 1836 6 61  mit
: 1844 6 61  dir
- 1852
: 1856 4 61 Doch
: 1860 4 60  du
: 1864 4 61  bist
: 1868 3 62  schon
- 1872
: 1872 3 61 Mit
: 1876 4 60  vie
: 1880 3 61 len
: 1884 3 59  dort
: 1888 3 57  ge
: 1892 3 57 we
: 1895 4 59 ~
: 1900 7 59 sen
- 1909
: 1912 4 57 Und
: 1916 4 56  das
: 1920 4 52  tut
: 1924 15 54  weh
- 1941
: 1948 4 54 Tut
: 1952 4 52  so
: 1956 15 54  weh
- 1972
: 1972 9 56 Au,
: 1988 10 57  au,
: 2004 11 59  au
- 2017
: 2020 7 56 Manch
: 2028 6 56 mal
: 2036 7 56  möch
: 2044 3 54 te
: 2047 4 52  ich
- 2052
: 2052 6 59 Schon
: 2060 6 59  mit
: 2068 8 59  dir
- 2078
: 2080 2 61 In
: 2082 2 59  der
: 2084 3 58  Kü
: 2088 3 59 che
* 2092 3 61  auf
: 2096 3 59  dem
: 2100 3 58  Tisch
- 2104
: 2104 3 59 Und
: 2108 3 57  auf
: 2112 3 56  dem
: 2116 8 56  Tre
: 2124 7 57 sen
- 2133
: 2146 8 61 Manch
: 2156 7 61 mal
: 2164 7 61  möcht
- 2172
: 2172 4 59 Ich
: 2176 3 57  so
: 2180 6 61  gern
: 2188 6 61  mit
: 2196 6 61  dir
- 2204
: 2208 4 61 Doch
: 2212 4 60  du
: 2216 4 61  bist
: 2220 3 62  schon
- 2224
: 2224 3 61 Mit
: 2228 4 60  vie
: 2232 3 61 len
: 2236 3 59  dort
: 2240 3 57  ge
: 2244 3 57 we
: 2247 4 59 ~
: 2252 7 59 sen
- 2261
: 2264 4 57 Ich
: 2268 4 56  bin
: 2272 4 52  ein
: 2276 11 54  Mann
- 2289
: 2296 4 56 Stell
: 2300 4 54  Dich
: 2304 4 51  nicht
: 2308 15 52  an
- 2325
* 2370 9 58 Manch
: 2380 6 58 mal
: 2388 7 58  möch
: 2396 3 56 te
: 2399 4 54  ich
- 2404
: 2404 6 61 Schon
: 2412 6 61  mit
: 2420 8 61  dir
- 2430
: 2432 2 61 In
: 2434 2 59  der
: 2436 3 61  Kü
: 2440 3 61 che
: 2444 3 63  auf
: 2448 3 61  dem
: 2452 3 60  Tisch
- 2456
: 2456 3 61 Und
: 2460 3 59  auf
: 2464 3 58  dem
* 2468 8 58  Tre
: 2476 7 59 sen
- 2485
: 2500 6 63 Manch
: 2508 7 63 mal
: 2516 7 63  möcht
- 2524
: 2524 4 61 Ich
: 2528 3 59  so
* 2532 6 63  gern
: 2540 6 63  mit
: 2548 6 63  dir
- 2556
: 2560 4 63 Doch
: 2564 4 62  du
: 2568 4 63  bist
: 2572 3 64  schon
- 2576
: 2576 3 63 Mit
: 2580 4 62  vie
: 2584 3 63 len
: 2588 3 61  dort
: 2592 3 59  ge
: 2596 3 59 we
: 2599 4 61 ~
: 2604 7 61 sen
- 2613
: 2616 4 59 Und
: 2620 4 58  das
: 2624 4 54  tut
* 2628 15 56  weh
- 2645
: 2652 4 56 Tut
: 2656 4 54  so
: 2660 15 56  weh
- 2676
: 2676 9 58 Au,
: 2692 10 59  au,
: 2708 11 61  au
- 2721
: 2724 7 58 Manch
: 2732 6 58 mal
: 2740 7 58  möch
: 2748 3 56 te
: 2751 4 54  ich
- 2756
: 2756 6 61 Schon
: 2764 6 61  mit
: 2772 8 61  dir
- 2782
: 2784 2 61 In
: 2786 2 59  der
: 2788 3 61  Kü
: 2792 3 61 che
: 2796 3 63  auf
: 2800 3 61  dem
: 2804 3 60  Tisch
- 2808
: 2808 3 61 Und
: 2812 3 59  auf
: 2816 3 58  dem
: 2820 8 58  Tre
: 2828 7 59 sen
- 2837
: 2850 8 63 Manch
: 2860 7 63 mal
: 2868 7 63  möcht
- 2876
: 2876 4 61 Ich
: 2880 3 59  so
: 2884 6 63  gern
: 2892 6 63  mit
: 2900 6 63  dir
- 2908
: 2912 4 63 Doch
: 2916 4 62  du
: 2920 4 63  bist
* 2924 3 64  schon
- 2928
: 2928 3 63 Mit
: 2932 4 62  vie
: 2936 3 63 len
: 2940 3 61  dort
: 2944 3 59  ge
: 2948 3 59 we
: 2951 4 61 ~
: 2956 7 61 sen
- 2965
: 2968 4 59 Ich
: 2972 4 58  bin
: 2976 4 54  ein
: 2980 11 56  Mann
- 2993
: 3000 4 58 Stell
: 3004 4 56  Dich
: 3008 4 53  nicht
: 3012 10 54  an
- 3024
: 3044 7 58 Manch
: 3052 6 58 mal
: 3060 7 58  möch
: 3068 3 56 te
: 3071 4 54  ich
- 3076
: 3076 6 61 Schon
: 3084 6 61  mit
: 3092 8 61  dir
E