#TITLE:Another Day In Paradise
#ARTIST:Phil Collins
#MP3:Phil Collins - Another Day In Paradise.mp3
#VIDEO:Phil Collins - Another Day In Paradise.avi
#COVER:Phil Collins - Another Day In Paradise [CO].jpg
#BPM:102
#GAP:32180
#ENCODING:UTF8
#LANGUAGE:Englisch
: 0 2 13 She 
: 2 2 14 calls 
: 4 4 16 out 
: 8 2 14 to 
: 10 2 13 the 
: 12 4 11 man 
: 16 2 9 on 
: 18 2 8 the 
: 20 9 6 street: 
- 29
: 36 4 16 "Sir, 
: 40 2 14 can 
: 42 2 13 you 
: 44 4 11 help 
: 48 4 16 me? 
- 52
: 66 2 13 It's 
: 68 4 16 cold 
: 72 2 14 and 
: 74 2 13 I've 
: 76 4 11 no
: 80 2 9 where 
: 82 2 8 to 
: 84 7 6 sleep
- 91
: 94 2 13 Is 
: 96 2 13 there 
: 98 2 14 some
: 100 3 16 where 
: 104 2 14 you 
: 106 2 13 can 
: 108 4 11 tell 
: 112 4 16 me?"  
- 116
: 128 2 13 He 
: 130 2 14 walks 
: 132 5 16 on, 
: 142 2 11 does
: 144 2 9 n't 
: 146 2 8 look 
: 148 6 6 back 
- 154
: 160 2 13 He 
: 162 2 14 pre
: 164 4 16 tends 
: 168 2 14 he 
: 170 2 13 can't 
: 172 4 11 hear 
: 176 4 16 her 
- 180
: 194 2 13 Starts 
: 196 2 14 to 
: 198 2 16 whist
: 200 2 16 le 
: 202 2 14 as 
: 204 2 13 he 
: 206 3 11 cros
: 209 2 9 ses 
: 212 2 8 the 
: 215 6 6 street 
- 221
: 224 2 13 Seems 
: 226 2 14 em
: 228 4 16 bar
: 232 2 14 rassed 
: 234 2 13 to 
: 236 3 11 be 
: 240 2 18 the
: 242 4 16 re 
- 248
: 254 4 18 Oh, 
: 266 3 13 think 
: 270 5 13 twice 
- 275
: 280 2 6 'Cause 
: 282 1 9 it's 
: 284 2 11 an
: 286 2 13 ot
: 288 2 13 her 
: 290 2 11 day 
- 292
: 292 2 9 for 
: 294 2 11 you 
: 296 2 9 and 
: 298 2 11 me 
: 300 1 9 in 
: 302 4 11 pa
: 306 2 13 ra
: 308 4 13 dise 
- 312
: 318 5 18 Oh, 
: 330 3 13 think 
: 334 5 13 twice 
- 339
: 344 2 6 It's 
: 346 2 9 just 
: 348 2 11 an
: 350 2 13 ot
: 352 2 13 her 
: 354 2 11 day 
: 356 2 9 for 
: 358 1 11 y
: 359 1 9 o
: 360 3 6 u 
- 363
: 366 2 11 You 
: 368 2 11 and 
: 370 4 13 me in 
: 374 4 11 pa
: 378 2 9 ra
: 380 2 6 dise 
- 382
: 442 2 11 Think 
: 444 1 9 a
: 445 3 11 bout 
: 448 2 6 it 
- 450
: 512 2 13 She 
: 514 2 14 calls 
: 516 6 16 out 
: 522 2 14 to 
: 524 2 13 the 
: 526 2 11 man 
: 528 2 9 on 
: 530 2 8 the 
: 533 7 6 street 
- 540
: 544 2 13 He 
: 546 2 14 can 
: 548 4 16 see 
: 554 2 14 she's 
: 556 2 13 been 
: 558 2 11 cry
: 561 5 16 ing 
- 566
: 578 1 13 She's 
: 579 1 14 got 
: 581 3 16 blis
: 584 3 16 ters 
: 587 2 14 on 
: 589 1 13 the 
: 590 3 11 soles 
: 593 2 9 of 
: 595 2 8 her 
: 598 6 6 feet 
- 604
: 610 2 14 Can't 
: 612 4 16 walk 
: 616 2 14 but 
: 618 2 13 she's 
: 620 4 11 try
: 625 7 16 ing 
- 632
: 638 4 18 Oh, 
: 650 4 13 think 
: 654 4 13 twice 
- 658
: 664 2 6 'Cause 
: 666 2 9 it's 
: 668 1 11 an
: 670 2 13 ot
: 672 2 13 her 
: 674 2 11 day 
- 676
: 676 1 9 for 
: 678 2 11 you 
: 680 2 9 and 
: 682 2 11 me 
: 684 2 9 in 
: 686 4 11 pa
: 690 2 13 ra
: 692 4 13 dise
- 696
: 702 4 18 Oh, 
: 714 3 13 think 
: 718 4 13 twice 
- 722
: 728 2 6 It's 
: 730 2 9 just 
: 732 2 11 an
: 734 2 13 ot
: 736 2 13 her 
: 738 2 11 day 
: 740 2 9 for 
: 742 1 11 y
: 743 1 9 o
: 744 2 6 u 
- 746
: 750 2 11 You 
: 752 2 11 and 
: 754 4 13 me in 
: 758 4 11 pa
: 762 2 9 ra
- 764
: 764 2 6 dise 
: 824 2 13 Just 
: 826 2 11 think 
: 828 1 9 a
: 829 3 11 bout 
: 832 1 13 it 
- 833
: 902 6 16 Oh, 
: 909 4 13 Lord 
- 915
: 920 2 11 Is 
: 922 2 11 there 
: 924 2 13 no
: 926 1 11 thing 
: 928 5 11 more 
: 934 2 11 a
: 936 1 9 ny
: 938 2 11 bo
: 940 1 9 dy 
: 944 4 16 can 
: 948 3 16 d
: 951 1 14 o
: 952 1 13 ? 
- 955
: 958 4 18 O
: 962 6 16 o
: 968 2 13 o
: 970 2 16 oh, 
: 972 1 14 Lo
: 973 4 13 rd 
- 977
: 984 2 9 There 
: 986 2 11 must 
: 988 2 13 be 
: 990 1 11 some
: 992 3 11 thing 
: 996 4 11 you 
: 1000 3 9 can 
* 1004 29 16 say
- 1033
: 1040 2 13 You 
: 1042 2 14 can 
: 1044 4 16 tell 
: 1048 2 14 from 
: 1050 2 13 the 
: 1052 4 11 lines 
: 1056 2 9 on 
: 1058 2 8 her 
: 1060 5 6 face 
- 1065
: 1072 2 13 You 
: 1074 2 14 can 
: 1076 4 16 see 
: 1080 2 14 that 
: 1082 2 13 she's 
: 1084 4 11 been 
: 1088 6 16 there
- 1094
: 1102 1 13 Pro
: 1103 1 13 ba
: 1104 2 13 bly 
: 1106 2 14 been 
: 1108 4 16 moved 
: 1112 2 14 on 
: 1114 2 13 from 
: 1116 4 11 e
: 1120 2 9 ve
: 1122 1 8 ry 
: 1124 6 6 place 
- 1130
: 1138 2 13 'Cause 
: 1140 2 14 she 
: 1142 2 16 did
: 1144 2 16 n't 
: 1146 2 14 fit 
: 1150 2 11 in 
: 1153 1 18 the
: 1154 6 16 re 
- 1160
: 1166 5 18 Oh, 
: 1178 3 13 think 
: 1182 5 13 twice 
- 1187
: 1192 2 6 'Cause 
: 1194 1 9 it's 
: 1196 2 11 an
: 1198 2 13 ot
: 1200 2 13 her 
: 1202 2 11 day 
- 1204
: 1204 2 9 for 
: 1206 2 11 you 
: 1208 2 9 and 
: 1210 2 11 me 
: 1212 1 9 in 
: 1214 4 11 pa
: 1218 2 13 ra
: 1220 4 13 dise 
- 1225
: 1230 5 18 Oh, 
: 1242 3 13 think 
: 1246 5 13 twice 
- 1251
: 1256 2 6 It's 
: 1258 2 9 just 
: 1260 2 11 an
: 1262 2 13 ot
: 1264 2 13 her 
: 1266 2 11 day 
: 1268 2 9 for 
: 1270 1 11 y
: 1271 1 9 o
: 1272 3 6 u 
- 1275
: 1278 2 11 You 
: 1280 2 11 and 
: 1282 4 13 me in 
: 1286 4 11 pa
: 1290 2 9 ra
: 1292 2 6 dise 
- 1294
: 1320 1 13 Just 
: 1322 2 11 think 
: 1324 1 9 a
: 1325 2 11 bout 
: 1328 1 6 it 
- 1330
: 1386 2 11 Think 
: 1388 1 9 a
: 1389 2 11 bout 
: 1391 1 6 it 
- 1395
: 1416 2 16 It's 
: 1418 2 16 just 
: 1420 2 16 an
: 1422 4 18 ot
: 1426 2 18 her 
: 1428 2 18 day 
- 1432
: 1436 2 9 for 
: 1438 4 11 you 
: 1442 2 16 and 
: 1444 1 14 me 
- 1447
: 1452 2 11 in 
: 1454 4 13 pa
: 1458 2 6 ra
: 1460 2 6 dise 
- 1465
: 1480 2 11 It's 
: 1482 2 13 just 
: 1484 2 16 an
: 1486 4 18 ot
: 1490 2 18 her 
: 1492 2 18 day 
- 1496
: 1500 2 9 for 
: 1502 4 11 you 
: 1506 2 16 and 
: 1508 2 14 me 
- 1512
: 1516 2 11 in 
: 1518 4 13 pa
: 1522 2 6 ra
: 1524 2 6 dise 
- 1528
: 1544 2 11 It's 
: 1546 2 13 just 
: 1548 2 16 an
: 1550 4 18 ot
: 1554 2 18 her 
: 1556 2 18 day 
- 1560
: 1564 2 9 for 
: 1566 4 11 you 
: 1570 2 16 and 
: 1572 2 14 me 
- 1576
: 1580 2 11 in 
: 1582 4 13 pa
: 1586 2 6 ra
: 1588 1 6 dise 
E