#TITLE:It's Magic
#ARTIST:Pilot
#MP3:Pilot - It's Magic.mp3
#VIDEO:Pilot - It's Magic.mp4
#COVER:Pilot - It's Magic.jpg
#BPM:202.9
#GAP:12890
#ENCODING:UTF8
#LANGUAGE:English
#GENRE:70s
#YEAR:1974
#START:1.23
: 7 4 -5 Oh,
: 14 6 -1  oh,
* 22 2 2  oh
: 26 2 -1 ~
: 30 2 -1  It's
: 34 2 7  ma
: 38 2 9 ~
: 42 3 9 gic
- 55
: 62 2 6 You
: 66 2 7  know
: 70 2 6 ~
: 74 11 4 ~
- 95
: 102 2 11 Ne
: 106 2 12 ver
: 110 2 11  be
: 114 6 9 lieve
: 122 2 11  it's
: 126 4 9  not
: 134 14 7  so
- 155
: 158 2 7 It's
: 162 2 7  ma
: 166 2 9 ~
: 170 3 9 gic
- 183
: 190 2 6 You
* 194 2 7  know
: 198 2 6 ~
: 202 11 4 ~
- 223
: 230 2 11 Ne
: 234 2 12 ver
: 238 2 11  be
: 242 6 9 lieve
: 250 2 11  it's
: 254 4 9  not
: 262 26 7  so
- 301
: 324 1 -3 I
: 326 1 -5  ne
: 328 1 -5 ver
: 330 1 -1  been
: 332 1 -1  a
: 334 2 2 wake
: 337 2 4 ~
: 340 2 2 ~
: 343 4 -1 ~
- 353
: 356 1 4 I
: 358 1 4  ne
: 360 1 4 ver
: 362 1 4  seen
: 364 1 4  a
: 366 3 6  day
: 370 3 2  break
- 383
: 390 1 -3 Lean
: 392 3 -3 ing
: 397 2 -3  on
: 400 1 -3  my
: 402 2 -1 ~
: 406 2 -3  pil
: 409 5 -5 low
: 415 2 -5  in
: 418 1 -5  the
- 421
: 423 2 2 Mor
: 426 8 4 ~
* 435 1 2 ning
: 437 1 4 ~
: 439 4 2 ~
- 449
: 452 1 -3 A
: 454 2 -5  la
: 457 1 -5 zy
: 460 2 2  day
* 463 2 4  in
: 466 3 2  bed
: 470 2 -1 ~
- 482
: 486 2 4 Mu
: 489 2 4 sic
: 492 2 4  in
: 495 2 4  my
: 498 2 6 ~
: 502 3 2  head
: 506 2 -1 ~
- 514
: 516 1 -1 A
: 518 3 -3  cra
: 522 2 -3 zy
: 525 2 -3  mu
: 528 3 -3 sic
: 533 2 -3  play
: 536 5 -5 ing
: 543 2 -5  in
: 546 1 -5  the
- 549
: 551 3 2 Mor
: 555 6 4 ~
: 563 2 2 ning
: 566 1 4 ~
: 568 6 2 ~
* 578 3 -5  ~
: 582 5 -5 light
- 600
: 616 4 -5 Oh,
: 622 6 -1  oh,
: 630 2 2  oh
: 634 2 -1 ~
: 638 2 -1  It's
: 642 2 7  ma
* 646 2 9 ~
: 650 3 9 gic
- 663
: 670 2 6 You
: 674 2 7  know
: 678 2 6 ~
: 682 11 4 ~
- 703
: 710 2 11 Ne
: 714 2 12 ver
: 718 2 11  be
: 722 6 9 lieve
: 730 2 11  it's
* 734 4 9  not
: 742 14 7  so
- 758
: 760 2 7 Oh
* 763 2 4 ~
: 766 2 7  It's
: 770 2 7  ma
: 774 2 9 ~
: 778 3 9 gic
- 791
: 798 2 6 You
: 802 2 7  know
: 806 2 6 ~
: 810 11 4 ~
- 831
: 838 2 11 Ne
: 842 2 12 ver
: 846 2 11  be
: 850 6 9 lieve
: 858 2 11  it's
: 862 4 9  not
: 870 26 7  so
- 909
: 933 1 -3 A
: 935 1 -5 no
: 937 1 -5 ther
: 941 2 2  sun
: 944 2 4 ny
: 947 2 2  day
: 950 2 -1 ~
- 961
: 964 1 -1 A
: 966 3 4  dream
: 970 1 4  of
: 972 3 4  far
: 976 2 6  a
: 979 3 2 way
* 983 3 -1 ~
- 995
: 999 1 -3 Dream
: 1001 3 -3 ing
: 1005 2 -3  on
: 1008 1 -3  my
: 1010 2 -1 ~
: 1014 2 -3  pil
: 1017 4 -5 low
: 1023 2 -5  in
: 1026 1 -5  the
- 1029
: 1031 2 2 Mor
: 1034 8 4 ~
: 1043 2 2 ning
: 1046 1 4 ~
: 1048 3 2 ~
- 1057
: 1060 1 -3 I
: 1062 1 -5  ne
* 1064 1 -5 ver
: 1066 1 -1  been
: 1068 1 -1  a
: 1070 2 2 wake
: 1073 2 4 ~
: 1076 2 2 ~
: 1079 4 -1 ~
- 1089
: 1092 1 4 I
: 1094 1 4  ne
: 1096 1 4 ver
: 1098 1 4  seen
: 1100 1 4  a
: 1102 3 6  day
: 1106 3 2  break
- 1119
: 1126 1 -3 Lean
: 1128 3 -3 ing
: 1133 2 -3  on
: 1136 1 -3  my
: 1138 2 -1 ~
: 1142 2 -3  pil
: 1145 5 -5 low
: 1151 2 -5  in
: 1154 1 -5  the
- 1157
: 1159 3 2 Mor
: 1163 6 4 ~
: 1171 2 2 ning
* 1174 1 4 ~
: 1176 6 2 ~
: 1186 3 -5  ~
: 1190 5 -5 light
- 1208
: 1225 4 -5 Oh,
: 1231 6 -1  oh,
: 1239 2 2  oh
: 1243 2 -1 ~
: 1247 2 -1  It's
: 1251 2 7  ma
: 1255 2 9 ~
: 1259 3 9 gic
- 1274
: 1278 2 6 You
: 1282 2 7  know
: 1286 2 6 ~
* 1290 11 4 ~
- 1311
: 1318 2 11 Ne
* 1322 2 12 ver
: 1326 2 11  be
: 1330 6 9 lieve
: 1338 2 11  it's
: 1342 4 9  not
: 1350 14 7  so
- 1366
: 1368 2 7 Oh
: 1371 2 4 ~
: 1374 2 7  It's
: 1378 3 7  ma
: 1383 2 9 ~
: 1386 3 9 gic
- 1399
: 1406 2 6 You
: 1410 2 7  know
* 1414 2 6 ~
: 1418 11 4 ~
- 1439
: 1446 2 11 Ne
: 1450 2 12 ver
: 1454 2 11  be
: 1458 6 9 lieve
: 1466 2 11  it's
: 1470 4 9  not
: 1478 26 7  so
- 1531
: 1832 4 -5 Oh,
* 1838 6 -1  oh,
: 1846 2 2  oh
: 1850 2 -1 ~
: 1854 2 -1  It's
: 1858 2 7  ma
: 1862 2 9 ~
: 1866 3 9 gic
- 1879
: 1886 2 6 You
: 1890 2 7  know
: 1894 2 6 ~
: 1898 11 4 ~
- 1919
: 1926 2 11 Ne
: 1930 2 12 ver
: 1934 2 11  be
: 1938 6 9 lieve
: 1946 2 11  it's
: 1950 4 9  not
: 1958 14 7  so
- 1974
: 1976 2 7 Oh
: 1979 2 4 ~
: 1982 2 7  It's
: 1986 3 7  ma
* 1991 2 9 ~
: 1994 3 9 gic
- 2007
: 2014 2 6 You
: 2018 2 7  know
: 2022 2 6 ~
: 2026 11 4 ~
- 2047
: 2054 2 11 Ne
: 2058 2 12 ver
: 2062 2 11  be
: 2066 6 9 lieve
: 2074 2 11  it's
: 2078 4 9  not
: 2086 26 7  so
- 2139
: 2203 10 7 ~
E