#TITLE:See Emily Play
#ARTIST:Pink Floyd
#MP3:Pink Floyd - See Emily Play.mp3
#VIDEO:Pink Floyd - See Emily Play.mp4
#COVER:Pink Floyd - See Emily Play.jpg
#BPM:249.8
#GAP:1300
#ENCODING:UTF8
#AUTHOR:debaser
: 238 2 71 E
: 242 2 69 mi
: 246 2 71 ly 
: 251 9 67 tries 
- 263
: 267 2 67 but 
* 271 2 66 mis
* 275 3 69 un
* 281 3 66 der
* 287 16 64 stands 
- 307
: 312 4 64 ah 
: 320 20 71 ooh 
- 343
: 348 2 71 she's 
: 352 2 71 of
: 356 2 71 ten 
: 360 2 71 in
: 365 4 71 clined 
: 373 2 69 to 
: 377 2 67 bor
: 381 2 64 row 
- 384
: 385 3 71 some
: 390 1 69 bo
: 393 2 71 dy's 
: 398 6 69 dreams 
: 409 3 67 till 
: 415 1 62 to
: 417 2 62 mor
: 421 14 67 row 
- 444
: 459 4 67 There 
: 467 4 71 is 
: 475 4 74 no 
: 483 2 76 ot
: 487 2 74 her 
: 492 9 71 day 
- 512
: 524 4 69 let's 
: 533 4 71 try 
: 541 4 74 it 
* 549 2 76 'no
* 553 2 74 ther 
* 558 8 71 way 
- 576
: 590 4 69 you'll 
: 598 4 71 lose 
: 606 2 74 your 
: 610 4 76 mind
: 617 2 74 ~ 
: 621 2 74 and 
: 626 10 71 play 
- 644
: 654 20 62 free 
: 678 2 61 games
: 683 3 57 ~ 
: 690 2 57 for 
: 695 11 55 May 
- 712
: 719 2 62 see
: 723 2 61 ~
: 727 2 62 ~
: 731 2 61 ~
: 735 2 62 ~
: 739 2 61 ~ 
: 743 2 62 E
: 747 2 64 mi
: 751 2 61 ly 
: 755 36 62 play 
- 804
* 923 2 71 Soon 
* 927 2 69 af
* 931 2 71 ter 
* 936 6 67 dark 
- 947
: 956 2 66 E
: 960 2 69 mi
: 964 3 66 ly 
: 972 18 64 cries 
- 993
: 997 4 64 ah 
: 1005 24 71 ooh 
- 1032
: 1037 2 71 ga
: 1041 2 71 zing 
: 1045 2 71 through 
: 1050 4 71 trees 
: 1058 2 69 in 
: 1062 2 67 sor
: 1066 2 64 row 
- 1069
: 1070 3 71 har
: 1075 1 69 dly 
: 1078 2 71 a 
: 1083 4 69 sound
: 1089 2 67 ~ 
: 1094 2 67 till 
* 1099 1 62 to
* 1101 2 62 mor
* 1106 14 67 row 
- 1128
: 1142 4 67 There 
: 1150 4 71 is 
: 1158 4 74 no 
: 1166 2 76 ot
: 1170 2 74 her 
: 1175 9 71 day 
- 1195
: 1206 4 69 let's 
: 1214 4 71 try 
: 1222 4 74 it 
: 1230 2 76 'no
: 1234 2 74 ther 
: 1238 10 71 way 
- 1256
: 1270 4 69 you'll 
: 1278 4 71 lose 
: 1286 2 74 your 
: 1291 4 76 mind
: 1298 2 74 ~ 
: 1302 2 74 and 
: 1307 12 71 play 
- 1326
* 1335 20 62 free 
: 1359 2 61 games
: 1364 3 57 ~ 
: 1371 2 57 for 
: 1376 12 55 May 
- 1394
: 1400 2 62 see
: 1404 2 61 ~
: 1408 2 62 ~
: 1412 2 61 ~
: 1416 2 62 ~
: 1420 2 61 ~ 
: 1424 2 62 E
: 1428 2 64 mi
: 1432 2 61 ly 
: 1437 36 62 play 
- 1488
: 2046 2 71 Put 
: 2050 2 69 on 
: 2054 2 71 a 
: 2059 7 67 gown 
- 2070
: 2074 2 67 that 
: 2079 2 66 touch
: 2084 3 69 es 
* 2090 3 66 the 
* 2095 14 64 ground 
- 2114
: 2119 4 64 ah 
: 2127 24 71 ooh 
- 2154
: 2159 2 71 float 
: 2163 2 71 on 
: 2167 2 71 a 
: 2171 4 71 ri
: 2179 4 71 ver 
- 2185
: 2187 2 71 fo
: 2191 2 71 re
: 2195 2 71 ver 
: 2199 2 71 and 
: 2204 4 69 e
: 2212 4 67 ver 
- 2218
* 2224 2 62 E
* 2228 2 67 mi
* 2232 20 67 ly 
- 2258
: 2264 4 67 There 
: 2272 4 71 is 
: 2280 4 74 no 
: 2288 2 76 ot
: 2292 2 74 her 
: 2297 9 71 day 
- 2316
: 2328 4 69 let's 
: 2336 4 71 try 
: 2344 4 74 it 
: 2352 2 76 'no
: 2356 2 74 ther 
: 2361 8 71 way 
- 2376
: 2392 4 69 you'll 
: 2400 4 71 lose 
: 2408 2 74 your 
: 2413 4 76 mind
: 2420 2 74 ~ 
: 2424 2 74 and 
: 2429 8 71 play 
- 2444
: 2455 20 62 free 
: 2479 2 61 games
: 2484 3 57 ~ 
* 2491 2 57 for 
* 2496 12 55 May 
- 2512
: 2519 2 62 see
: 2523 2 61 ~
: 2527 2 62 ~
: 2531 2 61 ~
: 2535 2 62 ~
: 2539 2 61 ~ 
: 2543 2 62 E
: 2547 2 64 mi
: 2551 2 61 ly 
- 2555
: 2556 66 62 play
: 2627 27 60 ~
: 2659 16 57 ~. 
E