#TITLE:U & Ur Hand
#ARTIST:P!nk
#MP3:Pink - U + Ur Hand.mp3
#VIDEO:Pink - U + Ur Hand.mkv
#COVER:urhand.jpg
#BPM:282,02
#GAP:3750
#MedleyStartBeat:2889
#MedleyEndBeat:3322
#ENCODING:UTF8
#PREVIEWSTART:157,659
#LANGUAGE:English
#EDITION:[SC]-Songs
: 0 6 7 Uhh
: 8 4 7  uh
: 12 4 7  uh
: 20 4 7  uh
: 28 4 7  uh
: 32 8 7  uhh
- 42
: 44 4 7 Uh
: 48 8 7  uhh
: 56 12 7  Oh
- 70
: 72 4 7 Uh
: 76 4 7  uh
: 84 4 7  uh
: 92 4 7  uh
: 96 8 7  uhh
- 106
: 108 4 7 Uh
: 112 6 7  uhh
: 120 12 7  Oh
- 134
: 136 3 7 Check
: 140 2 7  it
: 144 4 4  out
- 150
: 152 3 7 Go
: 156 2 7 ing
: 160 4 4  out
- 166
: 168 3 7 On
: 172 2 7  the
: 176 5 7  late
: 184 7 6  night
- 193
: 200 3 7 Loo
: 204 2 7 king
: 208 4 4  tight
- 214
: 216 3 7 Fee
: 220 2 7 ling
: 224 4 4  nice
- 230
: 232 2 7 It's
: 236 2 7  a
: 240 4 7  cock
: 248 6 6  fight
- 256
: 264 2 7 I
: 268 2 7  can
: 272 4 4  tell
- 278
: 280 2 7 I
: 284 2 7  just
: 288 4 4  know
- 294
: 296 3 4 That
: 300 2 4  it's
: 304 6 4  go
: 312 3 6 ing
: 317 7 7  down
- 326
: 344 3 9 To
: 349 9 11 night
- 360
: 392 3 16 At
: 396 2 16  the
: 400 7 14  door
: 409 2 14  we
: 413 2 14  don't
: 417 6 12  wait
- 424
: 424 3 12 cause
: 428 2 12  we
: 432 6 12  know
: 440 7 11  them
- 449
: 456 3 16 At
: 460 2 16  the
: 464 5 14  bar
: 472 5 14  six
: 480 4 12  shots
: 488 2 12  just
: 492 3 12  be
: 496 6 12 gin
: 504 5 11 ning
- 511
: 520 4 7 That's
: 528 4 4  when
: 536 4 7  dick
: 545 4 4  head
: 552 3 7  put
: 557 2 7  his
: 561 5 4  hands
: 568 3 6  on
: 573 5 7  me
- 580
: 596 3 7 But
: 600 2 9  you
: 604 6 11  see
- 612
: 640 6 19 I'm
: 648 6 19  not
: 657 4 19  here
: 664 2 19  for
: 668 2 18  your
: 672 6 19  en
: 680 2 18 ter
: 684 6 19 tain
* 694 9 23 ment
- 705
: 712 2 23 You
: 716 2 23  don't
: 720 3 23  real
: 724 2 23 ly
: 728 3 23  wan
: 732 2 23 na
: 736 6 23  mess
: 744 2 21  with
: 748 5 19  me
: 756 5 18  to
: 764 5 19 ni
: 770 3 16 ~ght
- 774
: 776 4 19 Just
: 784 5 19  stop
: 792 5 19  and
: 800 6 19  take
: 808 2 18  a
: 812 6 19  se
: 821 10 23 cond
- 833
: 840 3 23 I
: 845 2 23  was
: 848 3 23  fine
: 853 2 23  be
: 856 2 23 fore
: 860 2 23  you
: 864 6 26  walked
: 873 2 24  in
: 876 3 23 to
: 880 2 21 ~
: 884 5 21  my
: 892 13 21  life
- 907
: 917 2 14 Cause
: 921 2 16  you
* 925 4 23  know
: 932 3 16  i
: 936 2 14 ~t's
: 941 5 16  o
: 948 2 16 ve
: 952 7 19 ~r
- 961
: 980 3 14 Be
: 984 2 16 fore
: 989 4 23  it
: 996 3 16  be
: 1000 2 14 ~
: 1004 3 16 ga
: 1008 5 14 ~n
- 1015
: 1024 6 19 Keep
: 1032 4 19  your
: 1040 5 19  drink
: 1048 6 18  just
: 1056 3 19  give
: 1060 2 19  me
: 1064 2 18  the
: 1069 5 19  mo
* 1077 8 23 ney
- 1087
: 1092 2 19 It's
: 1096 4 19  just
: 1104 2 19  you
: 1108 2 19  and
: 1112 4 19  your
: 1120 5 23  hand
: 1128 2 21  to
: 1132 3 21 ni
: 1136 1 19 ~
: 1138 7 19 ~ght
- 1147
: 1152 7 19 Uhh
: 1160 4 19  uh
: 1164 6 19  uh
: 1172 4 19  uh
- 1176
: 1176 3 19 Uh
: 1180 3 19  uh
: 1184 6 19  uhh
- 1191
: 1192 3 19 Uh
: 1196 3 19  uh
: 1200 6 19  uhh
: 1208 6 19  Oh
- 1215
: 1216 6 19 Uhh
: 1224 3 19  uh
: 1228 4 19  uh
: 1236 4 19  uh
- 1240
: 1240 3 19 Uh
: 1244 3 19  uh
: 1248 6 19  uhh
- 1255
: 1256 3 19 Uh
: 1260 3 19  uh
: 1264 6 19  uhh
: 1272 6 19  Oh
- 1280
: 1288 5 7 Mid
: 1296 5 4 night
- 1303
: 1306 4 7 I'm
: 1314 5 4  drunk
- 1320
: 1321 2 7 I
: 1325 3 7  don't
: 1329 3 7  give
: 1333 2 7  a
: 1337 6 6  fuck
- 1345
: 1353 3 7 Wan
: 1357 2 7 na
: 1361 5 4  dance
- 1367
: 1369 2 7 By
: 1373 2 7  my
: 1378 4 4 self
- 1383
: 1385 2 7 Guess
: 1390 2 7  you're
: 1394 3 7  out
: 1398 2 7 ta
: 1402 5 6  luck
- 1409
: 1417 5 7 Don't
: 1425 5 4  touch
- 1431
: 1433 5 7 Back
: 1441 5 4  up
- 1447
: 1449 4 7 I'm
: 1457 5 4  not
: 1465 2 6  the
: 1469 9 7  one
- 1480
: 1493 3 7 Uh
: 1497 2 9  Buh
* 1501 8 11  bye
- 1511
: 1545 2 16 Lis
: 1549 2 16 ten
: 1553 5 14  up
: 1561 4 14  it's
: 1569 4 12  just
: 1577 5 12  not
: 1585 3 12  hap
: 1589 2 12 pe
: 1593 5 11 ning
- 1600
: 1609 3 16 You
: 1613 2 16  can
: 1617 4 14  say
: 1625 2 14  what
: 1629 2 14  you
: 1633 5 12  want
- 1639
: 1641 2 12 to
: 1645 2 12  your
: 1649 4 12  boy
: 1657 7 11 friends
- 1666
: 1673 3 7 Just
: 1681 4 4  let
: 1689 4 7  me
: 1697 4 4  have
: 1705 3 7  my
: 1713 5 4  fun
: 1721 2 6  to
: 1725 9 7 night
- 1736
: 1753 3 9 A
: 1757 10 11 ~ight
- 1769
: 1793 5 19 I'm
: 1801 5 19  not
: 1809 4 19  here
: 1817 2 19  for
: 1821 2 18  your
: 1825 5 19  en
: 1833 2 18 ter
: 1837 5 19 tain
* 1847 8 23 ment
- 1857
: 1865 2 23 You
: 1869 3 23  don't
: 1873 3 23  real
: 1877 2 23 ly
: 1881 3 23  wan
: 1885 2 23 na
: 1889 5 23  mess
: 1897 2 21  with
: 1901 4 19  me
: 1909 5 18  to
: 1917 4 19 ni
: 1922 4 16 ~ght
- 1927
: 1929 4 19 Just
: 1937 5 19  stop
: 1945 5 19  and
: 1953 6 19  take
: 1961 2 18  a
: 1965 6 19  se
: 1974 6 23 co
* 1981 2 21 ~
: 1984 6 19 ~nd
- 1991
: 1993 3 23 I
: 1997 2 23  was
: 2002 2 23  fine
: 2005 2 23  be
: 2009 2 23 fore
: 2013 2 23  you
: 2018 5 26  walked
: 2026 2 24  in
: 2029 3 23 to
: 2033 2 21 ~
: 2037 6 21  my
: 2045 11 21  life
- 2058
: 2070 2 14 Cause
: 2074 2 16  you
* 2078 4 23  know
: 2085 3 16  i
: 2089 2 14 ~t's
: 2094 4 16  o
: 2101 3 16 ve
: 2105 7 19 ~r
- 2114
: 2133 2 14 Be
: 2137 2 16 fore
: 2142 3 23  it
: 2149 3 16  be
: 2153 2 14 ~
: 2157 3 16 ga
: 2161 5 14 n
- 2168
: 2177 5 19 Keep
: 2185 4 19  your
: 2193 6 19  drink
: 2201 5 18  just
: 2209 2 19  give
: 2213 3 19  me
: 2217 2 18  the
: 2221 5 19  mo
: 2230 7 23 ne
: 2238 2 21 ~
: 2241 2 19 ~y
- 2244
: 2245 2 19 It's
: 2249 4 19  just
: 2257 2 19  you
: 2261 3 19  and
: 2265 4 19  your
: 2273 6 23  hand
: 2281 2 21  to
: 2285 3 21 ni
: 2289 1 19 ~
: 2291 6 19 ~ght
- 2299
: 2317 6 19 Uh
: 2325 6 19  uh
: 2333 3 19  Uh
: 2337 8 19  uhh
- 2347
: 2349 3 19 Uh
: 2353 6 19  uhh
: 2361 8 19  Oh
- 2371
: 2381 6 19 Uh
: 2397 3 19  uh
: 2401 8 19  uhh
- 2411
: 2413 4 19 Uh
: 2425 8 19  Oh
- 2435
: 2442 3 16 In
: 2446 2 14  the
: 2450 3 16  cor
: 2454 2 14 ner
: 2458 2 16  with
: 2462 2 14  your
: 2466 3 16  boys
- 2470
: 2470 2 14 you
: 2474 2 16  bet
: 2477 2 14  up
: 2482 4 16  five
: 2490 6 19  bucks
- 2498
: 2502 2 14 To
: 2506 2 21  get
: 2510 2 19  the
: 2514 3 21  girl
: 2518 2 19  that
: 2522 2 21  just
: 2526 3 19  walked
: 2530 2 21  in
- 2533
: 2534 2 19 But
: 2538 2 21  she
: 2542 2 23  thinks
: 2546 3 19  you
: 2554 5 16  suck
- 2561
: 2566 2 14 We
: 2570 2 16  did
: 2573 2 14 n't
: 2578 2 16  get
: 2581 2 14  all
: 2586 2 16  dressed
: 2589 3 14  up
- 2593
: 2594 2 16 just
: 2598 2 14  for
: 2602 2 16  you
: 2606 2 14  to
: 2610 6 16  see
* 2618 5 19 ~
- 2625
: 2629 2 14 So
: 2634 3 21  quit
: 2642 3 21  spil
: 2646 2 19 ling
: 2650 3 21  you
: 2654 2 19 ~r
: 2658 4 23  drinks
: 2666 3 23  o
: 2670 2 21 ~n
: 2674 3 21  me
: 2678 3 19 ~
: 2686 3 16  yea
: 2690 3 14 ~
: 2694 4 16 ~h
- 2700
: 2718 4 16 You
: 2722 4 16  know
: 2726 2 16  who
: 2728 2 16  you
: 2730 8 16  are
- 2740
: 2742 4 16 High
: 2748 4 16  fi
: 2752 4 16 vin',
: 2756 4 16  tal
: 2760 4 16 king
: 2764 6 16  shit
- 2770
: 2770 2 16 But
: 2772 4 16  you're
: 2776 2 16  go
: 2778 2 16 in
: 2780 4 16  home
: 2784 2 16  a
: 2786 4 16 lone,
: 2790 4 16  aren't
: 2794 4 16  cha?
- 2800
: 2810 4 18 Cause
: 2817 5 19  I'm
: 2825 5 19  not
: 2833 4 19  here
: 2841 2 19  for
: 2845 2 18  your
: 2849 5 19  en
: 2857 2 18 ter
: 2861 6 19 tain
* 2870 9 23 ment
- 2881
: 2889 2 23 You
: 2893 3 23  don't
: 2897 3 23  real
: 2901 2 23 ly
: 2905 3 23  wan
: 2909 2 23 na
: 2913 5 23  mess
: 2921 2 21  with
: 2925 5 19  me
: 2933 5 18  to
: 2941 3 19 ni
: 2945 5 16 ~ght
- 2951
: 2953 4 19 Just
: 2961 5 19  stop
: 2969 5 19  and
: 2977 6 19  take
: 2985 2 18  a
: 2989 6 19  se
* 2998 11 23 cond
- 3011
: 3018 2 23 I
: 3021 2 23  was
: 3026 3 23  fine
: 3030 2 23  be
: 3034 2 23 fore
: 3037 2 23  you
: 3042 6 26  walked
: 3050 2 24  in
: 3053 3 23 to
: 3057 2 21 ~
: 3061 5 21  my
: 3069 12 21  life
- 3083
: 3094 2 14 Cause
: 3098 2 16  you
* 3102 4 23  know
: 3109 3 16  i
: 3113 2 14 ~t's
: 3118 5 16  o
: 3125 2 16 ve
: 3129 8 19 ~r
- 3139
: 3157 3 14 Be
: 3161 2 16 fore
: 3166 3 23  it
: 3173 3 16  be
: 3177 2 14 ~
: 3181 3 16 ga
: 3185 5 14 n
- 3192
: 3201 5 19 Keep
: 3209 4 19  your
: 3217 6 19  drink
: 3225 5 18  just
: 3233 3 19  give
: 3237 2 19  me
: 3241 2 18  the
: 3245 6 19  mo
* 3254 9 23 ney
- 3265
: 3269 2 19 It's
: 3273 4 19  just
: 3281 2 19  you
: 3285 3 19  and
: 3289 4 19  your
: 3297 6 23  hand
: 3305 2 21  to
: 3309 3 21 ni
: 3313 1 19 ~
: 3315 7 19 ~ght
- 3324
: 3330 4 19 I'm
: 3338 5 19  not
: 3346 4 19  here
: 3354 2 19  for
: 3358 2 18  your
: 3362 5 19  en
: 3370 2 18 ter
: 3374 5 19 tain
* 3382 10 23 ment
- 3394
: 3402 2 23 You
: 3406 3 23  don't
: 3410 3 23  real
: 3414 2 23 ly
: 3418 3 23  wan
: 3422 2 23 na
: 3426 5 23  mess
: 3434 2 21  with
: 3438 4 19  me
: 3446 5 18  to
: 3454 3 19 ni
: 3458 5 16 ~ght
- 3464
: 3466 4 19 Just
: 3474 5 19  stop
: 3482 5 19  and
: 3490 6 19  take
: 3498 2 18  a
: 3502 6 19  se
* 3511 11 23 cond
- 3524
: 3529 3 23 I
: 3533 2 23  was
: 3538 3 23  fine
: 3542 2 23  be
: 3546 2 23 fore
: 3550 2 23  you
: 3554 4 26  walked
: 3561 3 24  in
: 3566 3 23 to
: 3570 2 21 ~
: 3574 5 21  my
: 3582 13 21  life
- 3597
: 3606 2 14 Cause
: 3610 2 16  you
* 3615 4 23  know
: 3622 3 16  i
: 3626 2 14 ~t's
: 3631 5 16  o
: 3638 2 16 ve
: 3642 6 19 ~r
- 3650
: 3669 2 14 Be
: 3673 3 16 fore
: 3678 4 23  it
: 3686 3 16  be
: 3690 2 14 ~
: 3694 3 16 ga
: 3698 5 14 n
- 3705
: 3714 5 19 Keep
: 3722 4 19  your
: 3730 5 19  drink
: 3738 4 18  just
: 3746 3 19  give
: 3750 2 19  me
: 3754 2 18  the
: 3758 5 19  mo
* 3767 8 23 ney
- 3777
: 3782 2 19 It's
: 3786 3 19  just
: 3794 3 19  you
: 3798 2 19  and
: 3802 4 19  your
: 3810 6 23  hand
: 3818 2 21  to
: 3822 3 21 ni
: 3826 1 19 ~
: 3828 6 19 ~ght
- 3836
: 3841 2 23 Yea
: 3844 2 21 ~
: 3847 4 19 ~h
: 3860 2 16  o
: 3863 2 14 ~
: 3866 4 16 ~h
E