#TITLE:I Don't Believe You
#ARTIST:Pink
#MP3:Pink - I Don't Believe You.mp3
#VIDEO:Pink - I Don't Believe You.mp4
#COVER:Pink - I Don't Believe You[CO].jpg
#BPM:372,06
#GAP:7730
#ENCODING:UTF8
#LANGUAGE:English
#GENRE:Pop
#YEAR:2009
: 0 4 0 I 
: 8 4 -2 don't 
* 16 12 0 mind 
: 32 4 1 it
: 40 8 0 ~
- 50
: 64 4 0 I 
: 72 4 -2 don't 
: 80 12 0 mind 
: 96 2 0 at
: 100 2 -4 ~ 
: 104 8 -5 all
- 114
: 200 8 -4 It's 
: 216 8 -2 like 
- 226
: 256 4 0 You're 
: 264 4 -2 the 
: 272 12 0 swing 
: 288 2 0 set
: 292 2 1 ~
* 296 8 0 ~
- 306
: 316 2 -2 And 
: 320 4 0 I'm 
: 328 4 -2 the 
: 336 12 0 kid 
: 352 2 0 that
: 356 2 -4 ~ 
: 360 8 -5 falls
- 370
: 456 8 -4 It's 
: 472 8 -2 like 
- 482
: 512 4 -4 The 
: 520 4 1 way
: 528 4 0 ~ 
: 536 12 0 we 
: 552 2 -2 fight
: 556 8 0 ~
- 566
: 576 4 -4 The 
: 584 4 1 times
: 592 4 0 ~ 
: 600 4 0 I've
: 608 4 -2 ~ 
: 616 8 -4 cried
- 626
: 640 4 -7 We 
: 648 4 1 come
: 656 4 0 ~ 
* 664 12 0 to 
: 680 2 -2 blows
: 684 8 0 ~
- 694
: 704 4 -4 And 
: 712 4 1 e
: 720 4 0 ~
: 728 4 0 very
: 736 4 -4 ~ 
: 744 4 -4 night
- 750
: 768 4 -7 The 
: 776 4 1 pa
: 784 4 0 ~
: 792 8 0 ssion's 
: 808 8 0 there
- 818
: 824 4 -4 So 
: 832 4 -4 it's 
: 840 4 1 got
: 848 4 0 ta 
: 856 4 0 be
: 864 4 -2 ~ 
: 872 4 -2 right
- 878
: 936 12 -2 Right?
- 950
: 992 6 0 No
: 1000 2 0 ~
: 1004 2 3 ~
- 1006
: 1008 28 3 I 
: 1040 4 3 don't
: 1048 4 0 ~ 
: 1056 4 0 be
* 1064 20 7 lieve
: 1088 4 5 ~ 
: 1096 16 5 you
- 1114
: 1136 4 3 When 
: 1144 12 3 you 
: 1160 4 3 say
: 1168 4 0 ~ 
: 1176 12 0 don't 
- 1190
: 1200 4 3 Come 
* 1208 12 3 a
: 1224 4 3 round
: 1232 4 -2 ~ 
: 1240 4 -2 here 
: 1248 2 -2 no
: 1252 2 0 ~ 
: 1256 8 0 more
- 1266
: 1288 4 3 I 
: 1296 12 3 won't 
: 1312 4 0 re
: 1320 20 7 mind
: 1344 4 5 ~ 
: 1352 16 5 you
- 1370
: 1384 4 5 You 
: 1392 12 8 said 
: 1408 4 8 we 
: 1416 4 8 would
: 1424 4 1 n't 
: 1432 4 1 be 
: 1440 4 0 a
: 1448 2 0 part
: 1452 12 -2 ~
- 1466
: 1504 6 0 No
: 1512 2 0 ~
: 1516 2 3 ~
- 1518
: 1520 28 3 I 
: 1552 4 3 don't
: 1560 4 0 ~ 
: 1568 4 0 be
: 1576 20 7 lieve
: 1600 4 5 ~ 
: 1608 16 5 you
- 1626
: 1648 4 3 When 
: 1656 12 3 you 
: 1672 4 3 say
: 1680 4 0 ~ 
: 1688 12 0 you
- 1702
: 1712 4 3 Don't 
: 1720 12 3 need 
: 1736 12 3 me 
: 1752 4 -2 a
: 1760 2 -2 ny
: 1764 2 0 ~
: 1768 12 0 more
- 1782
: 1800 4 3 So 
: 1808 4 3 don't
: 1816 4 0 ~ 
: 1824 4 0 pre
: 1832 28 7 tend 
: 1864 16 8 to
- 1882
: 1904 20 8 Not 
* 1928 12 8 love 
: 1944 4 1 me 
: 1952 4 0 at 
: 1960 4 0 all
: 1968 16 -2 ~
- 1986
: 2048 4 0 I 
: 2056 4 -2 don't 
: 2064 12 0 mind 
: 2080 4 1 it
: 2088 4 0 ~
- 2094
: 2112 4 0 Still 
: 2120 4 -2 don't 
: 2128 12 0 mind 
: 2144 2 0 at
: 2148 2 -4 ~ 
: 2152 8 -5 all
- 2162
: 2248 8 -4 It's 
* 2264 8 -2 like 
- 2274
: 2304 2 0 One 
: 2308 2 0 of 
: 2312 4 -2 those 
: 2320 8 0 bad 
: 2336 2 0 dreams
: 2340 2 1 ~
: 2344 8 0 ~
- 2354
: 2368 4 0 When 
: 2376 4 -2 you 
: 2384 8 0 can't 
: 2400 2 0 wake
: 2404 2 -4 ~ 
: 2408 8 -5 up
- 2418
: 2504 8 -4 It's 
: 2520 8 -2 like 
- 2530
: 2560 4 -4 You've 
: 2568 4 1 gi
: 2576 4 0 ~
* 2584 12 0 ven 
: 2600 2 -2 up
: 2604 8 0 ~
- 2614
: 2624 4 -4 You've 
: 2632 4 1 had
: 2640 4 0 ~ 
* 2648 4 0 e
: 2656 4 -4 ~
: 2664 8 -4 nough
- 2674
: 2688 4 -4 But 
: 2696 4 1 I
: 2704 4 0 ~ 
: 2712 12 0 want 
: 2728 2 -2 more
: 2732 8 0 ~
- 2742
: 2752 4 -4 No, 
: 2760 4 1 I
: 2768 4 0 ~ 
: 2776 4 0 won't
: 2784 4 -4 ~ 
: 2792 8 -4 stop
- 2802
: 2816 4 -4 'Cause 
: 2824 4 1 I
: 2832 4 0 ~ 
: 2840 8 0 just 
: 2856 2 -2 know
: 2860 8 0 ~
- 2870
: 2880 4 -4 You'll 
: 2888 4 1 come
: 2896 4 0 ~ 
: 2904 4 0 a
: 2912 4 -2 ~
: 2920 2 -2 round
: 2924 2 -4 ~
: 2928 16 -7 ~
- 2946
: 2984 16 -2 Right?
- 3002
: 3040 6 0 No
* 3048 2 0 ~
: 3052 2 3 ~
- 3054
: 3056 28 3 I 
: 3088 4 3 don't
: 3096 4 0 ~ 
: 3104 4 0 be
: 3112 20 7 lieve
: 3136 4 5 ~ 
: 3144 16 5 you
- 3162
* 3184 4 3 When 
: 3192 12 3 you 
: 3208 4 3 say
: 3216 4 0 ~ 
: 3224 12 0 don't 
- 3238
: 3248 4 3 Come 
: 3256 12 3 a
: 3272 4 3 round
: 3280 4 -2 ~ 
: 3288 4 -2 here 
: 3296 2 -2 no
: 3300 2 0 ~ 
* 3304 8 0 more
- 3314
: 3336 4 3 I 
: 3344 12 3 won't 
: 3360 4 0 re
: 3368 20 7 mind
: 3392 4 5 ~ 
: 3400 16 5 you
- 3418
: 3432 4 5 You 
: 3440 12 8 said 
: 3456 4 8 we 
: 3464 4 8 would
: 3472 4 1 n't 
: 3480 4 1 be 
: 3488 4 0 a
: 3496 2 0 part
: 3500 12 -2 ~
- 3514
: 3552 6 0 No
* 3560 2 0 ~
: 3564 2 3 ~
- 3566
: 3568 28 3 I 
: 3600 4 3 don't
: 3608 4 0 ~ 
: 3616 4 0 be
: 3624 20 7 lieve
: 3648 4 5 ~ 
: 3656 16 5 you
- 3674
: 3696 4 3 When 
: 3704 12 3 you 
: 3720 4 3 say
: 3728 4 0 ~ 
: 3736 12 0 you
- 3750
: 3760 4 3 Don't 
: 3768 12 3 need 
: 3784 12 3 me 
: 3800 4 -2 a
: 3808 2 -2 ny
: 3812 2 0 ~
* 3816 12 0 more
- 3830
: 3848 4 3 So 
: 3856 4 3 don't
: 3864 4 0 ~ 
: 3872 4 0 pre
: 3880 28 7 tend 
* 3912 16 8 to
- 3930
: 3952 20 8 Not 
: 3976 12 8 love 
: 3992 4 1 me 
: 4000 4 0 at 
: 4008 4 0 all
: 4016 16 -2 ~
- 4034
: 4064 4 5 Just 
* 4072 4 7 don't 
: 4080 4 8 stand 
: 4088 4 8 there 
- 4094
: 4096 4 8 And 
: 4104 8 8 watch 
: 4120 4 1 me
: 4128 4 0 ~ 
: 4136 2 -2 fall
: 4140 38 0 ~
: 4180 2 -2 ~
: 4184 8 -4 ~
- 4194
: 4344 4 7 'Cause 
: 4352 12 7 I
- 4366
: 4376 4 5 'Cause 
: 4384 4 7 I 
: 4392 12 8 still 
: 4408 4 10 don't
: 4416 4 8 ~ 
: 4424 4 13 mind
: 4432 4 12 ~ 
: 4440 4 12 at
: 4448 4 10 ~ 
: 4456 4 10 all
* 4464 32 8 ~
- 4498
: 4680 8 -4 It's 
: 4696 8 -2 like 
- 4706
: 4736 4 -4 The 
: 4744 4 1 way
: 4752 4 0 ĂÂ 
: 4760 12 0 we 
: 4776 4 -2 fight
: 4780 8 0 ght
- 4790
: 4800 4 -4 The 
* 4808 4 1 times
: 4816 4 0 ~ 
: 4824 4 0 I've
: 4832 4 -2 ~ 
: 4840 8 -4 cried
- 4850
: 4864 4 -7 We 
: 4872 4 1 come
: 4880 4 0 ~ 
* 4888 12 0 to 
: 4904 2 -2 blows
: 4908 8 0 ~
- 4918
: 4928 4 -4 And 
: 4936 4 1 e
: 4944 4 0 ~
: 4952 12 0 very 
: 4968 8 -4 night
- 4978
: 4992 4 -7 The 
: 5000 4 1 pa
: 5008 4 0 ~
: 5016 12 0 ssion's 
: 5032 8 0 there
- 5042
: 5048 4 -4 So 
: 5056 4 -4 it's 
: 5064 4 1 got
: 5072 4 0 ta 
: 5080 4 0 be
* 5088 4 -2 ~ 
: 5096 12 -2 right
- 5110
: 5160 12 -2 Right?
- 5174
: 5280 6 0 No
* 5288 2 0 ~
: 5292 2 3 ~
- 5294
: 5296 28 3 I 
: 5328 4 3 don't
: 5336 4 0 ~ 
: 5344 4 0 be
: 5352 20 7 lieve
: 5376 4 5 ~ 
: 5384 16 5 you
- 5402
* 5424 4 3 When 
: 5432 12 3 you 
: 5448 4 3 say
: 5456 4 0 ~ 
: 5464 12 0 don't 
- 5478
: 5488 4 3 Come 
: 5496 12 3 a
: 5512 4 3 round
: 5520 4 -2 ~ 
: 5528 4 -2 here 
: 5536 2 -2 no
: 5540 2 0 ~ 
: 5544 8 0 more
- 5554
: 5576 4 3 I 
: 5584 12 3 won't 
: 5600 4 0 re
* 5608 20 7 mind
: 5632 4 5 ~ 
: 5640 16 5 you
- 5658
: 5672 4 5 You 
: 5680 12 8 said 
: 5696 4 8 we 
: 5704 4 8 would
: 5712 4 1 n't 
: 5720 4 1 be 
: 5728 4 0 a
: 5736 2 0 part
: 5740 12 -2 ~
- 5754
: 5792 6 0 No
: 5800 2 0 ~
: 5804 2 3 ~
- 5806
: 5808 28 3 I 
: 5840 4 3 don't
* 5848 4 0 ~ 
: 5856 4 0 be
: 5864 20 7 lieve
: 5888 4 5 ~ 
: 5896 16 5 you
- 5914
: 5936 4 3 When 
: 5944 12 3 you 
: 5960 4 3 say
: 5968 4 0 ~ 
: 5976 12 0 you
- 5990
: 6000 4 3 Don't 
: 6008 12 3 need 
: 6024 12 3 me 
: 6040 4 -2 a
: 6048 2 -2 ny
: 6052 2 0 ~
: 6056 12 0 more
- 6070
: 6088 4 3 So 
: 6096 8 3 don't
: 6108 2 0 ~ 
: 6112 4 0 pre
* 6120 28 7 tend 
: 6152 16 8 to
- 6170
: 6192 12 8 Not 
: 6208 4 8 love 
: 6216 12 8 me 
: 6232 4 10 at
: 6240 4 12 ~ 
: 6248 2 12 all
: 6252 20 10 ~
- 6274
: 6280 4 8 Ooh
: 6288 20 7 ~
: 6312 2 7 ~
: 6316 24 8 ~
: 6344 2 8 ~
: 6348 4 5 ~
- 6354
: 6392 12 0 I 
: 6408 8 0 don't 
: 6432 4 1 be
: 6440 2 1 lieve
* 6444 4 0 ~ 
: 6452 8 0 you 
E