#TITLE:Partyhitmix (Lange Version)
#ARTIST:Pur
#EDITION:[SC]-Songs
#LANGUAGE:Deutsch
#MP3:Pur - Partyhitmix (Lange Version).mp3
#COVER:Pur - Partyhitmix (Lange Version) [CO].jpg
#BACKGROUND:Pur - Partyhitmix (Lange Version) [BG].jpg
#BPM:297,5
#GAP:20950
: 0 2 4 Es
: 4 2 4  ist
: 8 6 4  schön
: 18 2 2  dich
: 22 4 0  zu
: 26 4 2  ken
: 32 4 7 nen,
- 38 39
: 48 4 2 mit
: 52 4 2  dir
: 58 4 2  zu
: 62 8 5  re
: 72 2 2 den
- 76
: 81 4 5 o
: 86 4 4 der
: 90 4 2  auch
: 94 4 0  Mu
: 98 4 4 sik
: 104 4 2  zu
: 108 4 0  hör
: 112 4 2 'n.
- 118
: 122 4 0 So
: 126 4 2 gar
: 134 8 4  Schwei
: 144 4 4 gen
: 150 4 4  ist
: 158 8 5  nie
: 166 4 7  pein
: 176 4 5 lich
- 182
: 184 4 4 zwi
: 188 4 0 schen
: 194 8 0  uns,
- 204 220
: 240 2 0 und
: 244 4 0  das
: 249 4 2  ist
: 258 4 2  gut
: 266 2 -5  so.
- 270 271
: 286 2 0 Du
: 288 4 5  hast
: 294 4 5  in
: 298 4 5  mei
: 303 4 5 nem
: 312 8 5  Arm
: 326 4 4  ge
: 330 4 2 weint,
- 336 337
: 350 4 0 so
: 354 4 5  man
: 362 4 5 che
: 366 6 5  Nacht
: 376 4 5  mit
: 385 7 5  mir
: 394 4 4  durch
: 404 6 2 träumt,
- 412 413
: 422 3 0 die
: 426 4 5  letz
: 434 4 5 ten
: 440 8 5  Zwei
: 448 4 9 fel
: 457 4 7  aus
: 466 4 4 ge
: 476 4 0 räumt.
- 482 483
: 494 4 0 Ich
: 498 4 0  kenn'
: 504 6 -3  dich
: 520 4 -3  und
: 526 4 5  du
: 530 4 2  mich
* 548 8 7  uh
* 558 10 9 ho.
- 570 571
: 580 4 7 Du
: 584 4 2  bist
: 594 4 0  nicht
: 603 7 2  hart
: 616 4 0  im
: 622 4 2  Neh
: 630 4 4 men.
- 636 637
: 654 3 7 Du
: 658 4 2  bist
: 666 4 0  be
: 676 7 5 ruhi
: 684 4 4 gend
: 694 6 2  weich.
- 702 703
: 726 4 7 Dich
: 730 4 2  nicht
: 739 4 0  zu
: 748 10 2  mö
: 762 3 0 gen
: 767 4 2  ist
: 776 5 4  nicht
: 784 7 0  leicht.
- 793 802
* 822 8 7 Wo
* 834 4 4 ~o
* 844 4 2 ~o
* 852 4 4 ~ho
- 858 859
: 872 2 7 Du
: 876 4 2  bist
: 884 4 0  kein
: 894 6 2  Ein
: 906 4 0 zel
: 912 4 2 käm
: 920 4 4 pfer.
- 926 927
: 944 2 7 Du
: 948 4 2  bist
: 958 4 0  so
: 966 4 5  herr
: 976 4 4 lich
: 984 6 2  schwach.
- 992 993
: 1016 3 7 Ver
: 1020 4 2 trau'
: 1030 4 0  mir
: 1039 5 2  und
: 1052 4 0  be
: 1056 4 2 nutz'
: 1066 4 4  mich,
- 1072
: 1080 6 4 wo
: 1088 4 5 zu
: 1094 6 4  sind
: 1103 6 0  denn
: 1116 6 4  schließ
: 1124 4 5 lich
: 1130 7 4  Freun
: 1139 5 2 de
* 1148 20 0  da
* 1170 8 -3 ~a.
- 1180 1396
: 1416 2 -6 An
: 1420 2 -6 fangs
: 1425 3 -6  war
: 1429 2 -6  es
: 1434 2 -6  ein
: 1439 4 -6  Rausch,
- 1445
: 1452 3 -6 doch
: 1456 2 -6  der
: 1460 3 -6  Ka
: 1466 3 -8 ter
: 1470 3 -10  blieb
: 1475 4 -6  aus.
- 1481
: 1488 3 -6 Und
: 1493 9 -6  du,
: 1511 4 -6  Schatz
: 1521 4 -6  und
: 1530 7 -6  Maus
- 1538
: 1539 3 -6 hast
: 1544 3 -8  mich
: 1548 2 -10  ge
: 1552 4 -6 fang
: 1566 3 -3 en,
- 1571 1572
: 1584 3 -6 ge
: 1588 3 -6 lockt
: 1598 3 -6  und
: 1602 3 -6  mit
: 1606 3 -6  dem
: 1611 3 -8  was
: 1616 3 -10  mich
: 1620 3 -10  reizt,
- 1625 1626
: 1642 3 -6 nicht
: 1652 2 -8  ge
: 1656 4 -8 geizt.
- 1662 1663
: 1684 3 -6 Ich
: 1689 3 -5  fühl'
: 1693 4 -3  mich
: 1698 4 -1  ei
: 1704 4 -1 fer
: 1711 6 -3 süch
: 1720 4 -6 tig
: 1729 6 -5  wohl
: 1739 4 -3  nach
: 1748 4 -3  dir.
- 1754
: 1762 3 -3 Bit
: 1766 2 -3 te
: 1770 3 -1  tu'
: 1774 4 2  was
: 1779 3 2  sich
: 1783 4 2  nicht
: 1793 5 -3  ge
: 1802 4 -1 hört
: 1812 4 2  mit
: 1820 4 1  mir.
- 1826
: 1834 3 2 Nimm
: 1838 4 4  den
: 1843 4 7  net
: 1849 3 7 ten
: 1857 6 6  Jung
: 1865 4 2 en
: 1875 4 4  und
: 1883 4 6  das
: 1893 8 2  Tier.
- 1903
: 1906 7 6 Oh
: 1915 6 6  nimm
: 1925 2 7  dir
: 1930 5 4  was
: 1939 4 2  ich
: 1948 7 4  brauch,
- 1957 1958
: 1966 3 4 und
: 1970 7 9  hol'
: 1979 4 7  das
: 1988 6 7  Bes
: 1997 4 6 te
: 2002 4 9  aus
: 2011 6 6  mir
: 2021 9 2  raus.
- 2032
: 2040 8 4 Wooh,
: 2052 4 2  Ich
: 2056 6 2  lieb'
: 2065 4 -1  dich,
: 2093 4 -1  e
: 2098 4 4 gal
: 2102 4 4  wie
: 2106 4 4  das
: 2112 6 2  klingt.
- 2120
: 2122 4 7 Ich
: 2130 6 7  lieb'
: 2138 4 2  dich,
: 2166 4 -1  ich
: 2170 4 4  weiß
: 2174 4 4  dass
: 2178 4 4  es
: 2184 6 2  stimmt,
- 2192
: 2194 3 4 Denn
: 2198 4 6  ich
: 2203 5 7  lieb'
: 2212 4 7  mich
: 2220 6 6  bei
: 2230 3 4  dir,
- 2234
: 2234 4 2 ich
: 2239 5 4  lieb'
: 2248 4 2  mich
: 2257 4 2  an
: 2266 4 -1  dir,
- 2270
: 2270 4 -3 ich
: 2279 4 -5  lieb'
: 2288 4 -1  mich
: 2293 4 -3  in
: 2302 5 -5  dir
: 2311 4 -5  fest.
- 2317 2318
: 2328 10 4 Wooh,
: 2343 4 2  ich
: 2348 6 2  lieb'
: 2357 4 -1  dich,
: 2383 4 -1  e
: 2388 4 4 gal
: 2392 4 4  wie
: 2396 4 4  das
: 2401 6 2  klingt.
- 2409
: 2412 5 7 Ich
: 2420 5 7  lieb'
: 2429 4 2  dich,
- 2435 2436
: 2456 4 -1 ich
: 2461 4 4  weiß,
: 2465 4 4  dass
: 2469 4 4  es
: 2475 6 2  stimmt.
- 2482
: 2484 3 4 Denn
: 2488 4 6  ich
: 2493 6 7  lieb'
: 2502 5 7  mich
: 2511 6 6  bei
: 2520 4 4  dir,
- 2525
: 2525 4 2 ich
: 2529 5 4  lieb'
: 2538 6 2  mich
: 2547 7 2  an
: 2555 4 -1  dir,
- 2560
: 2561 4 -3 ich
: 2569 4 -5  lieb'
: 2579 3 -1  mich
: 2584 2 -3  in
: 2592 5 -5  dir
: 2601 5 -5  fest.
- 2608 2609
* 2619 16 4 Wooh,
: 2642 4 -5  wenn
: 2651 4 -1  du
: 2656 4 -3  mich
: 2665 6 -5  nur
: 2674 6 -5  lässt.
- 2682 2948
: 2968 14 6 Hör
: 2988 10 11  gut
: 3006 8 10  zu
: 3015 3 8  du
: 3020 4 6  bist
: 3028 5 8  mein
: 3037 6 6  Glück.
- 3045 3046
: 3064 3 3 Und
: 3069 3 4  ich
: 3078 7 6  sing
: 3088 4 4  dir
: 3093 6 3  mei
: 3102 4 6 ne
: 3110 8 6  Lie
: 3120 4 -1 der.
- 3126
: 3132 3 -1 Und
: 3137 3 1  ich
: 3142 4 3  nehm'
: 3150 5 4  keins
: 3160 4 3  da
: 3165 5 1 von
: 3174 5 -1  zu
: 3183 5 1 rück,
- 3190
: 3196 3 -4 ich
: 3200 5 -1  lieb'
: 3210 4 -4  dich
: 3219 5 -1  im
: 3228 5 3 mer
: 3238 6 1  mehr.
- 3246 3247
: 3260 12 6 Hör
: 3278 12 11  gut
: 3296 8 10  zu
: 3305 4 8  du
: 3310 5 6  bist
: 3319 5 8  mein
: 3328 6 6  Glück.
- 3336
: 3342 5 8 Nicht
: 3351 4 6  im
: 3356 4 -1 mer,
: 3369 6 6  a
: 3378 3 4 ber
: 3382 4 3  im
: 3392 4 6 mer
: 3401 6 6  wie
: 3409 4 -1 der
- 3415 3416
: 3424 3 -1 bin
: 3428 3 1  ich
: 3432 4 3  to
: 3442 6 4 tal
: 3450 4 3  durch
: 3456 4 1  dich
: 3464 5 -1  ver
: 3474 6 1 zückt.
- 3482
: 3488 3 -4 Du
: 3492 5 -1  bist
: 3500 5 -4  mein
: 3510 5 -1  ech
: 3519 4 3 tes
: 3528 6 3  pu
: 3537 4 6 res
: 3546 6 6  Glück.
- 3554 3826
: 3846 4 0 Wenn
: 3850 4 0  du
: 3855 6 0  da
: 3864 5 -5  bist,
- 3871 3872
: 3882 4 0 wenn
: 3886 4 0  du
: 3891 5 0  Licht
: 3900 7 -5  siehst,
- 3909 3910
: 3924 6 0 und
: 3932 5 0  das
: 3941 5 0  zum
: 3950 6 -1  al
: 3960 4 0 ler
: 3965 4 0 er
: 3972 4 -1 sten
: 3978 8 0  Mal.
- 3988
: 3990 3 0 Wenn
: 3995 4 0  sie
: 4001 3 0  dich
: 4010 4 -5  sieht,
- 4016 4017
: 4028 2 0 wenn
: 4032 2 0  du
: 4037 3 2  mich
: 4046 5 0  siehst,
- 4053 4054
: 4068 5 0 dann
: 4078 6 0  glaub'
: 4087 4 0  ich
: 4096 6 -1  wer
: 4105 3 0 den
: 4110 6 0  Wun
: 4119 7 -1 der
: 4128 11 -2  wahr.
- 4141 4142
: 4155 4 -2 Dann
: 4168 7 0  wer
: 4178 3 0 den
: 4182 7 0  Wun
: 4192 3 -3 der
: 4200 8 -2  wahr,
- 4210
: 4213 6 2 dann
: 4222 6 2  glaub'
: 4232 6 2  ich
: 4242 7 0  wer
: 4250 4 0 den
: 4256 7 5  Wun
: 4264 4 5 der
: 4269 11 7  wahr.
- 4281
: 4282 4 7 Wenn
: 4287 4 7  du
: 4292 4 7  da
: 4300 6 2  bist,
: 4318 4 7  wenn
: 4323 4 7  du
: 4328 6 7  Licht
: 4336 6 2  siehst,
- 4344 4345
: 4360 5 7 Und
: 4368 4 7  das
: 4377 4 7  zum
: 4386 5 6  al
: 4395 4 7 ler
: 4400 4 7 er
: 4408 4 6 sten
: 4414 8 7  Mal.
- 4424
: 4428 4 7 Wenn
: 4433 4 7  sie
: 4439 5 7  dich
: 4446 6 2  sieht,
: 4464 3 7  wenn
: 4468 4 7  du
: 4474 5 9  mich
: 4482 6 7  siehst,
- 4490 4491
: 4504 6 7 dann
: 4513 6 7  glaub'
: 4522 6 7  ich
: 4532 6 6  wer
: 4540 4 7 den
: 4546 6 7  Wun
: 4554 4 6 der
: 4563 9 7  wahr.
- 4574 4575
: 4586 11 7 Wir
: 4604 12 6  steh'n
: 4623 12 7  dir
* 4641 42 2  bei,
- 4685
: 4690 10 4 oh
: 4704 4 2  wir
: 4710 11 -5  zwei.
- 4723 4724
: 4732 10 7 Wir
: 4749 10 9  steh'n
: 4768 9 6  dir
: 4786 12 7  bei
: 4800 10 7 ~ei
: 4814 10 7 ~ei
: 4826 8 7  aus
: 4839 8 7  zwei
: 4849 5 7  mach
: 4858 14 4  drei.
- 4874 5132
: 5152 3 4 Die
: 5156 3 4  Au
: 5161 3 7 gen
: 5165 3 7 rin
: 5170 4 7 ge
: 5178 2 4  er
: 5183 6 5 zähl'n
: 5192 3 4  die
: 5197 6 7  Nacht,
- 5205 5206
: 5218 4 5 frem
: 5224 3 5 des
: 5228 4 4  Ho
: 5233 4 5 tel
- 5239
: 5246 4 4  bin
: 5251 5 7  frös
: 5260 5 4 telnd
: 5269 5 2  auf
: 5278 3 0 ge
: 5282 4 0 wacht.
- 5288
: 5296 3 5 Mit
: 5300 3 5  'nem
: 5304 3 4  Ge
: 5309 4 7 wis
: 5315 3 4 sen,
- 5320
: 5327 3 4 das
: 5332 4 2  mich
: 5341 5 0  stän
: 5350 4 -5 dig
: 5359 6 -3  beißt,
- 5367 5368
: 5380 4 5 oh,
: 5386 4 4  du
: 5395 6 4  fehlst
: 5404 4 5  mir
: 5412 8 2  so.
- 5422
: 5426 4 2 Wenn
: 5431 4 2  der
: 5436 3 6  Him
: 5440 3 6 mel
: 5444 3 6  mir
: 5449 4 6  jetzt
- 5455
: 5459 3 4 auf
: 5463 3 2  den
: 5468 5 4  Kopf
: 5476 6 6  drauf
: 5486 6 -3  fällt,
- 5493
: 5494 3 -3 bist
: 5498 4 -3  du
: 5503 4 -3  die
: 5508 4 6  ein
: 5516 4 6 zi
: 5522 4 6 ge,
- 5528
: 5530 3 4 die
: 5534 3 2  noch
: 5541 4 4  zu
: 5548 4 6  mir
: 5558 4 4  hält.
- 5564
: 5572 5 9 Ich
: 5580 5 6  brau
: 5588 4 4 che
: 5594 5 4  jetzt
: 5603 3 4  dei
: 5607 4 2 ne
: 5613 6 4  ruhi
: 5621 3 1 ge
: 5630 6 -3  Hand,
- 5638
: 5642 6 9 oh
: 5652 4 6  meld'
: 5661 4 4  dich
: 5666 4 4  doch
: 5675 6 1  bei
: 5684 5 4  mir.
- 5691 5692
: 5710 4 9 Oh
: 5715 4 9  ich
: 5724 5 9  gäb'
: 5732 4 6  sonst
: 5742 5 6  was
: 5751 4 1  da
: 5756 7 4 für.
- 5765 5766
: 5774 12 6 Hey,
* 5796 12 1  Le
* 5811 8 4 na,
- 5821
: 5828 4 4 du
: 5832 5 6  hast
: 5842 4 4  es
: 5846 5 1  oft
: 5856 6 4  nicht
: 5864 6 1  leicht,
- 5872 5873
: 5900 2 4 Wie
: 5904 5 6  weit
: 5914 3 4  die
: 5919 4 1  Kraft
: 5928 4 4  doch
: 5936 5 -3  reicht.
- 5943 5944
: 5958 3 -3 Wenn
: 5962 3 -1  ich
: 5967 3 1  am
: 5973 6 2  Bo
: 5982 3 1 den
: 5990 8 -3  lie
: 6000 3 -8 ge,
- 6005
: 6008 3 -8 er
: 6012 4 -6 zählst
: 6022 4 -3  du
: 6027 5 -3  mir,
: 6036 4 1  dass
: 6044 5 1  ich
: 6054 4 -1  bald
: 6062 7 1  flie
: 6072 5 2 ge.
- 6079
* 6084 12 1 Le
* 6098 8 4 na,
- 6108
: 6111 4 1 wie
: 6116 3 4  ein
: 6120 6 6  kla
: 6130 3 4 rer
: 6135 6 1  war
: 6143 4 4 mer
: 6152 6 1  Wind,
- 6160 6161
: 6184 3 1 wenn
: 6188 3 4  die
: 6193 7 6  Ta
: 6202 3 4 ge
: 6206 4 1  stür
: 6216 5 4 misch
: 6224 4 -3  sind.
- 6230 6231
: 6246 3 -3 Lass'
: 6251 3 -1  ich
: 6256 3 1  mich
: 6262 7 2  zu
: 6270 4 1  dir
: 6280 6 -3  trei
: 6288 5 -8 ben,
- 6295
: 6300 6 -6 See
: 6310 4 -4 len
: 6316 3 -3  an
: 6324 6 1 ei
: 6333 4 1 nan
: 6342 4 -1 der
: 6351 7 1  rei
: 6361 5 -1 ben.
- 6368 6691
: 6711 3 2 Ein
: 6716 3 2  grau
: 6721 5 6 es
* 6734 26 7  Haar,
- 6762
: 6769 6 6 wie
: 6778 3 7 der
: 6783 5 4  geht
: 6792 3 6  ein
: 6801 6 2  Jahr.
- 6809 6810
: 6834 3 2 Al
: 6838 3 4 les
: 6842 7 6  Gu
: 6850 4 7 te,
: 6856 5 9  Dan
: 6865 3 7 ke
: 6873 11 2  klar,
- 6886 6887
: 6906 3 -1 im
: 6910 2 0 mer
: 6914 3 2  noch
: 6920 6 4  ein
: 6932 4 2  Grund
: 6941 2 0  zu
: 6946 6 2  fei
: 6954 4 -1 ern,
- 6960 6961
: 6978 4 -1 erst
: 6986 6 -1  recht
: 6995 4 2  mit
: 7004 4 2  grau
: 7010 6 6 em
* 7022 20 7  Haar,
- 7044 7045
: 7058 6 6 wie
: 7067 3 7 der
: 7072 5 4  geht
: 7081 3 6  ein
: 7090 10 2  Jahr.
- 7102 7103
: 7122 3 2 Al
: 7126 3 4 les
: 7130 5 6  Gu
: 7139 3 7 te,
: 7144 5 9  Dan
: 7153 4 7 ke
: 7162 10 2  klar,
- 7174 7175
: 7194 3 -1 im
: 7198 3 0 mer
: 7202 3 2  noch
: 7208 8 4  ein
: 7220 6 2  Grund
: 7230 2 0  zu
: 7235 5 2  fei
: 7243 4 -1 ern,
- 7249 7250
: 7266 4 -1 erst
: 7274 4 -1  recht
: 7284 4 2  mit
: 7292 4 -1  grau
: 7298 4 -3 em
: 7310 8 -5  Haar.
- 7320 7468
: 7488 4 4 Hab'
: 7498 5 6  mich
: 7508 7 4  wie
: 7517 4 6 der
: 7522 5 4  mal
: 7530 4 6  an
: 7540 6 4  dir
: 7552 2 2  be
: 7557 5 4 trun
: 7566 4 -3 ken.
- 7572 7613
: 7633 4 4 Hoch
: 7642 3 6 pro
: 7647 4 4 zen
: 7656 3 6 tig
: 7665 7 2  Lie
: 7674 4 4 bes
: 7682 6 2 rausch,
- 7690
: 7698 3 2 den
* 7704 8 9  schlaf'
: 7714 3 7  ich
: 7718 3 6  mit
: 7726 4 7  dir
: 7736 5 2  aus,
* 7748 4 6  wo
* 7754 8 4 ho.
- 7764 7765
: 7776 4 4 Bin
: 7785 5 6  schon
: 7794 5 4  ganz
: 7803 4 6  und
: 7808 5 4  gar
: 7821 4 6  in
: 7826 5 4  uns
: 7838 4 2  ver
: 7844 4 4 sun
: 7852 4 -3 ken.
- 7858 7900
: 7920 4 4 Hei
: 7928 3 6 ße
: 7933 4 4  Haut
: 7942 4 6  als
: 7951 5 2  Him
: 7960 4 4 mel
: 7968 4 2 bett.
- 7974 7975
* 7992 16 9 Nie
: 8009 7 6  mehr
: 8026 4 4  von
: 8032 4 2 ei
: 8040 4 2 nan
: 8050 4 2 der,
- 8056 8057
* 8072 7 9 nie
: 8080 6 6  mehr
: 8098 3 4  von
: 8102 4 2 ei
: 8112 4 2 nan
: 8120 3 2 der,
- 8124
* 8124 16 9 nie
: 8143 7 6  mehr
: 8160 4 4  von
: 8166 5 2 ei
: 8174 5 2 nan
: 8182 4 2 der
: 8188 4 2  weg.
- 8194 8798
: 8818 3 -7 Im
: 8822 7 -3  Hür
: 8832 3 0 den
: 8837 7 0 lauf
- 8846 8847
: 8864 3 0 ü
: 8868 3 0 ber
: 8873 9 5  tau
: 8886 4 4 send
: 8894 4 2  Wenn
: 8900 5 0  und
: 8908 4 2  A
: 8916 4 0 ber,
- 8922 8923
: 8934 3 0 an
: 8938 3 0 statt
: 8948 6 5  gera
: 8957 4 5 de
: 8962 4 5 aus
- 8968
: 8971 3 0 auf
: 8975 4 0  ein
: 8984 4 5  un
: 8993 3 4 be
: 8998 4 2 kann
: 9006 3 0 tes
: 9016 8 0  Ziel.
- 9026 9066
: 9086 4 0 Ich
: 9092 5 9  denk'
: 9100 3 9  zu
: 9105 6 7  viel
: 9114 4 5  an
: 9127 7 7  Ü
: 9136 3 4 ber
: 9141 6 2 mor
: 9150 4 0 gen,
- 9156
: 9162 4 5 denk'
: 9171 3 2  zu
: 9177 6 2  viel
: 9186 3 4  an
: 9194 3 0  mich.
- 9199 9200
: 9216 3 0 Hab'
: 9221 3 2  mir
: 9226 3 4  den
: 9234 3 5  Blick
: 9240 3 7  ver
: 9248 4 9 stellt
- 9254
: 9262 4 5 auf
: 9270 4 7  jetzt
: 9279 5 4  und
: 9288 5 2  hier
: 9296 3 4  und
: 9302 5 5  dich.
- 9309 9310
: 9320 2 5 Und
: 9324 3 5  was
: 9331 3 5  machst
: 9338 6 9  du?
- 9346 9347
: 9356 3 0 Du
: 9360 5 0  blitzt
: 9368 4 0  mich
: 9378 3 5  an
- 9383
: 9386 3 5 mit
: 9395 6 5  dei
: 9404 3 5 nen
: 9413 5 5  Fun
: 9422 4 0 kel
: 9432 4 0 per
: 9440 3 5 len
: 9445 6 5 au
: 9454 4 2 gen.
- 9460 9478
: 9498 3 0 Das
: 9503 3 0  tut
: 9512 5 0  so
: 9521 6 5  gut,
- 9529 9530
: 9538 3 5 da
: 9544 4 5  ist
: 9552 7 5  so
: 9565 4 0  viel
: 9574 3 0  für
: 9580 5 5  mich
: 9588 4 2  drin.
- 9594 9622
: 9642 2 0 Es
: 9646 3 2  hilft
: 9655 6 5  viel
: 9664 4 9  bes
: 9671 3 5 ser,
- 9676 9677
: 9686 3 5 als
: 9691 3 5  je
: 9696 3 5 des
: 9700 5 7  Re
: 9708 3 5 den
: 9714 5 5  je
: 9722 3 2 des
: 9727 6 5  Den
: 9735 3 2 ken.
- 9740 9770
: 9790 3 2 Nur
: 9794 3 4  noch
: 9802 9 5  Fühl'n
: 9825 3 5  nur
: 9830 4 7  noch
: 9838 3 7  Spü
: 9843 5 5 ~r'n
- 9850 9851
: 9860 3 5 macht
: 9867 4 7  jetzt
: 9874 6 7  Sinn.
- 9882 9908
: 9928 3 0 Du
: 9933 4 0  blitzt
: 9942 4 0  mich
: 9950 4 5  an
- 9956
: 9960 4 5 mit
: 9968 6 5  dei
: 9977 4 5 nen
: 9986 5 5  Fun
: 9995 4 0 kel
: 10004 5 0 per
: 10013 4 5 len
: 10018 7 5 au
: 10026 5 2 gen.
- 10033 10052
: 10072 3 0 Das
: 10076 3 0  tut
: 10085 6 0  so
: 10093 6 5  gut,
- 10101 10102
: 10111 4 5 da
: 10117 4 5  ist
: 10125 9 5  so
: 10138 6 0  viel
: 10146 3 0  für
: 10152 5 5  mich
: 10161 5 2  drin.
- 10168 10194
: 10214 3 0 Du
: 10218 4 0  blitzt
: 10227 4 0  mich
: 10236 4 5  an
- 10242
: 10245 4 5 mit
: 10254 6 5  dei
: 10263 4 5 nen
: 10272 5 5  Fun
: 10281 4 0 kel
: 10290 4 0 per
: 10299 3 5 len
: 10304 5 5 au
: 10314 4 2 gen.
- 10320 10338
: 10358 3 0 Das
: 10362 3 0  tut
: 10371 6 0  so
: 10380 6 5  gut
- 10388 10389
: 10398 3 5 da
: 10404 4 5  ist
: 10412 9 5  so
: 10424 7 0  viel
: 10433 4 0  für
: 10439 5 5  mich
: 10447 6 2  drin.
- 10455 10480
: 10500 4 0 Du
: 10505 4 0  blitzt
: 10514 4 0  mich
: 10523 4 5  an
- 10529
: 10532 4 5 mit
: 10541 6 5  dei
: 10550 4 5 nen
: 10560 4 5  Fun
: 10568 4 0 kel
: 10577 4 0 per
: 10586 3 5 len
: 10591 7 5 au
: 10600 5 2 gen.

