#TITLE:Buttons
#ARTIST:Pussy Cat Dolls
#LANGUAGE:English
#EDITION:Singstar R&B
#GENRE:Pop
#YEAR:2006
#MP3:Pussy Cat Dolls - Buttons.mp3
#COVER:Pussy Cat Dolls - Buttons [CO].jpg
#VIDEO:Pussy Cat Dolls - Buttons [VD#0].avi
#VIDEOGAP:0
#BPM:210,2
#GAP:2854,42
F 0 1 53 What
F 2 1 53  it
F 4 1 53  do
F 6 2 53  ba
F 8 2 53 by
F 10 2 53 boo?
- 14 15
F 30 2 53 Yeah
F 33 1 53  litt
F 34 1 53 le
F 36 2 53  ma
F 38 1 53 ma
- 40
F 40 1 53 You
F 42 2 53  look
F 44 2 53 in'
F 47 4 53  good
- 52
F 52 1 53 I
F 54 1 53  see
F 56 1 53  you
F 58 2 53  wan
F 60 1 53 na
F 62 3 53  play
- 66
F 66 1 53 With
F 67 1 53  a
F 69 2 53  play
F 71 1 53 er
F 73 1 53  from
F 75 1 53  the
F 78 3 53  hood
- 83
F 86 1 53 Come
F 89 2 53  hol
F 91 2 53 la
F 94 1 53  at
F 97 1 53  me
- 99
F 99 1 53 You
F 101 1 53  got
F 103 1 53  it
F 106 2 53  like
F 109 4 53  that
- 115
F 118 2 53 Big
F 121 3 53  Snoop
F 125 3 53  Dogg
- 129
F 129 1 53 With
F 131 1 53  da
F 133 2 53  lead
F 137 2 53  Pus
F 139 2 53 sy
F 141 4 53 cat
- 146
F 147 1 53 I
F 149 1 53  show
F 151 1 53  you
F 153 1 53  how
F 155 1 53  it
F 157 2 53  go
F 160 2 53  down
- 163
F 165 1 53 Yeah
F 167 1 53  I
F 169 1 53  wan
F 170 1 53 na
F 173 2 53  go
F 176 2 53  down
- 179
F 181 2 53 Me
F 184 1 53  and
F 186 2 53  you
F 189 2 53  one
F 191 1 53  on
F 193 2 53  one
- 196
F 197 1 53 Treat
F 199 1 53  it
F 201 1 53  like
F 202 1 53  a
F 204 4 53  show
F 208 4 53 down
- 213
F 215 2 53 You
F 217 2 53  look
F 220 1 53  at
F 222 2 53  me
- 225
F 225 1 53 And
F 227 1 53  I
F 229 1 53  look
F 232 1 53  at
F 236 1 53  you
- 239
F 242 1 53 I'm
F 244 2 53  reach
F 246 1 53 in'
F 248 1 53  for
F 250 1 53  your
F 252 3 53  shirt
- 256
F 256 2 53 What
F 259 1 53  you
F 260 3 53  want
F 263 1 53  me
F 264 1 53  to
F 267 2 53  do?
- 271
: 276 1 69 Loos
: 280 2 67 en
: 284 1 69  up
: 288 2 67  my
: 292 3 69  but
: 296 1 67 tons
: 300 3 65  babe
- 305
: 312 1 67 But
: 316 2 69  you
: 320 2 67  keep
: 324 3 69  front
: 328 1 67 in'
- 331 332
: 340 1 69 Say
: 342 1 69 in'
: 344 1 67  what
: 348 2 69  you
: 352 2 67  gon'
: 356 3 69  do
: 360 1 67  to
: 364 3 65  me
- 369
: 376 1 67 But
: 380 1 69  I
: 381 1 67  ain't
: 384 2 67  seen
: 388 2 69  noth
: 392 1 67 in'
- 394
: 394 1 67 I'm
: 396 1 67  tel
: 398 1 67 lin'
: 400 1 67  you
: 402 1 67  to
- 404
: 404 2 67 Loos
: 408 1 65 en
: 412 1 67  up
: 416 1 65  my
: 420 3 67  but
: 424 1 65 tons
: 428 3 64  babe
- 433
: 439 1 65 But
: 443 2 67  you
: 447 2 65  keep
: 451 3 67  front
: 455 2 64 in'
- 459
: 467 1 67 Say
: 469 1 67 in'
: 471 2 65  what
: 475 3 67  you
: 479 2 65  gon'
: 483 3 67  do
: 487 2 64  to
: 491 3 64  me
- 496
: 503 1 65 But
: 507 1 67  I
: 509 1 67  ain't
: 511 1 65  seen
: 515 3 67  noth
: 519 1 64 in'
- 522 523
: 531 2 65 Ty
: 535 1 62 pi
: 539 3 65 cal
: 543 1 65  and
: 547 4 65  hard
: 552 1 62 ly
- 554
: 555 1 65 The
: 559 3 65  type
: 563 1 62  I
: 566 2 65  fall
: 571 4 65  for
- 577
: 579 2 64 I
: 583 2 64  like
: 587 2 64  when
: 591 1 64  the
: 595 2 65  phy
: 599 1 62 si
: 603 5 65 cal
- 609
: 611 2 64 Don't
: 615 2 64  leave
: 619 2 64  me
* 623 1 65  ask
: 627 1 62 in'
: 630 2 65  for
: 634 5 65  more
- 641
: 643 2 64 I'm
: 647 1 64  a
: 651 1 64  sex
: 655 1 64 y
: 659 2 64  ma
: 663 2 61 ma
- 667
: 669 1 64 Who
: 671 1 64  knows
: 674 1 64  just
: 676 1 64  how
: 678 1 64  to
- 680
: 680 2 64 Get
: 684 2 64  what
: 686 3 64  I
* 691 3 64  wan
: 695 2 61 na
- 699
: 702 1 61 What
: 704 1 61  I
: 706 1 64  wan
: 708 1 64 na
: 710 1 64  do
: 712 1 64  is
- 714
: 714 1 64 Spring
: 718 1 64  this
: 722 3 64  on
: 726 3 61  ya
- 731
: 734 1 61 Back
: 738 1 64  up
: 740 1 64  all
: 742 1 64  the
: 744 2 64  things
- 747
: 748 1 64 That
: 750 1 64  I
: 754 2 64  told
: 758 3 61  ya
- 763 764
: 786 3 65 You've
: 790 1 62  been
: 794 4 65  say
: 798 2 62 in'
- 801
: 802 3 65 All
: 806 2 62  the
: 810 5 65  right
: 818 1 65  things
- 820
: 822 2 65 All
: 826 2 62  night
* 830 6 65  long
- 837
: 838 2 65 But
: 842 2 64  I
: 846 2 64  can't
: 850 2 65  seem
: 854 2 62  to
- 857
: 858 2 65 Get
: 862 1 62  you
: 866 2 65  o
: 870 2 62 ver
: 874 3 65  here
- 878
: 878 1 62 To
: 882 2 65  help
: 886 2 65  take
: 890 1 62  this
: 893 6 65  off
- 900
: 901 1 64 Ba
: 903 1 64 by
: 905 2 65  can't
: 909 2 65  you
: 914 2 64  see
: 916 1 67 ~
: 917 1 70 ~
: 918 1 73 ~
: 919 1 76 ~
: 920 1 79 ~
- 923
: 926 1 64 How
: 928 1 64  these
: 930 2 65  clothes
: 934 2 65  are
- 937
: 938 1 65 Fit
: 940 1 65 tin'
: 942 3 65  on
: 946 2 64  me?
: 948 1 67 ~
: 949 1 70 ~
: 950 1 73 ~
: 951 1 76 ~
: 952 1 79 ~
- 955
: 957 1 64 And
: 959 1 64  the
: 961 2 65  heat
- 964
: 965 1 65 Com
: 967 1 65 in'
: 969 1 65  from
: 973 1 65  this
: 977 2 64  beat
: 979 1 67 ~
: 980 1 70 ~
: 981 1 73 ~
: 982 1 76 ~
: 983 1 79 ~
- 986
* 989 1 62 I'm
: 991 1 62  a
: 993 3 65 bout
: 997 1 62  to
: 1001 6 65  blow
- 1008
: 1009 3 65 I
: 1013 1 62  don't
: 1017 3 65  think
: 1021 1 62  you
: 1025 3 65  know
- 1029
: 1029 2 64 I'm
: 1033 1 64  tel
: 1035 1 64 lin'
: 1037 1 64  you
: 1039 1 64  to
- 1041
: 1041 1 69 Loos
: 1045 2 67 en
: 1049 1 69  up
: 1053 2 67  my
: 1057 3 69  but
: 1061 1 67 tons
: 1065 3 65  babe
- 1070
: 1077 1 67 But
: 1081 2 69  you
: 1085 2 67  keep
: 1089 3 69  front
: 1093 1 67 in'
- 1096 1097
: 1105 1 69 Say
: 1107 1 69 in'
: 1109 1 67  what
: 1113 2 69  you
: 1117 2 67  gon'
: 1121 3 69  do
: 1125 1 67  to
: 1129 3 65  me
- 1134
: 1140 1 67 But
: 1145 1 69  I
: 1147 1 67  ain't
: 1149 1 67  seen
: 1153 3 69  noth
: 1157 1 67 in'
- 1159
: 1159 1 67 I'm
: 1161 1 67  tel
: 1163 1 67 lin'
: 1165 1 67  you
: 1167 1 67  to
- 1169
: 1169 1 67 Loos
: 1173 1 65 en
: 1177 2 67  up
: 1181 2 65  my
* 1185 4 67  but
: 1189 1 65 tons
: 1193 4 64  babe
- 1199
: 1205 1 65 But
: 1209 2 67  you
: 1213 2 65  keep
: 1218 4 67  front
: 1222 2 64 in'
- 1226
: 1233 1 67 Say
: 1235 1 67 in'
: 1237 2 65  what
: 1241 3 67  you
: 1245 2 65  gon'
: 1249 3 67  do
: 1253 1 64  to
: 1257 4 64  me
- 1263
: 1269 1 65 But
: 1273 1 67  I
: 1275 1 67  ain't
: 1277 1 65  seen
: 1281 3 67  noth
: 1285 1 64 in'
- 1288 1289
: 1297 4 65 You
: 1305 4 65  say
: 1313 3 65  you're
: 1317 2 62  a
: 1321 2 64  big
* 1325 5 65  boy
- 1331
: 1333 2 62 But
: 1337 5 65  I
: 1345 3 65  can't
: 1349 2 62  a
: 1353 5 65 gree
- 1359
: 1361 2 65 'Cause
: 1365 1 62  the
: 1369 5 65  love
- 1375
: 1377 2 64 You
: 1381 2 64  said
: 1385 2 64  you
: 1389 5 65  had
- 1395
: 1397 2 62 Ain't
: 1401 3 65  been
: 1409 2 65  put
: 1413 2 62  on
: 1417 3 65  me
- 1421
: 1421 3 62 I
: 1425 2 64  won
: 1429 3 61 der
- 1434
: 1437 1 64 If
: 1439 1 64  I'm
: 1441 1 64  just
: 1445 1 64  too
: 1447 1 64  much
: 1451 1 64  for
: 1453 1 64  you
- 1455
: 1457 2 64 Won
: 1461 2 61 der
- 1465
: 1468 1 64 If
: 1470 1 64  my
: 1472 2 64  kiss
: 1476 1 64  don't
: 1478 1 64  make
: 1482 1 64  you
: 1484 1 64  just
- 1486
: 1488 2 64 Won
* 1492 3 61 der
- 1497
: 1500 1 64 What
: 1504 3 64  I
: 1508 1 64  got
: 1510 2 64  next
: 1514 1 64  for
: 1516 2 64  you
- 1519
: 1520 2 65 What
: 1524 2 62  you
: 1528 3 65  wan
: 1532 2 62 na
: 1536 8 65  do?
- 1546
: 1552 3 65 Take
: 1556 1 62  a
: 1560 5 65  chance
: 1568 2 64  to
: 1572 2 64  re
: 1576 1 64 cog
: 1580 6 65 nize
- 1587
: 1588 2 62 That
: 1592 5 65  this
: 1600 2 65  could
: 1604 3 62  be
: 1608 5 65  yours
- 1614
: 1616 3 65 I
: 1620 1 62  can
: 1624 6 65  see
- 1631
: 1632 1 64 Just
: 1636 2 64  like
: 1640 1 64  most
* 1644 6 65  guys
- 1651
: 1652 2 62 That
: 1656 5 65  your
: 1664 3 65  game
: 1668 2 62  don't
: 1672 2 65  please
- 1675
: 1676 2 65 You
: 1680 3 64  see
: 1683 1 67 ~
: 1684 1 70 ~
: 1685 1 73 ~
: 1686 1 76 ~
: 1687 1 79 ~
- 1690
: 1692 1 64 How
: 1694 1 64  these
: 1696 2 65  clothes
: 1700 2 65  are
- 1703
: 1704 1 65 Fit
: 1706 1 65 tin'
: 1708 3 65  on
: 1712 3 64  me?
: 1715 1 67 ~
: 1716 1 70 ~
: 1717 1 73 ~
: 1718 1 76 ~
: 1719 1 79 ~
- 1721
: 1723 1 64 And
: 1725 1 64  the
: 1727 2 65  heat
- 1730
: 1731 1 65 Com
: 1733 1 65 in'
: 1735 1 65  from
: 1739 1 65  this
: 1743 3 64  beat
: 1746 1 67 ~
: 1747 1 70 ~
: 1748 1 73 ~
: 1749 1 76 ~
: 1750 1 79 ~
- 1753
: 1755 1 62 I'm
: 1757 1 62  a
: 1759 3 65 bout
: 1763 1 62  to
* 1767 6 65  blow
- 1774
: 1775 3 65 I
: 1779 1 62  don't
: 1783 3 65  think
: 1787 1 62  you
: 1791 3 65  know
- 1795
: 1795 2 64 I'm
: 1799 1 64  tel
: 1801 1 64 lin'
: 1803 1 64  you
: 1805 1 64  to
- 1807
: 1807 1 69 Loos
: 1811 2 67 en
: 1815 1 69  up
: 1819 2 67  my
: 1823 3 69  but
: 1827 1 67 tons
: 1831 3 65  babe
- 1836
: 1843 1 67 But
: 1847 2 69  you
: 1851 2 67  keep
: 1855 3 69  front
: 1859 1 67 in'
- 1862 1863
: 1871 1 69 Say
: 1873 1 69 in'
: 1875 1 67  what
: 1879 2 69  you
: 1883 2 67  gon'
: 1887 3 69  do
: 1891 1 67  to
: 1895 3 65  me
- 1900
: 1907 1 67 But
: 1911 1 69  I
: 1912 1 67  ain't
: 1915 2 67  seen
: 1919 2 69  noth
: 1923 1 67 in'
- 1925
: 1925 1 67 I'm
: 1927 1 67  tel
: 1929 1 67 lin'
: 1931 1 67  you
: 1933 1 67  to
- 1935
: 1935 1 67 Loos
: 1939 1 65 en
: 1943 2 67  up
: 1947 2 65  my
: 1951 3 67  but
: 1955 1 65 tons
: 1959 4 64  babe
- 1965
: 1971 1 65 But
: 1975 2 67  you
: 1979 2 65  keep
: 1983 3 67  front
: 1987 2 64 in'
- 1991
: 1999 1 67 Say
: 2001 1 67 in'
: 2003 2 65  what
: 2007 3 67  you
: 2011 2 65  gon'
: 2015 3 67  do
: 2019 2 64  to
: 2023 4 64  me
- 2029
: 2035 1 65 But
: 2039 1 67  I
: 2041 1 67  ain't
: 2043 1 65  seen
: 2047 3 67  noth
: 2051 1 64 in'
- 2054
F 2056 2 53 Now
F 2059 1 53  you
F 2061 2 53  can
F 2064 2 53  get
F 2067 2 53  what
F 2070 1 53  you
F 2072 2 53  want
- 2075
F 2075 1 52 But
F 2077 1 52  I
F 2080 2 52  need
F 2083 1 52  what
F 2085 1 52  I
F 2087 4 52  need
- 2092
F 2093 1 53 Now
F 2095 1 53  let
F 2097 1 53  me
F 2099 1 53  tell
F 2101 1 53  you
- 2103
F 2103 1 53 What's
F 2105 1 53  crack
F 2106 1 53 a
F 2108 1 53 lack
F 2110 1 53 in'
- 2112
F 2113 1 55 'Fore
F 2115 1 55  I
F 2117 2 55  pro
F 2119 3 55 ceed
- 2124
F 2131 1 54 I'm
F 2133 1 54  a
F 2135 1 54  show
F 2137 1 54  you
- 2139
F 2139 1 54 Where
F 2141 1 54  to
F 2143 1 54  put
F 2145 1 54  it
F 2147 2 54  at
- 2150
F 2151 2 53 P
F 2155 2 53  C
F 2159 2 53  D
F 2163 3 53  told
F 2167 2 53  me
- 2170
F 2171 1 54 ''Yeah
F 2173 1 54  I
F 2175 1 54  thought
F 2177 1 54  I
F 2179 1 54  saw
- 2181
F 2181 1 54 A
F 2183 2 54  pus
F 2185 1 54 sy
F 2187 2 54  cat''
- 2191
F 2197 1 55 Now
F 2199 2 55  roll
F 2203 1 55  with
F 2205 1 55  the
F 2207 2 55  big
F 2211 2 55  dog
- 2214
F 2215 2 54 All
F 2219 2 54  se
F 2221 1 54 xy
F 2223 3 54  y'all
- 2227
F 2227 3 53 On
F 2231 2 53  me
- 2234
F 2235 2 54 Now
F 2239 1 54  tell
F 2241 1 54  me
F 2243 1 54  how
F 2245 1 54  ya
F 2247 2 54  feel
- 2250
F 2251 2 55 Ba
F 2253 2 55 by
F 2255 2 55 doll
- 2259
F 2263 2 56 Ash
F 2265 3 56 ley
F 2269 3 56  Ni
F 2272 4 56 cole
- 2277
F 2279 2 55 Car
F 2281 3 55 mit
F 2287 2 55  Jes
F 2289 2 55 si
F 2291 2 55 ca
- 2294
F 2295 2 53 Kim
F 2297 2 53 ber
F 2299 2 53 ly
F 2303 2 53  Me
F 2305 2 53 lo
F 2307 1 53 dy
- 2309
F 2309 1 55 You
F 2311 2 55  tell
F 2313 1 55 in'
F 2315 1 55  me
- 2318
F 2322 3 62 Huh
F 2330 3 62  huh
- 2335
F 2341 3 62 Hot
- 2346
F 2354 3 62 Huh
F 2362 3 62  huh
- 2367
F 2370 2 62 Loo
F 2372 1 62 sen
F 2374 4 62  up
- 2380
F 2386 3 62 Huh
F 2394 3 62  huh
- 2399
F 2406 7 62 Yeah
- 2415
F 2418 3 62 Huh
F 2426 3 62  huh
- 2430
F 2432 1 62 I
F 2434 2 62  can't
F 2438 2 62  take
F 2442 2 62  this
- 2446 2669
: 2689 2 64 I'm
: 2693 1 64  tel
: 2695 1 64 lin'
: 2697 1 64  you
: 2699 1 64  to
- 2701
: 2701 1 69 Loos
: 2705 2 67 en
: 2709 1 69  up
: 2713 2 67  my
: 2717 3 69  but
: 2721 1 67 tons
: 2725 3 65  babe
- 2730
: 2737 1 67 But
: 2741 2 69  you
: 2745 2 67  keep
: 2749 3 69  front
: 2753 1 67 in'
- 2756 2757
: 2765 1 69 Say
: 2767 1 69 in'
: 2769 1 67  what
: 2773 2 69  you
: 2777 2 67  gon'
: 2781 3 69  do
: 2785 1 67  to
: 2789 4 65  me
- 2795
: 2801 1 67 But
: 2805 1 69  I
: 2806 1 67  ain't
: 2809 2 67  seen
: 2813 3 69  noth
: 2817 1 67 in'
- 2819
: 2819 1 67 I'm
: 2821 1 67  tel
: 2823 1 67 lin'
: 2825 1 67  you
: 2827 1 67  to
- 2829
: 2829 1 67 Loos
: 2833 1 65 en
: 2837 2 67  up
: 2841 2 65  my
: 2845 3 67  but
: 2849 1 65 tons
: 2853 4 64  babe
- 2859
: 2865 1 65 But
: 2869 2 67  you
: 2873 2 65  keep
: 2877 3 67  front
: 2881 2 64 in'
- 2885
: 2893 1 67 Say
: 2895 1 67 in'
: 2897 2 65  what
: 2901 3 67  you
: 2905 2 65  gon'
: 2909 3 67  do
: 2913 1 64  to
: 2917 4 64  me
- 2923
: 2928 1 65 But
: 2932 1 67  I
: 2934 1 67  ain't
: 2936 1 65  seen
: 2940 3 67  noth
: 2944 1 64 in'
- 2946
: 2946 1 64 I'm
: 2948 1 64  tel
: 2950 1 64 lin'
: 2952 1 64  you
: 2954 1 64  to
- 2956
: 2956 1 69 Loos
: 2960 2 67 en
: 2964 1 69  up
: 2968 2 67  my
: 2972 3 69  but
: 2976 1 67 tons
: 2980 3 65  babe
- 2985
: 2992 1 67 But
: 2996 2 69  you
: 3000 2 67  keep
: 3004 3 69  front
: 3008 1 67 in'
- 3011 3012
: 3020 1 69 Say
: 3022 1 69 in'
: 3024 1 67  what
: 3028 2 69  you
: 3032 2 67  gon'
* 3036 3 69  do
: 3040 1 67  to
: 3044 4 65  me
- 3050
: 3056 1 67 But
: 3060 1 69  I
: 3061 1 67  ain't
: 3064 2 67  seen
: 3068 3 69  noth
: 3072 1 67 in'
- 3074
: 3074 1 67 I'm
: 3076 1 67  tel
: 3078 1 67 lin'
: 3080 1 67  you
: 3082 1 67  to
- 3084
: 3084 1 67 Loos
: 3088 1 65 en
: 3092 2 67  up
: 3096 2 65  my
: 3100 3 67  but
: 3104 1 65 tons
: 3108 3 64  babe
- 3113
: 3120 1 65 But
: 3124 2 67  you
: 3128 2 65  keep
: 3132 3 67  front
: 3136 2 64 in'
- 3140
: 3148 1 67 Say
: 3150 1 67 in'
: 3152 2 65  what
: 3156 3 67  you
: 3160 2 65  gon'
: 3164 3 67  do
: 3168 2 64  to
: 3172 4 64  me
- 3178
: 3184 1 65 But
: 3188 1 67  I
: 3190 1 67  ain't
: 3192 1 65  seen
: 3196 3 67  noth
: 3200 1 64 in'
E
