#TITLE:These Are The Days Of Our Lives
#ARTIST:Queen
#LANGUAGE:English
#EDITION:SingStar Queen
#GENRE:Rock
#YEAR:1991
#MP3:Queen - These Are The Days Of Our Lives.mp3
#COVER:Queen - These Are The Days Of Our Lives [CO].jpg
#BACKGROUND:Queen - These Are The Days Of Our Lives [BG].jpg
#BPM:225
#GAP:9466,67
: 0 2 60 Some
: 4 2 60 times
: 8 2 60  I
: 12 2 60  get
: 16 2 60  a
: 20 4 60  feel
: 24 4 55 in'
- 30
: 36 3 64 I
: 40 3 64  was
: 44 2 64  back
: 47 2 62  in
: 50 2 60  the
: 53 6 62  old
* 59 9 60  days
- 70 71
: 80 3 62 Long
: 84 1 57  a
: 86 3 60 go
- 91 112
: 132 2 64 When
: 135 1 64  we
: 137 2 64  were
: 140 3 64  kids
- 144
: 146 2 62 When
: 149 2 62  we
: 152 2 62  were
: 155 5 60  young
- 162 163
: 174 3 64 Things
: 179 9 67  seemed
: 189 2 64  so
: 192 3 62  per
: 196 4 60 fect
- 202 203
: 212 2 62 You
: 215 3 57  know
- 220 236
: 256 1 55 The
: 258 4 64  days
: 264 2 64  were
: 268 2 64  end
: 272 2 64 less
- 275
: 276 1 64 We
: 278 2 64  were
: 282 4 64  cra
: 288 3 60 zy
: 292 1 60  we
: 294 1 60  were
: 296 4 60  young
: 300 4 55 ~
- 306 307
: 320 2 55 The
: 322 3 62  sun
: 326 2 62  was
: 329 2 62  al
: 333 3 62 ways
: 337 4 62  shi
: 341 2 55 nin'
- 345
: 348 1 62 We
: 351 2 62  just
: 355 2 62  lived
: 359 1 60  for
* 361 4 64  fun
: 365 4 62 ~
- 371 372
: 384 2 65 Some
: 388 4 65 times
: 394 3 65  it
: 399 3 65  seems
: 405 3 65  like
- 409
F 409 6 57 Lately
F 423 2 57  I
F 426 1 57  just
F 428 2 57  don't
F 432 3 57  know
- 437 438
: 449 2 60 The
: 452 2 64  rest
: 454 2 62  of
: 457 2 60  my
* 460 11 64  life's
: 471 2 62  been
: 473 4 60 ~
- 479 480
: 500 2 62 Just
: 504 2 60  a
: 508 4 64  show
: 512 4 62 ~
: 516 2 64 ~
- 520 552
: 572 9 67 Those
: 584 9 65  were
: 596 4 64  the
: 600 10 62  days
: 616 10 64  of
: 628 6 62  our
: 636 4 62  lives
: 640 5 60 ~
- 647 676
: 696 2 55 The
* 700 10 67  bad
: 712 10 65  things
- 723
: 724 5 64 In
: 730 6 62  life
: 744 11 64  were
: 756 6 62  so
: 764 4 62  few
: 768 5 60 ~
- 775 800
: 820 5 55 Those
: 828 10 67  days
: 840 10 65  are
: 852 6 64  all
: 860 9 62  gone
: 872 10 64  now
: 884 5 62  but
- 891 892
: 900 5 65 One
: 908 4 64  thing
: 912 5 62  is
: 920 4 62  true
: 924 7 60 ~
- 933 934
: 952 1 55 When
: 954 1 55  I
: 956 4 64  look
- 962 963
: 980 2 55 And
: 982 2 55  I
: 986 4 55  find
: 990 12 62 ~
- 1004
: 1012 2 55 I
: 1016 3 55  still
: 1020 4 57  love
: 1024 3 60  you
: 1028 4 62 ~
: 1032 8 60 ~
- 1042 1043
: 1056 2 60 You
: 1060 2 60  can't
: 1064 2 60  turn
: 1068 3 60  back
: 1072 1 55  the
: 1074 3 55  clock
- 1079 1080
: 1088 2 64 You
: 1092 3 64  can't
: 1096 2 64  turn
: 1100 2 62  back
: 1104 1 60  the
* 1106 7 60  tide
- 1115 1116
F 1135 2 55 Ain't
F 1138 1 55  that
F 1140 1 55  a
F 1142 3 55  shame
- 1147 1156
: 1176 5 63 Ooh
- 1182
: 1184 2 63 I'd
: 1188 2 64  like
: 1192 1 64  to
: 1194 3 64  go
: 1198 5 64  back
: 1204 2 64  one
: 1208 3 64  time
- 1213
: 1220 1 64 On
: 1222 1 64  a
: 1224 2 64  rol
: 1227 2 64 ler
: 1230 5 67  coast
: 1236 2 64 er
: 1238 6 60  ride
- 1246 1247
: 1264 2 53 When
: 1266 2 63  life's
: 1270 3 62  just
: 1274 2 60  a
: 1276 2 60  game
: 1278 4 55 ~
: 1282 4 57 ~
- 1288 1289
: 1312 2 64 No
: 1316 2 64  use
: 1320 2 64  in
: 1324 1 64  sit
: 1326 5 64 ting
- 1332
: 1332 2 64 And
: 1336 1 64  in
: 1338 3 55  think
: 1342 1 55 in'
: 1344 1 55  on
: 1348 2 55  what
: 1352 1 52  you
: 1354 9 55  did
- 1365 1366
: 1376 3 62 When
: 1380 1 62  you
: 1382 2 62  can
: 1386 2 62  lay
* 1390 7 62  back
- 1398
: 1398 2 62 And
: 1400 2 59  en
: 1404 4 64 joy
: 1408 3 62  it
: 1412 3 62  through
: 1416 2 60  your
: 1418 5 62  kids
- 1425 1426
: 1444 3 65 Some
: 1448 3 65 times
: 1452 3 65  it
: 1457 2 65  seems
: 1462 4 65  like
: 1468 3 65  late
: 1471 2 60 ly
- 1475
: 1480 3 65 I
: 1484 2 62  just
: 1487 3 65  don't
: 1491 2 60  know
- 1495 1496
: 1516 2 64 Bet
: 1518 2 62 ter
: 1522 2 64  sit
: 1526 5 64  back
- 1532
: 1532 2 60 And
: 1536 2 62  go
: 1538 4 64 ~
- 1544 1545
: 1559 2 62 With
: 1562 2 60  the
* 1565 5 64  flow
: 1570 6 62 ~
- 1578 1604
: 1624 2 55 Cos
: 1628 9 67  these
: 1640 10 65  are
: 1652 3 64  the
: 1656 8 62  days
: 1672 11 64  of
: 1684 5 62  our
: 1692 4 62  lives
: 1696 6 60 ~
- 1704 1728
: 1748 5 55 They've
: 1756 11 67  flown
- 1768
: 1768 9 65 In
: 1780 4 64  the
* 1788 9 62  swift
: 1800 10 64 ness
: 1812 6 62  of
: 1820 4 62  time
: 1824 4 60 ~
- 1830 1856
: 1876 6 55 These
: 1884 9 67  days
: 1896 10 65  are
: 1908 6 64  all
: 1916 10 62  gone
: 1928 9 64  now
: 1940 4 62  but
- 1946 1947
: 1956 7 65 Some
: 1964 7 64  things
: 1972 3 62  re
: 1976 4 62 main
: 1980 8 60 ~
- 1990 1991
: 2008 1 55 When
: 2010 1 55  I
: 2012 3 64  look
- 2017 2018
: 2036 1 55 And
: 2038 2 55  I
: 2042 10 62  find
- 2054 2055
: 2068 6 55 No
: 2076 4 57  change
: 2080 8 60 ~
- 2090 2728
* 2748 11 67 Those
: 2760 10 65  were
: 2773 3 64  the
: 2777 10 62  days
: 2792 11 64  of
: 2804 6 62  our
: 2812 4 62  lives
: 2816 8 60 ~
- 2826 2827
: 2848 4 62 Yeah
- 2854 2855
: 2872 4 55 The
: 2876 9 67  bad
: 2888 9 65  things
- 2898
: 2900 3 64 In
: 2904 6 62  life
: 2920 11 64  were
: 2932 6 62  so
: 2940 4 62  few
: 2944 6 60 ~
- 2952 2976
: 2996 6 55 Those
: 3004 11 67  days
: 3016 9 65  are
: 3028 7 64  all
: 3036 8 62  gone
: 3048 8 64  now
: 3060 5 62  but
- 3067 3068
* 3076 6 65 One
: 3084 6 64  thing's
: 3092 4 62  still
: 3100 4 62  true
: 3104 5 60 ~
- 3111 3112
: 3128 1 55 When
: 3130 1 55  I
: 3132 2 64  look
- 3136 3137
: 3156 1 55 And
: 3158 2 55  I
: 3162 4 55  find
: 3166 7 62 ~
- 3175 3176
: 3196 5 65 I
: 3202 4 64  still
: 3206 3 62  love
: 3210 13 60  you
- 3225 3312
F 3332 2 60 I
F 3336 1 60  still
F 3338 1 60  love
F 3340 1 60  you
E
