#TITLE:Man on the moon
#ARTIST:R.E.M.
#MP3:R.E.M. - Man on the moon.mp3
#COVER:R.E.M. - Man on the moon [CO].jpg
#BACKGROUND:R.E.M. - Man on the moon [BG].jpg
#BPM:118,65
#GAP:16900
#ENCODING:UTF8
: 0 2 55 Mott
: 2 1 55  the
: 3 3 55  Hoop
: 6 2 55 le
: 8 2 55  and
: 10 2 55  the
: 12 3 54  game
: 15 3 52  of
: 18 6 50  Life.
- 25
: 32 3 48  (Yeah,
: 35 3 48  yeah,
: 38 3 50  yeah,
: 41 4 48  yeah)
- 46
: 59 3 55 And
: 63 2 55 y
: 65 4 55  Kauf
: 69 2 55 man
: 71 2 55  in
: 73 2 55  the
: 75 2 54  wres
: 77 2 54 -
: 79 2 52 tling
: 81 7 50  match.
- 89
: 95 2 48  (Yeah,
: 97 4 48  yeah,
: 101 3 50  yeah,
: 105 5 48  yeah)
- 111
: 123 2 48 Mo
: 125 2 60 nop
: 127 2 60 o
: 129 2 60 ly,
: 131 4 60  Twen
: 135 2 60 ty
: 137 3 60  one,
: 141 2 59  check
: 143 2 57 ers,
: 145 2 57  and
: 147 5 57  chess.
- 154
: 160 2 52  (Yeah,
: 162 4 52  yeah,
: 166 3 54  yeah,
: 170 5 52  yeah)
- 176
: 188 2 55 Mis
: 190 2 55 ter
: 192 3 55  Fred
: 196 2 55  Blas
: 198 2 55 sie
: 200 2 55  in
: 202 2 55  a
: 204 2 54  break
: 206 3 52 fast
: 210 5 50  mess.
- 216
: 224 2 48  (Yeah,
: 226 4 48  yeah,
: 230 3 50  yeah,
: 234 5 48  yeah)
- 240
: 252 2 60 Let's
: 254 3 60  play
: 258 4 60  Twist
: 262 3 60 er,
: 266 4 59  let's
: 270 3 57  play
: 274 5 57  Risk.
- 280
: 288 2 52  (Yeah,
: 290 4 52  yeah,
: 294 3 54  yeah,
: 298 5 52  yeah)
- 304
: 314 2 48 See
: 316 2 55 -
: 318 2 55  you
: 320 3 55  in
: 324 2 55  heav
: 326 2 55 en
: 328 2 55  if
: 330 2 55  you
: 332 3 54  make
: 336 2 52  the
: 338 5 50  list.
- 344
: 352 2 48  (Yeah,
: 354 4 48  yeah,
: 358 3 50  yeah,
: 362 5 48  yeah)
- 368
: 378 2 48 Hey,
: 380 2 60  And
: 382 2 60 y,
: 384 2 60  did
: 386 2 60  you
: 388 2 60  hear
: 390 2 59  a
: 392 2 57 bout
: 394 2 57  this
: 396 3 55  one?
- 400
: 412 2 59 Tell
: 414 2 60  me,
: 416 2 60  are
: 418 2 60  you
: 420 2 60  locked
: 422 2 59  in
: 424 2 57  the
: 426 5 55  punch?
- 432
: 442 2 52 Hey,
: 444 2 59  And
: 446 2 60 y,
: 448 2 60  are
: 450 2 60  you
: 452 2 60  goof
: 454 2 59 ing
: 456 4 57  on
: 460 2 57  El
: 462 2 55 vis?
: 464 3 55 Hey,
- 465
: 468 2 55  ba
: 470 2 55 by,
- 473
: 480 2 57  are
: 482 2 57  we
: 484 2 57  los
: 486 3 59 ing
: 490 5 57  touch?
- 496
: 508 2 62 If
: 510 2 62  you
: 512 2 59  be
: 514 5 60 lieved
- 520
: 526 2 60  they
: 528 2 60  put
: 530 2 60  a
: 532 2 60  man
: 534 2 59  on
: 536 2 57  the
: 538 5 55  moon
- 544
: 548 2 60  (man
: 550 2 59  on
: 552 2 55  the
: 554 12 57  moon)
- 567
: 572 2 62 If
: 574 2 62  you
: 576 2 59  be
: 578 5 60 lieve
- 584
: 590 2 60  there's
: 592 2 60  noth
: 594 2 60 ing
: 596 2 60  up
: 598 3 59  my
: 602 5 57  sleeve,
- 608
: 610 2 52  then
: 612 2 60  noth
: 614 2 59 ing
: 616 2 55  is
: 618 5 57  cool.
- 624
: 636 2 55 Mos
: 638 2 55 es
: 640 3 55  went
: 644 2 55  walk
: 646 2 55 ing
: 648 2 55  with
: 650 2 55  the
: 652 2 54  staff
: 654 3 52  of
: 658 5 50  wood.
- 664
: 672 2 48  (Yeah,
: 674 4 48  yeah,
: 678 3 50  yeah,
: 682 5 48  yeah)
- 688
: 700 2 55 New
: 702 2 55 ton
: 704 3 55  got
: 708 3 55  beaned
: 712 2 55  by
: 714 2 55  the
: 716 2 54  ap
: 718 3 52 ple
: 722 5 50  good.
- 728
: 736 2 48  (Yeah,
: 738 4 48  yeah,
: 742 3 50  yeah,
: 746 5 48  yeah)
- 752
: 764 2 60 E
: 766 2 60 gypt
: 768 2 60  was
: 770 4 60  trou
: 774 2 60 bled
: 776 2 60  by
: 778 2 60  the
: 780 2 59  hor
: 782 2 59 ri
: 784 2 57 ble
: 786 5 57  asp.
- 792
: 800 2 52  (Yeah,
: 802 4 52  yeah,
: 806 3 54  yeah,
: 810 5 52  yeah)
- 816
: 828 2 55 Mis
: 830 2 55 ter
: 832 3 55  Charles
: 836 2 55  Dar
: 838 2 55 win
: 840 2 55  had
: 842 2 55  the
: 844 3 54  gall
: 848 2 52  to
: 850 6 50  ask.
- 857
: 864 2 48  (Yeah,
: 866 4 48  yeah,
: 870 3 50  yeah,
: 874 5 48  yeah)
- 880
: 890 2 48 Hey,
: 892 2 60  And
: 894 2 60 y,
: 896 2 60  did
: 898 2 60  you
: 900 2 60  hear
: 902 2 59  a
: 904 3 57 bout
: 907 2 57  this
: 909 4 55  one?
- 914
: 924 2 59 Tell
: 926 2 60  me,
: 928 2 60  are
: 930 2 60  you
: 932 2 60  locked
: 934 2 59  in
: 936 2 57  the
: 938 8 55  punch?
- 947
: 954 2 52 Hey,
: 956 2 59  And
: 958 2 60 y,
: 960 2 60  are
: 962 2 60  you
: 964 2 60  goof
: 966 2 59 ing
: 968 4 57  on
: 972 2 57  El
: 974 3 55 vis?
: 977 2 55 Hey,
- 978
: 980 2 55  ba
: 982 2 55 by,
- 985
: 992 2 57  are
: 994 2 57  you
: 996 2 57  hav
: 998 3 59 ing
: 1002 5 57  fun?
- 1008
: 1020 2 62 If
: 1022 2 62  you
: 1024 2 59  be
: 1026 7 60 lieved
- 1033
: 1039 2 60  they
: 1041 2 60  put
: 1043 2 60  a
: 1045 2 60  man
: 1047 2 59  on
: 1049 2 57  the
: 1051 5 55  moon
- 1057
: 1061 2 60  (man
: 1063 2 59  on
: 1065 2 55  the
: 1067 12 57  moon)
- 1080
: 1085 2 62 If
: 1087 2 62  you
: 1089 2 59  be
: 1091 9 60 lieve
- 1100
: 1103 2 60  there's
: 1105 2 60  noth
: 1107 2 60 ing
: 1109 2 60  up
: 1111 3 59  my
: 1115 6 57  sleeve,
- 1122
: 1123 2 52  then
: 1125 2 60  noth
: 1127 2 59 ing
: 1129 2 55  is
: 1131 7 57  cool.
- 1139
: 1261 2 55 Here's
: 1263 2 55  a
: 1265 2 55  lit
: 1267 2 55 tle
: 1269 2 55  ag
: 1271 2 55 it
: 1273 2 55  for
: 1275 2 55  the
: 1277 2 54  nev
: 1279 2 54 er-
: 1281 2 52 be
: 1283 2 52 liev
: 1285 7 50 er.
- 1293
: 1297 2 48  (Yeah,
: 1299 4 48  yeah,
: 1303 3 50  yeah,
: 1307 5 48  yeah)
- 1313
: 1325 2 55 Here's
: 1327 2 55  a
: 1329 2 55  lit
: 1331 2 55 tle
: 1333 3 55  ghost
: 1337 2 55  for
: 1339 2 55  the
: 1341 2 54  of
: 1343 3 52 fer
: 1347 6 50 ing.
- 1354
: 1361 2 48  (Yeah,
: 1363 4 48  yeah,
: 1367 3 50  yeah,
: 1371 5 48  yeah)
- 1377
: 1389 2 60 Here's
: 1391 2 60  a
: 1393 3 60  truck
: 1397 3 60  stop
: 1401 2 60  in
: 1403 4 59 stead
: 1407 2 59  of
: 1409 3 57  Saint
: 1413 2 57  Pe
: 1415 6 55 ter's.
- 1422
: 1425 2 52  (Yeah,
: 1427 4 52  yeah,
: 1431 3 54  yeah,
: 1435 5 52  yeah)
- 1441
: 1453 2 55 Mis
: 1455 2 55 ter
: 1457 2 55  And
: 1459 2 55 y
: 1461 2 55  Kauf
: 1463 2 55 man's
: 1465 3 55  gone
: 1469 2 54  wres
: 1471 3 52 -
: 1475 5 50 tling
- 1481
: 1489 2 48  (Yeah,
: 1491 4 48  yeah,
: 1495 3 50  yeah,
: 1499 5 48  yeah)
- 1505
: 1515 2 48 Hey,
: 1517 2 60  And
: 1519 2 60 y,
: 1521 2 60  did
: 1523 2 60  you
: 1525 2 60  hear
: 1527 2 59  a
: 1529 2 57 bout
: 1531 2 57  this
: 1533 5 55  one?
- 1539
: 1549 2 59 Tell
: 1551 2 60  me,
: 1553 2 60  are
: 1555 2 60  you
: 1557 2 60  locked
: 1559 2 59  in
: 1561 2 57  the
: 1563 7 55  punch?
- 1571
: 1579 2 52 Hey,
: 1581 2 59  And
: 1583 2 60 y,
: 1585 2 60  are
: 1587 2 60  you
: 1589 2 60  goof
: 1591 2 59 ing
: 1593 4 57  on
: 1597 2 57  El
: 1599 3 55 vis?
: 1602 2 55 Hey,
- 1603
: 1605 2 55  ba
: 1607 3 55 by,
- 1611
: 1617 2 57  are
: 1619 2 57  we
: 1621 2 57  los
: 1623 3 59 ing
: 1627 7 57  touch?
- 1635
: 1645 2 62 If
: 1647 2 62  you
: 1649 2 59  be
: 1651 8 60 lieved
- 1660
: 1663 2 60  they
: 1665 2 60  put
: 1667 2 60  a
: 1669 2 60  man
: 1671 2 59  on
: 1673 2 57  the
: 1675 6 55  moon
- 1682
: 1685 2 60  (man
: 1687 2 59  on
: 1689 2 55  the
: 1691 13 57  moon)
- 1705
: 1709 2 62 If
: 1711 2 62  you
: 1713 2 59  be
: 1715 9 60 lieve
- 1725
: 1727 2 60  there's
: 1729 2 60  noth
: 1731 2 60 ing
: 1733 2 60  up
: 1735 3 59  my
: 1739 8 57  sleeve,
: 1747 2 52  then
- 1748
: 1749 2 60  noth
: 1751 2 59 ing
: 1753 2 55  is
: 1755 8 57  cool.
- 1764
: 1885 2 62 If
: 1887 2 62  you
: 1889 2 59  be
: 1891 8 60 lieved
- 1900
: 1904 2 60  they
: 1906 2 60  put
: 1908 2 60  a
: 1910 2 60  man
: 1912 2 59  on
: 1914 2 57  the
: 1916 5 55  moon
- 1922
: 1926 2 60  (man
: 1928 2 59  on
: 1930 2 55  the
: 1932 12 57  moon)
- 1945
: 1950 2 62 If
: 1952 2 62  you
: 1954 2 59  be
: 1956 7 60 lieve
- 1962
: 1968 2 60  there's
: 1970 2 60  noth
: 1972 2 60 ing
: 1974 2 60  up
: 1976 3 59  my
: 1980 7 57  sleeve,
- 1988
: 1988 2 52  then
: 1990 2 60  noth
: 1992 2 59 ing
: 1994 2 55  is
: 1996 8 57  cool.
- 2005
: 2014 2 62 If
: 2016 2 62  you
: 2018 2 59  be
: 2020 6 60 lieved
- 2027
: 2032 2 60  they
: 2034 2 60  put
: 2036 2 60  a
: 2038 2 60  man
: 2040 2 59  on
: 2042 2 57  the
: 2044 5 55  moon
- 2050
: 2054 2 60  (man
: 2056 2 59  on
: 2058 2 55  the
: 2060 13 57  moon)
- 2074
: 2078 2 62 If
: 2080 2 62  you
: 2082 2 59  be
: 2084 5 60 lieve
- 2090
: 2096 2 60  there's
: 2098 2 60  noth
: 2100 2 60 ing
: 2102 2 60  up
: 2104 3 59  my
: 2108 6 57  sleeve,
- 2115
: 2116 2 52  then
: 2118 2 60  noth
: 2120 2 59 ing
: 2122 2 55  is
: 2124 8 57  cool.
- 2133
: 2142 2 62 If
: 2144 2 62  you
: 2146 2 59  be
: 2148 8 60 lieved
- 2157
: 2160 2 60  they
: 2162 2 60  put
: 2164 2 60  a
: 2166 2 60  man
: 2168 2 59  on
: 2170 2 57  the
: 2172 7 55  moon
- 2180
: 2182 2 60  (man
: 2184 2 59  on
: 2186 2 55  the
: 2188 12 57  moon)
- 2201
: 2206 2 62 If
: 2208 2 62  you
: 2210 2 59  be
: 2212 8 60 lieve
- 2220
: 2224 3 60  there's
: 2227 1 60  noth
: 2228 2 60 ing
: 2230 2 60  up
: 2232 3 59  my
: 2236 7 57  sleeve,
- 2244
: 2244 2 52  then
: 2246 2 60  noth
: 2248 2 59 ing
: 2250 2 55  is
: 2252 10 57  cool.
E