#TITLE:Lucky
#ARTIST:Radiohead
#MP3:Radiohead - Lucky.mp3
#COVER:Radiohead - Lucky [CO].jpg
#BACKGROUND:Radiohead - Lucky [BG].jpg
#BPM:229,32
#GAP:23700
#ENCODING:UTF8
: 0 6 67 I'm
: 6 7 67  on
: 13 5 67  a
: 18 20 69  roll,
- 41
: 54 8 67 I'm
: 62 7 67  on
: 69 5 67  a
: 74 28 71  roll
- 105
: 116 6 69  this
: 123 34 71  time
- 159
: 193 10 72 I
: 203 19 71  feel
: 222 12 67  my
: 234 13 69  luck
: 249 11 66  could
: 262 12 67  chan
: 274 19 64 ge.
- 298
: 388 7 67 Kill
: 395 4 67  me
: 399 9 67  Sa
: 408 30 69 rah,
- 439
: 444 6 67 kill
: 450 8 67  me
: 458 5 67  a
: 463 34 71 gain
- 498
: 507 6 69  with
: 513 51 71  love,
- 566
: 579 5 64 it's
: 584 7 72  gon
: 591 6 72 na
: 597 15 71  be
: 612 10 67  a
: 622 14 69  glo
: 636 16 66 rious
: 654 4 67  day.
: 658 18 64 -
- 679
: 746 6 74 Pull
: 752 8 74  me
: 760 6 73 -
: 766 46 73  out
: 812 4 71  of
: 816 5 71  the
: 824 9 71  air
: 833 16 67 crash,
- 850
: 856 6 74 Pull
: 862 8 74  me
: 870 7 73 -
: 877 45 73  out
: 922 2 71  of
: 924 4 71  the
: 928 26 71  lake,
- 955
: 961 5 74 'Cause
: 966 16 76  I'm your
: 982 8 76  su
: 990 6 74 -
: 996 36 73 -
: 1032 10 71 per
: 1042 12 71 he
: 1054 16 67 ro,
: 1070 18 66 -
- 1089
: 1090 7 64 we
: 1097 4 66  are
: 1101 11 67  stand
: 1112 7 67 ing
: 1119 7 67  on
: 1126 6 67  the
: 1132 43 71  edge.
- 1176
: 1422 5 67 The
: 1427 7 67  head
: 1434 2 67  of
: 1436 32 69  state
- 1469
: 1474 6 67 has
: 1480 8 67  called
: 1488 6 67  for
: 1494 28 71  me
- 1523
: 1538 6 69  by
: 1544 35 71  name
- 1580
: 1612 16 72 but I
: 1628 14 71  don't
: 1642 12 67  have
: 1654 14 69  time
: 1668 16 66  for
: 1684 6 67  him.
: 1690 19 64 -
- 1711
: 1808 8 67 It's
: 1816 6 67  gon
: 1822 6 67 na
: 1828 24 69  be
- 1853
: 1870 6 67  a
: 1876 16 79  glo
: 1892 14 78 -
: 1906 12 76 -
: 1918 14 74 rious
: 1934 4 76  day!
: 1938 4 74 -
: 1942 25 71 -
- 1968
: 2000 12 76 I
: 2012 18 74  feel
: 2030 12 71  my
: 2042 12 69  luck
: 2055 13 66  could
: 2068 8 67  chan
: 2076 31 64 ge.
- 2108
: 2160 7 74 Pull
: 2167 7 74  me
: 2174 7 73 -
: 2181 44 73  out
: 2225 5 71  of
: 2230 8 71  the
: 2238 9 71  air
: 2247 17 67 crash,
- 2265
: 2271 5 74 Pull
: 2276 8 74  me
: 2284 6 73 -
: 2290 44 73  out
: 2334 6 71  of
: 2340 4 71  the
: 2344 28 71  lake,
- 2373
: 2375 5 74 'Cause
: 2380 15 76  I'm your
: 2395 11 76  su
: 2406 12 74 -
: 2418 30 73 -
: 2448 6 71 per
: 2454 10 71 he
: 2464 18 67 ro,
: 2482 21 66 -
- 2504
: 2505 5 64 we
: 2510 4 66  are
: 2514 12 67  stand
: 2526 8 67 ing
: 2534 6 67  on
: 2540 7 67  the
: 2547 41 71  edge.
- 2593
: 2600 0 0 (Instrumental)
- 3420
: 3455 5 64 We
: 3460 4 66  are
: 3464 10 67  stand
: 3474 9 67 ing
: 3483 6 67  on
: 3489 5 67  the
: 3494 43 71  edge.
E