#TITLE:House of Cards
#ARTIST:Radiohead
#MP3:Radiohead - House of Cards.mp3
#VIDEO:Radiohead - House of Cards.mp4
#COVER:Radiohead - House of Cards.jpg
#BPM:223.32
#GAP:34307
#ENCODING:UTF8
#LANGUAGE:English
#AUTHOR:Unknown
: 0 2 12 I
: 4 2 12  don't
: 8 2 12  wan
: 12 2 12 na
: 16 2 12  be
: 20 4 12  your
: 28 10 12  friend
- 48
: 64 2 10 I
: 68 2 10  just
: 72 2 10  wan
: 76 2 10 na
: 80 2 10  be
: 84 4 9  your
: 92 6 12  lo
: 100 4 9 ver
- 133
: 218 2 5 No
: 222 2 12  ma
: 226 6 12 tter
: 234 2 12  how
: 238 2 12  it
: 242 14 12  ends
- 266
: 282 2 5 No
: 286 2 10  ma
: 290 6 10 tter
: 298 2 10  how
: 302 2 9  it
: 308 16 12  starts
- 353
: 444 2 5 For
: 448 2 12 get
: 452 2 12  a
: 456 2 12 bout
: 460 2 12  your
: 464 2 12  house
: 470 2 12  of
: 476 16 12  cards
- 501
: 504 2 12 And
: 508 12 15  I'll
: 524 12 14  do
: 538 4 14  mine
: 542 8 12 ~
- 579
: 666 2 5 For
: 670 2 12 get
: 674 2 12  a
: 678 2 12 bout
: 682 2 12  your
: 686 8 12  house
: 696 2 12  of
: 700 16 12  cards
- 723
: 726 2 12 And
: 732 12 15  I'll
: 748 12 14  do
: 764 6 15  mine
: 770 8 14 ~
: 778 14 12 ~
- 790
- 821
: 888 2 10 And
: 892 10 15  fall
: 906 10 14  off
: 920 2 10  the
: 924 12 15  ta
: 941 5 14 ble
: 946 3 10 ~,
: 956 11 15  get
: 970 11 14  swept
: 986 14 7  un
: 1002 12 9 der
: 1145 2 10 De
: 1149 4 14 nial
: 1153 11 12 ~
: 1164 8 12 ~
: 1172 13 10 ~,
: 1209 2 14  de
: 1213 8 14 nial
: 1221 18 12 ~
- 1268
: 1376 1 5 The
: 1378 2 12  in
: 1381 2 12 fra
: 1384 3 12 struct
: 1388 3 12 ure
: 1394 6 12  will
: 1403 2 12  col
: 1407 9 12 lapse
- 1426
: 1443 8 10 Vol
: 1455 12 10 tage
: 1471 14 12  spikes
- 1499
: 1538 2 12 Throw
: 1541 3 12  your
: 1546 7 12  keys
: 1554 6 12  in
: 1561 3 12  the
: 1566 9 12  bowl
- 1585
: 1594 3 10 Kiss
: 1599 3 10  your
: 1603 9 10  hus
: 1612 11 10 band
: 1626 3 9  good
: 1629 14 12 night
- 1672
: 1757 3 5 For
: 1762 3 12 get
: 1766 2 12  a
: 1769 4 12 bout
: 1774 4 12  your
: 1779 6 12  house
: 1787 2 12  of
: 1791 11 12  cards
- 1805
: 1807 6 12 And
* 1822 12 15  I'll
: 1838 12 14  do
* 1854 4 14  mine
* 1858 7 12 ~
- 1879
: 1918 2 5 For
: 1922 2 12 get
: 1925 2 12  a
: 1929 3 12 bout
: 1934 2 12  your
: 1938 6 12  house
: 1946 2 12  of
: 1950 8 12  cards
: 1958 12 9 ~
- 1976
: 1978 3 12 And
: 1983 12 15  I'll
: 1999 11 14  do
* 2013 8 15  mine
* 2021 8 14 ~
* 2029 16 12 ~
- 2074
: 2142 9 15 Fall
: 2156 8 14  off
: 2168 3 10  the
: 2174 12 15  ta
: 2189 7 14 ble
: 2196 3 10 ~,
: 2206 11 15  get
: 2221 10 14  swept
: 2238 7 7  un
: 2245 6 9 ~
: 2254 9 9 der
- 2292
: 2394 3 10 De
: 2399 6 14 nial
: 2405 9 12 ~
: 2414 8 12 ~
: 2422 11 10 ~,
: 2458 3 14  de
* 2463 7 14 nial
: 2470 9 12 ~
: 2479 12 12 ~
- 2520
: 2651 2 10 De
: 2655 4 14 nial
: 2659 11 12 ~
: 2670 8 12 ~
: 2678 14 10 ~,
: 2715 2 14  de
: 2718 7 14 nial
: 2725 8 12 ~
: 2733 8 12 ~
- 2743
: 2745 3 5 Your
: 2752 27 12  ears
: 2786 23 10  should
: 2819 24 9  be
: 2851 27 12  bur
* 2882 10 10 ning
- 2902
: 2906 3 10 De
: 2911 4 14 nial
: 2915 10 12 ~
: 2925 9 12 ~
: 2934 14 10 ~,
: 2971 2 14  de
: 2975 7 14 nial
: 2982 6 12 ~
: 2988 8 12 ~
- 2999
: 3001 2 5 Your
: 3007 29 12  ears
: 3042 23 10  should
: 3075 24 12  be
: 3107 26 12  bur
: 3137 9 10 ning
E