#TITLE:Amerika
#ARTIST:Rammstein
#LANGUAGE:Deutsch
#EDITION:Völkerball
#GENRE:Tanzmetall
#CREATOR:FaKK
#MP3:Rammstein - Amerika.mp3
#COVER:Rammstein - Amerika [CO].jpg
#BACKGROUND:Rammstein - Amerika [BG].jpg
#START:5
#BPM:122
#GAP:43
#VIDEOGAP-5:#VIDEOGAP-5
: 4 4 10 We're
: 8 4 10  all
: 12 2 10  liv
: 14 2 10  ing
: 16 2 10  in
: 18 2 13  A
: 20 4 17 me
: 24 2 17 ri
: 26 4 17 ka
- 32
: 34 2 17 A
: 36 4 15 me
: 40 2 15 ri
: 42 4 15 ka
: 48 2 15  ist
: 50 4 12  wun
: 54 2 12 der
: 56 4 12 bar
- 62
: 64 4 10 We're
: 68 4 10  all
: 72 2 10  liv
: 74 2 10 ing
: 76 2 10  in
: 78 2 13  A
: 80 4 17 me
: 84 2 17 ri
: 86 6 17 ka
- 92
: 94 2 -2 A
: 96 4 -2 me
: 100 2 -10 ri
: 102 4 -10 ka
: 110 2 -2  A
: 112 4 -2 me
: 116 2 -10 ri
: 118 4 -10 ka
- 122
: 128 4 -12 We're
: 132 4 -12  all
: 136 2 -12  liv
: 138 2 -12 ing
: 140 2 -12  in
: 142 2 -9  A
: 144 4 -5 me
: 148 2 -5 ri
: 150 6 -5 ka
- 156
: 158 2 -5 A
: 160 4 -7 me
: 164 2 -7 ri
: 166 4 -7 ka
: 174 2 -5  ist
: 176 4 -10  wun
: 180 2 -10 der
: 182 4 -10 bar
- 186
: 190 4 -12  We're
: 194 4 -12  all
: 198 2 -12  liv
: 200 2 -12 ing
: 202 2 -12  in
: 204 2 -9  A
: 206 4 -5 me
: 210 2 -5 ri
: 212 4 -5 ka
- 218
: 220 2 -2 A
: 222 4 -2 me
: 226 2 -10 ri
: 228 4 -10 ka
: 234 2 -2  A
: 236 4 -2 me
: 240 2 -10 ri
: 242 2 -10 ka
- 248
: 254 2 -34 Wenn
: 256 2 -34  ge
: 258 2 -34 tanzt
: 260 2 -34  wird
: 262 2 -34  will
: 264 2 -34  ich
: 266 2 -34  füh
: 268 2 -34 ren
- 276
: 282 2 -34 Auch
: 284 2 -34  wenn 
: 286 2 -34  ihr
: 288 2 -34  euch
: 290 2 -34  al
: 292 2 -34 lei
: 294 2 -34 ne
: 296 2 -36  dreht
- 300
: 312 2 -34 Lasst
: 314 2 -31  euch
: 316 2 -31  ein
: 318 2 -36  we
: 320 2 -36 nig
: 322 2 -36  kon
: 324 2 -34 trol
: 326 4 -32 lie
: 330 4 -34 ren
- 338
: 344 2 -34 Ich
: 346 2 -34  zei
: 348 2 -34 ge
: 350 2 -34  euch
: 352 2 -34  wie's
: 354 2 -32  rich
: 356 2 -36 tig
: 358 4 -34  geht
- 364
: 376 2 -36 Wir
: 378 2 -36  bil
: 380 2 -36 den 
: 382 2 -36 ei
: 384 2 -36 nen
: 386 4 -34  lie
: 390 2 -36 ben
: 392 4 -34  Rei
: 396 2 -36 gen
- 404
: 408 2 -34 Die
: 410 2 -34  Frei
: 412 2 -34 heit
: 414 2 -34  spielt
: 416 2 -34  auf
: 418 4 -32  al
: 422 2 -34 len
: 424 4 -32  Gei
: 428 2 -34 gen
- 436
: 440 2 -32 Mu
: 440 2 -32 sik
: 442 2 -32  kommt
: 444 2 -32  aus
: 446 2 -32  dem
: 448 4 -32  wei
: 452 2 -34 ßen
: 454 4 -36  Haus
- 460
: 466 2 -31 Und
: 468 2 -31  vor
: 470 2 -31  Pa
: 472 2 -31 ris
: 474 2 -31  steht
: 476 4 -28  Mic
: 480 2 -31 key
: 482 4 -34  Maus
- 490
: 504 4 -32 We're
: 508 4 -32  all
: 516 4 -28  We're
: 520 4 -28  all
- 526
: 534 4 -12 We're
: 538 4 -12  all
: 542 2 -12  liv
: 544 2 -12 ing
: 546 2 -12  in
: 548 2 -9  A
: 550 4 -5 me
: 554 2 -5 ri
: 556 4 -5 ka
- 562
: 564 2 -5 A
: 566 4 -7 me
: 570 2 -7 ri
: 572 4 -7 ka
: 578 2 -5  ist 
: 580 4 -10  wun
: 584 2 -10 der
: 586 4 -10 bar
- 592 
: 596 4 -12 We're
: 600 4 -12  all
: 604 2 -12  liv
: 606 2 -12 ing
: 608 2 -12  in
: 610 2 -9  A
: 612 4 -5 me
: 616 2 -5 ri
: 618 4 -5 ka
- 624
: 626 2 -2 A
: 628 4 -2 me
: 632 2 -10 ri
: 634 4 -10 ka
: 640 2 -2  A
: 642 4 -2 me
: 646 2 -10 ri
: 648 4 -10 ka
- 654
: 660 2 -31 Ich
: 662 2 -31  ken
: 664 2 -31 ne
: 666 2 -31  Schrit
: 668 2 -31 te
: 670 2 -31  die
: 672 4 -36  sehr
: 676 2 -34  nüt
: 678 2 -34 zen
- 682
: 690 2 -34 Und 
: 692 2 -34  wer
: 694 2 -34 de
: 696 2 -34  euch
: 698 2 -34  vor
: 700 4 -34  Fehl
: 704 2 -34 tritt
: 706 2 -36  schüt
: 708 4 -36 zen
- 714
: 718 2 -34 Und 
: 720 2 -34  wer
: 722 2 -34  nicht
: 724 2 -34  tan
: 726 2 -34 zen
: 728 2 -31  will
: 730 4 -34  am
: 734 2 -31  Schluss
- 740
: 752 2 -34 Weiß
: 754 2 -34  noch
: 756 2 -34  nicht
: 758 2 -34  dass
: 760 2 -34  er
: 762 4 -31  tan
: 766 2 -34 zen
: 768 2 -31  muss
- 774
: 780 2 -34 Wir
: 782 2 -34  bil
: 784 2 -34 den
: 786 2 -34  ei
: 788 2 -34 nen
: 790 4 -31  lie
: 794 2 -34 ben
: 796 4 -31  Rei
: 800 2 -34 gen
- 806
: 812 2 -34 Ich
: 814 2 -34  wer
: 816 2 -34 de
: 818 2 -34  euch
: 820 2 -34  die
: 822 4 -32  Rich
: 826 2 -34 tung
: 828 4 -32  zei
: 832 2 -34 gen
- 838
: 844 2 -32 Nach
: 846 2 -32  Af
: 848 2 -32 ri
: 850 2 -32 ka
: 852 2 -32  kommt
: 854 4 -32  San
: 858 2 -34 ta
: 860 4 -36 Claus
- 866
: 872 2 -31 Und
: 874 2 -31  vor
: 876 2 -31  Pa
: 878 2 -31 ris
: 880 2 -31  steht
: 882 4 -28  Mic
: 886 2 -31 key
: 888 4 -34  Maus
- 894
: 938 4 -12 We're
: 942 4 -12  all
: 946 2 -12  liv
: 948 2 -12 ing
: 950 2 -12  in
: 952 2 -9  A
: 954 4 -5 me
: 958 2 -5 ri
: 960 4 -5 ka
- 966
: 968 2 -5 A
: 970 4 -7 me
: 974 2 -7 ri
: 976 4 -7 ka
: 982 2 -5  ist
: 984 4 -10  wun
: 988 2 -10 der
: 990 4 -10 bar
- 994
: 1000 4 -12 We're
: 1004 4 -12  all
: 1008 2 -12  liv
: 1010 2 -12 ing
: 1012 2 -12  in
: 1014 2 -9  A
: 1016 4 -5 me
: 1020 2 -5 ri
: 1022 4 -5 ka
- 1028
: 1030 2 -2 A
: 1032 4 -2 me
: 1036 2 -10 ri
: 1038 4 -10 ka
: 1046 2 -2  A
: 1048 4 -2 me
: 1052 2 -10 ri
: 1054 4 -10 ka
- 1060
: 1064 4 -12 We're
: 1068 4 -12  all
: 1072 2 -12  liv
: 1074 2 -12 ing
: 1076 2 -12  in
: 1078 2 -9  A
: 1080 4 -5 me
: 1084 2 -5 ri
: 1086 4 -5 ka
- 1092
: 1094 2 -5 Co
: 1096 4 -7 ca-
: 1100 2 -7 Co
: 1102 4 -7 la,
: 1110 4 -10  won
: 1114 2 -10 der
: 1116 4 -10 bra
- 1122
: 1126 4 -12 We're
: 1130 4 -12  all
: 1134 2 -12  liv
: 1136 2 -12 ing
: 1138 2 -12  in
: 1140 2 -9  A
: 1142 4 -5 me
: 1146 2 -5 ri
: 1148 4 -5 ka
- 1154
: 1156 2 -2 A
: 1158 4 -2 me
: 1162 2 -10 ri
: 1164 4 -10 ka
: 1172 2 -2  A
: 1174 4 -2 me
: 1178 2 -10 ri
: 1180 4 -10 ka
- 1186
: 1190 2 -36 This
: 1192 2 -36  is
: 1194 2 -36  not
: 1196 2 -36  a
: 1198 4 -36  love
: 1202 4 -36  song
- 1210
: 1220 2 -36 This
: 1222 2 -36  is
: 1224 2 -36  not
: 1226 2 -36  a
: 1228 4 -36  love
: 1232 4 -36  song
- 1238
: 1250 2 -36 I
: 1252 2 -36  don't
: 1254 2 -36  sing
: 1256 2 -36  my
: 1258 2 -36  mo
: 1260 2 -36  ther's
: 1262 4 -36  tongue
- 1268
: 1278 4 -36 No,
: 1282 2 -36  this
: 1284 2 -36  is
: 1286 2 -36  not
: 1288 2 -36  a
: 1290 4 -36  love
: 1294 4 -36  song
- 1300
: 1468 4 -12 We're
: 1472 4 -12  all
: 1476 2 -12  liv
: 1478 2 -12 ing
: 1480 2 -12  in
: 1482 2 -9  A
: 1484 4 -5 me
: 1488 2 -5 ri
: 1490 4 -5 ka
- 1496
: 1498 2 -5 A
: 1500 4 -7 me
: 1504 2 -7 ri
: 1506 4 -7 ka
: 1512 2 -5  ist
: 1514 4 -10  wun
: 1518 2 -10 der
: 1520 4 -10 bar
- 1526
: 1530 4 -12 We're
: 1534 4 -12  all
: 1538 2 -12  liv
: 1540 2 -12 ing
: 1542 2 -12  in
: 1544 2 -9  A
: 1546 4 -5 mer
: 1550 2 -5 ri
: 1552 4 -5 ka
- 1558
: 1560 2 -2 A
: 1562 4 -2 me
: 1566 2 -10 ri
: 1568 4 -10 ka
: 1574 2 -2  A
: 1576 4 -2 me
: 1580 2 -10 ri
: 1582 4 -10 ka
- 1588
: 1592 4 -12 We're
: 1596 4 -12  all
: 1600 2 -12  liv
: 1602 2 -12 ing
: 1604 2 -12  in
: 1606 2 -9  A
: 1608 4 -5 me
: 1612 2 -5 ri
: 1614 4 -5 ka
- 1620
: 1622 2 -7 Co
: 1624 4 -5 ca
: 1628 4 -7  Co
: 1630 4 -5 la,
: 1638 4 -10  some
: 1642 2 -10 times
: 1644 4 -10  war
- 1650
: 1654 4 -12 We're
: 1658 4 -12  all
: 1662 2 -12  liv
: 1664 2 -12 ing
: 1666 2 -12  in
: 1668 2 -9  A
: 1670 4 -5 me
: 1674 2 -5 ri
: 1676 4 -5 ka
- 1682
: 1684 2 -2 A
: 1686 4 -2 me
: 1690 2 -10 ri
: 1692 4 -10 ka
: 1700 2 -2  A
: 1702 4 -2 me
: 1706 2 -10 ri
* 1708 4 -10 ka
E
