#TITLE:Feuer Frei
#ARTIST:Rammstein
#MP3:Rammstein - Feuer Frei.mp3
#VIDEO:Rammstein - Feuer frei.avi
#COVER:feuer_frei_uk_3.jpg
#BACKGROUND:rammstein031rotterdam20dd3.jpg
#BPM:297,5
#GAP:0
#ENCODING:UTF8
#LANGUAGE:Deutsch
: 396 7 50 Ge
: 404 8 51 tadelt
: 413 9 50  wird
: 424 5 49  wer
: 431 5 51  Schmer
: 436 6 51 zen
: 442 13 52  kennt
- 474
: 498 4 50 vom
: 505 3 51  Feu
: 509 6 53 er
: 515 8 50  das
: 524 6 51  die
: 531 5 51  Haut
: 537 5 50  ver
: 543 10 50 brennt
- 572
: 610 3 51 Ich
: 613 7 50  werf
: 621 6 52  ein
: 629 15 50  Licht
- 647
: 661 3 52 in
: 665 6 51  mein
: 672 6 53  Ge
: 679 21 51 sicht
- 703
: 711 3 54 Ein
: 714 7 53  heis
: 722 6 52 ser
: 728 24 50  Schrei
- 755
: 776 11 51 Feuer
: 790 11 50  frei!
- 840
: 1004 8 50 Bang
: 1014 11 50  Bang
- 1064
: 1106 7 50 Bang
: 1116 8 50  Bang
- 1143
: 1199 4 50 Ge
: 1206 4 51 a
: 1212 4 50 delt
: 1219 4 50  ist
: 1224 5 50  wer
: 1231 4 51  Schmer
: 1237 4 51 zen
: 1243 10 50  kennt
- 1272
: 1299 5 50 vom
: 1305 3 51  Feu
: 1309 5 53 er
: 1315 7 50  das
: 1325 5 51  in
: 1331 5 50  Lust
: 1337 5 51  ver
: 1343 9 50 brennt
- 1371
: 1412 3 50 ein
: 1416 6 55  Fun
: 1424 5 53 ken
: 1430 14 50 stoss
- 1447
: 1463 2 52 in
: 1465 6 56  ihr
: 1472 5 53 en
: 1480 17 50  Schoss
- 1500
: 1511 3 52 ein
: 1515 6 53  heis
: 1522 6 52 ser
: 1530 16 50  Schrei
- 1551
: 1579 9 51 Feuer
: 1591 10 50  frei!
- 1603
: 1605 7 50 Bang
: 1614 9 50  Bang
- 1628
: 1656 7 50 Bang
: 1665 10 50  Bang
- 1694
: 1743 9 51 Feuer
: 1756 13 50  frei!
- 1774
: 1805 7 50 Bang
: 1815 8 50  Bang
- 1828
: 1856 6 50 Bang
: 1866 9 50  Bang
- 1894
: 1945 8 51 Feuer
: 1957 11 50  frei!
- 2007
: 2200 5 50 Ge
: 2207 4 52 fähr
: 2213 5 50 lich
: 2219 5 52  ist
: 2226 4 50  wer
: 2231 5 52  Schmer
: 2238 4 50 zen
: 2244 11 49  kennt
- 2274
: 2300 5 50 vom
: 2307 3 52  Feu
: 2311 5 54 er
: 2316 8 50  das
: 2326 5 52  den
: 2332 5 50  Geist
: 2338 5 52  ver
: 2346 7 51 brennt
- 2354
: 2356 8 50 Bang
: 2366 8 50  Bang
- 2377
: 2400 5 50 ge
: 2406 5 52 fähr
: 2412 6 51 lich
: 2419 5 50  das
: 2426 5 50  ge
: 2432 5 52 brann
: 2437 5 53 te
: 2444 5 50  Kind
- 2449
: 2450 6 50 mit
: 2456 4 52  Feu
: 2460 5 54 er
: 2466 6 50  das
: 2473 5 51  vom
: 2479 7 52  Le
: 2486 5 51 ben
: 2491 11 50  trennt
- 2505
: 2512 4 50 ein
: 2516 7 52  heis
: 2524 7 50 ser
: 2532 13 52  Schrei
- 2548
: 2557 7 50 Bang
: 2566 8 50  Bang
- 2577
: 2581 9 51 Feuer
: 2592 10 50  frei!
- 2641
: 3008 6 50 Bang
: 3016 9 50  Bang
- 3030
: 3057 8 50 Bang
: 3067 9 50  Bang
- 3095
: 3143 9 51 Feuer
: 3155 12 50  frei!
- 3186
: 3207 8 50 Bang
: 3217 9 50  Bang
- 3231
: 3257 8 50 Bang
: 3268 10 50  Bang
- 3297
: 3344 10 51 Feuer
: 3357 11 50  frei!
- 3373
: 3407 8 50 Bang
: 3416 10 50  Bang
- 3431
: 3458 8 50 Bang
: 3467 10 50  Bang
- 3516
: 3643 11 51 Feuer
: 3656 13 50  frei!
- 3672
: 3682 9 50 Bang
: 3691 10 50  Bang
E