#TITLE:Si es tan solo amor
#ARTIST:Revolver
#MP3:Revolver - Si es tan solo amor.mp3
#COVER:Revolver - Si es tan solo amor [CO].jpg
#BACKGROUND:Revolver - Si es tan solo amor [BG].jpg
#BPM:236,0
#GAP:21500
#ENCODING:UTF8
: 0 3 54 Ne
: 4 2 56 na 
: 8 3 56 tú 
: 12 2 56 que 
: 16 3 56 siem
: 20 2 56 pre 
- 22
: 24 3 54 Sa
: 28 3 56 bes 
: 32 3 54 dón
: 36 6 52 de es
: 44 8 52 tás 
- 58
: 64 3 56 Ne
: 68 2 59 na 
: 72 3 59 di
: 76 6 59 me aho
: 84 2 59 ra 
- 86
: 88 3 59 Si es
: 92 3 59 to es 
: 96 4 61 mi 
: 100 5 59 fi
: 108 2 59 nal
: 110 2 56   
: 112 4 54   
- 120
: 124 8 61 Ne
: 132 3 59 na 
: 136 2 59 di
: 138 2 56 me 
: 140 4 59 cuán
: 148 2 59 do 
- 150
: 152 4 59 Por 
: 156 4 56 úl
: 160 4 59 ti
: 164 6 61 ma 
: 172 4 54 vez
: 176 6 52   
- 187
: 192 4 49 Tú 
: 196 3 52 me 
: 200 2 52 dis
: 204 3 52 te un 
: 208 3 52 be
: 212 3 52 so 
- 215
: 216 3 54 Sin 
: 220 4 52 sa
: 224 6 56 ber 
: 232 6 56 por
: 240 2 56 qué
: 242 2 54   
: 244 4 52   
: 248 2 56   
: 250 2 54   
: 252 3 52   
: 256 15 52   
- 281
: 384 3 54 Cuán
: 388 2 56 tas 
: 392 3 56 car
: 396 2 56 re
: 400 3 56 te
: 404 2 56 ras 
- 406
: 408 3 54 Yo 
: 412 3 56 que
: 416 3 54 mé 
: 420 6 52 por 
: 428 12 52 ti 
- 444
: 448 3 56 Cuán
: 452 2 59 tas 
: 456 3 59 car
: 460 3 59 re
: 464 3 59 te
: 468 2 59 ras 
- 470
: 472 3 59 Yo 
: 476 3 59 que
: 480 4 61 mé 
: 484 4 59 por
: 488 4 56   
: 492 2 59 mí
: 494 4 61   
- 503
: 508 8 61 Mí
: 516 3 59 ra
: 520 2 59 te en 
: 522 2 56 mis 
: 524 6 59 o
: 532 2 59 jos 
- 534
: 536 4 59 Y 
: 540 4 56 di
: 544 4 59 me 
: 548 6 61 que 
: 556 4 54 no
: 560 6 52   
- 571
: 576 4 49 Que 
: 580 3 52 ya 
: 584 2 52 no 
: 588 3 52 me 
: 592 3 52 quie
: 596 3 52 res 
: 600 3 54 ne
: 604 3 52 na 
- 607
: 608 3 56 Di
: 612 3 56 me 
: 616 3 56 a
: 620 16 56 diós
: 636 2 57   
: 638 2 56   
: 640 30 54   
- 673
: 676 2 54 Si 
: 678 6 56 es 
: 684 2 54 tan 
: 688 3 54 so
: 692 2 52 lo 
: 696 2 52 a
: 700 19 52 mor 
- 729
: 740 2 54 Si 
: 742 6 56 es 
: 748 2 56 tan 
: 752 4 54 so
: 756 2 56 lo 
: 760 4 56 a
: 764 8 56 mor
: 772 2 54   
: 774 2 52   
: 776 6 54   
: 782 18 56   
- 808
: 816 3 56 Al
: 820 3 59 go 
: 824 3 59 tan 
: 828 3 59 her
: 832 3 59 mo
: 836 3 59 so 
- 839
: 840 3 59 No 
: 844 4 59 pue
: 848 2 61 de 
: 852 3 56 que
: 856 4 54   
: 860 6 56 mar 
- 873
: 880 4 49 Más 
: 884 2 52 que 
: 888 3 52 le
: 892 2 52 ńa al 
: 896 3 52 fue
: 900 3 52 go 
- 903
: 904 2 54 Si es 
: 908 2 52 tan 
: 912 6 56 so
: 920 6 56 lo a
: 928 2 56 mor
: 930 2 54   
: 932 4 52   
: 936 2 56   
: 938 2 54   
: 940 20 52   
- 970
: 1072 3 56 Di 
: 1080 3 56 por
: 1084 3 52   
: 1088 3 56 qué 
: 1092 2 56 me 
- 1094
: 1096 3 54 Due
: 1100 3 56 le 
: 1104 3 54 tan
: 1108 6 52 to 
: 1116 8 52 que 
- 1130
: 1136 3 56 Ya 
: 1140 2 59 no 
: 1144 3 59 ten
: 1148 3 59 go 
: 1152 3 59 fuer
: 1156 2 59 zas 
- 1158
: 1160 3 59 Pa
: 1164 3 59 ra 
: 1168 4 61 res
: 1172 7 59 pi
: 1180 2 59 rar
: 1182 2 57   
: 1184 4 56   
- 1192
: 1196 8 61 O 
: 1204 3 59 por
: 1208 2 59 qué 
: 1210 2 56 tus 
: 1212 4 59 u
: 1220 2 59 ńas 
- 1222
: 1224 4 59 Me a
: 1228 4 56 ra
: 1232 4 59 ńan 
: 1236 6 61 la 
: 1244 2 54 piel
: 1246 6 52   
- 1258
: 1264 4 49 Si 
: 1268 3 52 ya 
: 1272 2 52 no 
: 1276 3 52 me 
: 1280 3 52 quie
: 1284 3 52 res 
- 1287
: 1288 3 54 Dé
: 1292 3 52 ja
: 1296 3 56 me 
: 1300 5 56 mar
: 1308 16 56 char
: 1324 2 54   
: 1326 2 52   
: 1328 30 54   
- 1361
: 1364 2 54 Si 
: 1366 6 56 es 
: 1372 2 54 tan 
: 1376 3 54 so
: 1380 2 52 lo 
: 1384 2 52 a
: 1388 19 52 mor 
- 1417
: 1428 2 54 Si 
: 1430 6 56 es 
: 1436 2 56 tan 
: 1440 4 54 so
: 1444 2 56 lo 
: 1448 4 56 a
: 1452 8 56 mor
: 1460 2 54   
: 1462 2 52   
: 1464 6 54   
: 1470 18 56   
- 1496
: 1504 3 56 Al
: 1508 3 59 go 
: 1512 3 59 tan 
: 1516 3 59 her
: 1520 3 59 mo
: 1524 3 59 so 
- 1527
: 1528 3 59 No 
: 1532 4 59 pue
: 1536 2 61 de 
: 1540 3 56 que
: 1544 4 54   
: 1548 6 56 mar 
- 1559
: 1564 6 61 Más 
: 1572 2 59 que 
: 1576 3 59 le
: 1580 3 56 ńa al 
: 1584 3 59 fue
: 1588 2 59 go 
- 1590
: 1592 3 61 Si es 
: 1596 2 59 tan 
: 1600 3 64 so
: 1604 3 64 lo a
: 1608 2 61 mor
: 1610 3 59   
- 1616
: 1620 2 54 Si 
: 1622 6 56 es 
: 1628 2 54 tan 
: 1632 3 54 so
: 1636 2 52 lo 
: 1640 2 52 a
: 1644 4 54 mor
: 1648 17 52   
- 1674
: 1684 2 54 Si 
: 1686 6 56 es 
: 1692 2 56 tan 
: 1696 4 54 so
: 1700 2 56 lo 
: 1704 4 56 a
: 1708 8 56 mor
: 1716 2 54   
: 1718 2 52   
: 1720 6 54   
: 1726 18 56   
- 1752
: 1760 3 56 Al
: 1764 3 59 go 
: 1768 3 59 tan 
: 1772 3 59 her
: 1776 3 59 mo
: 1780 3 59 so 
- 1783
: 1784 3 59 No 
: 1788 4 59 pue
: 1792 2 61 de 
: 1796 3 56 que
: 1800 4 54   
: 1804 6 56 mar 
- 1815
: 1820 8 61 Más 
: 1828 2 59 que 
: 1832 4 59 le
: 1836 4 56 ńa al 
: 1840 3 59 fue
: 1844 2 59 go 
- 1846
: 1848 4 61 Si es 
: 1852 4 59 tan 
: 1856 6 64 so
: 1864 7 64 lo a
: 1872 2 61 mor
: 1874 14 59   
: 1888 24 61   
- 1922
: 2144 3 54 Cuán
: 2148 2 56 tas 
: 2152 3 56 car
: 2156 2 56 re
: 2160 3 56 te
: 2164 2 56 ras 
- 2166
: 2168 3 54 Yo 
: 2172 3 56 que
: 2176 3 54 mé 
: 2180 4 52 por
: 2184 4 49   
: 2188 2 52 ti
: 2190 5 54   
- 2199
: 2204 8 64 Cuán
: 2212 2 63 tas 
: 2216 2 61 car
: 2218 2 59 re
: 2221 6 61 te
: 2228 2 59 ras 
- 2230
: 2232 2 59 Yo 
: 2236 2 56 que
: 2240 2 59 mé 
: 2244 4 59 por
: 2248 4 56   
: 2252 2 59 mí
: 2254 4 61   
- 2263
: 2268 8 61 Mí
: 2276 3 59 ra
: 2280 2 59 te en 
: 2282 2 56 mis 
: 2284 6 59 o
: 2292 2 59 jos 
- 2294
: 2296 4 59 Y 
: 2300 4 56 di
: 2304 4 59 me 
: 2308 6 61 que 
: 2316 4 54 no
: 2320 8 52   
- 2332
: 2336 4 49 Que 
: 2340 3 52 ya 
: 2344 2 52 no 
: 2348 3 52 me 
: 2352 3 52 quie
: 2356 3 52 res 
: 2360 3 54 ne
: 2364 3 52 na 
- 2367
: 2368 3 56 Di
: 2372 3 56 me 
: 2376 3 56 a
: 2380 16 56 diós
: 2396 2 54   
: 2398 2 52   
: 2400 27 54   
- 2437
: 2452 2 56 Si 
: 2454 6 58 es 
: 2460 2 56 tan 
: 2464 3 56 so
: 2468 2 54 lo 
: 2472 2 54 a
: 2476 19 54 mor 
- 2505
: 2516 2 56 Si 
: 2518 6 58 es 
: 2524 2 58 tan 
: 2528 4 56 so
: 2532 2 58 lo 
: 2536 4 58 a
: 2540 8 58 mor
: 2548 2 56   
: 2550 2 54   
: 2552 6 56   
: 2558 19 58   
- 2584
: 2592 3 58 Al
: 2596 3 61 go 
: 2600 3 61 tan 
: 2604 3 61 her
: 2608 3 61 mo
: 2612 3 61 so 
- 2615
: 2616 3 61 No 
: 2620 4 61 pue
: 2624 2 63 de 
: 2628 3 58 que
: 2632 4 56   
: 2636 6 58 mar 
- 2647
: 2652 6 63 Más 
: 2660 2 61 que 
: 2664 3 61 le
: 2668 3 58 ńa al 
: 2672 3 61 fue
: 2676 2 61 go 
- 2678
: 2680 3 63 Si es 
: 2684 2 61 tan 
: 2688 3 66 so
: 2692 3 66 lo a
: 2696 2 63 mor
: 2698 3 61   
- 2704
: 2708 2 56 Si 
: 2710 6 58 es 
: 2716 2 56 tan 
: 2720 3 56 so
: 2724 2 54 lo 
: 2728 2 54 a
: 2732 4 56 mor
: 2736 17 54   
- 2762
: 2772 2 56 Si 
: 2774 6 58 es 
: 2780 2 58 tan 
: 2784 4 56 so
: 2788 2 58 lo 
: 2792 4 58 a
: 2796 8 58 mor
: 2804 2 56   
: 2806 2 54   
: 2808 6 56   
: 2814 18 58   
- 2840
: 2848 3 58 Al
: 2852 3 61 go 
: 2856 3 61 tan 
: 2860 3 61 her
: 2864 3 61 mo
: 2868 3 61 so 
- 2871
: 2872 3 61 No 
: 2876 4 61 pue
: 2880 2 63 de 
: 2884 3 58 que
: 2888 4 56   
: 2892 6 58 mar 
- 2903
: 2908 8 63 Más 
: 2916 2 61 que 
: 2920 4 61 le
: 2924 4 58 ńa al 
: 2928 3 61 fue
: 2932 2 61 go 
- 2934
: 2936 4 63 Si es 
: 2940 4 61 tan 
: 2944 6 66 so
: 2952 7 66 lo a
: 2960 2 63 mor
: 2962 30 61   
- 3002
: 3104 3 58 Al
: 3108 3 61 go 
: 3112 3 61 tan 
: 3116 3 61 her
: 3120 3 61 mo
: 3124 3 61 so 
- 3127
: 3128 3 61 No 
: 3132 4 61 pue
: 3136 2 63 de 
: 3140 3 58 que
: 3144 4 56   
: 3148 6 58 mar 
- 3159
: 3164 8 63 Más 
: 3172 2 61 que 
: 3176 4 61 le
: 3180 4 58 ńa al 
: 3184 3 61 fue
: 3188 2 61 go 
- 3190
: 3192 4 63 Si es 
: 3196 4 61 tan 
: 3200 6 66 so
: 3208 7 66 lo a
: 3216 2 63 mor
: 3218 42 61   
: 3260 4 59   
: 3264 9 58   
E