#TITLE:Satellite
#ARTIST:Rise Against
#LANGUAGE:English
#MP3:Rise Against - Satellite.mp3
#COVER:index.jpg
#VIDEO:Rise Against - Satellite.mp4
#BPM:272
#GAP:7720
: 0 2 0 You
: 5 5 5  can't
: 13 3 5  feel
: 17 2 3 ~
: 21 2 3  the
: 25 5 5  heat
- 32
: 34 2 3 Un
: 38 2 5 til
: 42 2 5  you
: 46 5 5  hold
: 54 2 3  your
: 58 7 5  hand
- 67
: 71 4 5 O
: 79 3 5 ver
: 83 2 3 ~
: 87 2 3  the
: 91 3 3  flame
: 95 4 5 ~
- 101
: 133 2 0 You
: 137 2 5  have
: 141 2 5  to
: 145 4 5  cross
: 153 2 3  the
: 157 6 5  line
- 165
: 170 4 5 Just
: 178 3 5  to
: 182 2 3 ~
: 187 2 3  re
: 191 4 5 mem
: 199 3 3 ber
- 204
: 207 5 5 Where
: 215 4 3  it
: 223 7 5  lays
- 232
: 265 2 3 You
* 269 4 8  won't
: 277 3 8  know
: 281 2 7  what
: 285 2 7  you're
: 289 5 8  worth
: 297 4 7  now,
: 305 6 5  son
- 313
: 317 2 7 Un
: 321 5 8 til
: 330 5 7  you
: 339 5 8  take
: 347 6 7  a
: 354 3 5 ~
: 359 4 5  hit
- 365
: 389 2 0 And
: 393 4 5  you
: 401 4 5  won't
: 409 3 5  find
: 413 2 3 ~
: 417 2 3  the
: 421 5 5  beat
- 428
: 434 2 3 Un
: 438 5 5 til
: 446 5 3  you
: 454 6 5  lose
: 462 5 5  your
: 470 5 5 self
: 478 6 3  in
: 486 3 3  it
: 490 16 5 ~
- 508
: 512 2 8 That's
: 516 2 8  why
: 520 2 5  we
: 524 5 7  won't
: 532 6 7  back
: 540 3 7  down
: 544 2 5 ~
- 547
: 548 2 7 We
: 552 2 5  won't
: 556 3 7  run
: 560 2 8  and
: 564 5 8  hide
- 571
: 580 2 7 Yeah,
: 584 2 5  'cause
: 588 6 7  these
: 596 2 7  are
: 600 2 5  the
: 604 5 7  things
- 610
: 612 2 7 That
: 616 2 5  we
: 620 2 7  can't
: 624 2 8  de
: 628 4 5 ny
- 634
: 640 2 7 I'm
: 644 2 7  pas
: 648 2 5 sing
* 652 5 7  o
: 660 3 7 ver
: 664 2 5 ~
: 668 5 7  you
- 674
: 676 2 7 Like
: 680 2 5  a
: 684 2 7  sa
: 688 2 8 te
: 692 3 8 llite
: 696 2 5 ~
- 700
: 708 2 5 So
: 712 4 10  catch
: 720 5 8  me
: 728 4 8  if
: 736 4 7  I
* 744 18 5  fall
- 764
: 768 2 7 That's
: 772 2 7  why
: 776 2 5  we
: 780 4 7  stick
: 788 2 7  to
: 792 2 5  your
: 796 4 7  game
- 802
: 804 2 7 Plans
: 808 2 5  and
: 812 2 7  par
: 816 2 8 ty
: 820 5 8  lines
- 827
: 836 2 7 But
: 840 2 5  at
: 844 4 7  night
- 850
: 852 2 7 We're
: 856 2 5  cons
: 860 2 7 pi
: 864 2 5 ~
: 868 2 7 ring
: 872 2 5  by
: 876 2 7  can
: 880 2 8 dle
: 884 4 5 light
- 890
: 896 2 7 We
: 900 2 7  are
: 904 2 5  the
: 908 5 7  or
: 916 5 7 phans
: 924 4 7  of
- 930
: 932 2 7 The
: 936 2 5  A
: 940 2 7 me
: 944 2 7 ri
: 948 2 5 can
: 952 4 8  Dream
- 958
: 960 4 5 So
* 968 5 10  shine
: 976 5 8  your
: 984 5 8  light
: 992 4 7  on
: 1000 19 5  me
- 1021
: 1168 2 3 You
: 1172 4 5  can't
: 1180 2 5  fill
: 1184 5 3  your
: 1192 4 5  cup
- 1198
: 1204 2 3 Un
: 1208 5 5 til
: 1216 4 3  you
: 1224 4 5  emp
: 1232 4 5 ty
: 1240 5 5  all
: 1248 5 3  it
: 1256 5 5  has
- 1263
: 1296 2 3 You
: 1300 5 5  can't
: 1308 2 5  un
: 1312 4 3 ders
: 1320 5 5 tand
- 1327
: 1332 4 5 What
: 1340 3 5  lays
: 1344 2 3 ~
: 1348 2 3  a
: 1352 6 5 head
- 1360
: 1368 2 0 If
: 1372 2 5  you
: 1376 6 7  don't
* 1384 5 8  un
: 1392 5 7 ders
: 1400 3 5 tand
: 1404 2 3 ~
: 1408 5 3  the
: 1416 4 5  past
- 1422
: 1424 2 8 You'll
: 1428 2 8  ne
: 1432 2 7 ver
: 1436 3 8  learn
: 1440 2 7 ~
: 1444 2 7  to
: 1448 5 8  fly
: 1456 6 7  now
- 1463
: 1464 5 5 Till
: 1472 5 3  you're
: 1480 5 8  stan
: 1488 5 7 ding
: 1496 4 8  at
: 1504 7 7  the
: 1512 2 5 ~
: 1516 4 5  cliff
- 1522
: 1544 2 0 And
: 1548 5 5  you
: 1556 5 5  can't
: 1564 2 5  tru
: 1568 4 3 ly
: 1576 5 5  love
- 1583
: 1588 2 5 Un
: 1592 4 5 til
: 1600 4 3  you've
: 1608 4 5  gi
: 1616 4 5 ven
: 1624 5 5  up
: 1632 5 3  on
: 1640 3 3  it
* 1644 16 5 ~
- 1662
: 1664 2 8 That's
: 1668 2 8  why
: 1672 2 5  we
: 1676 5 7  won't
: 1684 6 7  back
: 1692 3 7  down
: 1696 2 5 ~
- 1699
: 1700 2 7 We
: 1704 2 5  won't
: 1708 3 7  run
: 1712 2 8  and
: 1716 5 8  hide
- 1723
: 1732 2 7 Yeah,
: 1736 2 5  'cause
: 1740 6 7  these
: 1748 2 7  are
: 1752 2 5  the
: 1756 5 7  things
- 1762
: 1764 2 7 That
: 1768 2 5  we
: 1772 2 7  can't
: 1776 2 8  de
: 1780 4 5 ny
- 1786
: 1792 2 7 I'm
: 1796 2 7  pas
: 1800 2 5 sing
: 1804 5 7  o
: 1812 3 7 ver
: 1816 2 5 ~
: 1820 5 7  you
- 1826
: 1828 2 7 Like
: 1832 2 5  a
: 1836 2 7  sa
: 1840 2 8 te
: 1844 3 8 llite
: 1848 2 5 ~
- 1852
: 1860 2 5 So
: 1864 4 10  catch
: 1872 5 8  me
: 1880 4 8  if
: 1888 4 7  I
: 1896 18 5  fall
- 1916
: 1920 2 7 That's
: 1924 2 7  why
: 1928 2 5  we
: 1932 4 7  stick
: 1940 2 7  to
: 1944 2 5  your
: 1948 4 7  game
- 1954
: 1956 2 7 Plans
: 1960 2 5  and
: 1964 2 7  par
: 1968 2 8 ty
: 1972 5 8  lines
- 1979
: 1988 2 7 But
: 1992 2 5  at
: 1996 4 7  night
- 2002
: 2004 2 7 We're
: 2008 2 5  cons
: 2012 2 7 pi
: 2016 2 5 ~
: 2020 2 7 ring
: 2024 2 5  by
: 2028 2 7  can
: 2032 2 8 dle
: 2036 4 5 light
- 2042
: 2048 2 7 We
: 2052 2 7  are
: 2056 2 5  the
: 2060 5 7  or
: 2068 5 7 phans
: 2076 4 7  of
- 2082
: 2084 2 7 The
: 2088 2 5  A
: 2092 2 7 me
: 2096 2 7 ri
: 2100 2 5 can
: 2104 3 8  Dream
: 2108 2 5 ~
- 2111
: 2112 4 5 So
: 2120 5 10  shine
: 2128 5 8  your
: 2136 5 8  light
: 2144 4 7  on
* 2152 19 5  me
- 2173
: 2211 2 5 She
: 2215 5 5  told
: 2223 5 7  me
: 2231 5 8  that
: 2239 5 7  she
: 2247 5 8  ne
: 2255 6 7 ver
- 2263
: 2275 2 5 Could
: 2279 3 8  face
: 2283 4 7 ~
: 2290 2 5  the
: 2294 3 8  world
: 2298 5 7 ~
: 2306 2 5  a
: 2310 5 5 gain
: 2316 3 3 ~
- 2321
: 2334 2 5 So
: 2338 2 5  I
: 2342 4 5  of
: 2350 5 7 fered
: 2357 5 8  up
: 2365 5 7  a
* 2373 31 3  plan
: 2405 3 0 ~
- 2410
: 2445 2 0 We'll
: 2451 4 8  sneak
: 2457 4 5  out
: 2467 3 5  while
: 2473 4 8  they
: 2480 4 5  sleep
- 2486
: 2490 2 0 And
: 2496 4 8  sail
: 2502 5 7  off
: 2512 3 5  in
: 2517 3 3  the
: 2523 6 5  night
- 2531
: 2534 2 3 We'll
: 2539 3 8  come
: 2545 5 5  clean
: 2556 2 0  and
: 2562 3 8  start
: 2568 5 7  o
: 2578 3 3 ver
- 2583
: 2590 2 0 The
: 2594 3 7  rest
: 2600 3 8  of
: 2606 3 7  our
* 2611 5 8  lives
- 2618
: 2622 3 5 When
: 2627 3 12  we're
: 2633 4 8  gone
: 2643 2 7  we'll
: 2649 3 12  stay
: 2655 6 10  gone
- 2663
: 2666 3 10 Out
: 2671 2 8  of
: 2677 5 10  sight,
: 2688 3 10  out
: 2694 2 8  of
: 2699 5 12  mind
- 2706
: 2710 4 8 It's
: 2721 6 8  not
: 2732 7 7  too
: 2743 4 8  late
- 2749
: 2754 3 3 We
: 2759 3 3  have
: 2765 3 0  the
: 2770 3 7  rest
: 2775 3 8  of
: 2780 3 7  our
: 2786 6 5  lives
- 2794
: 2797 2 5 We'll
: 2802 3 8  sneak
: 2808 4 5  out
: 2819 3 5  while
: 2824 3 8  they
: 2830 4 5  sleep
- 2836
: 2840 2 3 And
: 2845 3 8  sail
: 2851 5 7  off
: 2861 3 5  in
: 2866 2 3  the
: 2871 4 5  night
- 2877
: 2882 2 5 We'll
: 2887 3 8  come
: 2892 5 5  clean
: 2903 2 5  and
: 2908 3 8  start
: 2913 4 7  o
: 2918 4 3 ~
: 2924 4 3 ver
- 2930
: 2935 2 0 The
: 2940 3 7  rest
: 2945 3 8  of
: 2950 3 7  our
: 2956 5 8  lives
- 2963
: 2966 2 5 When
: 2971 3 8  we're
: 2976 5 5  gone
: 2987 2 5  we'll
: 2993 3 8  stay
: 2998 5 7  gone
- 3005
: 3009 3 7 Out
: 3014 3 7  of
* 3019 4 8  sight
: 3024 3 7 ~,
: 3030 3 7  out
: 3035 3 5  of
: 3040 5 5  mind
- 3047
: 3051 4 8 It's
: 3061 5 8  not
: 3072 6 7  too
: 3083 4 8  late
- 3089
: 3093 2 3 We
: 3098 3 3  have
: 3104 3 0  the
: 3109 2 7  rest
: 3114 3 8  of
: 3119 3 7  our
: 3124 40 8  lives
: 3166 8 7 ~
- 3176
: 3188 2 0 The
: 3193 3 7  rest
: 3198 3 8  of
: 3203 3 7  our
* 3208 41 8  lives
: 3251 6 7 ~
- 3259
: 3282 2 8 Be
: 3286 2 8 cause
: 3290 2 5  we
: 3294 5 7  won't
: 3303 6 7  back
: 3311 3 7  down
: 3315 2 5 ~
- 3318
: 3320 2 7 We
: 3324 2 5  won't
: 3328 3 7  run
: 3332 2 8  and
: 3336 5 8  hide
- 3343
: 3353 2 7 Yeah,
: 3357 2 5  'cause
* 3361 6 7  these
: 3370 2 7  are
: 3374 2 5  the
: 3378 5 7  things
- 3384
: 3386 2 7 That
: 3390 2 5  we
: 3394 2 7  can't
: 3399 2 8  de
: 3403 4 5 ny
- 3409
: 3416 2 7 I'm
: 3420 2 7  pas
: 3424 2 5 sing
: 3428 5 7  o
: 3436 3 7 ver
: 3440 2 5 ~
: 3444 5 7  you
- 3450
: 3452 2 7 Like
: 3456 2 5  a
: 3460 2 7  sa
: 3464 2 8 te
: 3468 3 8 llite
: 3472 2 5 ~
- 3476
: 3484 2 5 So
: 3488 4 10  catch
: 3496 5 8  me
: 3504 4 8  if
: 3512 4 7  I
: 3520 18 5  fall
- 3540
: 3544 2 7 That's
: 3548 2 7  why
: 3552 2 5  we
: 3556 4 7  stick
: 3563 2 7  to
: 3567 2 5  your
: 3571 4 7  game
- 3577
: 3579 2 7 Plans
: 3583 2 5  and
: 3587 2 7  par
: 3591 2 8 ty
: 3595 5 8  lines
- 3602
: 3612 2 7 But
: 3616 2 5  at
: 3620 4 7  night
- 3625
: 3627 2 7 We're
: 3631 2 5  cons
: 3635 2 7 pi
: 3639 2 5 ~
: 3643 2 7 ring
: 3647 2 5  by
: 3651 2 7  can
: 3655 2 8 dle
* 3659 4 5 light
- 3665
: 3671 2 7 We
: 3675 2 7  are
: 3679 2 5  the
: 3683 5 7  or
: 3691 5 7 phans
: 3699 4 7  of
- 3705
: 3707 2 7 The
: 3711 2 5  A
: 3715 2 7 me
: 3719 2 7 ri
: 3723 2 5 can
: 3727 4 8  Dream
- 3733
: 3735 4 5 So
: 3743 5 10  shine
: 3751 5 8  your
: 3759 5 8  light
: 3767 4 7  on
* 3775 19 5  me
- 3796
: 3804 2 7 No,
: 3808 2 5  we
: 3812 4 7  won't
: 3820 4 7  back
: 3828 3 7  down
: 3832 2 5 ~
- 3835
: 3836 2 7 We
: 3840 2 5  won't
: 3844 2 7  run
: 3848 2 8  and
: 3852 5 8  hide
- 3859
: 3868 2 7 Yeah,
: 3872 2 5  'cause
: 3876 5 7  these
: 3884 2 7  are
: 3888 2 5  the
: 3892 4 7  things
- 3898
: 3900 2 7 That
: 3904 2 5  we
: 3908 2 7  can't
: 3912 2 8  de
* 3916 4 5 ny
- 3922
: 3928 2 7 I'm
: 3932 2 7  pas
: 3936 2 5 sing
: 3940 6 7  o
: 3948 3 7 ver
: 3952 2 5 ~
: 3956 4 7  you
- 3962
: 3964 2 7 Like
: 3968 2 5  a
: 3972 2 7  sa
: 3976 2 8 te
: 3980 3 8 llite
: 3984 3 5 ~
- 3989
: 3996 2 5 'Cause
: 4000 7 10  these
: 4008 2 8 ~
: 4012 2 8  are
: 4016 2 7  the
: 4020 4 7  things
- 4026
: 4028 2 7 That
: 4032 2 5  we
: 4036 5 7  can't
: 4044 2 5  de
: 4048 5 8 ny
: 4056 4 7  now
- 4062
: 4068 4 7 This
: 4076 2 7  is
: 4080 2 5  a
* 4084 5 7  life
- 4090
: 4092 2 7 That
: 4096 2 5  you
: 4100 4 7  can't
: 4108 2 5  de
: 4112 4 8 ny
: 4120 6 7  us
: 4132 6 5  now
E
