#TITLE:Eternity
#ARTIST:Robbie Williams
#EDITION:[SC]-Songs
#MP3:Robbie Williams - Eternity.mp3
#COVER:Robbie Williams - Eternity [CO].jpg
#BACKGROUND:Robbie Williams - Eternity [BG].jpg
#BPM:212,06
#GAP:14050
: 0 6 2 Close
: 7 3 5  your
: 11 6 5  eyes
: 18 4 2  so
: 24 3 5  you
: 27 6 5  don´t
: 35 7 9  feel
: 45 11 7  them
- 58 68
: 88 3 7 They
: 92 3 10  don´t
: 96 7 10  need
: 104 2 7  to
: 108 6 10  see
: 117 6 7  you
: 126 12 0  cry
- 140 154
: 174 3 2 I
: 178 3 5  can´t
: 182 6 5  pro
: 188 4 2 mise
: 200 4 5  I
: 205 3 2  will
: 212 5 9  heal
: 219 11 10  you
- 232 233
: 259 3 7 But
: 263 2 7  if
: 266 2 10  you
: 269 8 10  want
: 279 3 7  to
: 284 4 10  I
: 288 4 14  will
: 294 30 14  try
- 326 327
: 338 5 14 Sing
: 344 3 12  this
: 349 4 12  sum
: 353 2 11 mer
: 357 7 11  se
: 364 4 12 re
: 368 7 12 nade
- 376
: 378 3 7 The
: 382 6 14  past
: 389 3 12  is
: 393 4 12  done
: 398 3 10  we´ve
: 402 4 10  been
: 406 3 7  be
: 409 8 10 trayed
- 419 420
: 432 6 9 It´s
: 441 7 7  true
- 450 491
: 511 6 14 Some
: 518 3 12 one
: 522 5 12  said
: 528 2 11  the
: 531 7 11  truth
: 539 3 12  will
: 543 7 12  out
- 552
: 556 4 14  I
: 561 3 12  be
: 564 8 12 lieve
: 572 3 10  with
: 575 5 10 out
: 580 2 7  a
: 583 12 10  doubt
: 606 6 7  in
: 613 11 5  you
- 626 655
: 675 4 14 You
: 680 5 17  were
: 686 8 17  there
: 697 8 14  for
: 707 7 12  sum
: 714 7 10 mer
: 725 11 12  dream
: 736 16 14 ing
- 754 755
: 763 5 14 And
: 769 4 17  you
: 774 9 17  gave
: 784 8 14  me
: 794 5 12  what
: 800 8 10  I
: 811 19 7  need
- 832 833
: 849 3 14 And
: 853 6 17  I
: 860 10 17  hope
: 871 9 14  you
: 881 6 12  find
: 888 7 10  your
: 897 13 12  free
: 910 3 9 do
: 913 2 7 ~
: 915 7 5 m
- 924
: 930 3 5 For
: 934 3 5  e
: 937 4 7 ter
: 941 4 10 nit
: 945 7 10 y
: 952 28 12 ~
- 982 997
: 1017 4 5 For
: 1021 3 5  e
: 1024 4 14 ter
: 1028 3 12 ~
: 1031 4 10 ni
: 1035 9 10 ty
- 1046 1199
: 1219 6 2 Yes
: 1225 3 5 ter
: 1228 4 5 day
: 1235 5 2  when
: 1241 3 5  we
: 1245 5 5  were
: 1251 11 9  walk
: 1262 12 7 ing
- 1276 1277
: 1304 2 7 You
: 1307 4 7  talked
: 1312 2 10  a
: 1314 7 10 bout
: 1322 3 7  your
: 1326 8 10  ma
: 1344 4 0  and
: 1350 12 0  dad
- 1364 1365
: 1392 3 2 What
: 1396 3 5  they
: 1399 6 5  did
: 1409 3 2  that
: 1413 6 5  made
: 1420 4 5  you
: 1426 10 9  hap
: 1436 12 10 py
- 1450 1460
: 1480 4 7 What
: 1484 3 10  they
: 1488 4 10  did
: 1494 3 7  that
: 1498 6 10  made
: 1505 7 14  you
: 1516 22 14  sad
- 1540 1541
: 1553 2 7 We
: 1556 5 14  sat
: 1562 3 12  and
: 1567 5 12  watched
: 1572 2 11  the
: 1575 5 11  sun
: 1582 3 12  go
: 1586 8 12  down
- 1596
: 1599 6 14 Picked
: 1605 2 12  a
: 1608 8 12  star
: 1617 3 10  be
: 1620 4 10 fore
: 1625 2 7  we
: 1628 10 10  lost
- 1640
: 1648 5 9 The
: 1655 11 7  moon
- 1668 1710
: 1730 4 14 Youth
: 1736 4 12  is
: 1741 5 12  wast
: 1746 2 11 ed
: 1750 6 11  on
: 1757 2 12  the
: 1760 7 12  young
- 1768
: 1770 3 7 Be
: 1773 4 14 fore
: 1778 3 12  you
: 1782 5 12  know
: 1789 4 10  it´s
: 1795 3 10  come
: 1798 3 7  and
: 1802 8 10  gone
- 1812 1813
: 1824 6 7 Too
: 1832 13 5  soon
- 1847 1872
: 1892 5 14 you
: 1898 4 17  were
: 1904 9 17  there
: 1915 6 14  for
: 1925 6 12  sum
: 1931 7 10 mer
: 1942 11 12  dream
: 1953 15 14 ing
- 1970 1971
: 1980 4 14 And
: 1985 4 17  you
: 1991 10 17  gave
: 2002 8 14  me
: 2012 6 12  what
: 2018 9 10  I
: 2030 20 7  need
- 2052 2053
: 2067 3 14 And
: 2070 7 17  I
: 2078 10 17  hope
: 2089 7 14  you´ll
: 2099 6 12  find
: 2106 8 10  your
: 2117 10 12  free
: 2127 2 9 do
: 2129 3 7 ~
: 2132 8 5 m
- 2142
: 2147 3 5 For
: 2151 3 5  e
: 2154 5 7 ter
: 2159 11 10 nity
: 2170 23 12 ~
- 2195 2215
: 2235 3 5 For
: 2239 3 5  e
: 2242 3 14 ter
: 2245 9 12 ~
: 2254 3 10 ni
: 2257 15 10 ty
- 2274 2388
: 2408 3 5 For
: 2411 5 5  e
: 2416 4 13 ter
: 2420 12 12 ~
: 2432 10 13 ni
: 2442 16 10 ty
- 2460 2578
: 2598 6 14 Sing
: 2605 4 12  this
: 2610 5 12  sum
: 2615 2 11 mer
: 2619 6 11  se
: 2625 4 12 re
: 2629 11 12 nade
- 2640
: 2640 3 7 The
: 2644 5 14  past
: 2650 3 12  is
: 2654 6 12  done
: 2660 2 10  we´ve
: 2663 3 10  been
: 2667 3 7  be
: 2670 13 10 trayed
- 2685 2686
: 2695 9 9 It´s
: 2706 13 10  true
- 2721 2755
: 2775 4 14 Youth
: 2780 4 12  is
: 2786 5 12  wast
: 2791 2 11 ed
: 2794 6 11  on
: 2801 2 12  the
: 2804 8 12  young
- 2813
: 2814 3 7 Be
: 2817 4 14 fore
: 2822 2 12  you
: 2825 7 12  know
: 2834 4 10  it´s
: 2839 3 10  come
: 2842 3 7  and
: 2845 10 10  gone
- 2857 2858
: 2869 6 7 Too
: 2877 15 5  soon
- 2894 2917
: 2937 5 14 you
: 2943 4 17  were
: 2948 7 17  there
: 2959 7 14  for
: 2969 6 12  sum
: 2975 6 10 mer
: 2986 11 12  dream
: 2997 16 14 ing
- 3015 3016
: 3025 4 14 And
: 3030 5 17  you
: 3036 10 17  are
: 3046 7 14  a
: 3056 7 12  friend
: 3063 10 10  in
: 3073 7 12 de
: 3080 3 10 ~
: 3083 8 7 ed
- 3093 3094
: 3110 4 14 And
: 3114 6 17  I
: 3121 11 17  hope
: 3133 8 14  you
: 3143 6 12  find
: 3150 7 10  your
: 3159 11 12  free
: 3170 3 9 do
: 3173 3 7 ~
: 3176 9 5 m
- 3187
: 3191 3 5 For
: 3195 3 5  e
: 3198 5 7 ter
: 3203 3 10 ni
: 3206 7 10 ty
: 3213 12 12 ~
- 3227 3266
: 3286 4 14 you
: 3291 4 17  were
: 3296 8 19  there
: 3307 7 17  for
: 3317 6 14  sum
: 3323 6 12 mer
: 3334 11 10  dream
: 3345 14 12 ing
- 3361 3362
: 3373 4 14 And
: 3378 4 17  you
: 3383 11 19  are
: 3394 9 17  a
: 3404 6 14  friend
: 3410 9 12  in
: 3420 9 12 de
: 3429 3 10 ~
: 3432 10 7 ed
- 3444 3445
: 3458 4 14 And
: 3463 4 17  I
: 3470 10 17  know
: 3481 9 14  you´ll
: 3491 6 12  find
: 3498 8 10  your
: 3508 11 12  free
: 3519 3 9 do
: 3522 3 7 ~
: 3525 10 5 m
- 3537
: 3543 3 5 e
: 3546 5 7 ven
: 3551 4 10 tua
: 3555 7 10 lly
: 3562 17 12 ~
- 3581 3606
: 3626 4 5 For
: 3631 3 5  e
: 3634 5 14 ter
: 3639 9 12 ~
: 3648 3 10 ni
: 3651 56 10 ty
- 3709 3781
: 3801 3 5 For
: 3804 3 5  e
: 3807 5 14 ter
: 3812 5 12 ~
: 3817 5 12 ni
: 3822 82 10 ty
E
