#TITLE:Dich Zu Lieben
#ARTIST:Roland Kaiser
#MP3:Roland Kaiser - Dich Zu Lieben.mp3
#VIDEO:Roland Kaiser - Dich Zu Lieben [VD#0].avi
#COVER:Roland Kaiser - Dich Zu Lieben [CO].jpg
#BPM:340
#GAP:6176,47
#VIDEOGAP:0
#ENCODING:UTF8
#EDITION:SingStar Sch DE
: 0 3 49 Weil
: 6 4 49  du
: 11 4 48  mich
: 17 4 49  liebst
- 23
: 28 3 49 Ist
: 34 4 48  der
: 40 6 49  Tag
- 48
: 51 3 49 Wie
: 57 3 48 der
: 63 6 49  le
: 74 4 49 bend
: 80 6 51  für
: 91 25 48  mich
- 118
: 185 4 49 Weil
: 191 4 49  du
: 197 4 48  mich
: 203 5 49  brauchst
- 210
: 214 4 49 Ist
: 220 4 48  die
: 226 5 49  Nacht
- 233
: 237 4 49 Wie
: 243 3 48 der
: 249 6 49  le
: 261 4 49 bend
: 266 7 51  für
* 278 30 48  mich
- 310
: 372 4 53 Was
: 378 3 53  du
: 383 4 51  mir
: 388 5 53  gibst
- 395
: 400 3 53 Hab
: 406 3 51  ich
: 412 9 53  nie
: 423 4 53 mals
- 428
: 429 3 51 Zu
: 435 8 53  träu
: 446 3 53 men
: 452 6 54  ge
: 464 28 51 wagt
- 494
: 557 3 49 Du
: 563 3 49  hast
: 569 4 48  in
: 575 4 49  mir
- 581
: 586 3 49 Ein
: 592 3 48  er
: 598 4 49 lo
: 608 4 49 sche
: 614 3 48 nes
- 619
: 621 7 49 Feu
: 632 4 49 er
: 638 6 51  ent
* 649 27 48 facht
- 678
: 719 5 53 Dich
: 731 4 55  zu
: 736 8 62  lie
: 747 5 62 ben
- 754
: 765 4 53 Dich
: 776 4 55  be
: 782 9 62 rüh
: 793 5 62 ren
- 800
: 812 5 53 Mein
: 823 3 55  Ver
* 829 7 63 lan
: 840 4 63 gen
- 846
: 859 5 53 Dich
: 869 4 55  zu
: 875 6 63  spü
: 887 5 63 ren
- 894
: 904 5 53 Dei
: 916 4 55 ne
: 923 6 63  Wär
: 933 5 63 me
- 940
: 951 7 53 Dei
: 962 5 55 ne
: 969 7 63  Nä
: 980 5 63 he
- 987
: 997 7 53 Weckt
: 1009 4 55  die
: 1015 7 62  Sehn
: 1027 4 60 sucht
: 1033 4 58  in
: 1039 7 62  mir
- 1048
: 1050 4 60 Auf
: 1056 3 58  ein
: 1062 8 62  Le
: 1073 3 60 ben
: 1079 3 58  mit
: 1085 8 60  dir
- 1095
: 1120 3 62 Du
: 1126 4 62  bist
: 1132 3 60  die
: 1137 4 60  Frau
- 1142
: 1143 3 58 Die
: 1149 3 58  je
: 1154 3 57 des
: 1160 3 57  Lä
: 1166 3 55 cheln
- 1170
: 1171 4 55 Je
: 1177 3 53 de
: 1183 4 53  Zärt
: 1189 3 53 lich
: 1194 4 50 keit
- 1199
: 1200 4 51 An
: 1207 5 51  mich
: 1219 4 53  ver
* 1225 13 48 schenkt
- 1240
: 1306 3 63 Du
: 1312 3 63  bist
: 1318 4 62  die
: 1324 4 62  Frau
- 1329
: 1330 3 60 Die
: 1335 4 60  al
: 1339 3 58 les
: 1343 4 58  gibt
- 1349
: 1370 3 57 Was
: 1376 3 57  man
: 1382 5 58  Lie
: 1390 4 60 be
: 1394 4 58 ~
: 1400 19 58 nennt
- 1421
: 1468 6 53 Mmm
: 1474 6 50 ~
: 1480 41 48 ~
- 1523
: 1580 3 49 Du
: 1586 4 49  liegst
: 1591 4 48  bei
: 1597 4 49  mir
- 1603
: 1608 3 49 Und
: 1614 4 48  ich
: 1620 6 49  at
: 1632 3 49 me
- 1636
: 1638 3 48 Den
: 1644 6 49  Duft
: 1655 4 49  dei
: 1661 6 51 ner
* 1672 32 48  Haut
- 1706
: 1766 4 49 Und
: 1772 4 49  je
: 1778 4 48 der
: 1784 5 49  Schlag
- 1791
: 1795 4 49 Dei
: 1801 4 48 nes
: 1807 5 49  Her
: 1818 4 49 zens
- 1823
: 1824 3 48 Ist
: 1830 6 49  mir
: 1842 4 49  so
: 1848 7 51  ver
: 1859 30 48 traut
- 1891
: 1954 4 53 Du
: 1960 3 53  lässt
: 1965 4 51  mich
: 1971 9 53  sa
: 1982 3 53 gen
- 1987
: 1989 3 51 Was
: 1994 4 53  ich
- 2000
: 2005 4 53 Je
: 2011 3 51 der
: 2017 8 53  Frau
: 2029 3 53  sonst
: 2035 6 54  ver
: 2047 28 51 schwieg
- 2077
: 2139 3 49 Du
: 2145 3 49  gibst
: 2151 4 48  dem
: 2157 9 49  Him
: 2168 3 49 mel
- 2172
: 2174 3 48 Die
: 2180 8 49  wär
: 2190 4 49 men
: 2196 3 48 de
- 2201
: 2203 7 49 Son
: 2214 4 49 ne
: 2220 6 51  zu
: 2231 27 48 rück
- 2260
: 2302 5 53 Dich
: 2313 4 55  zu
: 2319 8 62  lie
: 2330 5 62 ben
- 2337
: 2348 4 53 Dich
: 2360 4 55  be
: 2365 9 62 rüh
: 2376 5 62 ren
- 2383
: 2395 5 53 Mein
: 2406 3 55  Ver
: 2412 7 63 lan
: 2423 4 63 gen
- 2429
: 2442 5 53 Dich
: 2453 4 55  zu
: 2459 6 63  spü
: 2470 5 63 ren
- 2477
: 2489 9 53 Dei
: 2500 4 55 ne
: 2507 6 63  Wär
: 2517 5 63 me
- 2524
: 2535 7 53 Dei
: 2546 5 55 ne
: 2553 7 63  Nä
: 2564 5 63 he
- 2571
: 2581 7 53 Weckt
: 2593 4 55  die
: 2599 7 62  Sehn
: 2611 4 60 sucht
: 2617 4 58  in
: 2623 7 62  mir
- 2632
: 2634 4 60 Auf
: 2640 3 58  ein
: 2646 8 62  Le
: 2657 3 60 ben
: 2663 3 58  mit
: 2669 8 60  dir
- 2679
: 2705 3 62 Du
: 2711 4 62  bist
: 2717 3 60  die
: 2722 4 60  Frau
- 2727
: 2728 3 58 Die
: 2734 3 58  je
: 2739 3 57 des
: 2745 3 57  Lä
: 2751 3 55 cheln
- 2755
: 2756 4 55 Je
: 2762 3 53 de
: 2768 4 53  Zärt
: 2774 3 53 lich
: 2779 4 50 keit
- 2784
: 2785 4 51 An
: 2792 5 51  mich
: 2804 4 53  ver
: 2810 13 48 schenkt
- 2825
: 2892 3 63 Du
: 2898 3 63  bist
: 2904 4 62  die
: 2910 4 62  Frau
- 2915
: 2916 3 60 Die
: 2921 4 60  al
: 2925 3 58 les
: 2929 4 58  gibt
- 2935
: 2956 3 57 Was
: 2962 3 57  man
: 2968 5 58  Lie
: 2976 4 60 be
: 2980 4 58 ~
* 2986 19 58 nennt
- 3007
: 3055 6 53 Mmm
: 3061 6 50 ~
: 3067 50 53 ~
- 3119
: 3331 5 53 Dich
: 3343 4 55  zu
: 3348 8 62  lie
: 3359 5 62 ben
- 3366
: 3378 4 53 Dich
: 3389 4 55  be
* 3395 9 62 rüh
: 3406 5 62 ren
- 3413
: 3425 5 53 Mein
: 3436 3 55  Ver
: 3442 7 63 lan
: 3453 4 63 gen
- 3459
: 3471 5 53 Dich
: 3482 4 55  zu
: 3488 6 63  spü
* 3500 5 63 ren
- 3507
: 3517 9 53 Dei
: 3529 4 55 ne
: 3536 6 63  Wär
: 3546 5 63 me
- 3553
: 3564 7 53 Dei
: 3576 5 55 ne
* 3582 7 63  Nä
: 3593 5 63 he
- 3600
: 3610 7 53 Weckt
: 3622 4 55  die
: 3628 7 62  Sehn
: 3640 4 60 sucht
: 3646 4 58  in
: 3652 7 62  mir
- 3661
: 3663 4 60 Auf
: 3669 3 58  ein
: 3675 8 62  Le
: 3686 3 60 ben
: 3692 3 58  mit
* 3698 8 60  dir
- 3708
: 3734 3 62 Du
: 3740 4 62  bist
: 3746 3 60  die
: 3751 4 60  Frau
- 3756
: 3757 3 58 Die
: 3763 3 58  je
: 3768 3 57 des
: 3774 3 57  Lä
: 3780 3 55 cheln
- 3784
: 3785 4 55 Je
: 3791 3 53 de
: 3797 4 53  Zärt
: 3803 3 50 lich
: 3808 4 50 keit
- 3813
: 3814 4 51 An
: 3821 5 51  mich
: 3833 4 53  ver
: 3839 13 48 schenkt
E