#TITLE:Life is a Rollercoaster
#ARTIST:Ronan Keating
#MP3:Ronan Keating - Life is a Rollercoaster.mp3
#COVER:Ronan Keating - Life is a Rollercoaster [CO].jpg
#BACKGROUND:Ronan Keating - Life is a Rollercoaster [BG].jpg
#BPM:360
#GAP:16660
#ENCODING:UTF8
: 160 8 55 You've
: 168 4 62  real
: 174 4 64 ly
: 180 4 62  got
: 186 4 60  my
: 192 6 62  tail
: 198 6 64  in
: 204 2 60  a
: 206 26 62  spin
- 234
: 356 4 55 I
: 360 6 62  don't
: 368 6 64  ev
: 374 6 62 en
: 380 4 60  know
: 384 4 62  where
: 390 4 64  to
: 394 28 60  begin
- 424
: 476 4 55 But,
: 480 14 64  Baby,
: 495 4 64  I
: 500 19 64  got
: 520 15 64  one
: 535 9 64  thing
: 544 5 64  I
: 550 10 64  want
: 560 12 64  you
: 573 6 64  to
: 580 4 64  kn
: 584 14 60 ow
- 600
: 668 8 55 Wher
: 676 8 64 ever
: 686 8 64  you
: 694 18 64  go
- 713
: 714 17 64  tell
: 731 5 64  me
: 736 8 64  'cause
: 744 11 64  I'm
: 755 12 64  gon
: 767 5 64 na
: 772 48 60  go
- 822
: 852 4 55 We
: 856 12 64  found
: 868 14 60  Lo
: 882 22 64 ve
- 906
: 946 6 55 So
: 952 12 67  don't
: 964 15 64  hide
: 979 13 65  it
- 994
: 1062 6 67 Li
: 1068 4 67 fe
: 1072 4 67  is
: 1076 3 67  a
: 1080 24 67  Roller
: 1104 10 64 coa
: 1114 5 60 st
: 1119 5 67 er
- 1126
: 1128 14 60 just
: 1143 16 57  gotta
: 1160 13 62  ride
: 1173 15 69  it,
- 1190
: 1236 6 67 I
: 1242 15 72  need
: 1258 12 67  yo
: 1270 14 72 ~u,
- 1286
: 1328 10 55 So
: 1338 14 67  stop
: 1352 15 60  hid
: 1367 13 65 ing
- 1382
: 1440 8 67 Our
: 1448 10 67  Love
: 1458 5 67  is
: 1463 3 67  a
: 1466 16 67  Myst
: 1482 18 64 ery
- 1501
: 1502 14 60  Girl,
: 1520 8 60  let's
: 1528 12 64  get
: 1540 4 64  be
: 1544 16 64 side
: 1560 8 65  it.
- 1570
: 1708 9 55 You've
: 1717 6 62  real
: 1723 5 64 ly
: 1728 6 62  got
: 1735 4 60  me
: 1740 7 62  fly
: 1747 5 64 ing
: 1752 4 60  to
: 1756 16 62 nig
: 1772 4 57 ht
- 1778
: 1904 4 55 You
: 1908 14 62  almost
: 1923 5 64  got
: 1928 4 62  us
: 1932 6 60  punc
: 1938 4 62 hed
: 1942 4 64  in
: 1946 3 60  a
: 1950 10 62  fi
: 1960 6 57 ght
- 1968
: 2028 4 55 And
: 2032 7 64  Ba
: 2039 5 64 by
: 2044 6 64  you
: 2050 14 64  know
- 2066
: 2076 8 64  one
: 2084 12 64  thing
: 2096 12 64  I
: 2108 20 64  gotta
: 2128 8 64  kn
: 2136 8 60 ow
- 2146
: 2220 6 55 Wher
: 2226 10 64 ever
: 2236 6 64  you
: 2242 14 64  go
- 2258
: 2266 10 64  tell
: 2276 6 64  me
: 2283 9 64  'cause
: 2293 8 64  I'm
: 2302 12 64  gon
: 2314 4 64 na
: 2318 22 60  show
- 2342
: 2400 6 55 We
: 2406 10 64  found
: 2416 14 60  Lo
: 2430 20 64 ve
- 2452
: 2496 8 55 So
: 2504 8 67  don't
: 2512 16 64  hide
: 2528 10 65  it
- 2540
: 2612 7 67 Life
: 2619 5 67  is
: 2624 3 67  a
: 2628 14 67  Rol
: 2642 12 67 ler
: 2654 22 64 coaster
- 2678
: 2682 8 60 Just
: 2690 18 60  gotta
: 2708 15 62  ride
: 2724 6 62  it
- 2732
: 2784 6 67 I
: 2790 14 72  need
: 2804 14 67  yo
: 2818 14 72 ~u,
- 2834
: 2880 6 55 So
: 2886 10 67  stop
: 2897 15 64  hid
: 2912 12 65 ing
- 2926
: 2996 4 67 Our
: 3000 7 67  Love
: 3007 5 67  is
: 3012 4 67  a
: 3016 14 67  Myst
: 3030 20 64 ery
- 3052
: 3060 8 60  Girl,
: 3068 8 60  let's
: 3076 12 60  get
: 3088 5 64  be
: 3093 16 64 side
: 3110 6 65  it.
- 3118
: 3264 6 67 can't
: 3270 4 53  you
: 3274 10 67  feel
: 3284 4 57  my
: 3288 24 67  Heart,
- 3314
: 3360 8 67 can't
: 3368 3 53  you
: 3372 8 67  feel
: 3380 4 57  my
: 3385 25 67  Heart
- 3412
: 3460 6 67 can't
: 3466 4 53  you
: 3470 6 67  take
: 3476 8 57  my
: 3484 156 67  Heart
- 3642
: 3660 4 60 We
: 3664 8 67  found
: 3672 16 60  Lo
: 3688 22 67 ve
- 3712
: 3752 8 55 So
: 3760 12 67  don't
: 3772 14 64  fight
: 3787 13 65  it
- 3802
: 3868 10 67 Life
: 3879 5 67  is
: 3885 3 67  a
: 3888 14 67  Rol
: 3902 10 67 ler
: 3912 12 64 coa
: 3924 12 60 ster.
- 3937
: 3938 10 67 Just
: 3948 16 60  gotta
: 3964 16 62  ride
: 3980 12 62  it.
- 3994
: 4044 4 67 I
: 4048 15 72  need
: 4063 29 67  yo~u,
- 4094
: 4138 8 55  So
: 4146 14 67  stop
: 4160 14 64  hid
: 4174 18 65 ing
- 4194
: 4252 6 64 Our
: 4258 8 64  Love
: 4267 5 64  is
: 4272 4 64  a
: 4276 14 64  Myst
: 4290 18 64 ery
- 4310
: 4312 12 60  Girl,
: 4324 13 60  let's
: 4337 12 64  get
: 4349 3 64  be
: 4352 16 64 side
: 4368 10 65  it.
- 4380
: 4440 8 67 Don't
: 4448 16 65  fight
: 4464 8 67  it,
: 4472 16 65  fight
: 4488 8 67  it,
: 4496 16 65  fight
: 4512 8 67  it.
- 4522
: 4536 8 67 Don't
: 4544 16 65  fight
: 4560 8 67  it,
: 4568 16 65  fight
: 4584 8 67  it,
: 4592 16 65  fight
: 4608 8 67  it.
- 4618
: 4632 8 67 Don't
: 4640 16 65  fight
: 4656 8 67  it,
: 4664 16 65  fight
: 4680 8 67  it,
: 4688 16 65  fight
: 4704 8 67  it.
- 4714
: 4728 8 67 Don't
: 4736 16 65  fight
: 4752 8 67  it,
: 4760 16 65  fight
: 4776 8 67  it,
: 4784 16 65  fight
: 4800 8 67  it.
- 4810
: 4828 8 67 Don't
: 4836 16 65  fight
: 4852 6 67  it,
: 4858 16 65  fight
: 4874 6 67  it,
: 4880 20 65  fight
: 4900 8 67  it.
E