#TITLE:Mi Gato
#ARTIST:Rosario
#MP3:Rosario - Mi Gato.mp3
#COVER:Rosario - Mi Gato [CO].jpg
#BACKGROUND:Rosario - Mi Gato [BG].jpg
#BPM:212
#GAP:17550
#ENCODING:UTF8
#END:193300
: 0 3 19 Al
: 3 4 19 go en 
: 7 4 19 es
: 11 4 19 pe
: 15 4 19 cial 
: 19 4 19 va a 
: 23 4 17 su
: 27 4 16 ce
: 31 4 16 der 
- 39
: 43 2 16 Que has
: 45 2 19 ta 
: 47 4 19 los 
: 51 4 19 po
: 55 4 17 ros 
: 59 4 17 de 
: 63 2 16 mi 
: 65 2 19 pi
: 67 8 19 el 
: 75 2 21 - 
: 77 2 22 - 
: 79 2 21 - 
: 81 4 19 - 
- 87
: 89 4 19 Gri
: 93 4 17 tan 
: 97 2 17 mi 
: 99 2 16 - 
: 101 2 17 nom 
: 103 2 16 - 
: 105 2 17 - 
: 107 6 16 - 
: 113 6 12 bre 
- 124
: 129 2 19 E
: 131 4 19 sa 
: 135 4 19 luz 
: 139 4 19 me em
: 143 4 19 pie
: 147 4 19 za a 
: 151 4 17 mo
: 155 4 16 les
: 159 4 16 tar 
- 168
: 173 2 16 Mis 
: 175 4 19 pu
: 179 4 19 pi
: 183 4 17 las 
: 187 3 17 bri
: 190 3 16 llan 
: 193 8 19 más 
- 209
: 217 3 17 En 
: 220 4 16 la os
: 224 3 17 cu
: 229 2 17 ri 
: 231 2 16 - 
: 233 6 12 dad 
- 249
: 259 2 21 U
: 261 4 21 na ex
: 265 4 21 tra
: 269 4 21 ña 
: 273 4 21 fuer
: 277 2 21 za 
: 279 2 19 - 
: 281 4 24 vie
: 285 4 24 ne a 
: 289 4 21 mí 
- 297
: 302 2 21 Ya 
: 304 4 21 no 
: 308 4 21 se 
: 312 3 19 ni 
: 315 4 24 dis
: 319 4 19 tin
: 323 4 21 guir 
- 330
: 333 2 12 La 
: 335 2 21 di
: 337 2 21 fe
: 339 2 21 ren
: 341 4 21 cia 
: 345 2 19 en 
: 347 2 19 tre 
: 349 2 19 el 
: 351 2 17 bien 
: 353 4 19 y 
: 357 4 21 el 
: 361 2 19 mal 
- 363
: 365 2 17 I
: 367 4 19 a
: 371 2 17 i
: 373 4 19 a
: 377 2 17 i
: 379 4 19 a 
- 385
: 387 3 21 Al
: 390 4 21 go 
: 394 4 21 hay que 
: 398 4 21 me em
: 402 4 21 pu
: 406 2 21 ja 
: 408 2 19 - 
: 410 4 24 a 
: 414 4 24 sal
: 418 4 21 tar 
- 427
: 432 2 21 A 
: 434 4 21 vi
: 438 4 21 vir 
: 442 2 19 en 
* 444 2 24 li
: 446 4 24 ber
: 450 4 21 tad 
- 458
: 462 2 12 En 
: 464 3 12 los 
: 467 4 21 te
: 471 4 21 ja
: 475 2 19 dos 
: 477 3 19 de es
: 480 2 17 ta 
- 482
: 483 4 19 Gran 
: 487 4 21 ciu
: 491 4 19 dad 
: 495 2 17 i
: 497 4 19 a
: 501 2 17 i
: 503 4 19 a
: 507 2 17 i
: 509 4 19 a 
- 516
: 520 2 19 Uy 
: 522 3 19 uy 
: 526 3 19 uy 
: 531 2 19 mi 
: 535 2 19 ga
: 539 2 17 to 
: 541 4 17 ha
: 545 2 16 ce 
: 547 2 17 uy 
: 551 2 17 uy 
: 555 2 17 uy 
: 559 2 17 uy 
: 563 2 17 uy 
: 565 6 16 uy 
- 577
: 584 2 19 Uy 
: 586 3 19 uy 
: 590 3 19 uy 
: 595 2 19 mi 
: 599 3 24 ga
: 603 3 19 to 
: 608 3 19 ha
: 611 2 16 ce 
: 615 2 21 ay 
: 619 2 21 ay 
: 623 2 19 ay 
: 627 2 19 ay 
: 631 2 21 ay 
: 635 2 21 ay 
: 639 3 19 ay 
- 645
: 649 2 19 Uy 
: 651 3 19 uy 
: 655 2 19 uy 
: 659 2 19 mi 
: 663 2 19 ga
: 668 2 17 to 
: 670 2 17 ha
: 673 3 16 ce 
: 676 2 17 uy 
: 680 2 17 uy 
: 684 2 17 uy 
: 688 2 17 uy 
: 692 2 17 uy 
: 694 6 16 uy 
- 707
: 714 2 19 Uy 
: 716 3 19 uy 
: 720 3 19 uy 
: 724 2 19 mi 
* 728 3 24 ga
: 732 3 19 to 
: 736 3 19 ha
: 740 2 16 ce 
- 742
: 744 2 21 Ay 
: 748 2 21 ay 
: 752 2 19 ay 
: 756 2 19 ay 
: 760 2 21 ay 
: 764 2 21 ay 
: 768 2 19 ay 
: 772 2 17 ay 
: 777 2 16 ay 
: 781 2 17 ay 
* 786 8 16 ay 
- 800
: 806 4 19 Al
: 810 2 19 go en 
: 812 6 19 es
: 818 4 19 pe
: 822 4 19 cial 
: 826 4 19 sien
: 830 4 17 to 
: 834 4 16 la
: 838 4 16 tir 
- 846
: 850 2 16 La 
: 852 2 19 lu
: 854 2 19 na 
: 857 4 19 lle
: 861 4 17 na 
: 865 3 17 va a 
: 868 3 16 sa
: 871 8 19 lir 
- 886
: 894 4 19 Bai
: 898 4 17 lan 
: 902 4 17 mis 
: 907 2 17 duen 
: 909 4 16 - 
: 913 2 17 - 
: 915 2 16 - 
: 918 6 12 des 
- 929
: 935 2 19 Espe
: 937 4 19 ro u
: 941 4 19 na 
: 945 4 19 sor
: 949 4 19 pre
: 953 4 19 sa al 
: 957 5 17 des
: 962 4 16 per
: 966 4 16 tar 
- 973
: 977 2 16 Mi 
: 979 4 19 cuer
: 983 2 19 po 
: 985 2 19 em
: 987 4 19 pie
: 991 4 17 za a 
: 995 4 17 ti
: 999 2 16 ri
: 1001 6 19 tar 
: 1007 2 21 - 
: 1009 2 23 - 
: 1011 2 21 - 
: 1013 4 19 - 
- 1020
: 1023 4 19 La 
: 1027 4 17 no
: 1031 2 17 che 
: 1033 2 16 - 
: 1035 2 17 ter 
: 1037 2 16 - 
: 1039 2 17 mi 
: 1041 2 16 - 
: 1043 6 12 nó 
- 1056
: 1064 3 21 Y un 
: 1067 4 21 ca
: 1071 4 21 mi
: 1075 4 21 no 
: 1079 4 21 voy 
: 1083 4 21 a 
: 1087 4 24 re
: 1091 4 24 co
: 1095 4 21 rrer 
- 1103
: 1107 3 12 La 
: 1110 2 21 lu
: 1112 2 21 na 
: 1114 4 21 se 
: 1118 3 19 pon
: 1121 4 24 drá a 
: 1125 4 19 mis 
: 1129 4 21 pies 
- 1138
: 1144 3 21 Gri
: 1147 4 21 tan
: 1151 4 19 do 
: 1155 2 19 mi a
: 1157 2 17 le
: 1159 10 19 grí 
: 1169 5 21 - 
: 1175 4 21 a 
: 1179 4 19 - 
: 1183 2 17 - 
: 1185 4 19 - 
- 1191
: 1193 3 21 Sie
: 1196 4 21 te 
: 1200 4 21 vi
: 1204 4 21 das 
: 1208 4 21 ten
: 1212 4 21 go 
: 1216 4 24 que 
: 1220 4 24 cum
: 1224 4 21 plir 
- 1232
: 1236 2 12 A
: 1238 2 21 guan
: 1240 4 21 ta
: 1244 4 21 ré 
: 1248 2 19 has
: 1250 4 24 ta 
: 1254 4 19 sen
: 1258 4 21 tir 
- 1265
: 1268 2 12 Que es
: 1270 3 21 te 
: 1273 4 21 mis
: 1277 4 21 te
: 1281 2 19 rio 
: 1283 3 19 lo 
: 1286 3 17 com
: 1289 4 19 par
: 1293 2 21 to 
- 1295
: 1297 4 19 Jun
: 1301 2 21 to 
: 1303 2 21 a 
: 1305 3 19 ti 
: 1308 2 17 - 
: 1310 4 19 - 
: 1314 2 17 - 
: 1316 4 19 - 
- 1323
: 1326 2 19 Uy 
: 1328 3 19 uy 
: 1332 2 19 uy 
: 1337 2 19 mi 
: 1341 2 19 ga
: 1345 2 17 to 
: 1347 2 17 ha
: 1351 3 16 ce 
: 1354 2 17 uy 
: 1357 2 17 uy 
: 1361 2 17 uy 
: 1365 2 17 uy 
: 1369 2 17 uy 
: 1371 6 16 uy 
- 1384
: 1391 2 19 Uy 
: 1393 3 19 uy 
: 1397 3 19 uy 
: 1401 2 19 mi 
* 1405 3 24 ga
: 1410 3 19 to 
: 1415 3 19 ha
: 1418 2 16 ce 
: 1422 2 21 ay 
: 1426 2 21 ay 
: 1430 2 19 ay 
: 1434 2 19 ay 
: 1438 2 21 ay 
: 1442 2 21 ay 
: 1446 3 19 ay 
- 1452
: 1456 2 19 Uy 
: 1458 3 19 uy 
: 1462 2 19 uy 
: 1467 2 19 mi 
: 1471 2 19 ga
: 1475 2 17 to 
: 1477 2 17 ha
: 1480 2 16 ce 
: 1483 2 17 uy 
: 1487 2 17 uy 
: 1491 2 17 uy 
: 1495 2 17 uy 
: 1499 2 17 uy 
: 1501 6 16 uy 
- 1513
: 1520 2 19 Uy 
: 1522 3 19 uy 
: 1526 3 19 uy 
: 1531 2 19 mi 
* 1535 3 24 ga
: 1539 3 19 to 
: 1544 3 19 ha
: 1547 2 16 ce 
- 1549
: 1551 2 21 Ay 
: 1555 2 21 ay 
: 1559 2 19 ay 
: 1563 2 19 ay 
: 1567 2 21 ay 
: 1571 2 21 ay 
: 1575 3 19 ay 
: 1580 4 17 ay 
: 1584 4 16 ay 
: 1589 4 17 ay 
: 1593 9 16 ay 
- 1612
: 1875 2 19 Uy 
: 1877 3 19 uy 
: 1881 2 19 uy 
: 1886 2 19 mi 
: 1890 2 19 ga
: 1894 2 17 to 
: 1896 2 17 ha
: 1900 2 16 ce 
: 1902 2 17 uy 
: 1906 2 17 uy 
: 1910 2 17 uy 
: 1914 2 17 uy 
: 1918 2 17 uy 
: 1920 6 16 uy 
- 1932
: 1939 2 19 Uy 
: 1941 3 19 uy 
: 1945 3 19 uy 
: 1950 2 19 mi 
* 1954 3 24 ga
: 1958 3 19 to 
: 1963 3 19 ha
: 1966 2 16 ce 
: 1970 2 21 ay 
: 1974 2 21 ay 
: 1978 2 19 ay 
: 1982 2 19 ay 
: 1986 2 21 ay 
: 1990 2 21 ay 
: 1994 3 19 ay 
- 2000
: 2004 2 19 Uy 
: 2006 3 19 uy 
: 2010 2 19 uy 
: 2015 2 19 mi 
: 2019 2 19 ga
: 2023 2 17 to 
: 2025 2 17 ha
: 2029 2 16 ce 
: 2031 2 17 uy 
: 2035 2 17 uy 
: 2039 2 17 uy 
: 2043 2 17 uy 
: 2047 2 17 uy 
: 2049 6 16 uy 
- 2062
: 2069 2 19 Uy 
: 2071 3 19 uy 
: 2075 3 19 uy 
: 2079 2 19 mi 
* 2083 3 24 ga
: 2087 3 19 to 
: 2092 3 19 ha
: 2095 2 16 ce 
: 2099 2 21 ay 
: 2103 2 21 ay 
: 2107 2 19 ay 
: 2111 2 19 ay 
: 2115 2 21 ay 
: 2119 2 21 ay 
: 2123 3 19 ay 
- 2129
: 2133 2 19 Uy 
: 2135 3 19 uy 
: 2139 2 19 uy 
: 2144 2 19 mi 
: 2148 2 19 ga
: 2152 2 17 to 
: 2154 2 17 ha
: 2158 2 16 ce 
: 2160 2 17 uy 
: 2164 2 17 uy 
: 2168 2 17 uy 
: 2172 2 17 uy 
: 2176 2 17 uy 
: 2178 6 16 uy 
- 2191
: 2198 2 19 Uy 
: 2200 3 19 uy 
: 2204 3 19 uy 
: 2208 2 19 mi 
* 2212 3 24 ga
: 2216 3 19 to 
: 2221 3 19 ha
: 2224 2 16 ce 
: 2228 2 21 ay 
: 2232 2 21 ay 
: 2236 2 19 ay 
: 2240 2 19 ay 
: 2244 2 21 ay 
: 2248 2 21 ay 
: 2252 3 19 ay 
- 2258
: 2262 2 19 Uy 
: 2264 3 19 uy 
: 2268 2 19 uy 
: 2273 2 19 mi 
: 2277 2 19 ga
: 2281 2 17 to 
: 2283 2 17 ha
: 2287 2 16 ce 
: 2289 2 17 uy 
: 2293 2 17 uy 
: 2297 2 17 uy 
: 2301 2 17 uy 
: 2305 2 17 uy 
* 2307 6 16 uy 
- 2320
: 2327 2 19 Uy 
: 2329 3 19 uy 
: 2333 3 19 uy 
: 2337 2 19 mi 
* 2341 3 24 ga
: 2345 3 19 to 
: 2350 3 19 ha
: 2353 2 16 ce 
: 2357 2 21 ay 
: 2361 2 21 ay 
: 2365 2 19 ay 
: 2369 2 19 ay 
: 2373 2 21 ay 
: 2377 2 21 ay 
: 2381 3 19 ay 
E