#TITLE:Joyride
#ARTIST:Roxette
#GENRE:Pop
#LANGUAGE:English
#MP3:Roxette - Joyride.mp3
#COVER:Roxette - Joyride[CO].jpg
#VIDEO:Roxette - Joyride.mp4
#BPM:306,9
#GAP:150
#YEAR:1991
: 0 4 21 Hel
: 6 7 21 lo,
: 24 3 21  you
* 30 7 19  fool,
: 48 3 19  I
: 54 3 18  love
: 60 8 14  you
- 72
: 81 2 9 Come
: 84 3 9  on,
: 90 3 9  join
: 96 2 9  the
: 99 6 11  joy
: 108 36 13 ride.
- 147
: 297 2 9 I
: 300 2 9  hit
: 303 2 9  the
: 306 3 9  road
: 312 2 9  out
: 315 2 9  o'
: 318 3 11  no
: 324 6 13 where,
- 333
: 348 2 9 had
: 351 2 9  to
: 354 2 7  jump
: 357 2 7  in
: 360 3 9  my
* 366 6 4  car.
- 375
: 396 2 9 Be
: 399 2 9  a
: 402 2 9  ri
: 405 2 9 der
: 408 2 9  in
: 411 2 9  a
: 414 3 11  love
: 420 6 13  game,
- 429
* 444 2 9 fol
* 447 2 6 low
* 450 3 9 ing
: 456 3 9  the
: 462 9 4  stars.
- 474
: 492 3 9 Don't
: 498 2 9  need
: 501 2 9  no
: 504 2 9  book
: 507 2 9  o'
: 510 3 11  wis
: 516 6 9 dom,
- 525
: 537 2 6 I
: 540 3 9  get
: 545 4 6  no
: 552 2 9  mo
: 555 3 6 ney
: 561 6 9  talk
: 570 3 14  at
: 576 9 13  all.
- 588
: 681 2 9 She
: 684 2 9  has
: 687 2 9  a
: 690 3 9  train
: 696 2 9  go
: 699 2 9 ing
* 702 3 11  down
* 708 6 13 town.
- 717
: 729 2 9 She's
: 732 2 9  got
: 735 2 9  a
: 738 3 9  club
: 744 2 9  on
: 747 2 9  the
: 750 9 4  moon.
- 762
: 777 2 9 And
: 780 2 9  she's
: 783 2 9  tel
: 786 3 9 ling
: 792 2 9  all
: 795 2 9  her
: 798 3 11  se
: 804 6 13 crets
- 813
: 828 2 9 in
: 831 2 6  a
: 834 2 9  won
: 837 2 9 der
: 840 2 9 ful
* 843 2 9  bal
* 846 9 4 loon.
- 857
: 876 2 9 She's
: 879 2 9  the
: 882 3 9  heart
: 888 2 9  of
: 891 2 9  the
: 894 3 11  fun
: 900 9 9 fair.
- 912
: 921 2 9 She's
: 924 2 9  got
: 927 2 9  me
: 930 2 11  whist
: 933 2 11 ling
: 936 2 9  in
: 939 2 9  her
: 942 9 14  pri
: 954 3 16 vate
: 960 9 13  tune.
- 972
* 1044 3 13 And
* 1050 3 13  it
* 1056 18 16  all
: 1098 3 13  be
: 1104 18 14 gins
: 1128 9 9  where
: 1140 3 9  it
: 1146 4 14  e
: 1152 12 13 ~nds.
- 1167
: 1236 3 13 And
: 1242 3 13  she's
: 1248 18 16  all
: 1284 9 11  mine,
: 1296 3 13  my
: 1302 3 14  ma
: 1308 3 7 gic
: 1314 45 9  friend.
- 1362
* 1380 3 21 She
* 1386 3 21  says:
: 1392 4 18  Hel
: 1398 7 21 lo,
: 1416 3 21  you
: 1422 7 19  fool,
: 1440 3 19  I
: 1446 3 18  love
: 1452 8 16  you.
- 1464
: 1473 2 9 Come
: 1476 3 9  on,
: 1482 3 9  join
: 1488 2 9  the
* 1491 6 11  joy
* 1500 28 13 ri
* 1530 4 11 ~
* 1536 6 9 ~de,
- 1545
: 1566 9 9 join
: 1578 3 9  the
: 1584 9 9  joy
: 1596 12 4 ride.
- 1611
: 1692 2 9 She's
: 1695 2 9  a
: 1698 2 9  flo
: 1701 2 9 wer,
: 1704 2 9  I
: 1707 2 9  can
: 1710 3 11  paint
: 1716 6 13  her.
- 1725
: 1740 2 9 She's
: 1743 2 9  a
: 1746 3 9  child
: 1752 2 9  of
: 1755 2 9  the
: 1758 6 4  sun.
- 1767
: 1788 2 9 We're
: 1791 2 9  a
* 1794 2 9  part
: 1797 2 9  of
: 1800 2 9  this
: 1803 2 9  to
* 1806 4 11 ge
: 1812 6 13 ther,
- 1821
: 1833 2 9 could
: 1836 2 9  ne
: 1839 2 9 ver
: 1842 2 9  turn
: 1845 2 9  a
: 1848 2 9 round
: 1851 2 9  and
: 1854 6 4  run.
- 1863
: 1884 3 9 Don't
: 1890 3 9  need
: 1896 2 9  no
: 1899 3 9  for
: 1905 3 9 tune-
: 1911 2 11 tel
: 1914 6 9 ler
- 1923
: 1932 2 9 to
: 1935 3 9  know
: 1941 2 9  where
: 1944 3 9  my
: 1950 2 9  lu
: 1953 2 14 ~c
: 1956 2 14 ky
: 1959 6 14  love
: 1968 3 16  be
: 1974 11 13 longs,
- 1989
* 2004 3 16 woh
* 2010 2 13  no
* 2013 2 11 ~
* 2016 6 9 ~.
- 2025
: 2052 3 13 'Cause
: 2058 3 13  it
: 2064 21 16  all
: 2106 3 13  be
: 2112 15 14 gins
: 2130 3 9  a
: 2136 9 9 gain
: 2148 3 9  when
: 2154 3 14  it
: 2160 4 14  e
: 2166 12 13 ~nds.
- 2181
: 2244 3 13 And
: 2250 3 13  we're
: 2256 18 16  all
: 2310 3 14  ma
: 2316 3 7 gic
: 2322 45 9  friends.
- 2370
* 2388 3 21 She
* 2394 3 21  says:
* 2400 4 18  Hel
* 2406 7 21 lo,
* 2424 3 21  you
* 2430 7 19  fool,
* 2448 3 19  I
* 2454 3 18  love
* 2460 8 16  you.
- 2472
: 2481 2 9 Come
: 2484 3 9  on,
* 2490 3 9  join
: 2496 2 9  the
: 2499 6 11  joy
: 2508 28 13 ri
* 2538 4 11 ~
: 2544 6 9 ~de,
- 2553
: 2574 9 9 join
: 2586 3 9  the
: 2592 9 9  joy
: 2604 12 4 ride.
- 2619
: 2628 3 21 She
: 2634 3 21  says:
* 2640 4 18  Hel
* 2646 7 21 lo,
: 2664 3 21  you
: 2670 7 19  fool,
: 2688 3 19  I
: 2694 3 18  love
: 2700 8 16  you.
- 2712
: 2721 2 9 Come
: 2724 3 9  on,
* 2730 3 9  join
: 2736 2 9  the
: 2739 6 11  joy
: 2748 22 13 ri
: 2772 4 16 ~
: 2778 4 16 ~
: 2784 6 14 ~de,
- 2793
: 2814 9 9 be
: 2826 3 9  a
: 2832 9 9  joy
* 2844 9 4 ri
: 2856 7 4 der.
- 3540
: 3600 3 9 I'll
: 3606 3 14  take
: 3612 3 14  you
: 3618 3 14  on
: 3624 3 14  a
* 3630 9 16  sky
: 3642 3 16 ride,
- 3648
: 3648 3 9 a
: 3654 3 14  fee
: 3660 3 14 ling
: 3666 3 14  like
: 3672 3 14  you're
: 3678 9 16  spell
: 3690 3 16 bound.
- 3696
: 3696 3 9 The
: 3702 3 13  sun
: 3708 3 13 shine
: 3714 3 13  is
: 3720 3 9  a
: 3726 4 14  la
: 3732 4 13 ~
: 3738 3 13 dy
- 3744
: 3744 3 9 who
: 3750 3 25  rocks
: 3756 3 23  you
: 3762 3 21  like
: 3768 3 18  a
* 3774 9 23  ba
* 3786 15 23 by.
- 3804
* 3828 3 21 She
* 3834 3 21  says:
: 3840 4 18  Hel
: 3846 7 21 lo,
: 3864 3 21  you
: 3870 7 19  fool,
: 3888 3 19  I
: 3894 3 18  love
: 3900 8 16  you.
- 3912
: 3921 2 9 Come
: 3924 3 9  on,
: 3930 3 9  join
: 3936 2 9  the
: 3939 6 11  joy
: 3948 28 13 ri
: 3978 4 11 ~
: 3984 6 9 ~de,
- 3993
: 4014 9 9 join
: 4026 3 9  the
: 4032 9 9  joy
: 4044 12 4 ride.
- 4059
* 4080 4 21 Hel
* 4086 7 21 lo,
* 4104 3 21  you
* 4110 7 19  fool,
* 4128 3 19  I
* 4134 3 18  love
* 4140 8 16  you.
- 4152
: 4161 2 9 Come
: 4164 3 9  on,
: 4170 3 9  join
: 4176 2 9  the
: 4179 6 11  joy
: 4188 28 13 ri
: 4218 4 11 ~
: 4224 6 9 ~de,
- 4233
* 4254 9 9 join
: 4266 3 9  the
: 4272 9 9  joy
: 4284 12 4 ride.
- 4299
: 4356 4 21 Hel
: 4362 3 21 lo,
: 4368 4 18  hel
: 4374 7 21 lo,
: 4392 3 21  you
* 4398 7 19  fool,
: 4416 3 19  I
: 4422 3 18  love
: 4428 8 16  you.
- 4440
: 4440 2 9 Come
: 4443 3 9  on,
: 4449 2 9  come
: 4452 3 9  on,
: 4458 3 9  join
: 4464 2 9  the
: 4467 6 11  joy
* 4476 22 13 ri
: 4500 4 16 ~
: 4506 2 13 ~
: 4509 2 11 ~
: 4512 6 9 ~de,
- 4521
: 4542 9 9 be
: 4554 3 9  a
: 4560 9 9  joy
: 4572 9 4 ri
: 4584 7 4 der,
- 4596
* 4638 6 16 Ro
* 4650 4 9 xette!
E
