#TITLE:Almost Unreal
#ARTIST:Roxette
#MP3:Roxette - Almost Unreal.mp3
#VIDEO:Roxette - Almost Unreal [VD#27].avi
#COVER:Roxette - Almost Unreal [CO].jpg
#BPM:92
#GAP:21070
#VIDEOGAP:27
#ENCODING:UTF8
* 0 4 63 Babe
- 12
: 14 2 63 Come 
: 16 2 64 in 
: 18 2 63 from 
: 20 2 61 the 
: 22 4 59 cold
- 26
: 26 2 59 and 
: 28 2 61 put 
: 30 4 63 that 
: 34 4 59 coat
- 42
: 44 2 61 to 
: 46 6 59 rest
- 58
: 60 1 61 Step 
: 61 2 63 in
: 63 4 64 side
- 78
: 80 2 66 Take 
: 82 2 64 it 
: 84 2 63 the 
: 86 6 64 breath
- 92
: 94 2 61 and 
: 96 2 66 do 
: 98 2 64 what 
: 100 2 63 you 
: 102 4 64 do 
: 110 4 63 best
- 126
* 128 2 63 Ye
* 130 1 61 ~
* 131 4 59 ah
- 142
: 144 2 64 Kick 
: 146 2 63 off 
: 148 2 61 them 
: 150 4 59 shoes
- 154
: 154 2 59 and 
: 156 2 61 leave 
: 158 8 63 those
- 170
: 172 1 61 ci
: 173 2 59 ty 
: 175 2 59 stre
: 177 1 54 ~
: 178 4 56 ets
- 184
: 186 2 59 I 
: 188 2 61 do 
* 190 1 63 be
* 191 6 64 lieve
- 206
: 208 2 66 love 
: 210 2 64 came 
: 212 2 63 my 
: 214 6 64 way
- 220
: 222 2 61 and 
: 224 2 66 fate 
: 226 2 64 did 
: 228 2 63 a
: 230 4 64 rrange 
* 234 2 61 for 
: 236 2 64 us 
: 238 1 68 to 
: 239 6 66 meet
- 246
: 246 2 66 I 
* 248 2 66 love 
: 250 2 68 when 
: 252 2 69 you 
* 254 4 68 do
- 258
: 258 2 68 that 
: 260 2 68 ho
: 262 2 68 cus 
* 264 2 66 po
* 266 2 64 cus 
: 268 2 63 to 
: 270 4 61 me
- 276
: 278 2 61 The 
: 280 2 61 way 
: 282 2 59 that 
: 284 2 59 you 
: 286 4 68 touch
- 290
: 290 2 68 you've 
: 292 2 68 got 
: 294 2 68 the 
: 296 2 66 po
: 298 2 64 wer 
: 300 2 63 to 
: 302 4 61 heal
- 308
: 310 2 61 You 
* 312 2 61 give 
: 314 2 59 me 
: 316 2 59 that 
: 318 4 68 look
- 324
: 326 2 68 It's 
: 328 2 66 al
: 330 2 64 most 
: 332 2 63 un
: 334 4 61 real
- 340
: 342 2 61 It's 
: 344 2 59 al
: 346 2 59 most 
* 348 2 61 un
* 350 8 66 re
* 358 1 64 ~
* 359 1 63 ~
* 360 4 61 al
- 382
* 384 4 75 Hey
- 396
: 398 2 63 We 
: 400 2 64 can't 
: 402 2 63 stop 
: 404 2 61 the 
: 406 4 59 rain
- 410
: 410 2 59 Let's 
: 412 2 61 find 
: 414 1 63 a 
: 415 4 59 place
- 426
: 426 4 66 by 
: 430 1 64 the 
* 431 3 64 fi
* 434 4 59 re
- 440
: 442 2 59 Some
: 444 2 61 times 
: 446 1 63 I 
: 447 6 64 feel
- 462
: 464 2 66 Strange 
: 466 2 64 as 
: 468 2 63 it 
: 470 6 64 seems
- 478
: 478 2 61 You've 
: 480 2 66 been 
: 482 2 64 in 
: 484 2 63 my 
* 486 4 64 dreams
- 490
: 491 3 64 all 
: 494 3 68 my 
: 497 4 68 life
- 502
: 502 2 66 I 
: 504 2 66 love 
: 506 2 68 when 
: 508 2 69 you 
: 510 4 68 do
- 514
: 514 2 68 that 
* 516 2 68 ho
* 518 2 68 cus 
: 520 2 66 po
: 522 2 64 cus 
: 524 2 63 to 
: 526 4 61 me
- 534
: 534 2 61 The 
: 536 2 61 way 
: 538 2 59 that 
: 540 2 59 you 
: 542 4 68 touch
- 546
: 546 2 68 You've 
: 548 2 68 got 
: 550 2 68 the 
* 552 2 66 po
: 554 2 64 wer 
: 556 2 63 to 
* 558 4 61 heal
- 564
: 566 2 61 You 
: 568 2 61 give 
: 570 2 59 me 
: 572 2 59 that 
: 574 4 68 look
- 580
: 582 2 68 It's 
* 584 2 66 al
* 586 2 64 most 
: 588 2 63 un
: 590 4 61 real
- 596
: 598 2 61 It's 
: 600 2 59 al
: 602 2 59 most 
: 604 2 61 un
* 606 6 64 re
* 612 2 66 ~
* 614 1 63 ~
* 615 1 61 ~
* 616 6 59 ~
* 622 4 61 al
- 630
: 644 2 62 It's 
: 646 2 62 a 
: 648 2 62 cra
: 650 4 59 zy 
: 654 4 57 world 
: 658 4 59 out 
: 662 1 57 the
: 663 1 55 ~
: 664 8 54 re
- 674
: 674 2 62 Let's 
: 676 2 62 hope 
: 678 2 62 our 
: 680 2 62 pra
: 682 2 59 yers 
: 684 2 59 are 
: 686 2 57 in 
: 688 2 57 good 
: 690 4 57 hands
- 694
: 694 2 62 to
: 696 1 59 ni
: 697 8 57 ight
- 710
* 806 8 71 Oooh
- 814
: 814 2 71 I 
: 816 2 71 love 
: 818 2 71 when 
: 820 2 73 you 
: 822 4 70 do
- 826
: 826 2 70 that 
: 828 2 70 ho
: 830 2 70 cus 
: 832 2 68 po
: 834 2 66 cus 
: 836 2 65 to 
: 838 4 63 me
- 844
: 846 2 63 The 
: 848 2 63 way 
: 850 2 61 that 
: 852 2 61 you 
: 854 4 70 touch
- 858
* 858 2 70 You've 
: 860 2 70 got 
: 862 2 70 the 
: 864 2 68 po
: 866 2 66 wer 
: 868 2 65 to 
* 870 4 63 heal
- 876
: 878 2 63 You 
: 880 2 63 give 
: 882 2 61 me 
: 884 2 61 that 
: 886 4 70 look
- 890
: 894 2 70 It's 
: 896 2 68 al
: 898 2 66 most 
: 900 2 65 un
: 902 4 63 real
- 908
: 910 2 61 It's 
: 912 2 71 al
: 914 2 71 most 
* 916 2 73 un
: 918 6 70 real
- 924
* 924 2 70 so
* 926 6 68 ~ 
: 932 2 68 un
: 934 2 68 re
: 936 4 66 al
- 940
: 942 2 71 Yea 
: 944 2 71 come 
: 946 2 71 on 
: 948 2 73 and 
: 950 4 70 do
- 954
: 954 2 68 that 
* 956 2 68 ho
* 958 2 66 cus 
: 960 2 68 po
: 962 2 68 cus 
: 964 2 70 to 
: 966 3 68 me~
- 974
: 974 2 63 The 
: 976 2 63 way 
: 978 2 61 that 
: 980 2 61 you 
: 982 4 70 touch
- 986
: 986 2 70 you've 
: 988 2 70 got 
: 990 2 70 the 
: 992 2 70 po
: 994 2 68 wer 
: 996 1 68 to 
* 997 1 66 he
* 998 2 68 ~
* 1000 2 66 al
- 1004
: 1006 2 71 You 
: 1008 2 71 give 
: 1010 2 71 me 
: 1012 2 71 that 
: 1014 6 70 look
- 1020
: 1022 2 70 It's 
: 1024 2 68 al
: 1026 2 66 most 
: 1028 2 65 un
: 1030 4 63 real
- 1036
: 1038 2 61 It's 
: 1040 2 71 al
: 1042 2 71 most 
* 1044 2 73 un
* 1046 1 73 re
* 1047 1 68 ~
* 1048 6 70 ~
* 1054 1 71 ~
* 1055 1 70 ~
* 1056 2 68 ~
* 1058 8 66 al
- 1066
: 1068 4 63 Yeah
- 1073
: 1102 2 63 It's 
: 1104 2 66 al
: 1106 2 68 most 
: 1108 2 66 un
: 1110 3 70 re
: 1113 4 68 al
- 1120
: 1198 2 61 It's 
: 1200 2 71 al
: 1202 2 71 most 
: 1204 2 73 un
* 1206 1 73 real
* 1207 1 68 ~
* 1208 2 70 ~
* 1210 2 70 ~
* 1212 2 70 ~
* 1214 2 70 ~
* 1216 2 68 ~
* 1218 2 66 ~
* 1220 2 65 ~
* 1222 4 63 ~
- 1226
: 1226 1 70 Ye
: 1227 1 68 e
* 1228 2 66 e
* 1230 2 63 e
* 1232 2 61 ah
E