#TITLE:(I'll Never Be) Maria Magdalena (Duett)
#ARTIST:Sandra
#GENRE:Pop
#LANGUAGE:English
#MP3:Sandra - (I'll Never Be) Maria Magdalena (Duett).mp3
#COVER:Sandra - (I'll Never Be) Maria Magdalena (Duett) [CO].jpg
#VIDEO:Sandra - (I'll Never Be) Maria Magdalena (Duett) [VD#0].avi
#PREVIEWSTART:29,413
#BPM:205,52
#GAP:29413,2
#YEAR:1985
P1
: 0 32 69 You
- 34
: 48 6 68 Take
* 56 6 69  my
: 64 4 68  love
: 68 20 66 ~
- 90
: 128 20 69 You
- 150
: 176 6 68 Want
: 184 6 66  my
* 192 24 66  soul
- 218
: 256 4 64 I
: 262 4 66  would
: 268 3 62  be
: 272 4 64  cra
: 278 4 66 zy
- 283
: 284 3 62 To
: 288 6 64  share
: 296 3 66  your
: 300 2 66  life
: 302 8 64 ~
- 312
: 320 4 64 Why
: 326 4 66  can't
: 332 3 62  you
: 336 3 64  see
: 341 5 66  what
: 348 3 64  I
: 352 8 57  am?
- 362
: 384 4 64 Shar
: 389 5 66 pen
: 396 3 62  the
: 400 5 64  sen
: 405 4 66 ses
- 410
: 412 3 62 And
: 416 6 71  turn
: 424 3 69  the
: 428 2 64  knife
: 430 8 66 ~
- 440
: 448 4 64 Hurt
: 453 4 66  me
: 460 3 62  and
: 464 3 64  you'll
: 468 4 62  un
: 472 4 69 der
* 476 16 66 stand
- 494
: 500 3 71 I'll
: 504 4 69  ne
: 508 3 67 ver
: 512 6 71  be
- 520
: 530 1 71 Ma
: 532 1 71 ri
: 534 1 71 a
: 536 2 71  Mag
: 540 1 71 da
: 542 2 71 le
: 544 3 69 ~
: 548 2 69 na
- 552
: 594 1 71 Ma
: 596 1 71 ri
: 598 1 71 a
: 600 2 71  Mag
: 604 1 71 da
: 606 2 71 le
: 608 3 69 ~
: 612 2 69 na
- 616
* 684 8 69 Pro
: 692 3 67 mise
: 696 3 66  me
: 700 2 64  de
: 702 6 66 light
- 710
: 756 3 71 I'll
: 760 4 69  ne
: 764 3 67 ver
: 768 6 71  be
- 776
: 786 1 71 Ma
: 788 1 71 ri
: 790 1 71 a
: 792 2 71  Mag
: 796 1 71 da
: 798 2 71 le
: 800 3 69 ~
: 804 2 69 na
- 808
: 850 1 71 Ma
: 852 1 71 ri
: 854 1 71 a
: 856 2 71  Mag
: 860 1 71 da
: 862 2 71 le
: 864 3 69 ~
: 868 2 69 na
- 872
: 940 8 69 Pro
: 948 3 67 mise
: 952 3 66  me
: 956 2 64  de
* 958 6 66 light
- 966
: 1152 28 69 Why
- 1182
: 1200 6 68 Must
: 1208 6 69  I
: 1216 4 68  lie
: 1220 20 66 ~?
- 1242
* 1280 32 69 Find
- 1314
: 1328 4 68 A
: 1332 3 66 ~
: 1336 3 66 ny
: 1340 26 66  prize
- 1368
: 1408 4 64 When
: 1414 4 66  will
: 1420 3 62  you
: 1424 4 64  wake
: 1430 4 66  up
- 1435
: 1436 3 62 And
: 1440 6 64  re
: 1448 3 66 a
: 1452 2 66 lize
: 1454 8 64 ~
- 1464
: 1472 4 64 I
: 1478 4 66  can't
: 1484 4 62  sur
: 1488 5 64 ren
: 1493 5 66 der
: 1500 3 64  to
* 1504 8 57  you?
- 1514
: 1536 4 64 Play
: 1542 4 66  for
: 1548 4 62  af
: 1552 5 64 fec
: 1557 4 66 tion
: 1564 3 62  and
- 1568
: 1568 6 71 Win
: 1576 3 69  the
: 1580 2 64  prize
: 1582 8 66 ~
- 1592
: 1600 4 64 I
: 1605 4 66  know
: 1612 3 62  those
: 1616 3 64  par
: 1620 4 62 ty
: 1624 6 69  games
: 1632 12 66  too
- 1646
: 1652 3 71 I'll
: 1656 4 69  ne
: 1660 3 67 ver
: 1664 6 71  be
- 1672
: 1682 1 71 Ma
: 1684 1 71 ri
: 1686 1 71 a
: 1688 2 71  Mag
: 1692 1 71 da
: 1694 2 71 le
: 1696 3 69 ~
: 1700 2 69 na
- 1704
: 1746 1 71 Ma
: 1748 1 71 ri
: 1750 1 71 a
* 1752 2 71  Mag
: 1756 1 71 da
: 1758 2 71 le
: 1760 3 69 ~
: 1764 2 69 na
- 1768
: 1836 8 69 Pro
: 1844 3 67 mise
: 1848 3 66  me
: 1852 2 64  de
: 1854 6 66 light
- 1862
: 1908 3 71 I'll
: 1912 4 69  ne
: 1916 3 67 ver
: 1920 6 71  be
- 1928
: 1938 1 71 Ma
: 1940 1 71 ri
: 1942 1 71 a
: 1944 2 71  Mag
: 1948 1 71 da
: 1950 2 71 le
: 1952 3 69 ~
: 1956 2 69 na
- 1960
: 2002 1 71 Ma
: 2004 1 71 ri
: 2006 1 71 a
: 2008 2 71  Mag
: 2012 1 71 da
: 2014 2 71 le
: 2016 3 69 ~
: 2020 2 69 na
- 2024
: 2092 8 69 Pro
: 2100 3 67 mise
: 2104 3 66  me
: 2108 2 64  de
: 2110 6 66 light
- 2118
: 2420 3 71 I'll
: 2424 4 69  ne
: 2428 3 67 ver
* 2432 6 71  be
- 2440
: 2450 1 71 Ma
: 2452 1 71 ri
: 2454 1 71 a
: 2456 2 71  Mag
: 2460 1 71 da
: 2462 2 71 le
: 2464 3 69 ~
: 2468 2 69 na
- 2472
: 2514 1 71 Ma
: 2516 1 71 ri
: 2518 1 71 a
: 2520 2 71  Mag
: 2524 1 71 da
: 2526 2 71 le
: 2528 3 69 ~
: 2532 2 69 na
- 2536
* 2604 8 69 Pro
: 2612 3 67 mise
: 2616 3 66  me
: 2620 2 64  de
: 2622 6 66 light
- 2630
: 2676 3 71 I'll
: 2680 4 69  ne
: 2684 3 67 ver
: 2688 6 71  be
- 2696
: 2706 1 71 Ma
: 2708 1 71 ri
: 2710 1 71 a
: 2712 2 71  Mag
: 2716 1 71 da
: 2718 2 71 le
: 2720 3 69 ~
: 2724 2 69 na
- 2728
: 2770 1 71 Ma
: 2772 1 71 ri
: 2774 1 71 a
: 2776 2 71  Mag
: 2780 1 71 da
: 2782 2 71 le
: 2784 3 69 ~
: 2788 2 69 na
P2
: 552 3 62 You're
: 556 1 64  a
* 558 6 67  crea
: 564 3 66 ture
: 568 3 64  of
: 572 1 62  the
: 574 6 64  night
- 582
: 616 3 62 You're
: 620 1 64  a
: 622 6 67  vic
: 628 3 66 tim
: 632 3 64  of
: 636 1 62  the
: 638 8 66  fight
- 648
: 660 3 57 You
* 664 3 66  need
: 668 8 64  love
- 678
: 724 3 57 You
: 728 3 66  need
: 732 12 64  love
: 744 4 67 ~
: 748 6 66 ~
- 756
* 808 3 62 You're
: 812 1 64  a
: 814 6 67  crea
: 820 3 66 ture
: 824 3 64  of
: 828 1 62  the
: 830 6 64  night
- 838
: 872 3 62 You're
: 876 1 64  a
: 878 6 67  vic
: 884 3 66 tim
: 888 3 64  of
: 892 1 62  the
* 894 8 66  fight
- 904
: 916 3 57 You
: 920 3 66  need
: 924 8 64  love
- 934
: 980 3 57 You
: 984 3 66  need
: 988 12 64  love
: 1000 4 67 ~
* 1004 8 66 ~
- 1014
: 1704 3 62 You're
: 1708 1 64  a
: 1710 6 67  crea
: 1716 3 66 ture
: 1720 3 64  of
: 1724 1 62  the
: 1726 6 64  night
- 1734
: 1768 3 62 You're
: 1772 1 64  a
* 1774 6 67  vic
: 1780 3 66 tim
: 1784 3 64  of
: 1788 1 62  the
: 1790 8 66  fight
- 1800
: 1812 3 57 You
: 1816 3 66  need
: 1820 8 64  love
- 1830
: 1876 3 57 You
: 1880 3 66  need
: 1884 12 64  love
: 1896 4 67 ~
: 1900 6 66 ~
- 1908
: 1960 3 62 You're
: 1964 1 64  a
: 1966 6 67  crea
: 1972 3 66 ture
: 1976 3 64  of
: 1980 1 62  the
: 1982 6 64  night
- 1990
: 2024 3 62 You're
: 2028 1 64  a
: 2030 6 67  vic
: 2036 3 66 tim
: 2040 3 64  of
: 2044 1 62  the
: 2046 8 66  fight
- 2056
: 2068 3 57 You
: 2072 3 66  need
* 2076 8 64  love
- 2086
: 2132 3 57 You
: 2136 3 66  need
: 2140 12 64  love
: 2152 4 67 ~
: 2156 8 66 ~
- 2166
: 2176 6 71 Oh
: 2182 6 67 ~
: 2188 3 64 ~
- 2193
* 2196 4 71 Oh
: 2200 4 67 ~
: 2204 3 64 ~
- 2208
: 2208 6 69 Oh
: 2214 6 66 ~
: 2220 3 62 ~
- 2225
: 2240 6 71 Oh
: 2246 6 67 ~
: 2252 3 64 ~
- 2257
: 2260 4 71 Oh
: 2264 4 67 ~
: 2268 3 64 ~
- 2272
: 2272 6 69 Oh
* 2278 6 66 ~
: 2284 3 62 ~
- 2289
: 2472 3 62 You're
: 2476 1 64  a
: 2478 6 67  crea
: 2484 3 66 ture
: 2488 3 64  of
: 2492 1 62  the
: 2494 6 64  night
- 2502
: 2536 3 62 You're
: 2540 1 64  a
: 2542 6 67  vic
: 2548 3 66 tim
: 2552 3 64  of
: 2556 1 62  the
: 2558 8 66  fight
- 2568
: 2580 3 57 You
: 2584 3 66  need
: 2588 8 64  love
- 2598
: 2644 3 57 You
* 2648 3 66  need
: 2652 12 64  love
: 2664 4 67 ~
: 2668 6 66 ~
- 2676
: 2728 3 62 You're
: 2732 1 64  a
: 2734 6 67  crea
: 2740 3 66 ture
: 2744 3 64  of
: 2748 1 62  the
: 2750 6 64  night
E
