#TITLE:I Wish I Was A Punk Rocker
#ARTIST:Sandi Thom
#MP3:Sandi Thom - I Wish I Was A Punk Rocker.mp3
#COVER:Sandi Thom - I Wish I Was A Punk Rocker [CO].jpg
#BACKGROUND:Sandi Thom - I Wish I Was A Punk Rocker [BG].jpg
#BPM:479,95
#GAP:1600
#ENCODING:UTF8
#EDITION:[SC]-Songs
: 5 11 4 Oh
: 16 10 6  I
: 26 7 6  wish
: 33 13 8  I
: 46 10 6  was
: 56 5 6  a
: 61 10 6  punk
: 71 10 4  ro
: 81 16 4 cker
- 98
: 100 6 3 with
: 107 8 4  flo
: 115 8 3 wers
: 124 13 -1  in
: 138 18 1  my
: 158 33 -1  hair
- 193
: 222 8 6 In
: 233 7 6  se
: 240 4 6 ven
: 244 4 8 ty
: 251 9 8  se
: 260 3 6 ven
- 264
: 266 4 6 and
: 270 10 6  six
: 280 10 4 ty
: 290 14 6  ni
: 304 7 1 ne
- 313
: 315 7 1 re
: 322 4 -1 vo
: 326 6 -1 lu
: 332 15 9 tion
: 347 5 9  was
: 352 11 8  in
: 363 6 8  the
: 371 8 9  a
: 379 9 8 i
: 388 11 6 r
- 401
: 426 4 4 I
: 430 7 6  was
: 440 21 8  born
: 461 16 8  too
: 477 16 6  late
- 495
: 516 2 4 in
: 518 5 6 to
: 524 5 6  a
: 529 17 8  world
: 546 6 8  that
: 552 8 8  does
: 560 7 4 n't
: 567 9 4  ca
: 576 30 1 re
- 608
: 618 12 4 oh
: 631 11 6  I
: 642 6 6  wish
: 649 14 8  I
: 664 10 6  was
: 674 5 6  a
: 679 11 6  punk
: 690 10 4  ro
: 700 9 4 cker
- 711
: 716 7 -1 with
: 727 10 9  flo
: 738 12 8 wers
: 751 10 4  in
: 761 22 6  my
* 784 54 4  hair
- 840
: 856 6 -4 When
: 862 4 -3  the
: 866 6 -1  head
: 873 5 -1  of
: 878 12 -1  state
- 891
: 891 6 -3  did
: 897 5 -4 n't
: 902 8 -3  play
: 910 5 -1  gui
: 915 10 -1 tar,
- 927
: 930 9 -4 Not
: 939 6 -3  e
: 945 6 -4 very
: 951 8 -3 bo
: 959 7 -4 dy
: 966 10 -3  drove
: 976 7 -1  a
: 983 13 4  car,
- 998
: 1000 8 4 When
: 1008 8 3  mu
: 1016 9 3 sic
: 1025 10 3  real
: 1035 5 3 ly
: 1040 9 4  mat
: 1049 7 3 tered
- 1058
: 1066 6 1 and
: 1072 8 -1  when
: 1080 9 1  ra
: 1089 4 1 di
: 1093 7 1 o
: 1101 6 -1  was
: 1107 22 -1  king,
- 1130
: 1143 4 -4 When
: 1147 4 -3  ac
: 1151 9 -1 coun
: 1160 7 -1 tants
: 1168 6 -1  did
: 1174 6 -3 n't
: 1180 11 -4  have
: 1191 7 -1  con
: 1198 15 -1 trol,
- 1214
: 1215 3 -1 And
: 1218 4 -1  the
: 1222 5 -1  me
: 1227 7 -3 dia
- 1236
: 1241 5 -4 could
: 1246 7 -4 n't
: 1253 8 -3  buy
: 1262 6 -1  your
: 1268 16 4  soul,
- 1285
: 1285 3 4 And
: 1288 4 4  com
: 1292 6 3 pu
: 1298 6 3 ters
: 1305 9 3  were
: 1314 12 4  still
: 1326 12 4  sca
: 1338 4 3 ry
- 1343
: 1345 10 1  and
: 1355 8 -1  we
: 1363 9 1  didn't
: 1372 8 1  know
: 1380 7 1  e
: 1387 7 -1 very
: 1394 12 -1 thing,
- 1408
: 1415 9 4 Oh
: 1424 9 6  I
: 1433 6 6  wish
: 1439 12 8  I
: 1451 10 6  was
: 1461 4 6  a
: 1465 9 6  punk
: 1474 8 4  ro
: 1482 12 4 cker
- 1495
: 1496 7 3 with
: 1503 9 4  flo
: 1512 6 3 wers
: 1518 13 1  in
: 1531 17 1  my
: 1548 10 -1  hair
- 1560
: 1571 3 1 In
: 1574 5 6  se
: 1579 6 6 ven
: 1585 5 8 ty
: 1590 8 8  se
: 1598 4 6 ven
: 1603 3 6  and
: 1607 10 6  six
: 1617 8 4 ty
: 1625 12 6  nine
- 1638
: 1640 3 1 re
: 1643 5 1 vo
: 1648 4 -1 lu
: 1652 9 9 tion
: 1662 4 9  was
: 1667 7 8  in
: 1674 4 8  the
: 1679 9 9  a
: 1688 8 8 i
: 1696 7 6 r
- 1705
: 1709 4 4 I
: 1713 5 6  was
* 1718 14 8  born
: 1734 14 8  too
: 1750 15 6  late
- 1767
: 1777 3 4 in
: 1780 6 6 to
: 1786 2 6  a
: 1788 15 8  world
: 1803 4 8  that
: 1807 7 8  does
: 1814 6 4 n't
: 1820 9 4  ca
: 1829 10 1 re
- 1841
: 1846 5 4 oh
: 1852 6 6  I
: 1859 7 6  wish
: 1866 11 8  I
: 1878 9 6  was
: 1888 3 6  a
: 1891 10 6  punk
: 1901 9 4  ro
: 1910 10 4 cker
- 1921
: 1923 8 -1 with
: 1931 8 9  flo
: 1939 6 8 wers
: 1946 12 4  in
: 1959 18 6  my
* 1977 31 4  hair
- 2010
: 2034 6 -4 When
: 2040 7 -1  pop
: 2047 11 -1 stars
: 2058 8 -1  still
: 2066 5 -3  re
: 2071 8 -4 mained
: 2080 8 -1  a
: 2088 11 -1  myth,
- 2101
: 2104 8 -4 And
: 2112 7 -3  ig
: 2119 5 -4 no
: 2125 9 -3 rance
: 2134 6 -4  could
: 2142 9 -3  still
: 2152 7 -1  be
: 2160 11 4  bliss,
- 2172
: 2173 4 4 And
: 2177 5 4  when
: 2182 14 3  god
: 2198 11 3  save
: 2209 4 3  the
: 2213 12 4  queen
- 2226
: 2226 4 3 she
: 2230 14 1  turned
: 2245 8 -1  a
: 2253 10 1  whi
: 2263 3 1 ter
: 2267 10 1  shade
: 2277 7 -1  of
: 2284 18 -1  pale,
- 2304
: 2323 9 -1 My
: 2332 5 -1  mum
: 2337 4 -1  and
: 2341 9 -1  dad
: 2350 5 -3  were
: 2355 8 -4  in
: 2363 7 -1  their
: 2370 15 -1  teens,
- 2386
: 2387 8 -4 and
: 2395 5 -3  an
: 2400 6 -4 ar
: 2406 9 -3 chy
: 2418 9 -4  was
: 2427 7 -3  still
: 2434 6 -1  a
: 2440 16 4  dream,
- 2457
: 2458 3 4 And
: 2461 4 4  the
: 2466 8 3  on
: 2474 4 3 ly
: 2478 10 3  way
: 2488 3 3  to
: 2492 14 4  stay
: 2508 5 3  in
: 2513 10 1  touch
- 2525
: 2527 4 -1  was
: 2531 3 -1  a
: 2535 5 1  let
: 2540 10 1 ter
: 2554 8 1  in
: 2563 3 -1  the
: 2566 15 -1  mail,
- 2583
: 2592 6 4 Oh
: 2598 8 6  I
: 2607 6 6  wish
: 2614 11 8  I
: 2627 8 6  was
: 2635 5 6  a
: 2640 9 6  punk
: 2649 8 4  rock
: 2657 8 4 er
- 2667
: 2672 6 3 with
: 2679 8 4  flo
: 2687 5 3 wers
: 2693 11 1  in
: 2705 16 1  my
: 2722 14 -1  hair
- 2738
: 2743 4 -1 In
: 2747 6 6  se
: 2753 5 6 ven
: 2758 5 8 ty
: 2764 8 8  se
: 2772 4 6 ven
: 2777 4 6  and
: 2782 8 6  six
: 2790 8 4 ty
: 2799 12 6  nine
- 2812
: 2813 4 1 re
: 2817 4 1 vo
: 2821 5 -1 lu
: 2826 9 9 tion
: 2835 5 9  was
: 2840 7 8  in
: 2847 5 8  the
: 2854 7 9  a
: 2861 7 8 i
: 2868 7 6 r
- 2877
: 2881 5 4 I
: 2886 6 6  was
* 2892 16 8  born
: 2908 13 8  too
: 2921 17 6  late
- 2940
: 2950 3 4 in
: 2953 5 6 to
: 2959 3 6  a
: 2962 13 8  world
: 2975 5 8  that
: 2980 7 8  does
: 2987 7 4 n't
: 2994 7 4  ca
: 3001 11 1 re
- 3014
: 3016 9 4 oh
: 3025 8 6  I
: 3033 7 6  wish
: 3040 11 8  I
: 3051 10 6  was
: 3061 4 6  a
: 3065 9 6  punk
: 3074 8 4  ro
: 3082 13 4 cker
- 3096
: 3098 7 -1 with
: 3105 7 9  flo
: 3112 7 8 wers
: 3119 12 4  in
: 3132 16 6  my
* 3149 26 4  hair
- 3177
: 3203 9 -4 Some
: 3212 3 -1  re
: 3215 6 -1 cord
: 3221 14 -1  shops
- 3236
: 3237 6 -3 were
: 3243 8 -4  still
: 3251 7 -1  on
: 3258 14 -1  top,
- 3273
: 3274 8 -4 And
: 3282 9 -3  vi
: 3291 6 -4 nyl
: 3297 7 -3  was
: 3304 7 -4  all
: 3311 10 -3  that
: 3321 6 -1  they
: 3327 16 4  stocked,
- 3343
: 3343 4 4 and
: 3347 4 4  the
: 3351 5 3  su
: 3356 8 3 per
: 3365 11 3  in
: 3376 7 3 fo
: 3385 11 4  high
: 3396 6 3 way
- 3403
: 3403 9 1 was
: 3412 8 -1  still
: 3420 11 1  drif
: 3431 8 1 ting
: 3440 9 1  out
: 3449 3 -1  in
: 3453 17 -1  space,
- 3472
: 3493 7 -1 Kids
: 3500 6 -1  were
: 3506 10 -1  wea
: 3516 7 -3 ring
: 3523 9 -4  Hand
: 3533 5 -1  me
: 3539 14 -1  downs,
- 3555
: 3559 4 -4 And
: 3563 6 -3  pla
: 3569 5 -4 ying
: 3574 12 -3  games
: 3587 9 -4  meant
: 3597 5 -3  kick
: 3603 7 -1  a
: 3610 12 4 rounds,
- 3623
: 3624 6 4 And
: 3630 9 3  foot
: 3639 7 3 bal
: 3646 7 3 lers
: 3653 7 3  still
: 3661 14 4  had
: 3675 9 3  long
: 3684 11 1  hair
- 3696
: 3696 6 -1  and
: 3703 9 1  dirt
: 3712 4 1  a
: 3716 9 1 cross
: 3725 12 3  their
: 3737 13 -1  face,
- 3752
: 3756 9 4 Oh
: 3765 9 6  I
: 3774 5 6  wish
* 3780 11 8  I
: 3791 9 6  was
: 3800 5 6  a
: 3805 9 6  punk
: 3814 7 4  ro
: 3821 12 4 cker
- 3835
: 3837 7 3 with
: 3844 7 4  flo
: 3851 6 3 wers
: 3858 11 1  in
: 3870 16 1  my
: 3887 19 -1  hair
- 3907
: 3909 3 -1 In
: 3913 6 6  se
: 3919 5 6 ven
: 3924 4 8 ty
: 3929 9 8  se
: 3938 4 6 ven
: 3942 3 6  and
: 3946 8 6  six
: 3954 8 4 ty
: 3963 13 4  nine
- 3977
: 3977 4 1 re
: 3981 4 1 vo
: 3985 5 -1 lu
: 3990 9 9 tion
: 4000 4 9  was
: 4004 6 8  in
: 4012 3 8  the
: 4017 8 9  a
: 4025 8 8 i
: 4033 6 6 r
- 4041
: 4047 3 4 I
: 4051 5 6  was
* 4057 12 8  born
: 4071 14 8  too
: 4085 15 6  late
- 4102
: 4112 4 4 in
: 4116 5 6 to
: 4121 4 6  a
* 4125 14 8  world
: 4139 4 8  that
: 4143 8 8  does
: 4151 6 4 n't
: 4157 6 4  ca
: 4163 8 1 re
- 4173
: 4181 5 4 oh
: 4186 7 6  I
: 4194 5 6  wish
* 4200 11 8  I
: 4212 10 8  was
: 4222 4 6  a
: 4226 9 6  punk
: 4235 7 4  ro
: 4242 10 4 cker
- 4254
: 4259 5 -1 with
: 4264 8 9  flo
: 4272 6 8 wers
: 4281 9 4  in
: 4291 11 6  my
: 4302 13 4  hair
- 4316
: 4318 5 4 I
: 4323 9 6  was
* 4333 16 8  born
: 4350 12 8  too
: 4363 19 6  late
- 4384
: 4395 4 4  to
: 4399 4 6  a
: 4403 13 8  world
: 4416 5 8  that
: 4422 8 8  does
: 4430 6 4 n't
: 4436 11 4  ca
: 4447 29 1 re,
- 4478
: 4508 10 4 Oh
: 4518 10 6  I
: 4530 5 6  wish
* 4537 13 8  I
: 4552 10 6  was
: 4563 5 6  a
: 4568 10 6  punk
: 4578 10 4  ro
: 4588 17 4 cker
- 4607
: 4611 11 -1 with
: 4623 12 9  flo
: 4635 15 8 wers
: 4652 13 4  in
: 4665 24 6  my
* 4691 47 4  hair.
E