#TITLE:The  Best Side Of Life
#ARTIST:XMAS_Sarah Connor
#MP3:Dailymotion (1).mp3
#VIDEO:Dailymotion (1).mp4
#COVER:MQRjX.jpg
#BPM:182.28
#GAP:4353
#ENCODING:UTF8
#LANGUAGE:English
: 0 1 9 The
: 2 4 18  best
: 8 2 16  time
: 12 2 16  of
: 16 1 14  the
: 18 6 14  year
- 26
: 29 2 9 Is
: 33 5 14  cal
: 40 2 16 ling
: 44 4 18  me
: 50 8 14  home
- 61
: 64 1 9 The
: 66 4 18  best
: 72 2 16  time
: 76 2 16  of
: 80 1 14  the
: 82 6 14  year
- 90
: 92 1 9 And
: 94 2 9  I
: 98 4 14  won't
: 104 2 16  be
: 108 4 18  a
: 114 6 14 lone
- 123
: 128 1 9 The
: 130 4 19  best
: 136 2 18  time
: 140 2 18  of
: 144 1 16  the
: 146 6 16  year
- 155
: 158 2 11 I'll
: 162 4 16  share
: 168 2 18  it
: 172 4 19  with
: 178 6 16  you
- 186
: 188 1 19 When
: 190 2 19  I
: 194 4 19  look
: 200 2 18  in
: 204 1 16  your
: 206 10 16  eyes
- 219
: 222 2 11 All
: 226 2 19  my
: 230 2 18  dreams
: 234 2 16  will
: 238 6 19  come
: 246 2 19  true
: 250 4 21 ~
- 255
: 256 1 9 The
: 258 4 18  best
: 264 2 16  time
: 268 2 16  of
: 272 1 14  the
: 274 6 14  year
- 283
: 286 2 9 I
: 290 4 14  fol
: 296 2 16 low
: 300 1 16  my
: 302 2 18 ~
: 306 6 14  heart
- 314
: 318 1 9 Through
: 320 1 9  the
: 322 4 18  wind
: 328 2 16  and
: 332 1 14  the
: 334 6 14  rain
- 345
: 350 2 21 No
: 354 4 23  mat
: 360 2 21 ter
: 364 1 16  how
: 366 2 18 ~
: 370 1 16  far
: 372 6 14 ~
- 380
: 382 1 16 I
: 384 1 18  can
: 386 4 19  feel
: 392 4 19  all
: 398 2 19  the
: 402 4 18  ma
: 408 2 16 gic
: 412 4 14  to
: 418 2 18 ni
: 422 1 14 ~
* 424 2 16 ght
- 428
: 430 1 9 On
: 432 1 9  the
: 434 4 18  best
* 440 2 14  side
: 444 4 16  of
: 450 22 14  life
- 485
: 502 2 14 Your
: 506 2 14  lo
: 510 1 13 ving
: 512 4 14  ar
: 518 6 11 ms,
: 534 4 19  your
: 540 2 16  ten
: 544 1 14 der
: 546 4 14  smi
: 552 4 11 le
- 563
: 574 2 14 We
: 578 2 16  just
: 583 1 18  for
: 585 4 18 get
: 591 1 16  the
: 593 4 18  world
: 599 1 16  a
: 601 2 18 round
: 605 4 16  us
- 610
: 611 2 18 For
: 615 2 19  a
: 619 1 19  lit
: 621 2 18 tle
: 625 4 18  while
- 630
: 631 4 18 There's
: 637 2 16  on
: 641 1 14 ly
: 643 2 14  you
: 647 2 11 ~
: 660 4 21  and
: 666 4 18  me
: 672 1 14  to
: 675 6 14 night
- 687
: 702 1 9 I
: 704 1 9  can
: 706 2 11  feel
: 711 1 19  the
: 713 4 19  joy
: 719 1 19  and
: 721 4 19  hap
: 727 1 18 pi
: 729 4 18 ness
: 735 1 14  in
: 737 4 18 side
: 742 16 16 ~
- 761
: 767 2 9 Cause
: 771 2 18  you're
: 775 2 16 ~
: 779 2 16  with
: 783 2 14 ~
: 787 6 14  me
- 795
: 799 1 9 On
: 801 1 9  the
: 803 4 18  best
: 809 2 16  side
: 813 1 14  of
: 815 8 14  life
- 827
: 831 1 9 Is
: 833 1 9  whe
: 835 4 14 re
: 841 2 16 ver
: 845 4 18  you
: 851 8 14  are
- 861
: 863 1 9 On
: 865 1 9  the
* 867 4 18  best
: 873 2 16  side
: 877 1 14  of
: 879 8 14  life
- 889
: 893 1 9 You're
: 895 2 21  my
: 899 4 23  light,
: 905 2 21  you're
* 909 1 16  my
* 911 2 18 ~
: 915 1 16  star
: 917 6 14 ~
- 925
: 927 1 16 I
: 929 1 18  can
: 931 4 19  see
: 937 4 19  ou
: 943 2 19 r
: 947 4 18  fu
: 953 4 16 ture
: 958 4 14  so
: 963 1 18  bri
: 965 2 14 ~
: 968 4 16 ght
- 973
: 975 1 9 On
: 977 1 9  the
: 979 4 18  best
: 985 2 14  side
: 989 4 16  of
* 995 24 14  life
- 1027
: 1039 1 14 On
: 1041 1 14  the
* 1043 4 14  best
: 1049 2 16  side
: 1053 4 18  of
: 1059 30 21  life
- 1095
: 1103 1 14 On
: 1105 1 14  the
: 1107 4 14  best
: 1113 2 16  side
: 1117 4 18  of
: 1123 10 21  li
: 1135 1 23 ~
: 1137 16 21 fe
- 1159
: 1167 1 9 On
: 1169 1 9  the
* 1171 4 18  best
: 1177 6 14  side
- 1187
: 1191 1 14 I
: 1193 1 14  can
: 1195 2 14  feel
: 1199 1 14  it
: 1201 4 16  co
: 1207 6 18 ming,
: 1223 1 14  co
: 1225 1 11 ming
: 1227 2 14  o
: 1231 1 14 ver
: 1233 6 11  me
- 1247
: 1255 1 14 I
: 1257 1 14  can
: 1259 2 14  feel
: 1263 1 14  the
: 1265 4 16  love
: 1271 1 14  so
: 1273 4 16  deep
: 1279 1 14  and
: 1281 2 16  en
: 1285 2 18 dless
: 1289 12 18 ly,
- 1302
: 1303 2 18 Oh
: 1307 1 16 ~
: 1309 6 14 ~
- 1318
: 1320 2 14 It'll
: 1324 2 14  be
: 1328 1 14  fo
: 1330 4 16 re
: 1336 6 18 ver,
: 1352 2 14  it'll
: 1356 4 21  be
: 1362 4 21  al
: 1368 6 14 right
- 1375
: 1376 1 11 I
: 1378 1 11  can
: 1380 2 11  feel
: 1384 1 19  the
* 1386 4 19  joy
: 1392 1 19  and
: 1394 4 19  hap
: 1400 1 18 pi
: 1402 4 18 ness
: 1408 1 14  in
: 1410 4 18 side
: 1415 14 16 ~
- 1433
: 1440 2 9 Cause
: 1444 2 18  you're
: 1448 2 16 ~
: 1452 2 16  with
: 1456 2 14 ~
: 1460 10 14  me
: 1472 1 16  to
: 1474 16 14 night
- 1499
: 1536 1 9 On
: 1538 1 9  the
: 1540 4 18  best
: 1546 2 16  side
: 1550 1 14  of
: 1552 6 14  life
- 1563
: 1568 1 9 Is
: 1570 1 9  whe
: 1572 4 14 re
: 1578 2 16 ver
: 1582 4 18  you
* 1588 6 14  are
- 1597
: 1600 1 9 On
: 1602 1 9  the
: 1604 4 18  best
: 1610 2 18  side
: 1614 2 21  of
: 1619 1 16  life
: 1621 2 18 ~
- 1627
: 1631 1 9 You're
: 1633 1 21  my
: 1636 4 23  light,
: 1642 2 21  you're
: 1646 1 16  my
: 1648 2 18 ~
: 1652 1 16  star
: 1654 6 14 ~
- 1662
: 1664 1 16 I
: 1666 1 18  can
: 1668 4 19  see
: 1674 4 19  ou
: 1680 2 19 r
: 1684 4 18  fu
: 1690 2 16 ture
: 1694 4 14  so
: 1700 1 18  bri
: 1702 1 14 ~
: 1704 8 16 ght
- 1715
: 1720 2 14 Your
: 1724 2 14  lo
: 1728 1 13 ving
: 1730 4 14  ar
: 1736 6 11 ms,
- 1747
: 1750 6 21 your
: 1758 1 18  ten
: 1760 2 14 der
: 1764 2 14  smi
: 1768 2 16 ~
: 1772 4 18 le
- 1783
: 1792 2 14 We
: 1796 2 16  just
: 1800 1 18  for
: 1802 4 18 get
: 1808 1 16  the
: 1810 4 18  world
: 1816 1 16  a
: 1818 2 18 round
: 1822 4 16  us
- 1827
: 1828 2 18 For
: 1832 4 19  a
: 1838 1 19  lit
: 1840 2 18 tle
: 1844 2 18  while
- 1847
: 1848 4 21 There's
: 1854 1 18  on
: 1856 2 14 ly
: 1860 2 14  you
: 1864 4 11 ~
: 1880 2 21  and
: 1884 4 23  me
: 1890 1 14  to
: 1892 2 14 ni
: 1896 1 16 ght
: 1898 4 18 ~
- 1907
: 1921 1 9 I
: 1923 1 9  can
: 1925 2 11  feel
: 1929 1 19  the
: 1931 4 19  joy
: 1937 1 19  and
: 1939 4 19  hap
: 1945 1 18 pi
: 1947 4 18 ness
: 1953 1 14  in
: 1955 4 18 side
: 1961 18 16 ~
- 1981
: 1984 2 9 Cause
: 1988 8 18  you're
: 1998 2 19  with
: 2002 2 18 ~
: 2006 10 21  me
: 2018 4 23 ~
- 2027
: 2034 1 10 The
: 2036 4 19  best
: 2042 4 17  time
: 2048 1 17  of
: 2050 1 15  the
: 2052 8 15  year
- 2062
: 2064 2 9 I
: 2068 4 15  fol
: 2074 2 17 low
: 2078 4 19  my
: 2084 8 15  heart
- 2094
: 2096 1 9 Through
: 2098 1 9  the
: 2100 4 19  wind
: 2106 2 17  and
: 2110 1 15  the
: 2112 12 15  rain
- 2127
: 2129 2 22 No
: 2133 4 24  mat
: 2139 2 22 ter
: 2143 1 17  how
: 2145 2 19 ~
: 2149 1 17  far
: 2151 6 15 ~
- 2159
: 2160 1 17 I
: 2162 1 19  can
: 2164 4 20  see
: 2170 4 20  ou
: 2176 2 20 r
: 2180 4 19  fu
: 2186 2 17 ture
: 2190 6 15  so
: 2198 1 19  bri
: 2200 1 15 ~
: 2202 4 17 ght
- 2207
: 2208 1 19 On
: 2210 1 19  the
: 2212 4 22  best
: 2218 2 19  side
: 2222 4 20  of
: 2228 26 19  life
- 2263
: 2273 1 15 On
: 2275 1 15  the
: 2277 4 15  best
: 2283 2 17  side
: 2287 4 15  of
: 2293 36 19  life
- 2333
: 2337 1 15 On
: 2339 1 15  the
: 2341 4 15  best
: 2347 2 17  side
: 2351 4 19  of
: 2357 18 27  li
: 2377 2 24 ~
: 2381 2 22 fe
- 2384
: 2385 2 15 Cause
: 2389 2 20  you're
: 2393 2 19 ~
: 2397 2 19  with
: 2401 2 15 ~
: 2405 6 15  me
: 2417 2 12  to
: 2421 6 17 ni
: 2429 16 15 ~
: 2448 2 12 ~
: 2451 2 10 ~
: 2454 2 12 ~
: 2457 2 15 ght
- 2461
: 2465 1 9 On
: 2467 1 9  the
: 2469 4 19  best
: 2475 2 15  side
: 2479 4 17  of
: 2485 22 15  life
- 2510
: 2513 2 9 Cause
: 2517 2 17  you're
: 2521 2 19 ~
: 2525 2 17  with
: 2529 2 15 ~
: 2533 8 15  me
: 2545 2 17  to
: 2548 1 17 ni
: 2550 12 15 ght
E