#TITLE:Just One Last Dance
#ARTIST:Sarah Connor ft. Natural
#MP3:Sarah Connor ft. Natural - Just One Last Dance.mp3
#VIDEO:Sarah Connor ft. Natural - Just One Last Dance.avi
#COVER:Sarah Connor ft. Natural - Just One Last Dance[CO].jpg
#BPM:247,96
#GAP:1500
#ENCODING:UTF8
#LANGUAGE:English
: 38 10 14 Just
: 50 6 16  one
: 58 6 17  last
* 66 46 21  dance
- 116
: 122 2 21 Oh
: 126 2 17  ~
: 130 6 19  ba
: 138 12 21 by
- 156
: 166 10 14 Just
: 178 6 16  one
: 186 6 17  last
: 194 10 21  dan
: 206 2 22 ~
: 210 6 21 ~
: 218 2 19 ~
* 222 30 17 ce
- 256
: 262 16 24 Oh
: 280 2 19 ~
: 283 3 17 ~
: 287 1 19 ~
: 288 2 21 ~
: 290 28 19 ~
- 324
: 338 2 11 We
: 342 2 14  meet
: 346 2 14  in
: 350 2 11  the
: 354 6 14  night
: 362 2 14  in
: 366 2 11  the
: 370 6 14  Spa
: 378 2 14 nish
: 382 2 16  ca
: 386 10 13 fÄĹ 
- 398
: 402 2 9 I
: 406 2 13  look
: 410 2 13  in
: 414 2 9  your
* 418 6 13  eyes
- 425
: 426 2 13 just
: 430 2 9  don't
: 434 6 13  know
: 442 2 13  what
: 446 2 14  to
: 450 4 11  sa
: 456 2 9 ~
: 460 4 7 y
- 472
: 482 2 7 It
: 486 6 11  feels
: 494 2 11  like
: 498 2 11  I'm
: 502 2 11  drow
: 506 2 13 ning
: 510 2 11  in
: 514 10 10  sal
: 526 2 6 ty
: 530 6 4  wa
: 538 22 6 ter
- 568
: 594 2 11 A
: 598 2 14  few
: 602 2 14  hou
: 606 2 11 rs
: 610 6 14  left
: 618 2 14  'til
: 622 2 11  the
: 626 6 14  sun's
: 634 2 14  gon
: 638 2 16 na
: 642 10 13  rise
- 654
: 658 2 9 To
: 662 2 13 mor
: 666 2 13 row
: 670 2 9  will
: 674 6 13  come
- 681
: 682 1 13 an
: 684 1 13  it's
: 686 2 13  time
: 690 2 9  to
: 694 6 13  re
: 702 2 14 a
: 706 6 11 li
: 714 2 9 ~
: 718 8 7 ze
- 728
: 730 2 11 Ou
: 734 3 9 r
: 738 6 11  love
: 754 2 11  has
: 758 2 11  fi
: 762 2 13 nished
: 766 2 11  fo
: 770 6 10 re
: 778 38 18 ver
- 820
: 830 2 11 How
: 834 2 13  I
: 838 6 14  wish
: 846 2 13  to
: 850 6 11  come
: 858 2 13  with
: 862 18 14  you
- 888
: 894 2 13 How
: 898 2 14  I
: 902 6 16  wish
: 910 2 14  we
: 914 6 13  make
: 922 2 14  it
* 926 30 16  through
- 960
: 966 10 14 Just
: 978 6 16  one
: 986 6 17  last
: 994 22 21  dance
- 1020
: 1026 2 17 Be
: 1030 6 21 fore
: 1038 2 22  we
: 1042 10 19  say
: 1054 2 17  good
: 1058 20 19 bye
- 1082
: 1086 2 17 When
: 1090 2 19  we
* 1094 6 21  sway
: 1102 2 19  and
: 1106 10 17  turn
: 1118 2 16  and
: 1122 10 17  round
- 1133
: 1134 2 16 and
: 1138 10 17  round
: 1150 2 16  and
: 1154 10 17  round
- 1166
: 1170 2 19 It's
: 1174 6 14  like
: 1182 2 17  the
: 1186 2 17  first
: 1190 2 16 ~
: 1194 18 16  time
- 1216
: 1222 10 14 Just
: 1234 6 16  one
: 1242 6 17  more
: 1250 20 21  chance
- 1272
: 1278 2 17 Hold
: 1282 2 19  me
: 1286 6 21  tight
: 1294 2 22  and
: 1298 10 19  keep
: 1310 2 17  me
: 1314 20 19  warm
- 1336
: 1342 2 17 Cause
: 1346 2 19  the
: 1350 6 21  night
: 1358 2 21  is
: 1362 10 24  get
: 1374 2 24 ting
: 1378 10 26  cold
- 1389
: 1390 2 24 And
* 1394 8 21  I
: 1410 2 17  don't
: 1414 6 19  know
: 1422 2 21  where
* 1426 4 19  I
: 1432 4 17 ~
: 1438 2 17  be
: 1442 2 17 long
: 1446 20 16 ~
- 1472
: 1478 10 21 Just
: 1490 6 19  one
: 1498 6 17  last
: 1506 10 16  dan
: 1518 2 17 ~
: 1522 44 14 ce
- 1576
: 1650 2 11 The
: 1654 2 14  wine
: 1658 2 14  and
: 1662 2 11  the
: 1666 6 14  lights
- 1673
: 1674 2 14 and
: 1678 2 11  the
: 1682 6 14  Spa
: 1690 2 14 nish
: 1694 2 16  gui
: 1698 8 13 tar
- 1710
: 1714 2 9 I'll
: 1718 2 13  ne
: 1722 2 13 ver
: 1726 2 9  for
: 1730 6 13 get
: 1738 2 13  how
: 1742 2 9  ro
: 1746 6 13 man
: 1754 2 14 tic
: 1758 2 14  they
: 1762 4 11  a
: 1768 2 9 ~
: 1772 4 7 re
- 1780
: 1786 2 11 But
: 1790 2 9  I
: 1794 8 11  know,
- 1806
: 1810 2 11 to
: 1814 2 11 mor
: 1818 2 13 row
: 1822 2 14  I'll
* 1826 10 18  lose
: 1838 2 16  the
: 1842 6 16  one
: 1850 6 14  I
: 1858 16 18  love
- 1878
: 1886 2 11 There's
: 1890 2 13  no
: 1894 6 14  way
: 1902 2 13  to
: 1906 6 11  come
: 1914 2 13  with
: 1918 13 14  you
- 1940
: 1950 2 13 It's
: 1954 2 14  the
: 1958 6 16  on
: 1966 2 14 ly
: 1970 6 13  thing
: 1978 2 14  to
: 1982 22 16  do
- 2008
: 2018 1 13 Oh
: 2020 1 14 ~
: 2022 6 18 ~
: 2030 10 16 ~
- 2044
: 2054 10 14 Just
: 2066 6 16  one
: 2074 6 17  last
: 2082 22 21  dance
- 2108
: 2114 2 17 Be
* 2118 6 21 fore
: 2126 2 22  we
: 2130 10 19  say
: 2142 2 17  good
: 2146 20 19 bye
- 2168
: 2174 2 17 When
: 2178 2 19  we
: 2182 6 21  sway
: 2190 2 19  and
: 2194 10 17  turn
: 2206 2 16  and
: 2210 10 17  round
- 2221
: 2222 2 16 and
: 2226 10 17  round
: 2238 2 16  and
: 2242 4 17  round
: 2247 2 16 ~
: 2250 2 14 ~
- 2256
: 2258 2 19 It's
* 2262 6 14  like
: 2270 2 17  the
: 2274 2 17  first
: 2278 2 16 ~
: 2282 18 16  time
- 2304
: 2310 10 14 Just
: 2322 6 16  one
: 2330 6 17  more
: 2338 22 21  chance
- 2363
: 2366 2 17 Hold
: 2370 2 19  me
: 2374 6 21  tight
: 2382 2 22  and
: 2386 10 19  keep
: 2398 2 17  me
: 2402 20 19  warm
- 2424
: 2430 2 17 Cause
: 2434 2 17  the
: 2438 6 26  night
: 2446 2 24  is
: 2450 10 21  get
: 2462 2 24 ting
: 2466 2 19  cold
: 2470 2 17 ~
: 2474 2 14 ~
: 2478 2 17 ~
- 2481
: 2482 2 19 And
: 2486 6 21  I
: 2498 2 17  don't
: 2502 6 19  know
: 2510 2 21  where
: 2514 4 19  I
: 2520 4 17  ~
: 2526 2 17  be
: 2530 2 17 long
: 2534 18 16 ~
- 2560
: 2566 10 21 Just
: 2578 6 19  one
: 2586 6 17  last
: 2594 10 16  dan
: 2606 2 17 ~
: 2610 14 14 ~
: 2626 1 16 ~
: 2628 2 17 ~
: 2631 16 16 ~
: 2658 4 14 ~
: 2663 2 13 ~
: 2667 16 13 ce
- 2688
: 2694 10 18 Just
: 2706 6 20  one
: 2714 6 21  last
: 2722 24 25  dance
- 2748
: 2754 2 21 Be
: 2758 6 25 fore
: 2766 2 26  we
: 2770 10 23  say
: 2782 2 21  good
: 2786 20 23 bye
- 2808
: 2814 2 21 When
: 2818 2 23  we
: 2822 6 25  sway
: 2830 2 23  and
* 2834 10 21  turn
: 2846 2 20  and
: 2850 10 21  round
- 2861
: 2862 2 20 and
: 2866 10 21  round
: 2878 2 20  and
: 2882 10 21  round
- 2895
: 2898 2 23 It's
: 2902 6 18  like
: 2910 2 21  the
: 2914 2 21  first
: 2918 2 20 ~
: 2922 18 20  time
- 2944
: 2950 10 18 Just
: 2962 6 20  one
: 2970 6 21  more
: 2978 22 25  chance
- 3002
: 3006 2 21 Hold
: 3010 2 23  me
: 3014 6 25  tight
: 3022 2 26  and
: 3026 10 23  keep
: 3038 2 21  me
: 3042 22 23  warm
- 3066
: 3070 2 21 Cause
: 3074 2 23  the
: 3078 6 25  night
: 3086 2 23  is
: 3090 10 23  get
: 3102 2 21 ting
: 3106 2 21  cold
: 3110 2 21 ~
: 3114 2 18 ~
: 3118 2 21 ~
- 3121
: 3122 2 23 And
: 3126 6 25  I
: 3138 2 21  don't
: 3142 6 23  know
: 3150 2 25  where
: 3154 2 23  I
: 3158 6 21 ~
- 3165
: 3166 2 21 be
: 3170 60 25 lo
: 3234 1 23 ~
: 3236 1 21 ~
: 3238 4 25 ~
* 3244 18 25 ~
: 3264 1 23 ~
: 3266 1 21 ~
: 3268 1 23 ~
: 3270 24 21 ~
: 3295 2 21 ~
: 3299 2 21 ~
: 3303 15 20 ~
: 3320 2 19 ~
: 3324 4 17 ~
: 3330 6 19 long
- 3352
: 3370 6 25 When
: 3378 2 23  we
: 3382 6 21  sway
: 3390 4 18  and
: 3402 6 25  turn
: 3410 2 23  and
: 3414 6 21  round
: 3422 4 18  and
- 3432
: 3434 6 18 Hold
: 3442 2 20  me
: 3446 8 20  tight
- 3456
: 3458 2 20 Come
: 3462 8 25  on
: 3472 4 23 ~
: 3478 6 23  my
: 3486 14 23  lo
: 3502 48 21 ~
: 3552 1 20 ~
: 3554 4 18 ~
: 3560 2 21 ~
: 3564 16 20 ve
- 3596
: 3606 2 16 Night
: 3610 2 18  is
: 3614 2 21  get
: 3618 2 23 ting
: 3622 6 25  cold
: 3630 2 23  and
: 3634 2 21  I
: 3638 16 18 ~
- 3656
: 3658 8 21 Oh
- 3676
: 3682 2 18 Don't
: 3686 6 18  know
: 3694 2 13  where
: 3698 2 16  I
: 3702 2 18  be
: 3706 10 21 long
- 3717
: 3718 10 25 Just
: 3730 6 23  one
: 3738 6 21  last
: 3746 10 20  dan
: 3758 2 21 ~
: 3762 32 18 ce
- 3796
: 3798 10 13 Just
: 3810 6 16  one
: 3818 6 14  last
* 3826 6 13  dan
: 3834 1 14 ce,
: 3836 4 11  ~
- 3841
: 3842 2 13 I'm
: 3846 6 25  just
: 3854 2 23 ~
: 3858 6 23  one
: 3866 6 21  more
: 3874 10 20  chan
: 3886 2 21 ~
: 3890 14 18 ~
: 3906 1 20 ~
: 3908 1 21 ~
: 3910 14 20 ce,
- 3925
: 3926 10 13 just
* 3938 6 16  one
: 3946 8 18  more
: 3956 4 13  chance
: 3961 1 11 ~
: 3963 2 9 ~
- 3968
: 3970 2 21 I'm
: 3974 2 28  just
: 3978 6 30 ~
: 3986 2 25  one
: 3990 2 23 ~
* 3994 18 21  last
: 4034 6 20  dan
: 4042 2 21 ~
: 4046 68 18 ce
E