#TITLE:One (Always Hardcore)
#ARTIST:Scooter
#LANGUAGE:Englisch
#EDITION:UltraStar Charts Vol. 2
#GENRE:Techno
#MP3:Scooter - One (Always Hardcore).mp3
#COVER:Scooter - One (Always Hardcore) [CO].jpg
#BACKGROUND:Scooter - One (Always Hardcore) [BG].jpg
#VIDEO:Scooter - One (Always Hardcore) [VD#0].mp4
#BPM:288
#GAP:21200
: 0 3 1 I
: 4 3 1  am
: 8 3 1  the
: 12 7 1  horse
: 20 8 1 man
- 46
: 88 3 1 I'm
: 92 3 1  men
: 96 3 1 tal
: 100 3 1 ly
: 104 12 1  mad
- 122
: 148 3 1 I'm
: 152 3 1  a
: 156 3 1  su
: 160 3 1 per
: 164 4 1  sharp
: 172 3 1  shoo
: 176 8 1 ter
- 190
: 220 3 1 sit
: 224 3 1 ting
: 228 3 1  on
: 232 3 1  a
: 236 4 1  roof
: 244 4 1  top
- 255
: 281 2 1 My
: 284 4 1  name
: 288 3 1  is
: 292 3 1  M
: 296 3 1 C
: 300 12 1  H
- 312
: 312 2 1 I
: 316 2 1  got
: 320 2 1  the
: 324 4 1  big
: 332 8 1  breaks
- 340
: 340 2 1 and
: 344 2 1  the
: 348 8 1  bass
- 360
: 364 4 1 one
: 372 4 1  two
: 380 8 1  check
- 388
: 388 2 1 it's
: 392 2 1  a
: 396 4 1  mix
: 404 4 1 ture
- 410
: 412 2 1 ruff
: 420 2 1  to
: 424 2 1  the
: 428 8 1  core
- 440
: 444 2 1 through
: 448 2 1  the
: 452 2 1  tex
: 460 8 1 ture
- 472
: 476 3 1 come
: 480 2 1  and
: 484 2 1  get
: 488 2 1  a
: 492 8 1  taste
- 500
: 500 3 1 of
: 505 2 1  the
: 509 2 1  fix
: 517 8 1 ture
- 527
F 532 8 1 Yeah!
- 545
: 708 8 1 Ye
: 716 8 1 ~
: 724 8 1 ~
: 732 8 -1 ah 
* 762 17 2 Ye
* 780 12 4 ah
- 792
: 796 8 1 I
: 804 8 -1  feel
: 812 8 -1  hard
: 820 8 -3 core
- 832
: 836 8 1 Ye
: 844 8 1 ~
: 852 8 1 ~
: 860 8 -1 ah
: 868 8 -6 ~ 
* 888 18 2 Ye
* 907 13 4 ah
- 922
: 924 8 1 Al
: 932 8 -1 ways
: 940 8 -1  hard
: 948 8 -3 core
- 962
: 964 8 1 Ye
: 972 8 1 ~
: 980 8 1 ~
: 988 8 -1 ah 
* 1020 15 2 Ye
* 1036 16 4 ah
- 1052
: 1052 8 1 I
: 1060 8 -1  feel
: 1068 8 -1  hard
: 1076 8 -3 core
- 1088
: 1092 8 1 Ye
: 1100 8 1 ~
: 1108 8 1 ~
: 1116 8 -1 ah
: 1124 8 -6 ~ 
* 1148 16 2 Ye
* 1164 16 4 ah
- 1180
: 1180 8 1 Al
: 1188 8 -1 ways
: 1196 8 -1  hard
: 1204 8 -3 core
- 1216
: 1220 8 1 Ye
: 1228 8 1 ~
: 1236 8 1 ~
: 1244 8 -1 ah 
* 1276 16 2 Ye
* 1292 16 4 ah
- 1308
: 1308 8 1 I
: 1316 8 -1  feel
: 1324 8 -1  hard
: 1332 8 -3 core
- 1344
: 1348 8 1 Ye
: 1356 8 1 ~
: 1364 8 1 ~
: 1372 8 -1 ah
: 1380 8 -6 ~ 
: 1404 16 2 Ye
: 1420 16 4 ah
- 1436
: 1436 8 1 Al
: 1444 8 -1 ways
: 1452 8 -1  hard
: 1460 8 -3 core.. 
F 1471 4 1 come 
F 1475 11 -1 on!
- 1500
: 1764 2 1 Want
: 1768 2 1  a
: 1772 2 1  ly
: 1776 2 1 ri
: 1780 2 1 cal
: 1788 8 1  sex 
- 1824
: 1824 7 1 Ice
: 1832 2 1  the
: 1836 2 1  pla
: 1840 2 1 ti
: 1844 3 1 num
: 1852 8 1  tech
- 1892
: 1892 2 1 with
: 1896 2 1  a
: 1900 2 1  mi
: 1904 2 1 nute
: 1908 2 1  in
: 1912 2 1  the
: 1916 8 1  game
- 1956
: 1956 2 1 when
: 1960 2 1  dis
: 1964 2 1 co
: 1968 2 1 ver
: 1972 2 1  my
: 1980 8 1  necks
- 2000
: 2000 2 1 you
: 2004 2 1  don't
: 2012 8 1  fret
- 2029
: 2045 2 1 Me
: 2048 2 1  and
: 2051 2 1  my
: 2055 8 1  crew
- 2061
: 2063 4 1 we
: 2069 4 1  are
: 2077 4 1  too
: 2087 4 1  H.
: 2094 4 1 O.
: 2101 4 1 T.
- 2106
: 2108 4 1  a
: 2112 3 1 ny
: 2116 3 1  crew
: 2120 4 1  out
: 2128 8 1  there
- 2136
: 2136 2 1  or
: 2140 2 1  a
: 2144 2 1 ny
: 2148 4 1  M.
: 2156 8 1 C.
- 2168
: 2172 2 1 rip
: 2176 2 1 pin
: 2180 2 1  up
: 2184 2 1  the
: 2188 4 1  B
- 2192
: 2192 3 1 you
: 2196 3 1  want
: 2200 4 1  H.
: 2208 4 1 A.
: 2216 4 1 T.
: 2220 8 1 E.
- 2232
: 2236 2 1 jea
: 2240 2 1 lou
: 2244 2 1 sy
: 2248 2 1  won't
: 2252 2 1  get
: 2256 2 1  you
: 2260 2 1  no
: 2264 8 1 where
- 2272
: 2272 2 1 I'm
: 2276 4 1  H.
: 2284 8 1 P.
: 2292 8 1  Yeah
- 2304
: 2308 8 1 Ye
: 2316 8 1 ~
: 2324 8 1 ~
: 2332 8 -1 ah 
* 2360 22 2 Ye
* 2382 14 4 ah
- 2396
: 2396 7 1 I
: 2404 8 -1  feel
: 2413 6 -1  hard
: 2420 8 -3 core
- 2430
: 2434 8 1 Ye
: 2442 8 1 ~
: 2450 8 1 ~
: 2458 8 -1 ah
: 2466 8 -6 ~ 
* 2490 16 2 Ye
* 2506 16 4 ah
- 2521
: 2523 8 1 Al
: 2531 9 -1 ways
: 2540 8 -1  hard
: 2548 8 -3 core
- 2561
: 2563 8 1 Ye
: 2571 8 1 ~
: 2579 8 1 ~
: 2587 8 -1 ah 
* 2619 16 2 Ye
* 2635 16 4 ah
- 2651
: 2651 8 1 I
: 2659 8 -1  feel
: 2667 8 -1  hard
: 2675 8 -3 core
- 2687
: 2691 8 1 Ye
: 2699 8 1 ~
: 2707 8 1 ~
: 2715 8 -1 ah
: 2723 8 -6 ~ 
* 2747 16 2 Ye
* 2763 16 4 ah
- 2779
: 2779 8 1 Al
: 2787 8 -1 ways
: 2795 8 -1  hard
: 2803 8 -3 core
- 2807
F 2811 8 1 Ye
F 2819 5 1 ~
F 2825 10 1 ~ah
- 2845
: 3111 4 1 Al
: 3116 8 1 right 
: 3137 6 1 one
: 3145 7 1  world
- 3171
: 3171 4 1  one
: 3179 6 1  peo
: 3187 8 1 ple
- 3207
: 3207 4 1 In 
: 3212 5 1 the 
: 3218 5 1 con
: 3224 13 1 ference
- 3247
: 3247 4 1 M 
: 3252 5 1 C 
: 3262 5 1  M.
: 3269 6 1 C.
- 3276
: 3276 5 1 no 
: 3282 4 1 dig
: 3286 2 1 gi
: 3288 4 1 ty 
: 3296 15 1 H
- 3331
: 3331 8 1 Ye
: 3339 8 1 ~
: 3347 8 1 ~
: 3355 8 -1 ah 
* 3387 16 2 Ye
* 3403 16 4 ah
- 3417
: 3419 8 1 I
: 3427 8 -1  feel
: 3435 8 -1  hard
: 3443 8 -3 core
- 3457
: 3459 8 1 Ye
: 3467 8 1 ~
: 3475 8 1 ~
: 3483 8 -1 ah
: 3491 8 -6 ~ 
* 3515 16 2 Ye
* 3531 16 4 ah
- 3547
: 3547 8 1 Al
: 3555 8 -1 ways
: 3563 8 -1  hard
: 3571 8 -3 core
- 3583
: 3587 8 1 Ye
: 3595 8 1 ~
: 3603 8 1 ~
: 3611 8 -1 ah 
* 3643 16 2 Ye
* 3659 16 4 ah
- 3675
: 3675 8 1 I
: 3683 8 -1  feel
: 3691 8 -1  hard
: 3699 8 -3 core
- 3711
: 3715 8 1 Ye
: 3723 8 1 ~
: 3731 8 1 ~
: 3739 8 -1 ah
: 3747 8 -6 ~ 
* 3771 16 2 Ye
* 3787 16 4 ah
- 3803
: 3803 8 1 Al
: 3811 8 -1 ways
: 3819 8 -1  hard
: 3827 8 -3 core
- 3839
: 3843 8 1 Ye
: 3851 8 1 ~
: 3859 8 1 ~
: 3867 12 -1 ah 
E
