#TITLE:Ti Sento
#ARTIST:Scooter
#GENRE:Techno
#LANGUAGE:English
#MP3:Scooter - Ti Sento.mp3
#COVER:Scooter - Ti Sento.jpg
#VIDEO:Scooter - Ti Sento.mp4
#BPM:300
#GAP:1500
: 6 4 0 Twenty 
: 15 4 0 four 
: 23 6 0 hours 
: 31 2 0 a 
: 37 8 0 day
- 72
: 82 4 0 Twelve 
: 90 4 0 months 
: 98 2 0 a 
: 102 8 0 year
- 134
: 144 4 0 It's 
: 149 4 0 all 
: 156 1 0 a
: 158 4 0 bout 
: 166 3 0 the 
: 170 8 0 sound
- 204
: 214 4 0 You're 
: 222 2 0 a
: 226 4 0 bout 
: 234 2 0 to 
: 238 8 0 hear
- 256
: 266 3 0 That 
: 270 3 0 was 
: 274 4 0 style 
: 282 4 0 from 
: 292 2 0 up 
: 296 2 0 a
: 300 10 0 bove
- 331
: 341 5 0 Out 
: 348 2 0 of 
: 351 3 0 the 
: 356 4 0 spea
: 360 4 0 ker
- 371
: 375 7 0 Fits 
: 385 3 0 like 
: 389 1 0 a 
: 393 8 0 glove
- 414
: 418 3 0 In 
: 422 3 0 an 
: 426 3 0 Emm
: 430 1 0 y 
: 434 6 0 con
: 442 14 0 test
- 461
: 469 3 0 Got 
: 473 2 0 the 
: 477 10 0 tune
- 497
: 507 3 0 That's 
: 511 3 0 com
: 515 2 0 ing 
: 519 4 0 up 
: 527 12 0 next
- 540
: 541 3 0 When 
: 545 2 0 e
: 549 3 0 very
: 553 2 0 bo
: 557 3 0 dy's 
: 561 3 0 run
: 565 3 0 ning 
: 570 3 0 for 
: 574 3 0 the 
: 578 6 0 test
- 585
: 586 5 0 Re
: 593 8 1 fresh 
: 603 2 0 for 
: 607 4 0 the 
: 612 3 0 mo
: 616 4 0 ney
- 621
: 622 4 1 ching 
: 628 4 1 ching
- 633
: 635 3 0 All 
: 640 3 0 the 
: 645 8 0 girls
- 654
: 655 4 0 bling 
: 662 4 0 bling
- 670
: 672 4 0 We're 
: 678 6 0 live 
: 686 2 0 on 
: 690 2 0 a 
: 694 6 1 set
- 701
: 702 4 0 Make 
: 708 3 0 you 
: 712 4 1 sweat
- 717
: 718 4 0 And 
: 724 3 0 ef
: 728 10 0 fect
- 739
: 740 3 0 My 
: 745 6 0 lungs 
: 754 3 0 can't 
: 758 2 0 be 
: 762 10 0 killed
- 774
: 775 3 0 The 
: 779 3 1 sty
: 783 4 0 les 
: 788 3 0 that 
: 792 1 0 I 
: 797 6 0 built
- 803
: 804 4 0 Ye
: 808 4 0 ah!
- 830
: 916 4 0 Al
: 922 14 0 right!
- 974
: 984 4 7 La 
: 990 4 7 pa
: 996 4 7 ro
: 1002 4 7 la 
: 1008 8 10 non 
* 1018 20 12 è
- 1042
: 1052 4 9 Né 
: 1058 4 10 sa
: 1064 4 10 po
: 1070 4 10 re
- 1075
: 1076 3 8 né 
: 1080 1 8 i
: 1082 4 8 de
: 1090 10 8 a
- 1108
: 1118 4 7 Ma 
: 1124 4 7 due 
: 1130 4 7 oc
: 1136 4 9 chi 
: 1142 4 7 mo
: 1148 4 9 ne
* 1156 16 12 lli
- 1176
: 1186 4 6 Pe
: 1192 3 6 ta
: 1196 5 6 li 
: 1204 3 6 d'
: 1208 3 6 or
: 1212 3 7 chi
: 1216 5 6 de
: 1225 9 6 a
- 1242
: 1252 20 10 Se 
: 1279 8 7 no
: 1289 20 9 na
- 1316
: 1320 6 9 O~
: 1326 6 10 o~
: 1332 6 11 o~
: 1338 6 12 o~
: 1344 6 13 o~
* 1350 20 15 o~o~h
- 1381
: 1391 20 11 vi~
: 1413 2 11 ve 
: 1417 2 11 e 
: 1421 20 7 mo~
- 1446
: 1456 6 8 O~
: 1462 6 9 o~
: 1468 6 10 o~
: 1474 6 11 o~
: 1480 6 12 o~
: 1486 6 13 o~
* 1492 20 15 o~o~h
- 1513
: 1514 4 0 Get 
: 1520 6 0 up!
- 1528
: 1530 12 1 Yes!
- 1543
: 1544 4 13 Ti 
: 1550 8 11 sen
: 1560 8 10 to
- 1569
: 1570 8 10 La 
: 1584 4 9 mu
: 1590 4 9 si
: 1596 4 9 ca 
: 1602 4 9 si 
: 1608 6 9 muove 
: 1615 4 10 a
: 1620 6 9 ppen
: 1627 7 11 a
- 1634
: 1635 8 10 Ma 
: 1646 2 9 è 
: 1652 3 9 un 
: 1656 4 9 mon
: 1661 3 9 do 
: 1666 3 10 che 
: 1671 2 9 mi 
: 1675 6 9 sco
: 1682 5 10 ppia 
: 1691 7 9 den
: 1700 16 8 tro
- 1717
: 1722 4 0 Ye
: 1728 4 0 ah!
- 1739
: 1745 4 13 Ti 
: 1752 8 11 sen
: 1761 8 10 to
- 1770
: 1776 4 11 Un 
: 1786 3 10 bri
: 1792 3 11 vi
: 1796 3 10 do 
: 1800 3 10 lun
: 1804 4 10 go 
: 1811 3 10 la 
: 1818 4 10 schi
: 1823 12 11 ena
- 1840
: 1844 4 10 Un 
: 1853 4 10 col
: 1859 4 10 po 
: 1866 4 10 che 
: 1872 2 10 fa 
: 1878 5 10 pie
: 1884 2 9 no 
: 1892 7 10 cent
: 1900 12 9 ro
- 1914
: 1916 4 0 Come 
: 1922 8 0 on!
- 1934
: 1938 4 9 Mi 
: 1944 4 9 ami 
: 1950 2 11 o 
* 1956 24 14 no?
- 1994
: 2004 4 9 Mi 
: 2010 4 9 ami 
: 2016 4 11 o 
* 2022 24 14 no?
- 2060
: 2070 4 9 Mi 
: 2076 4 9 ami 
: 2082 4 12 o 
* 2090 40 16 no..?
- 2145
: 2155 4 0 Twenty 
: 2164 4 0 four 
: 2172 6 0 hours 
: 2180 2 0 a 
: 2185 8 0 day
- 2195
: 2197 4 0 Twelve 
: 2205 4 0 months 
: 2213 2 0 a 
: 2217 6 0 year
- 2224
: 2225 4 0 It's 
: 2231 4 0 all 
: 2237 1 0 a
: 2239 4 0 bout 
: 2247 3 0 the 
: 2251 8 0 sound
- 2262
: 2265 4 0 You're 
: 2271 2 0 a
: 2274 5 0 bout 
: 2281 2 0 to 
: 2285 7 0 hear
- 2296
: 2297 6 0 Right 
: 2306 3 0 out 
: 2313 3 0 the 
: 2318 4 0 spe
: 2323 7 0 aker
- 2332
: 2334 5 0 Sound's 
: 2341 3 0 cry
: 2345 4 0 stal 
: 2352 8 0 clear
- 2362
: 2363 6 0 Wrong 
: 2371 5 0 side 
: 2378 2 0 of 
: 2381 2 0 the 
: 2386 6 0 Mic
- 2395
: 2399 3 0 I 
: 2406 5 0 show 
: 2412 3 0 no 
: 2420 10 0 fear
- 2454
: 2464 6 8 O~
: 2470 6 9 o~
: 2476 6 10 o~
: 2482 6 11 o~
: 2488 6 12 o~
* 2494 20 15 o~o~h
- 2523
: 2533 20 12 vi~
: 2555 2 12 ve 
: 2559 2 10 e 
: 2563 20 7 mo~.
- 2592
: 2602 6 8 O~
: 2608 6 9 o~
: 2614 6 10 o~
: 2620 6 11 o~
: 2626 6 12 o~
: 2632 6 13 o~
* 2638 20 15 o~o~h
- 2660
: 2662 4 0 Al
: 2668 12 0 right!
- 2682
: 2685 4 13 Ti 
: 2691 8 11 sen
: 2701 8 10 to
- 2711
: 2713 8 10 La 
: 2727 4 10 mu
: 2733 4 10 si
: 2739 4 11 ca 
: 2745 4 11 si 
: 2751 6 11 muove 
: 2758 3 11 a
: 2762 7 10 ppen
: 2770 7 11 a
- 2774
: 2776 8 10 Ma 
: 2787 2 9 è 
: 2792 2 10 un 
: 2797 3 10 mon
: 2801 3 10 do 
: 2807 3 10 che 
: 2812 2 10 mi 
: 2816 6 10 sco
: 2823 5 10 ppia 
: 2832 7 10 den
: 2841 16 9 tro
- 2858
: 2861 3 0 Keep 
: 2865 2 0 it 
: 2868 3 0 up 
: 2873 6 0 now!
- 2882
: 2885 4 13 Ti 
: 2893 8 11 sen
: 2903 8 10 to
- 2915
: 2919 4 10 Un 
: 2929 3 10 bri
: 2934 3 11 vi
: 2939 3 10 do 
: 2944 4 11 lun
: 2950 2 11 go 
: 2956 2 11 la 
: 2960 6 11 schi
: 2968 12 10 ena
- 2982
: 2985 4 10 Un 
: 2994 4 10 col
: 3002 4 9 po 
: 3007 4 9 che 
: 3013 2 9 fa 
: 3018 5 9 pie
: 3024 2 8 no 
: 3033 8 10 cent
: 3041 12 9 ro
- 3055
: 3058 4 1 Ra
: 3063 4 1 ga
: 3069 7 2 zzi!
- 3077
: 3078 4 8 Mi 
: 3084 4 8 ami 
: 3090 2 10 o 
* 3096 24 14 no?
- 3137
: 3147 4 8 Mi 
: 3153 4 8 ami 
: 3159 4 10 o 
* 3165 24 14 no?
- 3204
: 3214 4 8 Mi 
: 3220 4 8 ami 
: 3226 4 11 o 
* 3234 40 16 no..?
- 3276
: 3280 3 1 Rock 
: 3284 3 1 the 
: 3288 3 2 dis
: 3292 5 1 co!
- 3417
: 3427 8 0 Twenty 
: 3438 4 0 four 
: 3446 6 0 hours 
: 3454 2 0 a 
: 3459 8 0 day
- 3496
: 3506 4 0 Twelve 
: 3514 4 0 months 
: 3522 2 0 a 
: 3526 8 0 year
- 3558
: 3568 4 0 It's 
: 3574 2 0 all 
: 3579 2 0 a
: 3582 4 0 bout 
: 3589 4 0 the 
: 3594 8 0 sound
- 3627
: 3637 4 0 You're 
: 3645 2 0 a
: 3649 4 0 bout 
: 3657 2 0 to 
: 3661 7 0 hear
- 3669
: 3670 18 11 Se 
: 3695 8 7 no
: 3705 20 9 na
- 3732
: 3738 6 9 O~
: 3744 6 10 o~
: 3750 6 11 o~
: 3756 6 12 o~
: 3762 6 13 o~
* 3768 20 14 o~o~h
- 3798
: 3808 20 12 vi~
: 3830 2 12 ve 
: 3834 2 9 e 
: 3838 20 7 mo~
- 3866
: 3876 6 8 O~
: 3882 6 9 o~
: 3888 6 10 o~
: 3894 6 11 o~
: 3900 6 12 o~
: 3906 6 13 o~
* 3912 20 14 o~o~h
- 3952
: 3962 4 13 Ti 
: 3968 8 11 sen
: 3977 8 10 to
- 3986
: 3987 8 10 La 
: 4001 4 9 mu
: 4007 4 10 si
: 4013 4 10 ca 
: 4019 4 10 si 
: 4025 6 9 muove 
: 4033 3 10 a
: 4037 7 9 ppen
: 4044 7 10 a
- 4047
: 4052 8 10 Ma 
: 4063 2 10 è 
: 4069 3 10 un 
: 4073 4 9 mon
: 4078 3 9 do 
: 4083 3 9 che 
: 4088 2 9 mi 
: 4092 6 9 sco
: 4099 5 10 ppia 
: 4108 7 9 den
: 4117 16 8 tro
- 4134
: 4139 4 0 Al 
: 4145 5 0 right 
: 4151 6 0 now!
- 4159
: 4162 4 12 Ti 
: 4169 8 10 sen
: 4178 8 9 to
- 4189
: 4194 4 10 Un 
: 4204 3 10 bri
: 4209 3 10 vi
: 4214 3 9 do 
: 4219 4 9 lun
: 4225 2 8 go 
: 4231 2 10 la 
: 4236 6 10 schi
: 4243 12 9 ena
- 4258
: 4262 4 10 Un 
: 4271 4 10 col
: 4277 4 9 po 
: 4284 4 10 che 
: 4290 2 9 fa 
: 4295 5 10 pie
: 4301 2 9 no 
: 4310 7 10 cent
: 4318 12 8 ro
- 4332
: 4335 3 1 Ya
: 4338 13 4 aah!
- 4347
: 4348 10 12 vi~
: 4361 2 12 ve 
: 4367 2 10 e 
: 4375 20 12 mo~
- 4401
: 4411 12 12 vi~
: 4426 2 12 ve 
: 4434 2 9 e 
: 4441 20 12 mo~
- 4469
: 4479 12 13 vi~
: 4494 2 13 ve 
: 4502 2 10 e 
* 4509 40 13 mo~ 
E
