#TITLE:Beautiful Girls
#ARTIST:Sean Kingston
#MP3:Sean Kingston - Beautiful Girls.mp3
#VIDEO:Sean Kingston - Beautiful Girls [VD#0].avi
#COVER:Sean Kingston - Beautiful Girls [CO].jpg
#BPM:259,78
#GAP:2944,8
#VIDEOGAP:0
#ENCODING:UTF8
#EDITION:SSHottestHitsGE
: 0 6 61 Damn
: 8 4 59  all
: 12 2 57 ~
: 16 4 57 these
: 24 18 64  beau
: 43 4 66 ti
: 50 3 59 ful
: 56 21 61  girls
- 79
: 84 2 54 They
: 88 4 57  on
: 92 2 57 ly
: 96 2 57  wan
: 100 2 54 na
: 104 5 57  do
: 112 2 59  your
: 116 4 61  dirt
: 120 2 59 ~
- 124
: 128 6 61 They'll
: 136 5 59  have
: 144 4 57  you
: 152 7 61  su
: 160 2 59 i
: 164 7 59 ci
: 172 6 57 dal
- 180
: 184 8 61 Su
: 192 2 59 i
: 196 7 59 ci
: 204 3 57 dal
- 208
: 208 2 52 When
: 212 2 54  they
: 216 5 57  say
: 224 4 54  it's
: 232 10 61  o
: 244 2 59 ~
: 248 4 59 ver
: 252 8 57 ~
: 260 2 54 ~
- 264
: 288 5 61 You're
: 296 4 59  way
: 300 3 57 ~
: 304 6 57 too
: 312 16 64  beau
: 332 5 66 ti
: 339 3 59 ful
: 345 20 61  girl
- 367
: 372 2 54 That's
: 376 6 57  why
: 384 2 57  it'll
: 388 3 54 ~
: 392 6 57 ne
: 400 2 59 ver
: 405 4 61  work
: 409 3 59 ~
- 414
: 416 5 61 You'll
: 424 5 59  have
: 432 4 57  me
: 440 6 61  su
: 448 2 59 i
: 452 6 59 ci
: 460 4 57 dal
- 466
: 473 5 61 Su
: 480 2 59 i
: 484 6 59 ci
: 492 3 57 dal
- 496
: 496 2 52 When
: 500 2 54  you
: 504 7 57  say
: 512 4 54  it's
: 520 11 61  o
: 531 2 59 ~
: 536 7 59 ver
- 544
: 544 5 61 Damn
: 552 4 59  all
: 556 3 57 ~
: 560 6 57 these
: 568 16 64  beau
: 588 4 66 ti
: 595 4 59 ful
: 601 20 61  girls
- 623
: 627 3 54 They
: 632 3 57  on
: 636 3 57 ly
: 640 3 57  wan
: 644 3 54 na
: 648 5 57  do
: 656 2 59  your
: 660 4 61  dirt
: 664 4 59 ~
- 670
: 672 5 61 They'll
: 680 5 59  have
: 688 5 57  you
: 696 6 61  su
: 704 2 59 i
: 708 6 59 ci
: 716 4 57 dal
- 722
: 728 6 61 Su
: 736 2 59 i
: 740 6 59 ci
: 748 3 57 dal
- 752
: 752 3 52 When
: 756 2 54  they
: 760 6 57  say
: 768 4 54  it's
: 777 11 61  o
: 788 2 59 ~
: 792 4 59 ver
: 796 8 57 ~
: 804 3 54 ~
- 809
: 816 3 57 See
: 820 3 54  it
: 824 2 57  start
: 828 2 57 ed
: 832 3 57  at
: 836 2 54  the
: 841 6 57  park
- 848
: 849 2 57 Used
: 853 2 54  to
: 857 6 57  chill
: 865 3 57  af
: 869 2 54 ter
: 873 5 57  dark
- 879
: 881 6 59 Oh
: 889 3 54  when
: 894 2 54  you
: 897 3 54  took
: 900 3 52  my
: 905 6 54  heart
- 913
: 916 2 54 That's
: 920 2 54  when
: 924 2 54  we
: 929 2 54  fell
: 932 2 52  a
: 936 8 54 part
- 946
: 949 2 61 'Cause
: 953 7 59  we
: 960 4 57  both
: 964 2 54 ~
: 969 8 54 thought
- 979
: 981 2 57 That
: 985 9 56  love
: 1000 4 59  lasts
: 1008 2 59  for
: 1012 2 61 e
: 1014 2 59 ~
* 1021 25 57 ver
- 1048
: 1076 3 54 They
: 1080 3 57  say
: 1084 3 57  we're
: 1089 5 57  too
* 1096 6 57  young
- 1104
: 1109 2 57 To
: 1113 3 57  get
: 1117 3 57  our
: 1121 6 57 selves
: 1128 6 57  sprung
- 1135
: 1136 8 59 Oh
: 1145 5 54  we
: 1152 3 54  did
: 1156 2 52 n't
: 1160 8 54  care
- 1170
: 1172 2 54 We
: 1176 2 54  made
: 1180 2 54  it
: 1185 2 54  ve
: 1188 2 52 ry
: 1193 7 54  clear
- 1201
: 1201 2 59 And
: 1204 2 61  they
* 1208 6 59  al
: 1216 4 57 so
: 1220 2 54 ~
: 1224 6 54 said
- 1232
: 1236 3 57 That
: 1241 7 56  we
: 1249 2 56  could
: 1253 2 56 n't
: 1257 5 59  last
: 1264 2 59  to
: 1268 5 59 ge
: 1276 25 57 ther
- 1303
: 1328 2 57 See
: 1332 3 57  it's
: 1336 3 66  ve
: 1342 4 64 ry
: 1347 3 66  di
: 1352 5 61 vine
- 1358
: 1360 4 59 You're
: 1364 3 57 ~
: 1368 4 66 one
: 1374 3 64  of
: 1380 3 66  a
: 1385 5 61  kind
- 1391
: 1392 3 59 But
: 1397 3 57  you
: 1401 4 59  mash
: 1407 4 57  up
: 1413 3 59  my
: 1418 3 59  mind
: 1421 3 57 ~
- 1426
: 1428 2 59 You
: 1432 3 59  out
: 1436 2 57 ta
: 1440 2 57  get
: 1444 2 59  de
: 1448 2 59 clined
: 1450 4 57 ~
- 1455
: 1456 7 61 Oh
* 1464 22 57  Lord
- 1487
: 1488 4 57 My
: 1492 3 56 ~
: 1496 6 56 ba
: 1504 3 56 by
: 1508 2 56  is
: 1512 2 59  dri
: 1516 2 59 ving
: 1520 5 59  me
: 1528 9 59  cra
: 1540 22 57 zy
- 1564
: 1567 6 61 You're
: 1576 5 59  way
: 1584 5 57  too
: 1593 17 64  beau
: 1612 4 66 ti
: 1619 3 59 ful
: 1625 19 61  girl
- 1646
: 1652 2 54 That's
: 1656 6 57  why
: 1664 3 57  it'll
: 1669 3 54 ~
: 1673 4 57 ne
: 1679 3 59 ver
: 1685 4 61  work
: 1689 4 59 ~
- 1695
: 1697 4 61 You'll
: 1704 5 59  have
: 1712 5 57  me
: 1720 6 61  su
: 1728 2 59 i
: 1732 6 59 ci
: 1740 6 57 dal
- 1748
: 1752 6 61 Su
: 1760 2 59 i
: 1764 6 59 ci
: 1772 3 57 dal
- 1776
: 1776 2 52 When
: 1780 2 54  you
: 1784 5 57  say
: 1792 3 54  it's
: 1800 11 61  o
: 1812 2 59 ~
: 1816 7 59 ver
- 1824
: 1824 5 61 Damn
: 1832 4 59  all
: 1836 2 57 ~
: 1840 5 57 these
: 1848 18 64  beau
: 1869 4 66 ti
: 1876 3 59 ful
* 1881 16 61  girls
- 1899
: 1908 2 54 They
: 1912 2 57  on
: 1917 2 57 ly
: 1920 2 57  wan
: 1924 2 54 na
: 1929 3 57  do
: 1935 3 59  your
: 1940 4 61  dirt
: 1944 4 59 ~
- 1950
: 1952 5 61 They'll
: 1960 5 59  have
: 1968 4 57  you
: 1977 6 61  su
: 1984 2 59 i
: 1988 7 59 ci
: 1996 4 57 dal
- 2002
: 2008 8 61 Su
: 2016 2 59 i
: 2020 7 59 ci
: 2028 3 57 dal
- 2032
: 2032 2 52 When
: 2036 2 54  they
: 2040 5 57  say
: 2048 4 54  it's
: 2056 12 61  o
: 2068 2 59 ~
: 2072 4 59 ver
: 2076 8 57 ~
: 2084 3 54 ~
- 2089
: 2096 4 57 It
: 2100 2 54  was
: 2104 2 57  back
: 2109 2 57  in
: 2113 2 57  nine
: 2117 3 57 ty-
: 2121 6 57  nine
- 2128
: 2129 3 54 Watch
: 2133 3 52 in'
: 2137 2 57  mo
: 2141 3 57 vies
: 2145 2 57  all
: 2149 2 57  the
: 2153 6 57  time
- 2160
: 2161 6 59 Oh
: 2169 2 54  when
: 2173 2 54  I
: 2177 3 54  went
: 2181 3 52  a
: 2185 5 54 way
- 2191
: 2193 2 54 For
: 2197 2 54  do
: 2201 2 54 in'
: 2205 3 54  my
: 2209 5 57  first
: 2216 3 57  crime
: 2219 4 54 ~
- 2225
: 2228 3 61 And
: 2232 6 59  I
: 2240 3 57  ne
: 2244 2 54 ver
: 2249 8 54  thought
- 2258
: 2260 4 57 That
: 2264 3 56  we
: 2268 3 56  was
: 2273 2 56  gon
: 2277 2 56 na
: 2281 4 59  see
: 2288 2 59  each
: 2292 6 59  o
: 2300 17 57 ther
- 2319
: 2356 3 54 And
: 2361 2 57  then
: 2364 2 57  I
: 2369 5 57  came
: 2376 6 57  out
- 2383
: 2385 2 54 Mom
: 2388 3 52 my
: 2392 2 57  moved
: 2396 2 57  me
: 2400 4 57  down
: 2408 6 57  south
- 2415
: 2417 5 59 Oh
: 2424 5 54  I'm
: 2432 2 54  with
: 2436 2 52  my
: 2440 6 54  girl
- 2447
: 2448 2 54 Who
: 2452 3 54  I
: 2456 4 54  thought
: 2463 3 54  was
: 2468 2 57  my
: 2472 2 57  world
: 2474 5 54 ~
- 2481
: 2485 2 61 It
* 2489 8 59  came
: 2497 3 57  out
: 2500 2 54  to
: 2504 8 54  be
- 2514
: 2516 4 57 That
: 2520 3 56  she
: 2524 2 56  was
: 2528 4 56 n't
: 2534 1 56  the
: 2536 6 59  girl
: 2544 2 59  for
: 2548 8 59  me
: 2556 19 57 ~
- 2577
: 2609 2 57 See
* 2613 3 57  it's
: 2618 4 66  ve
: 2623 3 64 ry
: 2627 5 66  di
: 2632 5 61 vine
- 2638
: 2640 4 59 You're
: 2644 3 57 ~
: 2648 4 66 one
: 2654 4 64  of
: 2659 3 66  a
: 2664 6 61  kind
- 2671
: 2673 3 59 But
: 2677 3 57  you
: 2680 4 59  mash
: 2686 3 57  up
: 2691 2 59  my
: 2696 3 59  mind
: 2699 4 57 ~
- 2705
: 2709 2 59 You
: 2712 2 59  out
: 2716 2 57 ta
: 2720 2 57  get
: 2724 2 59  de
: 2729 2 59 clined
: 2731 4 57 ~
- 2736
: 2736 6 61 Oh
: 2744 4 59  Lord
: 2748 15 57 ~
- 2765
: 2768 6 57 My
: 2776 6 56  ba
: 2784 3 56 by
: 2788 2 56  is
: 2792 2 59  dri
: 2796 2 59 ving
: 2800 5 59  me
: 2808 8 59  cra
: 2820 25 57 zy
- 2847
: 2849 5 61 You're
: 2856 4 59  way
: 2860 2 57 ~
: 2865 4 57 too
: 2873 16 64  beau
: 2891 4 66 ti
: 2899 3 59 ful
: 2904 20 61  girl
- 2926
: 2932 3 54 That's
: 2936 5 57  why
: 2944 2 57  it'll
: 2948 2 54 ~
: 2952 5 57 ne
: 2960 2 59 ver
: 2964 5 61  work
: 2969 2 59 ~
- 2973
: 2977 5 61 You'll
: 2984 5 59  have
: 2992 5 57  me
: 3000 6 61  su
: 3008 2 59 i
: 3012 6 59 ci
: 3020 5 57 dal
- 3027
: 3032 7 61 Su
: 3040 2 59 i
: 3044 7 59 ci
: 3052 3 57 dal
- 3056
: 3056 2 52 When
: 3060 2 54  you
: 3064 5 57  say
: 3072 4 54  it's
: 3080 11 61  o
: 3091 2 59 ~
: 3096 7 59 ver
- 3104
: 3104 6 61 Damn
: 3112 4 59  all
: 3116 2 57 ~
: 3120 4 57 these
: 3128 18 64  beau
: 3148 5 66 ti
: 3155 4 59 ful
: 3161 17 61  girls
- 3180
: 3188 3 54 They
: 3192 2 57  on
: 3196 2 57 ly
: 3200 2 57  wan
: 3204 2 54 na
: 3208 6 57  do
: 3216 2 59  your
: 3220 4 61  dirt
: 3224 2 59 ~
- 3228
: 3232 6 61 They'll
: 3240 6 59  have
: 3248 5 57  you
: 3256 7 61  su
: 3264 2 59 i
: 3269 8 59 ci
: 3277 4 57 dal
- 3283
: 3288 8 61 Su
: 3296 2 59 i
: 3301 8 59 ci
: 3309 2 57 dal
- 3312
: 3312 2 52 When
: 3316 2 54  they
: 3320 5 57  say
: 3328 4 54  it's
: 3336 10 61  o
: 3348 2 59 ~
: 3352 4 59 ver
: 3356 8 57 ~
: 3364 2 54 ~
- 3368
: 3384 6 57 Now
: 3392 6 57  we're
: 3401 5 57  fus
: 3409 2 59 sin'
- 3412
: 3412 2 54 And
: 3417 6 57  now
: 3425 6 57  we're
: 3433 6 57  fight
: 3441 4 59 ing
- 3446
: 3448 5 54 Please
: 3456 3 54  tell
: 3460 2 52  me
: 3464 6 54  why
- 3471
: 3472 6 57 I'm
: 3481 6 54  feel
: 3489 4 54 in'
: 3497 4 54  slight
: 3505 3 54 ed
- 3509
* 3509 2 61 And
: 3513 7 59  I
: 3521 4 57  don't
: 3525 2 54 ~
: 3529 7 54 know
- 3538
: 3544 5 56 How
: 3552 5 56  to
: 3561 5 59  make
: 3569 2 59  it
: 3573 7 59  bet
: 3582 26 57 ter
- 3610
: 3636 3 52 You're
: 3641 3 57  da
: 3645 3 57 ting
: 3649 3 57  o
: 3653 3 57 ther
: 3657 11 57  guys
- 3669
: 3669 2 52 You're
: 3673 2 57  tel
: 3677 2 57 lin'
: 3681 5 57  me
: 3688 6 57  lies
- 3695
: 3696 7 59 Oh
: 3704 5 54  I
: 3712 3 54  can't
* 3716 2 52  be
: 3720 6 54 lieve
- 3727
: 3728 2 54 What
: 3732 2 54  I'm
: 3736 2 54  see
: 3740 2 54 in'
: 3744 2 54  with
: 3748 3 57  my
: 3753 7 54  eyes
- 3761
: 3761 5 61 I'm
: 3768 2 59  lo
: 3772 3 59 sin'
: 3776 4 57  my
: 3780 2 54 ~
: 3784 8 54 mind
- 3794
: 3796 4 57 And
: 3800 6 56  I
: 3808 5 56  don't
: 3816 5 59  think
: 3824 2 59  it's
: 3828 7 59  cle
: 3836 21 57 ver
- 3859
: 3873 6 61 You're
: 3881 4 59  way
: 3885 2 57 ~
: 3889 4 57 too
* 3897 16 64  beau
: 3916 4 66 ti
: 3923 3 59 ful
: 3929 14 61  girl
- 3945
: 3956 2 54 That's
: 3960 6 57  why
: 3969 2 57  it'll
: 3973 2 54 ~
: 3977 5 57 ne
: 3985 2 59 ver
: 3989 4 61  work
: 3993 2 59 ~
- 3997
: 4000 6 61 You'll
: 4008 5 59  have
: 4016 4 57  me
: 4024 7 61  su
: 4032 2 59 i
: 4036 7 59 ci
: 4044 6 57 dal
- 4052
: 4056 8 61 Su
: 4064 2 59 i
: 4068 7 59 ci
: 4076 3 57 dal
- 4080
: 4080 2 52 When
: 4084 2 54  you
: 4088 5 57  say
: 4096 4 54  it's
: 4104 10 61  o
: 4116 2 59 ~
: 4120 4 59 ver
: 4124 8 57 ~
: 4132 2 54 ~
E