#TITLE:So Fine
#ARTIST:Sean Paul
#GENRE:Reggae
#LANGUAGE:English
#MP3:Sean Paul - So Fine.mp3
#COVER:Sean Paul - So Fine[CO].jpg
#VIDEO:Sean Paul - So Fine.mp4
#PREVIEWSTART:1,782
#MedleyStartBeat:32
#MedleyEndBeat:504
#BPM:274,02
#GAP:750
#YEAR:2009
: 32 2 6 I'll 
: 36 2 1 be 
: 40 2 6 your 
: 44 2 9 sun
: 52 6 11 shine 
- 63
: 63 2 9 You 
: 67 2 8 can 
: 71 2 9 be 
: 75 5 9 mine 
- 82
: 95 2 6 You'll 
: 99 2 1 be 
: 103 2 6 my 
: 107 5 9 wind 
: 114 4 11 chime 
- 120
: 127 2 9 I've 
: 131 2 8 got 
: 135 2 9 the 
: 139 6 9 rhyme 
- 146
: 158 2 6 We'll 
: 162 2 6 have 
* 166 2 6 a 
* 170 4 11 good 
: 178 6 13 time 
- 186
: 190 2 13 Make 
: 194 2 13 up 
: 198 2 13 your 
: 202 2 14 mind
: 206 6 13 ~ 
- 214
: 222 2 13 Roll 
: 226 2 13 with 
: 230 2 13 me 
: 234 6 13 girl 
: 242 2 13 you're 
: 246 2 13 so 
: 250 6 14 fine
: 258 2 13 ~
: 262 2 11 ~
: 266 4 9 ~ 
- 272
: 282 6 6 Girl 
: 290 2 8 just 
: 294 2 6 let 
: 298 2 8 me 
: 302 2 6 be 
: 306 2 8 there 
: 310 2 6 for 
: 314 2 8 you 
: 318 2 9 a
: 322 2 8 ~
: 326 2 6 ny
: 330 4 1 time 
- 336
: 338 2 1 You're 
* 342 6 8 so 
: 350 8 6 fine 
- 360
: 362 2 8 For 
: 366 2 6 you 
: 370 2 8 I'd 
: 374 2 6 join 
: 378 2 8 the 
: 382 2 9 lon
: 386 2 8 ~
: 390 2 6 gest 
: 394 4 1 line 
- 400
: 402 2 6 You're 
: 406 6 9 so 
: 414 8 11 fine 
- 422
: 422 1 11 My 
: 424 2 11 girl 
: 428 1 11 broke 
: 430 2 11 out 
: 434 2 13 and 
: 438 2 11 wine 
- 443
: 446 1 14 Mash 
: 448 2 11 up 
: 452 1 11 me 
: 454 2 11 brain 
: 458 1 11 you 
: 460 1 11 a 
: 462 1 11 mash 
: 464 1 11 up 
: 466 2 13 man 
: 470 4 11 mind 
- 476
: 478 2 14 Real 
: 482 2 11 bad 
: 486 2 11 man 
: 490 1 11 a 
: 492 2 11 that's 
: 496 1 11 where 
: 498 2 13 dem 
: 502 2 11 nine 
- 506
: 510 2 13 I'll 
: 514 2 11 be 
: 518 2 9 your 
: 522 2 8 sun
: 526 2 6 shine 
: 530 2 8 My 
: 534 5 6 girl 
- 540
: 546 2 6 Just 
: 550 2 6 let 
* 554 2 8 me 
* 558 2 9 be 
* 562 2 11 there 
* 566 2 9 for 
: 570 2 8 you 
: 574 2 9 a
: 578 2 8 ~
: 582 2 6 ny
: 586 4 1 time 
- 592
: 594 2 1 You're 
: 598 6 8 so 
: 606 8 6 fine 
- 616
: 618 2 9 For 
: 622 2 9 you 
: 626 2 11 I'd 
: 630 2 9 join 
: 634 2 8 the 
: 638 2 9 lon
: 642 2 8 ~
: 646 2 6 gest 
: 650 4 1 line 
- 656
: 658 2 6 You're 
: 662 6 9 so 
: 670 7 11 fine 
- 678
: 678 1 11 My 
: 680 2 11 girl 
: 684 1 11 broke 
: 686 2 11 out 
: 690 2 13 and 
: 694 2 11 wine 
- 698
: 702 1 14 Mash 
: 704 2 11 up 
: 708 1 11 me 
: 710 2 11 brain 
: 714 1 11 you 
: 716 1 11 a 
: 718 1 11 mash 
: 720 1 11 up 
: 722 2 13 man 
: 726 4 11 mind 
- 732
: 734 2 14 Real 
: 738 2 11 bad 
: 742 2 11 man 
: 746 1 11 a 
* 748 2 11 that's 
* 752 1 11 where 
: 754 2 13 dem 
: 758 2 11 nine 
- 762
: 766 2 13 I'll 
: 770 2 11 be 
: 774 2 9 your 
: 778 2 8 sun
: 782 6 6 shine 
: 790 2 8 This 
: 794 6 6 time 
- 802
: 1314 2 6 Just 
: 1318 2 6 let 
: 1322 2 8 me 
: 1326 2 6 be 
: 1330 2 8 there 
: 1334 2 6 for 
: 1338 2 8 you 
: 1342 2 9 a
: 1346 2 8 ~
: 1350 2 6 ny
: 1354 4 1 time 
- 1360
: 1362 2 1 You're 
: 1366 6 8 so 
: 1374 8 6 fine 
- 1384
: 1386 2 8 For 
: 1390 2 6 you 
: 1394 2 8 I'd 
: 1398 2 6 join 
: 1402 2 8 the 
: 1406 2 9 lon
: 1410 2 8 ~
: 1414 2 6 gest 
: 1418 4 1 line 
- 1424
: 1426 2 6 You're 
* 1430 6 9 so 
: 1438 7 11 fine 
- 1446
: 1446 1 11 My 
: 1448 2 11 girl 
: 1452 1 11 broke 
: 1454 2 11 out 
: 1458 2 13 and 
: 1462 2 11 wine 
- 1466
: 1470 1 14 Mash 
: 1472 2 11 up 
: 1476 1 11 me 
: 1478 2 11 brain 
: 1482 1 11 you 
: 1484 1 11 a 
: 1486 1 11 mash 
: 1488 1 11 up 
: 1490 2 13 man 
: 1494 4 11 mind 
- 1500
: 1502 2 14 Real 
: 1506 2 11 bad 
: 1510 2 11 man 
: 1514 1 11 a 
: 1516 2 11 that's 
: 1520 1 11 where 
: 1522 2 13 dem 
: 1526 2 11 nine 
- 1530
: 1534 2 13 I'll 
: 1538 2 11 be 
: 1542 2 9 your 
: 1546 2 8 sun
: 1550 2 6 shine 
: 1554 2 8 My 
: 1558 5 6 girl 
- 1565
: 1571 2 6 Just 
: 1575 2 6 let 
: 1579 2 8 me 
: 1583 2 9 be 
* 1587 2 11 there 
: 1591 2 9 for 
* 1595 2 8 you 
* 1599 2 9 a
* 1603 2 8 ~
: 1607 2 6 ny
: 1611 4 1 time 
- 1617
: 1619 2 1 You're 
: 1623 6 8 so 
: 1631 8 6 fine 
- 1640
: 1642 2 8 For 
: 1646 2 8 you 
: 1650 2 11 I'd 
: 1654 2 9 join 
: 1658 2 8 the 
: 1662 2 9 lon
: 1666 2 8 ~
: 1670 2 6 gest 
: 1674 4 1 line 
- 1680
: 1682 2 6 You're 
: 1686 6 9 so 
* 1694 7 11 fine 
- 1702
: 1702 1 11 My 
: 1704 2 11 girl 
: 1708 1 11 broke 
: 1710 2 11 out 
: 1714 2 13 and 
: 1718 2 11 wine 
- 1723
: 1726 1 14 Mash 
: 1728 2 11 up 
: 1732 1 11 me 
: 1734 2 11 brain 
: 1738 1 11 you 
: 1740 1 11 a 
: 1742 1 11 mash 
: 1744 1 11 up 
: 1746 2 13 man 
: 1750 4 11 mind 
- 1756
: 1758 2 14 Real 
: 1762 2 11 bad 
: 1766 2 11 man 
: 1770 1 11 a 
: 1772 2 11 that's 
: 1776 1 11 where 
: 1778 2 13 dem 
: 1782 2 11 nine 
- 1786
* 1790 6 13 I'll 
* 1798 2 18 be 
: 1802 6 13 your 
: 1810 2 11 sun
: 1814 6 9 shine 
- 1822
: 2343 2 6 Let 
: 2347 2 8 me 
: 2351 2 9 be 
: 2355 2 11 there 
: 2359 2 9 for 
: 2363 2 8 you 
: 2367 2 9 a
: 2371 2 8 ~
: 2375 2 6 ny
: 2379 6 1 time 
- 2386
: 2387 2 1 It's 
: 2391 6 8 so 
: 2399 5 6 fine 
- 2405
: 2410 2 8 For 
: 2414 2 6 you 
: 2418 2 8 I'd 
: 2422 2 6 join 
: 2426 2 8 the 
: 2430 2 9 lon
: 2434 2 8 ~
: 2438 2 6 gest 
: 2442 4 1 line 
- 2448
: 2450 2 6 You're 
* 2454 6 9 so 
* 2462 7 11 fine 
- 2470
: 2470 1 11 My 
: 2472 2 11 girl 
: 2476 1 11 broke 
: 2478 2 11 out 
: 2482 2 13 and 
: 2486 2 11 wine 
- 2491
: 2494 1 14 Mash 
: 2496 2 11 up 
: 2500 1 11 me 
: 2502 2 11 brain 
: 2506 1 11 you 
: 2508 1 11 a 
: 2510 1 11 mash 
: 2512 1 11 up 
: 2514 2 13 man 
: 2518 4 11 mind 
- 2524
: 2526 2 14 Real 
: 2530 2 11 bad 
: 2534 2 11 man 
: 2538 1 11 a 
: 2540 2 11 that's 
: 2544 1 11 where 
: 2546 2 13 dem 
: 2550 2 11 nine 
- 2554
: 2559 2 13 I'll 
: 2563 2 11 be 
: 2567 2 9 your 
: 2571 2 8 sun
: 2575 2 6 shine 
: 2579 2 8 My 
: 2583 5 6 girl 
- 2590
: 2595 2 6 Just 
: 2599 2 6 let 
: 2603 2 8 me 
: 2607 2 9 be 
: 2611 2 11 there 
: 2615 2 9 for 
: 2619 2 8 you 
: 2623 2 9 a
: 2627 2 8 ~
: 2631 2 6 ny
: 2635 4 1 time 
- 2640
: 2642 2 1 You're 
: 2646 6 8 so 
: 2654 8 6 fine 
- 2664
: 2666 2 9 For 
: 2670 2 9 you 
: 2674 2 11 I'd 
: 2678 2 9 join 
: 2682 2 8 the 
: 2686 2 9 lon
: 2690 2 8 ~
: 2694 2 6 gest 
: 2698 4 1 line 
- 2704
: 2706 2 6 You're 
* 2710 6 9 so 
: 2718 7 11 fine 
- 2726
: 2726 1 11 My 
: 2728 2 11 girl 
: 2732 1 11 broke 
: 2734 2 11 out 
: 2738 2 13 and 
: 2742 2 11 wine 
- 2747
: 2750 1 14 Mash 
: 2752 2 11 up 
: 2756 1 11 me 
: 2758 2 11 brain 
: 2762 1 11 you 
: 2764 1 11 a 
: 2766 1 11 mash 
: 2768 1 11 up 
: 2770 2 13 man 
: 2774 4 11 mind 
- 2780
: 2782 2 14 Real 
: 2786 2 11 bad 
: 2790 2 11 man 
: 2794 1 11 a 
: 2796 2 11 that's 
: 2800 1 11 where 
: 2802 2 13 dem 
: 2806 2 11 nine 
- 2811
: 2815 2 13 I'll 
: 2819 2 11 be 
: 2823 2 9 your 
: 2827 2 8 sun
: 2831 6 6 shine 
- 2838
: 2847 2 6 I'll 
: 2851 2 1 be 
: 2855 2 6 your 
: 2859 2 9 sun
: 2867 6 11 shine 
- 2875
: 2879 2 9 You 
: 2883 2 8 can 
: 2887 2 9 be 
: 2891 5 9 mine 
- 2898
: 2911 2 6 You'll 
: 2915 2 1 be 
: 2919 2 6 my 
* 2923 5 9 wind 
: 2930 4 11 chime 
- 2936
: 2943 2 9 I've 
: 2947 2 8 got 
: 2951 2 9 the 
: 2955 6 9 rhyme 
- 2963
: 2975 2 6 We'll 
: 2979 2 6 have 
: 2983 2 6 a 
: 2987 4 11 good 
: 2995 6 13 time 
- 3003
: 3007 2 13 Make 
: 3011 2 13 up 
: 3015 2 13 your 
: 3019 2 14 mind
: 3023 6 13 ~ 
- 3031
: 3039 2 13 Roll 
: 3043 2 13 with 
: 3047 2 13 me 
: 3051 6 13 girl 
: 3059 2 13 you're 
: 3063 2 13 so 
: 3067 6 14 fine
: 3075 2 13 ~
: 3079 2 11 ~
: 3083 4 9 ~ 
- 3089
: 3099 6 6 Girl 
: 3107 2 8 just 
: 3111 2 6 let 
: 3115 2 8 me 
: 3119 2 6 be 
: 3123 2 8 there 
: 3127 2 6 for 
: 3131 2 8 you 
: 3135 2 9 a
: 3139 2 8 ~
: 3143 2 6 ny
: 3147 4 1 time 
- 3153
: 3155 2 1 You're 
: 3159 6 8 so 
: 3167 8 6 fine 
- 3177
: 3179 2 8 For 
* 3183 2 6 you 
* 3187 2 8 I'd 
* 3191 2 6 join 
* 3195 2 8 the 
* 3199 2 9 lon
* 3203 2 8 ~
: 3207 2 6 gest 
: 3211 4 1 line 
- 3217
: 3219 2 6 You're 
: 3223 6 9 so 
* 3231 7 11 fine 
- 3239
: 3239 1 11 My 
: 3241 2 11 girl 
: 3245 1 11 broke 
: 3247 2 11 out 
: 3251 2 13 and 
: 3255 2 11 wine 
- 3259
: 3262 1 14 Mash 
: 3264 2 11 up 
: 3268 1 11 me 
: 3270 2 11 brain 
: 3274 1 11 you 
: 3276 1 11 a 
: 3278 1 11 mash 
: 3280 1 11 up 
: 3282 2 13 man 
: 3286 4 11 mind 
- 3292
: 3294 2 14 Real 
: 3298 2 11 bad 
: 3302 2 11 man 
: 3306 1 11 a 
: 3308 2 11 that's 
: 3312 1 11 where 
: 3314 2 13 dem 
: 3318 2 11 nine 
- 3322
: 3326 2 13 I'll 
: 3330 2 11 be 
: 3334 2 9 your 
: 3338 2 8 sun
: 3342 5 6 shine 
: 3351 2 8 This 
: 3354 5 6 time 
- 3359
: 3362 2 6 Just 
: 3366 2 6 let 
: 3370 2 8 me 
: 3374 2 9 be 
: 3378 2 11 there 
: 3382 2 9 for 
: 3386 2 8 you 
: 3390 2 9 a
: 3394 2 8 ~
: 3398 2 6 ny
: 3402 4 1 time 
- 3408
: 3410 2 1 You're 
: 3414 6 8 so 
: 3422 8 6 fine 
- 3432
: 3435 2 9 For 
: 3439 2 9 you 
* 3443 2 11 I'd 
* 3447 2 9 join 
* 3451 2 6 the 
: 3455 2 9 lon
: 3459 2 8 ~
: 3463 2 6 gest 
: 3467 4 1 line 
- 3473
: 3475 2 6 You're 
: 3479 6 9 so 
: 3487 7 11 fine 
- 3495
: 3495 1 11 My 
: 3497 2 11 girl 
: 3501 1 11 broke 
: 3503 2 11 out 
: 3507 2 13 and 
: 3511 2 11 wine 
- 3515
: 3518 1 14 Mash 
: 3520 2 11 up 
: 3524 1 11 me 
: 3526 2 11 brain 
: 3530 1 11 you 
: 3532 1 11 a 
: 3534 1 11 mash 
: 3536 1 11 up 
: 3538 2 13 man 
* 3542 4 11 mind 
- 3548
: 3550 2 14 Real 
: 3554 2 11 bad 
: 3558 2 11 man 
: 3562 1 11 a 
: 3564 2 11 that's 
: 3568 1 11 where 
: 3570 2 13 dem 
: 3574 2 11 nine 
- 3578
* 3582 2 13 I'll 
* 3586 2 11 be 
* 3590 2 9 your 
* 3594 2 8 sun
* 3598 11 6 shine 
E
