#TITLE:Ding
#ARTIST:Seeed
#MP3:Seeed - Ding.mp3
#COVER:Seeed - Ding [CO].jpg
#VIDEO:Seeed - Ding [VD#2,8].mpg
#VIDEOGAP:2,8
#BPM:117
#GAP:10500
: 0 2 62 So
- 3   
: 4 1 62 heu
: 5 1 62 te
: 6 1 62  bin
: 7 1 62  ich
: 8 1 62  ziehm
: 9 2 62 lich
: 11 2 63  gut
: 13 2 62  drauf
- 15   
: 16 2 62 Zieh
: 18 2 62  mich
: 20 2 63  schick
: 22 2 62  an
: 24 2 62  setzt
: 26 1 62  nen
: 27 2 63  Hut
: 29 2 62  auf
- 31   
: 31 1 62 Die
: 32 2 62  Ro
: 34 2 62 lex
: 36 2 63  tickt
: 38 2 62  man
: 40 2 62  seh
: 42 1 62  ich
: 43 2 63  gut
: 45 2 62  aus
- 47   
: 48 2 62 Hol
: 50 1 62  mir
: 51 1 62  den
: 52 2 63  Kick
: 54 1 62  den
: 55 1 62  ich
: 56 2 62  ab
: 58 1 62 so
: 59 2 63 lut
: 61 2 62  brauch
- 63   
: 64 3 74 Yeah!
- 67   
: 68 1 62 Wie
: 69 1 62 der
: 70 1 62  mal
: 71 1 62  nen
: 72 2 62  So
: 74 1 62 lo
: 75 2 62 aus
: 77 2 66 ritt
- 79   
: 80 2 62 In
: 82 2 62  dem
: 84 2 66  Po
: 86 1 62 ser
: 87 2 62 out
: 89 2 66 fit
- 91   
: 92 2 62 Mach
: 94 2 62  ichs
: 96 2 62  mir
: 98 2 62  nett
: 100 2 62  mach
: 102 2 62  mich
: 104 2 62  brett-
: 106 2 62 fett
- 108   
: 108 2 62 rauch
: 110 2 66  Shit
- 112   
: 112 2 66 Wo
: 114 1 62  sind
: 115 1 62  die
: 116 1 62  Bräu
: 117 1 62 te
: 118 2 62  mit
: 120 2 66  Po
: 122 1 62 ser
: 123 2 62 aus
: 125 2 66 schnitt
- 127   
: 128 1 69 Komm
: 129 2 62  in
: 131 1 62  den
: 132 1 62  Club
: 134 1 62  und
: 135 1 62  ge
: 136 2 62 nieß
: 138 1 62  den
: 139 2 62  Aus
: 141 1 66 blick
- 143   
: 144 1 69 Die
: 145 2 62  Braut
: 147 1 62  ist
: 148 1 62  schmuck
: 150 2 62  und
: 152 2 62  die
: 154 1 62  ist
: 155 1 62  auch
: 157 1 66  schick
- 159   
: 160 1 69 Ich
: 161 2 62  sing
: 163 1 62  ne
: 164 1 62  Hook
: 166 1 62  bei
: 167 1 62  der
: 168 2 62  je
: 170 1 62 de
: 171 2 62  aus
: 173 1 66 tickt
- 175   
: 176 1 62 Mei
: 177 1 62 ne
: 178 2 62  Frau
: 180 2 66  guckt
: 182 2 62  krass
: 184 2 62  wenn
: 186 1 62  sie's
: 187 2 62  raus
: 189 2 66 kriegt
- 191   
: 192 3 62 mmmh
: 195 1 62  e
: 196 3 62 gal
: 200 2 62  mal
: 202 1 62  nen
: 203 2 62  Aus
: 205 3 63 gang
- 208   
: 208 1 62 Muss
: 209 2 62  auch
: 211 1 62  mal
: 212 2 62  drin
: 214 1 62  sein
- 215   
: 216 2 62 Bin
: 218 2 62  kein
: 220 2 62  Haus
: 222 2 63 mann
- 224   
: 224 2 62 Brauch
: 226 1 62  un
: 227 1 62 be
: 228 1 62 dingt
: 230 2 62  ein
: 232 2 62  Drink
: 234 2 62  der
: 236 2 62  taugt
- 238   
: 238 2 63 Ran
: 240 2 62  an
: 242 1 62  die
: 243 2 62  Bar
: 245 1 62  ich
: 246 2 62  la
: 248 2 62 ber
: 250 1 62  ne
: 251 2 62  Frau
: 253 3 57  an
- 256   
: 256 1 69 Für
: 257 1 69  die
: 258 1 69  La
: 259 1 69 dy
: 260 1 69  und
: 261 1 69  für
: 262 1 69  mich
- 263   
: 264 1 67 sie
: 265 1 67 ben
: 266 2 67  Mo
: 268 2 67 chi
: 270 2 69 to
- 272   
: 273 1 66 mit
: 274 1 66  ei
: 275 1 66 nem
: 276 2 69  Mal
: 278 1 69  ge
: 279 2 67 fällt
: 281 1 67  mir
: 282 1 67  je
: 283 1 67 des
: 284 2 67  Lied
: 286 2 69  so
- 288   
: 288 2 66 Tanz
: 290 1 66  so
: 291 1 66 gar
: 292 2 66  zum
: 294 2 66  Song
: 296 2 67  von
: 298 2 67  Pla
: 300 2 67 ce
: 302 2 69 bo
- 304   
: 304 2 62 Bin
: 306 2 66  blau
: 308 1 62  und
: 309 1 65  die
: 310 1 62  Da
: 311 1 62 me
: 312 2 66  di
: 314 2 62 to...
- 316   
: 316 2 77 Oh
: 318 2 76  oh
: 320 2 74  oh
: 324 2 77  hüb
: 326 2 76 sches
: 328 2 74  Ding
- 331   
: 332 2 77 Ich
: 334 2 76  ver
: 336 2 74 steck
: 338 2 74  mein'
: 340 2 77  E
: 342 2 76 he
: 344 3 74 ring
- 347   
: 348 1 77 Klin
: 349 1 77 ge
: 350 1 76 lin
: 351 1 76 ge
: 352 2 74 ling
: 354 2 74  Wir
: 356 2 77  könn
: 358 2 76 tens
: 360 3 74  bring'
- 363   
: 364 2 77 Doch
: 366 2 76  wir
: 368 2 74  nu
: 370 2 74 ckeln
: 372 2 79  nur
: 374 2 76  am
: 376 2 74  Drink
- 379   
: 380 2 77 Oh
: 382 2 76  oh
: 384 2 74  oh
: 388 2 77  hüb
: 390 2 76 sches
: 392 2 74  Ding
- 395   
: 396 2 77 Du
: 398 2 76  bist
: 400 2 74  Queen
: 402 2 74  und
: 404 2 77  ich
: 406 2 76  bin
: 408 3 74  King
- 411   
: 411 1 74 Wenn
: 412 2 77  ich
: 414 2 76  dich
: 416 2 74  seh'
: 418 2 74  dann
: 420 2 77  muss
: 422 2 76  ich
: 424 3 74  sing'
- 427   
: 428 1 77 Tin
: 429 1 77 ga
: 430 1 76 lin
: 431 1 76 ga
: 432 2 74 ling
: 434 2 74  you
: 436 2 79  pre
: 438 2 76 tty
: 440 2 74  thing
- 445   
: 451 2 69 Wir
: 453 1 62  sind
: 454 1 62  blau!
: 459 2 69  Wir
: 461 1 62  sind
: 462 1 62  spitz!
- 464   
: 466 1 62 Zu
: 467 2 69 hau
: 469 1 62 se
: 470 1 62  sitzt
- 472   
: 474 1 62 Die
: 475 2 69  Frau
: 477 1 62  mit
: 478 1 62  Kids
- 480   
: 482 1 62 Im
: 483 2 69  Au
: 485 1 62 gen
: 486 1 62 blick
- 487   
: 488 1 65 be
: 489 2 65 käm
: 491 1 62 pfe
: 492 1 65  ich
: 493 1 62  den
: 494 1 65  Wunsch
- 495   
: 496 1 65 der
: 497 1 65  wie
: 498 1 65  je
: 499 1 62 der
: 500 1 65  seh
: 501 1 65 en
: 502 1 65  kann
- 503   
: 503 1 62 in
: 504 1 65  mei
: 505 1 65 nen
: 506 2 67  Au
: 508 1 62 gen
: 509 1 62  blitzt
- 511   
: 512 1 65 Al
: 513 1 65 ter
: 515 2 69  kras
: 517 1 69 se
: 518 1 69  Braut
- 519   
: 520 1 65 Sie
: 521 1 65  sagt
: 523 2 69  "Lass
: 525 1 69  es
: 526 1 69  raus!"
- 527   
: 528 1 65 Und
: 529 1 65  es
: 531 2 69  heißt
: 533 1 69  dann
: 534 1 69  auch
: 536 1 65  los
: 538 1 62 zu
: 539 1 62 legen
- 542   
: 544 1 65 Ich
: 545 1 65  muss
: 547 1 64  Zeit
: 549 1 67  ge
: 550 1 65 winnen
: 552 1 65  Be
: 553 1 65 stell
: 555 1 64  wei
: 557 1 67 ter
: 558 1 65  Drinks
- 559   
: 560 1 65 Sie
: 561 1 65  ist
: 562 1 62  nicht
: 563 2 65  mein
: 565 2 65  Ding
- 567   
: 567 1 62 ver
: 568 1 65 such
: 569 1 65  ich
: 570 1 62  mir
: 571 2 65  ein
: 573 1 62 zu
: 574 1 62 reden
- 575   
: 576 1 74 Lä
: 577 1 74 cher
: 578 1 74 lich!
: 582 1 74  Ich
: 584 1 74  be
: 585 1 74 cher
: 586 1 74  mich
: 587 1 74  weg
- 589   
: 590 1 74 Bar
: 592 1 74 kee
: 593 1 74 per
: 594 2 74  hau
: 596 2 74  raus
- 598   
: 598 1 70 was
: 599 1 69  in
: 600 1 74  dei
: 601 1 74 nen
: 602 1 74  Fäs
: 603 2 74 sern
: 605 1 74  steckt
- 607   
: 608 2 74 Ich
: 610 2 74  saufs
: 612 2 74  aus
: 614 1 72  weil
: 615 1 69  es
: 616 1 74  mich
: 617 1 74  ver
: 618 1 74 ges
: 619 2 74 sen
: 621 1 74  lässt
- 623   
: 624 1 74 Mei
: 625 1 74 ne
: 626 1 74  Ge
: 627 2 74 dan
: 629 1 74 ken
: 630 1 70  sind
: 631 1 69  be
: 632 1 74 ses
: 633 1 74 sen
: 634 2 74  von
: 636 1 74  Sex
- 638   
: 640 1 74 Sie
: 641 1 74  will
: 642 1 74  Of
: 643 1 74 fen
: 644 1 74 si
: 645 1 74 ve
: 646 2 69  vom
: 648 1 74  Mann...
: 651 1 70  Doch
: 654 1 69  ich
- 655   
: 656 1 74 bin
: 657 1 74  be
: 658 1 74 sof
: 659 2 74 fen
: 661 1 74  schie
: 662 1 70 le
: 663 1 69  sie
: 664 2 74  an
- 666   
: 667 1 74 Kurz
: 669 1 70  da
: 670 1 69 rauf
: 672 2 74  liegt
: 674 2 74  mein
: 676 2 74  Kopf
- 678   
: 678 1 74 ne
: 679 1 74 ben
: 680 1 74  der
: 681 1 74  Toi
: 682 1 74 let
: 683 1 74 te
- 684   
: 684 1 74 hät
: 685 1 74 te
: 686 1 70  nie
: 687 1 69  ge
: 688 2 74 wettet,
- 690   
: 690 1 72 dass
: 691 2 74  kot
: 693 1 74 zen
: 694 1 75  mei
: 695 1 72 ne
: 696 1 74  E
: 697 1 74 he
: 698 1 74  ret
: 699 1 74 tet
- 700   
: 700 2 77 Oh
: 702 2 76  oh
: 704 2 74  oh
: 708 2 77  hüb
: 710 2 76 sches
: 712 2 74  Ding
- 715   
: 716 2 77 Ich
: 718 2 76  ver
: 720 2 74 steck
: 722 2 74  mein'
: 724 2 77  E
: 726 2 76 he
: 728 3 74 ring
- 731   
: 732 1 77 Klin
: 733 1 77 ge
: 734 1 76 lin
: 735 1 76 ge
: 736 2 74 ling
: 738 2 74  Wir
: 740 2 77  könn
: 742 2 76 tens
: 744 3 74  bring'
- 747   
: 748 2 77 Doch
: 750 2 76  wir
: 752 2 74  nu
: 754 2 74 ckeln
: 756 2 79  nur
: 758 2 76  am
: 760 2 74  Drink
- 763   
: 764 2 77 Oh
: 766 2 76  oh
: 768 2 74  oh
: 772 2 77  hüb
: 774 2 76 sches
: 776 2 74  Ding
- 779   
: 780 2 77 Du
: 782 2 76  bist
: 784 2 74  Queen
: 786 2 74  und
: 788 2 77  ich
: 790 2 76  bin
: 792 3 74  King
- 795   
: 795 1 74 Wenn
: 796 2 77  ich
: 798 2 76  dich
: 800 2 74  seh'
: 802 2 74  dann
: 804 2 77  muss
: 806 2 76  ich
: 808 3 74  sing'
- 811   
: 812 1 77 Tin
: 813 1 77 ga
: 814 1 76 lin
: 815 1 76 ga
: 816 2 74 ling
: 818 2 74  you
: 820 2 79  pre
: 822 2 76 tty
: 824 2 74  thing
- 827   
: 828 2 77 Oh
: 830 2 76  oh
: 832 2 74  oh
- 849   
: 896 2 62 See
: 898 2 62  that
: 900 2 69  bur
: 902 2 69 nin'
: 904 2 68  Bo
: 906 4 64 dy
- 912   
: 914 2 62 Those
: 916 2 69  Boobs
: 918 1 69  in
: 919 1 69  a
: 920 2 68  naugh
: 922 4 64 ty
- 928   
: 930 2 62 Red
: 932 2 69  Lips
: 934 2 69  so
: 936 2 68  jui
: 938 4 64 cy
- 944   
: 946 1 62 in
: 947 1 62  the
: 948 1 69  midd
: 949 1 69 le
: 950 1 69  of
: 951 1 69  your
: 952 2 68  web -
: 954 2 64  please
: 956 2 65  don't
: 958 2 62  stop
- 961   
: 962 2 69 Take
: 964 2 69  my
: 966 2 72  brain,
: 970 2 67  turn
: 972 2 69  it
: 974 2 69  off
- 977   
: 978 2 67 Don't
: 980 2 69  feel
: 982 2 72  shame,
: 986 2 67  don't
: 988 2 69  feel
: 990 2 69  love
- 993   
: 994 2 67 More
: 996 2 69  cham
: 998 2 72 pain
: 1002 2 67  for
: 1004 2 69  our
: 1006 2 72  game
- 1009   
: 1010 2 67 it's
: 1012 2 69  in
: 1014 2 72 sane
: 1018 2 67  but
: 1020 2 69  it's
: 1022 2 69  hot
- 1024   
: 1024 1 69 Do
: 1025 1 69  you
: 1026 1 69  wan
: 1027 1 69 na
: 1028 2 72  ruin
: 1030 2 70  my
: 1032 2 69  life
- 1035   
: 1036 2 67 Say
: 1038 2 69  what
- 1040   
: 1041 1 69 You
: 1042 1 69  wan
: 1043 1 69 na
: 1044 2 72  tell
: 1046 2 74  my
: 1048 2 69  wife
- 1051   
: 1052 2 67 please
: 1054 2 69  stop
- 1057   
: 1058 1 69 things
: 1059 1 69  are
: 1060 1 72  get
: 1061 1 72 ting
: 1062 2 74  real
: 1064 2 69  tight
- 1066   
: 1067 1 67 I
: 1068 1 67  ne
: 1069 1 67 ver
: 1070 1 69  thought
- 1072   
: 1074 2 69 You'd
: 1076 2 72  set
: 1078 2 74  me
: 1080 2 69  up
- 1084   
: 1086 1 69 All
: 1087 1 69  I
: 1088 1 74  wan
: 1089 1 74 ted
: 1090 1 74  was
: 1091 1 74  a
: 1092 2 77  bo
: 1094 2 74 dy -
: 1098 2 74  for
: 1100 2 72  de
: 1102 2 74 light
- 1103   
: 1104 2 74 "Let's
: 1106 2 74  get
: 1108 2 77  naugh
: 1110 2 74 ty":
: 1114 2 74  you
: 1116 2 72  said
: 1118 2 74  right?
- 1119   
: 1120 1 74 Now
: 1121 1 74  you
: 1122 1 74  say
: 1123 1 74  you
: 1124 2 77  love
: 1126 2 74  me -
: 1130 2 74  day
: 1132 2 72  and
: 1134 2 74  night
- 1135   
: 1136 2 74 who's
: 1138 2 74  gonna
: 1140 2 77  save
: 1142 2 74  me -
: 1146 2 74  from
: 1148 2 72  this
: 1150 2 74  fight?
- 1152   
: 1152 2 74 Oh -
: 1156 2 77  hüb
: 1158 2 76 sches
: 1160 2 74  Ding
- 1163   
: 1164 2 77 Ich
: 1166 2 76  ver
: 1168 2 74 steck
: 1170 2 74  mein'
: 1172 2 77 E
: 1174 2 76 he
: 1176 3 74 ring
- 1179   
: 1180 1 77 Klin
: 1181 1 77 ge
: 1182 1 76 lin
: 1183 1 76 ge
: 1184 2 74 ling
: 1186 2 74  wir
: 1188 2 77  könn
: 1190 2 76 tens
: 1192 3 74  bring'
- 1195   
: 1196 2 77 Doch
: 1198 2 76  wir
: 1200 2 74  nu
: 1202 2 74 ckeln
: 1204 2 79  nur
: 1206 2 76  am
: 1208 2 74  Drink
- 1211   
: 1212 2 77 Oh
: 1214 2 76  oh
: 1216 2 74  oh
: 1220 2 77  hüb
: 1222 2 76 sches
: 1224 2 74  Ding
- 1227   
: 1228 2 77 Du
: 1230 2 76  bist
: 1232 2 74  Queen
: 1234 2 74  und
: 1236 2 77  ich
: 1238 2 76  bin
: 1240 3 74  King
- 1243   
: 1243 1 74 Wenn
: 1244 2 77  ich
: 1246 2 76  dich
: 1248 2 74  seh'
: 1250 2 74  dann
: 1252 2 77  muss
: 1254 2 76  ich
: 1256 3 74  sing':
- 1259   
: 1260 1 77 "Tin
: 1261 1 77 ga
: 1262 1 76 lin
: 1263 1 76 ga
: 1264 2 74 ling
: 1266 2 74  you
: 1268 2 79  pre
: 1270 2 76 tty
: 1272 2 74  thing"
- 1275   
: 1276 2 77 Oh
: 1278 2 76  oh
: 1280 2 74  oh
: 1284 2 77  hüb
: 1286 2 76 sches
: 1288 2 74  Ding
- 1291   
: 1292 2 77 ich
: 1294 2 76  ver
: 1296 2 74 steck
: 1298 2 74  mein'
: 1300 2 77  E
: 1302 2 76 he
: 1304 3 74 ring
- 1307   
: 1308 1 77 klin
: 1309 1 77 ge
: 1310 1 76 ling
: 1311 1 76 ge
: 1312 2 74 ling
: 1314 2 74  wir
: 1316 2 77  könn
: 1318 2 76 tens
: 1320 3 74  bring'
- 1323   
: 1324 2 77 doch
: 1326 2 76  wir
: 1328 2 74  nuck
: 1330 2 74 eln
: 1332 2 79  nur
: 1334 2 76  am
: 1336 2 74  Drink
- 1339   
: 1340 2 77 Oh
: 1342 2 76  oh
: 1344 2 74  oh
E
