#TITLE:Ham kummst
#ARTIST:Seiler und Speer
#MP3:Seiler und Speer - Ham kummst.mp3
#VIDEO:Seiler und Speer - Ham kummst.mp4
#COVER:Seiler und Speer - Ham kummst.jpg
#BPM:248
#GAP:35600
#ENCODING:UTF8
#LANGUAGE:German
: 0 2 21 Letz
: 4 2 21 te 
: 10 6 21 Nocht 
- 18
: 56 2 16 woa 
: 58 1 16 a 
: 60 4 21 schwa
: 65 3 21 re 
: 72 3 21 Par
: 76 4 19 tie 
: 83 3 16 fia 
: 88 3 16 mi
- 93
: 121 2 19 Das 
: 125 2 19 i 
: 129 2 19 ned 
: 133 2 19 glei 
: 137 5 20 ham 
: 144 5 21 kum, 
- 151
: 181 2 19 woa 
: 184 2 19 vu 
: 187 2 19 au
: 191 2 19 faung 
: 195 2 19 au 
: 200 5 21 kloa!
- 207
: 253 2 21 Letz
: 257 2 21 te 
: 263 6 24 Nocht 
- 271
: 311 2 21 woa 
: 313 1 21 a 
: 315 4 28 schwa
: 320 3 26 re 
: 327 3 24 Par
: 331 4 28 tie 
: 337 3 21 fia 
: 343 3 21 mi
- 348
: 378 1 19 i 
: 379 2 19 kau 
: 382 2 19 mi 
: 386 2 19 ned 
: 390 2 19 er
: 395 4 20 in
: 402 4 21 nern 
- 408
: 436 3 19 wos 
: 441 4 19 ges
: 447 4 19 tan 
: 454 6 21 woa! 
- 462
: 500 3 21 Und 
: 505 3 21 sie 
: 510 3 21 sogt: 
- 515
: 533 2 21 Waunst 
: 537 2 28 a
: 541 2 26 moi 
: 545 2 24 nu 
: 549 2 26 so 
: 554 5 28 ham 
: 562 5 21 kummst, 
- 569
: 595 1 19 sa
: 597 1 19 ma 
: 600 2 19 gschie
: 604 2 19 da
: 608 2 19 ne 
: 612 7 21 Leid!
- 621
: 659 2 21 Waunst 
: 663 2 28 a
: 667 2 27 moi 
: 671 2 24 nu 
: 675 2 26 so 
: 680 5 28 ham 
: 688 5 21 kummst, 
- 695
: 721 1 19 host 
: 723 1 19 die 
: 727 2 19 Schei
: 731 2 19 dung 
: 735 2 19 mei 
: 739 7 21 Freind!
- 748
: 794 2 21 Letz
: 798 2 21 te 
: 804 6 21 Nocht 
- 812
: 849 2 16 woa 
: 851 1 16 a 
: 854 4 21 schwa
: 859 2 21 re 
: 864 3 21 Par
: 868 3 19 tie 
: 874 3 16 fia 
: 879 3 16 mi
- 884
: 917 2 19 ol
: 920 2 19 le 
: 923 2 19 haums 
: 926 2 19 mi 
: 931 4 21 ei
: 937 4 21 glondt,
- 943
: 973 2 19 und 
: 977 2 19 do 
: 981 2 19 sogt 
: 985 2 19 ma 
: 989 3 19 ned 
* 995 6 21 na, 
* 1008 6 18 na, 
* 1025 6 16 na!
- 1033
* 1048 2 28 Letz
* 1052 2 26 te 
* 1058 3 26 No
* 1066 3 24 ~cht 
- 1071
: 1106 2 21 woa 
: 1108 1 21 a 
* 1110 4 28 schwa
* 1115 3 26 re 
* 1122 3 24 Par
* 1126 4 28 tie 
: 1132 3 21 fia 
: 1138 3 21 mi
- 1143
: 1166 2 19 hau 
: 1169 2 19 mi 
: 1172 2 19 guad 
: 1176 2 19 un
: 1180 3 19 ter
: 1184 6 20 hoi
: 1192 5 20 tn, 
- 1199
: 1223 2 20 und 
: 1227 2 20 na 
: 1231 2 20 do 
: 1236 3 28 geht 
: 1241 3 26 ma 
: 1246 5 24 ned 
: 1253 3 26 ha
: 1256 4 24 ~m, 
: 1263 4 26 ha
: 1267 5 24 ~m, 
* 1275 20 28 ham!
- 1297
: 1300 4 28 Und 
: 1308 4 28 sie 
: 1317 4 26 sogt: 
- 1323
: 1326 2 21 Waunst 
: 1330 2 28 a
: 1334 2 26 moi 
: 1338 2 24 nu 
: 1342 2 26 so 
: 1347 5 28 ham 
: 1355 5 21 kummst, 
- 1362
: 1389 2 19 sa
: 1392 1 19 ma 
: 1395 2 19 gschie
: 1399 2 19 da
: 1403 2 19 ne 
: 1407 7 20 Leid!
- 1416
: 1453 2 21 Waunst 
: 1457 2 28 a
: 1461 2 26 moi 
: 1465 2 24 nu 
: 1469 2 26 so 
: 1474 5 28 ham 
: 1482 5 21 kummst, 
- 1489
: 1514 2 19 host 
: 1517 2 19 die 
: 1521 2 19 Schei
: 1525 2 19 dung 
: 1529 2 19 mei 
: 1533 7 20 Freind!
- 1542
: 1587 2 21 Letz
: 1591 2 21 te 
: 1597 6 21 Nocht 
- 1605
: 1642 2 16 war 
: 1644 1 16 ka 
: 1647 4 21 schwa
: 1653 3 21 re 
: 1660 3 21 Par
: 1664 4 19 tie 
: 1671 3 16 fia 
: 1676 3 16 mi
- 1681
: 1707 2 19 bin 
: 1710 2 19 um 
: 1713 2 19 ach
: 1716 2 19 te 
: 1721 3 19 da
: 1726 3 20 ham 
: 1733 5 20 gwen, 
- 1740
: 1769 3 19 mit 
: 1775 2 19 Blu
: 1779 2 19 man 
: 1782 2 19 und 
: 1787 6 20 Sekt! 
- 1795
: 1841 3 28 Letz
: 1847 3 26 te 
: 1853 4 26 No
: 1858 7 24 ~cht
- 1867
: 1890 3 21 woa 
: 1894 3 21 doch 
: 1898 1 21 a 
: 1902 5 28 schwa
: 1908 3 26 re 
: 1914 3 24 Par
: 1918 5 28 tie 
: 1925 4 21 fia 
: 1931 3 21 mi
- 1936
: 1959 2 19 Wei 
: 1962 2 19 aum 
: 1966 2 19 Tisch 
: 1969 2 19 is 
: 1973 2 19 a 
: 1977 5 20 Brief 
: 1985 6 20 gleng, 
- 1993
: 2021 2 21 und 
: 2025 2 21 mei 
* 2029 4 28 Frau 
: 2035 3 26 de 
: 2040 3 24 woa 
: 2046 3 26 we
: 2049 4 24 ~g, 
: 2057 4 26 we
: 2061 5 24 ~g, 
* 2070 18 28 weg!
- 2090
: 2096 3 28 Und 
: 2102 3 28 sie 
: 2108 7 26 schreibt:
- 2117
: 2120 2 21 Waunst 
: 2124 2 28 a
: 2128 2 26 moi 
: 2132 2 24 nu 
: 2136 2 26 so 
: 2141 5 28 ham 
: 2149 5 21 kummst, 
- 2156
: 2184 3 19 daun 
: 2189 2 19 is 
: 2192 2 19 ma 
: 2196 3 19 des 
: 2203 10 21 wuascht
- 2215
: 2246 2 21 Waunst 
: 2250 2 28 a
: 2254 2 26 moi 
: 2258 2 24 nu 
: 2262 2 26 so 
: 2267 5 28 ham 
: 2275 5 21 kummst, 
- 2282
: 2288 2 24 daun 
: 2293 2 24 vü 
: 2298 10 23 Spaß, 
: 2311 3 21 wei 
: 2316 3 23 i 
: 2321 3 23 bin 
: 2327 9 21 fuat!
- 2338
: 2629 2 19 Jetzt 
: 2633 2 19 host 
: 2637 2 19 wos 
: 2641 2 19 du 
: 2646 5 21 wui
: 2653 6 21 tast, 
- 2661
: 2688 2 19 wia 
: 2691 2 19 san 
: 2696 3 21 gschie
: 2700 2 21 da
: 2703 2 21 ne 
: 2708 3 21 Lei
: 2712 6 19 ~d, 
- 2720
: 2754 2 19 Die 
: 2758 3 19 Kin
: 2762 3 19 da 
: 2767 3 19 griagst 
: 2771 2 21 du, 
- 2775
: 2814 2 19 ned 
: 2818 2 19 in 
: 2822 4 20 näch
: 2827 3 20 ster 
: 2836 8 21 Zeit
- 2846
: 2881 2 21 Den 
: 2886 2 28 Hund 
: 2891 2 26 den 
: 2895 2 24 griagst 
: 2899 2 26 du 
: 2903 5 28 a 
: 2911 7 28 ned, 
- 2920
: 2942 2 21 und 
: 2946 2 21 des 
: 2950 4 28 Haus 
: 2957 2 26 des 
: 2961 2 26 gheat 
: 2966 18 28 mia 
- 2986
: 3008 2 21 und 
: 3013 4 28 waunst 
: 3020 2 26 das 
: 3024 2 24 ned 
: 3029 6 28 glauben 
: 3038 12 28 kaust, 
- 3052
: 3064 2 21 des 
: 3068 2 21 steht 
: 3072 2 21 aum 
: 3077 4 28 Schei
: 3082 5 26 dungs
: 3089 3 24 pa
: 3093 3 26 pi
: 3097 6 24 er
: 3105 3 26 -i
: 3109 5 24 er
: 3116 3 28 -i
: 3120 15 28 er
- 3137
: 3142 7 28 schwoaz 
: 3151 2 28 auf 
: 3155 7 26 weiß!
- 3164
: 3166 2 21 Waunst 
: 3170 2 28 a
: 3174 2 26 moi 
: 3178 2 24 zu 
: 3182 2 26 mir 
: 3187 5 28 ham 
: 3195 5 21 kummst, 
- 3202
: 3223 2 19 ruaf 
: 3227 2 19 i 
: 3231 2 19 di 
: 3236 4 19 Po
: 3241 4 19 li
: 3247 7 21 zei 
- 3256
: 3291 2 21 Waun 
: 3294 2 21 du 
: 3298 2 28 a
: 3302 2 26 moi 
: 3307 2 24 zu 
: 3311 3 26 mir 
: 3316 5 28 ham 
: 3323 10 21 kummst, 
- 3335
: 3357 3 19 daun 
: 3363 4 19 sperrns 
: 3370 3 19 di 
: 3375 5 21 ei 
- 3382
: 3387 3 24 und 
: 3391 3 24 es 
: 3397 3 24 geht: 
: 3406 3 24 Ta
: 3411 3 28 tü 
: 3417 3 28 Ta
: 3422 4 28 ta, 
: 3437 3 24 Ta
: 3442 3 28 tü 
: 3449 3 28 Ta
: 3454 4 28 ta, 
- 3459
: 3461 3 24 es 
: 3465 3 24 geht 
: 3471 3 24 Ta
: 3476 3 24 tü 
: 3482 3 28 Ta
: 3487 3 28 ta, 
: 3493 3 28 wos 
: 3497 2 24 wü 
: 3501 2 24 der 
: 3505 7 28 Pü
: 3513 3 28 cha 
: 3517 3 28 da?!
- 3522
: 3531 3 24 Ta
: 3536 3 28 tü 
: 3545 3 28 Ta
: 3550 3 28 ta, 
: 3557 3 24 es 
: 3561 3 24 geht 
: 3566 3 24 Ta
: 3570 3 28 tü 
: 3577 3 28 Ta
: 3581 3 28 ta, 
- 3586
: 3589 3 24 es 
: 3593 3 24 geht 
: 3598 3 24 Ta
: 3602 3 26 tü 
: 3609 3 26 Ta
: 3613 3 26 ta, 
: 3621 3 23 wos 
: 3625 2 23 wü 
: 3629 2 24 der 
: 3633 6 23 Pü
: 3640 3 21 cha 
: 3645 3 21 da?!
E