#TITLE:Try Everything
#ARTIST:Shakira
#MP3:Shakira - Try Everything.mp3
#VIDEO:Shakira - Try Everything.mkv
#COVER:Shakira - Try Everything.jpg
#BPM:230,8
#GAP:626
#ENCODING:UTF8
#AUTHOR:McLovin
: 0 3 17 Oh
: 6 3 17  oh
: 12 3 17  oh
: 18 3 17  oh
: 24 9 18  oh
: 35 2 20 ~
- 39
: 63 3 17 Oh
: 69 3 17  oh
: 75 3 17  oh
: 81 3 17  oh
: 87 12 15  oh
- 101
: 127 3 17 Oh
: 133 3 17  oh
: 139 3 17  oh
: 145 3 17  oh
* 151 11 18  oh
: 164 2 20 ~
- 168
: 192 3 17 Oh
: 198 3 17  oh
: 204 3 15  oh
: 210 3 15  oh
: 216 10 17  oh
- 228
: 235 2 13 I
: 239 2 13  messed
: 243 2 15  up
: 247 2 13  to
: 251 11 17 night
- 264
: 272 2 17 I
: 276 2 17  lost
: 280 2 17  a
: 284 2 17 no
: 287 2 18 ther
: 291 8 18  fight
- 301
: 304 2 18 I
: 308 2 18  still
: 312 2 18  mess
: 316 2 17  up
: 320 2 17  but
: 323 4 17  I'
* 328 1 20 ~ll
: 332 2 17  just
: 336 2 15  start
: 340 2 15  a
: 344 9 15 gain
- 355
: 364 2 13 I
: 368 2 13  keep
: 372 2 15  fa
: 376 2 13 lling
: 380 8 17  down
- 390
: 396 2 13 I
: 400 2 17  keep
: 404 2 17  on
: 408 3 17  hit
: 412 2 17 ting
: 416 2 18  the
: 420 6 18  ground
- 428
: 433 2 18 I
: 437 2 18  al
: 440 2 18 ways
: 444 2 18  get
: 448 2 17  up
: 452 3 17  now
: 457 2 12  to
: 460 2 12  see
: 464 2 12  what's
: 468 12 13  next
- 482
* 512 9 13 Birds
: 524 6 15  don't
: 532 6 17  just
: 540 3 17  fly
: 544 7 18 ~
- 553
: 556 4 13 They
: 563 4 10  fall
: 572 3 15  do
: 576 10 17 ~wn
: 589 8 13  and
: 600 2 17  get
: 604 7 15  u
: 612 6 17 ~p
- 620
: 639 10 13 No
: 651 7 15 bo
: 660 3 17 dy
: 666 5 17  lea
: 672 9 18 ~rns
: 685 5 13  wi
* 692 5 18 thout
: 700 13 17  get
: 715 7 15 ting
: 724 2 13  it
: 728 8 13  wo
: 737 2 10 ~n
- 741
: 756 2 13 I
: 760 2 13  wont
: 764 2 15  give
: 768 4 17  up,
: 776 2 13  no
: 780 2 13  I
: 784 2 13  wont
: 788 2 13  give
: 792 10 18  in
- 804
: 808 2 17 Till
: 812 2 18  I
: 816 3 20  reach
: 822 1 18  the
: 824 1 17 ~
: 828 5 17  end
: 836 2 17  and
: 840 2 17  then
: 844 2 17  Ill
: 848 2 20  start
: 852 2 20  a
* 856 12 20 gain
- 870
: 876 2 13 Though
: 880 2 13  Im
: 884 2 15  on
: 888 2 13  the
* 892 3 18  lea
: 896 7 17 ~d
- 905
: 908 2 17 I
: 912 2 17  wan
: 916 2 17 na
: 920 2 17  try
: 924 2 17  eve
: 927 2 18 ry
: 931 7 18 thing
- 939
: 940 2 18 I
: 944 2 18  wan
: 948 2 18 na
: 952 2 18  try
: 956 2 18  e
: 959 2 17 ven
: 963 3 17  thou
: 967 2 12 ~gh
: 972 2 12  I
: 976 2 12  could
: 980 9 13  fail
- 991
: 1012 2 13 I
: 1016 2 13  wont
: 1020 2 15  give
: 1024 4 17  up,
: 1032 2 13  no
: 1036 2 13  I
: 1040 2 13  wont
: 1044 2 13  give
* 1048 10 18  in
- 1060
: 1064 2 17 Till
: 1068 2 18  I
: 1072 3 20  reach
: 1078 1 18  the
: 1080 1 17 ~
: 1084 5 17  end
: 1092 2 17  and
: 1096 2 17  then
: 1100 2 17  Ill
: 1104 2 20  start
: 1108 2 20  a
: 1112 12 20 gain
- 1126
: 1132 2 13 Though
: 1136 2 13  Im
: 1140 2 15  on
: 1144 2 13  the
: 1148 3 18  lea
: 1152 7 17 ~d
- 1161
: 1164 2 17 I
: 1168 2 17  wan
: 1172 2 17 na
: 1176 2 17  try
: 1180 2 17  eve
: 1183 2 18 ry
: 1187 7 18 thing
- 1195
: 1196 2 18 I
: 1200 2 18  wan
: 1204 2 18 na
: 1208 2 18  try
: 1212 2 17  e
: 1215 2 17 ven
: 1219 3 17  thou
: 1223 2 12 ~gh
: 1228 2 12  I
: 1232 2 12  could
: 1236 9 13  fail
- 1247
: 1280 3 17 Oh
: 1286 3 17  oh
: 1292 3 17  oh
: 1298 3 17  oh
: 1304 9 18  oh
- 1315
* 1320 2 25 Try
: 1324 2 22  eve
: 1327 2 22 ry
: 1331 7 22 thi
: 1339 1 20 ~ng
- 1342
: 1344 3 17 Oh
: 1350 3 17  oh
: 1356 3 17  oh
: 1362 3 17  oh
: 1368 12 15  oh
- 1382
: 1384 2 25 Try
: 1388 2 24  eve
: 1391 2 24 ry
: 1395 8 24 thi
: 1404 1 25 ~ng
- 1406
: 1408 3 17 Oh
: 1414 3 17  oh
: 1420 3 17  oh
: 1426 3 17  oh
: 1432 10 18  oh
- 1444
: 1448 2 25 Try
: 1452 2 22  eve
: 1455 2 22 ry
: 1459 7 22 thi
: 1467 2 20 ~ng
- 1470
: 1472 3 17 Oh
: 1478 3 17  oh
: 1484 3 15  oh
: 1490 3 15  oh
* 1496 11 17  oh
- 1509
: 1524 2 13 Look
: 1528 2 13  how
: 1532 2 15  far
: 1536 2 17  you've
: 1540 6 17  come
- 1548
: 1552 2 17 You
: 1556 2 17  filled
: 1560 2 17  your
: 1564 2 17  heart
: 1568 2 18  with
: 1572 6 18  love
- 1580
: 1584 2 18 Ba
: 1588 2 18 by
: 1592 2 18  you've
: 1596 2 17  done
: 1600 2 17  e
: 1603 6 17 nough
: 1612 2 15  that
: 1616 2 15  cut
: 1620 2 15  your
: 1624 8 15  brea
* 1633 3 17 ~th
- 1638
: 1652 2 13 Don't
: 1656 2 13  beat
: 1660 2 15  your
: 1663 2 17 self
: 1667 6 17  up
- 1675
: 1680 2 17 Don't
: 1684 2 17  need
: 1688 2 17  to
: 1692 2 17  run
* 1696 2 18  so
: 1700 6 18  fast
- 1708
: 1716 2 18 Some
: 1720 2 18 times
: 1724 2 17  we
: 1728 2 17  come
: 1732 2 17  last
: 1736 2 17  but
: 1740 2 12  we
: 1744 2 12  did
: 1748 2 12  our
: 1752 13 13  best
- 1767
: 1780 2 13 I
: 1784 2 13  wont
: 1788 2 15  give
: 1792 4 17  up,
: 1800 2 13  no
: 1804 2 13  I
: 1808 2 13  wont
: 1812 2 13  give
* 1816 10 18  in
- 1828
: 1832 2 17 Till
: 1836 2 18  I
: 1840 3 20  reach
: 1846 1 18  the
: 1848 1 17 ~
: 1852 5 17  end
: 1860 2 17  and
: 1864 2 17  then
: 1868 2 17  Ill
: 1872 2 20  start
: 1876 2 20  a
: 1880 12 20 gain
- 1894
: 1900 2 13 Though
: 1904 2 13  Im
: 1908 2 15  on
: 1912 2 13  the
* 1916 3 18  lea
: 1920 7 17 ~d
- 1929
: 1932 2 17 I
: 1936 2 17  wan
: 1940 2 17 na
: 1944 2 17  try
: 1948 2 17  eve
: 1951 2 18 ry
: 1955 7 18 thing
- 1963
: 1964 2 18 I
: 1968 2 18  wan
: 1972 2 18 na
: 1976 2 18  try
: 1980 2 18  e
: 1983 2 17 ven
: 1987 3 17  thou
: 1991 2 12 ~gh
: 1996 2 12  I
: 2000 2 12  could
: 2004 9 13  fail
- 2015
: 2036 2 13 I
: 2040 2 13  wont
: 2044 2 15  give
: 2048 4 17  up,
: 2056 2 13  no
: 2060 2 13  I
: 2064 2 13  wont
: 2068 2 13  give
: 2072 10 18  in
- 2084
: 2088 2 17 Till
: 2092 2 18  I
: 2096 3 20  reach
: 2102 1 18  the
: 2104 1 17 ~
: 2108 5 17  end
: 2116 2 17  and
: 2120 2 17  then
: 2124 2 17  Ill
: 2128 2 20  start
: 2132 2 20  a
* 2136 12 20 gain
- 2150
: 2156 2 13 Though
: 2160 2 13  Im
: 2164 2 15  on
: 2168 2 13  the
: 2172 3 18  lea
: 2176 7 17 ~d
- 2185
: 2188 2 17 I
: 2192 2 17  wan
: 2196 2 17 na
: 2200 2 17  try
: 2204 2 17  eve
: 2207 2 18 ry
: 2211 7 18 thing
- 2219
: 2220 2 18 I
: 2224 2 18  wan
: 2228 2 18 na
: 2232 2 18  try
: 2236 2 17  e
: 2239 2 17 ven
: 2243 3 17  thou
: 2247 2 12 ~gh
: 2252 2 12  I
: 2256 2 12  could
* 2260 9 13  fail
- 2271
: 2305 8 13 I'll
: 2316 6 15  keep
: 2325 4 17  o
: 2330 3 12 ~n
: 2336 9 12  ma
: 2348 6 13 king
: 2356 2 13  tho
: 2359 5 15 ~se
: 2367 9 15  new
: 2379 9 15  mis
: 2391 14 15 takes
- 2407
: 2433 8 13 I'll
: 2444 6 15  keep
: 2453 4 17  o~
: 2458 3 12 n 
: 2464 9 12 ma
: 2476 6 13 king
: 2484 2 13  the
: 2487 6 15 ~m
: 2496 9 15  eve
: 2508 7 15 ry
: 2516 2 13 ~
: 2520 6 15  day
: 2528 8 13 ~
- 2538
: 2552 5 15 Those
: 2560 9 15  new
* 2572 7 15  mi
: 2580 2 13 ~s
: 2584 8 13 ta
: 2593 3 10 ~kes
- 2598
: 2624 3 17 Oh
: 2630 3 17  oh
: 2636 3 17  oh
: 2642 3 17  oh
* 2648 9 18  oh
- 2659
: 2664 2 25 Try
: 2668 2 22  eve
: 2671 2 22 ry
: 2675 7 22 thi
: 2683 1 20 ~ng
- 2686
: 2688 3 17 Oh
: 2694 3 17  oh
: 2700 3 17  oh
: 2706 3 17  oh
: 2712 12 15  oh
- 2726
: 2728 2 25 Try
: 2732 2 24  eve
: 2735 2 24 ry
: 2739 8 24 thi
: 2748 1 25 ~ng
- 2750
: 2752 3 17 Oh
: 2758 3 17  oh
: 2764 3 17  oh
: 2770 3 17  oh
: 2776 10 18  oh
- 2788
: 2792 2 25 Try
: 2796 2 22  eve
: 2799 2 22 ry
* 2803 7 22 thi
: 2811 2 20 ~ng
- 2814
: 2816 3 17 Oh
: 2822 3 17  oh
: 2828 3 15  oh
: 2834 3 15  oh
: 2840 9 17  oh
- 2851
: 2879 7 20 Try
: 2887 4 18 ~
: 2893 5 18  eve
: 2900 2 17 ry
: 2904 5 17 thi
: 2911 1 15 ~
* 2914 37 13 ~ng!
E