#TITLE:Treat You Better
#ARTIST:Shawn Mendes
#MP3:Shawn Mendes - Treat You Better.mp3
#VIDEO:Shawn Mendes - Treat You Better.mp4
#COVER:Shawn Mendes - Treat You Better[CO].jpg
#BPM:165,84
#GAP:34790
#MedleyStartBeat:291
#MedleyEndBeat:511
#ENCODING:UTF8
#PREVIEWSTART:61,211
#LANGUAGE:English
#GENRE:Pop
#YEAR:2016
#CREATOR:amro98
: 0 2 -9 I
: 3 8 -7 ~
: 12 3 -11  won't
: 16 2 -11  lie
: 19 7 -9 ~
: 27 2 -11  to
: 30 7 -11  you
- 39
: 56 1 -11 I
: 58 2 -9  know
* 61 2 -7  he's
: 65 7 -7  just
- 74
: 76 2 -11 Not
: 80 1 -11  right
: 82 7 -9 ~
: 91 3 -11  for
: 95 7 -11  you
- 104
: 121 1 -11 And
: 123 1 -11  you
: 125 1 -9  can
: 127 1 -9  tell
: 129 1 -7  me
: 131 1 -7  if
: 133 1 -7  I'm
: 135 3 -4  off
- 139
: 139 1 -11 But
: 141 1 -11  I
: 143 1 -11  see
: 145 1 -9  it
: 147 1 -9  on
: 149 2 -7  your
: 152 2 -9  face
- 155
: 156 1 -11 When
: 158 1 -11  you
: 160 1 -11  say
: 162 1 -11  that
: 164 1 -11  he's
* 166 1 -11  the
: 168 1 -11  one
: 170 1 -9  that
: 172 1 -7  you
: 174 7 -7  want
- 183
: 187 1 -11 And
: 189 1 -11  you're
: 191 1 -9  spend
: 193 1 -7 ing
: 195 1 -7  all
: 197 1 -7  your
: 199 2 -4  time
- 202
: 203 1 -11 In
: 205 1 -11  this
: 208 1 -9  wrong
: 210 1 -9  sit
: 213 1 -7 u
: 215 2 -7 a
: 219 1 -11 tion
- 221
: 221 1 -11 And
: 223 1 -11  a
: 225 1 -11 ny
: 227 2 -11 time
: 230 1 -11  you
: 232 1 -11  wan
: 234 1 -9 ted
: 236 1 -9  to
: 238 2 -7  stop
- 242
: 247 1 1 I
: 249 1 1  know
: 251 1 1  I
: 253 1 1  can
: 256 7 1  treat
: 264 1 3  you
: 266 2 5 ~
: 269 1 0 ~
: 271 5 0  bet
: 277 1 1 ~
: 279 5 1 ter
- 286
* 291 3 1 Than
: 296 1 1  he
: 298 1 3 ~
: 300 4 1  can
- 306
: 310 1 1 And
: 312 1 1  any
: 314 1 1 ~
: 316 1 1  girl
: 318 1 1  like
: 320 6 1  you
: 327 1 3  de
: 329 2 5 ~
: 332 2 0 ~
: 335 5 0 serves
: 341 2 1 ~
: 344 4 1  a
- 350
: 355 3 1 Gen
: 359 1 1 tle
: 361 1 3 ~
: 363 4 1 man
- 369
: 373 1 1 Tell
: 375 1 1  me
: 377 1 1  why
: 379 1 1  are
: 381 1 1  we
: 383 2 3  wast
: 386 2 5 ing
: 389 1 5  time
: 391 1 3 ~
- 393
: 393 1 1 On
: 395 1 1  all
: 397 1 1  your
: 399 2 3  was
: 402 2 5 ted
: 405 3 3  crime
- 409
: 409 1 1 When
: 411 1 1  you
: 413 1 1  should
: 415 2 1  be
: 418 2 1  with
: 421 3 1  me
: 425 1 3  in
: 427 1 5 ~
: 429 5 5 stead
- 436
: 439 1 1 I
: 441 1 1  know
: 443 1 1  I
: 445 1 1  can
: 448 7 1  treat
: 456 1 3  you
: 458 2 5 ~
: 461 1 0 ~
: 463 5 0  bet
: 469 1 1 ~
: 471 5 1 ter
- 478
: 495 2 8 Bet
* 498 2 6 ter
: 501 2 5  than
: 504 2 6  he
: 508 3 5  can
- 512
: 512 2 -9 I'll
: 515 6 -7 ~
- 522
: 523 2 -11 Stop
: 527 2 -11  time
: 530 7 -9 ~
: 539 2 -11  for
: 542 7 -11  you
- 551
: 565 1 -11 The
: 567 2 -11  se
: 570 2 -9 cond
: 573 1 -7  you
: 576 9 -7  say
- 586
: 587 2 -11 You'd
: 591 1 -11  like
: 593 8 -9 ~
: 603 1 -11  me
* 606 1 -11  too
* 608 2 -14 ~
- 612
* 638 1 -9 I
: 640 1 -7  just
: 642 2 -7  wan
: 645 1 -7 na
: 647 3 -4  give
- 651
: 651 1 -11 You
: 653 1 -11  the
: 655 1 -9  lov
: 657 1 -11 ing
: 659 1 -9  that
: 661 1 -7  you're
: 663 2 -9  miss
: 667 2 -11 ing
- 670
: 671 1 -11 Ba
: 673 1 -11 by
: 675 1 -11  just
: 677 1 -11  to
: 679 2 -11  wake
: 682 1 -9  up
: 685 1 -7  with
: 687 7 -7  you
- 696
: 699 1 -11 We'll
: 701 1 -11  be
: 703 1 -11  eve
: 705 1 -7 ry
: 707 1 -7 thing
: 709 1 -7  I
: 711 3 -4  need
- 715
: 715 1 -9 And
: 717 1 -9  this
: 720 1 -11  could
: 722 1 -9  be
: 725 1 -7  so
* 727 2 -9  diff
: 730 3 -11 erent
- 734
: 735 1 -11 Tell
: 737 1 -11  me
: 739 1 -11  what
: 741 1 -11  you
: 743 1 -11  want
: 745 1 -9 ~
: 747 1 -7  to
: 749 6 -7  do
- 756
: 757 1 1 'Coz
: 759 1 1  I
: 761 1 1  know
: 763 1 1  I
: 765 1 1  can
: 768 7 1  treat
: 776 1 3  you
: 778 2 5 ~
: 781 1 0 ~
: 783 5 0  bet
: 789 1 1 ~
: 791 5 1 ter
- 798
: 803 3 1 Than
: 807 1 1  he
: 809 1 3 ~
: 811 5 1  can
- 818
: 821 1 1 And
: 823 1 1  any
: 825 1 1 ~
: 827 1 1  girl
: 829 1 1  like
: 831 6 1  you
: 839 1 3  de
: 841 2 5 ~
: 844 2 0 ~
: 847 5 0 serves
: 853 2 1 ~
: 856 4 1  a
- 862
: 867 3 1 Gen
: 871 1 1 tle
: 873 1 3 ~
: 875 4 1 man
- 881
: 885 1 1 Tell
: 887 1 1  me
: 889 1 1  why
: 891 1 1  are
: 893 1 1  we
: 895 2 3  was
* 898 2 5 ting
: 901 1 5  time
: 903 1 3 ~
- 905
: 905 1 1 On
: 907 1 1  all
: 909 1 1  your
: 911 2 3  was
: 914 2 5 ted
: 917 3 3  crime
- 921
: 921 1 1 When
: 923 1 1  you
: 925 1 1  should
: 927 2 1  be
: 930 2 1  with
: 933 3 1  me
: 937 1 3  in
: 939 1 5 ~
: 941 5 5 stead
- 948
: 951 1 1 I
: 953 1 1  know
: 955 1 1  I
: 957 1 1  can
: 959 7 1  treat
: 967 1 3  you
: 969 2 5 ~
: 972 2 0 ~
: 975 5 0  bet
: 981 1 1 ~
: 983 5 1 ter
- 990
: 1007 2 8 Bet
: 1010 2 6 ter
: 1013 2 5  than
: 1016 2 6  he
: 1019 5 5  can
- 1026
: 1071 2 8 Bet
: 1074 2 6 ter
: 1077 2 5  than
: 1080 2 6  he
: 1083 5 5  can
- 1090
: 1151 8 1 Give
* 1162 2 0  me
: 1165 1 1  a
: 1168 6 3  sign
- 1175
: 1177 2 8 Take
: 1181 2 6  my
: 1184 7 5  hand
- 1192
: 1193 2 3 We'll
: 1196 2 1  be
: 1199 6 -2  fine
- 1207
: 1215 8 1 Pro
: 1225 2 0 mise
: 1228 2 1  I
* 1231 8 3  won't
: 1241 2 1  let
: 1244 2 0  you
: 1247 8 -2  down
- 1257
: 1274 2 0 Just
: 1278 8 1  know
: 1288 2 1  that
: 1291 2 1  you
: 1294 6 3  don't
- 1302
: 1304 3 8 Have
: 1308 1 6  to
: 1311 9 5  do
: 1321 1 3  this
: 1324 2 1  a
: 1327 9 -2 lone
- 1338
: 1343 1 0 Pro
: 1345 7 1 ~
: 1353 1 0 mise
: 1356 2 1  I'll
: 1359 2 3  ne
: 1362 2 1 ver
: 1365 2 0  let
* 1369 2 -4  you
: 1373 8 -2  down
- 1383
: 1463 1 1 I
: 1465 1 1  know
: 1467 1 1  I
: 1469 1 1  can
: 1472 7 1  treat
: 1480 1 3  you
: 1482 2 5 ~
: 1485 1 0 ~
: 1487 5 0  bet
: 1493 1 1 ~
: 1495 5 1 ter
- 1502
: 1528 1 1 I
: 1530 1 1  know
: 1532 1 1  I
: 1534 1 1  can
: 1537 7 1  treat
: 1545 1 3  you
: 1547 2 5 ~
: 1550 1 0 ~
: 1552 5 0  bet
: 1558 1 1 ~
: 1560 5 1 ter
- 1567
: 1593 1 1 I
: 1595 1 1  know
: 1597 1 1  I
: 1599 1 1  can
: 1602 7 1  treat
: 1610 1 3  you
: 1612 2 5 ~
: 1615 1 0 ~
: 1617 5 0  bet
: 1623 1 1 ~
: 1625 5 1 ter
- 1632
: 1667 1 0 Pro
: 1669 8 1 ~
: 1678 1 0 mise
: 1680 2 1  I'll
* 1684 2 3  ne
* 1687 2 1 ver
: 1690 2 0  let
: 1694 2 -4  you
: 1697 8 -2  down
- 1707
: 1721 1 1 'Coz
: 1723 1 1  I
: 1725 1 1  know
: 1727 1 1  I
: 1729 1 1  can
: 1732 4 1  treat
- 1738
: 1740 1 3 You
: 1742 2 5 ~
- 1745
: 1747 5 0 Bet
: 1753 1 1 ~
: 1755 5 1 ter
- 1762
: 1767 3 1 Than
: 1771 1 1  he
: 1773 1 3 ~
: 1775 5 1  can
- 1782
: 1785 1 1 And
: 1787 1 1  any
: 1789 1 1 ~
: 1791 1 1  girl
* 1793 2 1  like
: 1797 5 1  you
- 1803
: 1804 1 3 De
: 1806 2 5 ~
: 1811 5 0 serves
: 1817 2 1 ~
: 1820 4 1  a
- 1826
: 1831 3 1 Gen
: 1835 1 1 tle
: 1837 1 3 ~
: 1839 4 1 man
- 1845
: 1849 1 1 Tell
: 1851 1 1  me
: 1853 1 1  why
: 1855 1 1  are
: 1857 1 1  we
* 1859 2 3  was
: 1862 2 5 ting
: 1865 1 5  time
: 1867 1 3 ~
- 1869
: 1869 1 1 On
: 1871 1 1  all
: 1873 1 1  your
: 1875 2 3  was
: 1878 2 5 ted
: 1881 3 3  crime
- 1885
: 1885 1 1 When
: 1887 1 1  you
: 1889 1 1  should
: 1891 2 1  be
: 1894 2 1  with
: 1897 3 1  me
: 1901 1 3  in
: 1903 1 5 ~
: 1905 5 5 stead
- 1912
: 1915 1 1 I
: 1917 1 1  know
: 1919 1 1  I
: 1921 1 1  can
: 1923 7 1  treat
: 1931 1 3  you
: 1933 2 5 ~
: 1936 2 0 ~
: 1939 5 0  bet
: 1945 1 1 ~
: 1947 5 1 ter
- 1954
: 1971 2 8 Bet
: 1974 2 6 ter
: 1977 2 5  than
: 1980 2 6  he
* 1984 3 5  can
* 1988 1 3 ~
* 1990 1 1 ~
* 1992 1 3 ~
* 1994 1 5 ~
* 1996 1 3 ~
* 1998 13 5 ~
* 2012 2 3 ~
- 2015
* 2016 1 3 Oh
* 2018 1 5 ~
* 2020 1 3 ~
* 2022 4 1 ~
* 2027 1 -2 ~
- 2030
: 2035 2 8 Bet
: 2038 2 6 ter
: 2041 2 5  than
: 2044 2 6  he
: 2047 5 5  can
- 2054
: 2099 2 8 Bet
: 2102 2 6 ter
: 2105 2 5  than
: 2108 2 6  he
: 2111 5 5  can
- 2118
: 2163 2 8 Bet
: 2166 2 6 ter
: 2169 2 5  than
: 2172 2 6  he
: 2175 5 5  can
- 2182
: 2227 2 8 Bet
: 2230 2 6 ter
* 2233 2 5  than
* 2236 2 6  he
: 2239 5 5  can
E