#TITLE:Stitches
#ARTIST:Shawn Mendes
#MP3:Shawn Mendes - Stitches.mp3
#VIDEO:Shawn Mendes - Stitches.mp4
#COVER:Shawn Mendes - Stitches.jpg
#BPM:300
#GAP:29821
#ENCODING:UTF8
#LANGUAGE:English
#GENRE:Pop
#YEAR:2015
#AUTHOR:amro98 & aac
: 0 3 -4 I
: 4 2 -2 ~
: 8 4 -4  thought
: 16 6 -7  that
: 24 3 -4  I've
: 28 2 -2 ~
: 34 1 -4  been
: 36 2 -7 ~
: 40 4 -7  hurt
: 50 2 -9  be
: 53 22 -7 fore
- 85
: 112 2 -9 But
: 116 6 -7  no
: 128 2 -9  one's
: 133 6 -7  e
: 144 2 -9 ver
: 148 4 -7  left
: 156 3 -9  me
: 160 2 -11 ~
: 164 6 -11  quite
: 172 3 -11  this
: 176 2 -9 ~
: 180 22 -11  sore
- 222
: 257 2 -4 Your
: 260 2 -2 ~
: 264 4 -4  words
: 275 4 -7  cut
: 280 3 -4  dee
: 284 2 -2 ~
: 288 3 -4 per
: 292 2 -7 ~
: 296 6 -7  than
: 304 2 -9  a
: 308 22 -7  knife
- 340
: 365 3 1 Now
: 370 2 3  I
: 374 3 5  need
: 378 4 3 ~
: 384 2 3  some
: 388 8 3 one
: 400 2 1  to
: 407 1 3  breathe
: 409 3 5 ~
: 413 2 3 ~
: 418 2 3  me
: 422 8 1  back
: 435 1 3  to
: 438 22 1  life
- 480
: 514 2 -4 Got
: 518 1 -2  a
: 522 2 -2  fee
: 525 3 -2 ling
: 530 2 -2  that
: 534 2 -2  I'm
: 537 2 -2  go
: 540 2 0 ~
* 544 6 0 ing
: 554 2 0  un
: 557 2 -2 ~
: 560 9 -2 der
- 575
: 578 2 -4 But
: 581 2 -2  I
: 585 4 -2  know
: 594 2 -2  that
: 598 2 -2  I'll
: 602 2 -2  make
: 605 2 0 ~
: 610 7 0  it
: 618 7 0  out
: 627 1 1  a
: 629 7 1 live
- 640
: 642 2 -4 If
: 646 2 -2  I
: 651 4 -2  quit
: 658 2 -2  call
: 661 3 -2 ing
: 665 2 -2  you
: 668 3 0 ~
: 673 6 0  my
: 682 2 0  lo
: 685 2 -2 ~
: 688 7 -2 ver
- 703
: 706 2 1 Move
* 710 7 0  on
* 719 2 1 ~
* 722 6 -2 ~
- 734
: 736 3 3 You
: 740 2 5 ~
: 744 4 3  watch
: 752 4 1  me
: 760 4 5  bleed
* 765 3 8  un
: 769 3 5 til
: 773 2 3  I
: 777 4 5  can't
: 782 2 3 ~
: 785 8 3  breathe
- 804
: 808 4 3 Shak
: 816 4 1 ing
: 824 2 5  fall
: 828 2 8 ing
: 832 2 5  on
: 836 2 3 to
: 840 3 5  my
: 844 2 3 ~
: 848 6 3  knees
- 864
: 868 2 5 And
: 872 4 3  now
: 880 4 1  that
: 888 2 -2  I'm
: 892 4 1  with
: 900 4 1 out
* 908 4 8  your
* 916 12 5  kiss
* 932 6 3 es
- 948
: 952 2 -2 I'll
: 956 4 0  be
: 964 4 1  need
: 972 4 8 ing
: 980 12 5  stit
: 996 6 3 ches
- 1012
: 1016 2 5 Trip
: 1020 2 8 ping
: 1024 2 5  o
: 1028 2 3 ver
: 1032 3 5  my
: 1036 2 3 ~
: 1040 8 3 self
- 1060
: 1064 4 3 Ach
: 1072 4 1 ing
: 1080 2 5  begg
: 1084 2 8 ing
: 1088 2 5  you
: 1092 2 3  to
: 1096 3 5  come
: 1100 2 3 ~
: 1104 6 3  help
- 1120
: 1124 2 5 And
: 1128 4 3  now
: 1136 4 1  that
: 1144 2 -2  I'm
: 1148 4 0  with
: 1156 4 1 out
* 1164 4 8  your
* 1172 12 5  kiss
* 1188 6 3 es
- 1204
: 1208 2 -2 I'll
: 1212 4 0  be
: 1220 4 1  need
: 1228 4 8 ing
: 1236 12 5  stit
: 1252 8 3 ches
- 1270
: 1281 6 -2 Just
: 1290 6 -4  like
: 1298 4 -7  a
: 1306 6 -2  moth
: 1314 5 -4  drawn
: 1320 8 -7  to
: 1331 1 -9  a
: 1334 14 -7  flame
- 1368
: 1388 4 -11 Oh
: 1394 2 -9  you
: 1397 5 -7  lured
: 1403 4 -9 ~
: 1408 2 -9  me
: 1414 6 -7  in
: 1424 2 -9  I
: 1430 2 -9  could
: 1433 3 -7 ~
: 1437 6 -9 n't
: 1446 9 -11  sense
: 1458 2 -9  the
: 1461 12 -11  pain
- 1493
: 1536 4 -2 Your
: 1544 2 -4  bit
: 1548 4 -7 ter
* 1556 4 -2  heart
: 1564 8 -4  cold
: 1576 4 -7  to
: 1584 2 -9  the
: 1588 16 -7  touch
- 1614
: 1638 2 -11 Now
: 1642 2 -11  I'm
: 1646 2 -11  gon
: 1650 2 -9 na
: 1654 4 -7  reap
: 1662 4 -7  what
: 1670 4 -7  I
: 1678 8 -7  sow
- 1697
: 1701 2 -11 I'm
: 1705 2 -11  left
: 1709 2 -11  see
: 1713 2 -9 ing
: 1717 4 -7  red
: 1725 4 -7  on
: 1733 4 -7  my
* 1741 16 -9  own
- 1767
: 1794 2 -4 Got
: 1798 1 -2  a
: 1802 2 -2  feel
: 1805 3 -2 ing
: 1810 2 -2  that
: 1814 2 -2  I'm
: 1817 2 -2  go
: 1820 2 0 ~
: 1824 6 0 ing
: 1834 2 0  un
: 1837 2 -2 ~
: 1841 9 -2 der
- 1856
: 1858 2 -4 But
: 1861 2 -2  I
: 1865 4 -2  know
: 1874 2 -2  that
: 1878 2 -2  I'll
: 1882 2 -2  make
: 1885 2 0 ~
: 1890 7 0  it
: 1898 7 0  out
: 1907 1 1  a
: 1909 7 1 live
- 1920
: 1922 2 -4 If
: 1926 2 -2  I
: 1931 4 -2  quit
: 1938 2 -2  call
: 1941 3 -2 ing
: 1945 2 -2  you
: 1948 3 0 ~
: 1953 6 0  my
: 1962 2 0  lo
: 1965 2 -2 ~
: 1968 7 -2 ver
- 1983
: 1986 2 1 Move
* 1990 7 0  on
: 1999 2 1 ~
: 2002 6 -2 ~
- 2014
: 2016 3 3 You
: 2020 2 5 ~
: 2024 4 3  watch
: 2032 4 1  me
: 2040 4 5  bleed
: 2045 3 8  un
: 2049 3 5 til
: 2053 2 3  I
: 2057 4 5  can't
: 2062 2 3 ~
: 2065 8 3  breathe
- 2084
: 2088 4 3 Shak
: 2096 4 1 ing
: 2104 2 5  fall
: 2108 2 8 ing
: 2112 2 5  on
: 2116 2 3 to
: 2120 3 5  my
: 2124 2 3 ~
: 2128 6 3  knees
- 2144
: 2148 2 5 And
: 2152 4 3  now
: 2160 4 1  that
: 2168 2 -2  I'm
: 2172 4 1  with
: 2180 4 1 out
: 2188 4 8  your
: 2196 12 5  kiss
: 2212 6 3 es
- 2228
: 2232 2 -2 I'll
: 2236 4 0  be
: 2244 4 1  need
* 2252 4 8 ing
* 2260 12 5  stit
: 2276 6 3 ches
- 2292
: 2296 2 5 Tripp
: 2300 2 8 ing
: 2304 2 5  o
: 2308 2 3 ver
: 2312 3 5  my
: 2316 2 3 ~
: 2320 8 3 self
- 2340
: 2344 4 3 Ach
: 2352 4 1 ing
: 2360 2 5  begg
: 2364 2 8 ing
: 2368 2 5  you
: 2372 2 3  to
: 2376 3 5  come
: 2380 2 3 ~
: 2384 6 3  help
- 2400
: 2404 2 5 And
: 2408 4 3  now
: 2416 4 1  that
: 2424 2 -2  I'm
: 2428 4 0  with
: 2436 4 1 out
: 2444 4 8  your
: 2452 12 5  kiss
: 2468 6 3 es
- 2484
: 2488 2 -2 I'll
: 2492 4 0  be
: 2500 4 1  need
* 2508 4 8 ing
: 2516 12 5  stit
: 2532 8 3 ches
- 2580
: 2682 2 3 Need
: 2686 2 5 le
: 2690 2 5  and
: 2694 2 3  the
: 2698 6 5  thread
- 2704
: 2706 2 1 Got
: 2710 2 3 ta
: 2714 2 3  get
: 2718 2 5  you
: 2722 2 5  out
: 2726 2 5  of
: 2730 4 5  my
: 2738 6 3  head
- 2744
: 2746 2 3 Need
: 2750 2 5 le
: 2754 2 5  and
: 2758 2 5  the
: 2762 6 5  thread
- 2768
: 2770 2 1 Gon
: 2774 2 3 na
: 2778 3 3  wind
: 2782 2 5 ~
: 2786 4 5  up
: 2794 6 3  dead
- 2807
: 2810 2 3 Need
: 2814 2 5 le
: 2818 2 5  and
: 2822 2 5  the
: 2826 6 5  thread
- 2832
: 2834 2 1 Got
: 2838 2 3 ta
: 2842 2 3  get
: 2846 2 5  you
: 2850 2 5  out
: 2854 2 5  of
: 2858 4 5  my
: 2866 6 3  head
- 2872
: 2874 2 3 Need
: 2878 2 5 le
: 2882 2 5  and
: 2886 2 5  the
* 2890 6 5  thread
- 2896
: 2898 2 1 Gon
: 2902 2 3 na
: 2906 3 3  wind
: 2910 2 5 ~
: 2914 4 5  up
: 2922 6 3  dead
- 2935
: 2938 2 3 Need
: 2942 2 5 le
: 2946 2 5  and
: 2950 2 5  the
: 2954 6 5  thread
- 2960
: 2962 2 1 Got
: 2966 2 3 ta
: 2970 2 3  get
: 2974 2 5  you
: 2978 2 5  out
: 2982 2 5  of
* 2986 4 5  my
* 2994 6 3  head
- 3000
: 3002 2 3 Need
: 3006 2 5 le
: 3010 2 5  and
: 3014 2 5  the
: 3018 6 5  thread
- 3024
: 3026 2 1 Gon
: 3030 2 3 na
: 3034 3 3  wind
: 3038 2 5 ~
: 3042 4 5  up
: 3050 6 3  dead
- 3063
: 3066 2 3 Need
: 3070 2 5 le
: 3074 2 5  and
: 3078 2 5  the
: 3082 6 5  thread
- 3088
: 3090 2 1 Got
: 3094 2 3 ta
: 3098 2 3  get
: 3102 2 5  you
: 3106 2 5  out
: 3110 2 5  of
* 3114 4 5  my
* 3122 4 3  head
- 3128
: 3130 2 3 Get
: 3134 2 5  you
: 3138 2 5  out
: 3142 2 5  of
: 3146 4 5  my
: 3154 6 3  head
- 3166
: 3169 3 3 You
: 3173 3 5 ~
: 3178 4 3  watch
: 3186 4 1  me
: 3194 2 5  bleed
: 3198 2 8  un
: 3202 2 5 til
: 3206 2 3  I
: 3210 3 5  can't
: 3214 2 3 ~
: 3218 6 3  breathe
- 3234
: 3242 4 3 Shak
: 3250 4 1 ing
: 3258 2 5  fall
* 3262 2 8 ing
: 3266 2 5  on
: 3270 2 3 to
: 3274 3 5  my
: 3278 2 3 ~
: 3282 6 3  knees
- 3298
: 3302 2 5 And
: 3306 4 3  now
: 3314 4 1  that
: 3322 2 -2  I'm
: 3326 4 0  with
: 3334 4 1 out
: 3342 4 8  your
: 3350 12 5  kiss
: 3366 6 3 es
- 3382
: 3386 2 -2 I'll
: 3390 4 0  be
: 3398 4 1  need
: 3406 4 8 ing
: 3414 12 5  stit
: 3430 6 3 ches
- 3446
: 3450 2 5 Trip
: 3454 2 8 ping
: 3458 2 5  o
: 3462 2 3 ver
: 3466 3 5  my
: 3470 2 3 ~
* 3474 8 3 self
- 3494
: 3498 4 3 Ach
: 3506 4 1 ing
: 3514 2 5  begg
: 3518 2 8 ing
: 3522 2 5  you
: 3526 2 3  to
: 3530 3 5  come
: 3534 2 3 ~
: 3538 6 3  help
- 3554
: 3558 2 5 And
: 3562 4 3  now
: 3570 4 1  that
: 3578 2 -2  I'm
: 3582 4 0  with
: 3590 4 1 out
: 3598 4 8  your
: 3606 12 5  kiss
: 3622 6 3 es
- 3638
: 3642 2 -2 I'll
: 3646 4 0  be
: 3654 4 1  need
: 3662 4 8 ing
* 3670 12 5  stit
* 3686 8 3 ches
- 3703
: 3706 2 -2 I'm
: 3710 4 0  with
: 3718 4 1 out
: 3726 4 8  your
: 3734 12 5  kiss
: 3750 6 3 es
- 3766
: 3770 2 -2 I'll
: 3774 4 0  be
: 3782 4 1  need
: 3790 4 8 ing
: 3798 12 5  stit
: 3814 8 3 ches
- 3831
: 3834 2 -2 I'm
: 3838 4 0  with
: 3846 4 1 out
: 3854 4 8  your
* 3862 12 5  kiss
: 3878 6 3 es
- 3894
: 3898 2 -2 I'll
: 3902 4 0  be
: 3910 4 1  need
: 3918 4 8 ing
: 3926 12 5  stit
: 3942 8 3 ches
E