#TITLE:Stay with me
#ARTIST:Shearer
#LANGUAGE:English
#MP3:Shearer - Stay with me.ogg
#COVER:Shearer - Stay with me [CO].jpg
#BACKGROUND:Shearer - Stay with me [BG].jpg
#BPM:294,06
#GAP:1880
: 0 4 8 Hold
: 6 4 8  me
: 12 4 11  back
: 18 4 13  when
: 24 8 8  I'm
- 34
: 36 3 8 on
: 42 2 6  the
: 46 4 6  edge,
- 52
: 54 2 6 get
: 57 2 6 ting
: 60 2 6  rea
: 63 2 6 dy
: 66 3 6  to
: 72 4 8  drop.
- 78
: 81 2 4 I
: 84 4 8  don't
: 90 2 8  wan
: 93 2 8 na
: 96 4 8  die,
- 101
: 102 2 8 I
: 105 2 8  don't
: 108 2 8  real
: 111 2 8 ly
: 114 2 9  wan
: 117 2 9 na
: 120 4 8  die,
- 125
: 126 3 1 cause
: 132 2 8  If
: 135 2 8  I
: 138 3 8  did,
- 142
: 144 2 8 then
: 147 2 8  you
: 150 2 8  would
: 153 2 9 n't
: 156 3 8  be
* 168 3 8  with
: 174 4 1  me.
- 180
: 186 4 4 You
: 192 3 4  give
: 198 3 4  me
: 204 4 6  strength
: 210 3 4  to
: 216 4 3  o
: 222 4 4 ver
: 228 4 4 come
- 233
: 234 3 4 the
: 240 4 4  weak
: 246 2 4 ness
: 252 3 6  that's
: 258 3 4  come
: 264 4 3  o
: 270 5 4 ver
- 277
: 282 2 4 me.
: 285 2 4  I
: 288 4 4  owe
: 294 5 1  you,
- 301
: 306 4 4 I
* 312 4 4  owe
: 318 4 1  you.
- 324
: 330 2 4 I
: 333 2 4  won't
: 336 2 4  let
: 339 2 4  you
: 342 4 1  go,
- 347
: 348 4 6 I
: 354 3 4  need
: 360 4 3  you
: 366 3 1 ~.
- 371 372
: 390 3 1 So
* 396 7 8  where
: 405 5 8  I
: 414 5 4  go
: 420 7 1 ~
- 429 430
: 444 4 11 Stay
: 450 3 11  with
: 456 62 8  me.
- 520 562
: 582 3 1 So
: 588 6 8  where
: 597 6 8  I
: 606 5 9  go
: 612 4 8 ~
: 618 10 4 ~
- 630
: 636 4 11 Stay
: 642 3 11  with
* 648 62 8  me
- 712 748
: 768 4 8 Hold
: 774 3 8  me
: 780 4 11  back
: 786 4 13  when
: 792 8 8  I'm
- 802
: 804 4 8 on
: 810 2 6  the
: 813 6 6  move,
- 820
: 822 2 6 get
: 825 2 6 ting
: 828 2 6  rea
: 831 2 6 dy
: 834 2 6  to
: 840 2 8  hit
: 843 4 8  on.
- 849
: 852 4 8 A
: 858 2 8 pril
: 861 5 8  Luck,
- 868
: 875 3 8 what
: 879 2 8  a
* 882 3 9  nice
: 888 3 8  name
: 894 4 1  to
: 906 4 8  have.
- 911
: 912 4 6 We
: 924 4 3  will
: 930 4 3  be
: 936 6 3  one.
- 944 945
: 954 2 4 Stand
: 957 2 3 ing
: 960 2 4  pa
: 963 4 4 ra
: 970 5 4 lyzed
- 976
: 978 2 3 as
: 981 2 4  you
: 984 3 6  take
: 990 2 4  con
: 994 4 4 trol
- 1000
: 1002 3 4 of
: 1008 2 4  bo
: 1011 2 4 dy
: 1014 3 4  and
* 1020 5 6  sou
: 1026 4 4 ~
: 1032 4 3 ~
: 1038 4 4 ~l.
- 1044
: 1050 2 4 I
: 1053 3 4  let
: 1059 2 1  you
: 1062 3 4  in,
: 1068 3 4  let
: 1074 2 1  you
: 1077 3 4  in,
: 1083 3 4  let
: 1089 2 1  you
: 1092 4 4  in.
- 1098
: 1104 2 4 I
: 1107 3 4  won't
: 1116 3 6  let
: 1122 3 8  you
: 1128 5 9  go
: 1134 4 8 ~
: 1140 6 6 ~.
- 1148 1149
: 1158 2 4 So
: 1164 5 8  where
: 1173 5 8  I
: 1182 4 4  go
: 1188 4 1 ~
- 1194 1195
: 1212 3 11 Stay
: 1218 3 11  with
* 1224 51 8  me
: 1276 3 6 ~
: 1280 11 1 ~
- 1293 1330
: 1350 3 4 So
: 1356 6 8  where
: 1365 5 8  I
: 1374 4 9  go
: 1380 9 8 ~
: 1391 8 4 ~
- 1401
: 1404 3 12 Stay
: 1410 3 12  with
: 1416 50 8  me
* 1470 12 1 ~
- 1484 1526
: 1546 2 8 I
: 1549 2 11  need
: 1554 2 11  you
: 1557 3 11  all
: 1563 3 8  my
: 1570 2 13  li
: 1573 6 11 ~fe.
- 1581 1582
: 1593 2 8 You're
: 1596 3 11  hel
: 1602 2 11 ping
: 1605 3 11  me
: 1611 3 8  sur
: 1617 2 13 vi
* 1620 8 11 ~ve.
- 1630
: 1633 9 8 Fear
: 1650 2 1  my
: 1653 2 4  es
: 1656 2 6 sen
: 1659 2 6 tial
: 1666 6 6  frie
: 1674 18 4 ~nd.
- 1694 1717
: 1737 2 4 We're
: 1740 5 8  one
: 1749 3 6  from
: 1755 2 4  the
: 1762 2 4  sta
: 1765 5 1 ~rt.
- 1772 1773
: 1785 2 1 We're
: 1788 4 8  one
: 1794 2 8  till
: 1797 3 6  death
: 1803 2 4  us
* 1809 7 8  part.
- 1818
: 1824 6 8 Fear
: 1842 2 1  up
: 1848 2 6  till
: 1851 3 6  the
: 1857 7 6  e
: 1866 18 4 ~nd.
- 1886 2285
: 2305 3 8 Hold
: 2310 3 8  me
: 2316 3 8  back
: 2322 3 6  when
: 2328 5 8  one,
- 2335
: 2341 3 8 one
: 2346 2 6  more
: 2350 3 6  step
: 2355 4 6  is
: 2365 2 6  all
: 2369 2 8  it
: 2374 5 4  takes
- 2381
: 2385 2 1 for
: 2388 2 4  me
: 2391 2 4  to
: 2394 2 4  get
: 2397 2 4  a
: 2400 4 4 head.
- 2406
: 2409 2 3  I'd
: 2412 2 4  real
: 2415 2 4 ly
: 2418 2 4  get
: 2421 2 6  a
: 2424 4 4 head.
- 2429
: 2430 2 1 But
: 2433 2 3  that
: 2436 2 4  tug
: 2439 2 4  'o
: 2442 4 4  war
: 2448 3 4  leaves
: 2454 3 4  me
: 2460 2 6  be
: 2463 3 3 ing
: 2469 2 4  dra
: 2472 5 1 ~gged.
- 2479 2480
: 2490 4 8 I
: 2496 3 8  need
: 2502 3 8  more
: 2509 4 8  strength
: 2515 2 6  to
: 2518 3 8  o
: 2523 2 6 ver
: 2527 5 8 come
- 2534
: 2538 3 8 the
: 2544 4 8  weak
: 2550 3 6 ness
: 2556 3 8  that's
: 2562 4 6  come
: 2568 4 4  o
: 2574 5 3 ver
- 2581
: 2586 2 6 me.
: 2589 2 4  I
: 2592 4 4  own
* 2598 5 8  you,
- 2605
: 2610 3 4 I
: 2616 3 4  own
: 2622 4 8  you.
- 2628
F 2635 2 12 I
F 2638 2 12  could
F 2641 2 12  own
F 2644 2 12  you
F 2647 1 12  if
F 2649 2 12  I'd
F 2652 2 12  just
F 2658 2 12  let
F 2664 3 12  go.
- 2669 2670
: 2695 3 1 So
: 2701 5 8  where
: 2710 4 8  I
: 2719 4 4  go
: 2724 4 1 ~
- 2730 2731
: 2742 3 1 So
: 2748 5 8  where
: 2758 4 8  I
: 2766 4 9  go
: 2772 8 8 ~
- 2782
: 2790 3 8 So
* 2796 6 20  where
: 2806 5 20  I
: 2814 41 16  go
- 2857 2869
: 2889 2 4 We're
: 2892 6 11  one
: 2902 4 11  from
: 2908 2 8  the
: 2914 7 1  start.
- 2923 2924
: 2937 2 4 We're
: 2940 4 11  one
: 2946 2 11  till
: 2949 3 11  death
: 2955 3 8  us
: 2962 6 1  part.
- 2970
* 2976 7 8 Fear
: 2994 2 1  up
: 2997 2 1  un
: 3000 2 6 til
: 3003 2 6  the
: 3010 6 6  e
: 3018 11 4 ~
: 3031 5 3 ~nd.
- 3038 3064
: 3084 2 4 I
: 3087 3 8  am
: 3092 5 6  yours
: 3102 2 4  to
: 3105 7 4  own.
- 3114 3115
: 3129 2 1 I'll
: 3132 4 8  do
: 3138 2 8  what
: 3141 3 6  you
: 3147 3 4  con
: 3154 8 8 done.
- 3164
: 3168 8 8 Fear,
: 3192 2 6  bit
: 3195 2 6 ter
: 3201 3 6 sweet
: 3207 3 4  my
: 3214 9 4  friend.
- 3225 3254
: 3274 2 4 We're
* 3277 5 8  one
: 3285 4 6  from
: 3291 2 4  the
: 3297 5 4  sta
: 3305 4 1 ~rt.
- 3311 3312
: 3321 2 4 We're
: 3324 4 8  one
: 3330 2 6  till
: 3333 3 6  death
: 3339 3 4  us
: 3346 9 8  part.
- 3357
: 3360 9 8 Fear
: 3378 2 -1  up
: 3381 2 -1  un
: 3384 2 6 til
: 3388 3 6  the
: 3393 7 6  e
: 3402 7 4 ~
: 3414 2 1 -
: 3417 11 -1 nd.
- 3430 3449
: 3469 5 20 I'm
: 3477 5 18  yours
: 3487 2 16  to
: 3490 10 16  own.
- 3502 3503
: 3513 2 13 I'll
: 3516 2 16  do
: 3519 3 16  what
: 3526 4 15  you
: 3534 9 18  con
: 3546 17 16 done.
- 3565 3566
: 3576 2 6 Bit
: 3579 2 6 ter
: 3585 4 6 sweet
: 3591 3 4  my
* 3598 59 4  friend
- 3659 3688
: 3708 2 4 Bit
: 3711 3 3 ter
: 3718 13 6 sweet
- 3733 3734
: 3757 2 18 Bit
: 3760 3 18 ter
: 3765 4 18 sweet
: 3773 3 16  my
: 3779 44 16  friend
- 3825 3880
: 3900 2 16 Bit
: 3903 3 15 ter
: 3910 38 18 sweet
: 3961 6 20  my
: 3970 8 20  frie
: 3980 6 16 ~nd

