#TITLE:Cheap Thrills
#ARTIST:Sia
#MP3:Sia - Cheap Thrills.mp3
#VIDEO:Sia - Cheap Thrills.mp4
#COVER:sia-cheap-thrills.jpg
#BPM:180
#GAP:10790
#VIDEOGAP:6,55
#MedleyStartBeat:126
#MedleyEndBeat:301
#ENCODING:UTF8
#PREVIEWSTART:26,790
#LANGUAGE:English
#GENRE:Pop
#YEAR:2016
: 0 2 -1 Come
: 3 1 1  on
: 6 2 -1  come
: 9 1 1  on
: 11 1 -1 ~
: 14 1 1  turn
: 16 1 -1  the
: 18 1 1  ra
: 20 1 6 di
: 22 3 6 o
: 26 5 6  on
- 32
: 32 1 4 It's
: 34 3 4  Fri
: 38 1 4 day
: 40 5 4  night
: 46 1 4  and
: 48 1 4  I
: 50 1 4  won't
: 52 1 4 ~
: 54 3 4  be
: 58 3 4  long
- 62
: 62 1 1 Got
: 64 1 -1 ta
: 66 1 1  do
: 68 3 -1  my
: 72 1 1  hair
: 74 1 -1 ~
: 76 1 -1  I
* 78 1 -1  put
* 80 1 -1  my
* 82 2 1  make
: 86 1 1  up
: 88 1 6 ~
: 90 4 6  on
- 95
: 96 1 4 It's
: 98 3 4  Fri
: 102 1 4 day
: 104 5 4  night
: 110 1 4  and
: 112 1 4  I
: 114 1 4  won't
: 116 1 4 ~
: 118 3 4  be
: 122 3 4  long
- 126
: 126 1 8 Til
: 128 1 8  I
: 133 1 9  hit
: 136 1 11  the
: 138 2 8  dance
: 142 2 9  floor
- 146
: 148 1 9 Hit
: 152 1 11  the
: 154 2 8  dance
: 158 2 9  floor
- 161
: 162 1 6 I
: 164 1 8 ~
: 166 3 9  got
: 170 1 9  all
: 172 1 4 ~
: 174 3 4  I
: 178 6 4  need
- 186
: 190 1 6 No
: 192 1 8  I
: 194 2 9  ain't
: 198 1 9  got
: 200 1 11 ~
: 202 2 8  cash
- 206
* 209 1 8 I
* 211 1 9  ain't
* 214 1 9  got
* 216 1 11 ~
* 218 2 8  cash
- 222
: 224 1 4 But
: 226 1 6  I
: 228 3 9  got
: 233 1 9  you
: 235 1 4 ~
: 237 2 4  ba
: 240 6 4 by
- 248
: 254 1 6 Ba
: 256 1 8 by
: 258 1 8  I
: 260 1 9 ~
: 262 1 6 ~
: 264 5 6  don't
: 270 2 6  need
: 274 2 6  do
: 277 2 6 llar
: 280 4 6  bills
- 285
: 285 1 4 To
: 287 1 6  have
: 289 1 8 ~
: 291 2 6  fun
: 294 1 4  to
: 296 5 4 night
- 302
: 303 2 2 I
: 306 3 2  love
: 310 2 2  cheap
: 314 2 2  thrills
- 317
: 318 1 6 Ba
: 320 1 8 by
: 322 1 8  I
: 324 1 9 ~
: 326 1 6 ~
: 328 5 6  don't
: 334 2 6  need
: 338 2 6  do
: 341 2 6 llar
: 344 4 6  bills
- 349
: 349 1 4 To
* 351 1 6  have
* 353 1 8 ~
: 355 2 6  fun
: 358 1 4  to
: 360 5 4 night
- 366
: 367 2 2 I
: 370 3 2  love
: 374 2 2  cheap
: 378 2 2  thrills
- 382
: 384 1 -3 But
: 386 2 1  I
: 390 3 6  don't
: 394 1 6  need
: 396 2 8 ~
: 399 1 8  no
: 401 1 9 ~
: 403 1 8  mo
: 405 1 8 ~
: 407 3 6 ~
: 411 2 8 ~
: 414 3 6 ~
: 418 3 1 ~
: 422 11 1 ney
: 434 7 -1 ~
- 443
: 448 1 -3 As
: 450 3 1  long
: 454 2 6  as
: 458 1 6  I
: 460 1 8 ~
: 462 1 8  can
: 464 1 9 ~
: 467 3 8  feel
: 471 2 6 ~
: 474 3 6  the
: 479 2 1 ~
: 482 15 1  beat
: 498 8 -1 ~
- 508
: 514 2 1 I
: 518 3 6  don't
: 522 1 6  need
: 524 2 8 ~
: 527 1 8  no
: 529 1 9 ~
: 531 1 8  mo
: 533 1 8 ~
: 535 4 6 ~
: 540 1 8 ~
: 542 1 6 ~
: 544 2 6 ~
: 548 2 1 ~
: 551 10 1 ney
: 562 7 -1 ~
- 571
* 576 1 -3 As
* 578 1 -1  long
* 580 1 1 ~
* 582 2 6  as
* 586 1 6  I
* 588 1 8 ~
* 590 1 8  keep
* 592 1 9 ~
* 594 1 8  dan
* 596 1 9 ~
* 598 1 8 ~
* 600 1 6 ~
* 602 2 6 ~
* 605 1 8 ~
* 607 2 6 ~
* 610 2 1 ~
* 614 11 1 cing
* 626 8 -1 ~
- 636
: 640 2 -1 Come
: 643 1 1  on
: 646 2 -1  come
: 649 1 1  on
: 651 1 -1 ~
: 654 1 1  turn
: 656 1 -1  the
: 658 1 1  ra
: 660 1 6 di
: 662 3 6 o
: 666 5 6  on
- 672
: 672 1 4 It's
: 674 2 4  Sa
: 677 2 4 tur
: 680 5 4 day
: 686 1 4  and
: 688 1 4  I
: 690 1 4  won't
: 692 1 4 ~
: 694 3 4  be
: 698 1 4  long
: 700 1 1 ~
- 702
: 702 1 1 Got
: 704 1 -1 ta
: 706 1 1  paint
: 708 3 1  my
: 712 2 1  nails
: 715 1 -1 ~
: 718 1 1  put
: 720 1 -1  my
: 722 3 1  high
: 726 1 4  heels
: 728 1 6 ~
: 730 4 6  on
- 735
: 736 1 4 It's
: 738 2 4  Sa
: 741 2 4 tur
: 744 5 4 day
: 750 1 4  and
: 752 1 4  I
: 754 1 6  won't
: 756 1 4 ~
: 758 3 4  be
: 762 3 4  long
- 766
: 766 1 8 Til
: 768 1 8  I
: 773 1 9  hit
: 776 1 11  the
: 778 2 8  dance
: 782 2 9  floor
- 786
: 788 1 9 Hit
: 792 1 11  the
: 794 2 8  dance
: 798 2 9  floor
- 801
: 802 1 6 I
: 804 1 8 ~
: 806 3 9  got
: 810 1 9  all
: 812 1 4 ~
: 814 3 4  I
: 818 6 4  need
- 826
: 830 1 6 No
: 832 1 8  I
: 834 2 9  ain't
: 838 1 9  got
: 840 1 11 ~
: 842 2 8  cash
- 846
: 849 1 8 I
: 851 1 9  ain't
: 854 1 9  got
: 856 1 11 ~
: 858 2 8  cash
- 862
* 864 1 4 But
: 866 1 6  I
: 868 3 9  got
: 873 1 9  you
: 875 1 4 ~
: 877 2 4  ba
: 880 6 4 by
- 888
: 894 1 6 Ba
: 896 1 8 by
: 898 1 8  I
: 900 1 9 ~
: 902 1 6 ~
: 904 5 6  don't
: 910 2 6  need
: 914 2 6  do
: 917 2 6 llar
: 920 4 6  bills
- 925
: 925 1 4 To
: 927 1 6  have
: 929 1 8 ~
: 931 2 6  fun
: 934 1 4  to
: 936 5 4 night
- 942
: 943 2 2 I
: 946 3 2  love
: 950 2 2  cheap
: 954 2 2  thrills
- 957
: 958 1 6 Ba
: 960 1 8 by
: 962 1 8  I
: 964 1 9 ~
: 966 1 6 ~
: 968 5 6  don't
: 974 2 6  need
* 978 2 6  do
* 981 2 6 llar
: 984 4 6  bills
- 989
: 989 1 4 To
: 991 1 6  have
: 993 1 8 ~
: 995 2 6  fun
: 998 1 4  to
: 1000 5 4 night
- 1006
: 1007 2 2 I
: 1010 3 2  love
: 1014 2 2  cheap
: 1018 2 2  thrills
- 1022
: 1024 1 -3 But
: 1026 2 1  I
: 1030 3 6  don't
: 1034 1 6  need
: 1036 2 8 ~
: 1039 1 8  no
: 1041 1 9 ~
: 1043 1 8  mo
: 1045 1 8 ~
: 1047 3 6 ~
: 1051 2 8 ~
: 1054 3 6 ~
: 1058 3 1 ~
: 1062 11 1 ney
: 1074 7 -1 ~
- 1083
: 1088 1 -3 As
: 1090 3 1  long
: 1094 2 6  as
: 1098 1 6  I
: 1100 1 8 ~
: 1102 1 8  can
: 1104 1 9 ~
: 1107 3 8  feel
: 1111 2 6 ~
: 1114 4 6  the
: 1120 1 1 ~
: 1122 15 1  beat
: 1138 8 -1 ~
- 1148
: 1154 2 1 I
: 1158 3 6  don't
* 1162 1 6  need
* 1164 2 8 ~
* 1167 1 8  no
* 1169 1 9 ~
: 1171 1 8  mo
: 1173 1 8 ~
: 1175 4 6 ~
: 1180 1 8 ~
: 1182 1 6 ~
: 1184 2 6 ~
: 1188 2 1 ~
: 1191 10 1 ney
: 1202 7 -1 ~
- 1211
: 1216 1 -3 As
: 1218 1 -1  long
: 1220 1 1 ~
: 1222 2 6  as
: 1226 1 6  I
: 1228 1 8 ~
: 1230 1 8  keep
: 1232 1 9 ~
: 1234 1 8  dan
: 1236 1 9 ~
: 1238 1 8 ~
: 1240 1 6 ~
: 1242 2 6 ~
: 1245 1 8 ~
: 1247 2 6 ~
: 1250 2 1 ~
: 1254 11 1 cing
: 1266 8 -1 ~
- 1276
: 1326 3 2 I
: 1330 3 2  love
: 1334 3 2  cheap
: 1338 3 2  thrills
- 1343
: 1390 3 2 I
: 1394 3 2  love
: 1398 3 2  cheap
: 1402 3 2  thrills
- 1407
: 1410 1 -1 I
: 1412 1 1 ~
: 1414 3 6  don't
: 1418 1 6  need
: 1420 1 8 ~
: 1422 1 8  no
: 1424 1 9 ~
: 1426 1 8  mo
: 1428 1 8 ~
: 1430 5 6 ~
: 1436 1 8 ~
: 1439 1 6 ~
: 1441 1 6 ~
: 1443 2 1 ~
: 1446 11 1 ney
: 1458 7 -1 ~
- 1467
: 1472 1 -3 As
: 1474 1 -1  long
: 1476 1 1 ~
: 1478 2 6  as
: 1482 1 6  I
: 1484 1 8 ~
: 1486 1 8  can
: 1488 1 9 ~
: 1491 3 8  feel
: 1495 2 6 ~
: 1498 4 6  the
: 1504 1 1 ~
: 1506 15 1  beat
: 1522 8 -1 ~
- 1532
: 1537 1 -1 I
: 1539 1 1 ~
: 1542 3 6  don't
: 1546 1 6  need
: 1548 2 8 ~
: 1551 1 8  no
: 1553 1 9 ~
: 1555 1 8  mo
: 1557 1 8 ~
: 1559 3 6 ~
: 1563 2 8 ~
: 1566 1 6 ~
: 1568 3 6 ~
: 1572 2 1 ~
: 1575 10 1 ney
: 1586 7 -1 ~
- 1595
: 1600 1 -3 As
: 1602 1 -1  long
: 1604 1 1 ~
: 1606 2 6  as
: 1610 1 6  I
: 1612 1 8 ~
* 1614 1 8  keep
* 1616 1 9 ~
* 1618 1 8  dan
* 1620 1 9 ~
: 1622 1 8 ~
: 1624 1 6 ~
: 1626 2 6 ~
: 1629 1 8 ~
: 1631 2 6 ~
: 1635 2 1 ~
: 1638 11 1 cing
- 1650
: 1650 7 6 Oh
: 1658 3 8  oh
- 1662
* 1662 1 6 Ba
* 1664 1 8 by
: 1666 1 8  I
: 1668 1 9 ~
: 1670 1 6 ~
: 1672 5 6  don't
: 1678 2 6  need
: 1682 2 6  do
: 1685 2 6 llar
: 1688 4 6  bills
- 1693
: 1693 1 4 To
: 1695 1 6  have
: 1697 1 8 ~
: 1699 2 6  fun
: 1702 1 4  to
: 1704 5 4 night
- 1710
: 1711 2 2 I
: 1714 3 2  love
: 1718 2 2  cheap
: 1722 2 2  thrills
- 1725
: 1726 1 6 Ba
: 1728 1 8 by
: 1730 1 8  I
: 1732 1 9 ~
: 1734 1 6 ~
: 1736 5 6  don't
: 1742 2 6  need
: 1746 2 6  do
: 1749 2 6 llar
: 1752 4 6  bills
- 1757
: 1757 1 4 To
: 1759 1 6  have
: 1761 1 8 ~
: 1763 2 6  fun
: 1766 1 4  to
: 1768 5 4 night
- 1774
: 1775 2 2 I
: 1778 3 2  love
: 1782 2 2  cheap
: 1786 2 2  thrills
- 1790
: 1792 1 -3 But
: 1794 2 1  I
: 1798 3 6  don't
: 1802 1 6  need
: 1804 2 8 ~
: 1807 1 8  no
: 1809 1 9 ~
: 1811 1 8  mo
: 1813 1 8 ~
: 1815 3 6 ~
: 1819 2 8 ~
: 1822 3 6 ~
: 1826 3 1 ~
: 1830 11 1 ney
: 1842 7 -1 ~
- 1851
: 1856 1 -3 As
: 1858 3 1  long
: 1862 2 6  as
: 1866 1 6  I
: 1868 1 8 ~
: 1870 1 8  can
: 1872 1 9 ~
: 1875 3 8  feel
: 1879 2 6 ~
: 1882 4 6  the
: 1888 1 1 ~
: 1890 15 1  beat
: 1906 8 -1 ~
- 1916
: 1922 2 1 I
: 1926 3 6  don't
: 1930 1 6  need
: 1932 2 8 ~
: 1935 1 8  no
: 1937 1 9 ~
: 1939 1 8  mo
: 1941 1 8 ~
: 1943 4 6 ~
: 1948 1 8 ~
: 1950 1 6 ~
: 1952 2 6 ~
: 1956 2 1 ~
: 1959 10 1 ney
: 1970 7 -1 ~
- 1979
: 1984 1 -3 As
: 1986 1 -1  long
: 1988 1 1 ~
: 1990 2 6  as
: 1994 1 6  I
: 1996 1 8 ~
: 1998 1 8  keep
: 2000 1 9 ~
: 2002 1 8  dan
: 2004 1 9 ~
: 2006 1 8 ~
: 2008 1 6 ~
: 2010 2 6 ~
: 2013 1 8 ~
: 2015 2 6 ~
: 2018 2 1 cing
: 2022 11 1 ~
- 2035
: 2050 2 -1 La
: 2053 3 1 ~
: 2058 3 -1  la
: 2062 3 1  la
* 2066 2 1  la
* 2069 3 2 ~
* 2074 2 1  la
* 2077 3 2 ~
: 2082 14 1  la
: 2098 8 -1  la
- 2108
: 2114 2 -1 La
: 2117 3 1 ~
: 2122 3 -1  la
: 2126 3 1  la
: 2130 2 1  la
: 2133 3 2 ~
: 2138 2 1  la
: 2141 3 2 ~
: 2146 14 1  la
: 2162 8 -1  la
- 2172
: 2178 2 -1 La
: 2181 3 1 ~
: 2186 3 -1  la
: 2190 3 1  la
: 2194 2 1  la
: 2197 3 2 ~
: 2202 2 1  la
: 2205 3 2 ~
: 2210 14 1  la
: 2226 8 -1  la
- 2236
: 2242 2 -1 La
: 2245 3 1 ~
* 2250 3 -1  la
* 2254 3 1  la
: 2258 2 1  la
: 2261 3 2 ~
: 2266 2 1  la
: 2269 3 2 ~
: 2274 14 1  la
: 2290 8 -1  la
E