#TITLE:Irgendwas bleibt
#ARTIST:Silbermond
#MP3:Irgendwas bleibt.mp3
#VIDEO:Irgendwas bleibt.avi
#COVER:Irgendwas bleibt.jpg
#BPM:306
#GAP:24325
#ENCODING:UTF8
: 3 4 23 Sag
: 9 3 23  mir
: 15 3 20  dass
: 21 5 23  die
: 27 4 20 ser
: 33 4 23  Ort
: 39 4 25  hier
: 46 3 23  si
: 52 7 25 ~ch
: 63 4 23 er
: 70 11 23  ist
- 83
: 101 3 20 und
: 107 4 23  al
: 113 2 20 les
: 119 4 23  Gu
: 125 2 20 te
: 131 4 23  steht
: 137 3 25  hier
: 144 3 23  sti
: 150 5 25 ~ll.
- 157
: 199 3 25 Und
: 205 3 28  dass
: 211 2 25  das
: 217 4 28  Wort,
: 223 3 25  das
: 229 4 28  du
: 235 3 30  mir
: 241 3 28  heu
: 247 4 30 ~
: 254 3 28 te
: 261 10 28  gibst,
- 273
: 284 3 18 mo
* 290 4 20 ~r
: 297 3 18 gen
: 303 4 18  noch
: 309 3 16  ge
: 315 4 16 nau
: 321 4 16 so
: 327 5 13  gilt.
- 334
: 379 4 23 Die
: 385 3 20 se
: 391 4 23  Welt
: 398 3 20  ist
: 402 7 23  schnell
- 410
: 410 3 20 und
: 416 3 23  hat
: 422 3 20  ver
: 428 3 23 lernt
: 433 2 23  be
: 440 4 25 stän
* 446 3 27 dig
: 452 3 23  zu
: 458 9 23  sein,
- 469
: 477 3 23 denn
: 483 3 20  Ver
: 489 4 23 such
: 495 3 20 ung
: 501 7 23 en
: 513 3 23  set
: 519 4 20 zen
: 525 4 23  ih
: 531 4 25 re
: 538 4 23  Fri
: 544 7 25 st.
- 552
: 593 3 13 Doch
: 599 4 16  bit
: 605 2 13 te
: 611 4 16  schwör,
- 616
: 617 3 13 dass
: 623 4 16  wenn
: 629 4 18  ich
: 636 4 16  wie
: 642 3 18 ~
: 648 3 16 der
: 654 6 16  komm,
- 662
: 667 4 16 al
: 673 2 18 les
: 679 4 18  no
* 685 7 20 ~ch
- 694
: 703 4 11 beim
: 709 5 20  Al
: 718 6 18 ten
: 728 3 16  i
: 734 9 18 ~st.
- 745
: 762 3 18 Gi
: 768 3 20 ~b
: 774 4 20  mir
: 780 3 20 'n
: 786 4 18  klei
: 792 3 16 nes
: 799 3 16  biss
: 805 3 13 chen
: 811 4 16  Si
: 817 4 16 cher
: 823 10 16 heit
- 835
: 854 3 11 in
: 860 6 20  ei
: 872 7 20 ner
: 884 4 18  Welt
: 890 3 16  in
: 896 4 16  der
: 902 3 13  nichts
: 908 3 16  si
: 914 3 16 cher
: 921 4 20  schei
* 927 7 21 ~nt.
- 936
: 958 4 18 Gi
: 964 3 20 ~b
: 970 8 20  mir
: 982 3 18  in
: 988 4 16  die
: 994 3 16 ser
: 1001 4 20  schne
* 1007 4 23 ~
: 1013 3 16 ~l
: 1019 3 16 len
: 1025 4 16  Zei
: 1031 6 18 ~t
- 1039
: 1043 3 11 irg
: 1049 3 11 end
: 1056 4 16 was
: 1066 3 16  das
: 1074 7 16  bleibt.
- 1083
: 1154 4 18 Gi
: 1160 4 20 ~b
: 1166 6 20  mir
: 1178 4 18  ein
: 1184 3 16 fach
: 1190 3 16  nur'
: 1196 3 13 n
: 1203 3 16  biss
: 1209 3 16 chen
: 1215 10 16  Halt
- 1227
: 1246 3 11 und
: 1252 4 18  wie
: 1258 4 20 ~g
* 1264 8 20  mich
: 1276 3 18  ein
: 1282 3 16 fach
: 1288 3 16  nur
: 1294 3 13  in
: 1300 3 16  Si
: 1306 3 16 cher
: 1313 4 20 he
: 1319 8 21 it.
- 1329
: 1350 8 20 Hol
: 1362 6 20  mich
: 1374 4 18  aus
: 1380 3 16  die
: 1386 2 16 ser
: 1392 4 21  schne
: 1398 4 23 ~
: 1404 3 16 ~l
: 1411 3 16 len
: 1417 4 16  Zei
: 1423 8 18 ~t.
- 1433
: 1448 3 16 Nimm
: 1454 3 16  mir
: 1460 3 18  ein
: 1466 4 18  bi
: 1472 3 20 ~s
: 1478 3 18 chen
: 1484 3 16  Ge
: 1490 4 16 schwi
: 1496 8 18 ~n
: 1508 3 16 dig
: 1515 6 16 keit.
- 1523
: 1533 3 16 Gib
: 1539 4 16  mir
: 1545 6 16  was.
- 1553
: 1564 3 16 I
* 1570 3 18 ~
: 1576 3 16 ~r
: 1582 3 16 gend
: 1589 5 16 was
: 1607 3 15  das
: 1614 8 16  bleibt.
- 1624
: 1985 3 16 Auch
: 1991 3 16  wenn
: 1997 3 16  die
: 2003 4 23  Welt
: 2009 3 21  den
: 2015 3 21  Ver
: 2021 3 20 stand
: 2027 3 16  ver
: 2033 31 16 liert,
- 2066
: 2081 4 13 da
: 2087 3 16 ~s
: 2093 4 21  hie
: 2099 4 23 ~r
: 2105 5 21  bleibt
: 2117 4 18  u
: 2123 4 20 ~
: 2129 3 16 ~n
: 2135 3 16 be
: 2141 10 16 rührt.
- 2153
: 2165 4 16 Ni
* 2171 52 18 ~chts
: 2231 3 16  pas
: 2237 26 16 siert.
- 2265
: 2555 4 18 Gi
: 2561 3 20 ~b
: 2567 4 20  mir
: 2573 3 20 'n
: 2579 4 18  klei
: 2585 3 16 nes
: 2591 3 16  bis
: 2597 3 13 schen
: 2603 3 16  Si
: 2609 3 16 cher
: 2615 9 16 heit
- 2626
: 2645 3 11 in
: 2651 4 18  ei
: 2657 3 20 ~
: 2663 6 20 ner
: 2675 4 18  Welt
: 2681 3 16  in
: 2687 4 20  der
: 2693 3 18  nichts
: 2699 3 20  si
: 2705 3 18 cher
: 2711 4 20  schei
* 2717 10 21 ~nt.
- 2729
: 2747 4 18 Gi
: 2753 3 20 ~b
: 2759 8 20  mir
: 2771 3 18  in
: 2777 4 16  die
: 2783 3 16 ser
: 2789 4 21  schne
: 2795 4 23 ~
: 2801 3 16 ~l
: 2807 3 16 len
: 2813 4 16  Ze
: 2819 6 18 it
- 2827
: 2831 4 11 ir
: 2837 3 11 gend
: 2843 4 15 was
: 2853 3 16  das
: 2861 9 16  bleibt.
- 2872
: 2939 4 18 Gi
: 2945 3 20 ~b
* 2951 7 20  mir
: 2963 3 18  ein
: 2969 3 16 fach
: 2975 4 16  nur
: 2981 2 13  ein
: 2987 3 16  bis
: 2993 3 16 schen
: 2999 10 16  Halt.
- 3012
: 3032 3 11 Und
: 3038 4 18  wie
: 3044 3 20 ~g
: 3050 7 20  mich
: 3062 3 18  ein
: 3068 3 16 fach
: 3074 3 16  nur
: 3080 2 13  in
: 3086 4 16  Si
: 3092 3 16 cher
: 3098 4 20 hei
: 3104 6 21 ~t.
- 3112
: 3136 4 18 Ho
: 3142 4 20 ~l
: 3148 6 20  mich
: 3160 3 18  aus
: 3166 4 16  die
: 3172 3 16 ser
: 3178 4 21  schne
* 3184 4 23 ~
: 3190 3 16 ~l
: 3196 3 16 len
: 3203 4 16  Zei
: 3209 7 18 ~t.
- 3219
: 3234 4 16 Nimm
: 3240 3 16  mir
: 3246 4 18  ein
: 3252 4 18  bi
: 3258 3 20 ~s
: 3265 4 18 chen
: 3271 2 16  Ge
: 3277 4 16 schwi
: 3283 7 18 ~n
: 3295 3 16 dig
: 3302 7 16 keit.
- 3311
: 3321 3 16 Gib
: 3327 3 16  mir
: 3333 5 16  was
- 3340
: 3351 4 16 i
: 3357 4 18 ~
: 3363 3 16 ~r
: 3369 3 16 gend
: 3375 6 16 was
: 3394 3 15  das
: 3401 10 16  bleibt.
E