#TITLE:Nothing Compares 2 U
#ARTIST:Sinead O'Connor
#LANGUAGE:Englisch
#EDITION:[SC]-Songs
#MP3:Sinead O'Connor - Nothing Compares 2 U.mp3
#COVER:Sinead O'Connor - Nothing Compares 2 U [CO].jpg
#BACKGROUND:Sinead O'Connor - Nothing Compares 2 U [BG].jpg
#BPM:240
#GAP:9500
: 0 5 12 It's
: 8 4 17  been
: 15 6 19  se
: 23 4 21 ven
: 28 6 21  hou
: 34 4 19 rs
: 39 9 19  and
: 48 4 17  fif
: 56 8 19 teen
: 72 14 12  days
- 88
: 118 4 12 since
: 123 2 12  you
: 126 5 12  took
: 135 6 12  your
: 143 7 12  love
: 151 4 12  a
: 156 8 10 way
- 166
: 247 5 17 I
: 255 7 17  go
: 263 6 17  out
: 271 7 19  e
: 279 3 21 very
: 283 6 21  ni
: 290 4 19 ght
: 295 5 19  and
: 303 6 17  sleep
: 312 13 19  all
: 328 4 14  da
: 333 13 12 y
- 348
: 376 3 12 since
: 380 2 12  you
: 383 5 12  took
: 391 5 12  your
: 399 6 12  love
: 407 4 12  a
: 412 7 10 way
- 421
: 510 5 17 Since
: 516 3 12  you
: 519 5 14  been
: 527 8 17  gone
: 536 3 17  I
: 540 2 17  can
: 544 7 17  do
- 552
: 552 4 17  what
: 557 5 19 e
: 563 3 19 ver
: 567 4 21  I
: 572 7 21  wa
: 580 7 19 ~
: 588 4 17 ~
: 593 13 19 nt
- 608
: 632 2 12 I
: 635 2 12  can
: 639 7 12  see
: 647 7 12  whom
: 655 4 12 e
: 660 3 17 ver
: 664 2 17  I
: 668 12 17  choose
- 682
: 758 5 17 I
: 764 2 12  can
: 767 6 17  eat
: 774 6 17  my
: 782 4 17  din
: 787 3 12 ner
: 791 4 14  in
: 796 2 12  a
: 799 6 17  fan
: 807 6 17 cy
- 814
: 814 7 19  res
: 822 5 21 tau
: 828 7 21 rant
: 835 8 19 ~
: 844 2 19 ~
: 846 1 17 ~
: 847 2 16 ~
: 849 14 19 ~
: 870 5 14  but
: 878 4 17  no
: 883 8 17 thing,
- 893
: 899 2 12  I
: 902 5 14  said
: 910 4 17  no
: 915 3 17 thing
: 919 6 14  can
: 927 7 17  take
: 935 3 17  a
: 939 4 19 way
: 944 4 19  these
* 949 41 19  blues
- 994
: 999 6 17  'cos
: 1007 14 22  no
: 1023 7 21 thing
: 1031 7 19  com
: 1039 17 17 pares
- 1058
: 1079 6 22  no
: 1087 7 21 thing
: 1095 7 19  com
: 1103 14 17 pares
: 1119 4 20  2
* 1124 72 19  U
- 1198
: 1279 7 12 It's
: 1287 5 17  been
: 1295 7 19  so
: 1302 5 21 ~
: 1308 6 21  lone
: 1314 4 19 ly
: 1319 5 17  with
: 1324 3 14 ~
: 1328 7 17  out
: 1336 14 19  you
: 1351 3 14  he
: 1354 5 12 ~
: 1359 11 14 re
- 1372
: 1398 5 12 like
: 1404 2 12  a
: 1407 11 12  bird
: 1420 2 12  with
: 1423 3 12 out
: 1427 5 17  a
: 1434 14 10  song
- 1450
: 1534 4 21  No
: 1539 3 21 thing
: 1543 6 19  can
: 1551 6 21  stop
: 1559 5 19  these
: 1566 8 20  lone
: 1574 4 19 ly
: 1578 4 17 ~
- 1583
: 1584 7 20  tears
: 1592 3 19  from
: 1596 6 19  fal
: 1603 5 21 ling
: 1609 11 19 ~
- 1622
: 1638 5 20 Tell
: 1644 3 19  me
: 1648 4 17  ba
: 1653 2 17 by
: 1656 3 19 ~
* 1660 9 14 ~
: 1687 5 19  where
: 1693 2 19  did
: 1696 6 17  I
: 1703 7 19  go
: 1711 2 19  wro
: 1713 3 17 ~
: 1716 3 14 ~
: 1720 10 17 ng?
- 1732
: 1783 4 12 I
: 1788 2 12  could
* 1791 7 21  put
: 1799 6 21  my
: 1807 5 21  arms
: 1813 3 21  a
: 1816 2 19 rou
: 1818 4 17 nd
- 1823
: 1823 8 20  e
: 1831 5 19 very
: 1839 7 17  boy
: 1847 13 19  I
: 1861 4 14  see
: 1866 4 12 ~
: 1871 15 14 ~
- 1888
: 1916 2 12 but
: 1919 3 12  they
: 1923 2 12  on
: 1926 4 12 ly
: 1931 3 12  re
: 1935 3 12 mind
: 1940 2 17  me
: 1943 3 17  of
: 1948 9 17  U
- 1959
: 2044 2 12 I
: 2047 7 20  went
: 2055 4 19  to
: 2060 2 17  the
: 2063 7 20  doc
: 2071 4 19 tor
: 2076 2 17  and
: 2079 6 20  guess
- 2086
: 2086 4 19  what
: 2091 3 17  he
: 2095 7 17  told
: 2103 5 19  me
- 2109
* 2110 7 20 guess
: 2118 4 19  what
: 2123 3 17  he
: 2127 7 17  told
: 2135 6 19  me
- 2143
: 2147 3 17 He
: 2151 6 17  said:
* 2158 4 21  "Girl
: 2163 3 21  U
: 2167 3 19  bet
: 2171 2 17 ter
: 2175 4 20  try
: 2180 2 20  to
: 2183 6 19  have
: 2190 5 20  fun,
- 2196
: 2198 7 20 no
: 2206 5 20  mat
: 2212 8 19 ter
: 2222 4 17  what
: 2227 4 19  U
: 2232 10 19  do"
- 2244
: 2251 2 17 But
: 2254 4 20  he's
: 2259 2 19  a
: 2262 9 19  fool
: 2279 6 17  'cause
* 2287 14 22  no
* 2303 7 21 thing
: 2311 7 19  com
: 2319 14 17 pares
- 2335
: 2358 8 21 no
: 2367 7 29 thing
: 2375 7 20  com
: 2383 10 19 pares
: 2398 5 20  2
* 2404 37 19  U
- 2443
: 3055 7 24 All
: 3063 3 21  the
: 3067 8 21  flo
: 3075 4 19 wers
: 3080 2 19  that
: 3083 3 17  U
: 3087 3 17  plan
: 3091 3 12 ted,
: 3095 2 17  ma
: 3097 3 19 ma
- 3102
: 3127 3 17 in
: 3131 2 12  the
: 3135 5 19  back
: 3142 3 14 ya
: 3146 13 12 rd
- 3161
: 3191 5 12 all
: 3198 6 12  died
: 3206 4 12  when
: 3211 4 12  U
: 3215 4 12  we
: 3220 2 14 nt
: 3223 3 17  a
: 3227 19 17 way
- 3248
* 3319 7 21 I
* 3327 7 21  know
* 3335 5 21  that
: 3342 4 21  li
: 3347 3 21 ving
: 3351 4 19  with
: 3356 2 17  U
: 3359 4 17  ba
: 3364 2 17 by
: 3367 3 14  was
- 3372
: 3375 6 17  some
: 3382 15 19 times
: 3398 4 14  ha
: 3402 13 12 rd
- 3417
: 3447 4 12 But
: 3452 2 12  I'm
: 3455 7 12  wil
: 3463 4 12 ling
: 3468 2 12  to
: 3471 4 12  give
: 3476 3 17  U
: 3480 3 12  a
: 3484 10 10 no
: 3495 3 9 ther
: 3500 24 13  try
: 3525 13 16 ~
: 3539 8 22 ~
: 3548 11 21 ~
- 3561
* 3568 14 22 no
: 3584 6 21 thing
: 3591 7 19  com
: 3599 12 17 pares
- 3613
: 3639 7 21 no
: 3647 5 29 thing
: 3655 7 20  com
: 3663 10 19 pares
: 3679 3 20  2
: 3683 12 19  U
- 3697
: 3767 7 22 no
: 3775 7 21 thing
: 3783 7 19  com
: 3791 11 17 pares
- 3804
: 3831 7 29 no
: 3839 7 20 thing
: 3847 7 19  com
: 3855 9 19 pares
: 3870 4 20  2
: 3875 11 19  U
- 3888
: 3958 6 22 no
: 3966 6 22 thing
: 3974 7 22  com
: 3983 3 22 pa
: 3987 4 21 ~
: 3992 9 17 res
- 4003
: 4023 7 20 no
: 4031 7 19 thing
: 4039 7 19  com
: 4047 10 19 pares
: 4062 4 20  2
* 4067 11 19  U
E
