#TITLE:Baby Got Back
#ARTIST:Sir Mix-a-Lot
#LANGUAGE:Englisch
#EDITION:SingStar '90s
#GENRE:Rap
#YEAR:1991
#MP3:Sir Mix-a-Lot - Baby Got Back.mp3
#COVER:Sir Mix-a-Lot - Baby Got Back [CO].jpg
#BACKGROUND:Sir Mix-a-Lot - Baby Got Back [BG].jpg
#VIDEO:Sir Mix-a-Lot - Baby Got Back [VD#0].avi
#VIDEOGAP:0
#BPM:256,84
#GAP:233,61
F 0 5 60 Oh
F 12 5 60  my
F 24 7 60  god,
F 34 6 60  Becky
- 41
F 43 2 60 Look
F 49 2 60  at
F 52 4 60  her
F 58 4 60  butt
- 64
F 68 2 60 It
F 72 2 60  is
F 77 4 60  so
F 84 4 60  big
- 90 91
F 106 1 60 She
F 108 2 60  looks
F 111 2 60  like
F 118 2 60  one
F 120 1 60  of
- 122
F 122 3 60 Those
F 132 2 60  rap
F 138 4 60  guy's
F 146 10 60  girlfriends
- 158 159
F 167 2 60 Who
F 171 8 60  understands
F 182 2 60  those
F 186 2 60  rap
F 190 3 60  guys?
- 195 196
F 214 2 60 They
F 218 3 60  only
F 222 3 60  talk
F 227 2 60  to
F 230 2 60  her
- 234
F 236 5 60 Because
F 246 2 60  she
F 249 2 60  looks
F 252 2 60  like
F 255 3 60  a
F 259 5 60  total
F 267 9 60  prostitute
- 278
F 280 5 60 Okay,
F 292 2 60  I
F 295 2 60  mean
F 303 3 60  her
F 308 3 60  butt
- 313
F 320 1 60 It's
F 323 2 60  just
F 327 3 60  so
F 337 4 60  big
- 343 344
F 363 1 60 I
F 365 4 60  can't
F 370 4 60  believe
F 375 1 60  it's
F 377 3 60  just
F 381 2 60  so
F 387 5 60  round
- 393
F 394 1 60 It's
F 396 3 60  like
F 401 3 60  out
F 405 2 60  there
- 408
F 409 1 60 I
F 411 3 60  mean,
F 430 2 60  it's
F 434 5 60  gross
- 441
F 448 4 60 Look,
F 475 2 60  she's
F 478 2 60  just
F 481 2 60  so
F 503 4 60  black
- 508
F 509 2 61 I
F 513 3 61  like
F 521 3 61  big
F 529 2 61  butts
- 532
F 533 1 61 And
F 535 1 61  I
F 537 1 61  can
F 541 1 61  not
F 545 3 61  lie
- 550
F 557 1 61 You
F 561 1 61  o
F 563 1 61 ther
F 565 1 61  bro
F 567 1 61 thers
F 569 1 61  can't
F 573 1 61  de
F 577 4 61 ny
- 583
F 587 1 61 That
F 589 1 61  when
F 591 1 61  a
F 593 1 61  girl
F 597 1 61  walks
F 601 2 61  in
- 604
F 605 1 61 With
F 607 1 61  an
F 609 1 61  it
F 611 1 61 ty
F 613 1 61  bit
F 615 1 61 ty
F 617 1 61  waist
- 619
F 621 1 61 And
F 623 1 61  a
F 625 1 61  round
F 629 1 61  thing
F 633 1 61  in
F 637 1 61  your
F 641 2 61  face
- 644
F 645 1 61 You
F 649 2 61  get
F 657 4 61  sprung
- 663
F 669 1 61 Wan
F 671 1 61 na
F 673 1 61  pull
F 675 2 61  up
F 681 2 61  tough
- 684
F 685 1 61 'Cause
F 687 1 61  you
F 689 1 61  no
F 691 1 61 tice
- 693
F 693 1 61 That
F 697 2 61  butt
F 701 2 61  was
F 705 2 61  stuffed
- 709 710
F 721 2 61 Deep
F 725 1 61  in
F 727 1 61  the
F 729 1 61  jeans
F 733 2 61  she's
F 737 2 61  wear
F 741 2 61 ing
- 745
F 749 2 61 I'm
F 753 2 61  hooked
F 757 1 61  and
F 759 1 61  I
F 761 1 61  can't
F 765 2 61  stop
F 769 2 61  star
F 773 2 61 ing
- 776
F 777 5 61 Oh,
F 785 5 61  ba
F 793 3 61 by
- 797
F 799 1 61 I
F 801 1 61  wan
F 803 1 61 na
F 805 1 61  get
F 809 2 61  wit'
F 813 2 61  ya
- 817
F 821 2 61 And
F 825 2 61  take
F 829 1 61  your
F 833 2 61  pic
F 837 2 61 ture
- 841
F 845 2 61 My
F 849 2 61  home
F 853 2 61 boys
F 857 2 61  tried
F 861 2 61  to
F 865 4 61  warn
F 871 2 61  me
- 874
F 875 1 61 But
F 877 2 61  that
F 881 2 61  butt
F 885 2 61  you
F 889 2 61  got
F 893 2 61  makes
- 896
F 897 2 61 Me
F 901 2 61  so
F 905 2 61  hor
F 909 2 61 ny
- 912
F 913 5 62 Ooh,
F 921 2 62  rum
F 925 2 62 ple
F 929 5 62 smooth
F 935 5 62 skin
- 941
F 943 1 62 You
F 945 1 62  say
F 947 1 62  you
F 949 1 62  wan
F 951 1 62 na
F 953 1 62  get
F 955 1 62  in
F 957 1 62  my
F 961 4 62  Benz
- 967
F 973 2 62 Well
F 977 4 62  use
F 985 3 62  me,
F 993 4 62  use
F 1001 2 62  me
- 1004
F 1005 1 62 'Cause
F 1007 1 62  you
F 1009 2 62  ain't
- 1012
F 1013 1 62 That
F 1015 2 62  a
F 1019 1 62 ve
F 1021 1 62 rage
F 1025 5 62  grou
F 1033 3 62 pie
- 1038
F 1045 2 62 I've
F 1049 2 62  seen
F 1053 2 62  them
F 1057 4 62  dan
F 1063 4 62 cin'
- 1069
F 1075 1 62 To
F 1077 2 62  hell
F 1081 2 62  with
F 1085 2 62  ro
F 1089 3 62 man
F 1095 2 62 cin'
- 1098
F 1100 3 62 She's
F 1105 3 62  sweat,
F 1121 3 62  wet
- 1126
F 1133 1 62 Got
F 1135 1 62  it
F 1137 1 62  go
F 1139 1 62 in'
F 1141 1 62  like
F 1143 1 62  a
F 1145 1 62  tur
F 1149 1 62 bo
F 1153 3 62  Vette
- 1158
F 1165 2 62 I'm
F 1169 2 62  tired
F 1173 2 62  of
F 1177 2 62  ma
F 1181 2 62 ga
F 1185 6 62 zines
- 1193
F 1197 1 62 Say
F 1199 1 62 ing
F 1201 1 62  flat
F 1205 2 62  butts
F 1209 2 62  are
F 1213 2 62  the
F 1217 6 62  thing
- 1225
F 1229 1 62 Take
F 1231 1 62  the
F 1233 1 62  a
F 1235 1 62 ve
F 1237 2 62 rage
F 1241 2 62  black
F 1245 1 62  man
- 1247
F 1247 1 62 And
F 1249 1 62  ask
F 1253 2 62  him
F 1257 2 62  that
- 1261
F 1267 1 62 She
F 1269 1 62  got
F 1271 1 62 ta
F 1273 2 62  pack
F 1277 2 62  much
F 1281 2 62  back
- 1285
F 1289 4 63 So
F 1297 1 63  fel
F 1299 3 63 las
- 1304 1305
F 1313 1 63 Fel
F 1315 4 63 las
- 1321
F 1325 1 63 Has
F 1327 1 63  your
F 1329 1 63  girl
F 1333 1 63 friend
F 1337 2 63  got
F 1340 1 63  the
F 1343 2 63  butt
- 1347
F 1353 1 63 Tell
F 1355 1 63  'em
F 1357 2 63  to
F 1361 2 63  shake
F 1365 2 63  it
- 1369
F 1377 2 63 Shake
F 1381 2 63  it
- 1385
F 1393 1 63 Shake
F 1397 2 63  that
F 1401 2 63  heal
F 1405 1 63 thy
F 1407 3 63  butt
- 1412
F 1417 1 63 Ba
F 1419 1 63 by
F 1421 2 63  got
F 1425 4 63  back
- 1431 1517
F 1537 2 63 Ba
F 1541 2 63 by
F 1545 4 63  got
F 1553 4 63  back
- 1559 1665
F 1685 2 60 I
F 1689 2 60  like
F 1693 2 60  'em
F 1697 6 60  round
F 1707 3 60  and
F 1713 4 60  big
- 1719
F 1723 1 60 And
F 1725 1 60  when
F 1727 1 60  I'm
F 1729 1 60  throw
F 1731 1 60 in'
F 1733 1 60  a
F 1737 2 60  gig
- 1740
F 1741 2 60 I
F 1745 2 60  just
F 1749 2 60  can't
F 1753 2 60  help
F 1757 2 60  my
F 1761 3 60 self
- 1765
F 1765 1 60 I'm
F 1767 3 60  act
F 1771 1 60 in'
F 1773 1 60  like
F 1775 1 60  an
F 1777 1 60  a
F 1779 1 60 ni
F 1781 1 60 mal
- 1784
F 1788 2 60 Now
F 1792 2 60  here's
F 1796 2 60  my
F 1800 2 60  scan
F 1804 2 60 dal
- 1808
F 1811 1 60 I
F 1813 1 60  wan
F 1815 1 60 na
F 1817 2 60  get
F 1821 2 60  you
F 1825 4 60  home
- 1831
F 1837 3 60 And
F 1841 3 60  uh,
F 1849 1 60  dou
F 1851 1 60 ble
F 1853 2 60  up
- 1856
F 1857 2 60 Uh
F 1865 3 60  uh
- 1870
F 1875 1 60 I
F 1877 2 60  ain't
F 1881 1 60  talk
F 1883 1 60 in'
F 1885 2 60  'bout
F 1889 3 60  play
F 1893 2 60 boy
- 1897
F 1901 2 60 'Cause
F 1905 1 60  si
F 1907 1 60 li
F 1909 1 60 cone
F 1913 2 60  parts
- 1916
F 1917 1 60 Are
F 1919 2 60  made
F 1923 1 60  for
F 1925 5 60  toys
- 1932 1933
F 1941 2 61 I
F 1945 2 61  want
F 1949 2 61  'em
F 1953 5 61  real
F 1961 2 61  thick
F 1964 2 61  and
F 1969 4 61  jui
F 1975 3 61 cy
- 1979
F 1981 2 61 So
F 1985 2 61  find
F 1989 2 61  that
F 1993 2 61  jui
F 1997 2 61 cy
F 2001 2 61  dou
F 2003 3 61 ble
- 2008
F 2013 1 61 Mix
F 2015 1 61 a
F 2017 2 61 lot's
F 2021 2 61  in
F 2025 1 61  trou
F 2027 2 61 ble
- 2031
F 2033 1 61 Beg
F 2035 1 61 gin'
F 2037 1 61  for
F 2039 1 61  a
F 2041 1 61  piece
F 2043 1 61  of
F 2045 2 61  that
F 2049 1 61  bub
F 2051 3 61 ble
- 2056
F 2061 1 61 So
F 2063 1 61  I'm
F 2065 1 61  look
F 2067 1 61 in'
F 2069 1 61  at
F 2073 2 61  rock
F 2077 1 61  vi
F 2079 1 61 de
F 2081 4 61 os
- 2087 2088
F 2097 2 61 Knock
F 2101 2 61 kneed
F 2105 2 61  bim
F 2109 2 61 bos
- 2112
F 2113 1 61 Walk
F 2115 1 61 in'
F 2117 2 61  like
F 2121 7 61  hoes
- 2130
F 2133 1 61 You
F 2135 1 61  can
F 2137 2 61  have
F 2141 2 61  them
F 2145 2 61  bim
F 2149 3 61 bos
- 2154
F 2157 2 61 I'll
F 2161 2 61  keep
F 2165 2 61  my
F 2168 1 61  wo
F 2170 1 61 men
F 2172 2 61  like
F 2176 3 61  Flo
F 2181 2 61  Jo
- 2185
F 2191 1 62 A
F 2193 2 62  word
F 2197 1 62  to
F 2199 1 62  the
F 2201 2 62  thick
F 2205 2 62  soul
F 2209 2 62  sis
F 2213 1 62 tas
- 2215
F 2215 1 62 I
F 2217 1 62  wan
F 2219 1 62 na
F 2221 2 62  get
F 2225 2 62  wit'
F 2229 2 62  ya
- 2233
F 2235 1 62 I
F 2237 1 62  won't
F 2241 2 62  cus
F 2245 2 62  or
F 2249 2 62  hit
F 2253 2 62  ya
- 2257
F 2260 1 62 But
F 2262 1 62  I
F 2264 1 62  got
F 2266 1 62 ta
F 2268 2 62  be
F 2272 2 62  straight
- 2275
F 2276 1 62 When
F 2278 1 62  I
F 2280 1 62  say
F 2282 1 62  I
F 2284 1 62  wan
F 2286 1 62 na
- 2289
F 2297 2 62 Til
F 2301 2 62  the
F 2305 2 62  break
F 2313 3 62  of
F 2321 3 62  dawn
- 2326
F 2329 1 63 Ba
F 2331 1 63 by
F 2333 1 63  got
F 2335 1 63  it
F 2337 1 63  go
F 2339 1 63 in'
F 2341 2 63  on
- 2345
F 2347 1 63 A
F 2349 1 63  lot
F 2351 1 63  of
F 2353 1 63  simps
F 2357 1 63  won't
F 2361 2 63  like
F 2365 2 63  this
F 2369 3 63  song
- 2374
F 2379 1 63 'Cause
F 2381 2 63  them
F 2385 2 63  punks
F 2389 1 63  like
- 2391
F 2391 1 63 To
F 2393 1 63  hit
F 2395 1 63  it
F 2397 1 63  and
F 2399 1 63  quit
F 2401 1 63  it
- 2404
F 2411 1 63 But
F 2413 2 63  I'd
F 2417 2 63  ra
F 2420 2 63 ther
F 2424 2 63  stay
F 2427 2 63  and
F 2430 3 63  play
- 2435
F 2443 1 63 'Cause
F 2445 2 63  I'm
F 2449 6 63  long
F 2459 1 63  and
F 2461 2 63  I'm
F 2465 6 63  strong
- 2473
F 2475 1 63 And
F 2477 2 63  I'm
F 2481 1 63  down
F 2483 1 63  to
F 2485 1 63  get
F 2487 1 63  the
F 2489 2 63  fric
F 2493 1 63 tion
F 2495 4 63  on
- 2501
F 2505 3 63 So
F 2513 2 63  la
F 2516 3 63 dies
- 2521
F 2529 2 63 La
F 2532 2 63 dies
- 2536
F 2541 1 63 If
F 2543 1 63  you
F 2545 1 63  wan
F 2547 1 63 na
F 2549 1 63  role
F 2551 1 63  in
F 2553 2 63  my
F 2557 2 63  Mer
F 2561 2 63 ce
F 2564 3 63 des
- 2569
F 2572 2 63 Then
F 2576 1 63  turn
F 2578 1 63  a
F 2580 4 63 round
- 2586
F 2592 1 63 Stick
F 2594 1 63  it
F 2596 3 63  out
- 2601
F 2604 1 63 E
F 2606 1 63 ven
F 2608 2 63  white
F 2612 2 63  boys
F 2616 2 63  got
F 2620 1 63  to
F 2622 2 63  shout
- 2626
F 2632 1 63 Ba
F 2634 1 63 by
F 2636 2 63  got
F 2640 2 63  back
- 2644 2733
F 2753 2 63 Ba
F 2757 2 63 by
F 2761 3 63  got
F 2769 4 63  back
- 2775
F 2783 3 60 Yeah
F 2788 2 60  ba
F 2792 3 60 by
- 2797 2798
F 2813 2 60 When
F 2816 2 60  it
F 2819 2 60  comes
F 2822 2 60  to
F 2826 2 60  fe
F 2830 6 60 males
- 2838 2839
F 2855 2 60 Cos
F 2859 2 60 mo
F 2863 2 60  ain't
F 2867 2 60  got
F 2872 2 60  no
F 2875 2 60 thin'
- 2878
F 2880 1 60 To
F 2882 1 60  do
F 2884 1 60  with
F 2886 1 60  my
F 2889 2 60  se
F 2893 2 60 lec
F 2896 2 60 tion
- 2900 2901
F 2919 2 60 Thir
F 2922 2 60 ty
F 2925 2 60  six,
F 2930 2 60  twen
F 2933 2 60 ty
F 2936 3 60  four,
F 2941 2 60  thir
F 2944 2 60 ty
F 2948 2 60  six
- 2952
F 2960 1 60 Ha
F 2962 3 60  ha
- 2967 2968
F 2978 2 60 On
F 2982 2 60 ly
F 2984 2 60  if
F 2987 2 60  she's
F 2991 3 60  five
F 2997 5 60  three
- 3004 3005
F 3021 1 62 So
F 3023 1 62  your
F 3025 2 62  girl
F 3029 2 62 friend
F 3033 2 62  throws
F 3037 2 62  a
F 3041 3 62  Hon
F 3047 3 62 da
- 3051
F 3053 1 62 Play
F 3055 1 62 in'
F 3057 1 62  work
F 3061 2 62 out
F 3065 2 62  tapes
F 3069 2 62  by
F 3073 4 62  Fon
F 3079 2 62 da
- 3083
F 3085 2 62 But
F 3089 2 62  Fon
F 3093 1 62 da
F 3095 2 62  ain't
F 3099 1 62  got
F 3101 1 62  a
F 3104 1 62  mo
F 3106 1 62 tor
- 3108
F 3108 1 62 In
F 3110 1 62  the
F 3112 1 62  back
F 3114 1 62  of
F 3116 3 62  her
F 3120 4 62  Hon
F 3126 2 62 da
- 3130
F 3132 2 62 My
F 3136 2 62  a
F 3140 2 62 na
F 3144 2 62 con
F 3148 2 62 da
F 3152 2 62  don't
F 3160 2 62  want
F 3168 2 62  none
- 3171
F 3172 2 62 Un
F 3176 2 62 less
F 3180 2 62  you've
F 3184 2 62  got
F 3192 3 62  buns
F 3200 4 62  hon
- 3206
F 3212 1 62 You
F 3214 1 62  can
F 3216 1 62  do
F 3220 2 62  side
F 3224 2 62  bends
F 3228 2 62  or
F 3232 1 62  sit
F 3234 2 62 ups
- 3238
F 3244 2 62 But
F 3248 2 62  please
F 3252 2 62  don't
F 3256 2 62  lose
F 3260 2 62  that
F 3264 2 62  butt
- 3268
F 3276 2 62 Some
F 3280 1 62  bro
F 3282 1 62 thers
- 3284
F 3284 1 62 Wan
F 3286 1 62 na
F 3288 1 62  play
F 3292 2 62  that
F 3296 2 62  hard
F 3302 3 62  role
- 3306
F 3308 2 62 And
F 3312 1 62  tell
F 3314 1 62  you
F 3316 1 62  that
F 3318 1 62  the
F 3320 2 62  butt
F 3324 2 62  ain't
F 3328 5 62  gold
- 3335
F 3338 1 63 So
F 3340 2 63  they
F 3344 2 63  toss
F 3348 2 63  it
F 3356 2 63  and
F 3360 2 63  leave
F 3364 2 63  it
- 3368
F 3370 1 63 And
F 3372 2 63  I
F 3376 1 63  pull
F 3378 2 63  up
F 3382 2 63  quick
F 3386 1 63  to
F 3388 2 63  re
F 3392 2 63 trieve
F 3396 2 63  it
- 3400
F 3404 2 63 So
F 3408 2 63  Cos
F 3412 2 63 mo
F 3416 2 63  says
F 3420 2 63  you're
F 3424 2 63  fat
- 3428 3429
F 3438 1 63 Well
F 3440 1 63  I
F 3442 2 63  ain't
F 3446 2 63  down
F 3450 1 63  with
F 3452 2 63  that
- 3456 3457
F 3468 1 63 'Cause
F 3470 1 63  your
F 3472 1 63  waist
F 3476 1 63  is
F 3480 2 63  small
- 3483
F 3484 1 63 And
F 3486 1 63  your
F 3488 2 63  curves
F 3492 2 63  are
F 3496 1 63  kick
F 3498 2 63 in'
- 3502
F 3506 1 63 And
F 3508 2 63  I'm
F 3512 1 63  think
F 3514 1 63 in'
F 3516 2 63  'bout
F 3520 1 63  stick
F 3522 2 63 in'
- 3526
F 3532 1 63 To
F 3534 1 63  the
F 3536 2 63  bean
F 3540 2 63 pole
F 3544 2 63  dames
- 3547
F 3548 1 63 In
F 3550 1 63  the
F 3552 1 63  ma
F 3554 1 63 ga
F 3556 4 63 zines
- 3562
F 3568 1 63 You
F 3570 2 63  ain't
F 3574 2 63  it
F 3577 2 63  miss
F 3581 4 63  thing
- 3587
F 3594 1 63 Give
F 3596 1 63  me
F 3598 1 63  a
F 3600 2 63  sis
F 3604 1 63 ta
F 3606 1 63  I
F 3608 2 63  can't
F 3612 2 63  re
F 3616 2 63 sist
F 3620 3 63  her
- 3625
F 3628 1 63 Red
F 3632 2 63  beans
F 3636 2 63  and
F 3640 2 63  rice
F 3644 1 63  did
F 3646 1 63 n't
F 3648 1 63  miss
F 3652 4 63  her
- 3658
F 3660 2 60 Some
F 3664 1 60  knu
F 3666 1 60 ckle
F 3668 2 60 head
F 3672 2 60  tried
F 3676 2 60  to
F 3680 2 60  diss
- 3684
F 3691 1 60 'Cause
F 3693 1 60  his
F 3696 2 60  girls
F 3700 1 60  were
F 3702 2 60  on
F 3706 2 60  my
F 3710 3 60  list
- 3715
F 3722 1 60 He
F 3724 2 60  had
F 3728 2 60  game
F 3732 1 60  but
F 3734 1 60  he
F 3736 2 60  chose
F 3740 2 60  to
F 3744 1 60  hit
F 3746 2 60  'em
- 3750
F 3755 1 60 And
F 3757 2 60  I
F 3760 1 60  pulled
F 3762 2 60  up
F 3766 2 60  quick
F 3770 1 60  to
F 3772 2 60  get
F 3776 1 60  wit'
F 3778 4 60  'em
- 3784
F 3788 2 60 So
F 3792 1 60  la
F 3794 1 60 dies
F 3796 1 60  if
F 3798 1 60  the
F 3800 2 60  butt
F 3804 2 60  is
F 3808 5 60  round
- 3815
F 3820 1 60 And
F 3822 1 60  you
F 3824 1 60  wan
F 3826 1 60 na
F 3828 1 60  tri
F 3830 1 60 ple
F 3832 1 60  X
F 3836 2 60  throw
F 3840 6 60  down
- 3848
F 3852 2 60 Dial
F 3856 2 60  one
F 3860 2 60  nine
F 3864 2 60  hun
F 3868 2 60 dred
F 3872 2 60  mix
F 3876 1 60 a
F 3878 2 60 lot
- 3882
F 3884 2 60 And
F 3888 2 60  kick
F 3892 2 60  them
F 3896 2 60  nas
F 3900 1 60 ty
F 3902 2 60  thoughts
- 3906
F 3912 1 60 Ba
F 3914 1 60 by
F 3916 1 60  got
F 3920 4 60  back
- 3926 4012
F 4032 2 60 Ba
F 4036 2 60 by
F 4040 3 60  got
F 4048 4 60  back
- 4054 4156
F 4176 1 61 Lit
F 4178 1 61 tle
F 4180 1 61  in
F 4182 1 61  the
F 4184 1 61  mid
F 4186 1 61 dle
- 4188
F 4188 1 61 But
F 4190 1 61  you
F 4192 1 61  got
F 4196 1 61  much
F 4200 3 61  back
- 4205 4220
F 4240 1 61 Lit
F 4242 1 61 tle
F 4244 1 61  in
F 4246 1 61  the
F 4248 1 61  mid
F 4250 1 61 dle
- 4252
F 4252 1 61 But
F 4254 1 61  you
F 4256 2 61  got
F 4260 2 61  much
F 4264 2 61  back
E
