#TITLE:El vals del obrero
#ARTIST:Ska-P
#LANGUAGE:Espańol
#GENRE:Rock
#YEAR:1996
#CREATOR:Adri
#MP3:Ska-P - El vals del obrero.mp3
#COVER:Ska-P - El vals del obrero [CO].jpg
#VIDEO:Ska-P - El vals del obrero [VD#0].avi
#BPM:420
#GAP:650
: 2 6 10 Or
: 12 4 9 gu
: 20 4 9 llo
: 28 4 10 so
: 36 8 9  de es
: 48 6 7 tar
- 82
: 113 4 -1 en
: 119 5 -1 tre el
: 128 4 0  pro
: 136 6 -1 le
: 144 6 -1 ta
: 152 22 0 ria
: 182 18 8 do
- 210
: 244 4 4 Es
: 252 4 4  di
: 258 6 4 fí
: 268 6 4 cil
: 276 6 4  lle
: 284 3 4 gar
: 288 3 4  a
: 292 6 4  fin
: 304 4 2  de
: 310 4 2  mes
- 318
: 320 4 0 sin
: 328 4 0  te
: 336 8 0 ner
: 348 4 -2  que
: 354 6 -2  su
: 364 6 0 dar
: 372 4 1  y
: 378 6 8  su
: 388 12 7 dar
- 410
: 428 4 9 Pa'
: 436 4 8  ga
: 444 6 9 nar
: 452 6 9  nues
: 460 7 9 tro
: 470 8 8  pan
- 506
: 536 6 4 Y es
: 546 9 4 te es
: 560 6 4  mi
: 569 6 4  si
: 578 9 4 tio
- 596
: 600 2 4 Es
: 604 2 4 ta es
: 608 2 4  mi
: 616 2 4  gen
: 620 6 4 te
- 636
: 644 4 4 so
: 650 4 4 mos
: 656 4 4  o
: 663 4 4 bre
: 670 4 4 ros
- 677
: 679 4 4 la
: 685 4 4  cla
: 691 4 4 se
: 697 4 4  pre
: 703 4 4 fe
* 709 83 4 ren
: 798 18 10 te
- 844
: 872 3 2 por
: 878 2 2  e
: 881 2 2 so
: 885 2 4  her
: 888 3 4 ma
: 894 3 4 no
: 900 3 4  pro
: 908 3 4 le
: 912 3 4 ta
: 917 3 4 rio
- 922
: 924 3 4 con
: 928 3 4  or
: 932 5 4 gu
: 938 4 0 llo
: 944 3 1  yo
: 949 3 0  te
: 954 5 1  can
: 961 6 1 to es
: 968 3 0 ta
: 972 7 1  can
: 981 10 2 ción
- 1001
: 1034 4 4 so
: 1040 7 8 mos
: 1048 3 10  la
: 1053 4 10  re
: 1060 3 10 vo
: 1065 3 9 lu
: 1069 9 8 ción
- 1079
: 1081 3 8 Si
: 1088 4 4  se
: 1096 4 4 ńor
- 1106
: 1109 4 2 La
: 1116 4 4  re
: 1124 4 6 vo
: 1132 3 6 lu
: 1137 9 6 ción
- 1147
: 1149 3 5 si
: 1156 4 4  se
: 1161 7 4 ńor,
: 1173 3 4  si
: 1178 3 4  se
: 1182 6 4 ńor
- 1192
: 1194 3 4 so
: 1199 3 4 mos
: 1207 3 4  la
: 1213 3 1  re
: 1219 3 1 vo
: 1224 3 1 lu
: 1229 7 0 ción
- 1238
: 1240 3 4 tu e
: 1244 3 4 ne
: 1248 6 4 mi
: 1256 3 4 go
: 1260 3 0  es
: 1264 3 0  el
: 1269 4 1  pa
: 1276 11 0 trón
- 1297
: 1332 3 5 si
: 1337 3 4  se
: 1341 7 4 ńor,
: 1353 3 4  si
: 1359 3 4  se
: 1364 9 4 ńor
- 1374
: 1376 3 4 so
: 1384 3 4 mos
: 1388 3 4  la
: 1392 3 4  re
: 1400 3 1 vo
: 1404 3 1 lu
: 1412 6 1 ción
- 1419
: 1421 3 1 vi
: 1428 3 4 va
: 1432 3 4  la
: 1440 3 4  re
: 1444 3 4 vo
: 1452 3 4 lu
* 1457 33 4 ción
- 1500
: 1518 2 4 Es
: 1521 2 4 toy
: 1524 2 4  has
: 1527 2 4 ta
: 1530 3 4  los
: 1534 3 4  co
: 1538 2 4 jo
: 1541 2 4 nes
- 1544
: 1546 3 4 de a
: 1550 3 4 guan
: 1554 3 4 tar
: 1558 3 6  a
: 1562 3 4  san
: 1566 3 4 gui
: 1570 3 4 jue
: 1574 3 4 las
- 1578
: 1580 3 4 los
: 1584 3 4  que
: 1588 3 4  me
: 1592 3 4  ro
: 1596 3 4 ban
: 1600 3 4  mi
: 1604 3 4  dig
: 1608 4 4 ni
: 1616 4 4 dad
- 1630
: 1644 3 4 mi
: 1648 3 4  vi
: 1652 3 4 da
: 1656 3 4  se
: 1660 3 4  con
: 1664 3 4 su
: 1668 3 4 me
- 1672
: 1674 2 4 so
: 1677 2 4 por
: 1680 3 6 tan
: 1684 3 7 do es
: 1688 3 4 ta
: 1692 3 4  ru
: 1696 3 4 ti
: 1700 3 4 na
- 1704
: 1706 2 4 que
: 1709 3 4  me a
: 1713 3 4 ho
: 1717 3 4 ga
: 1721 3 4  ca
: 1725 3 4 da
: 1729 4 4  dí
: 1736 3 4 a
: 1744 4 4  mas
- 1758
: 1772 3 4 Fe
: 1776 3 4 liz
: 1780 3 4  el
: 1784 3 4  em
: 1788 3 4 pre
: 1792 3 4 sa
: 1796 4 2 rio
- 1803
: 1805 2 4 mas
: 1808 3 2  ca
: 1812 3 4 llos
: 1816 3 4  en
: 1820 3 4  mis
: 1824 3 4  ma
: 1828 3 4 nos
- 1832
: 1834 2 4 mis
: 1837 3 4  ri
: 1841 3 4 ńo
: 1845 3 4 nes
: 1849 3 4  van
: 1853 3 4  a
: 1857 3 4  re
: 1864 4 4 ven
: 1872 7 4 tar
- 1889
: 1901 2 4 no
: 1904 3 4  ten
: 1908 3 4 go un
: 1912 3 4  pu
: 1916 3 4 to
: 1920 3 4  du
: 1924 3 4 ro
- 1928
: 1930 2 4 pe
: 1933 3 4 ro
: 1937 3 4  si
: 1941 3 6 go
: 1945 3 4  co
: 1949 3 4 ti
: 1953 3 4 zan
: 1957 2 4 do
- 1960
: 1962 2 4 al
: 1965 3 4 to es
: 1969 3 4 ta
: 1973 3 4 do
- 1978
: 1980 3 2 del
: 1984 7 4  bien
: 1992 4 4 es
: 2000 8 4 tar
- 2010
: 2012 3 4 a
: 2016 3 7 rri
* 2020 12 8 ba!
- 2060
: 2128 4 7 Re
: 2136 4 4 sis
: 2144 4 4 ten
: 2152 4 4 cia!
- 2184
: 2256 4 7 Re
: 2264 4 4 sis
: 2272 4 4 ten
: 2280 4 4 cia!
- 2312
: 2384 4 7 Re
: 2392 4 4 sis
: 2400 4 4 ten
: 2408 4 4 cia!
- 2468
: 2928 3 4 Es
: 2932 4 4 te es
: 2937 3 4  mi
: 2941 3 4  si
: 2948 7 4 tio
- 2965
: 2973 3 4 Es
: 2977 3 4 ta es
: 2981 3 4  mi
: 2988 3 4  gen
: 2992 7 4 te
- 3009
: 3017 3 4 so
: 3022 3 4 mos
: 3027 3 4  o
: 3034 3 4 bre
: 3040 3 4 ros
- 3046
: 3048 3 4 la
: 3052 3 4  cla
: 3057 5 4 se
: 3064 3 4  pre
: 3069 3 4 fe
* 3074 87 4 ren
: 3166 14 10 te
- 3208
: 3236 3 2 por
: 3240 3 2  e
: 3244 3 2 so
: 3248 3 4  her
: 3252 3 4 ma
: 3258 3 4 no
: 3264 3 4  pro
: 3268 3 4 le
: 3274 3 4 ta
: 3280 3 4 rio
- 3284
: 3286 3 4 con
: 3292 3 4  or
: 3296 5 4 gu
: 3303 3 0 llo
: 3308 3 1  yo
: 3312 3 0  te
: 3316 7 1  can
: 3324 3 1 to es
: 3329 3 0 ta
: 3333 6 1  can
: 3340 12 2 ción
- 3362
: 3396 3 4 so
: 3401 6 8 mos
: 3408 3 10  la
: 3413 3 10  re
: 3419 3 10 vo
: 3424 3 9 lu
: 3429 8 8 ción
- 3439
: 3441 3 8 Si
: 3448 4 4  se
: 3456 4 4 ńor
- 3466
: 3468 4 2 La
: 3476 4 4  re
: 3484 4 6 vo
: 3492 3 6 lu
: 3496 6 6 ción
- 3503
: 3505 3 5 si
: 3511 3 4  se
: 3516 8 4 ńor,
: 3528 3 4  si
: 3534 3 4  se
: 3539 7 4 ńor
- 3550
: 3552 3 4 so
: 3556 3 4 mos
: 3563 3 4  la
: 3568 3 1  re
: 3574 3 1 vo
: 3579 3 1 lu
: 3584 7 0 ción
- 3594
: 3596 3 4 tu e
: 3600 3 4 ne
: 3604 6 4 mi
: 3611 3 4 go
: 3616 3 0  es
: 3620 3 0  el
: 3624 3 1  pa
: 3630 13 0 trón
- 3653
: 3684 3 5 si
: 3688 3 4  se
: 3692 7 4 ńor,
: 3704 3 4  si
: 3711 3 4  se
: 3716 7 4 ńor
- 3727
: 3729 3 4 so
: 3735 3 4 mos
: 3740 3 4  la
: 3745 3 4  re
: 3751 3 1 vo
: 3757 3 1 lu
: 3763 4 1 ción
- 3771
: 3773 3 1 vi
: 3778 3 4 va
: 3783 3 4  la
: 3788 3 4  re
: 3793 3 4 vo
: 3800 3 4 lu
* 3805 14 4 ción
- 3829
: 3851 2 4 En
: 3854 2 4  es
: 3857 3 4 ta
: 3861 3 4  de
: 3865 3 4 mo
: 3869 3 4 cra
: 3873 2 4 cia hay
- 3876
: 3878 2 4 mu
: 3881 3 4 cho
: 3885 3 4  lis
: 3889 3 6 to
: 3893 3 4  que
: 3897 3 4  se
: 3901 3 4  lu
: 3905 3 4 cra
- 3909
: 3911 2 4 Ex
: 3914 2 4 pri
: 3917 3 4 mien
: 3921 3 4 do
: 3925 3 4  nues
: 3929 3 4 tra
: 3933 3 4  cla
: 3937 3 4 se
: 3941 3 4  so
: 3947 4 4 cial
- 3961
: 3973 3 4 les
: 3977 3 4  im
: 3981 3 4 por
: 3985 3 4 ta
: 3989 3 4  cua
: 3993 3 4 tro
: 3997 3 4  hue
: 4001 2 4 vos
- 4004
: 4006 2 4 si
: 4009 3 4  tie
: 4013 3 6 nes
: 4017 3 7  ca
: 4021 3 4 tor
: 4025 3 4 ce
: 4029 3 4  hi
: 4033 3 4 jos
- 4037
: 4039 2 1 y
: 4042 2 4  la a
: 4045 3 4 bue
: 4049 3 4 la
: 4053 3 4  no
: 4057 3 4  se
: 4061 3 4  pue
: 4065 3 4 de o
: 4069 3 4 pe
: 4076 4 4 rar
- 4090
: 4109 3 5 So
: 4113 3 4 mos
: 4117 3 4  los
: 4121 3 4  o
: 4125 3 4 bre
: 4129 3 5 ros
- 4137
: 4139 2 4 la
: 4142 2 4  ba
: 4145 3 2 se
: 4149 3 4  de es
: 4153 2 4 te
: 4157 2 4  jue
: 4160 2 4 go
- 4163
: 4165 2 4 en
: 4168 2 4  la
: 4171 2 4  que
: 4174 3 4  siem
: 4178 3 4 pre
: 4182 3 4  pier
: 4186 3 4 de el
: 4190 3 4  mis
: 4194 3 4 mo
: 4198 3 4  prin
: 4202 7 4 gao
- 4219
: 4236 2 4 un
: 4239 2 4  jue
: 4242 3 4 go
: 4246 3 4  bien
: 4250 3 4  pen
: 4254 3 4 sa
: 4258 2 4 do
- 4261
: 4263 2 4 en
: 4266 2 4  el
: 4269 2 4  que
: 4272 2 4  nos
: 4275 2 6  tie
: 4278 3 4 nen
: 4282 3 4  ca
: 4286 3 4 lla
: 4290 2 4 dos
- 4293
: 4295 2 4 y
: 4298 3 4  te
: 4302 3 4  jo
: 4306 3 4 den
: 4310 3 4  si
: 4314 3 5  no
: 4318 3 4  quie
: 4322 3 4 res
: 4326 3 4  ju
: 4331 11 4 gar
- 4344
: 4346 2 4 a
: 4349 3 7 rri
* 4353 15 8 ba!
- 4396
: 4460 4 7 Re
: 4468 4 4 sis
: 4476 4 4 ten
: 4484 4 4 cia!
- 4516
: 4588 4 7 Re
: 4596 4 4 sis
: 4604 4 4 ten
: 4612 4 4 cia!
- 4644
: 4716 4 7 Re
: 4724 4 4 sis
: 4732 4 4 ten
: 4740 4 4 cia!
- 4772
: 4844 4 7 Re
: 4852 4 4 sis
: 4860 4 4 ten
: 4868 4 4 cia!
- 4928
F 5664 3 4 S
F 5668 3 1 ka,
F 5672 3 4  S
F 5676 3 1 ka,
F 5680 3 4  S
F 5684 3 1 ka,
F 5688 3 4  S
F 5692 8 4 ka
- 5728
: 5796 4 7 Re
: 5804 4 4 sis
: 5812 4 4 ten
: 5820 4 4 cia!
- 5852
: 5924 4 7 Re
: 5932 4 4 sis
: 5940 4 4 ten
: 5948 4 4 cia!
- 5980
: 6052 4 7 Re
: 6060 4 4 sis
: 6068 4 4 ten
: 6076 4 4 cia!
- 6108
: 6180 4 7 Re
: 6188 4 4 sis
: 6196 4 4 ten
: 6204 4 4 cia!
- 6214
: 6216 4 7 Re
: 6224 4 4 sis
: 6232 4 4 ten
: 6240 4 4 cia!
- 6250
: 6252 7 7 Re
: 6264 7 4 sis
: 6276 7 4 ten
: 6286 23 4 cia!
- 6365
: 6660 4 8 In
: 6668 8 9 sis
: 6680 8 9 ti
* 6692 41 9 mos!!!
- 6761
: 6824 4 7 Re
: 6832 4 4 sis
: 6840 4 4 ten
: 6848 4 4 cia!
- 6880
: 6948 4 7 Re
: 6956 4 4 sis
: 6964 4 4 ten
: 6972 4 4 cia!
- 7004
: 7068 4 7 Re
: 7076 4 4 sis
: 7084 4 4 ten
: 7092 4 4 cia!
- 7124
: 7157 3 7 El
: 7161 3 7  pue
: 7165 3 7 blo
: 7173 3 5  u
: 7177 3 7 ni
: 7181 3 6 do
- 7190
: 7192 4 7 Re
: 7200 4 4 sis
: 7208 4 4 ten
: 7216 4 4 cia!
- 7222
: 7224 4 7 Re
: 7232 4 4 sis
: 7240 4 4 ten
: 7251 4 4 cia!
- 7258
: 7260 8 7 De
: 7284 8 4 so
: 7304 8 4 be
: 7328 8 4 dien
* 7351 93 4 cia!
E
