#TITLE:Mama We're All Crazee Now
#ARTIST:Slade
#GENRE:Rock
#MP3:Slade - Mama Weer All Crazee Now.mp3
#COVER:Slade - Mama Weer All Crazee Now [CO].jpg
#VIDEOGAP:-1
#BPM:275.84
#GAP:14887.41
#PREVIEWSTART:29,041
#MEDLEYSTARTBEAT:132
#MEDLEYENDBEAT:590
: 0 2 5 I
: 4 6 7  don't
: 12 9 4  want
: 24 4 0  to
- 30
: 40 2 0 I
: 44 4 5  drink
: 52 6 5  my
: 61 3 5  whis
: 66 3 5 ky
: 71 4 7  like
: 78 8 4  you
: 90 5 0  do
- 97
: 132 2 2 I
: 135 4 7  don't
: 143 6 4  need
: 155 5 0  to
- 162
: 173 5 5 Spend
: 182 5 5  my
: 190 3 5  mo
: 195 3 5 ney
: 200 3 7  but
: 206 11 4  still
: 220 4 0  do
- 226
: 264 4 12 Don't
: 271 7 9  stop
: 284 6 5  now
: 292 2 5  a
: 295 3 9  c'
: 300 3 7 mo
: 304 2 5 ~n
- 308
: 324 2 5 A
: 327 3 12 no
: 332 2 12 ther
: 336 6 9  drop
: 348 4 5  now
: 355 3 5  oh
: 359 3 9  c'
: 364 3 7 mo
: 369 2 5 ~n
- 373
: 388 2 5 I
: 392 2 12  wan
: 396 2 12 na
: 400 6 9  lot
: 412 5 5  now
: 420 2 5  so
: 424 2 7  c'
: 428 7 5 mon
- 437
: 451 5 5 That's
: 460 6 7  ri
: 468 4 9 ~ght
- 474
: 484 3 9 That's
: 492 6 12  ri
: 500 2 9 ~
: 504 4 7 ght
- 510
: 515 2 7 I
: 519 4 9  said
: 527 9 11  ma
: 539 5 11  ma
: 546 3 11 ma
: 551 3 11  we're
: 556 9 12  all
: 570 6 11  cra
: 579 4 9 zy
: 587 3 9  no
: 592 4 7 ~w
- 598
: 642 2 7 I
: 646 4 9  said
: 654 9 11  ma
: 666 5 11  ma
: 673 3 11 ma
: 678 3 11  we're
: 683 9 12  all
: 697 6 11  cra
: 706 4 9 zy
: 714 3 9  no
: 719 4 7 ~w
- 725
: 769 2 7 I
: 773 4 9  said
: 781 9 11  ma
: 793 5 11  ma
: 800 3 11 ma
: 805 3 11  we're
: 810 9 12  all
: 824 6 11  cra
: 833 4 9 zy
: 841 3 9  no
: 846 4 7 ~w
- 852
: 960 2 2 And
: 964 4 7  you
: 972 5 4  told
: 984 5 0  me
- 991
: 1001 2 0 A
: 1004 6 5  fool
: 1012 3 5  fi
: 1017 2 5 re
: 1021 2 5  wa
: 1025 2 5 ter
: 1029 4 7  won't
: 1036 9 2  hurt
: 1048 5 0  me
- 1055
: 1088 2 0 And
: 1092 4 7  you
: 1100 8 4  tease
: 1112 4 0  me
- 1118
: 1128 3 0 And
: 1133 5 5  all
: 1140 5 5  my
: 1148 2 5  la
: 1152 2 5 dies
: 1156 4 7  de
: 1164 7 4 sert
: 1176 6 0  me
- 1184
: 1220 4 12 Don't
: 1228 6 9  stop
: 1240 6 5  now
: 1248 2 5  a
: 1251 3 9  c'
: 1256 3 7 mo
: 1260 2 5 ~n
- 1264
: 1279 2 5 A
: 1282 3 12 no
: 1287 2 12 ther
: 1291 6 9  drop
: 1303 4 5  now
: 1310 3 5  oh
: 1314 3 9  c'
: 1319 3 7 mo
: 1324 2 5 ~n
- 1328
: 1343 2 5 I
: 1347 2 12  wan
: 1351 2 12 na
: 1355 6 9  lot
: 1367 5 5  now
: 1375 2 5  so
: 1379 2 7  c'
: 1383 7 5 mon
- 1392
: 1405 5 5 That's
: 1414 6 7  ri
: 1422 4 9 ~ght
- 1428
: 1437 3 9 That's
: 1445 6 12  ri
: 1453 2 9 ~
: 1457 4 7 ght
- 1463
: 1469 2 7 I
: 1473 4 9  said
: 1481 9 11  ma
: 1493 5 11  ma
: 1500 3 11 ma
: 1505 3 11  we're
: 1510 9 12  all
: 1524 6 11  cra
: 1533 4 9 zy
: 1541 3 9  no
: 1546 4 7 ~w
- 1552
: 1594 2 7 I
: 1598 4 9  said
: 1606 9 11  ma
: 1618 5 11  ma
: 1625 3 11 ma
: 1630 3 11  we're
: 1635 9 12  all
: 1649 6 11  cra
: 1658 4 9 zy
: 1666 3 9  no
: 1671 4 7 ~w
- 1677
: 1721 2 7 I
: 1725 4 9  said
: 1733 9 11  ma
: 1745 5 11  ma
: 1752 3 11 ma
: 1757 3 11  we're
: 1762 9 12  all
: 1776 6 11  cra
: 1785 4 9 zy
: 1793 3 9  no
: 1798 4 7 ~w
- 1804
: 1977 2 7 I
: 1981 6 7  don't
: 1989 9 4  want
: 2001 4 0  to
- 2007
: 2016 2 0 I
: 2020 4 5  drink
: 2028 6 5  my
: 2037 3 5  whis
: 2042 3 5 ky
: 2047 4 7  but
: 2054 8 4  still
: 2066 5 0  do
- 2073
: 2104 2 5 I
: 2108 3 7  had
: 2113 2 7  e
: 2117 7 4 nough
: 2128 3 0  to
- 2133
: 2148 5 5 Fill
: 2156 4 5  up
: 2164 2 5  "H 
: 2168 2 5 A"
: 2172 3 7  Hill's
: 2180 4 4  left
: 2192 6 0  shoe
- 2200
: 2232 2 5 I
: 2236 3 12  don't
* 2242 6 9  stop
* 2254 6 5  now
: 2262 2 5  a
: 2265 3 9  c'
: 2270 3 7 mo
: 2274 2 5 ~n
- 2278
: 2293 2 5 A
: 2296 3 12 no
: 2301 2 12 ther
* 2305 6 9  drop
* 2317 4 5  now
: 2324 3 5  oh
: 2328 3 9  c'
: 2333 3 7 mo
: 2338 2 5 ~n
- 2342
: 2357 2 7 I
: 2361 2 12  wan
: 2365 2 12 na
: 2369 6 9  lot
: 2381 5 5  now
: 2389 2 5  so
: 2393 2 7  c'
: 2397 7 5 mon
- 2406
: 2419 5 5 That's
: 2428 6 7  ri
: 2436 4 9 ~ght
- 2442
: 2451 3 9 That's
: 2459 6 12  ri
: 2467 2 9 ~
: 2471 4 7 ght
- 2477
: 2482 2 7 I
: 2486 4 9  said
: 2494 9 11  ma
: 2506 5 11  ma
: 2513 3 11 ma
: 2518 3 11  we're
: 2523 9 12  all
: 2537 6 11  cra
: 2546 4 9 zy
: 2554 3 9  no
: 2559 4 7 ~w
- 2565
: 2607 2 7 I
: 2611 4 9  said
: 2619 9 11  ma
: 2631 5 11  ma
: 2638 3 11 ma
: 2643 3 11  we're
: 2648 9 12  all
: 2662 6 11  cra
: 2671 4 9 zy
: 2679 3 9  no
: 2684 4 7 ~w
- 2690
: 2731 2 7 I
: 2735 4 9  said
: 2743 9 11  ma
: 2755 5 11  ma
: 2762 3 11 ma
: 2767 3 11  we're
: 2772 9 12  all
: 2786 6 11  cra
: 2795 4 9 zy
: 2803 3 9  no
: 2808 4 7 ~w
- 2814
: 2856 2 7 I
: 2860 4 9  said
: 2868 9 11  ma
: 2880 5 11  ma
: 2887 3 11 ma
: 2892 3 11  we're
: 2897 9 12  all
: 2911 6 11  cra
: 2920 4 9 zy
: 2928 3 9  no
: 2933 4 7 ~w
- 2939
: 2979 3 7 I
: 2984 4 11  said
: 2991 2 11  Ma
: 2995 2 11  ma
: 2999 2 11  ma
: 3003 2 11  ma
: 3007 2 11  ma
: 3011 2 11  ma
: 3015 2 11  ma
: 3019 2 11  ma
- 3022
: 3023 2 12 Ma
: 3027 2 12  ma
: 3031 2 12  ma
: 3035 2 12  ma
: 3039 2 12  ma
: 3043 2 12  ma
: 3047 2 12  ma
: 3051 8 16  Yeah !
- 3061
: 3105 2 5 I
: 3109 3 9  said
: 3116 2 11  Ma
: 3120 2 11  ma
: 3124 2 11  ma
: 3128 2 11  ma
: 3132 2 11  ma
: 3136 2 11  ma
: 3140 2 11  ma
: 3144 2 11  ma
- 3147
: 3148 2 12 Ma
: 3152 2 12  ma
: 3156 2 12  ma
: 3160 2 12  ma
: 3164 2 12  ma
: 3168 2 12  ma
: 3172 2 12  ma
: 3176 8 16  Yeah !
- 3186
: 3230 2 5 I
: 3234 3 9  said
: 3240 2 11  Ma
: 3244 2 11  ma
: 3248 2 11  ma
: 3252 2 11  ma
: 3256 2 11  ma
: 3260 2 11  ma
: 3264 2 11  ma
: 3268 2 11  ma
- 3271
: 3272 2 12 Ma
: 3276 2 12  ma
: 3280 2 12  ma
: 3284 2 12  ma
: 3288 2 12  ma
: 3292 2 12  ma
: 3296 2 12  ma
: 3300 8 16  Yeah !
- 3310
: 3353 2 4 I
: 3357 3 7  said
: 3363 2 11  Ma
: 3367 2 11  ma
: 3371 2 11  ma
: 3375 2 11  ma
: 3379 2 11  ma
: 3383 2 11  ma
: 3387 2 11  ma
: 3391 2 11  ma
- 3394
: 3395 2 12 Ma
: 3399 2 12  ma
: 3403 2 12  ma
: 3407 2 12  ma
: 3411 2 12  ma
: 3415 2 12  ma
: 3419 2 12  ma
: 3423 8 16  Yeah !
- 3433
F 3451 2 5 C' 
F 3454 6 5 'mon
F 3467 2 5  C'
F 3470 8 5  'mon
- 3480
: 3476 2 5 I
: 3480 3 9  said
: 3486 2 11  Ma
: 3490 2 11  ma
: 3494 2 11  ma
: 3498 2 11  ma
: 3502 2 11  ma
: 3506 2 11  ma
: 3510 2 11  ma
: 3514 2 11  ma
- 3517
: 3518 2 12 Ma
: 3522 2 12  ma
: 3526 2 12  ma
: 3530 2 12  ma
: 3534 2 12  ma
: 3538 2 12  ma
: 3542 2 12  ma
: 3546 6 16  Yeah !
- 3554
F 3574 2 5 C' 
F 3577 3 5 'mon
F 3582 1 5  C'
F 3584 3 5  'mon
- 3589
: 3599 2 5 I
: 3603 3 9  said
: 3609 2 11  Ma
: 3613 2 11  ma
: 3617 2 11  ma
: 3621 2 11  ma
: 3625 2 11  ma
: 3629 2 11  ma
: 3633 2 11  ma
: 3637 2 11  ma
- 3640
: 3641 2 12 Ma
: 3645 2 12  ma
: 3649 2 12  ma
: 3653 2 12  ma
: 3657 2 12  ma
: 3661 2 12  ma
: 3665 2 12  ma
: 3669 6 16  Yeah !
E
