#TITLE:I Got You Babe
#ARTIST:Sonny and Cher
#MP3:Sonny and Cher - I Got You Babe.mp3
#VIDEO:Sonny and Cher - I Got You Babe [VD#0].avi
#COVER:Sonny and Cher - I Got You Babe [CO].jpg
#BPM:220
#GAP:6750
#VIDEOGAP:0
#ENCODING:UTF8
#LANGUAGE:Englisch
#GENRE:Pop
#EDITION:SingStar Party
#YEAR:1965
- 2
: 144 4 72 Well
: 148 4 72  I
: 152 8 72  don't
: 160 6 72  know
- 168
: 172 4 72 'F'all
: 176 8 72  that's
: 184 5 72  true
- 191
: 196 4 72 Cause
: 200 4 72  you
: 204 2 72  got
: 208 6 72  me
- 215
: 216 4 65 And
: 220 6 70  ba
: 226 4 69 by
: 230 8 67  I
: 238 4 65  got
* 242 20 67  you
- 264
: 290 8 65 Babe
- 300
: 331 4 70 I
: 335 4 70  got
: 339 4 69  you
: 343 5 65  babe
- 350
: 379 4 70 I
: 383 4 70  got
: 387 4 69  you
: 391 4 65  babe
- 397
: 574 3 72 I
: 578 6 72  guess
: 584 6 72  that's
: 590 5 72  so
- 596
: 596 2 72 We
: 598 2 72  don't
: 602 4 72  have
: 606 3 72  a
: 610 6 72  pot
- 618
: 622 2 72 But
: 624 3 72  at
: 628 4 72  least
: 634 3 72  I'm
: 638 6 72  sure
- 645
: 646 4 65 Of
* 650 8 70  all
: 658 4 69  the
: 662 8 67  things
: 670 4 65  we
: 674 17 67  got
- 693
: 717 4 65 Babe
- 723
: 761 4 70 I
: 765 4 70  got
: 769 4 69  you
* 773 5 65  babe
- 780
: 808 4 70 I
: 812 4 70  got
: 816 5 69  you
: 821 5 65  babe
- 828
: 852 3 70 I
: 856 3 69  got
: 861 6 67  flo
: 867 12 67 wers
- 881
: 903 4 69 In
: 907 4 70  the
* 912 20 72  spring
- 934
: 955 4 70 I
: 959 5 69  got
: 965 16 67  you
- 983
: 996 4 67 To
: 1000 6 69  wear
: 1006 3 74  my
* 1009 5 72 ~
: 1014 10 72 ring
- 1026
: 1383 4 73 Then
: 1389 3 73  put
: 1394 10 73  your
- 1405
: 1405 2 73 Lit
: 1407 3 73 tle
: 1411 5 73  hand
: 1417 2 73  in
: 1421 9 73  mine
- 1432
: 1437 6 73 There
: 1443 3 73  ain't
: 1446 3 73  no
* 1450 6 73  hill
: 1456 4 66  or
: 1460 8 71  moun
: 1468 4 70 tain
- 1474
: 1476 4 68 We
: 1480 6 66  can't
: 1486 16 68  climb
- 1504
: 1528 4 66 Babe
- 1534
: 1573 4 71 I
: 1577 4 75  got
: 1581 5 73  you
: 1586 5 70  babe
- 1593
: 1621 4 71 I
: 1625 4 75  got
: 1629 4 73  you
: 1633 5 70  babe
- 1640
: 1775 3 66 I
: 1779 3 66  got
: 1783 3 66  you
- 1788
: 1795 3 66 To
: 1799 3 66  hold
: 1803 4 66  my
: 1807 5 66  hand
- 1814
: 1870 3 70 I
: 1874 3 70  got
: 1878 4 70  you
- 1884
* 1890 3 71 Walk
: 1894 3 71  with
: 1898 4 71  me
- 1904
: 1962 3 66 I
: 1966 3 66  got
: 1970 6 66  you
- 1978
: 1981 3 66 To
: 1985 3 65  kiss
: 1989 3 66  good
: 1993 6 66  night
- 2001
: 2062 4 68 I
: 2066 4 66  got
: 2071 7 66  you
- 2079
* 2081 4 68 I
: 2085 3 66  won't
: 2089 4 66  let
: 2094 5 66  go
- 2101
: 2242 11 68 I
: 2253 15 71  got
* 2276 12 70  you
: 2288 24 66  babe
- 2314
: 2365 4 71 I
: 2369 5 75  got
: 2374 4 73  you
: 2378 5 70  babe
- 2385
: 2414 4 71 I
: 2418 4 75  got
: 2422 4 73  you
: 2426 5 70  babe
- 2433
: 2462 4 71 I
: 2466 4 75  got
: 2470 4 73  you
: 2474 5 70  babe
- 2481
: 2509 4 71 I
: 2513 4 75  got
* 2517 4 73  you
: 2521 5 70  babe
- 2528
: 2556 4 71 I
: 2560 4 75  got
: 2564 4 73  you
: 2568 5 70  babe
- 2575
: 2604 4 71 I
: 2608 4 75  got
: 2612 4 73  you
: 2616 5 70  babe
- 2623
: 2780 8 72 They
: 2788 3 72  say
: 2792 3 72  we're
: 2796 7 72  young
- 2804
: 2804 3 72 And
: 2808 3 72  we
: 2812 8 72  don't
: 2820 7 72  know
- 2828
: 2828 4 65 We
: 2832 8 72  won't
: 2840 3 72  find
: 2844 7 72  out
- 2852
: 2852 4 65 Un
* 2856 8 70 til
: 2864 4 69 ~
: 2868 8 67 ~
: 2876 4 65 we
: 2880 12 67  grow
- 2894
: 3111 4 74 I
: 3115 4 74  got
: 3119 4 72  you
: 3123 5 69  babe
- 3130
: 3159 4 74 I
: 3163 4 74  got
: 3167 4 72  you
: 3171 4 69  babe
- 3177
: 3211 5 72 They
: 3218 4 72  say
: 3222 4 72  our
: 3227 5 72  love
- 3233
: 3233 5 72 Won't
: 3238 4 72  pay
: 3242 4 72  the
* 3246 6 72  rent
- 3254
: 3263 6 72 'Fore
: 3270 4 72  it's
: 3274 6 72  earned
- 3281
: 3282 4 65 Our
: 3286 2 70  mo
: 3288 10 69 ney's
: 3298 8 67  all
: 3306 4 65  been
: 3310 10 67  spent
- 3322
: 3541 4 74 I
: 3545 4 74  got
: 3549 4 72  you
* 3553 5 69  babe
- 3560
: 3588 4 74 I
: 3592 4 74  got
: 3596 5 72  you
: 3601 5 69  babe
- 3608
: 3823 3 65 And
: 3827 3 65  when
: 3830 3 64  I'm
* 3834 31 65  sad
- 3866
: 3866 10 65 You're
: 3876 6 64  a
: 3882 14 65  clown
- 3898
: 3914 3 65 And
: 3918 3 65  if
: 3922 3 65  I
: 3926 3 64  get
: 3930 23 65  scared
- 3955
: 3962 4 67 You're
: 3966 3 67  al
: 3970 3 67 ways
: 3974 3 65  a
: 3978 16 67 round
: 3994 4 66 ~
: 3998 4 67 ~
* 4002 18 68 ~
- 4021
: 4021 8 73 So
: 4029 3 73  let
: 4033 3 73  them
: 4038 5 73  say
- 4044
: 4044 3 73 Your
: 4049 5 73  hair's
: 4057 3 73  too
: 4060 5 73  long
- 4067
: 4069 3 66 Cause
: 4072 8 73  I
: 4080 3 73  don't
: 4084 7 73  care
- 4092
: 4092 4 66 With
* 4096 5 71  you
: 4101 7 70  I
: 4108 8 68  can't
: 4116 5 66  go
: 4121 11 68  wrong
- 4134
: 4353 4 75 I
: 4357 4 75  got
: 4361 5 73  you
: 4366 5 70  babe
- 4373
: 4401 4 75 I
: 4405 4 75  got
: 4409 4 73  you
: 4413 5 70  babe
- 4420
: 4598 8 66 I
: 4606 3 66  got
: 4610 7 66  you
- 4618
: 4618 4 66 To
: 4622 8 68  un
: 4630 4 68 der
: 4634 2 68 stand
: 4636 2 66 ~
* 4638 5 65 ~
- 4645
: 4693 8 66 I
: 4701 3 66  got
: 4705 7 66  you
- 4713
: 4713 3 66 To
* 4716 9 68  talk
: 4725 4 61  with
: 4729 7 61  me
- 4738
: 4789 8 66 I
: 4797 3 66  got
: 4801 7 66  you
- 4809
: 4809 4 66 To
: 4813 8 68  hold
: 4821 4 68  me
: 4825 2 70  tight
: 4827 2 68 ~
: 4829 7 66 ~
- 4838
: 4885 7 66 I
: 4893 3 66  got
: 4897 7 66  you
- 4905
: 4905 4 66 To
: 4909 7 68  love
: 4917 3 68  me
: 4921 7 68  so
- 4930
: 5022 10 71 I
: 5032 15 75  got
* 5056 12 73  you
: 5068 24 70  babe
- 5094
: 5145 4 66 I
: 5149 5 66  got
: 5154 4 66  you
: 5158 5 66  babe
- 5165
: 5194 4 66 I
: 5198 4 66  got
: 5202 4 66  you
: 5206 5 66  babe
- 5213
: 5242 4 66 I
: 5246 4 66  got
: 5250 4 66  you
: 5254 5 66  babe
- 5261
: 5289 4 66 I
: 5293 4 66  got
* 5297 4 70  you
: 5301 5 66  babe
- 5308
: 5336 4 66 I
: 5340 4 66  got
: 5344 4 70  you
: 5348 5 66  babe
- 5355
: 5384 4 66 I
: 5388 4 66  got
: 5392 4 70  you
: 5396 5 66  babe
E