#TITLE:2 Become 1
#ARTIST:Spice Girls
#MP3:Spice Girls - 2 Become 1.mp3
#COVER:Spice Girls - 2 Become 1 [CO].jpg
#VIDEO:Spice Girls - 2 Become 1 [VD#0].mpg
#VIDEOGAP:0
#BPM:72
#GAP:15200
: 1 2 65 Can
: 3 1 63 dle
: 4 2 65  light
: 6 1 63  and
: 7 3 65  soul
: 10 2 58  for
: 12 2 61 ev
: 14 1 63 er,
- 15   
: 15 1 61 A
: 16 3 61  dream
: 19 1 63  of
: 20 2 61  you
: 22 1 63  and
: 23 3 61  me
: 26 1 54  to
: 27 2 54 ge
: 29 3 56 ther,
- 32   
: 32 2 58 Say
: 34 2 61  you
: 36 2 58  be
: 38 4 63 lieve
: 42 6 61  it,
- 48   
: 48 2 58 say
: 50 2 61  you
: 52 2 63  be
: 54 4 58 lieve
: 58 6 56  it.
- 64   
: 64 2 65 Free
: 66 1 63  your
: 67 3 65  mind
: 70 1 63  of
: 71 3 65  doubt
: 74 1 58  and
: 75 2 61  dan
: 77 2 63 ger,
- 79   
: 80 2 61 Be
: 82 1 63  for
: 84 2 61  real
: 86 1 63  don't
: 87 3 61  be
: 90 1 54  a
: 91 2 54  strang
: 93 3 56 er,
- 96   
: 97 1 58 We
: 98 3 61  can
: 101 1 58  ach
: 102 4 63 ive
: 106 6 61  it,
: 113 2 63  we
: 115 2 66  can
: 117 2 63  ach
: 119 4 68 ive
: 123 4 66  i
: 127 3 63 t
- 130   
: 131 1 66 Come
: 132 1 66  a
: 133 2 66  lit
: 135 1 66 tle
: 136 2 65  clo
: 138 2 61 ser
: 140 2 58  b
: 142 4 61 aby,
- 146   
: 146 1 63 Get
: 147 1 61  it
: 148 4 63  on,
: 152 1 63  get
: 153 1 61  it
: 154 3 63  on,
- 157   
: 157 1 63 Cause
: 158 1 65  to
: 159 3 66 night
: 165 1 63  is
: 166 1 70  the
: 167 2 68  n
: 169 4 70 ight
- 173   
: 174 2 61 When
: 176 2 63  two
: 178 2 66  Be
: 180 2 70 come
: 182 4 68  o
: 186 5 66 ne.
- 191   
: 191 1 61 I
: 192 2 70  need
: 194 2 70  some
: 196 2 70  love
: 198 1 70  like
- 199   
: 199 1 66 I
: 200 1 68  nev
: 201 1 66 er
: 202 1 68  need
: 203 1 66 ed
: 204 2 68  love
: 206 1 70  be
: 207 3 66 fore
- 210   
: 210 1 61 (wan
: 211 1 61 na
: 212 2 61  make
: 214 2 61  love
: 216 2 66  to
: 218 2 66  ya
: 220 2 63  ba
: 222 1 61 by)
- 223   
: 223 1 61 I
: 224 1 70  had
: 225 1 68  a
: 226 1 70  lit
: 227 1 68 tle
: 228 5 70  love
: 234 1 68  now
: 235 1 68  I'm
: 236 2 68  back
: 238 2 70  for
: 240 2 66  more
- 242   
: 242 1 61 (wan
: 243 1 61 na
: 244 2 61  make
: 246 2 61  love
: 248 2 66  to
: 250 2 66  ya
: 252 2 68  ba
: 254 2 66 by)
- 256   
: 256 2 66 Set
: 258 2 68  your
: 260 1 66  spir
: 261 2 68 it
: 263 7 66  free
- 270   
: 270 1 61 It's
: 271 1 63  the
: 272 2 64  on
: 274 1 64 ly
: 275 2 66  way
: 277 1 66  to
: 278 4 63  b
: 282 6 61 e.
- 288   
: 288 2 65 Sil
: 290 1 63 ly
: 291 3 65  games
: 294 1 63  that
: 295 3 65  you
: 298 1 58  were
: 299 2 61  play
: 301 2 63 ing,
- 303   
: 304 2 61 Emp
: 306 2 63 ty
: 308 2 61  words
: 310 1 63  we
: 311 3 61  both
: 314 1 54  were
: 315 2 54  say
: 317 3 56 ing,
- 320   
: 320 2 58 Let's
: 322 2 61  work
: 324 2 58  it
: 326 4 63  out
: 330 6 61  boy,
- 336   
: 336 2 58 Let's
: 338 2 61  work
: 340 2 63  it
: 342 4 58  out
: 346 6 56  boy.
- 352   
: 352 2 65 A
: 354 1 63 ny
: 355 3 65  day
: 358 1 63  that
: 359 3 65  we
: 362 1 58  en
: 363 2 61 de
: 365 2 63 vour,
- 368   
: 369 1 61 Boys
: 370 2 63  and
: 372 2 61  girls
: 374 2 63  look
: 376 2 61  good
: 378 1 54  to
: 379 2 54 geth
: 381 3 56 er,
- 384   
: 384 2 58 Take
: 386 2 61  it
: 388 2 58  or
: 390 4 63  leave
: 394 6 61  it,
- 400   
: 400 2 63 Take
: 402 2 66  it
: 404 2 63  or
: 406 4 68  leave
: 410 6 66  it
- 417   
: 418 1 66 Are
: 419 1 66  you
: 420 2 66  as good
: 422 1 66  as I
: 423 1 65  re
: 424 2 63 mem
: 426 2 61 ber
: 428 2 58  ba
: 430 4 61 by,
- 434   
: 434 1 63 get
: 435 1 61  it
: 436 4 63  on,
: 440 1 63  get
: 441 1 61  it
: 442 3 63  on,
- 445   
: 445 1 63 cause
: 446 1 65  to
: 447 3 66 night
: 453 1 63  is
: 454 1 70  the
: 455 2 68  ni
: 457 5 70 ght
- 462   
: 462 2 61 When
: 464 2 63  two
: 466 2 66  Be
: 468 2 70 come
: 470 4 68  o
: 474 5 66 ne.
- 479   
: 479 1 61 I
: 480 2 70  need
: 482 2 70  some
: 484 2 70  love
: 486 1 70  like
- 487   
: 487 1 66 I
: 488 1 68  nev
: 489 1 66 er
: 490 1 68  need
: 491 1 66 ed
: 492 2 68  love
: 494 1 70  be
: 495 3 66 fore
- 498   
: 498 1 61 (wan
: 499 1 61 na
: 500 2 61  make
: 502 2 61  love
: 504 2 66  to
: 506 2 66  ya
: 508 2 63  ba
: 510 1 61 by)
- 511   
: 511 1 61 I
: 512 1 70  had
: 513 1 68  a
: 514 1 70  lit
: 515 1 68 tle
: 516 6 70  love
- 522   
: 522 1 68 Now
: 523 1 68  I'm
: 524 2 68  back
: 526 2 70  for
: 528 2 66  more
- 530   
: 530 1 61 (wan
: 531 1 61 na
: 532 2 61  make
: 534 2 61  love
: 536 2 66  to
: 538 2 66  ya
: 540 2 68  ba
: 542 2 66 by)
- 544   
: 544 2 66 Set
: 546 2 68  your
: 548 1 66  spir
: 549 2 68 it
: 551 7 66  free
- 558   
: 558 1 61 It's
: 559 1 63  the
: 560 2 64  on
: 562 1 64 ly
: 563 2 66  way
: 565 1 66  to
: 566 4 63  b
: 570 6 61 e.
- 585   
: 642 1 66 Be
: 643 1 66  a
: 644 1 66  litt
: 645 1 66 le
: 646 2 66  bit
: 648 2 65  wis
: 650 2 61 er
: 652 2 58  ba
: 654 4 61 by
- 658   
: 658 1 63 put
: 659 1 61  it
: 660 4 63  on,
: 664 1 63  put
: 665 1 61  it
: 666 3 63  on,
- 669   
: 669 1 63 Cause
: 670 1 65  to
: 671 3 66 night
: 677 1 63  is
: 678 1 70  the
: 679 2 68  ni
: 681 3 70 ght
- 685   
: 686 2 61 When
: 688 2 63  two
: 690 2 66  Be
: 692 2 70 come
: 694 6 68  on
: 700 1 70 
: 701 2 66 e
- 703   
: 703 1 61 I
: 704 2 70  need
: 706 2 70  some
: 708 2 70  love
: 710 1 70  like
- 711   
: 711 1 66 I
: 712 1 68  nev
: 713 1 66 er
: 714 1 68  need
: 715 1 66 ed
: 716 2 68  love
: 718 1 70  be
: 719 3 66 fore
- 722   
: 722 1 61 (wan
: 723 1 61 na
: 724 2 61  make
: 726 2 61  love
: 728 2 66  to
: 730 2 66  ya
: 732 2 63  ba
: 734 1 61 by)
- 735   
: 735 1 61 I
: 736 1 70  had
: 737 1 68  a
: 738 1 70  lit
: 739 1 68 tle
: 740 6 70  love
- 746   
: 746 1 68 Now
: 747 1 68  I'm
: 748 2 68  back
: 750 2 70  for
: 752 2 66  more
- 754   
: 754 1 61 (wan
: 755 1 61 na
: 756 2 61  make
: 758 2 61  love
: 760 2 66  to
: 762 2 66  ya
: 764 2 68  ba
: 766 1 66 by)
- 767   
: 767 1 61 I
: 768 2 70  need
: 770 2 70  some
: 772 2 70  love
: 774 1 70  like
- 775   
: 775 1 66 I
: 776 1 68  nev
: 777 1 66 er
: 778 1 68  need
: 779 1 66 ed
: 780 2 68  love
: 782 1 70  be
: 783 3 66 fore
- 786   
: 786 1 61 (wan
: 787 1 61 na
: 788 2 61  make
: 790 2 61  love
: 792 2 66  to
: 794 2 66  ya
: 796 2 63  ba
: 798 1 61 by)
- 799   
: 799 1 61 I
: 800 1 70  had
: 801 1 68  a
: 802 1 70  lit
: 803 1 68 tle
: 804 6 70  love
- 810   
: 810 1 68 Now
: 811 1 68  I'm
: 812 2 68  back
: 814 2 70  for
: 816 2 66  more
- 818   
: 818 1 61 (wan
: 819 1 61 na
: 820 1 61  make
: 822 2 61  love
: 824 2 66  to
: 826 2 66  ya
: 828 2 68  ba
: 830 1 66 by)
- 831   
: 832 2 66 Set
: 834 2 68  your
: 836 1 66  spir
: 837 2 68 it
: 839 7 66  free
- 846   
: 846 1 61 It's
: 847 1 63  the
: 848 2 64  on
: 850 1 64 ly
: 851 2 66  way
: 853 1 66  to
: 854 4 63  b
: 858 6 61 e.
- 868   
: 878 1 61 It's
: 879 1 63  the
: 880 2 64  on
: 882 1 64 ly
: 883 2 66  way
: 885 1 66  to
: 886 4 63  b
: 890 6 61 e.
- 900   
: 910 1 61 It's
: 911 1 63  the
: 912 2 64  on
: 914 1 64 ly
: 915 2 66  way
: 917 1 66  to
: 918 4 63  b
: 922 6 61 e.
E
#Pure6 for ultra-star.dl.am
