#TITLE:Born to be wild
#ARTIST:Steppenwolf
#MP3:Steppenwolf - Born to be wild.mp3
#VIDEO:Steppenwolf - Born to be wild [VD#0].avi
#COVER:Steppenwolf - Born to be wild [CO].jpg
#BACKGROUND:Steppenwolf - Born to be wild [CO].jpg
#BPM:290
#GAP:14793,1
#VIDEOGAP:0
#ENCODING:UTF8
#LANGUAGE:Englisch
#GENRE:Rock
#EDITION:SingStar Amped
#YEAR:1968
: 0 3 52 Get
: 4 3 52  your
: 8 3 52  mo
: 12 3 52 tor
: 16 8 55  run
: 24 7 52 nin'
- 33
: 64 3 62 Head
: 68 3 62  out
: 72 3 62  on
: 76 3 62  the
: 80 8 64  high
: 88 8 64 way
- 98
: 127 3 52 Look
: 131 3 52 in'
: 135 3 55  for
: 139 3 52  ad
* 143 8 57 ven
: 151 8 55 ture
- 161
: 183 3 62 And
: 187 3 62  what
: 191 3 64 e
: 195 3 64 ver
: 199 3 64  comes
: 203 8 64  our
: 211 2 59  way
: 213 2 57 ~
: 215 14 55 ~
- 231
: 261 9 67 Yeah,
: 270 4 66  dar
: 274 4 64 lin'
: 278 8 64  go
: 286 8 64  make
: 294 4 62  it
: 298 8 62  hap
: 306 8 64 pen
- 316
: 326 4 62 Take
: 330 4 62  the
: 334 8 61  world
: 342 4 61  in
: 346 4 59  a
: 350 4 61  love
: 354 8 59  em
* 362 12 59 brace
- 376
: 390 8 62 Fire
: 398 4 61  all
: 402 4 59  of
: 406 4 57  your
: 410 10 59  guns
: 422 4 52  at
: 426 7 55  once
: 434 6 59  and
- 442
: 454 4 62 Ex
: 462 4 61 plode
: 466 4 59  in
: 470 4 57 to
: 474 5 59  space
: 479 7 58 ~
: 486 10 59 ~
- 498
: 511 4 52 I
: 515 4 52  like
: 519 4 52  smoke
: 523 4 52  and
: 527 8 55  light
: 535 4 52 ning
: 539 8 50 ~
- 549
: 574 4 62 Hea
: 578 4 62 vy
: 582 4 62  me
: 586 4 62 tal
: 590 8 64  thun
* 598 8 64 der
- 608
: 638 3 52 Ra
: 642 3 52 cin'
: 646 3 55  with
: 650 3 52  the
: 654 8 57  wind
: 662 4 55 ~
: 666 6 52 ~
- 674
: 693 3 62 And
: 697 3 62  the
: 701 3 64  feel
: 705 3 64 in'
: 709 3 64  that
: 713 3 64  I'm
: 717 8 55  un
: 725 14 52 der
- 741
: 772 8 67 Yeah,
: 780 4 66  dar
: 784 4 64 lin'
: 788 8 64  go
: 796 8 64  make
: 805 4 62  it
: 809 7 62  hap
: 816 8 64 pen
- 826
: 837 4 62 Take
: 841 3 62  the
: 844 8 61  world
: 852 4 61  in
: 856 4 59  a
: 860 4 61  love
: 864 8 59  em
: 872 12 59 brace
- 886
: 901 7 62 Fire
: 908 4 61  all
: 912 4 59  of
: 916 5 57  your
: 921 10 59  guns
: 933 4 52  at
: 937 6 55  once
: 945 4 59  and
- 951
: 966 4 62 Ex
: 973 4 61 plode
: 977 4 59  in
: 981 4 57 to
: 986 4 59  space
: 990 7 58 ~
* 997 10 59 ~
- 1009
: 1013 4 59 Like
: 1018 3 62  a
: 1021 8 64  true
: 1037 8 64  na
: 1046 3 62 ture's
: 1049 7 64  child
: 1056 2 59 ~
: 1058 2 57 ~
: 1060 6 59 ~
- 1068
: 1077 4 59 We
: 1082 3 62  were
: 1085 8 64  born,
: 1101 4 64  born
: 1105 4 64  to
: 1109 4 64  be
: 1113 8 64  wild
- 1123
: 1140 4 59 We
: 1145 3 62  can
: 1148 4 64  climb
: 1157 3 62  so
: 1160 4 64  high
: 1165 3 62 ~
- 1170
: 1183 4 59 I
: 1187 4 67  ne
: 1191 4 66 ver
: 1203 4 64  wan
: 1207 4 64 na
: 1211 5 67  die
: 1220 34 62 ~
- 1256
: 1277 12 64 Born
: 1294 4 64  to
: 1298 8 64  be
: 1311 16 62  wild
: 1327 5 61 ~
: 1335 9 62 ~
- 1346
: 1414 12 64 Born
: 1430 4 64  to
: 1434 8 64  be
* 1445 16 62  wild
: 1461 5 61 ~
: 1469 9 62 ~
- 1480
: 2233 3 52 Get
: 2237 3 52  your
: 2241 3 52  mo
: 2245 3 52 tor
: 2248 8 55  run
: 2256 6 52 nin'
- 2264
: 2296 3 62 Head
: 2300 3 62  out
: 2304 3 62  on
: 2308 3 62  the
: 2311 8 64  high
: 2319 8 64 way
- 2329
: 2359 3 52 Look
: 2363 3 52 in'
: 2367 3 55  for
: 2370 3 52  ad
: 2374 8 57 ven
: 2382 8 55 ture
- 2392
: 2414 3 62 And
: 2418 3 62  what
: 2421 3 64 e
: 2425 3 64 ver
: 2429 3 64  comes
* 2433 8 64  our
: 2441 2 59  way
: 2443 2 57 ~
: 2445 14 55 ~
- 2461
: 2492 8 67 Yeah,
: 2500 4 66  dar
: 2504 4 64 lin'
: 2508 8 64  go
: 2516 8 64  make
: 2525 4 62  it
: 2529 7 62  hap
* 2536 8 64 pen
- 2546
: 2556 4 62 Take
: 2560 3 62  the
: 2563 8 61  world
: 2571 4 61  in
: 2575 4 59  a
: 2579 4 61  love
: 2583 8 59  em
: 2591 12 59 brace
- 2605
: 2619 8 62 Fire
: 2627 4 61  all
: 2631 4 59  of
: 2635 4 57  your
: 2639 10 59  guns
: 2651 4 52  at
: 2655 6 55  once
: 2663 6 59  and
- 2671
: 2683 4 62 Ex
: 2690 4 61 plode
: 2694 4 59  in
: 2698 4 57 to
: 2702 4 59  space
: 2706 8 58 ~
: 2714 10 59 ~
- 2726
: 2728 4 59 Like
: 2733 4 62  a
: 2737 8 64  true
: 2753 8 64  na
: 2762 3 62 ture's
: 2765 7 64  child
: 2773 2 59 ~
: 2775 2 57 ~
: 2777 6 59 ~
- 2785
: 2793 4 59 We
: 2798 3 62  were
* 2801 8 64  born,
: 2818 4 64  born
: 2822 4 64  to
: 2826 4 64  be
: 2830 8 64  wild
- 2840
: 2857 4 59 We
: 2862 3 62  can
: 2865 4 64  climb
: 2874 3 62  so
: 2877 5 64  high
: 2882 4 62 ~
- 2888
: 2900 4 59 I
* 2904 4 67  ne
: 2908 4 66 ver
: 2920 4 64  wan
: 2924 4 64 na
: 2928 4 67  die
: 2935 34 62 ~
- 2971
: 2993 12 64 Born
: 3010 4 64  to
: 3014 8 64  be
: 3027 16 62  wild
: 3043 5 61 ~
: 3050 9 62 ~
- 3061
: 3129 12 64 Born
: 3145 4 64  to
: 3149 8 64  be
* 3160 16 62  wild
: 3176 5 61 ~
: 3184 9 62 ~
E