#TITLE:English Man In New York
#ARTIST:Sting
#LANGUAGE:Englisch
#MP3:Sting - English Man In New York.mp3
#COVER:Sting - English Man In New York [CO].jpg
#VIDEO:Sting - English Man In New York.mpg
#VIDEOGAP:2
#BPM:102
#GAP:19600
: 0 1 53 I 
: 1 1 58 don't 
: 2 1 61 drink 
: 4 1 63 cof
: 6 1 60 fee
- 7
: 8 1 56 I 
: 10 1 54 take 
: 12 2 53 tea 
: 14 1 60 my 
: 16 9 60 dear
- 20
: 32 1 53 I 
: 33 1 58 like 
: 34 1 61 my 
: 36 1 63 toast 
: 38 1 60 done 
: 40 1 56 on 
: 42 1 54 the 
: 44 14 53 side
- 55
: 64 1 53 And 
: 65 1 58 you 
: 66 1 61 can 
: 68 1 63 hear 
: 70 1 60 it 
: 72 1 56 in 
: 74 1 54 my 
- 75
: 76 2 53 ac
: 78 1 60 cent 
: 80 2 60 when 
: 82 1 58 I 
: 83 5 60 talk 
- 86
: 90 1 58 I'm 
: 92 1 60 an 
: 93 3 61 En
: 96 3 61 glish 
: 99 2 61 man 
: 101 3 60 in 
: 104 3 56 New 
: 108 14 58 York 
- 120
: 129 1 58 See 
: 130 1 61 me 
: 132 1 63 walk
: 134 1 60 ing 
: 136 2 56 down 
: 138 1 54 Fifth 
: 140 2 53 A
: 142 1 60 ven
: 144 10 60 ue
- 153
: 160 1 53 A 
: 161 1 58 walk
: 162 1 61 ing 
: 164 1 63 cane 
: 166 1 60 here 
: 168 1 56 at 
: 170 3 54 my 
: 173 11 53 side
- 182
: 192 1 63 I 
: 193 1 66 take 
: 194 1 66 it 
: 196 2 68 eve
: 198 1 66 ry 
: 200 2 65 where  
: 202 1 63 I 
: 204 11 65 walk
- 211
: 218 1 58 I'm 
: 220 1 60 an 
: 221 2 61 En
: 224 2 61 glish 
: 227 1 61 man 
: 229 3 60 in 
: 232 3 56 New 
: 235 14 58 York
- 244
: 257 1 61 I'm 
: 259 1 61 an 
: 260 2 61 a
: 262 1 60 li
: 263 1 58 en 
: 269 1 60 I'm 
: 271 1 60 a 
: 272 1 63 le
: 274 1 63 gal 
: 276 2 61 a
: 278 1 60 li
: 279 1 58 en
- 280
: 281 2 58 I'm 
: 283 1 60 an 
: 285 3 61 En
: 288 2 61 glish 
: 291 1 61 man 
: 293 3 60 in 
: 296 3 56 New 
: 299 10 58 York
- 310
: 321 1 61 I'm 
: 323 1 61 an 
: 324 2 61 a
: 326 1 60 li
: 327 1 58 en 
: 333 1 60 I'm 
: 335 1 60 a 
: 336 1 63 le
: 338 1 63 gal 
: 340 2 61 a
: 342 1 60 li
: 343 1 58 en
- 344
: 345 1 58 I'm 
: 347 1 60 an 
: 349 2 61 En
: 352 2 61 glish 
: 355 2 61 man 
: 357 3 60 in 
: 360 3 56 New 
: 363 10 58 York
- 373
: 384 1 53 If 
: 385 1 58 "man
: 386 1 61 ners 
: 388 1 63 mak
: 390 1 60 eth 
: 392 1 56 man"
- 393
: 394 1 54 as 
: 396 2 53 some 
: 398 1 60 one 
: 400 10 60 said
- 410
: 416 1 53 Then 
: 417 1 58 he's 
: 418 1 61 the 
: 420 1 63 he
: 422 1 60 ro 
: 424 3 56 of 
: 427 2 54 the 
: 429 13 53 day
- 438
: 448 1 54 It 
: 449 1 58 takes 
: 450 1 61 a 
: 452 1 63 man 
: 454 1 60 to 
: 456 1 56 suf
: 458 1 54 fer 
- 459
: 460 2 53 ig
: 462 1 60 no
: 464 1 60 rance  
: 466 1 58 and  
: 468 3 60 smile
- 470
: 473 1 58 Be 
: 474 1 60 your
: 476 4 61 self 
- 479
: 483 1 61 no 
: 485 1 60 mat
: 486 1 58 ter 
: 488 1 56 what 
: 490 2 58 they 
: 493 11 58 say 
- 505
: 513 1 61 I'm 
: 515 1 61 an 
: 516 2 61 a
: 518 1 60 li
: 519 1 58 en 
: 525 1 60 I'm 
: 527 1 60 a 
: 528 1 63 le
: 530 1 63 gal 
: 532 2 61 a
: 534 1 60 li
: 535 1 58 en 
- 536
: 537 1 58 I'm 
: 539 1 60 an 
: 541 2 61 En
: 544 2 61 glish 
: 547 1 61 man 
: 549 3 60 in 
: 552 3 56 New 
: 555 10 58 York
- 565
: 577 1 61 I'm 
: 579 1 61 an 
: 580 2 61 a
: 582 1 60 li
: 583 1 58 en 
: 589 1 60 I'm 
: 591 1 60 a 
: 592 1 63 le
: 594 1 63 gal 
: 596 2 61 a
: 598 1 60 li
: 599 1 58 en 
- 600
: 601 1 58 I'm 
: 603 1 60 an 
: 605 2 61 En
: 608 2 61 glish 
: 611 1 61 man 
: 613 3 60 in 
: 616 2 56 New 
: 619 10 58 York
- 625
: 637 1 65 Mo
: 638 1 65 des
: 640 1 65 ty,
: 642 1 65 pro
: 644 2 68 pri
: 646 1 68 e
: 647 3 65 ty 
- 650
: 652 1 65 can 
: 653 1 63 lead 
: 654 1 63 to 
: 656 1 63 no
: 658 1 63 to
: 660 2 66 ri
: 662 1 66 e
: 663 3 63 ty 
- 666
: 669 1 61 You 
: 670 1 61 could 
: 672 1 61 end 
: 674 1 61 up 
: 676 1 65 as 
: 678 1 65 the 
: 680 1 61 on
: 682 1 61 ly 
: 684 10 60 one 
- 692
: 701 1 58 Gen
: 702 1 58 tle
: 704 1 58 ness,
: 706 1 58 so
: 708 2 61 bri
: 710 1 61 e
: 711 2 58 ty 
- 713
: 716 1 58 are 
: 717 1 60 rare 
: 718 1 60 in 
: 720 1 60 this 
: 722 1 60 so
: 724 1 63 ci
: 726 1 63 e
: 727 2 60 ty 
- 729
: 732 1 58 At 
: 733 1 63 night 
: 734 1 63 a 
: 736 1 63 can
: 738 1 65 dle's 
: 740 1 66 brigh
: 742 1 65 ter 
: 744 2 63 than 
: 746 1 65 the 
: 747 10 65 sun 
- 758
: 958 2 60 Takes 
: 960 2 60 more 
: 962 2 60 than 
: 964 2 60 com
: 966 2 63 bat 
: 968 2 63 gear 
: 970 2 63 to 
: 972 1 63 make 
: 974 1 61 a 
: 975 6 61 man 
- 983
: 990 2 60 Takes 
: 992 2 62 more 
: 994 1 60 than 
: 995 1 62 a 
: 996 2 64 li
: 998 2 62 cen
: 1000 1 61 se 
: 1001 2 60 for 
: 1003 1 60 a 
: 1004 9 58 gun 
- 1014
: 1022 2 59 Con
: 1024 2 62 front 
: 1026 2 59 your 
: 1029 1 64 e
: 1030 1 61 ne
: 1031 2 57 mies,
: 1033 1 55 a
: 1034 3 54 void 
: 1037 2 61 them 
: 1038 1 61 when 
: 1040 2 59 you 
: 1042 6 61 can
- 1050
: 1052 1 55 A 
: 1053 1 62 gen
: 1054 1 62 tle
: 1055 2 62 man 
: 1057 2 62 will 
: 1059 2 61 walk 
: 1061 2 59 but 
: 1063 2 57 nev
: 1065 1 59 er 
: 1067 5 59 run
- 1073
: 1087 1 54 If 
: 1088 2 59 man
: 1090 2 62 ners 
: 1092 1 64 ma
: 1093 2 61 keth 
: 1095 2 57 man 
: 1097 1 55 as 
: 1098 2 54 some
: 1100 2 61 one 
: 1102 10 61 said
- 1113
: 1120 2 59 he's 
: 1122 1 59 the 
: 1123 4 62 hero 
: 1127 4 59 of 
: 1132 1 61 the 
: 1133 10 64 day 
- 1144
: 1151 1 61 It 
: 1152 2 57 takes 
: 1154 1 55 a 
: 1155 2 55 man 
: 1157 1 54 to 
: 1158 2 61 suf
: 1160 3 61 fer 
: 1163 1 59 ig
: 1164 1 59 no
: 1165 2 62 rance 
: 1167 1 59 and 
: 1169 7 61 smile     
- 1172
: 1177 1 62 Be 
: 1178 2 64 your
: 1180 4 61 self 
: 1186 2 57 no 
: 1189 3 55 matter 
: 1192 1 61 what : 1193 2 54 they : 1196 8 61 say
- 1205
: 1209 1 62 Be 
: 1210 2 64 your
: 1212 4 61 self 
: 1218 2 57 no 
: 1221 3 55 matter 
: 1224 1 61 what : 1225 2 54 they : 1228 10 61 say
- 1239
: 1241 1 62 Be 
: 1242 2 64 your
: 1244 4 61 self 
: 1250 2 57 no 
: 1253 3 55 matter 
: 1256 1 61 what : 1257 2 54 they : 1260 8 61 say
- 1270
: 1273 1 62 Be 
: 1274 2 64 your
: 1276 4 61 self 
: 1282 2 57 no 
: 1285 3 55 matter 
: 1288 1 61 what : 1289 2 54 they : 1292 8 61 say
- 1302
: 1305 1 62 Be 
: 1306 2 64 your
: 1308 4 61 self 
: 1314 2 57 no 
: 1317 3 55 matter 
: 1320 1 61 what : 1321 2 54 they : 1324 8 61 say
- 1334
: 1344 1 61 I'm 
: 1347 1 61 an 
: 1348 2 61 a
: 1350 1 60 li
: 1351 1 58 en 
: 1357 1 60 I'm 
: 1359 1 60 a 
: 1361 1 63 le
: 1363 1 63 gal 
: 1365 2 61 a
: 1367 1 60 li
: 1368 1 58 en
- 1369
: 1369 2 58 I'm 
: 1371 1 60 an 
: 1373 3 61 En
: 1376 2 61 glish 
: 1379 1 61 man 
: 1381 3 60 in 
: 1384 3 56 New 
: 1387 10 58 York
- 1398
: 1408 1 61 I'm 
: 1410 1 61 an 
: 1411 2 61 a
: 1413 1 60 li
: 1414 1 58 en 
: 1420 1 60 I'm 
: 1422 1 60 a 
: 1423 1 63 le
: 1425 1 63 gal 
: 1427 2 61 a
: 1429 1 60 li
: 1430 1 58 en
- 1431
: 1433 2 58 I'm 
: 1435 1 60 an 
: 1436 3 61 En
: 1439 2 61 glish 
: 1442 1 61 man 
: 1444 3 60 in 
: 1447 3 56 New 
: 1451 10 58 York
- 1463
: 1465 10 60 Made by Hollyhad
E

Made by Hollyha
