#TITLE:Plush
#ARTIST:Stone Temple Pilots
#MP3:Stone Temple Pilots - Plush.mp3
#VIDEO:Stone Temple Pilots - Plush [VD#0].avi
#COVER:Stone Temple Pilots - Plush [CO].jpg
#BPM:293
#GAP:16126,28
#VIDEOGAP:0
#ENCODING:UTF8
#GENRE:Pop
#EDITION:SingStar '90s
#YEAR:1992
: 0 3 59 And
: 4 4 62  I
: 12 4 58  feel
: 16 26 57 ~
- 43
: 44 2 57 That
: 48 6 57  time's
: 56 3 55  a
: 60 5 57  was
: 68 2 55 ted
: 72 8 55  go
: 80 10 52 ~
- 92
: 139 2 55 So
: 143 4 58  where
: 147 3 57 ~
: 151 3 55 you
: 156 6 55  go
: 164 2 55 in'
: 168 2 57  to
- 171
: 172 2 55 To
* 176 7 62 mor
: 184 6 59 row?
- 191
: 192 3 59 And
: 196 4 62  I
: 204 4 58  see
: 208 26 57 ~
- 235
: 237 2 57 That
: 241 5 57  these
: 249 2 55  are
: 253 5 57  lies
: 261 2 55  to
: 265 8 55  come
: 273 10 52 ~
- 285
: 332 2 55 So
: 336 4 58  would
: 340 3 57 ~
: 345 3 55 you
: 349 6 57  e
: 357 2 55 ven
: 361 11 55  care?
- 374
: 422 2 62 And
: 426 4 62  I
: 434 15 66  feel
: 450 2 62  it
: 452 36 60 ~
- 490
: 549 3 62 And
: 553 4 62  I
* 561 15 66  feel
: 577 2 62  it
: 579 34 60 ~
: 613 11 62 ~
- 626
: 658 6 62 Where
: 666 2 63  you
: 670 6 62  go
: 678 2 60 in'
- 681
: 682 2 60 For
: 686 2 58  to
: 690 7 60 mor
: 698 8 57 row?
- 708
: 787 6 62 Where
: 795 2 63  you
: 799 6 62  go
: 807 2 60 in'
- 810
: 811 2 60 With
: 815 2 58  the
: 819 5 60  mask
: 827 2 60  I
: 832 11 57  found?
- 845
: 906 3 65 And
: 910 2 65  I
: 914 6 65  feel,
: 922 2 63  and
: 926 2 63  I
: 930 8 62  feel
- 939
: 941 2 60 When
: 945 2 58  the
: 949 7 60  dogs
: 959 2 58  be
: 963 4 60 gin
- 969
: 971 2 58 To
: 975 6 62  smell
: 983 12 60  her
- 997
* 1046 5 65 Will
: 1054 2 65  she
: 1058 6 65  smell
: 1066 2 62  a
: 1070 8 62 lone?
: 1078 24 60 ~
: 1102 35 62 ~
- 1139
: 1327 3 59 And
: 1331 5 62  I
: 1339 4 58  feel
: 1343 24 57 ~
- 1369
: 1372 2 57 So
: 1376 4 58  much
: 1380 3 57 ~
: 1385 2 55 de
: 1389 9 57 pends
- 1399
: 1401 2 55 On
: 1405 2 52  the
: 1409 7 55  wea
: 1417 10 52 ther
- 1429
: 1469 2 55 So
* 1473 4 58  is
: 1477 2 57 ~
: 1481 2 55 it
: 1485 7 55  rain
: 1494 2 55 in'
- 1497
: 1498 2 57 In
: 1502 2 55  your
: 1506 5 62  bed
: 1514 7 59 room?
- 1522
: 1523 3 59 And
: 1527 4 62  I
: 1535 4 58  see
: 1539 19 57 ~
- 1560
: 1568 2 57 That
: 1572 2 62  these
: 1576 3 60  are
: 1580 3 58  the
: 1584 14 60  eyes
- 1599
: 1600 2 58 Of
: 1604 2 62  dis
: 1608 3 60 ar
: 1612 12 60 ray
: 1624 11 58 ~
: 1635 14 55 ~
- 1651
: 1665 2 55 So
: 1669 4 58  would
: 1673 3 57 ~
: 1677 4 55 you
: 1682 7 57  e
: 1690 2 55 ven
: 1694 10 55  care?
- 1706
: 1755 2 62 And
: 1759 4 62  I
: 1768 14 66  feel
: 1783 2 62  it
: 1785 35 60 ~
: 1820 8 62 ~
- 1830
: 1884 3 62 And
: 1888 4 62  she
: 1896 15 66  feels
: 1912 2 62  it
: 1914 35 60 ~
* 1949 8 62 ~
- 1959
: 1995 6 62 Where
: 2003 2 63  you
: 2007 6 62  go
: 2015 2 60 in'
- 2018
: 2019 2 60 For
: 2023 2 58  to
: 2027 7 60 mor
: 2035 8 57 row?
- 2045
: 2124 6 62 Where
: 2132 2 63  you
: 2136 6 62  go
: 2144 2 60 in'
- 2147
: 2148 2 60 With
: 2152 2 58  the
: 2156 5 60  mask
: 2164 2 60  I
: 2168 12 57  found?
- 2182
: 2243 3 65 And
: 2247 2 65  I
: 2251 6 65  feel,
: 2259 2 63  and
: 2263 2 63  I
: 2267 8 62  feel
- 2277
: 2279 2 60 When
: 2283 2 58  the
: 2287 6 60  dogs
: 2296 2 58  be
: 2300 4 60 gin
- 2306
: 2308 2 58 To
: 2312 6 62  smell
: 2320 13 60  her
- 2335
: 2384 5 65 Will
: 2392 2 65  she
: 2396 6 65  smell
: 2404 2 62  a
: 2408 8 62 lone?
: 2416 24 60 ~
: 2440 35 62 ~
- 2477
* 2490 8 67 When
: 2499 8 62 ~
: 2507 2 59 the
: 2511 11 62  dogs
: 2523 2 59  do
: 2527 6 64  find
: 2536 12 62  her
- 2550
: 2556 3 60 Got
: 2564 8 60  time,
: 2577 7 60  time
- 2586
: 2594 3 60 Wait
: 2602 7 62  for
: 2611 3 60  to
: 2615 5 59 mor
: 2622 20 62 row
- 2644
: 2655 2 55 To
: 2659 5 58  find
: 2667 17 58  it
- 2686
: 2688 2 55 To
: 2692 6 58  find
: 2700 16 58  it
- 2718
: 2720 2 55 To
: 2724 8 58  find
: 2732 4 55  it
: 2736 3 53 ~
- 2741
: 2754 7 67 When
: 2761 7 62 ~
: 2770 2 59 the
: 2773 10 62  dogs
: 2786 2 59  do
* 2790 6 64  find
: 2798 12 62  her
- 2812
: 2818 3 60 Got
: 2826 7 60  time,
: 2839 7 60  time
- 2848
: 2855 4 60 Wait
: 2863 7 62  for
: 2872 2 60  to
: 2876 5 59 mor
: 2884 21 62 row
- 2907
: 2916 2 55 To
: 2920 5 58  find
: 2929 14 58  it
- 2945
: 2949 2 55 To
: 2954 6 58  find
: 2962 17 58  it
- 2981
: 2983 2 55 To
: 2987 7 58  find
: 2997 13 58  it
: 3010 8 55 ~
: 3018 8 53 ~
- 3028
: 3340 6 62 Where
: 3348 2 63  you
: 3352 6 62  go
: 3360 2 60 in'
- 3363
: 3364 2 60 For
: 3368 2 58  to
: 3372 7 60 mor
: 3380 8 57 row?
- 3390
: 3469 6 62 Where
: 3477 2 63  you
: 3481 6 62  go
: 3489 2 60 in'
- 3492
: 3493 2 60 With
: 3497 2 58  the
: 3501 5 60  mask
: 3509 2 60  I
: 3513 12 57  found?
- 3527
: 3586 3 65 And
* 3590 2 65  I
: 3594 6 65  feel,
: 3602 2 63  and
: 3606 2 63  I
: 3610 8 62  feel
- 3620
: 3622 2 60 When
: 3626 2 58  the
: 3630 6 60  dogs
: 3639 2 58  be
: 3643 4 60 gin
- 3649
: 3651 2 58 To
: 3655 6 62  smell
: 3663 13 60  her
- 3678
: 3727 5 65 Will
: 3735 2 65  she
: 3739 6 65  smell
: 3747 2 62  a
: 3751 8 62 lone?
: 3759 25 60 ~
: 3784 16 62 ~
: 3800 18 67 ~
- 3820
: 3833 8 67 When
: 3842 8 62 ~
: 3850 2 59 the
: 3854 11 62  dogs
: 3866 2 59  do
: 3870 6 64  find
: 3879 12 62  her
- 3893
: 3899 3 60 Got
: 3907 8 60  time,
* 3920 7 60  time
- 3929
: 3936 3 60 Wait
: 3944 7 62  for
: 3953 3 60  to
: 3957 5 59 mor
: 3964 20 62 row
- 3986
: 3997 2 55 To
: 4001 5 58  find
: 4009 17 58  it
- 4028
: 4031 2 55 To
: 4035 6 58  find
: 4043 16 58  it
- 4061
: 4063 2 55 To
: 4067 8 58  find
: 4075 4 55  it
: 4079 3 53 ~
- 4084
: 4096 8 67 When
: 4104 6 62 ~
: 4112 2 59 the
: 4116 10 62  dogs
: 4129 2 59  do
: 4133 6 64  find
: 4141 12 62  her
- 4155
: 4162 3 60 Got
: 4170 7 60  time,
: 4183 7 60  time
- 4192
: 4199 4 60 Wait
* 4207 7 62  for
: 4216 2 60  to
: 4220 5 59 mor
: 4228 21 62 row
- 4251
: 4259 2 67 To
: 4263 5 64  find
: 4272 8 62  it
: 4280 6 64 ~
- 4288
: 4292 2 67 To
: 4297 6 64  find
: 4305 17 62  it
- 4324
: 4326 2 62 To
: 4330 12 65  find
: 4345 4 62  it
: 4349 4 60 ~
: 4353 4 59 ~
- 4359
: 4396 2 67 To
: 4400 6 64  find
: 4407 13 62  it
: 4420 52 64 ~
: 4472 4 62 ~
: 4476 8 64 ~
: 4484 2 62 ~
- 4488
: 4525 2 67 To
: 4529 6 67  find
: 4537 39 67  it
: 4576 4 64 ~
: 4580 25 62 ~
E