#TITLE:Ugly
#ARTIST:Sugababes
#LANGUAGE:Englisch
#EDITION:SingStar R&B
#GENRE:Pop
#YEAR:2005
#MP3:Sugababes - Ugly.mp3
#COVER:Sugababes - Ugly [CO].jpg
#VIDEO:Sugababes - Ugly [VD#0].avi
#VIDEOGAP:0
#BPM:234
#GAP:18397,44
: 0 4 62 When
: 4 3 64 ~
- 9 10
: 24 3 62 I
: 28 2 64  was
: 32 4 64  se
: 36 2 64 ven
: 40 2 64  they
: 44 3 67  said
- 49
: 52 2 60 I
: 56 2 60  was
: 60 4 62  strange
: 64 3 64 ~
- 69 70
: 84 2 64 I
: 88 4 62  no
: 92 2 64 ticed
: 96 2 64  that
: 100 2 64  my
: 104 2 64  eyes
- 107
: 108 2 64 And
* 112 2 67  hair
: 116 2 60  weren't
: 120 2 60  the
: 124 4 62  same
: 128 2 64 ~
- 132 133
: 148 2 64 I
: 152 2 62  asked
: 156 2 64  my
: 160 3 62  pa
: 164 2 64 rents
: 168 6 64  if
- 175
: 176 3 67 I
: 180 3 60  was
: 184 2 60  O
: 188 5 64  K
: 193 5 62 ~
- 200
: 204 2 55 They
: 208 2 55  said
: 212 2 55  you're
: 216 6 55  more
- 223
: 224 4 65 Beau
: 228 2 65 ti
: 232 3 64 ful
: 236 2 64  and
: 240 2 60  that's
: 244 7 55  the
- 252
: 252 4 62 Way
: 256 3 64 ~
- 261 262
: 276 2 64 They
: 280 4 62  show
: 284 2 64  that
: 288 2 64  they
: 292 2 64  wish
: 296 2 64  that
: 300 2 64  they
- 303
: 304 2 67 Had
: 308 5 60  your
: 316 4 62  smile
: 320 3 64 ~
- 325 326
: 344 4 62 So
: 348 2 64  my
: 352 2 62  con
: 356 2 64 fi
: 360 2 64 dence
: 364 2 64  was
- 367
* 368 2 67 Up
: 372 4 60  for
: 376 2 60  a
: 380 4 62  while
: 384 3 64 ~
- 389 390
: 404 2 64 I
: 408 2 62  got
: 412 2 64  real
: 416 2 62  com
: 420 2 64 f'ta
: 424 2 64 ble
: 428 2 64  with
- 431
: 432 2 67 My
: 436 6 60  own
: 445 7 64  style
: 452 7 62 ~
- 461
: 468 3 55 I
: 472 3 55  knew
: 476 2 55  that
: 480 4 65  they
: 484 2 65  were
- 487
: 488 4 64 On
: 492 2 64 ly
: 496 4 60  jea
: 500 2 62 lous
: 504 7 60  'cause
- 512
: 512 2 65 Peo
: 516 4 65 ple
: 520 2 64  are
: 524 6 60  all
: 531 5 62  the
: 539 4 62  same
: 543 4 64 ~
- 549 550
: 568 2 55 And
: 572 2 55  we
: 576 4 65  on
: 580 2 65 ly
: 584 2 64  get
: 588 4 60  judged
- 594
: 596 6 62 By
: 604 2 62  what
: 608 2 64  we
* 612 8 64  do
: 620 4 62 ~
- 626
: 632 2 55 Per
: 636 2 55 so
: 640 4 65 na
: 644 2 65 li
: 648 2 64 ty
: 652 4 60  re
: 660 4 62 flects
: 668 4 62  me
: 672 2 64 ~
- 676 677
: 692 2 55 And
: 696 2 55  if
: 700 2 55  I'm
: 704 3 65  ug
: 708 4 65 ly
: 712 2 64  then
- 715
: 716 8 60 So
: 724 6 62  are
: 732 3 64  you
- 737 738
: 748 8 60 So
: 756 4 62  are
: 760 2 64 ~
: 762 2 62 ~
: 764 9 60 you
- 775 876
: 896 4 62 There
: 900 3 64 ~
- 905 906
: 920 3 62 Was
: 924 2 64  a
: 928 2 62  time
: 932 4 64  when
: 936 2 64  I
* 940 4 67  felt
- 946
: 948 2 60 Like
: 952 2 60  I
: 956 4 62  cared
: 960 3 64 ~
- 965 966
: 980 3 64 That
: 984 4 62  I
: 988 2 64  was
: 992 3 62  shor
: 996 2 64 ter
- 999
: 1000 3 64 Than
: 1004 5 67  ev
: 1012 2 60 ery
: 1016 2 60 one
: 1020 4 62  there
: 1024 3 64 ~
- 1029 1030
: 1048 2 62 Peo
: 1052 4 64 ple
: 1056 2 62  made
: 1060 2 64  me
: 1064 4 64  feel
: 1068 3 64  like
- 1072
: 1072 2 67 Life
: 1076 2 60  was
: 1080 2 60  un
: 1084 6 64 fair
: 1090 9 62 ~
- 1101
: 1108 2 55 And
: 1112 5 55  I
: 1120 2 65  did
: 1124 2 65  things
: 1128 4 64  that
- 1134
: 1136 2 60 Made
: 1140 2 62  me
: 1144 2 60  a
: 1148 4 62 shamed
: 1152 4 64 ~
- 1158 1159
: 1176 3 62 'Cause
: 1180 2 64  I
: 1184 4 62  did
: 1188 3 64 n't
: 1192 3 64  know
: 1196 2 64  my
- 1199
: 1200 3 67 Bo
: 1204 2 60 dy
: 1208 2 60  would
: 1212 4 62  change
: 1216 3 64 ~
- 1221 1222
: 1236 2 64 I
: 1240 4 62  grew
: 1244 2 64 ~
: 1248 4 62 tal
: 1252 2 64 ler
: 1256 3 64  than
: 1260 4 67  them
- 1266
: 1268 2 60 In
: 1272 2 60  more
: 1276 4 62  ways
: 1280 3 64 ~
- 1285 1286
: 1300 2 64 But
: 1304 4 62  there
: 1308 2 64  will
: 1312 4 62  al
: 1316 2 64 ways
: 1320 2 64  be
: 1324 2 64  the
- 1327
: 1328 2 67 One
: 1332 2 60  who
: 1336 2 60  will
: 1340 8 64  say
: 1348 6 62 ~
- 1356 1357
: 1368 2 55 Some
: 1372 2 55 thing
* 1376 2 65  bad
: 1380 2 65  to
: 1384 4 64  make
- 1390
: 1392 2 60 Them
: 1396 2 62  feel
: 1400 7 60  great
- 1408
: 1408 2 65 Peo
: 1412 4 65 ple
: 1416 2 64  are
: 1420 6 60  all
: 1427 5 62  the
: 1435 4 62  same
: 1439 4 64 ~
- 1445 1446
: 1464 2 55 And
: 1468 2 55  we
: 1472 4 65  on
: 1476 2 65 ly
: 1480 2 64  get
: 1484 4 60  judged
- 1490
: 1492 6 62 By
: 1500 2 62  what
: 1504 2 64  we
: 1508 8 64  do
: 1516 4 62 ~
- 1522
: 1528 2 55 Per
: 1532 2 55 so
: 1536 4 65 na
: 1540 2 65 li
: 1544 2 64 ty
: 1548 4 60  re
: 1556 4 62 flects
: 1564 4 62  me
: 1568 2 64 ~
- 1572 1573
: 1588 2 55 And
: 1592 2 55  if
: 1596 2 55  I'm
: 1600 3 65  ug
: 1604 4 65 ly
: 1608 2 64  then
- 1611
: 1612 8 60 So
: 1620 6 62  are
: 1628 3 64  you
- 1633 1634
: 1644 8 60 So
: 1652 4 62  are
: 1656 2 64 ~
: 1658 2 62 ~
: 1660 8 60 you
- 1670
: 1672 4 65 Ev
: 1676 2 65 ery
: 1680 4 65 bo
: 1684 2 65 dy
: 1688 4 65  talks
- 1694
: 1696 4 64 Bad
: 1700 2 62  a
: 1704 2 62 bout
: 1708 2 60  some
: 1712 4 62 bo
: 1716 2 60 dy
* 1720 6 60  and
- 1728
: 1736 4 65 Ne
: 1740 2 65 ver
: 1744 4 65  re
: 1748 4 65 a
: 1752 2 65 lize
: 1756 3 67  how
- 1760
: 1760 4 64 It
: 1764 2 62  af
: 1768 2 62 fects
: 1772 2 60  some
: 1776 2 62 bo
: 1780 2 60 dy
: 1784 4 60  and
- 1790 1791
: 1800 7 65 You
: 1808 7 65  bet
: 1816 4 65  it
- 1822
: 1824 4 64 Won't
: 1832 4 62  be
: 1836 2 60  for
: 1840 4 62 got
: 1844 3 60 ten
- 1849
: 1856 6 62 En
: 1864 2 64 vy
: 1868 8 65  is
: 1880 5 65  the
- 1886
: 1888 8 67 On
: 1896 2 67 ly
: 1900 7 68  thing
: 1908 2 68  it
: 1912 4 74  could
* 1920 8 72  be
: 1928 5 69 ~
- 1935 2148
: 2168 6 60 'Cause
: 2176 2 65  peo
: 2180 4 65 ple
: 2184 2 64  are
: 2188 6 60  all
: 2195 5 62  the
: 2203 4 62  same
: 2207 4 64 ~
- 2213 2214
: 2232 2 55 And
: 2236 2 55  we
: 2240 4 65  on
: 2244 2 65 ly
: 2248 2 64  get
* 2252 4 60  judged
- 2258
: 2260 6 62 By
: 2268 2 62  what
: 2272 2 64  we
: 2276 8 64  do
: 2284 4 62 ~
- 2290
: 2296 2 55 Per
: 2300 2 55 so
: 2304 4 65 na
: 2308 2 65 li
: 2312 2 64 ty
: 2316 4 60  re
: 2324 4 62 flects
: 2332 4 62  me
: 2336 2 64 ~
- 2340 2341
: 2356 2 55 And
: 2360 2 55  if
: 2364 2 55  I'm
: 2368 3 65  ug
: 2372 4 65 ly
: 2376 2 64  then
- 2379
: 2380 8 60 So
* 2388 6 62  are
: 2396 3 64  you
- 2401 2402
: 2412 8 60 So
: 2420 4 62  are
: 2424 2 64 ~
: 2426 2 62 ~
: 2428 3 60 you
- 2432
: 2432 2 65 Peo
: 2436 4 65 ple
: 2440 2 64  are
: 2444 6 60  all
: 2451 5 62  the
: 2459 4 62  same
: 2463 4 64 ~
- 2469 2470
: 2488 2 55 And
: 2492 2 55  we
: 2496 4 65  on
: 2500 2 65 ly
: 2504 2 64  get
: 2508 4 60  judged
- 2514
: 2516 6 62 By
: 2524 2 62  what
: 2528 2 64  we
: 2532 8 64  do
: 2540 4 62 ~
- 2546
: 2552 2 55 Per
: 2556 2 55 so
* 2560 4 65 na
: 2564 2 65 li
: 2568 2 64 ty
: 2572 4 60  re
: 2580 4 62 flects
: 2588 4 62  me
: 2592 2 64 ~
- 2596 2597
: 2612 2 60 And
: 2616 2 60  if
: 2620 2 60  I'm
: 2624 3 65  ug
: 2628 4 65 ly
: 2632 2 64  then
- 2635
: 2636 8 60 So
: 2644 6 62  are
: 2652 3 64  you
- 2657 2658
: 2668 8 60 So
: 2676 4 62  are
: 2680 2 64 ~
: 2682 2 62 ~
: 2684 9 60 you
- 2695 2696
: 2720 12 60 Ah
: 2732 8 59 ~
- 2742 2743
: 2752 12 59 Ah
: 2764 8 60 ~
- 2774 2775
: 2784 12 64 Ah
: 2796 8 62 ~
- 2806 2807
: 2816 12 59 Ah
: 2828 8 60 ~
- 2838 2839
: 2848 12 60 Ah
: 2860 8 59 ~
- 2870 2871
: 2880 12 59 Ah
: 2892 8 60 ~
- 2902 2903
: 2912 12 64 Ah
: 2924 8 62 ~
- 2934 2935
: 2944 2 65 Peo
: 2948 4 65 ple
: 2952 2 64  are
: 2956 6 60  all
: 2963 5 62  the
: 2971 4 62  same
: 2975 4 64 ~
E
