#TITLE:Wear My Kiss
#ARTIST:Sugababes
#MP3:Sugababes - Wear My Kiss.mp3
#VIDEO:Sugababes - Wear My Kiss.mp4
#COVER:Sugababes - Wear My Kiss.jpg
#BPM:252
#GAP:8590
#ENCODING:UTF8
#LANGUAGE:English
#EDITION:michas17j
#YEAR:2010
#AUTHOR:michas17j
: 0 2 -5 Da 
: 8 2 -5 da 
: 16 2 -5 da 
: 24 2 -5 da 
: 28 2 -3 da 
: 32 2 -2 da 
: 40 2 -2 da 
: 48 2 -2 da
- 51
: 52 2 2 Ba 
: 56 2 0 da 
: 60 2 -2 da 
: 64 2 -3 da 
: 72 2 -3 da 
: 80 2 -3 da 
: 88 2 -5 da 
: 92 2 -3 da 
: 96 2 -5 da 
: 104 2 -5 da 
: 112 2 -5 da
- 115
: 116 2 2 I 
: 120 2 2 like 
: 124 2 0 the 
* 128 6 0 tie
: 136 2 2 ~
- 140
: 148 2 0 A
: 152 2 0 round 
: 156 2 -2 your 
: 160 4 -5 neck
- 166
: 180 2 0 I'll 
: 184 2 0 make 
: 188 2 -2 you 
: 192 4 2 look
- 198
: 212 2 0 So 
: 216 2 0 good 
: 220 2 -2 in 
* 224 4 -5 it
- 230
: 244 2 2 I'm 
: 248 2 2 like 
: 252 2 0 the 
* 256 6 0 watch
- 264
: 276 2 0 A
: 280 2 0 round 
: 284 2 -2 your 
: 288 4 -5 wrist
- 294
: 308 2 0 Just 
: 312 2 0 wind 
: 316 2 -2 me 
: 320 2 2 up 
: 324 2 0 and 
: 328 2 0 watch 
: 332 2 -2 me 
: 336 4 -5 tick 
* 344 4 -5 tock...
- 350
: 356 2 2 I'm 
: 360 2 2 just 
: 364 2 2 a 
: 368 2 2 pret
: 372 2 2 ty 
: 376 2 2 lit
: 380 2 2 tle 
: 384 6 9 thing
- 391
: 392 2 2 That'll
: 396 2 2 ~ 
: 400 2 2 make 
: 404 2 2 you 
: 408 2 2 wan
: 412 2 2 na 
* 416 6 9 sing
- 424
: 456 2 2 Make 
: 460 2 2 you 
: 464 2 2 wan
: 468 2 2 na 
: 472 2 2 buy 
: 476 2 2 a 
: 480 6 9 ring
- 487
: 488 2 9 I'm 
: 492 2 10 not 
* 496 2 9 tryin' 
: 500 2 10 to 
: 504 2 9 set
: 508 2 7 tle 
: 512 2 7 down
: 516 2 5 ~
- 519
: 520 2 9 I 
: 524 2 10 just 
: 528 2 9 wan
: 532 2 10 na 
: 536 2 9 play 
: 540 2 7 a
: 544 2 7 round
: 548 6 5 ~, 
: 556 6 5 boy
- 563
: 564 2 2 You 
: 568 2 2 want 
: 572 2 2 a 
: 576 2 2 tem
: 580 2 2 po
: 584 2 2 ra
: 588 2 2 ry 
* 592 6 5 tat
: 600 4 2 too 
: 608 6 5 don't 
: 616 4 2 you
- 622
: 628 2 5 You 
: 632 2 5 wan
: 636 2 5 na 
: 640 6 7 wear 
: 648 4 5 my 
: 656 6 0 kiss 
: 664 2 -2 all 
: 668 6 0 o
: 676 2 -2 ver 
: 680 2 2 your 
: 684 6 0 bo
: 692 2 -2 dy
- 695
: 696 2 2 Won't 
* 700 6 0 you 
: 708 2 -2 try 
: 712 2 2 it 
: 716 4 0 on?
- 722
: 728 2 2 You 
: 732 6 0 can't 
: 740 2 -2 live 
: 744 2 2 wit
: 748 6 0 hout...
- 755
: 756 2 5 You 
: 760 2 5 wan
: 764 2 5 na 
: 768 6 7 wear 
: 776 4 5 my 
: 784 4 0 kiss 
: 792 2 -2 all 
* 796 6 0 o
: 804 2 -2 ver 
: 808 6 2 you 
: 816 4 -5 lips
- 822
: 824 2 -2 I 
: 828 6 0 pro
: 836 2 -2 mise 
: 840 6 2 you 
: 848 4 -5 this
- 854
: 868 2 0 You 
: 872 2 0 wan
* 876 2 -2 na 
: 880 6 0 wear 
: 888 4 2 my...
- 894
: 896 2 -5 Da 
: 904 2 -5 da 
: 912 2 -5 da 
: 920 2 -5 da 
: 924 2 -3 da 
: 928 2 -2 da 
: 936 2 -2 da 
: 944 2 -2 da
- 947
: 948 2 2 Ba 
: 952 2 0 da 
: 956 2 -2 da 
: 960 2 -3 da 
: 968 2 -3 da 
: 976 2 -3 da 
: 984 2 -5 da 
* 988 2 -3 da 
: 992 2 -5 da 
: 1000 2 -5 da 
: 1008 4 -5 kiss
- 1014
: 1024 2 -5 Da 
: 1032 2 -5 da 
: 1040 2 -5 da 
: 1048 2 -5 da 
: 1052 2 -3 da 
: 1056 2 -2 da 
: 1064 2 -2 da 
: 1072 2 -2 da
- 1075
: 1076 2 2 Pa 
: 1080 2 0 da 
: 1084 2 -2 da 
: 1088 2 -3 da 
: 1096 2 -3 da 
: 1104 2 -3 da 
: 1112 2 -5 da 
: 1116 2 -3 da 
: 1120 2 -5 da 
: 1136 2 -5 kiss
- 1139
: 1140 2 2 I'm 
: 1144 2 2 like 
* 1148 2 0 your 
: 1152 10 2 shoes
- 1164
: 1172 2 2 You 
: 1176 2 2 like 
: 1180 2 0 to 
: 1184 6 -5 wear
- 1192
: 1204 2 2 Some
: 1208 2 2 one 
: 1212 2 2 step 
: 1216 2 2 on 
: 1220 2 2 'em 
: 1224 2 2 there's 
: 1228 2 2 gonn' 
- 1231
: 1232 2 2 Be 
: 1236 2 2 a 
: 1240 2 2 fight 
: 1244 2 -5 in 
: 1248 1 -5 h, 
: 1250 1 -5 h, 
: 1252 1 -5 h, 
: 1254 1 -5 h, 
* 1256 1 -5 h, 
* 1258 1 -5 h, 
: 1260 1 -5 h, 
: 1262 1 -5 h, 
: 1264 2 -5 here
- 1267
: 1268 2 5 So 
: 1272 2 5 show 
: 1276 2 2 me 
* 1280 6 5 off
: 1288 2 2 ~
- 1292
: 1300 2 5 Bring 
: 1304 2 5 me 
: 1308 2 2 a
: 1312 6 5 round
: 1320 2 2 ~
- 1324
: 1332 2 2 I'm 
: 1336 2 2 like 
: 1340 2 2 the 
: 1344 2 2 last 
: 1348 2 2 piece 
: 1352 2 2 on 
: 1356 2 2 a 
: 1360 2 2 ma
: 1364 2 -5 ni
* 1368 4 -5 can
- 1374
: 1380 2 2 Just 
: 1384 2 2 take 
: 1388 2 -5 me 
: 1392 4 -5 down
- 1398
: 1400 2 2 Lit
: 1404 2 2 tle 
* 1408 8 9 thing
- 1416
: 1416 2 2 That'll
: 1420 2 2 ~ 
: 1424 2 2 make 
: 1428 2 2 you 
: 1432 2 2 wan
: 1436 2 2 na 
: 1440 6 9 sing
- 1448
: 1480 2 2 Make 
: 1484 2 2 you 
: 1488 2 2 wan
: 1492 2 2 na 
: 1496 2 2 buy 
: 1500 2 2 a 
: 1504 6 9 ring
- 1511
: 1512 2 9 I'm 
: 1516 2 10 not 
: 1520 2 9 tryin' 
: 1524 2 10 to 
: 1528 2 9 set
: 1532 2 7 tle 
: 1536 2 7 down
: 1540 2 5 ~
- 1543
: 1544 2 9 I 
: 1548 2 10 just 
: 1552 2 9 wan
: 1556 2 10 na 
: 1560 2 9 play 
: 1564 2 7 a
: 1568 2 7 round
: 1572 6 5 ~, 
: 1580 6 5 boy
- 1587
: 1588 2 2 You 
: 1592 2 2 want 
: 1596 2 2 a 
* 1600 2 2 tem
* 1604 2 2 po
: 1608 2 2 ra
: 1612 2 2 ry 
: 1616 6 5 tat
: 1624 4 2 too 
: 1632 6 5 don't 
: 1640 4 2 you
- 1646
: 1652 2 5 You 
: 1656 2 5 wan
: 1660 2 5 na 
: 1664 6 7 wear 
: 1672 4 5 my 
: 1680 6 0 kiss 
: 1688 2 -2 all 
: 1692 6 0 o
: 1700 2 -2 ver 
: 1704 2 2 your 
: 1708 6 0 bo
: 1716 2 -2 dy
- 1719
: 1720 2 2 Won't 
: 1724 6 0 you 
: 1732 2 -2 try 
: 1736 2 2 it 
* 1740 6 0 on?
- 1748
: 1752 2 2 You 
: 1756 6 0 can't 
: 1764 2 -2 live 
: 1768 2 2 wit
: 1772 6 0 hout...
- 1779
: 1780 2 5 You 
: 1784 2 5 wan
: 1788 2 5 na 
: 1792 6 7 wear 
: 1800 4 5 my 
: 1808 4 0 kiss 
: 1816 2 -2 all 
: 1820 6 0 o
: 1828 2 -2 ver 
: 1832 6 2 you 
: 1840 4 -5 lips
- 1846
: 1848 2 -2 I 
: 1852 6 0 pro
* 1860 2 -2 mise 
: 1864 6 2 you 
: 1872 4 -5 this
- 1878
: 1892 2 0 You 
: 1896 2 0 wan
: 1900 2 -2 na 
: 1904 6 0 wear 
: 1912 4 2 my...
- 1918
: 1920 2 -5 Da 
: 1928 2 -5 da 
: 1936 2 -5 da 
: 1944 2 -5 da 
: 1948 2 -3 da 
: 1952 2 -2 da 
* 1960 2 -2 da 
: 1968 2 -2 da
- 1971
: 1972 2 2 Pa 
: 1976 2 0 da 
: 1980 2 -2 da 
: 1984 2 -3 da 
: 1992 2 -3 da 
: 2000 2 -3 da 
: 2008 2 -5 da 
: 2012 2 -3 da 
: 2016 2 -5 da 
: 2024 2 -5 da 
: 2032 4 -5 kiss
- 2038
: 2048 2 -5 Da 
: 2056 2 -5 da 
* 2064 2 -5 da 
: 2072 2 -5 da 
: 2076 2 -3 da 
: 2080 2 -2 da 
: 2088 2 -2 da 
: 2096 2 -2 da
- 2099
: 2100 2 2 Pa 
: 2104 2 0 da 
: 2108 2 -2 da 
: 2112 2 -3 da 
: 2120 2 -3 da 
: 2128 2 -3 da 
: 2136 2 -5 da 
: 2140 2 -3 da 
: 2144 2 -5 da 
: 2160 4 -5 kiss
- 2166
: 2180 2 5 You 
: 2184 2 0 wan
: 2188 2 -2 na 
: 2192 2 -2 pu
: 2196 2 -2 cker 
: 2200 2 -2 up 
: 2204 2 -2 so 
: 2208 2 -3 less 
: 2212 2 -3 I 
: 2216 2 -3 hit 
: 2220 2 -3 the 
: 2224 6 -5 dope
- 2232
: 2244 2 2 This 
: 2248 2 0 kiss 
: 2252 2 -3 is 
: 2256 2 5 le
: 2260 2 0 thal 
: 2264 2 -3 boy 
: 2268 2 -3 there 
: 2272 2 -3 ain't 
: 2276 2 -3 no 
: 2280 2 0 an
: 2284 2 -3 ti
: 2288 6 -5 dote
- 2296
: 2308 2 0 Just 
: 2312 2 -3 ask 
: 2316 2 -3 a
: 2320 2 -3 round 
: 2324 2 -3 a
: 2328 2 -5 bout 
: 2332 2 -5 me, 
: 2336 2 0 e
: 2340 2 -5 very
: 2344 2 -5 bo
: 2348 2 -5 dy 
: 2352 2 0 knows
: 2356 2 -3 ~
- 2360
: 2372 2 0 My 
: 2376 2 0 lips
: 2384 2 0 tick, 
: 2392 2 0 make-
: 2400 2 0 up, 
: 2408 2 0 steal 
: 2412 2 0 the 
: 2416 2 -3 show
- 2419
: 2420 2 5 You 
: 2424 2 5 wan
: 2428 2 5 na 
* 2432 6 7 wear 
: 2440 4 5 my 
: 2448 6 0 kiss 
: 2456 2 -2 all 
: 2460 6 0 o
: 2468 2 -2 ver 
: 2472 2 2 your 
: 2476 6 0 bo
: 2484 2 -2 dy
- 2487
: 2488 2 2 Won't 
: 2492 6 0 you 
: 2500 2 -2 try 
: 2504 2 2 it 
: 2508 4 0 on?
- 2514
: 2520 2 2 You 
* 2524 6 0 can't 
: 2532 2 -2 live 
: 2536 2 2 wit
: 2540 6 0 hout...
- 2547
: 2548 2 5 You 
: 2552 2 5 wan
: 2556 2 5 na 
: 2560 6 7 wear 
: 2568 4 5 my 
: 2576 4 0 kiss 
: 2584 2 -2 all 
: 2588 6 0 o
: 2596 2 -2 ver 
: 2600 6 2 you 
: 2608 4 -5 lips
- 2614
: 2616 2 -2 I 
: 2620 6 0 pro
* 2628 2 -2 mise 
* 2632 6 2 you 
: 2640 4 -5 this
- 2646
: 2660 2 0 You 
: 2664 2 0 wan
: 2668 2 -2 na 
: 2672 6 0 wear 
: 2680 4 2 my...
- 2686
: 2688 2 -5 Da 
: 2696 2 -5 da 
: 2704 2 -5 da 
: 2712 2 -5 da 
: 2716 2 -3 da 
* 2720 2 -2 da 
: 2728 2 -2 da 
: 2736 2 -2 da
- 2739
: 2740 2 2 Ba 
: 2744 2 0 da 
: 2748 2 -2 da 
: 2752 4 -3 da 
: 2760 4 -3 da 
: 2768 4 -3 da 
: 2776 2 -5 da 
: 2780 2 -3 da 
: 2784 2 -5 da 
: 2792 4 -5 da 
: 2800 4 -5 kiss
- 2806
: 2816 2 -5 Da 
: 2824 2 -5 da 
* 2832 2 -5 da 
: 2840 2 -5 da 
: 2844 2 -3 da 
: 2848 2 -2 da 
: 2856 2 -2 da 
: 2864 2 -2 da
- 2867
: 2868 2 2 Ba 
: 2872 2 0 da 
: 2876 2 -2 da 
: 2880 2 -3 da 
: 2888 2 -3 da 
: 2896 2 -3 da 
: 2904 2 -5 da 
: 2908 2 -3 da 
: 2912 2 -5 da 
- 2915
* 2916 2 0 You 
* 2920 2 0 wan
* 2924 2 -2 na 
* 2928 6 0 wear 
* 2936 4 2 my 
* 2944 4 -5 kiss
E