#TITLE:About you now
#ARTIST:Sugababes
#MP3:Sugababes - About you now.mp3
#VIDEO:Sugababes - About you now [VD#0].avi
#COVER:Sugababes - About you now [CO].jpg
#BPM:330
#GAP:2090
#ENCODING:UTF8
#LANGUAGE:German
: 0 3 9 It 
: 4 3 11 was 
: 9 5 9 so 
: 16 10 8 eas
: 30 4 8 y 
: 38 4 8 that 
: 46 8 8 night 
- 56
: 65 2 9 Should 
: 68 3 11 have 
: 73 4 9 been 
: 81 7 8 strong 
: 94 4 8 yeah 
: 101 4 8 I 
* 111 7 11 lied 
- 120
: 130 2 9 No
: 133 3 11 bod
: 138 3 9 y 
: 146 6 8 gets 
: 158 5 8 m
: 164 2 6 e 
: 170 10 6 like 
: 194 4 9 yo
: 202 14 8 u 
- 218
: 257 2 9 Could
: 261 2 11 n't 
: 266 4 9 keep 
: 274 7 8 hold 
: 286 4 8 of 
: 294 3 8 you 
: 302 8 8 then 
- 312
: 321 2 9 How 
: 326 2 11 could 
: 330 4 9 I 
: 338 6 8 know 
: 350 3 8 what 
: 359 4 8 you 
* 366 8 11 meant 
- 376
: 385 2 9 That 
: 389 2 11 was 
: 394 3 9 not 
: 402 6 8 meant 
: 414 5 8 to 
: 422 4 8 com
: 430 10 6 pare 
* 450 4 9 t
: 458 14 8 o 
- 474
: 512 8 11 I 
: 522 4 9 know 
: 529 6 8 eve
: 537 5 11 ry
* 546 5 18 thing 
: 554 10 16 chan
: 570 3 11 ges 
- 574
: 576 8 11 All 
: 585 4 9 the 
: 593 6 8 cit
: 601 4 11 ies 
* 610 4 18 and 
: 618 10 16 fa
: 634 2 11 ces 
- 638
: 641 3 16 But 
: 645 4 18 I 
: 654 8 20 know 
: 673 2 18 how 
: 677 5 20 I 
: 685 11 18 feel 
: 700 2 18 a
: 705 6 18 bout 
: 715 13 16 you 
- 730
: 770 6 11 There's 
: 778 4 9 a 
: 786 5 8 moun
: 794 4 11 tain 
* 802 5 18 be
: 810 10 16 tween 
: 826 3 11 us 
- 831
: 834 6 11 But 
: 842 3 9 this 
: 849 6 8 one 
: 858 4 11 thing 
* 866 4 18 I'm 
: 874 10 16 sure 
: 890 3 11 of 
- 897
: 897 3 16 That 
: 901 4 18 I 
: 910 8 20 know 
: 929 2 18 how 
: 933 5 20 I 
: 941 11 18 feel 
: 956 2 18 a
: 961 6 18 bout 
: 971 13 16 you 
- 986
: 1025 2 16 Can 
: 1030 4 18 we 
: 1038 6 20 bring 
: 1058 4 20 yes
: 1065 3 20 ter
* 1070 8 23 day 
* 1089 7 25 back 
: 1098 3 23 a
: 1104 12 20 round 
- 1118
: 1153 2 16 'cause 
: 1158 5 18 I 
: 1167 9 20 know 
: 1185 2 20 how 
: 1189 5 20 I 
: 1198 6 18 feel 
: 1212 4 18 a
: 1218 4 18 bout 
: 1225 2 18 you 
: 1232 12 16 now 
- 1246
: 1280 3 16 I 
: 1286 3 18 was 
: 1294 6 20 dumb 
: 1312 4 20 I 
: 1319 3 20 was 
* 1326 8 23 wrong 
* 1340 3 23 I 
* 1346 6 25 let 
: 1354 2 23 you 
: 1360 8 20 do
: 1370 4 18 wn 
- 1376
: 1409 2 16 But 
: 1414 5 18 I 
: 1423 9 20 know 
: 1441 2 20 how 
: 1445 5 20 I 
: 1454 6 18 feel 
: 1468 4 18 a
: 1474 4 18 bout 
: 1481 2 18 you 
: 1488 12 16 now 
- 1502
: 1793 2 9 All 
: 1797 2 11 that 
: 1802 3 9 it 
: 1810 5 8 takes 
: 1822 4 8 one 
: 1830 3 8 more 
: 1838 8 8 chance 
- 1848
: 1853 2 8 Don't 
: 1857 1 9 let 
: 1861 2 11 our 
: 1866 3 9 last 
: 1873 4 8 kiss 
: 1886 3 8 be 
: 1892 4 8 our 
* 1902 9 11 last 
- 1913
: 1921 2 11 Give 
: 1925 2 11 me 
: 1930 3 9 to
: 1938 6 8 night 
: 1948 6 8 and 
: 1956 4 8 I'll 
: 1966 10 6 show 
* 1986 5 9 y
: 1994 14 8 ou 
- 2010
: 2048 8 11 I 
: 2058 4 9 know 
: 2065 6 8 eve
: 2073 5 11 ry
* 2082 5 18 thing 
: 2090 10 16 chan
: 2106 3 11 ges 
- 2110
: 2112 6 11 I 
: 2121 4 9 don't 
: 2129 4 8 care 
: 2137 4 11 where 
* 2146 4 18 it 
: 2154 10 16 takes 
: 2170 2 11 us 
- 2174
: 2177 2 16 'cause 
: 2181 4 18 I 
: 2190 8 20 know 
: 2209 2 20 how 
: 2213 5 20 I 
: 2221 11 18 feel 
: 2236 2 18 a
: 2241 6 18 bout 
: 2251 13 16 you 
- 2266
: 2305 2 16 Can 
: 2310 4 18 we 
: 2318 6 20 bring 
: 2338 4 20 yes
: 2345 3 20 ter
* 2350 8 23 day 
* 2369 7 25 back 
: 2378 3 23 a
: 2384 12 20 round 
- 2398
: 2433 2 16 'cause 
: 2438 5 18 I 
: 2447 9 20 know 
: 2465 2 20 how 
: 2469 5 20 I 
: 2478 6 18 feel 
: 2492 4 18 a
: 2498 4 18 bout 
: 2505 2 18 you 
: 2512 12 16 now 
- 2526
: 2560 3 16 I 
: 2566 3 18 was 
: 2574 6 20 dumb 
: 2592 4 20 I 
: 2599 3 20 was 
* 2606 8 23 wrong 
* 2620 3 23 I 
* 2626 6 25 let 
: 2634 2 23 you 
: 2640 8 20 do
: 2650 4 18 wn 
- 2656
: 2689 2 16 But 
: 2694 5 18 I 
: 2703 9 20 know 
: 2721 2 20 how 
: 2725 5 20 I 
: 2734 6 18 feel 
: 2748 4 18 a
: 2754 4 18 bout 
: 2761 2 18 you 
: 2768 12 16 now 
- 2782
: 2818 5 16 Not 
: 2825 2 18 a 
* 2830 16 20 day 
: 2848 6 18 passed 
: 2857 3 16 me 
: 2862 10 13 by 
- 2874
: 2882 5 13 Not 
: 2889 2 15 a 
: 2894 16 16 day 
: 2912 6 15 passed 
: 2921 3 13 me 
* 2926 10 8 by 
- 2938
: 2946 5 8 That 
: 2953 2 9 I 
: 2958 12 11 don't 
: 2977 5 9 think 
: 2986 2 8 a
: 2991 9 6 bout 
: 3009 6 9 yo
: 3017 9 8 u 
- 3028
: 3074 5 16 And 
: 3081 2 18 there's 
* 3086 16 20 no 
: 3106 4 18 mo
: 3113 3 16 ving 
: 3118 10 13 on 
- 3130
: 3137 5 13 'cause 
: 3145 2 15 I 
: 3150 16 16 know 
: 3170 4 15 youre 
: 3177 2 13 the 
* 3182 10 8 one 
- 3194
: 3202 2 8 And 
: 3206 2 9 I 
: 3214 12 11 can't 
: 3233 5 9 be 
: 3242 2 8 with
: 3247 9 6 out 
: 3265 6 9 yo
: 3273 9 8 u 
- 3284
: 3329 2 16 Can 
: 3334 4 18 we 
: 3342 6 20 bring 
: 3362 4 20 yes
: 3369 3 20 ter
* 3374 8 23 day 
* 3393 7 25 back 
: 3402 3 23 a
: 3408 12 20 round 
- 3422
: 3457 2 16 'cause 
: 3462 5 18 I 
: 3471 9 20 know 
: 3489 2 20 how 
: 3493 5 20 I 
: 3502 6 18 feel 
: 3516 4 18 a
: 3522 4 18 bout 
: 3529 2 18 you 
: 3536 12 16 now 
- 3550
: 3584 3 16 I 
: 3590 3 18 was 
: 3598 6 20 dumb 
: 3616 4 20 I 
: 3623 3 20 was 
* 3630 8 23 wrong 
* 3644 3 23 I 
* 3650 6 25 let 
: 3658 2 23 you 
: 3664 8 20 do
: 3674 4 18 wn 
- 3680
: 3713 2 16 But 
: 3718 5 18 I 
: 3727 9 20 know 
: 3745 2 20 how 
: 3749 5 20 I 
: 3758 6 18 feel 
: 3772 4 18 a
: 3778 4 18 bout 
: 3785 2 18 you 
: 3792 12 16 now 
- 3841
: 3841 2 23 Can 
: 3846 4 23 we 
: 3854 6 23 bring 
: 3874 4 23 yes
: 3881 3 23 ter
* 3886 8 23 day 
* 3905 7 25 back 
: 3914 3 23 a
: 3920 12 20 round 
- 3934
: 3969 2 16 'cause 
: 3974 5 18 I 
: 3983 9 20 know 
: 4001 2 20 how 
: 4005 5 20 I 
: 4014 6 18 feel 
: 4028 4 18 a
: 4034 4 18 bout 
: 4041 2 18 you 
: 4048 12 16 now 
- 4062
: 4096 3 16 I 
: 4102 3 18 was 
: 4110 6 20 dumb 
: 4128 4 20 I 
: 4135 3 20 was 
* 4142 8 23 wrong 
* 4156 3 23 I 
* 4162 6 25 let 
: 4170 2 23 you 
: 4176 8 20 do
: 4186 4 18 wn 
- 4192
: 4225 2 16 But 
: 4230 5 18 I 
: 4239 9 20 know 
: 4257 2 20 how 
: 4261 5 20 I 
: 4270 6 18 feel 
: 4284 4 18 a
: 4290 4 18 bout 
: 4297 2 18 you 
: 4304 12 16 now 
- 4318
: 4353 2 16 But 
: 4358 5 18 I 
: 4367 9 20 know 
: 4385 2 20 how 
: 4389 5 20 I 
: 4398 6 18 feel 
: 4412 4 18 a
: 4418 4 18 bout 
: 4425 2 18 you 
: 4432 12 16 now 
- 4446
: 4481 2 16 Yeah 
: 4486 5 18 I 
: 4495 9 20 know 
: 4513 2 20 how 
: 4517 5 20 I 
: 4526 6 18 feel 
: 4540 4 18 a
: 4546 4 18 bout 
: 4553 2 18 you 
* 4559 3 20 n
* 4563 2 18 o
* 4566 6 16 w 
E