#ARTIST:Sugababes
#TITLE:About a Girl
#MP3:About a Girl.mp3
#GENRE:Pop
#Cover:About a Girl.jpg
#LANGUAGE:English
#BPM:127,03
#VIDEO:About a Girl.mpg
#Gap:-600
F 0 0 0 
- 280
F 280 0 0 
- 280
: 297 2 3 Girls 
: 301 2 3 bring 
: 303 1 3 the 
: 305 2 3 fun 
: 307 1 0 of 
: 309 2 0 life 
- 312
: 313 2 3 Su
: 315 2 0 gar 
: 317 2 0 li
: 319 1 -2 ke 
: 321 1 -4 ap
: 323 1 -2 ple 
: 325 1 -7 pie 
- 328
: 347 1 -4 Let's 
: 349 2 -4 have 
: 351 1 -2 a 
: 353 2 0 par
: 356 1 -7 ty - 
: 357 2 -7 Oh! 
- 361
F 379 1 -4 Let's 
F 381 2 -4 have 
F 383 1 -2 a 
F 385 2 0 par
F 388 1 -7 ty - 
F 389 2 -7 Oh! 
- 393
: 419 1 -7 You 
: 421 1 -4 think 
: 423 1 -2 I'm 
: 425 2 0 se
: 428 1 -7 xy, 
: 431 2 -4 huh? 
- 434
: 435 1 -7 I'm 
: 437 1 -4 in
: 439 1 -2 ter
: 441 1 0 na
: 444 2 -7 tio
: 447 2 -4 nal 
- 450
: 451 1 -7 Think 
: 453 1 -4 You 
: 455 2 -2 can 
: 457 1 0 make 
: 460 1 -7 me 
: 463 2 -4 fall? 
- 466
: 467 1 -4 What 
: 469 1 -4 do 
: 471 1 3 You 
* 473 3 0 know? 
- 478
: 483 1 -7 I'm 
: 485 1 -4 in 
: 487 2 -2 my 
: 489 2 0 Louis 
: 492 1 -7 Vui
: 495 2 -4 ttans 
- 499
: 501 2 -4 Fi
: 503 1 -2 re 
: 505 1 0 like 
* 508 1 -7 a 
: 511 2 -4 bomb 
- 514
: 515 1 -7 And 
: 517 2 -4 I'll 
: 519 1 -2 be 
: 521 1 0 du
: 524 2 -7 cking 
: 527 2 -4 calls 
- 530
: 531 1 -4 'Til 
: 533 1 -4 I 
: 535 1 3 go 
: 537 3 0 home 
- 542
: 547 2 0 We 
: 549 1 0 like 
: 551 2 0 them 
: 553 3 0 lights 
- 558
: 565 2 0 Stars 
: 567 2 0 and 
: 569 3 0 Stripes 
- 574
: 581 2 0 A
: 583 2 0 ll 
* 585 4 0 night 
- 591
: 597 1 0 I 
: 599 1 0 can 
: 601 2 0 see 
- 604
: 605 2 0 You 
: 607 1 0 don't 
: 609 2 8 know 
: 612 1 8 a
: 613 2 7 bout 
: 615 1 7 a 
: 617 3 5 girl 
- 621
: 623 1 5 I'll 
: 625 2 8 take 
* 627 2 7 o
* 629 2 5 ver 
: 631 1 3 the 
: 633 3 5 world 
- 638
: 641 2 8 And 
: 643 1 7 I'm 
: 645 2 5 go
: 647 1 3 nna 
: 649 2 5 pa
: 651 2 5 rty 
: 653 2 5 like 
- 656
: 658 1 0 Wo
: 659 2 3 ah 
: 661 2 5 Oh 
: 664 2 0 Oh 
- 667
: 669 2 0 You 
: 671 1 0 don't 
: 673 2 8 know 
* 676 1 8 a
: 677 2 7 bout 
: 679 1 7 a 
: 681 3 5 girl 
- 685
: 687 1 5 The 
: 689 2 8 mean
: 691 2 10 ing 
: 693 2 7 of 
: 695 1 8 the 
: 697 3 5 word 
- 702
: 704 1 7 'Cos 
: 705 2 8 We 
: 707 1 7 just 
: 709 2 5 go
: 711 1 3 nna 
: 713 2 5 pa
: 715 2 5 rty 
: 717 2 5 like 
- 720
: 722 1 0 Wo
: 723 2 3 ah 
* 725 2 5 Oh 
: 728 2 0 Oh 
- 732
: 735 2 3 So 
: 737 2 3 We 
: 739 1 3 gon' 
: 741 2 3 take 
: 743 1 0 it 
- 745
: 745 2 5 Oh 
: 749 2 5 Oh 
* 753 2 3 Ha 
: 755 2 5 Ay 
: 757 2 3 Ha 
: 759 2 0 Oh 
: 763 2 0 Oh 
: 767 2 5 Ha 
: 769 4 3 Ay 
: 773 2 3 Oh! 
- 776
: 777 2 5 Oh 
: 781 2 5 Oh 
: 785 2 3 Ha 
* 787 2 5 Ay 
: 789 2 3 Ha 
: 791 2 0 Oh 
: 795 2 0 Oh 
: 799 2 5 Ha 
: 801 4 3 Ay 
: 805 2 3 Oh! 
- 808
: 809 2 5 Oh 
: 813 2 5 Oh 
: 817 2 3 Ha 
: 819 2 5 Ay 
* 821 2 3 Ha 
: 823 2 0 Oh 
: 827 2 0 Oh 
: 831 2 5 Ha 
: 833 4 3 Ay 
: 837 2 3 Oh! 
- 840
: 841 2 5 Oh 
: 845 2 5 Oh 
: 849 2 3 Ha 
: 851 2 5 Ay 
: 853 2 3 Ha 
* 855 2 0 Oh 
: 859 2 0 Oh 
- 863
: 867 1 -7 I 
: 869 2 -4 like 
: 871 1 -2 the 
: 873 2 0 game 
: 876 1 -7 You 
* 879 2 -4 play 
- 882
: 883 1 -7 Why 
: 885 2 -4 can't 
: 887 1 -2 I 
: 889 2 0 play 
: 892 1 -7 that 
: 895 2 -4 way? 
- 898
: 899 1 -7 I'll 
* 901 1 -4 break 
: 903 1 -2 your 
: 905 2 0 heart 
: 908 1 -7 and 
: 911 2 -4 then 
- 914
: 915 1 -4 I'll 
: 917 1 -4 mend 
: 919 2 -4 it 
: 922 1 -4 u
: 923 2 -5 p 
- 927
: 931 1 -7 Shine 
: 933 1 -4 like 
: 935 1 -2 a 
: 937 1 0 dis
: 940 1 -7 co 
: 943 2 -4 ball 
- 946
: 947 1 -7 Your 
: 949 1 -4 in
: 951 2 -2 tu
: 953 1 0 i
* 956 1 3 tion 
: 959 2 0 calls 
- 963
: 965 1 -4 But 
: 967 1 -2 to 
: 969 2 0 me 
: 972 1 -7 that 
: 975 2 -4 ball 
- 978
: 979 1 -4 Is 
: 981 1 -4 not 
: 983 1 3 e
: 985 2 0 no
: 987 2 -2 ugh 
- 991
: 995 2 0 We 
: 997 1 0 like 
* 999 2 0 them 
: 1001 3 0 lights 
- 1006
: 1013 2 0 Stars 
: 1015 2 0 and 
: 1017 3 0 Stripes 
- 1022
: 1029 2 0 A
: 1031 2 0 ll 
: 1033 4 0 night 
- 1039
: 1045 1 0 I 
: 1047 1 0 can 
: 1049 2 0 see 
- 1052
: 1053 2 0 You 
: 1055 1 0 don't 
: 1057 2 8 know 
: 1060 1 8 a
: 1061 2 7 bout 
: 1063 1 7 a 
: 1065 3 5 girl 
- 1069
: 1071 1 5 I'll 
: 1073 2 8 take 
: 1075 2 7 o
: 1077 2 5 ver 
: 1079 1 3 the 
: 1081 3 5 world 
- 1086
: 1089 2 8 And 
: 1091 1 7 I'm 
: 1093 2 5 go
: 1095 1 3 nna 
: 1097 2 5 pa
* 1099 2 5 rty 
: 1101 2 5 like 
- 1104
: 1106 1 0 Wo
: 1107 2 3 ah 
: 1109 2 5 Oh 
* 1112 2 0 Oh 
- 1115
: 1117 2 0 You 
: 1119 1 0 don't 
: 1121 2 8 know 
: 1124 1 8 a
: 1125 2 7 bout 
: 1127 1 7 a 
: 1129 3 5 girl 
- 1133
: 1135 1 5 The 
: 1137 2 8 mean
: 1139 2 10 ing 
* 1141 2 7 of 
* 1143 1 8 the 
: 1145 3 5 word 
- 1150
: 1152 1 7 'Cos 
: 1153 2 8 We 
: 1155 1 7 just 
: 1157 2 5 go
: 1159 1 3 nna 
: 1161 2 5 pa
: 1163 2 5 rty 
: 1165 2 5 like 
- 1168
: 1170 1 0 Wo
: 1171 2 3 ah 
: 1173 2 5 Oh 
: 1176 2 0 Oh 
- 1180
: 1183 2 3 So 
: 1185 2 3 We 
: 1187 1 3 gon' 
: 1189 2 3 take 
: 1191 1 0 it 
- 1193
: 1193 2 5 Oh 
: 1197 2 5 Oh 
* 1201 2 3 Ha 
: 1203 2 5 Ay 
: 1205 2 3 Ha 
: 1207 2 0 Oh 
: 1211 2 0 Oh 
: 1215 2 5 Ha 
: 1217 4 3 Ay 
: 1221 2 3 Oh! 
- 1224
: 1225 2 5 Oh 
: 1229 2 5 Oh 
: 1233 2 3 Ha 
* 1235 2 5 Ay 
: 1237 2 3 Ha 
: 1239 2 0 Oh 
: 1243 2 0 Oh 
: 1247 2 5 Ha 
: 1249 4 3 Ay 
: 1253 2 3 Oh! 
- 1256
: 1257 2 5 Oh 
: 1261 2 5 Oh 
: 1265 2 3 Ha 
: 1267 2 5 Ay 
* 1269 2 3 Ha 
: 1271 2 0 Oh 
: 1275 2 0 Oh 
: 1279 2 5 Ha 
: 1281 4 3 Ay 
: 1285 2 3 Oh! 
- 1288
: 1289 2 5 Oh 
: 1293 2 5 Oh 
: 1297 2 3 Ha 
: 1299 2 5 Ay 
: 1301 2 3 Ha 
* 1303 2 0 Oh 
: 1307 2 0 Oh 
: 1311 2 5 Ha 
: 1313 4 3 Ay 
: 1317 2 3 Oh! 
- 1320
: 1321 2 3 Girls 
: 1325 2 3 bring 
: 1327 1 3 the 
: 1329 2 3 fun 
: 1331 1 0 of 
: 1333 2 0 life 
- 1336
: 1337 2 3 Su
: 1339 2 0 gar 
* 1341 2 0 li
* 1343 1 -2 ke 
: 1345 1 -4 ap
: 1347 1 -2 ple 
: 1349 1 -7 pie 
- 1351
: 1353 1 3 Take 
: 1355 1 3 a 
: 1357 1 3 trip 
: 1359 1 3 to 
: 1361 2 3 pa
: 1363 1 0 ra
: 1365 2 0 dise 
- 1369
F 1371 1 -4 Let's 
F 1373 2 -4 have 
F 1375 1 -2 a 
F 1377 2 0 par
F 1380 1 -7 ty - 
F 1381 2 -7 Oh! 
- 1384
: 1385 2 8 Beau
: 1387 2 5 ty 
: 1389 1 5 like 
: 1391 2 5 You 
: 1393 2 5 ne
: 1395 1 3 ver 
: 1397 2 3 saw 
- 1400
: 1401 1 -2 Take 
: 1403 1 0 your 
* 1405 2 3 num
: 1407 1 0 ber 
: 1409 2 -2 ne
: 1411 1 0 ver 
: 1413 2 -7 call 
- 1416
: 1417 1 3 Bite 
: 1419 2 3 the 
: 1421 1 3 ap
: 1423 1 3 ple 
: 1425 1 3 take 
: 1427 1 0 your 
: 1429 3 0 heart 
- 1433
F 1435 1 -4 Let's 
F 1437 2 -4 have 
F 1439 1 -2 a 
F 1441 2 0 par
F 1444 1 -7 ty - 
F 1445 2 -7 Oh! 
- 1448
: 1449 2 3 Girls 
: 1453 2 3 bring 
: 1455 1 3 the 
* 1457 2 3 fun 
* 1459 1 0 of 
: 1461 2 0 life 
- 1464
: 1465 2 3 Su
: 1467 2 0 gar 
: 1469 2 0 li
: 1471 1 -2 ke 
: 1473 1 -4 ap
: 1475 1 -2 ple 
: 1477 1 -7 pie 
- 1479
: 1481 1 3 Take 
: 1483 1 3 a 
: 1485 1 3 trip 
: 1487 1 3 to 
: 1489 2 3 pa
: 1491 1 0 ra
: 1493 2 0 dise 
- 1497
F 1499 1 -4 Let's 
F 1501 2 -4 have 
F 1503 1 -2 a 
F 1505 2 0 par
F 1508 1 -7 ty - 
F 1509 2 -7 Oh! 
- 1512
: 1513 2 8 Beau
: 1515 2 5 ty 
: 1517 1 5 like 
: 1519 2 5 You 
: 1521 2 5 ne
: 1523 1 3 ver 
: 1525 2 3 saw 
- 1528
: 1529 1 -2 Take 
: 1531 1 0 your 
: 1533 2 3 num
: 1535 1 0 ber 
* 1537 2 -2 ne
: 1539 1 0 ver 
: 1541 2 -7 call 
- 1544
: 1545 1 3 Bite 
: 1547 2 3 the 
: 1549 1 3 ap
: 1551 1 3 ple 
: 1553 1 3 take 
: 1555 1 0 your 
: 1557 3 0 heart 
- 1561
F 1563 1 -4 Let's 
F 1565 2 -4 have 
F 1567 1 -2 a 
F 1569 2 0 par
F 1572 1 -7 ty - 
F 1573 2 -7 Oh! 
- 1576
: 1577 2 5 Oh 
: 1581 2 5 Oh 
* 1585 2 3 Ha 
: 1587 2 5 Ay 
: 1589 2 3 Ha 
: 1591 2 0 Oh 
: 1595 2 0 Oh 
: 1599 2 5 Ha 
: 1601 4 3 Ay 
: 1605 2 3 Oh! 
- 1608
: 1609 2 5 Oh 
: 1613 2 5 Oh 
: 1617 2 3 Ha 
* 1619 2 5 Ay 
: 1621 2 3 Ha 
: 1623 2 0 Oh 
: 1627 2 0 Oh 
: 1631 2 5 Ha 
: 1633 4 3 Ay 
: 1637 2 3 Oh! 
- 1640
: 1641 2 5 Oh 
: 1645 2 5 Oh 
: 1649 2 3 Ha 
: 1651 2 5 Ay 
* 1653 2 3 Ha 
: 1655 2 0 Oh 
: 1659 2 0 Oh 
: 1663 2 5 Ha 
: 1665 4 3 Ay 
: 1669 2 3 Oh! 
- 1672
: 1673 2 5 Oh 
: 1677 2 5 Oh 
: 1681 2 3 Ha 
: 1683 2 5 Ay 
: 1685 2 3 Ha 
* 1687 2 0 Oh 
- 1691
: 1693 2 0 You 
: 1695 1 0 don't 
: 1697 2 8 know 
: 1700 1 8 a
* 1701 2 7 bout 
: 1703 1 7 a 
: 1705 3 5 girl 
- 1709
: 1711 1 5 I'll 
: 1713 2 8 take 
: 1715 2 7 o
: 1717 2 5 ver 
: 1719 1 3 the 
: 1721 3 5 world 
- 1726
: 1729 2 8 And 
: 1731 1 7 I'm 
: 1733 2 5 go
* 1735 1 3 nna 
: 1737 2 5 pa
: 1739 2 5 rty 
: 1741 2 5 like 
- 1744
: 1746 1 0 Wo
: 1747 2 3 ah 
: 1749 2 5 Oh 
: 1752 2 0 Oh 
- 1755
: 1757 2 0 You 
* 1759 1 0 don't 
: 1761 2 8 know 
: 1764 1 8 a
: 1765 2 7 bout 
: 1767 1 7 a 
: 1769 3 5 girl 
- 1773
: 1775 1 5 The 
: 1777 2 8 mean
* 1779 2 10 ing 
: 1781 2 7 of 
: 1783 1 8 the 
: 1785 3 5 word 
- 1790
: 1792 1 7 'Cos 
: 1793 2 8 We 
: 1795 1 7 just 
: 1797 2 5 go
: 1799 1 3 nna 
: 1801 2 5 pa
: 1803 2 5 rty 
: 1805 2 5 like 
- 1808
: 1810 1 0 Wo
: 1811 2 3 ah 
: 1813 2 5 Oh 
: 1816 2 0 Oh 
- 1820
: 1823 2 3 So 
: 1825 2 3 We 
: 1827 1 3 gon' 
: 1829 2 3 take 
: 1831 1 0 it 
- 1833
: 1833 2 5 Oh 
: 1837 2 5 Oh 
* 1841 2 3 Ha 
: 1843 2 5 Ay 
: 1845 2 3 Ha 
: 1847 2 0 Oh 
: 1851 2 0 Oh 
: 1855 2 5 Ha 
: 1857 4 3 Ay 
: 1861 2 3 Oh! 
- 1864
: 1865 2 5 Oh 
: 1869 2 5 Oh 
: 1873 2 3 Ha 
* 1875 2 5 Ay 
: 1877 2 3 Ha 
: 1879 2 0 Oh 
: 1883 2 0 Oh 
: 1887 2 5 Ha 
: 1889 4 3 Ay 
: 1893 2 3 Oh! 
- 1896
: 1897 2 5 Oh 
: 1901 2 5 Oh 
: 1905 2 3 Ha 
: 1907 2 5 Ay 
* 1909 2 3 Ha 
: 1911 2 0 Oh 
: 1915 2 0 Oh 
: 1919 2 5 Ha 
: 1921 4 3 Ay 
: 1925 2 3 Oh! 
- 1928
: 1929 2 5 Oh 
: 1933 2 5 Oh 
: 1937 2 3 Ha 
: 1939 2 5 Ay 
: 1941 2 3 Ha 
* 1943 2 0 Oh 
: 1947 2 0 Oh 
: 1951 2 5 Ha 
: 1953 4 3 Ay 
: 1957 2 3 Oh! 

