#TITLE:Stronger
#ARTIST:Sugababes
#MP3:Sugababes - Stronger.mp3
#VIDEO:Sugababes - Stronger.mp4
#COVER:Sugababes - Stronger.jpg
#BPM:300.56
#GAP:8434
#ENCODING:UTF8
#LANGUAGE:English
: 0 2 7 I'll
: 4 2 9  make
: 8 2 7  it
: 12 6 16  through
: 20 2 16  the
: 24 2 14  rai
: 28 2 12 ~
: 32 2 12 ny
: 36 16 14  days
- 57
: 92 2 12 I'll
: 96 2 14  be
: 100 2 16  the
: 104 6 16  one
: 112 6 19  who
: 120 6 17  stands
- 127
: 128 2 16 here
: 132 2 14 ~
: 136 6 14  lon
: 144 6 17 ger
: 152 2 16  than
: 156 2 12 ~
: 160 2 12  the
: 164 2 9 ~
: 168 2 9  re
: 172 14 7 st
- 193
: 224 2 12 When
: 228 2 14  my
: 232 6 16  land
: 240 6 14 scape
: 248 2 12  chan
: 252 2 14 ~
: 256 6 12 ges,
: 264 6 16  re
: 272 2 14 a
: 276 2 12 r
: 280 2 14 ra
: 284 2 12 ~
: 288 10 12 ges
- 301
: 304 2 7 I'll
: 308 2 9  be
: 312 6 12  stron
: 320 2 12 ger
: 324 2 9  than
: 328 2 7  i've
: 332 2 12  e
: 336 2 14 ~
: 340 6 16 ver
: 348 2 16  be
: 352 1 17 ~
: 354 1 16 ~
: 356 6 14 en
- 365
: 368 2 12 No
: 372 2 14  more
: 376 6 16  still
: 384 6 14 ness,
: 392 2 12  more
: 396 2 14  sun
: 400 2 12 ~
: 404 14 12  light,
- 421
: 432 2 7 E
: 436 2 9 very
: 440 10 12 thing's
: 452 2 9  gon
: 456 2 7 na
: 460 6 16  be
: 468 6 19  al
: 476 2 17 ri
: 480 2 16 ~
: 484 2 14 ~
* 488 12 12 ght
- 505
* 508 13 21 I
: 524 2 21  kno
: 527 2 19 ~
: 530 4 16 w
: 540 6 24  that
: 548 6 24  there's
: 556 6 21  gon
: 564 2 19 na
: 568 2 19  be
: 572 6 16  a
: 580 12 19  chan
* 594 4 21 ge
- 601
: 608 2 12 Bet
: 612 2 14 ter
: 616 6 16  find
: 624 2 16  your
: 628 2 14 ~
: 632 2 16  way
: 636 2 14 ~
: 640 2 16  out
: 644 2 14 ~
: 648 2 16  of
: 652 2 14 ~
: 656 2 16  your
: 660 2 14 ~
: 664 2 16  fe
: 668 6 14 ar
- 675
: 676 2 12 If
: 680 2 14  you
: 684 2 16  wan
: 688 2 17 na
: 692 2 16  come
: 696 2 17  with
: 700 6 16  me
- 709
: 712 2 17 Then
: 716 2 16  that's
: 720 2 17  the
: 724 2 16  way
: 728 2 17  it's
: 732 2 16  got
: 736 2 14 ta
: 740 2 12  be
: 744 2 14 ~
: 748 2 12 ~
: 752 4 9 ~
- 758
: 760 2 9 I'm
: 764 2 16  all
: 768 2 14 ~
: 772 2 12  a
: 776 12 14 lone
: 824 2 9  and
: 828 2 16  fi
: 832 2 14 ~
: 836 2 12 nal
: 840 8 14 ly
- 851
: 856 2 9 I'm
: 860 2 14  get
: 864 2 16 ting
: 868 14 9  stron
: 884 8 13 ger
- 901
: 984 2 9 You'll
: 988 6 16  come
: 996 2 17  to
* 1000 12 17  see
- 1021
: 1048 2 9 Just
: 1052 6 16  what
: 1060 2 17  I
: 1064 6 17  can
: 1072 2 16  be
: 1076 2 14 ~
: 1080 10 12 ~
- 1101
: 1112 2 9 I'm
: 1116 2 16  get
: 1120 2 14 ting
: 1124 2 14  stron
: 1128 2 12 ~
: 1132 6 9 ~
: 1140 10 9 ger
- 1161
: 1408 2 7 Some
: 1412 2 9 times
: 1416 2 7  I
: 1420 2 9  feel
: 1424 2 7 ~
: 1428 2 7  so
: 1432 6 14  down
: 1440 2 16  and
: 1444 10 14  o
: 1456 2 12 ~
: 1460 4 9 ut
- 1473
: 1500 6 12 Like
: 1508 2 14  e
: 1512 6 16 mo
: 1520 6 19 tion
: 1528 6 17  that's
: 1536 2 16  been
: 1540 2 14 ~
: 1544 6 14  cap
: 1552 6 17 tured
- 1559
: 1560 2 16 in
: 1564 2 12 ~
: 1568 2 12  a
: 1572 2 9 ~
: 1576 2 9  ma
: 1580 14 7 ~
: 1596 2 9 ~
: 1600 2 12 ~
: 1604 10 9 ze
- 1617
: 1624 2 9 I
: 1628 6 12  had
: 1636 2 14  my
: 1640 6 16  ups
: 1648 6 14  and
: 1656 8 14  downs
- 1669
: 1672 6 16 Trials
: 1680 2 14  and
: 1684 2 14  tri
: 1688 2 12 bu
: 1692 2 14 la
: 1696 2 12 ~
: 1700 10 12 tions,
- 1713
: 1716 2 12 I
: 1720 6 12  o
: 1728 2 12 ver
: 1732 1 9 come
: 1734 4 7  it
: 1740 6 12  day
: 1748 2 14  by
: 1752 2 16 ~
: 1756 2 16  da
: 1760 1 17 ~
: 1762 1 16 ~
: 1764 4 14 y,
- 1771
: 1776 2 12 Fee
: 1780 2 14 ling
: 1784 6 16  good
: 1792 2 14  and
: 1796 2 14  al
: 1800 2 12 most
: 1804 2 14  po
: 1808 2 12 wer
* 1812 6 12 ful
* 1820 2 9 ~
- 1829
: 1840 2 12 A
: 1844 2 12  new
: 1848 2 14 ~
* 1852 2 16  me,
* 1856 4 14  ~
- 1862
: 1864 2 12 that's
: 1868 2 19  what
: 1872 2 16  I'm
: 1876 2 16  loo
: 1880 2 16 king
: 1884 2 16  fo
: 1888 2 14 ~
: 1892 2 12 ~
: 1896 4 16 ~
: 1902 1 17 ~
: 1904 1 16 ~
: 1906 6 14 r
- 1914
: 1916 12 21 I
: 1930 2 21  kno
: 1934 2 19 ~
: 1938 2 16 w
: 1948 6 24  that
: 1956 6 24  there's
* 1964 6 21  gon
: 1972 2 19 na
: 1976 2 19  be
: 1980 2 16 ~
: 1984 2 16  a
: 1988 10 19  chan
: 2000 6 21 ge
- 2009
: 2016 2 12 Bet
: 2020 2 14 ter
: 2024 6 16  find
: 2032 2 16  your
: 2036 2 14 ~
: 2040 2 16  way
: 2044 2 14 ~
: 2048 2 16  out
: 2052 2 14 ~
: 2056 2 16  of
: 2060 2 14 ~
: 2064 2 16  your
: 2068 2 14 ~
: 2072 2 16  fe
: 2076 6 14 ar
- 2083
: 2084 2 12 If
: 2088 2 14  you
: 2092 2 16  wan
: 2096 2 17 na
: 2100 2 16  come
: 2104 2 17  with
: 2108 6 16  me
- 2117
: 2120 2 17 Then
: 2124 2 16  that's
: 2128 2 17  the
: 2132 2 16  way
: 2136 2 17  it's
: 2140 2 16  got
: 2144 2 14 ta
: 2148 2 14  be
: 2152 8 12 ~
: 2162 4 9 ~
- 2167
: 2168 2 9 I'm
: 2172 2 16  all
: 2176 2 14 ~
: 2180 2 12  a
: 2184 10 14 lone
: 2232 2 9  and
: 2236 2 16  fi
: 2240 2 14 ~
: 2244 2 12 nal
: 2248 8 14 ly
- 2261
: 2264 2 9 I'm
: 2268 2 14  get
: 2272 2 16 ting
: 2276 14 9  stron
: 2292 8 13 ger
- 2313
: 2392 2 9 You'll
: 2396 6 16  come
: 2404 2 17  to
: 2408 10 17  see
- 2429
: 2456 2 9 Just
: 2460 6 16  what
: 2468 2 17  I
: 2472 6 17  can
: 2480 2 16  be
: 2484 2 14 ~
: 2488 8 12 ~
- 2505
: 2520 2 9 I'm
: 2524 2 16  get
: 2528 2 14 ting
: 2532 2 14  stron
: 2536 2 12 ~
: 2540 6 9 ~
: 2548 6 9 ger
- 2565
: 2688 2 14 I
: 2692 2 17  di
: 2696 2 14 dn't
: 2700 6 17  know
: 2708 2 17  what
: 2712 2 14  I
: 2716 6 17  had
: 2724 2 14  to
: 2728 4 16  do
- 2741
: 2748 2 14 I
: 2752 2 16 ~
: 2756 2 14  just
: 2760 10 16  knew
: 2772 2 14  I
: 2776 6 16  was
: 2784 2 14  a
: 2788 4 17 lo
: 2794 6 14 ne
- 2805
: 2812 2 17 Peo
: 2816 2 17 ple
: 2820 2 14  a
: 2824 6 17 round
: 2832 2 14  me
- 2835
: 2836 2 14 But
: 2840 2 14  they
: 2848 2 17  di
: 2852 2 14 dn't
: 2856 8 16  care
- 2869
: 2876 6 16 So
: 2884 2 14  I
: 2888 4 16  sear
: 2894 2 16 ched
: 2898 4 14  in
: 2904 6 16 to
: 2912 4 14  my
: 2918 4 17  so
: 2924 6 14 ul
- 2937
: 2944 2 14 I'm
: 2948 2 21  not
: 2952 2 22  the
: 2956 6 21  type
: 2964 2 19  of
: 2968 6 19  girl
- 2975
: 2976 2 19 that
: 2980 2 17  will
: 2984 6 19  let
: 2992 6 19  them
: 3000 6 19  see
: 3008 4 19  her
: 3014 2 17  cry
: 3018 2 21 ~
: 3022 4 14 ~
: 3028 2 17 ~
: 3032 11 14 ~
- 3049
: 3056 2 14 It's
: 3060 2 14  not
: 3064 4 12  my
: 3070 10 14  style
- 3085
: 3088 2 14 I
: 3092 2 12  get
: 3096 10 14  by
: 3108 4 12 ~
- 3117
: 3120 2 9 See
: 3124 10 16  I'm
* 3136 2 16  gon
: 3140 2 14 na
: 3144 4 16  do
: 3150 1 17 ~
: 3152 1 14 ~
: 3154 2 16 ~
- 3157
: 3158 4 16 this
: 3172 2 14  for
: 3176 12 23  me
: 3191 1 24 ~
: 3193 1 21 ~
: 3195 10 23 ~
: 3207 1 24 ~
: 3209 1 21 ~
: 3211 10 23 ~
: 3223 1 24 ~
: 3225 1 21 ~
: 3228 4 23 ~
: 3234 12 21 ~
- 3249
: 3256 2 9 I'm
: 3260 2 16  all
: 3264 2 14 ~
: 3268 2 12  a
: 3272 10 14 lone
: 3320 2 9  and
: 3324 2 16  fi
: 3328 2 14 ~
: 3332 2 12 nal
: 3336 8 14 ly
- 3349
: 3352 2 9 I'm
: 3356 2 14  get
: 3360 2 16 ting
: 3364 14 9  stron
: 3380 8 13 ger
- 3401
: 3480 2 9 You'll
: 3484 6 16  come
: 3492 2 17  to
* 3496 10 17  see
- 3513
: 3544 2 9 Just
: 3548 6 16  what
: 3556 2 17  I
: 3560 6 17  can
: 3568 2 16  be
: 3572 2 14 ~
: 3576 8 12 ~
- 3593
: 3608 2 9 I'm
: 3612 2 16  get
: 3616 2 14 ting
: 3620 2 14  stron
: 3624 2 12 ~
: 3628 6 9 ~
: 3636 10 9 ger
- 3653
: 3768 2 9 I'm
: 3772 2 16  all
: 3776 2 14 ~
: 3780 2 12  a
: 3784 10 14 lone
: 3832 2 9  and
: 3836 2 16  fi
: 3840 2 14 ~
: 3844 2 12 nal
* 3848 8 14 ly
- 3861
: 3864 2 9 I'm
: 3868 2 14  get
: 3872 2 16 ting
: 3876 14 9  stron
: 3892 8 13 ger
- 3913
: 3992 2 9 You'll
: 3996 6 16  come
: 4004 2 17  to
: 4008 8 17  see
- 4021
: 4056 2 9 Just
: 4060 6 16  what
: 4068 2 17  I
: 4072 6 17  can
: 4080 2 16  be
: 4084 2 14 ~
: 4088 6 12 ~
- 4101
: 4120 2 9 I'm
: 4124 2 16  get
: 4128 2 14 ting
: 4132 2 14  stron
: 4136 2 12 ~
: 4140 6 9 ~
: 4148 10 9 ger
E