#TITLE:Pieces
#ARTIST:Sum 41
#LANGUAGE:Englisch
#EDITION:[SC]-Songs
#MP3:Sum 41 - Pieces.mp3
#COVER:Sum 41 - Pieces [CO].jpg
#BACKGROUND:Sum 41 - Pieces [BG].jpg
#BPM:400
#GAP:10756
: -2 4 5 I
: 5 7 12  tried
: 14 5 9  to
: 22 5 9  be
: 30 12 10  per
: 47 8 9 fect
- 57
: 60 6 7 But
: 69 5 7  no
: 77 5 5 thing
: 85 5 7  was
: 94 11 10  worth
: 110 13 9  it
- 125
: 134 5 9 I
: 141 5 9  don't
: 149 5 9  be
: 157 14 7 lieve
: 174 13 9  it
: 190 10 7  makes
: 206 6 9  me
: 213 11 7 ~
: 228 11 5  real
- 241
: 254 3 5 I'd
: 261 7 12  thought
: 270 4 9  it'd
: 278 6 9  be
: 286 13 10  ea
: 302 8 9 sy
- 312
: 319 3 7 But
: 326 5 7  no
: 333 6 5  one
: 342 5 7  be
: 350 12 10 lieves
: 366 13 9  me
- 381
: 398 5 9 I
: 405 6 9  met
: 414 20 10  all
: 436 4 9  the
: 445 13 7  things
: 461 7 7  I
: 469 7 9 ~
: 476 4 5 ~
: 486 12 5  said
- 500
: 510 3 14 If
: 517 8 14  you
* 527 12 16  be
* 542 21 17 lieve
: 566 12 16  it's
: 582 4 14  in
: 589 6 12  my
: 597 6 14 ~
: 607 21 12  soul
- 630
: 655 4 5 I'd
: 663 5 5  say
: 671 19 12  all
: 694 4 10  the
: 702 14 9  words
: 719 5 9  that
: 726 7 10  I
: 735 15 9  know
- 752
: 774 5 14 Just
: 783 10 16  to
* 798 22 17  see
: 822 11 16  if
: 838 5 14  it
: 846 6 12  would
: 854 5 14 ~
: 863 18 12  show
- 883
: 911 5 5 That
: 918 5 5  I'm
: 927 18 12  try
: 948 7 10 ing
: 958 15 9  to
: 975 5 9  let
: 982 6 10  you
: 990 16 9  know
- 1008
: 1039 5 5 That
: 1046 6 5  I'm
: 1055 20 10  be
: 1078 6 9 tter
: 1087 12 7  off
: 1102 5 7  on
: 1109 7 9  my
: 1116 5 5 ~
: 1126 14 5  own
- 1142
: 1407 3 5 This
: 1415 6 12  place
: 1423 5 9  is
: 1430 6 9  so
: 1438 15 10  em
: 1455 9 9 pty
- 1466
: 1470 6 7 My
: 1479 6 7  thoughts
: 1487 4 5  are
: 1494 6 7  so
: 1503 13 10  temp
: 1518 12 9 ting
- 1532
: 1543 5 9 I
: 1550 6 9  don't
: 1559 5 9  know
: 1567 13 7  how
: 1583 12 9  it
: 1599 11 7  got
: 1615 8 7  so
: 1623 6 9 ~
: 1638 13 5  bad
- 1653
: 1663 5 5 Some
: 1671 7 12 times
: 1680 3 9  it's
: 1687 6 9  so
: 1696 13 10  cra
: 1712 8 9 zy
- 1722
: 1727 5 7 that
: 1735 5 7  no
: 1742 6 5 thing
: 1751 4 7  can
: 1759 13 10  save
: 1775 11 9  me
- 1788
: 1807 5 9 But
: 1814 4 9  its
: 1823 4 9  the
: 1829 14 10  on
: 1846 5 9 ly
: 1855 11 7  thing
: 1870 6 7  that
: 1878 12 9  I
: 1895 16 5  have
- 1913
: 1919 3 14 If
: 1925 9 14  you
* 1936 12 16  be
* 1951 21 17 lieve
: 1975 13 16  it's
: 1992 5 14  in
: 1999 6 12  my
: 2007 5 14 ~
: 2015 24 12  soul
- 2041
: 2063 4 5 I'd
: 2071 6 5  say
: 2079 20 12  all
: 2101 8 10  the
: 2111 13 9  words
: 2127 7 9  that
: 2136 6 10  I
: 2144 20 9  know
- 2166
: 2184 5 14 Just
: 2192 9 16  to
* 2207 21 17  see
: 2231 12 16  if
: 2247 5 14  it
: 2255 6 12  would
: 2263 4 14 ~
: 2271 18 12  show
- 2291
: 2320 5 5 That
: 2327 4 5  I'm
: 2335 21 12  try
: 2358 6 10 ing
: 2367 14 9  to
: 2383 5 9  let
: 2391 6 10  you
: 2399 21 9  know
- 2422
: 2447 6 5 That
: 2455 5 5  I'm
: 2463 21 10  bet
: 2487 6 9 ter
: 2495 13 7  off
: 2511 6 7  on
: 2519 8 9  my
: 2527 4 5 ~
: 2535 14 5  own
- 2551
: 3199 5 5 I
: 3207 7 12  tried
: 3217 5 9  to
: 3224 6 9  be
: 3233 12 10  per
: 3248 12 9 fect
- 3262
: 3264 5 7 It
: 3272 5 7  just
: 3281 5 5  was
: 3289 4 7 n't
: 3296 12 10  worth
: 3311 13 9  it
- 3326
: 3337 5 9 No
: 3344 6 9 thing
: 3352 6 9  could
: 3360 13 7  e
: 3376 13 9 ver
: 3392 13 7  be
: 3408 9 7  so
: 3417 9 9 ~
: 3432 13 5  wrong
- 3447
: 3456 6 5 It's
: 3464 6 12  hard
: 3472 6 9  to
: 3480 6 9  be
: 3488 14 10 lieve
: 3504 12 9  me
- 3518
: 3521 5 7 It
: 3528 6 7  ne
: 3536 6 5 ver
: 3545 6 7  gets
: 3554 12 10  ea
: 3569 14 9 sy
- 3585
: 3600 6 9 I
: 3608 5 9  guess
: 3616 5 9  I
: 3624 14 10  knew
: 3640 7 9  that
: 3649 13 7  all
: 3665 7 7  a
: 3672 6 9 ~
: 3688 14 5 long
- 3704
: 3713 3 14 If
: 3719 7 14  you
* 3728 14 16  be
* 3745 20 17 lieve
: 3769 11 16  it's
: 3785 5 14  in
: 3793 6 12  my
: 3801 4 14 ~
: 3809 23 12  soul
- 3834
: 3856 6 5 I'd
: 3864 6 5  say
: 3873 20 12  all
: 3896 6 10  the
: 3904 14 9  words
: 3921 6 9  that
: 3929 6 10  I
: 3937 19 9  know
- 3958
: 3977 5 14 Just
: 3986 9 16  to
* 4001 22 17  see
: 4025 13 16  if
: 4042 4 14  it
: 4049 7 12  would
: 4057 5 14 ~
: 4065 22 12  show
- 4089
: 4113 6 5 That
: 4122 3 5  I'm
: 4130 20 12  try
: 4153 5 10 ing
: 4161 13 9  to
: 4178 4 9  let
: 4185 7 10  you
: 4194 14 9  know
- 4210
: 4241 8 5 That
: 4251 4 5  I'm
: 4258 21 10  bet
: 4281 5 9 ter
: 4289 14 7  off
: 4306 4 7  on
: 4313 6 9  my
: 4320 5 5 ~
: 4329 22 5  own
E
