#TITLE:I Found Heaven
#ARTIST:Take That
#MP3:Take That - I Found Heaven.mp3
#VIDEO:Take That - I Found Heaven [VD#0].mpg
#COVER:Take That - I Found Heaven [CO].jpg
#BPM:149,85
#GAP:33800
#ENCODING:UTF8
: 0 2 9  I
: 2 2 18  thought
: 4 2 18  I
: 7 2 18  found
: 10 2 18  lo
: 12 9 16 ve
- 23
: 29 2 9  With
: 31 5 21  some
: 36 2 18 bo
: 39 2 18 dy
: 41 2 18  el
: 43 5 18 se's
: 48 2 18  gi
: 51 5 16 rl
: 58 5 16  yeah
- 65
: 73 4 18  Walk
: 77 2 18 in
: 79 4 18  'round
: 83 4 18  feel
: 87 1 18 ing
: 89 4 18  so
: 93 3 16  bro
: 96 2 14 ken-
: 99 4 16 hear
: 103 2 18 ted
- 106
: 108 5 21  Lost
: 113 3 18  in
: 116 2 18  a
: 118 2 18  dif
: 121 2 18 fe
: 123 2 18 rent
: 126 2 18  wo
: 128 6 16 rld
- 136
: 152 2 23  Then
: 155 2 23  you
: 157 2 23  came
: 160 2 23  in
: 162 2 23  my
: 164 2 23  li
: 167 10 21 fe
- 179
: 188 5 23  Brought
: 193 2 23  me
: 196 3 23  back
: 199 4 23  to
: 203 2 23  re
: 205 4 25 a
: 209 2 23 li
: 211 2 21 ty
: 214 2 21  some
: 218 3 21 day
: 221 1 19 - 
: 222 2 18 - 
- 226
: 229 2 18  Now
: 232 2 18  I
: 234 2 18  don't
: 237 2 19  need
: 239 2 18  a
: 242 6 21  fan
: 249 2 18 ta
: 252 2 18 sy
: 254 4 16 - 
- 260
: 263 2 23  You're
: 266 2 23  the
: 268 2 23  on
: 270 2 23 ly
: 273 2 23  one
: 276 2 23  I
: 278 2 18 - 
: 280 6 21  need
- 288
: 295 2 9  I
: 297 4 14  found
: 302 8 13  hea
: 310 5 11 ven
: 317 5 14  sweet
: 322 4 13  hea
: 326 2 11 ven
: 329 4 9  ba
: 333 2 11 by
- 336
: 336 2 6  On
: 338 2 9  the
: 341 8 11  wings
: 349 6 2  of
: 355 2 9  lo
: 358 6 6 ve
- 366
: 372 2 9  I
: 375 4 14  found
: 379 8 13  hea
: 387 4 11 ven
: 394 5 14  sweet
: 399 5 13  hea
: 404 2 11 ven
: 406 4 9  ba
: 411 2 11 by
- 413
: 413 3 6  On
: 416 2 9  the
: 419 6 11  wings
: 425 7 2  of
: 432 2 9  lo
: 435 4 6 ve
- 441
: 468 2 11  I
: 471 2 11  will
: 474 4 9  ne
: 478 4 11 ver
: 488 2 11  no
: 491 4 11  I'll
: 495 4 11  ne
: 499 4 6 ver
- 505
: 510 2 9  I
: 512 2 11  will
: 515 2 14  ne
: 517 2 9 ver
: 519 2 9  lose
: 522 2 11  my
: 525 2 14  wa
: 527 2 9 y
: 530 2 11  a
: 532 2 11 gain
: 534 8 9 - 
- 544
: 554 4 18  Ooooh
: 559 2 14  yeah
: 561 2 11 - 
- 565
: 574 2 18  I
: 577 2 18  thought
: 580 2 18  you'd
: 582 2 18  soon
: 585 2 18  be
: 587 2 18  my
: 590 2 18  gi
: 592 6 16 rl
- 600
: 604 2 9  But
: 606 2 9  my
: 609 2 9  im
: 611 2 21 ag
: 614 2 18 i
: 616 2 18 na
: 619 2 18 tion
: 621 2 18  was
: 624 2 18  run
: 626 2 18 ning
: 628 3 18  wi
: 631 6 16 ld
- 639
: 652 2 18  I
: 655 2 18  would
: 657 2 18 n't
: 660 2 18  list
: 662 2 18 en
: 664 2 18  to
: 667 2 18  a
: 669 4 21  sin
: 674 2 18 gle
: 677 2 18  soul
: 679 2 16 - 
- 683
: 688 5 23  Deep
: 693 2 18  in
: 696 2 18  a
: 698 2 18  sense
: 701 2 18  of
: 704 2 18  de
: 706 3 18 ni
: 709 8 16 al
- 719
: 730 2 23  But
: 732 3 23  then
: 735 2 23  you
: 737 2 23  re
: 739 2 23 scued
: 742 2 23  me
: 744 4 21  ba
: 749 4 23 by
- 755
: 768 2 23  O
: 771 2 23 pened
: 773 2 23  my
: 776 2 23  eyes
: 778 3 23  and
: 781 2 23  made
: 783 2 23  me
: 786 4 25  see
: 791 3 21  you
: 794 3 21  babe
: 797 1 19 - 
: 798 1 18 - 
- 801
: 814 2 18  What
: 817 2 19  re
: 819 2 18 al
: 822 6 21  love
: 828 3 18  can
: 831 2 18  be
: 834 2 16 - 
- 838
: 844 2 23  You're
: 846 2 23  the
: 848 2 23  an
: 851 2 23 gel
: 853 2 23  that
: 856 2 23  I
: 858 2 18 - 
: 860 8 21  need
- 870
: 875 2 9  I
: 878 4 14  found
: 882 7 13  hea
: 890 6 11 ven
: 896 5 14  sweet
: 902 4 13  hea
: 906 2 11 ven
: 909 5 9  ba
: 914 2 11 by
- 916
: 916 2 6  On
: 918 3 9  the
: 921 6 11  wings
: 929 7 2  of
: 936 2 9  lo
: 938 4 6 ve
- 944
: 952 2 9  I
: 955 4 14  found
: 960 6 13  hea
: 967 4 11 ven
: 974 5 14  sweet
: 979 4 13  hea
: 983 3 11 ven
: 986 4 9  ba
: 991 2 11 by
- 994
: 994 2 6  On
: 996 3 9  the
: 999 6 11  wings
: 1005 7 2  of
: 1012 3 9  lo
: 1015 4 6 ve
- 1021
: 1049 2 11  I
: 1051 3 11  will
: 1054 4 9  ne
: 1058 5 11 ver
: 1069 2 11  no
: 1071 4 11  I'll
: 1075 4 11  ne
: 1080 5 6 ver
- 1087
: 1090 2 9  I
: 1092 2 11  will
: 1095 2 14  ne
: 1097 2 9 ver
: 1099 2 9  lose
: 1102 2 11  my
: 1105 2 14  wa
: 1107 2 9 y
: 1110 2 11  a
: 1112 2 11 gain
: 1114 2 9 - 
- 1118
: 1131 4 18  Oh
: 1137 5 14  sweet
: 1143 2 14  ba
: 1147 4 18 by
- 1153
: 1307 9 14  Oh
: 1321 2 14  I
: 1324 2 16  see
: 1327 2 17  hea
: 1329 2 19 ven
: 1332 2 16  in
: 1334 2 17  your
: 1337 4 14  eyes
: 1342 2 12  with
: 1344 4 14  m
: 1348 3 12 e
: 1353 2 9  Yeah
: 1356 2 9  ye
: 1358 2 12 ah
- 1362
: 1368 7 16  Oh
: 1375 4 14  ba
: 1380 5 12 by
- 1385
: 1385 2 14  No
: 1388 2 12 w
: 1390 2 9 - 
: 1400 2 14  I
: 1402 2 16  will
: 1404 2 17  give
: 1407 2 19  my
: 1409 2 16  lovi
: 1412 2 14 n'
: 1414 4 16  faith
: 1419 3 14 ful
: 1422 8 16 ly
- 1432
: 1448 3 14  sweet
: 1453 2 14  ba
: 1456 4 18 by
- 1462
: 1467 2 18  Be
: 1470 1 14  my
: 1472 2 14  an
: 1476 2 18 gel
- 1480
: 1482 6 13  Hea
: 1488 8 11 ven
: 1496 5 14  sweet
: 1501 4 13  hea
: 1506 2 11 ven
: 1508 5 9  ba
: 1513 2 11 by
- 1515
: 1515 2 6  On
: 1518 2 9  the
: 1520 8 11  wings
: 1528 8 2  of
: 1536 2 9  lo
: 1538 6 6 ve
- 1546
: 1551 3 9  I
: 1554 5 14  found
: 1559 7 13  hea
: 1566 7 11 ven
: 1574 5 14  sweet
: 1579 5 13  hea
: 1584 2 11 ven
: 1586 4 9  ba
: 1590 3 11 by
- 1593
: 1593 2 6  On
: 1596 2 9  the
: 1598 6 11  wings
: 1604 6 2  of
: 1611 3 9  lo
: 1614 4 6 ve
E