#TITLE:Simarik
#ARTIST:Tarkan
#MP3:Tarkan - Simarik.mp3
#VIDEO:Tarkan - Simarik [VD#0].avi
#COVER:Tarkan - Simarik [CO].jpg
#BACKGROUND:Tarkan - Simarik [CO].jpg
#BPM:194,2
#GAP:695,16
#VIDEOGAP:0
#ENCODING:UTF8
#EDITION:SS TurkishParty
: 0 7 41 Öpücük
- 9
: 265 3 64 Tak
: 269 2 64 mis
: 273 1 62  ko
: 275 1 62 lu
: 277 3 62 na
- 281
: 281 1 60 E
: 283 1 60 lin
: 285 1 60  a
: 287 1 60 da
: 289 1 59 mi
: 291 1 59 ni
: 293 1 59  be
: 295 1 59 ni
- 297
: 297 2 57 Or
: 301 1 57 ta
: 303 1 57  ye
: 305 2 55 rim
: 308 1 55 den
- 310
* 312 3 55 Çat
: 317 2 52 la
: 319 1 55 ti
: 321 4 57 yor
- 327
: 329 2 64 Ag
: 333 2 64 zin
: 337 1 62 da
: 339 1 62  sa
: 341 1 62 ki
: 343 1 62 zi
- 345
: 345 1 60 Si
: 347 1 60 si
: 349 2 60 rip,
: 352 2 59  si
: 355 1 59 si
: 357 3 59 rip
- 361
: 361 2 57 Ar
: 365 2 57 siz,
* 369 2 55  ar
: 373 2 55 siz
- 376
: 377 3 55 Pat
: 381 1 52 la
: 383 1 55 ti
: 385 4 57 yor
- 391
: 393 3 60 Biz
: 397 4 60  böy
: 401 2 60 le
: 403 2 60  mi
: 405 2 62  gör
: 409 3 59 dük
- 413
: 413 1 59 Ba
: 415 1 59 ba
: 417 3 59 miz
: 421 2 57 dan
: 423 1 55 ~
- 425
: 425 1 60 E
: 427 1 60 le
: 429 1 60  gü
: 431 1 60 ne
: 433 4 60  re
: 437 2 64 zil
: 441 3 64  ol
: 444 3 62 ~
: 447 4 62 duk
- 453
: 457 1 60 Ye
: 459 1 60 ni
: 461 1 60  a
: 463 2 59 ~
: 465 2 60 det
: 469 3 62  gel
: 473 1 59 mis
- 475
: 475 2 59 Es
: 479 1 59 ki
: 481 1 59  kö
: 483 1 59 ye
: 485 2 55  vah
- 488
: 489 2 60 Dost
: 493 2 60 lar
: 495 1 59 ~
- 497
: 497 2 60 Mah
: 499 1 59 ~
: 501 2 62 vol
: 505 6 59 ~
: 511 2 60 duk
: 513 6 59 ~
: 519 2 60 ~
: 521 2 59 ~
: 523 2 60 ~
: 525 2 59 ~
: 527 2 60 ~
: 529 2 59 ~
* 531 2 60 ~
: 533 2 59 ~
: 535 2 60 ~
: 537 2 59 ~
- 541
: 553 1 57 Se
: 555 1 57 ni
: 557 1 57  gi
: 559 1 57 di
- 561
: 561 2 60 Fin
: 565 4 60 dik
: 569 1 59 ki
: 571 2 60 ran
: 573 2 59 ~
: 575 2 60 ~
: 577 3 59 ~
- 581
: 581 1 59 Yi
: 582 2 57 la
: 585 2 55 ni
: 589 1 55  de
: 591 1 55 li
: 593 2 59 gin
: 597 3 59 den
- 601
: 601 2 57 Çi
: 603 2 59 ka
: 605 2 57 ran
: 607 2 59 ~
: 609 2 57 ~
: 611 2 59 ~
: 613 3 57 ~
- 617
: 617 1 57 Ka
: 619 1 57 de
: 621 3 57 rim
- 625
: 625 2 60 Püs
: 629 2 62 kül
: 631 2 60 ~
: 633 1 59 lü
- 635
: 635 2 60 Be
: 637 1 59 lam
: 639 2 60 ~
: 641 2 59 ~
: 643 2 60 ~
: 645 2 59 ~
: 647 1 57 ~
: 649 2 55 ~
- 652
: 653 1 55 Ya
: 655 1 55 ka
: 657 2 59 lar
* 661 3 59 sam
- 666
: 668 2 48 Öpücük,
: 673 2 48  öpücük
- 677
: 681 1 57 Se
: 683 1 57 ni
: 685 1 57  gi
: 687 1 57 di
- 689
: 689 2 60 Fin
: 693 2 60 dik
: 697 2 59 ki
: 699 2 60 ~
: 701 2 59 ran
: 703 2 60 ~
: 705 2 59 ~
: 707 1 60 ~
- 709
: 709 2 59 Yi
: 711 2 57 la
: 713 3 55 ni
: 717 1 55  de
: 719 1 55 li
: 721 2 59 gin
: 725 3 59 den
- 729
: 729 2 57 Çi
: 731 2 59 ka
: 733 2 57 ran
: 735 2 59 ~
: 737 2 57 ~
: 739 2 59 ~
: 741 2 57 ~
- 744
: 745 1 57 Ka
: 747 1 57 de
: 749 3 57 rim
: 753 2 60  püs
: 757 2 62 kül
: 759 2 60 ~
: 761 1 59 lü
- 763
: 763 2 60 Be
: 765 1 59 lam
: 767 2 60 ~
: 769 2 59 ~
* 771 2 60 ~
: 773 2 59 ~
: 775 2 57 ~
: 777 2 55 ~
- 780
: 781 1 55 Ya
: 783 1 55 ka
: 785 2 59 lar
: 789 3 59 sam
- 794
: 797 2 48 Öpücük,
: 801 2 48  öpücük
- 805
: 937 2 64 Tak
: 941 3 64 mis
: 945 1 62  ko
: 947 1 62 lu
: 949 3 62 na
- 953
: 953 1 60 E
: 955 1 60 lin
: 957 1 60  a
: 959 1 60 da
: 961 1 59 mi
: 963 1 59 ni
: 965 1 59  be
: 967 1 59 ni
- 969
: 969 2 57 Or
: 973 1 57 ta
: 975 2 57  ye
: 978 2 55 rim
: 981 1 55 den
- 983
: 985 2 55 Çat
: 989 1 52 la
: 991 1 55 ti
: 993 5 57 yor
- 1000
: 1002 2 64 Ag
: 1005 2 64 zin
: 1009 1 62 da
: 1011 1 62  sa
: 1013 1 62 ki
: 1015 1 62 zi
- 1017
: 1017 1 60 Si
: 1019 1 60 si
: 1021 3 60 rip,
: 1025 2 59  si
: 1027 2 59 si
: 1029 4 59 rip
- 1034
: 1034 2 57 Ar
: 1037 3 57 siz,
: 1041 2 55  ar
: 1045 2 55 siz
- 1048
: 1049 2 55 Pat
: 1053 1 52 la
: 1055 1 55 ti
: 1057 4 57 yor
- 1063
: 1065 3 60 Biz
: 1069 4 60  böy
: 1073 2 60 le
: 1075 2 60  mi
: 1077 2 62  gör
: 1081 3 59 dük
- 1085
: 1085 1 59 Ba
: 1087 1 59 ba
: 1089 3 59 miz
: 1093 2 57 dan
: 1095 1 55 ~
- 1097
: 1097 1 60 E
: 1099 1 60 le
: 1101 1 60  gü
: 1103 1 60 ne
: 1105 4 60  re
: 1109 4 64 zil
: 1113 3 62  ol
: 1116 3 62 ~
: 1119 4 62 duk
- 1125
: 1129 1 60 Ye
: 1131 1 60 ni
: 1133 1 60  a
: 1135 1 60 ~
: 1137 2 60 det
: 1141 3 62  gel
: 1145 1 59 mis
- 1147
: 1147 2 59 Es
: 1151 1 59 ki
: 1153 1 59  kö
: 1155 1 59 ye
: 1157 2 55  vah
- 1160
: 1161 2 60 Dost
: 1165 2 60 lar
: 1167 1 59 ~
- 1169
: 1169 2 60 Mah
: 1171 1 59 ~
: 1173 2 62 vol
: 1177 6 59 duk
: 1183 2 60 ~
: 1185 6 59 ~
: 1191 2 60 ~
: 1193 2 59 ~
: 1195 2 60 ~
: 1197 2 59 ~
: 1199 2 60 ~
: 1201 2 59 ~
: 1203 2 60 ~
: 1205 2 59 ~
: 1207 2 60 ~
: 1209 2 59 ~
- 1213
: 1225 1 57 Se
: 1227 1 57 ni
: 1229 1 57  gi
: 1231 1 57 di
- 1233
: 1233 2 60 Fin
: 1237 4 60 dik
: 1241 1 59 ki
: 1243 2 60 ran
: 1245 2 59 ~
: 1247 2 60 ~
: 1249 3 59 ~
- 1253
: 1253 1 59 Yi
: 1254 2 57 la
: 1257 2 55 ni
: 1261 1 55  de
: 1263 1 55 li
: 1265 2 59 gin
: 1269 3 59 den
- 1273
: 1273 2 57 Çi
: 1275 2 59 ka
: 1277 2 57 ran
: 1279 2 59 ~
: 1281 2 57 ~
: 1283 2 59 ~
: 1285 3 57 ~
- 1289
: 1289 1 57 Ka
: 1291 1 57 de
: 1293 3 57 rim
- 1297
: 1297 2 60 Püs
: 1301 2 62 kül
: 1303 1 60 ~
: 1305 1 59 lü
- 1307
: 1307 2 60 Be
: 1309 1 59 lam
: 1311 2 60 ~
: 1313 2 59 ~
: 1315 2 60 ~
: 1317 2 59 ~
: 1319 1 57 ~
: 1321 2 55 ~
- 1324
: 1325 1 55 Ya
: 1327 1 55 ka
: 1329 2 59 lar
: 1333 3 59 sam
- 1338
: 1342 2 48 Öpücük,
: 1346 2 48  öpücük
- 1350
* 1353 1 57 Se
: 1355 1 57 ni
: 1357 1 57  gi
: 1359 1 57 di
- 1361
: 1361 2 60 Fin
: 1365 2 60 dik
: 1369 2 59 ki
: 1371 2 60 ~
: 1373 2 59 ran
: 1375 2 60 ~
: 1377 2 59 ~
: 1379 1 60 ~
- 1381
: 1381 2 59 Yi
: 1383 2 57 la
: 1385 3 55 ni
: 1389 1 55  de
: 1391 1 55 li
: 1393 2 59 gin
: 1397 3 59 den
- 1401
: 1401 2 57 Çi
: 1403 2 59 ka
: 1405 2 57 ran
: 1407 2 59 ~
: 1409 2 57 ~
: 1411 2 59 ~
: 1413 2 57 ~
- 1416
: 1417 1 57 Ka
: 1419 1 57 de
: 1421 3 57 rim
: 1425 2 60  püs
: 1429 2 62 kül
: 1431 2 60 ~
: 1433 1 59 lü
- 1435
: 1435 2 60 Be
: 1437 1 59 lam
: 1439 2 60 ~
: 1441 2 59 ~
: 1443 2 60 ~
: 1445 2 59 ~
: 1447 2 57 ~
: 1449 2 55 ~
- 1452
: 1453 1 55 Ya
: 1455 1 55 ka
: 1457 2 59 lar
: 1461 3 59 sam
- 1466
: 1469 2 48 Öpücük,
: 1473 2 48  öpücük
- 1477
: 1481 1 57 O
: 1483 1 57 ca
: 1485 1 57 gi
: 1487 2 59 na
: 1489 2 60  düs
: 1493 4 60 tüm
: 1497 6 57  yav
: 1503 2 60 ru
- 1507
: 1513 1 57 Ku
: 1515 1 57 ca
: 1517 2 57 gi
: 1519 1 59 na
: 1521 2 60  düs
: 1525 3 60 tüm
: 1529 3 59  yav
: 1534 3 59 ru
- 1539
: 1544 1 57 Si
: 1546 1 57 ca
: 1548 2 57 gi
: 1550 1 59 na
: 1552 2 60  düs
: 1557 2 60 tüm
: 1561 4 60  yav
: 1567 2 60 ru
- 1571
: 1573 2 62 El
: 1575 2 60  a
: 1577 2 59 man
: 1579 2 60 ~
: 1581 2 59 ~
: 1583 2 60 ~
: 1585 2 59 ~
: 1587 2 60 ~
* 1589 2 59 ~
: 1591 2 60 ~
: 1593 2 59 ~
: 1595 2 60 ~
: 1597 2 62 ~
: 1599 2 60 ~
: 1601 2 59 ~
: 1603 2 57 ~
: 1605 2 59 ~
- 1608
: 1609 1 57 O
: 1611 1 57 ca
: 1613 1 57 gi
: 1615 1 59 na
: 1617 2 60  düs
: 1621 3 60 tüm
: 1625 6 57  yav
: 1631 2 60 ru
- 1635
: 1641 1 57 Ku
: 1643 1 57 ca
: 1645 1 57 gi
: 1647 1 59 na
: 1649 2 60  düs
: 1653 2 60 tüm
: 1657 4 59  yav
* 1663 2 59 ru
- 1667
: 1673 1 57 Si
: 1675 1 57 ca
: 1677 1 57 gi
: 1679 1 59 na
: 1681 2 60  düs
: 1685 2 60 tüm
: 1689 4 57  yav
: 1695 2 60 ru
- 1699
: 1701 2 62 El
: 1703 2 60  a
: 1705 2 59 man
: 1707 2 60 ~
: 1709 2 59 ~
: 1711 2 60 ~
: 1713 2 59 ~
: 1715 2 60 ~
: 1717 2 59 ~
: 1719 2 60 ~
: 1721 2 59 ~
- 1725
: 1931 1 57 Se
: 1933 1 57 ni
: 1935 1 57  gi
: 1937 1 57 di
- 1939
: 1939 2 60 Fin
: 1943 4 60 dik
: 1947 2 59 ki
: 1949 2 60 ran
: 1951 2 59 ~
: 1953 2 60 ~
: 1955 2 59 ~
: 1957 1 60 ~
- 1959
: 1959 2 59 Yi
: 1961 2 57 la
: 1963 2 55 ni
: 1967 1 55  de
: 1969 1 55 li
: 1971 2 59 gin
: 1974 4 59 den
- 1979
: 1979 1 57 Çi
: 1980 2 59 ka
: 1983 2 57 ran
: 1985 1 59 ~
: 1986 2 57 ~
: 1988 2 59 ~
: 1990 2 57 ~
- 1993
: 1995 2 57 Ka
: 1998 1 57 de
: 2000 1 57 rim
- 2002
: 2002 2 60 Püs
: 2006 2 62 kül
: 2008 2 60 ~
: 2011 1 59 lü
- 2013
: 2013 2 60 Be
: 2015 2 59 lam
: 2017 1 60 ~
: 2018 2 59 ~
: 2020 2 60 ~
: 2022 2 59 ~
: 2024 2 57 ~
: 2026 2 55 ~
- 2029
: 2031 1 55 Ya
: 2033 1 55 ka
: 2035 1 59 lar
: 2038 2 59 sam
- 2042
: 2047 2 48 Öpücük,
: 2051 2 48  öpücük
- 2055
: 2059 1 57 Se
: 2061 1 57 ni
: 2063 1 57  gi
: 2065 1 57 di
- 2067
: 2067 1 60 Fin
: 2071 4 60 dik
: 2075 2 59 ki
: 2077 2 60 ran
: 2079 2 59 ~
: 2081 2 60 ~
: 2083 2 59 ~
: 2085 1 60 ~
- 2087
: 2087 2 59 Yi
: 2089 2 57 la
: 2091 1 55 ni
: 2095 1 55  de
: 2097 1 55 li
: 2099 1 59 gin
: 2103 3 59 den
- 2107
: 2107 2 57 Çi
: 2109 2 59 ka
: 2111 2 57 ran
: 2113 2 59 ~
: 2115 2 57 ~
: 2117 2 59 ~
: 2119 1 57 ~
- 2121
: 2123 1 57 Ka
: 2125 1 57 de
: 2127 2 57 rim
- 2130
: 2131 2 60 Püs
: 2134 2 62 kül
: 2136 2 60 ~
: 2138 2 59 lü
- 2141
: 2141 2 60 Be
: 2143 2 59 lam
: 2145 2 60 ~
: 2147 2 59 ~
: 2149 2 60 ~
: 2151 1 59 ~
: 2152 3 57 ~
: 2155 1 55 ~
- 2157
: 2159 1 55 Ya
: 2161 1 55 ka
: 2163 1 59 lar
: 2166 2 59 sam
- 2170
: 2175 1 48 Öpücük,
: 2179 1 48  öpücük
- 2182
: 2187 1 57 Se
: 2189 1 57 ni
: 2191 1 57  gi
: 2193 1 57 di
- 2195
: 2195 1 60 Fin
: 2199 4 60 dik
: 2203 1 59 ki
: 2205 2 60 ran
: 2207 2 59 ~
: 2209 2 60 ~
: 2211 2 59 ~
: 2213 1 60 ~
- 2215
: 2215 2 59 Yi
: 2217 2 57 la
: 2219 2 55 ni
: 2223 1 55  de
: 2225 1 55 li
: 2227 2 59 gin
: 2231 3 59 den
- 2235
: 2235 2 57 Çi
: 2237 2 59 ka
: 2239 2 57 ran
: 2241 2 59 ~
: 2243 2 57 ~
: 2245 2 59 ~
: 2247 1 57 ~
- 2249
: 2251 1 57 Ka
: 2253 1 57 de
: 2255 2 57 rim
- 2258
: 2259 2 60 Püs
: 2262 2 62 kül
* 2264 2 60 ~
: 2266 2 59 lü
- 2269
: 2269 2 60 Be
: 2271 2 59 lam
: 2273 2 60 ~
: 2275 2 59 ~
: 2277 2 60 ~
: 2279 2 59 ~
: 2281 2 57 ~
: 2283 2 55 ~
- 2286
: 2287 1 55 Ya
: 2289 1 55 ka
: 2291 1 59 lar
: 2295 2 59 sam
- 2299
: 2303 1 48 Öpücük,
: 2307 1 48  öpücük
- 2310
: 2315 1 57 Se
: 2317 1 57 ni
: 2319 1 57  gi
: 2321 1 57 di
- 2323
: 2323 2 60 Fin
: 2326 4 60 dik
: 2332 2 59 ki
: 2334 2 60 ran
: 2336 1 59 ~
: 2337 2 60 ~
: 2339 2 59 ~
: 2341 1 60 ~
- 2343
: 2343 2 59 Yi
: 2345 2 57 la
: 2347 2 55 ni
: 2351 1 55  de
: 2353 1 55 li
: 2355 3 59 gin
: 2359 2 59 den
- 2362
: 2363 2 57 Çi
: 2365 2 59 ka
: 2367 2 57 ran
: 2369 2 59 ~
: 2371 2 57 ~
: 2373 2 59 ~
: 2375 2 57 ~
- 2378
: 2379 1 57 Ka
: 2381 1 57 de
: 2383 2 57 rim
- 2386
: 2387 2 60 Püs
: 2390 2 62 kül
: 2392 2 60 ~
: 2394 2 59 lü
- 2397
: 2397 2 60 Be
: 2400 2 59 lam
: 2402 2 60 ~
: 2404 1 59 ~
: 2405 2 60 ~
: 2407 2 59 ~
: 2409 2 57 ~
: 2411 1 55 ~
- 2413
: 2415 1 55 Ya
* 2417 1 55 ka
: 2419 1 59 lar
: 2423 4 59 sam
: 2427 7 57 ~
- 2435
F 2435 2 48 Öpücük
E