#TITLE:Our Song
#ARTIST:Taylor Swift
#LANGUAGE:English
#EDITION:SingStar Country
#GENRE:Country
#YEAR:2007
#MP3:Taylor Swift - Our Song.mp3
#COVER:Taylor Swift - Our Song [CO].jpg
#BACKGROUND:Taylor Swift - Our Song [BG].jpg
#BPM:178,08
#GAP:13055,93
: 0 2 62 I
: 2 2 59  was
: 4 2 62  ri
: 6 2 59 din'
: 8 2 62  shot
: 12 2 62 gun
- 15
: 15 2 62 With
: 17 2 59  my
: 19 2 62  hair
: 23 2 62  un
: 27 3 62 done
- 31
: 31 2 62 In
: 33 2 59  the
: 35 3 62  front
: 39 2 62  seat
: 43 2 62  of
: 46 2 62  his
: 50 4 57  car
- 56
: 61 2 59 He's
: 63 2 62  got
: 65 2 59  a
: 67 3 62  one
: 71 3 62  hand
: 75 2 58  feel
- 78
: 80 2 62 On
: 82 2 59  the
: 86 1 62  steer
: 88 2 62 in'
: 90 3 59  wheel
- 95
: 98 2 59 The
: 100 2 62  o
: 102 2 59 ther
: 106 3 62  on
: 111 3 59  my
: 114 2 57 ~
: 120 2 64  heart
: 122 2 66 ~
: 124 4 64 ~
* 128 5 62 ~
- 134
: 134 2 59 I
: 136 2 62  look
: 138 2 59  a
: 140 3 62 round
- 144
: 144 2 62 Turn
: 146 2 59  the
: 148 2 62  ra
: 150 2 59 di
: 152 3 62 o
: 156 1 62  down
- 158
: 158 2 59 He
: 160 3 62  says
: 164 2 59  ba
: 166 1 62 by
: 168 1 62  is
: 170 2 62  some
: 174 4 59 thin'
: 178 8 57  wrong?
- 188
: 194 2 59 I
: 196 3 62  say
: 200 3 66  no
: 204 3 62 thin'
- 208
: 208 2 62 I
: 210 2 59  was
: 212 3 62  just
: 216 3 66  think
: 220 3 62 in'
- 224
: 224 2 62 How
: 226 2 59 ~
: 228 2 62  we
: 231 2 64  don't
: 234 2 57  have
: 237 2 55  a
* 240 13 57  song
- 255 256
: 264 2 57 And
: 266 3 59  he
: 270 5 62  says
- 277
: 280 3 69 Our
: 284 2 69  song
: 288 2 69  is
: 290 2 66  the
: 292 2 69  slam
: 294 2 66 min'
: 296 3 69  screen
: 300 4 71  door
- 306
: 308 2 69 Sneak
: 310 2 71 in'
: 312 4 66  out
: 316 3 64  late
- 320
: 320 2 62 Tap
: 322 2 59 pin'
: 324 3 62  on
: 328 3 62  your
: 332 3 64  win
: 336 4 66 dow
- 342
: 344 2 62 When
: 346 2 64  we're
: 348 3 66  on
: 352 1 66  the
: 354 4 66  phone
- 359
: 360 2 62 And
: 362 2 59  you
: 364 2 62  talk
: 368 2 61  real
: 370 3 62 ~
: 376 2 59  slow
: 378 2 57 ~
- 382
: 384 2 62 'Cause
: 386 2 64  it's
: 388 2 66  late
- 391
: 392 2 62 And
: 394 2 64  your
: 396 2 66  ma
: 398 2 64 ma
: 400 2 62  don't
: 404 3 62  know
- 408
: 408 2 69 Our
: 412 2 69  song
: 416 2 69  is
: 418 2 66  the
: 420 3 69  way
: 424 2 69  you
: 426 4 71  laugh
- 432
: 434 2 64 The
: 436 2 71  first
: 440 3 66  date
- 444
: 444 1 64 Man
: 446 1 64  I
: 448 2 62  did
: 450 1 59 n't
: 452 2 62  kiss
: 454 1 59  her
- 456
: 456 1 62 And
: 458 1 62  I
: 460 3 62  should
: 464 2 59  have
: 466 2 57 ~
- 470
: 476 3 62 And
: 480 3 64  when
: 484 4 66  I
: 488 2 64 ~
: 492 6 62  got
: 500 4 57  home
- 506
: 508 3 62 'Fore
: 512 3 64  I
: 516 4 66  said
: 520 4 64 ~
: 524 6 62  a
: 532 3 62 men
- 537
: 540 3 62 Ask
: 544 2 64 ing
: 548 4 66  God
: 552 3 64 ~
: 556 3 62  if
: 560 12 62  he
- 574
: 576 3 59 Could
: 580 3 66  play
: 584 2 59  it
: 588 2 59  a
: 592 4 59 gain
: 596 3 57 ~
- 601 644
: 664 2 62 I
: 666 2 59  was
: 668 2 62  walk
: 670 2 59 in'
: 672 2 62  up
: 674 1 59  the
- 676
: 676 2 62 Front
: 680 2 62  porch
: 684 3 57  steps
- 688
: 688 2 62 Af
: 690 2 59 ter
: 694 2 62  e
: 698 3 64 very
: 702 3 62 thin'
: 706 3 59  that
: 710 6 57  day
- 718
: 722 2 59 Had
: 724 1 62  gone
: 726 2 62  all
: 730 3 59  wrong
- 734
: 734 2 59 And
: 736 2 62  been
* 740 3 69  tram
: 744 3 66 pled
: 748 2 64  on
: 750 1 62 ~
- 752
: 752 2 62 And
: 754 2 59  ah
: 756 2 62  lost
: 760 2 59  and
: 764 6 62  thrown
: 770 2 59  a
: 776 2 64 way
: 778 2 66 ~
: 780 4 64 ~
: 784 3 62 ~
- 788
: 788 2 62 Got
: 792 2 62  to
: 794 2 59  the
: 796 4 62  hall
: 800 2 59 way
- 803
: 804 1 62 Well
: 806 2 62  on
: 810 3 66  my
: 814 3 62  way
- 818
: 820 2 62 To
: 822 3 64  my
: 826 2 62  lov
: 830 2 59 in'
: 834 5 57  bed
- 841 842
: 850 2 59 I
: 852 2 62  al
: 854 2 59 most
: 856 2 62  did
: 858 2 59 n't
* 860 3 66  no
: 864 3 62 tice
- 868
: 868 3 62 All
: 872 3 59  the
: 876 3 66  ro
: 880 3 62 ses
- 884
: 884 2 62 And
: 886 3 59  the
: 890 4 62  note
: 896 3 59  that
: 904 2 64  said
: 906 2 66 ~
: 908 4 64 ~
: 912 3 62 ~
- 917
: 920 3 69 Our
: 924 2 69  song
: 928 2 69  is
: 930 2 66  the
: 932 2 69  slam
: 934 2 66 min'
: 936 3 69  screen
: 940 4 71  door
- 946
: 948 2 69 Sneak
: 950 2 71 in'
: 952 4 66  out
: 956 3 64  late
- 960
: 960 2 62 Tap
: 962 2 59 pin'
: 964 3 62  on
: 968 3 62  your
: 972 3 64  win
: 976 4 66 dow
- 982
: 984 2 62 When
: 986 2 64  we're
: 988 3 66  on
: 992 1 66  the
: 994 4 66  phone
- 999
: 1000 2 62 And
: 1002 2 59  you
: 1004 2 62  talk
: 1008 2 61  real
: 1010 3 62 ~
: 1016 2 59  slow
: 1018 2 57 ~
- 1022
: 1024 2 62 'Cause
: 1026 2 64  it's
: 1028 2 66  late
- 1031
: 1032 2 62 And
: 1034 2 64  your
* 1036 2 66  ma
: 1038 2 64 ma
: 1040 2 62  don't
: 1044 3 62  know
- 1048
: 1048 2 69 Our
: 1052 2 69  song
: 1056 2 69  is
: 1058 2 66  the
: 1060 3 69  way
: 1064 2 69  you
: 1066 4 71  laugh
- 1072
: 1074 2 69 The
: 1076 2 71  first
: 1080 3 66  date
- 1084
: 1084 1 64 Man
: 1086 1 64  I
: 1088 2 62  did
: 1090 1 59 n't
: 1092 2 62  kiss
: 1094 1 59  her
- 1096
: 1096 1 62 And
: 1098 1 62  I
: 1100 3 62  should
: 1104 2 59  have
: 1106 2 57 ~
- 1110
: 1116 3 62 And
: 1120 3 64  when
: 1124 4 66  I
: 1128 2 64 ~
: 1132 6 62 got
: 1140 4 57  home
- 1146
: 1148 3 62 'Fore
: 1152 3 64  I
: 1156 4 66  said
: 1160 4 64 ~
: 1164 6 62  a
: 1172 3 62 men
- 1177
: 1180 3 62 Ask
: 1184 2 64 in'
: 1188 4 66  God
: 1192 3 64 ~
: 1196 3 62  if
: 1200 8 62  he
- 1210
: 1216 3 59 Could
: 1220 3 66  play
: 1224 2 59  it
: 1228 2 59  a
: 1232 4 59 gain
: 1236 3 57 ~
- 1241 1268
: 1288 2 64 Da
: 1290 2 66  da
: 1292 4 64  da
: 1296 11 62  da
- 1309 1356
: 1376 2 69 I've
: 1380 2 67  heard
: 1382 5 69 ~
: 1388 4 69  e
: 1392 3 66 very
: 1396 4 69  al
: 1400 3 66 bum
- 1404
: 1404 3 69 Lis
: 1408 3 66 tened
: 1412 3 71  to
: 1416 2 69  the
: 1420 3 69  ra
: 1424 3 69 di
: 1428 3 62 o
- 1433
: 1440 4 64 Wait
: 1444 3 66 ~
: 1448 2 66 ed
: 1452 3 66  for
: 1456 2 64  some
: 1458 2 66 ~
: 1460 3 64 ~
: 1464 3 64 thin'
- 1468
: 1468 2 62 To
: 1472 4 66  come
: 1476 2 62  a
: 1480 6 62 long
: 1486 2 61 ~
- 1490 1491
: 1502 2 59 That
: 1504 2 62  was
: 1506 2 59  as
: 1508 2 62  good
: 1511 2 59  as
: 1515 2 64  our
: 1517 2 66 ~
: 1522 12 57  song
- 1536
: 1542 2 66 'Cause
: 1544 3 69  our
: 1548 3 69  song
- 1552
: 1552 2 69 Is
: 1554 2 66  the
: 1556 2 69  slam
: 1558 2 66 min'
: 1560 3 69  screen
: 1564 5 71  door
- 1570
: 1572 2 69 Sneak
: 1574 2 71 in'
: 1576 2 66  out
: 1580 3 64  late
- 1584
: 1584 2 62 Tap
: 1586 2 59 pin'
: 1588 3 62  on
: 1594 3 62  his
: 1598 2 59  ah
: 1600 2 62  win
: 1604 2 59 dow
: 1606 1 57 ~
- 1608
: 1608 1 57 When
: 1610 1 57  we're
: 1612 3 66  on
: 1616 1 66  the
* 1618 4 66  phone
- 1623
: 1624 2 62 And
: 1626 2 59  he
: 1628 2 62  talks
- 1631
F 1632 3 79 Real
F 1636 3 79  slow
- 1641
: 1648 2 62 'Cause
: 1650 2 64  it's
: 1652 2 66  late
- 1655
: 1656 2 62 And
: 1658 2 64  his
: 1660 2 66  ma
: 1662 2 64 ma
: 1664 2 62  don't
: 1668 3 62  know
- 1672
: 1672 3 69 Our
: 1676 2 69  song
: 1680 2 69  is
: 1682 2 66  the
: 1684 1 69  way
: 1686 3 69  he
: 1690 3 71  laughs
- 1695
: 1698 2 69 The
: 1700 3 71  first
: 1704 3 66  date
- 1708
: 1708 1 64 Man
: 1710 1 64  I
: 1712 1 62  did
: 1714 1 59 n't
: 1716 2 62  kiss
: 1718 1 59  him
- 1720
: 1720 2 62 And
: 1722 1 59  I
: 1724 3 62  should
: 1728 2 59  have
: 1730 2 57 ~
- 1734
: 1740 3 62 And
: 1744 3 64  when
: 1748 4 66  I
: 1752 2 64 ~
: 1756 6 62  got
* 1764 4 57  home
- 1770
: 1772 3 62 'Fore
: 1776 3 64  I
: 1780 4 66  said
: 1784 4 64 ~
: 1788 6 62  a
: 1796 3 62 men
- 1801
: 1804 3 62 Ask
: 1808 2 64 ing
: 1812 4 66  God
: 1816 3 64 ~
: 1820 3 62  if
: 1824 10 62  he
- 1836
: 1840 3 59 Could
: 1844 3 66  play
: 1848 3 64  it
: 1852 3 62  a
: 1856 2 62 gain
: 1858 6 64 ~
: 1864 2 66 ~
: 1866 2 64 ~
* 1868 12 62 ~
: 1880 2 64 ~
: 1882 2 66 ~
: 1888 8 62 ~
: 1896 4 59 ~
- 1902
: 1910 2 62 Ah
: 1912 2 64  play
: 1914 2 66 ~
: 1916 2 62  it
: 1920 2 62  a
: 1924 4 62 gain
: 1928 4 64 ~
: 1932 4 62 ~
: 1936 8 64 ~
: 1944 3 66 ~
: 1952 12 64 ~
: 1964 4 62 ~
: 1968 6 64 ~
- 1975
: 1976 4 66 Ho
: 1980 4 64 ~
* 1984 6 66  yeah
: 1990 2 64 ~
: 1992 2 62 ~
: 1994 2 64 ~
: 1996 6 62 ~
- 2004
: 2008 4 64 Ho
: 2012 2 66 ~
: 2016 7 62  oh
: 2024 3 59  yeah
- 2029 2030
: 2048 2 62 I
: 2050 2 59  was
: 2052 2 62  ri
: 2054 2 59 din'
: 2056 3 62  shot
: 2060 2 62 gun
- 2063
: 2064 2 62 With
: 2066 2 59  my
: 2068 2 62  hair
: 2072 3 62  un
: 2076 2 62 done
- 2079
: 2080 2 62 In
: 2082 2 59  the
: 2084 2 62  front
: 2088 3 62  seat
: 2092 1 62  of
: 2094 2 62  his
: 2098 4 57  car
- 2104 2105
: 2118 2 59 I
: 2120 2 62  grabbed
: 2122 2 59  a
: 2124 3 62  pen
- 2128
: 2128 2 62 And
: 2130 2 59  an
: 2132 2 62  old
: 2136 2 62  nap
: 2140 3 62 kin
: 2144 2 62  and
: 2146 2 59  I
- 2150
: 2153 4 62 Wrote
: 2158 4 62  down
* 2163 6 62  our
: 2173 3 59  song
: 2176 15 57 ~
E
