#TITLE:Bad Blood
#ARTIST:Taylor Swift feat. Kendrick Lamar
#MP3:Taylor Swift feat. Kendrick Lamar - Bad Blood.mp3
#VIDEO:Taylor Swift - Bad Blood ft. Kendrick Lamar.mp4
#COVER:taylor-swift-bad-blood-remix.png
#BPM:340.04
#GAP:36928
#ENCODING:UTF8
#LANGUAGE:English
#YEAR:2015
#AUTHOR:amro98
: 0 2 7 Cause
: 4 2 7  ba
: 8 2 7 by
: 12 2 7  now
: 16 2 9  we've
: 20 4 11  got
: 28 3 2  bad
: 32 6 4 ~
: 39 3 2 ~
: 44 12 -1  blood
- 62
: 64 2 7 You
: 68 2 7  know
: 72 2 7  it
: 76 2 7  used
: 80 2 9  to
: 84 4 11  be
: 92 3 2  mad
: 96 6 4 ~
: 103 3 2 ~
: 108 12 -1  love
- 126
: 128 2 7 So
: 132 2 7  take
: 136 2 7  a
: 140 2 7  look
: 144 2 9  what
: 148 4 11  you've
: 156 3 2  done
: 160 6 4 ~
: 167 3 2 ~
: 172 12 -1 ~
- 190
: 192 2 7 Cause
: 196 2 7  ba
: 200 2 7 by
: 204 2 7  now
: 208 2 9  we've
: 212 4 11  got
* 220 3 9  bad
* 224 6 11 ~
* 231 3 14 ~
: 237 3 9  blood
: 241 3 11 ~
- 249
: 251 8 14 Hey!
- 271
: 275 3 0 I
: 280 4 0  can't
: 287 4 0  take
: 292 3 0  it
: 297 4 0  back
- 301
: 302 4 0 Look
: 308 2 0  where
: 312 3 0  I'm
: 316 5 0  at
- 332
: 336 2 0 We
: 340 2 0  was
: 344 2 0  on
: 347 2 0  D
: 351 2 0  like
: 355 2 0  D
: 359 2 0 O
: 363 3 0 C
- 366
: 367 2 0 Re
: 371 2 0 mem
: 376 3 0 ber
: 380 4 0  that
- 396
: 400 2 0 My
: 404 2 0  T
: 409 2 0 L
: 412 2 0 C
: 416 2 0  was
: 420 2 0  quite
: 423 2 0  O
: 427 2 0 D
- 429
: 431 2 0 I
: 435 2 0 D
: 439 2 0  my
: 443 6 0  facts
- 459
: 463 4 0 Now
: 468 2 0  P
: 472 2 0 O
: 476 2 0 V
: 480 2 0  of
: 484 3 0  you
: 488 2 0  and
: 491 2 0  me
: 494 2 0  si
: 497 2 0 mi
: 500 2 0 lar
: 503 2 0  I
: 506 7 0 raq
- 513
: 515 3 0 I
: 520 3 0  don't
: 524 3 0  hate
: 529 4 0  you
: 535 2 0  but
: 538 1 0  I
: 540 3 0  hate
: 544 6 0  to
: 556 2 0  cri
: 559 2 0 ti
: 562 2 0 que
- 564
: 566 2 0 O
: 569 2 0 ve
: 572 3 0 rrate
: 577 4 0  you
- 585
: 587 4 0 These
: 594 3 0  beats
: 599 1 0  of
: 602 1 0  a
: 604 4 0  dark
: 610 4 0  heart
- 614
: 615 3 0 Use
: 619 4 0  bass
: 625 5 0 lines
: 631 1 0  to
: 633 2 0  re
: 636 5 0 place
: 643 4 0  you
- 649
: 651 4 0 Take
: 657 5 0  time
: 663 2 0  and
: 667 2 0  e
: 670 3 0 rase
: 675 4 0  you
- 681
: 683 4 0 Love
: 689 3 0  don't
: 694 2 0  hear
: 697 2 0  no
: 700 2 0  more
- 702
: 704 3 0 No
: 708 2 0  I
: 711 3 0  don't
: 715 3 0  fear
: 719 4 0  no
: 724 2 0  more
- 726
: 727 2 0 Bet
: 730 2 0 ter
: 733 1 0  yet
: 735 3 0  res
: 739 3 0 pect
: 743 2 0  ain't
- 745
: 747 3 0 Quite
: 751 3 0  sin
: 755 3 0 cere
: 759 3 0  no
: 763 6 0  more
- 779
* 789 4 6 Oh
: 794 13 7 ~
: 813 3 14  it's
* 817 1 11 ~
: 824 5 11  so
: 830 2 9 ~
: 838 7 9  sad
* 846 1 7 ~
: 853 13 7  to
- 873
: 876 4 14 Think
: 884 2 11  a
: 888 4 11 bout
: 893 1 9 ~
: 896 1 9  the
: 901 6 9  good
: 908 2 7 ~
: 916 14 7  times
- 937
* 940 6 14 You
* 947 2 11 ~
: 953 4 11  and
: 959 4 9 ~
: 965 54 9  I
- 1022
: 1024 2 7 Cause
: 1028 2 7  ba
: 1032 2 7 by
: 1036 2 7  now
: 1040 2 9  we've
: 1044 4 11  got
: 1052 3 2  bad
: 1056 6 4 ~
: 1063 3 2 ~
: 1068 12 -1  blood
- 1086
: 1088 2 7 You
: 1092 2 7  know
: 1096 2 7  it
: 1100 2 7  used
: 1104 2 9  to
: 1108 4 11  be
: 1116 3 2  mad
: 1120 6 4 ~
: 1127 3 2 ~
: 1132 12 -1  love
- 1150
: 1152 2 7 So
: 1156 2 7  take
* 1160 2 7  a
: 1164 2 7  look
: 1168 2 9  what
: 1172 4 11  you've
: 1180 3 2  done
: 1184 6 4 ~
: 1191 3 2 ~
: 1196 12 -1 ~
- 1214
: 1216 2 7 Cause
: 1220 2 7  ba
: 1224 2 7 by
: 1228 2 7  now
: 1232 2 9  we've
: 1236 4 11  got
: 1244 3 9  bad
: 1248 6 11 ~
: 1255 3 14 ~
: 1261 3 9  blood
: 1265 3 11 ~
- 1273
: 1275 8 14 Hey!
- 1289
: 1292 2 7 Now
: 1296 2 9  we've
: 1300 4 11  got
: 1309 3 2  pro
: 1313 6 4 ~
: 1320 3 2 ~
: 1324 12 -1 blems
- 1342
: 1344 2 7 And
: 1348 2 7  I
: 1352 2 7  don't
: 1356 2 7  think
: 1360 2 9  we
: 1364 4 11  can
: 1374 3 2  solve
: 1378 6 4 ~
: 1385 2 2 ~
: 1389 10 -1  'em
- 1405
: 1408 2 7 You
: 1412 2 7  made
* 1416 2 7  a
: 1420 2 7  rea
: 1424 2 9 lly
: 1428 4 11  deep
: 1437 3 2  cut
: 1441 6 4 ~
* 1448 3 2 ~
: 1453 10 -1 ~
- 1469
: 1472 2 7 And
: 1476 2 7  ba
: 1480 2 7 by
: 1484 2 7  now
: 1488 2 9  we've
: 1492 4 11  got
: 1500 3 9  bad
: 1504 6 11 ~
: 1511 3 14 ~
: 1517 3 9  blood
: 1521 3 11 ~
- 1529
: 1531 8 14 Hey
- 1548
: 1552 3 0 Re
: 1556 3 0 mem
: 1560 3 0 ber
: 1564 3 0  when
: 1568 3 0  you
: 1572 3 0  tried
: 1576 3 0  to
: 1580 3 0  write
: 1585 3 0  me
: 1589 3 0  off
- 1602
: 1616 3 0 Re
: 1620 3 0 mem
: 1624 3 0 ber
: 1628 3 0  when
: 1632 3 0  you
: 1636 3 0  thought
: 1640 3 0  I'd
: 1644 3 0  take
: 1648 3 0  a
: 1652 7 0  loss
- 1659
: 1660 3 0 Don't
: 1664 3 0  you
: 1668 3 0  re
: 1672 3 0 mem
: 1676 3 0 ber
- 1679
: 1680 3 0 You
: 1684 3 0  thought
: 1688 3 0  that
: 1692 3 0  I
: 1696 3 0  would
: 1700 3 0  need
: 1704 3 0  yah
- 1710
: 1712 3 0 Fo
: 1716 3 0 llow
: 1720 3 0  pro
: 1724 3 0 ce
: 1728 3 0 dure
: 1732 3 0  re
: 1736 3 0 mem
: 1740 3 0 ber
- 1743
: 1744 3 0 Oh
: 1748 3 0  wait
: 1752 3 0  you
: 1756 3 0  got
: 1760 4 0  am
: 1765 3 0 ne
: 1769 3 0 sia
- 1773
: 1775 3 0 It
: 1779 3 0  was
: 1783 3 0  my
: 1787 3 0  sea
: 1791 3 0 son
: 1795 3 0  for
: 1799 3 0  bat
: 1803 3 0 tle
: 1807 6 0  wounds
- 1814
: 1816 2 0 Bat
: 1819 2 0 tle
: 1823 7 0  scars
- 1830
: 1832 3 0 Bo
: 1836 2 0 dy
: 1840 7 0  bumped
: 1848 8 0  bruised
- 1856
: 1858 7 0 Stabbed
: 1866 2 0  in
: 1869 2 0  the
: 1872 4 0  back
: 1879 4 0  brims
: 1885 9 0 tone
- 1894
: 1895 3 0 Fire
: 1900 3 0  jum
: 1905 3 0 ping
: 1910 6 0  through
- 1919
: 1921 7 0 Still
: 1929 6 0  all
: 1936 5 0  my
: 1944 9 0  life
- 1953
: 1954 5 0 I
: 1960 6 0  got
: 1968 4 0  mo
: 1973 3 0 ney
: 1977 3 0  and
: 1981 3 0  po
: 1985 5 0 wer
- 1992
: 1994 2 0 And
: 1998 2 0  you
: 2002 2 0  got
: 2005 2 0 ta
: 2008 8 0  live
: 2017 5 0  with
: 2023 3 0  the
: 2028 7 0  bad
: 2036 7 0  blood
: 2044 7 0  now
- 2061
: 2070 18 7 Oh
: 2093 4 14  it's
: 2098 1 11 ~
: 2105 4 11  so
: 2110 1 9 ~
: 2118 7 9  sad
: 2126 2 7 ~
: 2133 13 7  to
- 2153
: 2156 3 14 Think
: 2160 2 11 ~
: 2164 2 11  a
: 2168 4 11 bout
: 2173 1 9 ~
: 2176 1 9  the
: 2181 6 9  good
: 2188 4 11 ~
: 2197 14 7  times
- 2217
: 2220 4 14 You
: 2226 2 11 ~
: 2233 4 11  and
: 2238 4 9 ~
: 2245 26 9  I
* 2272 2 7 ~
* 2275 1 6 ~
* 2277 2 9 ~
: 2280 4 11 ~
: 2285 8 9 ~
: 2294 2 7 ~
- 2302
: 2304 2 7 Cause
: 2308 2 7  ba
: 2312 2 7 by
: 2316 2 7  now
: 2320 2 9  we've
: 2324 4 11  got
: 2332 3 2  bad
: 2336 6 4 ~
: 2343 3 2 ~
: 2348 12 -1  blood
- 2366
: 2368 2 7 You
: 2372 2 7  know
: 2376 2 7  it
: 2380 2 7  used
: 2384 2 9  to
: 2388 4 11  be
: 2396 3 2  mad
: 2400 6 4 ~
: 2407 3 2 ~
: 2412 12 -1  love
- 2430
: 2432 2 7 So
: 2436 2 7  take
* 2440 2 7  a
: 2444 2 7  look
: 2448 2 9  what
: 2452 4 11  you've
: 2460 3 2  done
: 2464 6 4 ~
: 2471 3 2 ~
: 2476 12 -1 ~
- 2494
: 2496 2 7 Cause
: 2500 2 7  ba
: 2504 2 7 by
: 2508 2 7  now
: 2512 2 9  we've
: 2516 4 11  got
: 2524 3 9  bad
: 2528 6 11 ~
: 2535 3 14 ~
: 2541 3 9  blood
: 2545 3 11 ~
- 2552
: 2554 8 14 Hey!
- 2569
: 2572 2 7 Now
: 2576 2 9  we've
: 2580 4 11  got
: 2589 3 2  pro
: 2593 6 4 ~
: 2600 3 2 ~
: 2604 12 -1 blems
- 2622
: 2624 2 7 And
: 2628 2 7  I
* 2632 2 7  don't
* 2636 2 7  think
* 2640 2 9  we
: 2644 4 11  can
: 2654 3 2  solve
: 2658 6 4 ~
: 2665 2 2 ~
: 2669 10 -1  'em
- 2685
: 2688 2 7 You
: 2692 2 7  made
: 2696 2 7  a
: 2700 2 7  rea
: 2704 2 9 lly
: 2708 4 11  deep
: 2717 3 2  cut
: 2721 6 4 ~
: 2728 3 2 ~
: 2733 10 -1 ~
- 2749
: 2752 2 7 And
: 2756 2 7  ba
: 2760 2 7 by
: 2764 2 7  now
: 2768 2 9  we've
: 2773 3 11  got
: 2780 3 9  bad
: 2784 6 11 ~
: 2792 3 14 ~
: 2797 3 9  blood
: 2801 3 11 ~
- 2809
: 2811 8 14 Hey!
- 2825
* 2828 3 4 Band-
* 2832 4 6 ~
: 2838 3 7 Aids
: 2845 3 7  don't
* 2854 2 2  fix
: 2861 3 6  bu
: 2865 4 7 llet
: 2874 6 7  holes
- 2890
: 2894 2 6 You
: 2902 2 7  say
: 2909 4 7  so
: 2914 2 2 ~
: 2918 2 2 rry
: 2925 2 6  just
: 2932 1 7  for
: 2938 8 7  show
- 2950
: 2952 1 2 You
: 2957 3 6  live
: 2964 5 7  like
: 2973 4 7  that
- 2983
: 2986 2 2 You
: 2991 3 6  live
: 2997 1 7  with
: 3003 8 7  ghosts
- 3011
: 3012 2 6 You
: 3016 3 6  for
: 3021 6 6 give,
- 3027
: 3029 2 6 You
: 3032 3 7  for
: 3036 6 7 get
: 3044 3 0  but
: 3048 2 6  you
: 3051 4 7  ne
: 3056 2 7 ver
: 3061 2 2  let
: 3064 2 2  it
: 3075 4 6  go
- 3083
: 3085 2 4 Band-
: 3088 4 6 ~
: 3094 3 7 Aids
: 3100 3 7  don't
: 3109 2 2  fix
: 3118 3 6  bu
: 3122 4 7 llet
: 3130 10 7  holes
- 3147
* 3150 2 6 You
: 3157 4 7  say
: 3165 4 7  so
: 3171 2 2 ~
: 3174 2 2 rry
* 3181 2 6  just
* 3188 1 7  for
: 3194 7 7  show
- 3202
: 3204 2 2 If
: 3208 2 2  you
: 3214 3 6  live
: 3221 4 7  like
: 3229 4 7  that
- 3239
* 3241 2 2 You
: 3246 3 6  live
* 3253 1 7  with
: 3258 19 7  ghosts
- 3287
: 3302 1 9 Hmm
: 3304 1 11 ~
: 3306 1 9 ~
: 3308 16 9 ~
- 3329
: 3331 2 11 If
: 3335 2 9  you
: 3339 4 11  love
: 3344 2 9 ~
: 3348 2 11  like
: 3351 2 9 ~
: 3356 3 11  that
: 3360 2 9 ~
- 3369
* 3372 4 11 Blood
* 3377 2 9 ~
: 3383 4 11  runs
: 3388 2 9 ~
: 3396 31 11  cold
* 3428 2 9 ~
: 3431 31 7 ~!
- 3472
: 3486 10 9 Mad
: 3498 2 9  love
: 3501 7 11 ~
: 3509 3 9 ~
- 3518
: 3520 2 7 So
: 3524 2 7  take
: 3528 2 7  a
: 3532 2 7  look
: 3536 2 9  what
: 3540 4 11  you've
: 3548 3 2  done
: 3552 6 4 ~
: 3559 3 2 ~
: 3564 12 -1 ~
- 3582
: 3584 2 7 Cause
: 3588 2 7  ba
: 3592 2 7 by
: 3596 2 7  now
: 3600 2 9  we've
: 3604 4 11  got
* 3614 12 14  bad
: 3630 6 11  blood
: 3637 4 9 ~
- 3642
: 3644 12 14 Bad
: 3660 6 11  blood
: 3667 4 9 ~
- 3681
: 3712 2 7 And
: 3716 2 7  I
: 3720 2 7  don't
: 3724 2 7  think
: 3728 2 9  we
: 3732 4 11  can
: 3742 3 2  solve
: 3746 6 4 ~
: 3753 2 2 ~
: 3757 10 -1  'em
- 3773
: 3776 2 7 You
: 3780 2 7  made
: 3784 2 7  a
: 3788 2 7  rea
: 3792 2 9 lly
: 3796 4 11  deep
: 3805 3 2  cut
: 3809 6 4 ~
: 3816 3 2 ~
: 3821 10 -1 ~
- 3837
: 3840 2 7 And
: 3844 2 7  ba
: 3848 2 7 by
: 3852 2 7  now
: 3856 2 9  we've
: 3861 3 11  got
: 3868 3 9  bad
: 3872 6 11 ~
: 3880 3 14 ~
: 3885 3 9  blood
: 3889 3 11 ~
- 3896
: 3898 2 7 Cause
: 3901 3 7  now
: 3905 2 7  we
* 3909 3 9  got
* 3917 3 9  bad
: 3921 18 11 ~
: 3940 2 9 ~
: 3949 16 7  blood
- 3966
: 3968 2 7 You
: 3972 2 7  know
: 3976 2 7  it
: 3980 2 7  used
: 3984 2 9  to
: 3988 4 11  be
: 3996 3 2  mad
: 4000 6 4 ~
: 4007 3 2 ~
: 4012 12 -1  love
- 4030
: 4032 2 7 So
: 4036 2 7  take
: 4040 2 7  a
: 4044 2 7  look
: 4048 2 9  what
: 4052 4 11  you've
- 4066
: 4076 4 7 Look
: 4081 2 7  what
: 4086 1 11  you
: 4088 2 14 've
: 4093 10 11  done
- 4113
: 4146 10 14 Oh
: 4158 8 16 ~
* 4167 2 14 ~
* 4174 7 11 ~
- 4191
: 4224 2 7 And
: 4228 2 7  I
: 4232 2 7  don't
: 4236 2 7  think
: 4240 2 9  we
: 4244 4 11  can
: 4254 3 2  solve
: 4258 6 4 ~
: 4265 2 2 ~
: 4269 10 -1  'em
- 4285
: 4288 2 7 You
: 4292 2 7  made
: 4296 2 7  a
: 4300 2 7  rea
: 4304 2 9 lly
: 4308 4 11  deep
: 4317 3 2  cut
: 4321 6 4 ~
: 4328 3 2 ~
: 4333 10 -1 ~
- 4349
* 4352 2 7 And
* 4356 2 7  ba
: 4360 2 7 by
: 4364 2 7  now
: 4368 2 9  we've
: 4373 3 11  got
: 4380 3 9  bad
: 4384 6 11 ~
: 4392 3 14 ~
: 4397 3 9  blood
: 4401 3 11 ~
- 4409
: 4411 8 14 Hey!
E