#TITLE:Alligator
#ARTIST:Tegan & Sara
#LANGUAGE:English
#MP3:Tegan & Sara - Alligator.mp3
#COVER:Tegan & Sara - Alligator.jpg
#VIDEO:Tegan & Sara - Alligator.flv
#BPM:115.03
#GAP:2250
: -1 1 50  Sen
: 0 1 51 si
: 1 5 50 tive
: 8 2 52  it's
: 12 3 53  true
: 21 2 51  al
: 23 2 52 li
: 25 2 51 ga
: 27 3 52 tor
: 30 5 54  tears
: 39 3 53  cried
: 42 2 51  o
: 44 2 50 ver
: 47 5 54  you.
- 64
: 65 2 52  O
: 67 2 51 ver
: 69 3 55  you
: 73 2 52  o
: 75 2 51 ver
: 77 3 55  you.
- 99
: 99 2 52  O
: 101 2 51 ver
: 103 3 55  you
: 106 2 52  o
: 108 2 51 ver
: 110 5 55  you.
- 118
: 118 2 53  Run
: 120 1 52  a
: 121 3 50 round
: 127 1 51  on
: 129 3 52  me
: 137 1 53  I'd
: 138 2 54  soo
: 140 2 51 ner
: 142 2 55  die
: 144 2 55  with
: 146 2 51 out.
- 148
: 148 2 54  Run
: 151 1 52  a
: 152 3 54 round
: 156 2 51  on
: 159 3 52  me
: 167 3 55  die
: 172 3 53  with
: 176 4 54 out.
- 188
: 189 2 55  Re
: 191 2 52 lent
: 193 3 51 less
- 199
: 199 3 54  yes
: 205 2 55  it's
: 209 3 54  true
: 215 2 53  my
: 219 5 51  motor
: 224 2 50 mouth
: 232 2 51  runs
: 236 1 52  o
: 237 2 51 ver
: 240 7 54  you.
- 257
: 261 3 53  O
: 264 2 52 ver
: 266 4 54  you
: 270 2 53  o
: 272 2 52 ver
: 274 3 54  you.
: 293 3 53  O
: 296 2 52 ver
: 298 4 54  you
: 302 2 53  o
: 304 2 52 ver
: 306 4 54  you.
- 308
: 308 2 53  Run
: 310 1 52  a
: 311 4 51 round
: 316 2 51  on
: 319 2 52  me
: 324 1 53  I'd
: 325 2 51  soo
: 327 3 50 ner
: 330 2 52  die
: 332 2 52  with
: 334 3 50 out.
- 340
: 341 2 55  Run
: 343 2 52  a
: 345 3 54 round
: 350 2 51  on
: 352 4 54  me
: 360 4 53  die
: 366 2 52  with
: 368 6 50 out.
- 385
: 386 2 52  O
: 388 2 51 ver
: 390 3 54  you
: 394 2 52  o
: 396 2 51 ver
: 398 3 54  you.
: 418 2 52  O
: 420 2 51 ver
: 422 3 54  you
: 426 2 52  o
: 428 2 51 ver
: 430 5 54  you.
- 450
: 452 2 52  O
: 454 2 51 ver
: 456 3 54  you
: 460 2 52  o
: 462 2 51 ver
: 464 4 54  you.
: 484 2 52  O
: 486 2 51 ver
: 488 3 54  you
: 492 2 52  o
: 494 2 51 ver
: 496 4 54  you.
- 520
: 530 2 54  Run
: 532 2 52  a
: 534 4 53 round
: 539 2 51  on
: 541 3 51  me
: 551 1 52  I'd
: 552 2 53  soo
: 554 2 50 ner
: 556 2 52  die
: 558 2 51  with
: 560 2 50 out.
- 563
: 563 2 54  Run
: 565 2 51  a
: 567 4 50 round
: 572 2 51  on
: 574 3 52  me
: 583 5 53  die
: 588 2 51  with
: 590 7 52 out.
- 609
: 612 3 50  No
: 617 2 53  his
: 619 2 52 sy
: 621 3 51  fits
: 624 2 52  mind
: 626 2 51  my
: 628 2 50  man
: 630 2 49 ners
- 638
: 641 2 50  won't
: 643 2 50  make
: 645 2 52  a
: 647 4 51  scene
: 660 2 51  o
: 662 2 50 ver
: 664 7 54  you.
- 674
: 675 2 51  O
: 677 2 50 ver
: 679 3 53  you
: 683 2 51  o
: 685 2 50 ver
: 687 3 53  you
: 692 2 51  o
: 694 2 50 ver
: 696 11 54  you.
- 708
: 709 2 52  O
: 711 2 50 ver
: 713 3 54  you
: 717 2 52  o
: 719 2 50 ver
: 721 4 54  you.
- 724
: 724 2 54  Run
: 726 2 51  a
: 728 4 53 round
: 732 2 51  on
: 734 2 49  me
: 743 1 54  I'd
: 744 2 53  soo
: 746 2 50 ner
: 748 2 54  die
: 750 2 53  with
: 752 3 51 out.
- 755
: 755 2 53  Run
: 757 2 52  a
: 759 4 51 round
: 764 2 51  on
: 766 5 54  me
: 775 4 53  die
: 779 2 52  with
: 781 6 50 out.
- 780
: 828 4 50  Rattled
: 832 2 52  yes
: 844 2 53  it's
: 846 4 52  true
: 855 2 52  al
: 857 2 53 li
: 859 2 51 ga
: 861 2 50 tor
: 863 3 53  tears
: 871 4 52  spilled
: 875 2 51  Over
: 881 3 52  you.
- 882
: 883 2 53  Run
: 885 2 52  a
: 887 2 50 round
: 892 2 51  on
: 895 2 52  me
: 902 1 54  I'd
: 903 2 53  soo
: 905 2 51 ner
: 907 2 54  die
: 909 2 52  with
: 911 3 51 out.
- 913
: 913 2 53  Run
: 915 2 52  a
: 917 3 50 round
: 922 2 51  on
: 924 4 52  me
: 932 5 54  die
: 938 2 53  with
: 940 5 51 out.
- 943
: 944 2 53  Run
: 946 2 52  a
: 948 2 50 round
: 954 2 51  on
: 956 4 52  me
: 963 1 50  I'd
: 964 2 50  soo
: 966 2 50 ner
: 968 2 54  die
: 970 2 53  with
: 972 3 51 out.
- 977
: 978 2 53  Run
: 980 2 52  a
: 982 4 50 round
: 988 2 51  on
: 990 4 52  me
: 998 5 54  die
: 1004 2 53  with
: 1006 5 51 out.
- 1022
: 1027 2 52  O
: 1029 2 51 ver
: 1031 3 55  you
: 1035 2 52  o
: 1037 2 51 ver
: 1039 3 55  you
: 1044 2 52  o
: 1046 2 51 ver
: 1048 9 56  you.
- 1058
: 1059 2 52  O
: 1061 2 51 ver
: 1063 3 55  you
: 1067 2 52  o
: 1069 2 51 ver
: 1071 4 55  you.
- 1089
: 1091 2 51  O
: 1093 2 50 ver
: 1095 3 54  you
: 1099 2 51  O
: 1101 2 50 ver
: 1103 4 54  you
: 1109 2 51  O
: 1111 2 50 ver
: 1113 10 55  you.
- 1123
: 1124 2 51  O
: 1126 2 50 ver
: 1128 3 54  you
: 1133 2 51  O
: 1135 2 50 ver
: 1137 4 54  you
: 1142 2 51  O
: 1144 2 50 ver
: 1146 7 54  you.
- 1154
: 1156 2 51  O
: 1158 2 50 ver
: 1160 3 54  you
: 1166 2 51  O
: 1168 2 50 ver
: 1170 3 54  you.
- 1185
: 1187 2 51  O
: 1189 2 50 ver
: 1191 3 54  you
: 1196 2 51  O
: 1198 2 50 ver
: 1200 4 54  you.
E
