#TITLE:Sign you Name
#ARTIST:Terence Trent D'Arby
#MP3:Terence Trent D'Arby - Sign you Name.mp3
#COVER:Terence Trent D'Arby - Sign you Name [CO].jpg
#BACKGROUND:Terence Trent D'Arby - Sign you Name [BG].jpg
#BPM:218,28
#GAP:22080
#ENCODING:UTF8
#LANGUAGE:Englisch
#EDITION:[SC]-Songs
: 0 8 1 For
: 8 4 1 tu
: 12 8 1 na
: 20 9 1 tely
: 29 17 -1  you
: 48 8 -1  have
- 57
: 58 8 -1 Some
: 66 8 -3 one
: 74 14 -6  who
: 88 2 -4  re
: 90 10 -3 lies
: 100 8 -1  on
: 108 10 -3  you
- 120
: 123 3 -3 We
: 127 10 1  start
: 137 6 1 ed
: 143 6 1  out
: 149 4 1  as
: 154 19 -1  friends
- 174
: 175 8 -1 But
: 183 4 1  the
: 187 8 -1  thought
: 195 8 -3  of
: 203 12 -6  you
: 215 4 -4  just
: 219 8 -3  caves
: 227 8 -1  me
: 235 12 -3  in
- 249
: 252 3 -3 The
: 256 8 1  symp
: 264 6 1 toms
: 270 4 1  are
: 276 8 1  so
: 284 19 -1  deep
- 304
: 304 10 -1 It
: 314 4 1  is
: 318 8 -1  much
: 326 6 -3  too
: 333 11 -6  late
: 346 3 -4  to
: 349 9 -3  turn
: 358 8 -1  a
: 366 10 -3 way
- 378
: 380 4 -3 We
: 384 8 1  start
: 392 6 1 ed
: 398 8 1  out
: 406 4 1  as
: 412 44 -1  friends
- 458
: 480 9 -3 Sign
: 490 4 -6  your
: 494 10 -6  name
- 504
: 504 3 -8 A
: 507 7 -3 cross
: 515 5 -6  m
: 520 4 -8 y
: 524 16 -6  heart
- 540
: 540 4 -6 I
: 544 6 -3  want
: 552 4 -6  you
: 556 4 -6  to
: 560 4 -6  be
: 564 8 -8  my
: 572 16 -3  ba
: 588 12 -6 by
- 602
: 608 9 -3 Sign
: 617 5 -6  your
: 622 10 -6  name
- 632
: 632 3 -8 A
: 635 7 -3 cross
: 644 4 -6  m
: 648 4 -8 y
: 652 16 -6  heart
- 668
: 668 4 -6 I
: 672 6 -3  want
: 680 4 -6  you
: 684 4 -6  to
: 688 4 -6  be
: 692 8 -8  my
: 700 16 -3  la
: 716 16 -6 dy
- 734
: 800 8 1 Time
: 808 4 1  I'm
: 812 8 1  sure
: 820 8 1  will
: 828 16 -1  bring
- 846
: 849 9 -1 Dis
: 858 4 1 ap
: 862 6 -1 point
: 868 10 -3 ments
: 878 8 -6  in
: 888 4 -4  so
: 892 10 -3  ma
: 902 8 -1 ny
: 910 12 -3  things
- 923
: 924 4 -3 It
: 928 10 1  seems
: 938 3 1  to
: 941 7 1  be
: 948 8 1  the
: 956 16 -1  way
- 974
: 976 8 -1 When
: 984 4 1  youÂre
: 988 8 -1  gam
: 996 8 -3 bling
: 1004 13 -6  cards
: 1017 4 -4  on
: 1021 7 -3  love
: 1030 6 -1  you
: 1036 8 -3  play
- 1046
: 1054 4 -3 I'd
: 1058 8 1  ra
: 1066 4 1 ther
: 1070 8 1  be
: 1078 6 1  in
: 1084 20 -1  Hell
: 1104 10 -1  with
: 1114 4 1  you
: 1118 8 -1  ba
: 1126 6 -3 by
- 1132
: 1132 14 -6 Than
: 1146 3 -4  in
: 1149 7 -3  cool
: 1156 8 -1  Hea
: 1164 12 -3 ven
- 1178
: 1180 4 -3 It
: 1184 10 1  seems
: 1194 4 1  to
: 1198 8 1  be
: 1206 6 1  the
: 1213 43 -1  way
- 1258
: 1280 8 -3 Sign
: 1290 4 -6  your
: 1294 10 -6  name
- 1304
: 1304 4 -8 A
: 1308 8 -3 cross
: 1316 4 -6  m
: 1320 4 -8 y
: 1324 14 -6  heart
- 1340
: 1342 4 -6 I
: 1346 8 -3  want
: 1354 2 -6  you
: 1356 4 -6  to
: 1362 4 -6  be
: 1366 6 -8  my
: 1372 16 -3  ba
: 1388 16 -6 by
- 1406
: 1408 10 -3 Sign
: 1418 4 -6  your
: 1422 8 -6  name
- 1432
: 1434 3 -8 A
: 1437 7 -3 cross
: 1444 4 -6  m
: 1448 4 -8 y
: 1452 16 -6  heart
- 1469
: 1470 3 -6 I
: 1473 7 -3  want
: 1482 4 -6  you
: 1486 4 -6  to
: 1490 2 -6  be
: 1492 8 -8  my
: 1500 16 -3  la
: 1516 14 -6 dy
- 1532
: 1616 5 18 Birds
: 1621 4 18  nev
: 1625 2 18 er
: 1628 11 16  look
: 1640 4 16  in
: 1644 10 13 to
: 1655 4 9  the
: 1660 11 13  sun
- 1671
: 1671 4 14 Be
: 1675 12 11 fore
: 1689 4 13  the
: 1693 10 11  day
: 1703 2 9  is
: 1707 20 6  gone
- 1729
: 1733 3 18 Be
: 1736 4 18 fore
: 1740 3 16  the
: 1744 3 14  light
: 1748 4 18  shi
: 1752 5 16 nes
: 1757 8 16  brigh
: 1765 4 13 ter
- 1769
: 1769 4 13 On
: 1773 2 11  a
: 1776 3 9  peace
: 1779 7 11 ful
: 1788 16 13  day
- 1806
: 1873 8 18 Stran
: 1881 2 18 ger
: 1884 13 16  blue
: 1897 2 16  lea
: 1899 2 13 ve
: 1901 5 9  us
: 1913 2 9  a
: 1915 8 13 lone
- 1923
: 1923 5 13  We 
: 1928 4 14 don'
: 1932 5 13 t
: 1937 6 11  want
: 1945 3 11  to
: 1948 9 11  deal
: 1957 6 9  with
: 1964 17 6  you
- 1983
: 1996 3 9 We'll
: 1999 6 18  shed
: 2006 5 18  our
: 2013 14 16  stains
: 2029 8 13  show
: 2037 4 11 er
: 2041 6 9 ing
- 2048
: 2049 8 13 In
: 2057 4 14  the
: 2061 10 13  room
: 2072 4 14  that
: 2076 11 13  makes
: 2089 4 14  the
: 2093 22 13  rain
- 2117
: 2497 8 1 All
: 2505 4 1  a
: 2509 8 1 lone
: 2518 5 1  with
: 2523 18 -1  you
- 2542
: 2544 9 -1 Makes
: 2553 4 1  the
: 2557 8 -1  but
: 2565 8 -3 ter
: 2573 12 -6 flies
: 2585 4 -4  in
: 2589 8 -3  me
: 2597 8 -1  a
: 2605 14 -3 rise
- 2621
: 2624 9 1 Slow
: 2633 4 1 ly
: 2637 6 1  we
: 2643 8 1  make
: 2651 16 -1  love
- 2669
: 2671 8 -1 And
: 2679 6 1  the
: 2685 6 -1  Earth
: 2693 6 -3  ro
: 2700 13 -6 tates
- 2713
: 2713 4 -4 To
: 2717 8 -3  our
: 2725 6 -1  dic
: 2732 15 -3 tates
- 2749
: 2751 10 1 Slow
: 2761 4 1 ly
: 2765 8 1  we
: 2773 6 1  make
: 2780 75 -1  love
- 2857
: 2976 9 -3 Sign
: 2985 5 -6  your
: 2990 11 -6  name
- 3001
: 3001 4 -8 A
: 3005 8 -3 cross
: 3013 4 -6  m
: 3017 4 -8 y
: 3021 14 -6  heart
- 3035
: 3035 6 -6 I
: 3041 8 -3  want
: 3049 4 -6  you
: 3053 4 -6  to
: 3057 4 -6  be
: 3061 8 -8  my
: 3069 16 -3  ba
: 3085 14 -6 by
- 3101
: 3103 10 -3 Sign
: 3113 5 -6  your
: 3118 11 -6  name
- 3129
: 3129 4 -8 A
: 3133 8 -3 cross
: 3141 4 -6  m
: 3145 4 -8 y
: 3149 14 -6  heart
- 3164
: 3165 4 -6 I
: 3169 8 -3  want
: 3177 4 -6  you
: 3181 4 -6  to
: 3185 4 -6  be
: 3189 8 -8  my
: 3197 16 -3  la
: 3213 12 -6 dy
- 3227
: 3231 10 -3 Sign
: 3241 4 -6  your
: 3245 12 -6  name
- 3257
: 3257 4 -8 A
: 3261 8 -3 cross
: 3269 4 -6  m
: 3273 4 -8 y
: 3277 14 -6  heart
- 3291
: 3291 5 -6 I
: 3296 9 -3  want
: 3305 4 -6  you
: 3309 4 -6  to
: 3313 4 -6  be
: 3317 6 -8  my
: 3324 16 -3  ba
: 3340 13 -6 by
- 3355
: 3359 10 -3 Sign
: 3369 5 -6  your
: 3374 11 -6  name
- 3385
: 3385 4 -8 A
: 3389 8 -3 cross
: 3397 4 -6  m
: 3401 4 -8 y
: 3405 14 -6  heart
- 3419
: 3419 4 -6 I
: 3423 8 -3  want
: 3431 5 -6  you
: 3436 5 -6  to
: 3441 4 -6  be
: 3445 6 -8  my
: 3453 15 -3  la
: 3469 18 -6 dy
E