#TITLE:Alright
#ARTIST:The Subways
#MP3:The Subways - Alright.mp3
#COVER:The Subways - Alright [CO].jpg
#BACKGROUND:The Subways - Alright [BG].jpg
#BPM:298
#GAP:12880
#ENCODING:UTF8
#LANGUAGE:English
#EDITION:[SC]-Songs
: 0 2 1 Make
: 4 2 1  the
: 8 2 8  great
: 12 4 8  es
: 20 8 6 cape
- 30
* 36 12 10 Ahh
* 52 12 8 ~
- 66
: 68 2 1 And
: 72 2 3  find
: 76 2 3  a
: 84 4 6  way
: 92 4 8  to
: 100 4 10  make
: 108 4 8  ends
: 116 4 1  meet
- 122
: 136 2 8 En
: 140 5 8 e
: 148 9 6 mies
- 159
: 164 13 10 Ahh
: 180 12 8 ~
- 194
: 196 3 3 Well,
: 200 2 3  I
: 204 2 3  don't
: 212 4 6  think
: 220 4 8  they
: 228 4 10  ev
: 236 4 8 er
: 244 4 1  sleep
- 250
: 280 2 -2 Make
: 284 4 -2  our
: 292 8 -2  way
: 308 2 -2  un
: 312 4 -2 til
: 320 4 -2  we
* 328 11 3  see
: 344 6 1  the
: 352 4 -2 ~
: 360 22 -2  light
- 384
: 404 2 -3 An
: 408 2 -2 oth
: 412 4 -2 er
: 420 8 -2  day,
- 430
: 436 2 -2  an
: 440 4 -2 oth
: 448 4 -2 er
: 456 4 3  chance
: 464 4 3  and
: 472 4 1  it
: 480 4 -2  will
: 488 8 -2  be
- 498
: 504 11 -4 Al
: 516 2 -6 ~
: 520 32 -6 right
- 554
: 568 11 -4 Al
: 580 2 -6 ~
* 584 32 -6 right
- 618
: 632 11 -4 Al
: 644 2 -6 ~
: 648 32 -6 right
- 682
: 696 11 -4 Al
: 708 2 -6 ~
: 712 32 -6 right
- 746
: 900 2 1 So
: 904 2 8  what
: 908 4 8  you
: 916 8 6  say
- 926
* 932 13 10 Ahh
* 948 12 8 ~
- 962
: 964 2 1 And
: 968 2 3  what
: 972 2 3  you
: 980 4 6  do
: 988 4 8  is
: 996 4 10  who
: 1004 4 8  you
: 1012 7 1  are
- 1021
: 1027 2 1 You
: 1032 2 8  say
: 1036 4 8  its
: 1044 9 6  truth
- 1055
: 1060 13 10 Ahh
: 1076 12 8 ~
- 1089
: 1091 2 1 But
: 1096 2 3  still
: 1100 5 3  you
: 1108 4 6  lied
: 1116 4 8  right
: 1124 4 10  from
: 1132 4 8  the
: 1140 6 1  start
- 1148
: 1176 2 -2 Make
: 1180 4 -2  a
: 1188 8 -2  change
: 1203 2 -4  and
: 1208 4 -2  find
: 1216 4 -2  the
* 1224 12 3  rea
: 1240 6 1 so
: 1248 4 -2 ~ns
: 1256 16 -2  why
- 1274
: 1300 2 -1 An
: 1304 2 -2 oth
: 1308 4 -2 er
: 1316 8 -2  day,
- 1326
: 1332 2 -1  an
: 1336 4 -2 oth
: 1344 4 -2 er
: 1352 4 3  chance
: 1360 4 3  and
: 1368 4 1  it
: 1376 4 -2  will
: 1384 8 -2  be
- 1394
: 1400 11 -4 Al
: 1412 2 -6 ~
: 1416 28 -6 right
- 1446
: 1464 11 -4 Al
: 1476 2 -6 ~
: 1480 28 -6 right
- 1510
: 1528 11 -4 Al
: 1540 2 -6 ~
* 1544 28 -6 right
- 1574
: 1592 11 -4 Al
: 1604 2 -6 ~
: 1608 28 -6 right
- 1638
: 1684 2 1 And
: 1688 8 3  I
: 1704 8 6  won
: 1720 6 8 der
: 1728 6 6 ~
- 1736
: 1752 6 3 Whe
: 1760 4 1 ~n
: 1768 8 1  we
: 1784 6 -2  fa
: 1792 5 -4 ~
: 1800 4 -6 ~ll
- 1806
: 1816 12 3 Who
* 1832 10 6  do
: 1844 2 1 ~
: 1848 6 1  we
: 1856 4 -2 ~
: 1864 12 -1  need?
- 1878
: 1896 5 -1 Who
: 1904 5 -1  do
: 1912 6 -1  we
: 1920 4 -4 ~
: 1928 26 -4  call?
- 1956
: 1976 11 -4 Al
: 1988 2 -6 ~
: 1992 30 -6 right
- 2024
: 2040 11 -4 Al
: 2052 2 -6 ~
: 2056 32 -6 right
- 2090
: 2104 11 -4 Al
: 2116 2 -6 ~
* 2120 32 -6 right
- 2154
: 2168 11 -4 Al
: 2180 2 -6 ~
: 2184 32 -6 right
- 2218
: 2232 11 1 Al
: 2244 2 -2 ~
: 2248 32 -2 right
- 2282
: 2296 11 1 Al
: 2308 2 -2 ~
: 2312 32 -2 right
- 2346
: 2360 11 1 Al
: 2372 2 -2 ~
: 2376 32 -2 right
- 2410
: 2424 11 1 Al
: 2436 2 -2 ~
* 2440 32 -2 right
E