#TITLE:74,75
#ARTIST:The Connells
#MP3:The Connells - 74,75.mp3
#COVER:The Connells - 74,75 [CO].jpg
#BACKGROUND:The Connells - 74,75 [BG].jpg
#BPM:143,75
#GAP:14420
#ENCODING:UTF8
#LANGUAGE:English
#EDITION:[SC]-Songs
: 0 3 11 Got
: 4 2 13  no
: 6 3 11  rea
: 10 6 6 son
: 21 2 6  for
: 23 2 8  co
: 25 2 16 ming
: 27 2 16  to
: 29 3 16  me
- 33
: 33 2 15 and
: 35 1 13  the
: 37 6 15  rain
: 47 2 13  run
: 49 3 11 ning
: 53 5 8  down,
: 65 2 11  there's
: 67 2 11  no
: 69 3 11  rea
: 73 5 6 son
- 80
: 129 2 13 And
: 131 1 13  the
: 133 2 15  sa
: 135 3 11 me
: 140 8 11  voice
: 150 2 11  co
: 152 2 16 ming
: 154 2 16  to
: 156 3 16  me
- 160
: 160 2 15 like
: 162 2 13  it's
: 164 8 15  all
: 174 2 13  slo
: 176 3 11 wing
: 180 6 8  down,
: 192 2 11  and
: 194 2 11  be
: 196 3 11 lieve
: 199 4 6  me
- 205
: 238 2 15 I
: 240 1 13  was
: 242 1 11  the
: 244 5 8  one
: 250 2 8  who
: 252 3 8  let
: 256 3 11  you
: 260 8 11  know
- 269
: 270 2 15 I
: 272 2 13  was
: 274 2 11  your
: 276 5 6  sor
: 282 2 6 ry
: 284 5 6  e
: 290 2 10 ver
: 292 3 11  aft
: 296 4 8 er
- 301
* 302 2 15 Se
: 304 2 13 ven
: 306 2 11 ty
: 308 7 8 four,
* 318 2 15  se
: 320 2 13 ven
: 322 2 11 ty
: 324 10 6 five
- 336
: 385 2 11 It's
: 387 2 13  not
: 389 3 11  ea
: 393 7 6 sy,
: 407 2 8  no
: 409 2 16 thing
: 411 2 16  to
: 413 4 16  say,
- 417
: 417 1 15 'cause
: 419 2 13  it's
: 421 9 15  al
: 431 2 13 rea
: 433 3 11 dy
: 437 6 8  said,
: 447 2 11  it's
: 450 2 11  ne
: 452 2 13 ver
: 455 2 11  ea
: 458 4 6 sy
- 464
: 495 2 15 When
: 497 5 13  I
: 503 2 13  look
: 505 5 11  on
: 515 2 8  your
: 517 7 11  eyes,
- 526
: 528 2 6 then
: 530 2 8  I
: 532 6 11  find
: 539 2 11  that
: 541 4 13  I'll
* 547 2 15  do
: 549 7 11  fine
- 557
: 559 2 15 When
: 561 5 13  I
: 567 2 13  look
: 569 8 11  on
: 579 2 8  your
: 581 5 11  eyes
: 587 2 8  then
: 589 5 6  I'll
: 595 2 8  do
: 597 2 3  bet
: 600 5 1 ter
- 607
: 623 2 15 I
: 625 2 13  was
: 627 2 11  the
: 629 5 8  one
: 635 2 8  who
: 637 3 8  let
: 641 3 11  you
: 645 6 11  know
- 653
: 655 2 15 I
: 657 2 13  was
: 659 2 11  your
: 661 5 6  sor
: 667 2 6 ry
: 669 5 6  e
: 675 2 10 ver
: 677 3 11  aft
: 681 4 8 er
- 686
* 687 2 15 Se
: 689 2 13 ven
: 691 2 11 ty
: 693 7 8 four,
* 703 2 15  se
: 705 2 13 ven
: 707 2 11 ty
: 709 11 6 five
- 722
: 752 2 15 Gi
: 754 2 13 ving
: 756 2 11  me
: 758 5 8  more
: 764 2 8  and
: 766 5 8  I'll
: 772 2 11  de
: 774 7 15 fy
- 783
: 786 2 15 'cause
: 788 2 15  you're
: 790 5 15  real
: 796 2 13 ly
: 798 5 13  on
: 804 2 11 ly
: 806 3 11  af
: 810 3 8 ter
- 814
* 816 2 15 Se
: 818 2 13 ven
: 820 2 11 ty
: 822 8 8 four,
* 833 2 15  se
: 835 2 13 ven
: 837 2 11 ty
: 839 9 6 five
- 850
: 1250 3 11 Got
: 1254 2 13  no
: 1256 3 11  rea
: 1260 7 6 son
: 1272 1 6  for
: 1274 2 8  co
: 1276 1 16 ming
: 1278 1 16  to
: 1280 4 16  me
- 1284
: 1284 2 15 and
: 1286 2 13  the
: 1288 7 15  rain
: 1298 2 13  run
: 1300 3 11 ning
: 1304 5 8  down,
: 1315 2 11  it's
: 1317 2 11  no
: 1319 3 11  rea
: 1323 7 6 son
- 1332
: 1361 2 15 When
: 1363 5 13  I
: 1369 2 13  look
: 1371 8 11  on
: 1381 2 8  your
: 1383 8 11  eyes,
- 1393
: 1395 2 6 then
: 1397 2 8  I
: 1399 5 11  find
: 1405 2 11  that
: 1407 5 13  I'll
* 1413 2 15  do
: 1415 5 11  fine
- 1422
: 1425 2 15 When
: 1427 5 13  I
: 1433 1 13  look
: 1435 7 11  on
: 1444 2 8  your
: 1447 5 11  eyes
: 1453 2 8  then
: 1455 5 6  I'll
: 1461 1 8  do
: 1463 2 3  bet
: 1466 3 1 ter
- 1471
: 1488 2 15 I
: 1490 2 13  was
: 1492 2 11  the
: 1494 5 8  one
: 1500 2 8  who
: 1502 4 8  let
: 1507 3 11  you
: 1511 5 11  know
- 1518
: 1520 2 15 I
: 1522 2 13  was
: 1524 2 11  your
: 1527 5 6  sor
: 1533 2 6 ry
: 1535 5 6  e
: 1541 2 10 ver
: 1543 3 11  aft
: 1547 3 8 er
- 1551
* 1553 2 15 Se
: 1555 2 13 ven
: 1557 2 11 ty
: 1559 7 8 four,
* 1569 2 15  se
: 1571 2 13 ven
: 1573 2 11 ty
: 1575 9 6 five
- 1586
: 1617 2 15 Gi
: 1619 2 13 ving
: 1621 2 11  me
: 1623 5 8  more
: 1629 2 8  and
: 1631 5 8  I'll
: 1637 2 11  de
: 1639 6 15 fy
- 1647
: 1651 2 15 'cause
: 1653 2 15  you're
: 1655 5 15  real
: 1661 2 13 ly
: 1663 5 13  on
: 1669 2 11 ly
: 1671 3 11  af
: 1675 3 8 ter
- 1679
* 1681 2 15 Se
: 1683 2 13 ven
: 1685 2 11 ty
: 1687 7 8 four,
* 1697 2 15  se
: 1699 2 13 ven
: 1701 2 11 ty
: 1703 10 6 five
- 1715
: 1744 2 15 I
: 1746 2 13  was
: 1748 2 11  the
: 1750 5 8  one
: 1756 2 8  who
: 1758 3 8  let
: 1762 3 11  you
: 1766 5 11  know
- 1773
: 1776 2 15 I
: 1778 2 13  was
: 1780 2 11  your
: 1782 5 6  sor
: 1788 2 6 ry
: 1790 5 6  e
: 1796 2 10 ver
: 1798 3 11  aft
: 1802 3 8 er
- 1806
* 1808 2 15 Se
: 1810 2 13 ven
: 1812 2 11 ty
: 1814 7 8 four,
* 1824 2 15  se
: 1826 2 13 ven
: 1828 2 11 ty
: 1830 10 6 five
- 1842
: 1871 2 15 Gi
: 1873 2 13 ving
: 1875 2 11  me
: 1878 5 8  more
: 1884 2 8  and
: 1886 5 8  I'll
: 1892 2 11  de
: 1894 6 15 fy
- 1902
: 1906 2 15 'cause
: 1908 2 15  you're
: 1910 5 15  real
: 1916 2 13 ly
: 1918 5 13  on
: 1924 2 10 ly
: 1926 3 11  af
: 1930 3 8 ter
- 1934
* 1936 2 15 Se
: 1938 2 13 ven
: 1940 2 11 ty
: 1942 9 8 four,
* 1952 2 15  se
: 1954 2 13 ven
: 1956 2 11 ty
: 1958 11 6 five
- 1971
: 2065 2 15 Se
: 2067 2 13 ven
: 2069 2 11 ty
: 2071 7 8 four,
: 2081 2 15  se
: 2083 2 13 ven
: 2085 2 11 ty
: 2087 9 6 five
- 2098
: 2193 2 15 Se
: 2195 2 13 ven
: 2197 2 11 ty
: 2199 7 8 four,
: 2209 2 15  se
: 2211 2 13 ven
: 2213 2 11 ty
: 2215 9 6 five
- 2226
: 2321 2 15 Se
: 2323 2 13 ven
: 2325 2 11 ty
: 2327 7 8 four,
: 2337 2 15  se
: 2339 2 13 ven
: 2341 2 11 ty
: 2343 9 6 five
E