#TITLE:I Saw Her Standing There
#ARTIST:The Beatles
#MP3:The Beatles - I Saw Her Standing There.mp3
#VIDEO:The Beatles - I Saw Her Standing There.flv
#COVER:The Beatles - I Saw Her Standing There.jpg
#BPM:399,10
#GAP:9532
#VIDEOGAP:-2
#ENCODING:UTF8
#LANGUAGE:English
#GENRE:Pop
#EDITION:The Beatles Rock Band
#YEAR:1963
: 0 3 11 Well
: 6 2 14  she
: 10 6 16  was
: 20 5 16  just
- 35
* 45 3 16 Se
* 50 3 16 ven
* 54 4 14 ~
* 60 2 18 teen
* 63 8 16 ~
- 81
: 89 2 11 Yeah
: 95 7 16  you
: 104 8 16  know
- 120
: 123 5 16 What
: 129 3 16  I
: 133 4 14 ~
: 139 3 18  mean
: 143 8 16 ~
- 161
: 174 4 16 And
: 179 4 14  the
: 184 5 16  way
: 193 3 14  she
: 198 2 11  looked
- 210
: 218 2 16 Was
: 223 3 16  way
: 227 8 18 ~
: 239 3 16  be
: 245 6 14 yond
: 255 2 16  com
: 260 6 14 pare
: 268 18 11 ~
- 296
: 332 5 9 So
: 341 17 11  how
: 362 4 13  could
: 367 7 15  I
: 376 18 16  dance
: 401 5 18  with
: 408 2 18  an
: 411 4 19 ~
: 417 2 19 o
: 420 3 18 ~
: 426 12 16 ther
- 448
* 456 5 27 Oh
* 462 22 28 ~
: 486 3 16  when
: 490 6 16  I
: 501 19 16  saw
: 523 12 14  her
: 540 25 11  stand
: 567 3 6 ing
: 571 2 7 ~
: 575 3 6  there
: 580 7 4 ~?
- 613
: 649 4 16 Well
: 656 9 16  she
- 675
* 679 3 16 looked
: 685 2 16  at
: 688 2 14 ~
: 695 3 18  me
: 699 8 16 ~
- 717
: 730 3 16 And
: 734 3 14  I
: 738 9 16 ~
: 754 7 16  I
: 765 3 16  could
: 769 1 14 ~
: 775 3 18  see
: 779 7 16 ~
- 796
: 809 3 16 That
: 814 2 14  be
: 818 7 16 fore
: 829 2 14  too
: 834 3 11  long
- 849
: 853 5 18 I'd
: 862 5 18  fall
: 869 2 16  in
: 873 3 16  love
: 877 7 14 ~
: 888 3 16  with
: 894 5 14  her
: 902 13 11 ~
- 941
: 975 17 11 She
: 995 4 13  would
: 1002 6 15 n't
: 1010 16 16  dance
: 1034 5 18  with
: 1041 3 18  an
: 1045 3 19 ~
: 1049 3 19 o
: 1053 3 18 ~
: 1059 11 16 ther
- 1080
* 1089 28 28 Woo
: 1119 4 16  when
: 1124 5 16  I
: 1133 18 16  saw
: 1154 14 14  her
: 1173 25 11  stand
: 1199 3 6 ing
: 1207 3 6  there
: 1211 7 4 ~
- 1244
: 1274 5 13 Well
: 1283 7 16  my
* 1293 13 19  heart
: 1312 12 18  went
: 1329 3 18  boom
: 1333 7 16 ~
- 1349
: 1353 8 13 When
: 1363 5 16  I
: 1374 15 19  crossed
: 1394 7 18  that
: 1408 3 18  room
: 1412 5 16 ~
- 1429
: 1433 6 13 And
: 1444 6 16  I
: 1454 16 19  held
: 1474 12 18  her
* 1489 2 18  hand
* 1492 8 16 ~
- 1509
: 1513 14 16 In
: 1532 7 18  mine
: 1546 66 23 ~
: 1616 46 25 ~
- 1668
: 1670 5 21 Well
: 1678 3 21  we
: 1682 3 19 ~
: 1688 2 19  danced
: 1691 9 16 ~
- 1709
: 1713 5 16 Through
: 1719 3 16  the
: 1723 3 14 ~
: 1728 4 18  night
: 1733 7 16 ~
- 1750
: 1764 3 16 And
: 1768 3 14  we
: 1774 8 16  held
: 1785 4 16  each
: 1794 4 16  o
: 1800 3 16 ther
: 1804 2 14 ~
* 1809 3 18  tight
* 1813 7 16 ~
- 1830
: 1844 4 16 And
: 1850 2 14  be
: 1855 6 16 fore
: 1865 3 14  too
: 1870 4 11  long
- 1885
: 1889 4 18 I
* 1898 4 18  fell
: 1905 3 16  in
: 1909 2 16  love
: 1912 9 14 ~
: 1925 3 16  with
: 1931 5 14  her
: 1938 14 11 ~
- 1962
: 2004 5 9 Now
: 2014 16 11  I'll
: 2033 4 13  ne
: 2039 6 15 ver
: 2049 17 16  dance
: 2073 4 18  with
: 2079 7 19  an
: 2088 3 19 o
: 2092 4 18 ~
: 2098 14 16 ther
- 2124
: 2128 28 28 Woo
: 2159 3 16  since
: 2163 6 16  I
: 2173 16 16  saw
: 2194 14 14  her
: 2213 24 11  stand
: 2239 2 6 ing
: 2247 3 6  there
: 2251 5 4 ~
- 2264
: 2267 47 19 Ah
: 2316 2 18  ah
: 2322 3 18  ah
: 2330 4 16  ah
- 2387
: 2947 6 13 Well
: 2956 7 16  my
: 2966 15 19  heart
: 2985 12 18  went
: 3001 2 18  boom
: 3004 9 16 ~
- 3022
: 3026 7 13 When
: 3035 6 16  I
* 3046 8 18  crossed
* 3055 3 19 ~
: 3065 9 18  that
: 3080 2 18  room
: 3083 9 16 ~
- 3102
: 3106 7 13 And
: 3116 7 16  I
: 3127 16 19  held
: 3147 10 18  her
: 3162 2 18  hand
: 3165 8 16 ~
- 3182
: 3186 15 16 In
: 3206 5 18  mine
: 3215 69 23 ~
: 3287 37 25 ~
- 3330
: 3332 3 19 Oh
: 3336 18 21 ~
: 3356 6 19  we
: 3365 2 19  danced
: 3368 6 16 ~
- 3383
: 3386 4 16 Through
: 3391 3 16  the
: 3395 2 14 ~
: 3400 3 18  night
: 3405 8 16 ~
- 3423
: 3436 4 16 And
: 3441 3 14  we
: 3447 7 16  held
: 3457 6 16  each
: 3466 4 16  o
: 3472 3 16 ther
: 3476 2 14 ~
: 3482 3 18  tight
: 3486 6 16 ~
- 3502
: 3517 3 16 And
: 3522 2 14  be
: 3527 6 16 fore
: 3537 3 14  too
: 3541 6 11  long
- 3558
: 3562 3 16 I
* 3571 3 18  fell
: 3576 3 16  in
: 3582 2 16  love
: 3585 7 14 ~
: 3596 3 16  with
: 3603 7 14  her
: 3611 18 11 ~
- 3639
: 3676 6 11 Now
: 3686 17 11  I'll
: 3705 4 13  ne
: 3711 6 15 ver
: 3720 14 16  dance
- 3742
: 3745 4 18 With
* 3751 2 18  an
* 3754 4 19 ~
: 3760 3 19 o
: 3764 2 18 ~
: 3769 13 16 ther
- 3792
: 3799 27 28 Ooh
: 3830 4 16  since
: 3835 6 16  I
: 3844 17 16  saw
: 3867 14 14  her
: 3885 24 11  stand
: 3912 2 6 ing
: 3915 2 7 ~
: 3920 3 6  there
: 3924 6 4 ~
- 3940
* 3974 8 11 Whoa
: 3985 4 14  since
: 3991 9 16  I
: 4005 17 16  saw
: 4025 15 14  her
: 4045 19 11  stand
: 4070 3 6 ing
: 4079 3 6  there
: 4083 8 4 ~
- 4101
: 4128 6 11 Yeah
: 4136 5 11  well
: 4145 4 14  since
: 4150 10 16  I
: 4164 17 16  saw
: 4185 15 14  her
: 4205 27 11  stand
* 4234 2 6 ing
: 4240 3 6  there
: 4244 24 4 ~
E