#TITLE:I Wanna Be Like You (Baloo)
#ARTIST:The Jungle Book
#EDITION:SingStar Singalong with Disney
#MP3:The Jungle Book - I Wanna Be Like You.mp3
#COVER:The Jungle Book - I Wanna Be Like You [CO].jpg
#BACKGROUND:The Jungle Book - I Wanna Be Like You [BG].jpg
#BPM:240
#GAP:24437,5
: 0 2 63 Oop
: 5 1 63  dee
: 7 3 63  wee
- 12 13
: 39 1 60 Hop
: 44 1 60  dee
: 46 2 60  doo
: 49 1 60  bee
: 51 1 60  do
* 54 3 60  bow
- 59 60
: 77 2 60 Cheep
- 81 82
* 96 2 62 Cheep
- 100 101
: 118 2 60 Wee
: 121 2 58  bee
: 123 3 60  dee
: 126 2 58  bee
: 128 3 60  dee
: 131 3 58  boo
- 136 137
: 157 1 63 Shoo
: 158 1 63  be
: 159 1 63  dee
: 161 1 63  doo
- 164 175
* 195 3 60 Scoo
: 198 1 60 by
: 200 2 60  doo
: 203 1 60  bee
: 205 2 60  doo
: 208 2 60  bee
- 212 300
: 320 5 63 Do
: 325 4 67  do
: 329 5 70  do
: 334 13 72  do
: 347 2 70  do
: 349 2 67  do
: 351 3 63  do
: 354 8 60  do
- 364
: 371 3 65 Boo
: 374 2 68  do
: 379 2 60  do
: 381 2 63  do
: 384 3 68  do
: 387 2 60  do
: 389 2 63  do
* 391 8 68  do
- 401
: 408 2 70 Do
: 410 3 68  do
: 417 2 68  do
: 419 3 67  do
: 427 2 67  do
: 429 15 70  do
- 446 496
: 516 2 67 Do
: 518 2 70  do
: 521 1 72  do
: 523 10 74  do
: 535 2 72  do
: 538 2 70  do
: 541 11 72  do
- 553
: 553 2 67 Do
: 555 2 65  do
: 558 2 63  do
* 560 10 60  do
- 572
: 579 5 69 Do
: 584 5 72  do
: 589 5 75  do
: 594 4 69  do
: 598 4 67  do
: 603 5 70  do
: 609 6 74  do
- 616
: 617 8 68 Do
: 625 1 67  do
: 626 1 65 ~
: 627 7 63 do
: 634 1 65  do
: 636 9 63  do
- 647 1714
: 1734 9 63 Hey
- 1745
: 1749 1 60 Da
: 1750 3 63  zop
: 1755 4 63  ba
: 1760 2 63 no
* 1763 3 63 nie
- 1768
: 1773 2 63 Hap
: 1777 1 63  de
: 1779 2 63  dee
: 1782 2 63  ba
: 1784 1 63  lat
- 1786
: 1787 1 63 Da
: 1789 3 64  dat
: 1794 3 64  dat
: 1799 3 64  non
- 1804 1805
: 1813 6 63 Hey
: 1820 2 64  a
: 1822 2 65  ba
: 1825 1 66 by
: 1827 2 67  dot
: 1832 3 60  doo
- 1836
: 1837 2 60 Za
: 1840 1 60 ba
: 1842 1 60  doo
: 1845 2 60  doo
: 1847 2 65  day
: 1852 1 58  doo
: 1855 3 58  bop
- 1859
: 1859 1 58 Doo
: 1861 2 58  boo
: 1864 1 58  do
: 1866 6 63  day
- 1873
: 1874 1 63 Ze
: 1876 4 63  bonz
- 1882
: 1884 1 63 Za
: 1885 1 63  bop
: 1891 2 63  bop
* 1896 1 63  bob
: 1898 3 63 by
- 1903 1904
: 1920 2 63 Well
: 1923 1 63  a
: 1925 2 63  ree
: 1930 5 63  bah
: 1935 3 67  na
: 1938 2 60 za
- 1942 1943
: 1960 2 58 Well
: 1963 1 58  a
: 1965 3 58  lah
: 1969 3 58  bah
: 1974 3 58  zi
: 1977 2 64 ni
- 1981 1982
: 2002 1 63 See
: 2004 1 63 bah
: 2005 1 63 la
: 2007 3 63 lat
: 2012 2 63  do
: 2015 2 63 die
- 2019 2020
: 2036 3 63 Ooh
: 2039 1 60  la
: 2041 2 63  ha
: 2046 3 63  ha
: 2051 2 63  ha
: 2055 3 63  ha
- 2060 2061
F 2074 3 51 Gettin'
F 2079 7 51  mad
F 2088 5 51  baby
- 2095 2096
: 2114 1 58 Dood
: 2115 1 58 le
: 2116 1 58  a
: 2117 2 60  hat
: 2120 2 58  a
: 2122 2 60  lat
: 2125 2 58  a
: 2127 3 60  lat
: 2130 2 58  a
: 2132 2 55  do
: 2134 2 51 die
- 2138 2139
: 2152 1 60 Doo
: 2155 1 60  da
: 2157 1 60  zoog
: 2159 2 63 le
- 2162
: 2162 2 63 Da
: 2164 2 63  da
: 2166 2 63  da
: 2169 1 65  da
: 2171 2 67  da
- 2175 2176
F 2194 1 51 Zee
F 2196 1 51  ba
F 2197 1 51  da
F 2199 1 51  da
F 2203 1 51  ha
F 2206 1 51  ba
F 2209 3 51  da
- 2214 2258
: 2278 2 63 I
: 2281 3 63  wan
: 2285 4 65 na
* 2290 4 67  walk
: 2294 4 60  like
: 2299 5 60  you
- 2306
: 2308 3 67 Talk
: 2314 3 62  like
: 2319 5 62  you
- 2326
F 2328 4 50 Too
F 2333 4 50  ooh
F 2338 4 50  ooh
- 2344 2345
: 2353 3 67 You'll
: 2357 3 67  see
: 2362 3 67  it's
: 2366 5 67  true
: 2371 4 63 ~
: 2376 4 63 ooh
- 2382 2383
: 2391 3 63 Some
: 2395 3 63 one
: 2400 3 63  like
: 2405 5 64  me
: 2410 3 60  ee
: 2415 4 60  ee
- 2421 2422
: 2437 3 67 Can
: 2442 3 67  learn
: 2447 3 60  to
: 2452 3 60  be
- 2457 2467
F 2487 2 51 Take
F 2491 1 51  me
F 2494 3 51  home
F 2500 4 51  daddy
- 2506
: 2513 3 67 Can
: 2517 3 67  learn
: 2522 2 60  to
: 2525 5 60  be
- 2532
: 2537 3 67 Like
: 2541 2 62  some
: 2545 3 62 one
* 2550 5 67  like
: 2555 8 63  you
- 2565 2566
F 2579 7 60 Yeah
- 2587
: 2589 3 67 Can
: 2593 3 67  learn
: 2598 1 60  to
: 2600 6 60  be
- 2608
: 2611 3 70 Like
: 2616 3 70  some
: 2621 3 70 one
: 2626 3 70  like
: 2630 4 72  me
* 2634 20 70 ~
- 2656
F 2661 1 55 Say
F 2663 1 53  de
F 2665 2 55  da
F 2667 3 53  bap
F 2672 1 55  bap
F 2676 1 55  ba
F 2678 1 53  da
- 2680
: 2680 2 60 Dood
: 2683 2 58 le
: 2686 3 63  da
: 2691 1 60  dun
: 2693 4 63  da
- 2698
: 2699 1 60 Dun
: 2701 4 63  da
: 2706 1 60  dun
: 2708 3 63  da
: 2713 1 60  dun
: 2715 3 63  da
E
