#TITLE:Papa Was A Rollin' Stone
#ARTIST:The Temptations
#LANGUAGE:English
#EDITION:SingStar Motown
#GENRE:Motown
#YEAR:1972
#MP3:The Temptations - Papa Was A Rollin' Stone.mp3
#COVER:The Temptations - Papa Was A Rollin' Stone [CO].jpg
#BACKGROUND:The Temptations - Papa Was A Rollin' Stone [BG].jpg
#VIDEO:The Temptations - Papa Was A Rollin' Stone [VD#0].avi
#VIDEOGAP:0
#BPM:248
#GAP:2782,26
: 0 2 58 It
: 4 2 58  was
: 8 2 56  the
: 12 2 58  third
: 16 2 56  of
: 20 2 58  Sep
: 24 3 61 tem
: 28 3 58 ber
- 33 45
: 65 2 58 That
: 69 3 58  day
: 73 3 56  I'll
: 77 2 58  al
: 81 2 58 ways
: 85 2 58  re
* 89 6 63 mem
: 96 5 61 ber
- 103 104
: 114 2 58 Yes
: 118 6 58  I
: 126 4 58  will
- 132 133
: 147 11 58 'Cause
: 159 2 61  that
: 163 2 63  was
: 167 2 65  the
: 171 9 61  day
- 182 183
: 196 2 58 That
: 200 7 58  my
: 209 4 61  dad
: 213 2 56 ~
: 217 2 56 dy
: 221 6 58  died
- 229 266
: 286 3 61 I
: 290 3 65  ne
: 294 3 61 ver
: 298 3 64  got
: 302 3 61  a
: 306 3 64  chance
: 310 3 61 ~
- 314
: 314 2 58 To
: 318 4 61  see
: 322 3 58 ~
: 327 5 58  him
- 334 335
: 352 3 58 Ne
: 356 3 53 ver
: 360 3 55  heard
: 364 3 53 ~
: 368 3 58  noth
: 372 2 56 ing
- 376
: 380 2 56 But
: 384 6 58  bad
: 392 3 58  things
: 397 3 58  a
: 401 3 61 bout
: 405 4 58  him
- 411 412
: 421 3 61 Ma
: 426 3 61 ma
: 430 3 63  I'm
: 434 3 61  de
: 438 3 63 pend
: 442 3 61 ing
: 446 3 65  on
: 450 5 61  you
- 457 458
: 467 3 53 To
: 471 2 56  tell
: 475 2 58  me
: 479 2 58  the
: 483 6 61  truth
* 489 4 58 ~
- 495 496
F 508 4 84 Mama
F 513 2 84  just
F 516 2 84  hung
F 519 2 84  her
F 522 3 84  head
- 526
F 526 2 84 And
F 529 4 84  said,
F 535 6 84  "Son
- 543 544
: 554 2 58 Pa
: 558 2 58 pa
: 562 2 58  was
: 566 2 56  a
: 570 6 58  roll
: 578 2 58 in'
* 582 8 61  stone
- 592 604
: 624 3 61 Wher
: 628 3 61 e
: 632 2 58 ver
: 636 2 61  he
: 640 2 61  laid
: 644 2 58  his
: 648 2 61  hat
- 652
: 656 3 58 Was
: 660 3 58  his
: 664 7 58  home
- 673 694
: 714 4 65 All
: 718 3 61 ~
: 722 3 63  he
: 726 3 58 ~
: 730 2 61  left
: 739 2 56  us
: 743 2 58  was
: 747 2 58  a
: 751 3 61 lone
: 756 11 58 ~"
- 769 780
: 800 5 56 Oh
: 805 7 58 ~
- 814
: 817 2 56 "Pa
: 821 2 58 pa
: 825 2 58  was
: 829 2 56  a
: 833 6 58  roll
: 841 2 58 in'
: 845 5 61  stone
- 851
: 853 4 56 My
: 861 6 58  son
: 870 5 58  yeah
- 877 878
: 886 3 61 Wher
: 890 3 61 e
: 894 3 58 ver
: 898 3 61  he
: 902 3 61  laid
: 906 2 58  his
: 910 2 61  hat
- 914
: 919 2 58 Was
: 923 2 58  his
: 927 8 61  home
- 937 956
: 976 5 65 All
: 981 3 61 ~
: 985 3 63  he
: 989 3 58 ~
: 993 2 61  left
: 1000 2 56  us
- 1003
: 1004 4 58 Was
: 1009 3 58  a
: 1014 4 61 lone
: 1018 4 58 ~
: 1022 4 56 ~
: 1026 13 58 ~"
- 1041 1042
: 1066 6 56 Well,
: 1072 3 58  well
- 1077 1559
: 1579 4 63 Hey
: 1584 3 61  Ma
: 1587 3 63 ~
: 1590 3 65 ma
- 1595 1596
: 1606 2 63 Is
: 1609 2 61  it
: 1612 5 63  true
: 1618 2 63  what
: 1621 2 63  they
* 1624 4 63  say
: 1629 2 61  that
- 1633
: 1636 2 63 Pa
: 1639 2 61 pa
: 1642 2 63  ne
: 1645 2 61 ver
: 1648 2 63  worked
: 1651 2 65  a
: 1654 5 61  day
- 1661
: 1666 4 58 In
: 1671 4 58  his
: 1676 5 58  life?
- 1683 1684
: 1707 3 44 And
: 1711 3 46  Ma
: 1715 3 49 ma
- 1720 1721
: 1732 2 44 Some
: 1736 5 49  bad
: 1743 2 46  talk
- 1746
: 1748 1 46 Go
: 1750 1 46 ing
: 1752 1 46  a
: 1754 3 46 round
: 1758 3 46  town
- 1762
: 1763 1 46 Say
: 1765 1 46 ing
: 1767 1 46  that
: 1769 1 46  Pa
: 1771 1 46 pa
: 1773 2 44  had
- 1776
: 1777 3 46 Three
: 1781 3 46  out
: 1785 4 46 side
: 1790 3 46  chil
: 1794 3 46 dren
- 1799
: 1802 2 44 And
: 1804 2 46  a
: 1809 2 51 no
: 1811 4 49 ~
: 1817 2 46 ther
: 1820 6 46  wife
- 1828 1829
F 1838 3 84 And
F 1842 2 84  that
F 1845 4 84  ain't
F 1852 5 84  right
- 1859
: 1864 2 58 I've
: 1873 3 65  heard
: 1879 1 58  some
: 1881 2 58  talk
: 1885 1 58  a
: 1887 2 58 bout
: 1892 1 58  Pa
: 1895 1 58 pa
- 1897
: 1897 1 58 Do
: 1899 1 58 ing
: 1902 2 56  some
: 1906 2 58  store
: 1910 2 58  front
- 1913
: 1915 6 61 Preach
: 1922 9 58 ing
- 1933
: 1939 2 58 Talk
: 1943 1 56 in'
: 1945 2 58  bout
: 1951 2 58  sa
: 1954 2 58 ving
: 1957 4 58  souls
- 1962
: 1962 2 53 And
: 1966 2 58  all
: 1969 1 58  the
: 1972 5 58  time
: 1980 3 58  leech
: 1984 3 46 ing
- 1989
* 1997 7 70 Deal
: 2005 3 69 ing
: 2009 4 70  in
: 2014 2 70  debt
- 2018
: 2026 2 58 And
: 2030 8 61  steal
: 2039 3 63 ing
: 2043 2 64  in
: 2047 2 65  the
- 2050
: 2051 3 61 Name
: 2055 3 58  of
: 2059 2 56  the
: 2063 4 56  Lord
: 2067 22 58 ~
- 2091
F 2097 3 84 Mama
F 2101 3 84  just
F 2106 4 84  hung
F 2111 1 84  her
F 2113 2 84  head
F 2116 2 84  and
F 2119 4 84  said
- 2125 2126
: 2134 2 63 "Pa
: 2138 2 58 pa
: 2142 2 58  was
: 2146 2 56  a
: 2150 6 58  roll
: 2159 2 58 in'
: 2163 4 61  stone
- 2169
: 2174 4 56 My
: 2180 3 56  son
: 2183 4 58 ~
- 2189 2190
: 2204 3 61 Wher
: 2208 3 61 e
: 2212 3 58 ver
: 2216 3 61  he
: 2220 3 61  laid
: 2224 3 58  his
: 2228 2 61  hat
- 2232
: 2236 3 61 Was
: 2240 2 58  his
: 2244 9 61  home
- 2255
: 2262 2 65 And
: 2266 2 70  when
: 2270 6 70  he
: 2278 5 70  died
: 2283 2 68 ~
: 2285 2 65 ~
: 2287 2 63 ~
: 2289 2 61 ~
- 2293
: 2295 4 70 All
: 2299 7 68 ~
: 2307 2 61  he
: 2311 2 61  left
: 2319 2 58  us
: 2323 3 58  was
: 2327 2 56  a
: 2332 4 61 lone
: 2336 4 58 ~
: 2340 4 56 ~
: 2344 9 58 ~"
- 2355 2365
: 2385 2 65 Hey
: 2387 3 64 ~
- 2392
: 2398 2 61 "Pa
: 2402 2 58 pa
: 2406 2 58  was
: 2410 2 56  a
: 2414 7 58  roll
: 2422 2 56 in'
: 2426 8 61  stone"
- 2436 2437
: 2451 2 56 They're
: 2455 3 56  co
: 2459 4 58 ming
- 2465
: 2467 3 61 "Wher
: 2471 3 61 e
: 2475 3 58 ver
: 2479 3 61  he
: 2483 3 61  laid
: 2487 3 58  his
: 2491 2 61  hat
- 2495
: 2500 2 61 Was
: 2504 2 58  his
: 2508 8 61  home
- 2518
: 2525 3 65 And
: 2529 2 70  when
: 2533 4 70  he
: 2541 5 70  died
: 2546 2 68 ~
: 2548 2 65 ~
: 2550 2 63 ~
: 2552 2 61 ~
- 2555
: 2557 5 70 All
: 2570 3 63  he
: 2574 2 61  left
: 2582 2 58  us
: 2586 3 58  was
- 2590
: 2590 3 56 A
: 2595 4 61 lone
: 2599 4 58 ~
: 2603 4 56 ~
: 2607 10 58 ~"
- 2619 2631
F 2651 3 84 Uh
- 2656 3024
: 3044 4 70 Hey
: 3049 4 67  Ma
: 3054 2 70 ma
- 3058
: 3062 3 68 I
: 3066 3 70  heard
: 3070 3 70  Pa
: 3074 3 68 pa
: 3078 2 70  call
: 3081 3 68  him
: 3085 3 70 self
: 3089 2 68  a
- 3092
: 3094 2 73 Jack
: 3098 2 70  of
: 3101 3 70  all
: 3105 13 70  trades
- 3120
: 3127 1 70 Tell
: 3129 1 70  me
: 3131 3 70  is
: 3135 4 70  that
: 3140 2 70  what
: 3144 2 70  sent
- 3147
: 3149 3 75 Pa
: 3153 3 73 pa
: 3157 2 70  to
: 3160 2 70  an
* 3164 4 75  ear
: 3168 3 73 ~
: 3171 2 70 ~
: 3175 3 70 ly
: 3180 10 70  grave?
- 3192
: 3195 4 61 Folks
: 3201 3 61  say
: 3206 2 61  Pa
: 3209 2 61 pa
: 3212 3 58  would
: 3219 4 61  beg
- 3225
: 3227 3 61 Bor
: 3231 3 58 row
: 3236 12 61  steal
: 3251 2 58  to
: 3254 8 63  pay
: 3262 2 61 ~
: 3264 2 58 ~
: 3269 2 58  his
: 3275 20 58  bill
- 3296
: 3298 4 65 Hey
: 3303 4 61  Ma
: 3307 2 63 ~
: 3309 4 65 ma
- 3315 3316
: 3329 3 58 Folks
: 3334 3 58  say
: 3340 1 58  Pa
: 3343 1 58 pa
: 3346 1 58  ne
: 3348 1 56 ver
: 3350 3 58  was
- 3354
: 3356 2 58 Much
: 3361 6 58  on
: 3369 8 61  think
: 3378 7 58 ing
- 3387
: 3395 2 65 Spent
: 3399 1 63  most
: 3401 1 61  of
: 3403 2 63  his
: 3407 6 61  time
- 3414
: 3415 2 58 Chas
: 3419 4 56 ing
: 3424 3 58  wo
: 3428 3 56 men
: 3432 2 58  and
* 3436 7 55  drink
: 3444 7 58 ing
- 3453
: 3457 2 73 Ma
: 3461 3 73 ma
: 3465 2 75  I'm
: 3469 2 73  de
: 3473 2 75 pen
: 3477 2 73 ding
: 3481 2 77  on
: 3486 8 73  you
- 3496
: 3503 2 67 To
: 3507 3 73  tell
: 3511 2 70  me
: 3515 2 68  the
: 3519 2 68  truth
: 3521 21 70 ~
- 3544
F 3552 2 84 Mama
F 3556 2 84  looked
F 3559 1 84  up
F 3562 1 84  with
F 3564 1 84  a
- 3566
F 3567 1 84 Tear
F 3569 1 84  in
F 3571 1 84  her
F 3573 1 84  eye
- 3575
F 3576 1 84 And
F 3579 1 84  said,
F 3585 3 84  "Son
- 3589
: 3590 2 58 Pa
: 3594 2 58 pa
: 3598 2 58  was
: 3602 2 58  a
: 3606 8 58  roll
: 3615 2 56 in'
: 3619 7 58  stone
- 3628 3641
: 3661 3 61 Wher
: 3665 3 61 e
: 3669 3 58 ver
: 3673 3 61  he
: 3677 3 61  laid
: 3681 3 58  his
: 3685 2 61  hat
- 3689
: 3694 2 58 Was
: 3698 2 58  his
: 3702 11 58  home
- 3715 3733
: 3753 8 73 All
: 3761 4 75 ~
: 3765 4 77  he
: 3770 3 73  left
: 3777 3 70  us
: 3781 3 70  was
: 3785 3 68  a
: 3790 11 70 lone
- 3802
* 3802 11 68 Lone,
: 3814 12 65  lone,
: 3827 5 63  lone,
: 3835 2 61  lone,
: 3840 10 65  lone"
- 3852
: 3857 2 58 "Pa
: 3861 2 58 pa
: 3865 2 58  was
: 3869 2 56  a
: 3873 7 58  roll
: 3881 2 56 in'
: 3885 7 58  stone
- 3894 3908
: 3928 3 61 Wher
: 3932 3 61 e
: 3936 3 58 ver
: 3940 3 61  he
: 3944 3 61  laid
: 3948 3 58  his
: 3952 3 61  hat
- 3957
: 3960 2 61 Was
: 3964 2 58  his
: 3968 9 61  home
- 3979 3999
: 4019 8 73 All
: 4027 4 75 ~
: 4031 4 77  he
: 4035 4 73  left
: 4044 3 70  us
: 4048 3 70  was
: 4052 3 68  a
* 4056 38 70 lone"
- 4095
: 4095 7 68 I
: 4103 8 70  said
: 4112 7 73 ~
- 4121
: 4124 2 58 "Pa
: 4128 2 58 pa
: 4132 2 58  was
: 4136 2 56  a
: 4140 7 58  roll
: 4149 2 56 in'
: 4153 8 58  stone
- 4163 4175
: 4195 3 61 Wher
: 4199 3 61 e
: 4203 3 58 ver
: 4207 3 61  he
: 4211 3 61  laid
: 4215 3 58  his
: 4219 2 61  hat
- 4223
: 4228 3 61 Was
: 4232 3 58  his
: 4236 12 61  home
- 4250 4266
: 4286 9 73 All
: 4295 4 75 ~
* 4299 3 77  he
: 4303 4 73  left
: 4312 3 70  us
: 4316 3 70  was
: 4320 3 68  a
: 4324 4 73 lone
: 4328 4 70 ~
: 4332 4 68 ~
: 4336 23 70 ~"
- 4360
: 4361 7 68 Now
: 4369 7 70  say
: 4377 9 73 ~
: 4386 8 70 ~
E
