#TITLE:Givin' Up
#ARTIST:The Darkness
#MP3:The Darkness - Givin' Up.mp3
#VIDEO:The Darkness - Givin' Up.mp4
#COVER:The Darkness - Givin' Up.jpg
#BPM:273.4
#GAP:7250
#ENCODING:UTF8
: 0 2 6 My
: 4 4 8  mam
: 12 2 6 ma
: 16 2 6  wants
: 20 2 3  to
: 24 2 6  know
- 28
: 32 2 6 Where
: 36 2 6  I'm
: 40 2 8  spend
: 44 2 6 ing
: 48 2 6  all
: 52 2 3  my
: 56 2 6  dough
- 60
: 64 2 6 Hon
: 68 2 3 ey
* 72 2 8  all
: 76 2 6  she
: 80 2 6  does
: 84 2 3  is
- 87
: 88 2 6 Nag,
: 94 2 6  nag,
: 100 2 1  nag 
: 104 4 -1 ~
- 110
: 124 2 6 But
: 128 2 6  I
: 132 4 8  won't
: 140 2 3  ap
: 144 2 6 ol
: 148 2 6 og
: 152 2 6 ise
- 156
: 160 2 6 I'd
: 164 2 6  in
: 168 2 8 ject
: 172 2 6  in
: 176 2 6  to
: 180 2 3  my
: 184 2 6  eyes
- 187
: 188 2 6 If
: 192 2 6  there
: 196 2 3  was
* 200 2 8  now
: 204 2 6 here
: 208 2 6  else
- 211
: 212 2 3 To
: 216 2 6  stick
: 220 3 6  my
: 228 2 1  skag 
: 232 4 -1 ~
- 238
: 260 4 8 All
: 268 2 3  I
: 272 2 6  want
* 276 2 6  is
* 280 2 8  brown
: 284 2 11  and
: 288 2 11  I'm
- 291
: 292 4 15 Go
: 300 2 13 ing
: 304 2 15  in
: 308 2 13  to
: 312 1 15  town 
: 314 1 13 ~ 
: 316 4 11 ~
- 322
: 324 4 8 Shoot
: 332 2 3 ing
: 336 2 6  up
: 340 2 3  as
: 344 2 6  soon
: 348 2 6  as
: 352 2 6  I'm
: 356 2 1  back 
: 360 4 -1 ~
- 366
: 384 2 6 My
: 388 3 8  friends
: 396 2 3  have
: 400 2 6  got
: 404 2 6  some
: 408 2 8  good
: 412 2 11  shit
- 416
* 420 4 15 All
: 428 2 13  I
: 432 2 15  want
: 436 2 13  is
: 440 1 15  some
: 442 1 13  of
: 444 4 11  it
- 450
: 452 4 8 Gim
: 460 2 3 me,
: 464 2 6  gim
: 468 2 6 me
- 471
: 472 2 6 Gim
: 476 2 6 me
: 480 2 6  that
: 488 1 1  smack 
: 490 2 -1 ~ 
: 494 1 1 ~ 
: 496 1 3 ~ 
: 498 1 1 ~ 
: 500 3 3 ~
- 505
: 572 2 15 Well,
: 576 2 15  I've
* 580 4 15  ru
: 588 2 13 ined
: 592 2 13  near
: 596 2 11 ly
- 599
: 600 2 13 All
: 604 2 13  of
: 608 2 13  my
: 612 2 8  veins 
: 616 4 6 ~
- 622
: 648 2 13 Stick
: 652 2 11 ing
: 656 2 13  that
: 664 2 13  fuck
: 668 2 15 ing
: 676 8 16  shit
- 686
: 692 4 15 In
: 700 2 13 to
: 704 2 15  my 
: 708 2 13 ~
* 712 1 15  arms 
* 714 1 13 ~ 
* 716 10 11 ~
- 728
: 764 4 8 Yeah,
: 772 6 6  yeah 
: 780 2 8 ~
: 784 2 3  yeah 
: 788 2 1 ~ 
: 792 1 3 ~ 
: 794 1 1 ~ 
: 796 8 -1 ~
- 806
* 836 2 10 Oh 
* 840 6 11 ~
* 848 2 10  oh
: 856 2 8  oh
: 864 2 6  oh
- 868
: 876 3 6 Oh
: 884 6 3  oh
- 892
: 904 2 15 Giv
: 908 2 15 in'
: 912 2 15  up,
: 920 2 15  giv
: 924 2 15 in'
: 928 2 15  up
- 932
: 936 2 13 Giv
: 940 2 13 in'
: 944 2 18  a
: 948 6 15  fuck
- 956
: 964 10 11 Oh
: 976 2 10  oh
: 984 2 8  oh
: 992 2 6  oh
- 996
: 1000 3 4 Oh
: 1008 2 3  oh
: 1016 1 3  oh 
: 1018 1 1 ~ 
: 1020 7 -1 ~
- 1029
: 1032 2 15 Giv
: 1036 2 15 in'
: 1040 2 15  up,
: 1048 2 15  giv
: 1052 2 15 in'
: 1056 2 15  up
- 1060
: 1064 2 13 Giv
* 1068 2 13 in'
* 1072 2 13  a
: 1076 8 11  fuck
- 1086
: 1172 4 8 Get
: 1180 2 3 ting
: 1184 2 6  off
: 1188 2 3  my
: 1192 2 6  face
- 1196
: 1200 2 6 There's
: 1204 2 6  a
* 1208 2 8  drag
* 1212 2 6 on
: 1216 2 6  I
: 1220 2 3  must
: 1224 2 6  chase
- 1228
: 1232 2 6 Hon
: 1236 2 3 ey,
: 1240 2 8  I'm
: 1244 2 6  the
: 1248 2 6  scourge
: 1252 2 3  of
- 1255
: 1256 2 6 All
: 1260 3 6  man
: 1268 2 1 kind 
: 1272 4 -1 ~
- 1278
: 1296 2 6 And
: 1300 4 8  ev
: 1308 2 3 ery
* 1312 2 6 one
* 1316 2 6  but
* 1320 2 8  me
: 1324 3 11  is
- 1329
: 1332 4 15 Des
: 1340 2 13 tined
: 1344 2 15  just
: 1348 2 13  to
: 1352 1 15  be 
: 1354 1 13 ~ 
: 1356 4 11 ~
- 1362
: 1364 4 8 Slaves
: 1372 2 3  to
: 1376 2 6  the
- 1379
: 1380 2 3 Re
: 1384 2 6 morse
: 1392 2 6 less
: 1400 2 1  grind 
: 1404 4 -1 ~
- 1410
: 1420 2 15 But
: 1424 2 15  I
* 1428 4 15  found
: 1436 2 13  my
: 1440 2 13 self
- 1443
: 1444 2 10 An
: 1448 2 13  ea
: 1452 2 13 sy
: 1456 2 13  way
: 1460 1 10  out 
: 1462 1 8 ~ 
: 1464 4 6 ~
- 1470
: 1496 2 13 Stick
: 1500 2 11 ing
: 1504 2 13  that
: 1512 2 13  fuck
: 1516 2 15 ing
: 1524 8 16  shit
- 1534
: 1540 4 15 In
: 1548 2 13 to
: 1552 2 15  my 
: 1556 2 13 ~
* 1560 1 15  arms 
* 1562 1 13 ~ 
* 1564 10 11 ~
- 1576
: 1612 2 6 In
: 1616 2 6  to
: 1620 2 6  my
: 1624 2 6  arms 
: 1632 2 11 ~ 
: 1640 6 11 ~ 
: 1648 2 6 ~ 
: 1652 3 3 ~
- 1657
* 1683 2 10 Oh 
* 1687 7 11 ~
: 1696 2 10  oh
: 1704 2 8  oh
: 1712 2 6  oh
- 1716
: 1724 3 6 Oh
: 1732 6 3  oh
- 1740
: 1752 2 15 Giv
: 1756 2 15 in'
: 1760 2 15  up,
: 1768 2 15  giv
: 1772 2 15 in'
: 1776 2 15  up
- 1780
: 1784 2 13 Giv
: 1788 2 13 in'
: 1792 2 18  a
: 1796 6 15  fuck
- 1804
: 1812 10 11 Oh
: 1824 2 10  oh
: 1832 2 8  oh
: 1840 2 6  oh
- 1844
: 1848 3 4 Oh
: 1856 2 3  oh
* 1864 1 3  oh 
* 1866 1 1 ~ 
* 1868 7 -1 ~
- 1877
: 1880 2 15 Giv
: 1884 2 15 in'
: 1888 2 15  up,
: 1896 2 15  giv
: 1900 2 15 in'
: 1904 2 15  up
- 1908
: 1912 2 13 Giv
: 1916 2 13 in'
: 1920 2 13  a
: 1924 8 11  fuck
- 1934
: 1996 3 20 Ah
* 2004 18 18 ~
* 2024 3 15 ~
* 2028 1 13 ~
* 2030 2 15 ~
* 2034 1 13 ~
* 2036 1 15 ~
* 2038 1 13 ~
* 2040 1 15 ~
* 2042 1 13 ~
* 2044 2 15 ~
* 2047 1 13 ~
: 2049 2 15 ~
: 2052 1 13 ~
: 2054 1 15 ~
: 2056 1 13 ~
: 2058 10 11 ~
- 2070
: 2108 2 15 Whoo 
: 2112 2 13 ~ 
: 2116 10 13 ~ 
: 2128 2 11 ~ 
: 2136 6 11 ~ 
: 2144 2 8 ~ 
: 2152 6 6 ~ 
: 2160 2 8 ~ 
: 2164 8 3 ~
- 2174
* 3267 2 10 Oh 
* 3271 7 11 ~
: 3280 2 10  oh
: 3288 2 8  oh
: 3296 2 6  oh
- 3300
: 3308 3 6 Oh
: 3316 6 3  oh
- 3324
: 3336 2 15 Giv
: 3340 2 15 in'
: 3344 2 15  up,
: 3352 2 15  giv
: 3356 2 15 in'
: 3360 2 15  up
- 3364
: 3368 2 13 Giv
: 3372 2 13 in'
: 3376 2 18  a
: 3380 6 15  fuck
- 3388
: 3396 10 11 Oh
: 3408 2 10  oh
: 3416 2 8  oh
: 3424 2 6  oh
- 3428
: 3432 3 4 Oh
: 3440 2 3  oh
* 3448 1 3  oh 
* 3450 1 1 ~ 
* 3452 7 -1 ~
- 3461
: 3464 2 15 Giv
: 3468 2 15 in'
: 3472 2 15  up,
: 3480 2 15  giv
: 3484 2 15 in'
: 3488 2 15  up
- 3492
: 3496 2 13 Giv
: 3500 2 13 in'
: 3504 2 13  a
: 3508 8 11  fuck
- 3518
* 3523 2 10 Oh 
* 3527 7 11 ~
: 3536 2 10  oh
: 3544 2 8  oh
: 3552 2 6  oh
- 3556
: 3564 3 6 Oh
: 3572 6 3  oh
- 3580
: 3592 2 15 Giv
: 3596 2 15 in'
: 3600 2 15  up,
: 3608 2 15  giv
: 3612 2 15 in'
: 3616 2 15  up
- 3620
: 3624 2 13 Giv
: 3628 2 13 in'
* 3632 2 18  a
* 3636 6 15  fuck
- 3644
: 3652 10 11 Oh
: 3664 2 10  oh
: 3672 2 8  oh
: 3680 2 6  oh
- 3684
: 3688 3 4 Oh
: 3696 2 3  oh
: 3704 1 3  oh 
: 3706 1 1 ~ 
: 3708 7 -1 ~
- 3717
: 3720 2 15 Giv
: 3724 2 15 in'
: 3728 2 15  up,
: 3736 2 15  giv
: 3740 2 15 in'
: 3744 2 15  up
- 3748
: 3752 2 13 Giv
* 3756 2 13 in'
* 3760 2 13  a
* 3764 10 11  fuck
E