#TITLE:LA. Woman
#ARTIST:The Doors
#MP3:The Doors - LA. Woman.mp3
#VIDEO:The Doors - LA. Woman.avi
#COVER:The Doors - LA. Woman.jpg
#BPM:395,20
#GAP:46487
#ENCODING:UTF8
#LANGUAGE:English
#GENRE:Pop
#EDITION:Rock Band Store 2010 Vol. 4
#YEAR:1971
: 0 5 14 Well
: 6 2 13  I
: 10 3 16  just
: 15 3 13  got
: 19 3 14  in
: 24 2 13 to
: 28 4 14  town
: 34 2 13  a
: 37 4 14 bout
: 42 3 13  an
: 47 7 14  hour
: 55 4 13  a
* 61 9 16 go
- 96
: 152 1 0 I
: 157 3 9  took
: 162 3 7  a
: 166 3 9  look
: 171 3 7  a
: 176 7 9 round
: 184 4 7  see
: 190 3 9  which
- 197
: 199 3 9 way
: 203 2 7  the
* 208 5 12  wind
: 217 7 9  blow
- 250
: 304 4 9 With
: 309 3 7  a
: 313 3 9  lit
: 318 3 7 tle
: 322 6 9  girl
: 331 4 9  in
: 336 3 7  a
: 340 4 9  Hol
: 345 3 7 ly
: 350 4 9 wood
* 359 5 12  bun
* 365 2 7 ~
: 368 5 7 ga
: 374 7 9 low
- 407
: 437 3 13 Are
: 442 3 14  you
: 446 2 13  a
: 450 3 14  luc
: 454 3 13 ky
: 460 3 14  lit
: 465 3 13 tle
: 469 4 14  la
: 474 3 14 dy
: 478 2 14  in
: 482 1 13  the
: 487 4 14  Ci
: 493 3 16 ty
: 497 2 12  of
* 502 5 14  Light
* 508 5 16 ~
- 539
: 584 2 9 Or
: 589 3 11  just
: 593 3 9  an
: 598 4 13 o
: 603 3 9 ther
: 607 5 13  lost
: 617 5 9  an
: 625 2 9 gel
: 628 12 7 ~?
- 650
: 654 3 9 Ci
: 658 3 9 ty
: 662 2 9  of
* 667 8 9  Night
: 676 7 7 ~
- 693
: 726 4 12 Ci
: 731 4 12 ty
: 736 2 12  of
: 740 6 9  Night
- 772
: 800 3 9 Ci
: 804 3 9 ty
: 808 2 9  of
: 812 3 9  Night
: 816 1 7 ~
- 843
: 871 3 15 Ci
: 876 3 15 ty
: 880 2 15  of
* 885 3 15  Night
* 889 4 16 ~
- 902
: 905 5 22 woo!
: 917 4 22  Come
: 922 3 22  on!
- 977
: 1848 4 16 L
: 1853 3 14 A
: 1857 2 13 ~
: 1862 6 14  wo
* 1870 10 16 man
- 1890
: 1922 4 16 L
: 1927 3 16 A
: 1931 2 14 ~
: 1937 7 14  wo
: 1945 3 14 man
: 1949 7 12 ~
- 1966
: 1996 4 9 L
: 2002 6 9 A
: 2010 6 9  wo
: 2019 2 7 man
: 2024 4 9  Sun
: 2029 2 7 day
* 2033 6 12  af
: 2043 2 7 ter
: 2048 10 9 noon
- 2084
: 2144 5 7 L
: 2150 5 9 A
: 2158 7 9  wo
: 2166 2 7 man
: 2171 4 9  Sun
: 2177 3 7 day
* 2182 4 12  af
: 2191 3 7 ter
: 2197 8 9 noon
- 2231
: 2294 4 7 L
: 2299 6 9 A
: 2307 6 9  wo
: 2315 1 7 man
: 2319 4 9  Sun
: 2325 3 7 day
: 2330 5 12  af
: 2339 2 7 ter
* 2344 6 9 noon
- 2360
: 2367 6 7 Drive
: 2377 3 9  through
: 2381 1 7  your
: 2385 4 9  sub
: 2391 7 9 urbs
- 2408
: 2423 3 9 In
: 2429 4 7 to
: 2434 4 9  your
* 2441 4 9  blues
: 2446 22 7 ~
- 2478
: 2495 4 14 In
: 2503 3 14 to
: 2507 4 14  your
: 2516 7 16  blues
: 2524 2 9 ~
: 2534 3 16  yeah
- 2547
: 2570 4 9 In
: 2577 4 7 to
: 2582 4 9  your
: 2591 13 12  blue
: 2607 6 12  blue
* 2617 6 12  blue
* 2624 4 11 ~
- 2640
: 2644 5 14 In
: 2650 3 14 to
: 2655 4 15  your
* 2664 6 16  blues
* 2671 3 9 ~
- 2684
: 2693 40 21 oh
: 2737 12 22  yeah!
- 2801
: 3616 5 7 I
: 3627 6 9  see
: 3636 5 13  your
: 3647 8 11  hair
: 3656 4 7  is
: 3665 5 9  bur
: 3671 6 8 ~
: 3678 11 9 nin'
- 3715
: 3777 6 9 Hills
: 3787 4 13  are
: 3796 7 11  filled
: 3806 3 7  with
: 3816 7 9  fi
: 3824 5 7 ~
: 3830 9 9 re
- 3865
: 3908 4 2 If
: 3918 4 4  they
: 3928 5 9  say
: 3934 3 11  I
: 3938 5 13 ~
: 3947 3 11  ne
: 3951 8 7 ver
: 3964 7 9  loved
: 3972 3 8 ~
: 3981 13 9  you
- 4020
: 4073 1 4 You
: 4078 6 9  know
: 4088 6 13  they
: 4098 8 11  are
: 4107 8 7  a
: 4116 8 9  li
: 4125 5 7 ~
: 4132 14 9 ar
- 4172
* 4230 7 9 Dri
* 4238 6 13 vin'
: 4248 8 11  down
: 4258 4 7  your
: 4269 8 9  free
: 4278 3 7 ~
: 4282 12 9 way
- 4320
: 4381 4 9 Mid
: 4391 6 13 night
: 4401 5 11  al
: 4407 5 7 leys
: 4419 11 9  roam
- 4456
: 4533 4 9 Cops
: 4543 5 9  in
: 4553 11 9  cars
: 4567 1 7  the
: 4571 3 9  top
: 4577 5 9 less
: 4587 9 9  bars
- 4605
: 4609 4 9 Ne
: 4614 2 7 ver
: 4619 4 9  saw
: 4624 2 7  a
: 4628 3 9  wo
: 4633 51 9 man
- 4694
: 4705 8 9 So
: 4714 7 9  a
: 4723 2 9 lone
: 4726 34 7 ~
- 4770
: 4780 8 14 So
* 4789 4 15  a
* 4794 12 16 lone
: 4807 8 9 ~
: 4816 12 9  yeah
- 4838
: 4854 9 9 So
: 4864 7 9  a
: 4873 23 12 lone
: 4897 7 11 ~
- 4914
* 4929 8 16 So
: 4939 3 14  a
: 4945 8 12 lone
: 4954 26 9 ~
- 4990
: 5023 5 9 Mo
: 5034 5 9 tel
: 5043 4 9  mo
: 5048 4 9 ney
: 5062 4 9  mur
: 5068 3 7 der
: 5075 7 12  mad
: 5086 12 12 ness
- 5124
: 5179 1 4 I
: 5184 4 9  change
: 5190 1 7  the
: 5194 6 9  mood
: 5204 1 7  from
: 5210 9 9  glad
: 5222 1 7  to
: 5228 7 9  sad
: 5238 3 9 ness
: 5242 1 7 ~
- 5295
: 6304 5 9 Mi
: 6314 6 7 ster
: 6326 19 9  Mo
: 6351 20 9 jo
: 6374 20 12  Ri
: 6397 13 9 sin'
- 6436
: 6481 5 9 Mi
: 6492 5 7 ster
: 6502 17 9  Mo
: 6524 19 9 jo
: 6545 17 12  Ri
: 6565 11 9 sin'
: 6577 2 7 ~
- 6605
: 6644 5 9 Mi
: 6652 5 7 ster
: 6664 15 9  Mo
: 6684 16 9 jo
* 6702 15 12  Ri
: 6722 16 9 sin'
- 6764
: 6797 4 9 Mi
: 6805 5 7 ster
: 6816 13 9  Mo
: 6834 15 9 jo
: 6851 14 12  Ri
: 6869 13 9 sin'
- 6892
: 6934 5 9 Got
: 6944 4 7  to
: 6952 4 9  keep
: 6959 17 9  on
* 6981 15 12  ri
: 6998 9 9 sin'
- 7033
* 7062 5 16 Mi
* 7070 4 16 ster
: 7077 12 16  Mo
: 7093 7 14 jo
: 7101 5 12 ~
: 7107 12 14  Ri
: 7121 21 12 sin'
- 7152
: 7179 5 9 Mi
: 7186 4 9 ster
* 7193 11 16  Mo
: 7207 11 12 jo
: 7220 11 16  Ri
: 7234 27 12 sin'
- 7271
* 7299 11 16 Mo
: 7314 10 12 jo
: 7326 11 16  Ri
: 7339 26 12 sin'
- 7375
: 7390 5 9 Got
: 7397 3 9  my
: 7403 10 16  Mo
: 7416 10 12 jo
* 7429 10 16  Ri
: 7442 30 12 sin'
- 7482
: 7491 4 9 Mi
: 7497 4 9 ster
: 7504 9 16  Mo
: 7516 11 12 jo
: 7528 10 16  Ri
: 7541 30 12 sin'
- 7581
: 7589 5 9 Got
: 7596 3 9  to
: 7602 3 16  keep
: 7608 10 12  on
: 7620 16 16  ri
: 7638 26 12 sin'
- 7674
: 7694 10 16 Ride
: 7706 8 12  it
: 7717 10 16  ride
: 7729 22 12  it
- 7761
: 7770 9 9 Gon'
: 7781 9 16  ride
: 7792 7 12  it
* 7801 9 16  ride
: 7812 26 12  it
- 7844
: 7847 1 9 I'm
: 7853 4 9  gon
: 7858 2 9 na
: 7862 9 16  ride
: 7873 7 12  it
: 7882 9 16  ride
: 7893 19 12  it
- 7924
: 7928 2 9 I
: 7931 4 9  got
: 7938 3 9  to
* 7942 9 16  ride
: 7952 6 12  it
: 7962 8 16  ride
: 7971 20 12  it
- 8000
: 8004 9 16 Well
: 8019 8 16  ride
: 8028 6 16  it
: 8038 8 14  ride
: 8047 10 16  it
- 8067
: 8080 2 16 I
: 8083 4 16  got
: 8088 1 15 ta
- 8090
: 8092 13 22 woo
: 8112 11 22  yeah
: 8131 11 22  ride
- 8152
: 8167 10 22 oh
- 8187
: 8227 14 16 mmm
: 8243 4 15  yeah
: 8248 10 16 ~
- 8310
: 8537 9 16 Well
: 8547 1 16  I
: 8552 3 16  just
: 8558 3 14  got
: 8562 3 14  in
: 8566 2 13 to
: 8571 4 14  town
: 8576 2 13  a
: 8580 4 14 bout
: 8585 4 13  an
: 8590 8 14  hour
: 8599 3 13  a
: 8605 14 16 go
: 8621 3 9 ~
- 8650
: 8700 1 0 I
: 8703 4 9  took
: 8709 3 7  a
: 8713 3 9  look
: 8718 2 7  a
: 8723 7 9 round
: 8733 4 7  see
: 8738 3 9  which
- 8744
: 8746 4 9 way
: 8751 3 7  the
: 8757 5 12  wind
: 8766 11 12  blow
- 8803
: 8855 5 9 With
: 8861 2 7  a
: 8865 4 9  lit
: 8870 3 7 tle
: 8874 8 9  girl
: 8884 3 9  in
: 8888 3 7  a
: 8893 4 9  Hol
: 8898 2 7 ly
: 8902 5 9 wood
* 8911 8 12  bun
: 8922 4 7 ga
: 8927 11 9 low
- 8964
: 8993 3 16 Are
: 8998 3 16  you
: 9003 2 16  a
: 9006 4 18  luc
: 9012 3 14 ky
: 9017 4 16  lit
: 9022 3 13 tle
: 9026 4 14  la
: 9031 3 14 dy
: 9035 4 14  in
: 9040 1 13  the
: 9045 4 14  Ci
: 9050 3 14 ty
: 9054 2 13  of
: 9059 12 16  Light
- 9097
: 9144 2 9 Or
: 9149 3 12  just
: 9153 2 9  an
: 9158 3 12 o
: 9162 3 9 ther
: 9167 3 12  lost
: 9171 2 13 ~
: 9177 6 9  an
: 9186 46 7 gel?
- 9242
: 9252 4 9 Ci
: 9257 3 9 ty
: 9261 1 9  of
: 9266 12 9  Night
: 9279 8 7 ~
- 9297
: 9328 3 16 Ci
: 9332 3 16 ty
: 9337 1 15  of
: 9341 3 15  Night
: 9345 5 16 ~
- 9360
: 9402 3 21 Ci
: 9406 4 21 ty
: 9411 2 21  of
: 9416 8 19  Night
- 9450
: 9477 4 23 Ci
: 9482 3 23 ty
: 9487 3 23  of
* 9492 9 21  Night
- 9510
: 9514 11 22 whoa!
- 9535
: 9542 4 21 Come
: 9547 9 21  on!
- 9608
: 9876 5 16 L
: 9882 4 16 A
: 9887 3 15 ~
: 9891 7 15  wo
: 9900 32 16 man
- 9942
: 9951 4 16 L
: 9957 3 16 A
: 9961 4 14 ~
: 9967 8 14  wo
: 9977 28 13 man
- 10015
: 10027 5 16 L
: 10033 4 16 A
: 10038 3 15 ~
: 10043 6 15  wo
: 10051 29 16 man
- 10090
: 10101 8 16 You're
: 10111 8 16  my
: 10122 3 14  wo
: 10126 27 12 man
- 10161
: 10164 4 16 My
: 10169 4 16  lit
: 10174 3 13 tle
: 10178 4 16  L
: 10183 5 16 A
: 10189 4 14 ~
: 10195 8 14  wo
: 10204 21 12 man
- 10236
: 10240 8 16 Yeah
: 10250 1 14  my
: 10254 4 16  L
: 10259 4 16 A
: 10264 4 15 ~
: 10269 4 15  wo
: 10276 6 15 man
: 10284 22 16 ~
- 10316
: 10329 7 16 L
: 10348 6 16 A
- 10364
: 10374 3 16 wo
: 10378 5 16 man
: 10394 5 16  oh
- 10411
: 10415 4 16 Yeah
: 10421 2 15  my
: 10424 4 16  wo
: 10430 3 16 man
: 10434 4 15  come
: 10439 8 16  on
: 10448 3 9 ~
F 10453 4 9  yeah
E