#TITLE:I've Got A Feeling
#ARTIST:The Beatles
#MP3:The Beatles - I've Got A Feeling.mp3
#VIDEO:The Beatles - I've Got A Feeling.avi
#COVER:The Beatles - I've Got A Feeling.jpg
#BPM:329,06
#GAP:8690
#ENCODING:UTF8
#LANGUAGE:English
#GENRE:Rock
#EDITION:The Beatles Rock Band
#YEAR:1970
: 0 7 16 I've
: 8 2 16  got
: 11 2 16  a
* 16 3 16  feel
* 20 3 18 ~
: 24 3 18 ing
- 37
: 54 2 9 A
: 57 3 16  feel
: 61 2 12 ~
: 64 3 12 ing
: 68 3 13 ~
: 73 3 9  deep
: 77 7 7  in
: 87 16 9 side,
: 105 4 12  oh
: 111 2 12  yeah
: 114 3 11 ~
: 118 2 9 ~
- 141
: 170 4 12 Oh
: 176 2 12  yeah
: 179 2 11 ~
: 182 2 9 ~
- 194
: 204 3 10 That's
: 209 5 10  right
- 224
: 257 4 16 I've
: 265 2 16  got
: 268 2 16  a
: 273 3 16  feel
: 277 4 18 ~
: 282 3 18 ing
- 295
: 309 2 9 A
* 313 3 16  feel
: 317 5 12 ing
: 323 3 13 ~
: 329 3 9  I
: 333 4 9  can't
: 338 4 7 ~
: 345 15 9  hide,
: 361 7 12  oh
: 369 3 12  no
: 373 2 11 ~
: 376 1 9 ~
- 385
: 388 4 7 No
- 402
* 425 6 23 Oh
* 434 10 23  no
- 465
: 490 6 11 Oh
: 497 2 12  no
: 500 2 11 ~
: 503 2 9 ~
- 515
* 530 4 19 Yeah
: 535 27 21 ~
: 564 6 16 ~
* 577 24 24  yeah
- 608
: 611 7 19 I've
: 619 3 19  got
: 623 2 21  a
* 627 8 24  feel
: 636 14 21 ing
: 652 4 21  yeah
- 677
: 708 5 21 Ooh
- 734
: 771 5 16 Oh
: 779 7 16  please
: 788 3 16  be
: 792 3 16 lieve
* 796 2 18 ~
: 799 4 18  me
- 813
: 823 3 13 I'd
: 827 5 16  hate
: 835 3 13  to
: 839 2 9  miss
: 842 2 7 ~
: 847 2 7  the
: 851 8 9  train
- 869
: 876 6 12 Oh
: 883 2 12  yeah
: 886 2 11 ~
: 889 3 9 ~
- 904
: 908 6 10 Yeah
- 924
* 939 6 24 Oh
: 948 5 23  yeah
: 954 4 21 ~
- 979
: 1027 6 16 And
: 1035 5 16  if
: 1043 3 16  you
: 1047 3 16  leave
: 1051 2 18 ~
: 1054 4 18  me
- 1068
: 1078 2 13 I
: 1081 6 16  won't
: 1090 3 13  be
: 1094 7 9  late
: 1102 3 7  a
: 1106 7 9 gain
- 1123
: 1130 5 12 Oh
: 1137 2 12  no
: 1140 3 11 ~
: 1144 2 9 ~
- 1167
: 1190 9 24 Oh
* 1200 8 23  no
- 1229
: 1258 6 11 Oh
: 1265 3 12  no
: 1269 2 11 ~
: 1272 1 9 ~
- 1283
: 1294 5 19 Yeah
: 1300 24 21 ~
: 1325 2 16 ~
: 1331 21 23  yeah
: 1353 2 26 ~
- 1365
: 1374 7 19 I've
: 1382 2 19  got
: 1385 2 21  a
* 1390 6 25  feel
: 1397 7 21 ing
: 1411 7 21  yeah
- 1439
: 1467 2 10 I
: 1470 3 10  got
: 1474 2 10  a
: 1477 2 10  feel
: 1480 2 10 ing
- 1492
* 1523 7 23 All
: 1531 6 23  these
: 1539 3 23  years
: 1544 3 22  I've
: 1548 5 23  been
: 1555 4 23  wan
: 1560 3 23 der
: 1564 3 23 ing
: 1568 3 22  a
: 1572 6 23 round
- 1585
* 1588 2 23 Won
: 1591 4 23 der
: 1596 4 23 ing
: 1602 7 23  how
: 1611 4 23  come
: 1619 4 23  no
: 1624 2 23 bo
: 1627 2 23 dy
* 1632 4 25  told
: 1638 4 22  me
- 1648
: 1651 3 23 All
: 1655 3 23  that
: 1660 3 23  I've
: 1666 3 21  been
* 1670 3 24  look
: 1674 2 24 ing
: 1677 2 24  for
: 1680 2 21  was
- 1683
: 1685 2 24 Some
: 1688 2 24 bo
: 1691 3 24 dy
: 1695 3 21  who
* 1699 3 24  looked
: 1704 4 21  like
: 1712 14 25  you
- 1769
: 1843 4 22 Ooh
- 1859
: 1863 2 9 I've
: 1866 2 16  got
: 1869 1 16  a
: 1871 4 16  feel
: 1876 2 18 ~
: 1879 2 18 ing
- 1891
: 1905 2 12 That
: 1909 4 16  keeps
: 1916 3 12  me
: 1920 5 9  on
: 1927 3 7  my
: 1932 8 9  toes
- 1950
: 1958 4 12 Oh
: 1964 2 12  yeah
: 1967 2 11 ~
: 1970 2 9 ~
- 1993
: 2027 7 24 Oh
* 2036 8 23  yeah
- 2065
: 2107 2 13 I've
: 2110 2 16 ~
: 2115 3 16  got
: 2119 2 16  a
: 2124 3 16  feel
: 2128 2 18 ~
: 2131 5 18 ing
- 2148
: 2152 2 13 I
: 2155 3 18  think
: 2159 3 16  that
* 2163 6 24  ev
: 2170 4 24 ery
: 2175 4 23 bo
: 2180 2 18 ~
: 2183 2 18 dy
: 2187 14 21  knows
- 2209
: 2212 5 12 Oh
: 2218 2 12  yeah
: 2221 2 11 ~
: 2224 1 9 ~
- 2246
* 2276 5 21 Oh
: 2283 11 21  yeah
- 2315
: 2340 6 12 Oh
: 2347 3 12  yeah
: 2351 3 11 ~
: 2355 1 9 ~
- 2366
: 2376 27 21 Yeah
: 2404 2 16 ~
: 2412 22 24  yeah
- 2444
: 2457 5 18 I've
* 2464 4 19  got
: 2469 2 21  a
: 2473 5 24  feel
: 2479 10 21 ing
: 2493 8 21  yeah
- 2522
: 2568 6 11 Yeah
- 2584
: 2615 3 11 Ev
: 2619 2 13 ery
: 2623 4 11 bo
: 2628 3 9 dy
: 2633 2 9  had
: 2636 2 6  a
: 2640 6 9  hard
: 2649 3 9  year
: 2653 3 11 ~
- 2666
: 2679 3 11 Ev
: 2683 3 13 ery
: 2688 3 11 bo
: 2692 2 9 dy
: 2695 3 9  had
: 2699 2 6  a
: 2703 2 9  good
: 2706 3 11 ~
: 2711 9 6  time
- 2730
: 2743 3 11 Ev
: 2747 3 13 ery
: 2751 3 11 bo
: 2755 2 9 dy
: 2758 4 9  had
: 2763 2 6  a
: 2767 4 9  wet
: 2774 5 9  dream
: 2780 6 11 ~
- 2796
: 2808 3 11 Ev
: 2812 2 13 ery
: 2815 2 11 bo
: 2818 2 9 dy
: 2822 4 9  saw
: 2827 2 6  the
* 2830 3 9  sun
: 2834 2 11 ~
: 2838 9 6 shine
- 2850
: 2852 3 12 Oh
: 2857 4 11  yeah
: 2862 5 9 ~
F 2871 2 13  oh
F 2874 2 11  yeah
- 2880
: 2882 3 12 Oh
: 2887 11 11  yeah
- 2905
: 2908 4 13 Oh
: 2913 2 11 ~
: 2916 3 9 ~
: 2920 9 9  yeah
- 2950
: 2974 10 12 Yeah
- 2992
: 2995 3 11 Ev
: 2999 2 13 ery
: 3004 3 11 bo
: 3008 2 9 dy
: 3012 2 9  had
: 3015 1 6  a
: 3019 5 9  good
: 3028 3 9  year
: 3032 2 11 ~
- 3044
: 3059 2 11 Ev
* 3062 2 13 ery
: 3067 3 11 bo
: 3071 2 9 dy
: 3074 3 9  let
: 3079 2 6  their
: 3083 3 9  hair
: 3087 3 11 ~
: 3092 11 6  down
- 3113
: 3122 3 11 Ev
: 3126 2 13 ery
: 3130 3 11 bo
: 3134 2 9 dy
: 3139 2 9  pulled
: 3142 2 6  their
: 3146 6 9  socks
: 3154 3 9  up
: 3158 4 11 ~
- 3172
: 3186 3 11 Ev
: 3190 2 13 ery
: 3195 2 11 bo
: 3198 2 9 dy
: 3203 2 9  put
: 3208 2 6  the
: 3212 4 9  fool
: 3217 2 11 ~
: 3220 7 6  down
- 3230
: 3232 4 11 Oh
: 3237 2 13 ~
: 3240 6 9  yeah
- 3289
: 3360 8 16 Yeah
- 3411
: 3460 21 10 Ooh
: 3483 8 10  hoo
- 3499
: 3502 6 16 I've
: 3510 4 16  got
: 3515 2 16  a
: 3519 4 16  feel
: 3524 2 18 ~
: 3527 6 18 ing
- 3543
: 3555 2 11 A
: 3559 3 16  feel
: 3563 4 11 ing
: 3568 6 13 ~
: 3576 3 11  deep
: 3580 6 7  in
: 3588 15 9 side
: 3606 5 12  oh
: 3615 2 12  yeah
: 3618 2 11 ~
: 3621 1 9 ~
- 3628
: 3631 3 11 Ev
: 3635 2 13 ery
: 3639 3 11 bo
: 3643 2 9 dy
: 3648 3 9  had
: 3652 2 6  a
: 3655 4 9  wet
: 3663 3 9  dream
: 3667 7 11 ~
- 3684
: 3695 2 11 Ev
: 3698 2 13 ery
: 3703 3 11 bo
: 3707 2 9 dy
: 3710 4 9  saw
: 3715 2 6  the
: 3718 3 11  sun
: 3726 7 6 shine
- 3743
: 3758 6 16 I've
: 3766 2 16  got
: 3769 2 16  a
: 3775 3 16  feel
: 3779 2 18 ~
: 3782 5 18 ing
- 3797
: 3810 2 12 A
: 3814 3 16  feel
: 3818 4 12 ing
: 3823 2 13 ~
: 3830 3 9  I
: 3834 5 9  can't
: 3840 4 8 ~
: 3846 14 9  hide
: 3862 4 12  oh
: 3869 2 12  no
: 3872 2 11 ~
: 3875 1 9 ~
- 3883
: 3886 2 11 Ev
: 3889 2 13 ery
: 3894 2 11 bo
: 3897 2 9 dy
: 3902 2 9  pulled
: 3905 2 6  their
: 3908 6 9  socks
: 3918 3 9  up
: 3922 5 11 ~
- 3937
: 3949 3 11 Ev
: 3953 2 13 ery
: 3957 3 11 bo
: 3961 2 9 dy
: 3965 2 9  put
: 3968 2 6  their
: 3973 4 11  foot
: 3981 8 6  down
- 3992
: 3994 18 16 Yeah
: 4014 20 21  yeah
- 4055
: 4078 3 14 I've
: 4082 2 14  got
: 4085 2 12  a
: 4090 4 14  feel
: 4095 4 16 ing
: 4100 2 13 ~
- 4123
: 4174 2 16 I
: 4179 3 16  got
: 4183 2 16  a
: 4186 3 25  feel
: 4190 3 19 ing
: 4194 12 21 ~
- 4249
: 4297 2 19 I've
: 4300 3 21  got
: 4305 2 16  a
: 4308 4 25  feel
: 4313 3 19 ing
: 4317 11 21 ~
- 4337
: 4340 4 16 Yeah
: 4346 7 15  yeah
: 4354 5 13 ~
: 4364 2 9  yeah
: 4367 2 7 ~
: 4371 6 13  yeah
E