#TITLE:Build Me Up Buttercup
#ARTIST:The Foundations
#MP3:The Foundations - Build Me Up Buttercup.mp3
#VIDEO:The Foundations - Build Me Up Buttercup [VD#0].avi
#COVER:The Foundations - Build Me Up Buttercup [CO].jpg
#BACKGROUND:The Foundations - Build Me Up Buttercup [CO].jpg
#BPM:268
#GAP:18470,15
#VIDEOGAP:0
#ENCODING:UTF8
#LANGUAGE:Englisch
#GENRE:Pop
#EDITION:SingStar Party
#YEAR:1968
: 0 4 72 Why
: 8 8 69  do
: 16 4 67  you
: 21 8 65  build
: 29 2 64  me
: 32 4 64  up
- 38
: 53 8 65 But
: 61 3 64 ter
: 64 3 64 cup,
: 68 8 62  ba
: 76 2 64 by
- 79
: 79 4 64 Just
: 85 2 64  to
: 88 4 62  let
: 93 2 60  me
: 96 4 62  down
- 102
: 117 2 60 And
: 120 4 65  mess
: 125 2 65  me
: 128 4 65  a
: 133 6 64 round
- 140
: 140 2 62 And
: 143 3 60  then
: 148 8 65  worst
: 156 2 64  of
: 159 3 64  all
- 164
: 180 2 60 You
: 183 5 65  ne
: 188 2 64 ver
: 191 5 64  call,
: 196 8 62  ba
: 204 2 64 by
- 207
: 207 4 64 When
: 213 2 64  you
: 216 5 62  say
: 221 2 60  you
: 224 2 60  will
- 228
: 244 3 60 But
: 247 5 65  I
: 252 3 65  love
: 255 4 65  you
: 260 2 64  still
: 262 2 62 ~
: 264 2 60 ~
- 267
: 268 2 64 I
: 271 4 65  need
* 276 6 67  you
- 284
: 300 2 64 More
: 303 4 65  than
: 308 8 67  a
: 316 2 69 ny
: 318 3 67 one,
: 323 8 65  dar
: 331 2 64 lin'
- 335
: 339 3 60 You
: 343 6 65  know
: 349 6 65  that
: 355 5 65  I
: 360 4 65  have
- 365
: 365 4 64 From
: 370 4 62  the
: 375 5 62  start
: 380 2 60 ~
: 382 5 62 ~
: 387 2 60 ~
- 391
: 406 2 60 So
: 409 5 65  build
: 414 2 64  me
: 417 5 64  up
- 424
: 438 7 64 But
: 445 2 62 ter
: 448 5 62 cup
- 455
: 457 4 62 Don't
: 462 4 60  break
: 467 6 59  my
: 473 3 62  heart
: 476 11 60 ~
- 489
: 530 5 55 ''I'll
: 535 2 55  be
: 538 5 55  o
: 543 3 57 ver
: 546 4 60  at
: 550 5 62  ten''
- 556
: 558 3 62 You
: 561 4 62  told
: 566 2 62  me
: 569 5 62  time
: 574 2 60  and
: 577 5 60  a
: 582 3 62 gain
: 585 4 57 ~
- 590
: 590 3 57 But
: 593 5 60  you're
* 598 5 64  late
- 605
: 622 2 64 I
: 624 6 62  wait
: 630 3 60  a
: 633 4 62 round
: 638 2 57  and
: 641 5 57  then
- 648
: 662 2 55 I
: 665 5 55  run
: 670 3 57  to
: 673 4 60  the
: 678 6 62  door
- 685
: 685 3 62 I
: 688 5 62  can't
: 693 7 62  take
: 701 2 60  a
: 704 5 60 ny
: 709 3 62  more
: 712 4 57 ~
- 717
: 717 3 57 It's
: 720 5 60  not
: 725 8 64  you
- 735
: 749 3 64 You
: 752 3 62  let
: 757 3 60  me
: 760 4 62  down
: 765 3 57  a
: 768 5 57 gain
- 775
: 799 5 65 Ba
: 804 2 62 by,
: 807 5 65  ba
: 812 3 62 by
- 817
: 822 5 65 Try
: 827 2 62  to
: 830 8 67  find
- 840
: 859 2 64 A
: 862 5 67  lit
: 867 2 64 tle
: 870 5 67  time
- 877
: 882 2 64 And
: 885 5 67  I'll
: 893 5 67  make
: 898 2 67  you
: 901 5 65  mine
: 906 3 64 ~
- 911
: 914 7 65 I'll
: 921 2 64  be
: 924 5 65  home
- 931
: 936 2 65 I'll
: 939 3 64  be
: 944 3 62  be
: 947 5 66 side
: 952 3 66  the
: 955 5 66  phone
- 961
: 963 4 66 Wait
: 969 4 64 ing
: 975 3 66  for
* 980 22 67  you
- 1004
: 1012 7 69 Ooh
: 1019 4 64 ~
: 1023 11 67 ~
- 1036
: 1043 8 69 Ooh
: 1051 4 64 ~
: 1055 11 67 ~
- 1068
: 1084 4 72 Why
: 1092 8 69  do
: 1100 4 67  you
: 1105 8 65  build
: 1113 2 64  me
: 1116 4 64  up
- 1122
: 1137 7 65 But
: 1144 3 64 ter
: 1147 3 64 cup,
: 1152 8 62  ba
: 1160 2 64 by
- 1163
: 1163 4 64 Just
: 1169 2 64  to
: 1172 4 62  let
: 1177 2 60  me
: 1180 4 62  down
- 1186
: 1200 2 60 And
: 1203 4 65  mess
: 1208 2 65  me
: 1211 4 65  a
* 1216 7 64 round
- 1224
: 1224 2 62 And
: 1227 3 60  then
: 1232 8 65  worst
: 1240 2 64  of
: 1243 3 64  all
- 1248
: 1264 2 60 You
: 1267 5 65  ne
: 1272 2 64 ver
: 1275 5 64  call,
: 1280 8 62  ba
: 1288 2 64 by
- 1291
: 1291 4 64 When
: 1297 2 64  you
: 1300 5 62  say
: 1305 2 60  you
: 1308 2 60  will
- 1312
: 1328 3 60 But
: 1331 5 65  I
: 1336 3 65  love
: 1339 4 65  you
: 1344 2 64  still
: 1346 2 62 ~
: 1348 2 60 ~
- 1351
: 1352 2 64 I
: 1355 4 65  need
: 1360 6 67  you
- 1368
: 1385 2 64 More
: 1388 4 65  than
* 1393 8 67  a
: 1401 2 69 ny
: 1403 3 67 one,
: 1408 9 65  dar
: 1417 2 64 lin'
- 1421
: 1424 3 60 You
: 1428 6 65  know
: 1434 6 65  that
: 1440 5 65  I
: 1445 4 65  have
- 1450
: 1450 4 64 From
: 1455 4 62  the
: 1460 6 62  start
: 1466 2 60 ~
: 1468 5 62 ~
: 1473 2 60 ~
- 1477
: 1490 2 60 So
: 1493 5 65  build
: 1498 2 64  me
: 1501 5 64  up
- 1508
: 1522 8 64 But
: 1530 2 62 ter
: 1533 5 62 cup
- 1540
: 1542 4 62 Don't
: 1547 4 60  break
: 1552 6 59  my
: 1558 3 62  heart
: 1561 11 60 ~
- 1574
: 1622 6 55 You
: 1628 3 57  were
: 1632 4 60  my
: 1636 6 62  toy
- 1643
: 1644 3 62 But
: 1647 4 62  I
: 1652 8 62  could
: 1660 2 60  be
: 1663 5 60  the
: 1668 3 62  boy
: 1671 4 57 ~
- 1676
: 1676 3 57 You
: 1679 5 60  a
: 1684 5 64 dore
- 1691
: 1708 2 64 If
: 1710 6 62  you'd
: 1716 3 60  just
: 1719 4 62  let
: 1724 2 57  me
: 1727 5 57  know
- 1734
: 1747 2 55 Al
: 1750 5 55 though
: 1755 3 57  you're
: 1758 4 60  un
: 1763 6 62 true
- 1770
: 1771 3 62 I'm
: 1774 5 62  at
: 1779 7 62 tract
: 1787 2 60 ed
: 1790 5 60  to
: 1795 3 62  you
: 1798 4 57 ~
- 1803
: 1803 3 57 All
: 1806 5 60  the
* 1811 8 64  more
- 1821
: 1835 3 64 Why
: 1838 3 62  do
: 1843 3 60  I
: 1846 5 62  need
: 1851 3 57  you
: 1854 5 57  so
- 1861
: 1886 5 65 Ba
: 1891 2 62 by,
: 1894 5 65  ba
: 1899 3 62 by
- 1904
: 1909 5 65 Try
: 1914 2 62  to
* 1917 8 67  find
- 1927
: 1945 2 64 A
: 1948 5 67  lit
: 1953 2 64 tle
: 1956 5 67  time
- 1963
: 1968 2 64 And
: 1971 5 67  I'll
: 1979 5 67  make
: 1984 2 67  you
: 1987 5 65  mine
: 1992 3 64 ~
- 1997
: 2000 7 65 I'll
: 2007 2 64  be
: 2010 5 65  home
- 2017
: 2022 2 65 I'll
: 2025 3 64  be
: 2030 3 62  be
: 2033 5 66 side
: 2038 3 66  the
: 2041 5 66  phone
- 2047
: 2049 4 66 Wait
: 2055 4 64 ing
: 2061 3 66  for
: 2066 22 67  you
- 2090
: 2097 7 69 Ooh
: 2104 5 64 ~
: 2109 11 67 ~
- 2122
: 2128 8 69 Ooh
: 2136 5 64 ~
* 2141 11 67 ~
- 2154
: 2168 4 72 Why
: 2177 8 69  do
: 2185 4 67  you
* 2190 8 65  build
: 2198 2 64  me
: 2201 4 64  up
- 2207
: 2223 8 65 But
: 2231 3 64 ter
: 2234 3 64 cup,
: 2238 8 62  ba
: 2246 2 64 by
- 2249
: 2249 4 64 Just
: 2255 2 64  to
: 2258 4 62  let
: 2263 2 60  me
: 2266 4 62  down
- 2272
: 2287 2 60 And
: 2290 4 65  mess
: 2295 2 65  me
: 2298 4 65  a
: 2303 6 64 round
- 2310
: 2310 2 62 And
: 2313 3 60  then
: 2318 8 65  worst
: 2326 2 64  of
: 2329 3 64  all
- 2334
: 2350 2 60 You
: 2353 5 65  ne
: 2358 2 64 ver
: 2361 5 64  call,
: 2366 8 62  ba
: 2374 2 64 by
- 2377
: 2377 4 64 When
: 2383 2 64  you
: 2386 5 62  say
: 2391 2 60  you
: 2394 2 60  will
- 2398
: 2414 3 60 But
: 2417 5 65  I
: 2422 3 65  love
: 2425 4 65  you
: 2430 2 64  still
: 2432 2 62 ~
: 2434 2 60 ~
- 2437
: 2438 2 64 I
: 2441 4 65  need
: 2446 6 67  you
- 2454
: 2471 2 64 More
: 2474 4 65  than
: 2479 8 67  a
: 2487 2 69 ny
: 2489 3 67 one,
: 2494 8 65  dar
: 2502 2 64 lin'
- 2506
: 2510 3 60 You
: 2514 6 65  know
: 2520 6 65  that
: 2526 5 65  I
: 2531 4 65  have
- 2536
: 2536 4 64 From
: 2541 4 62  the
: 2546 5 62  start
: 2551 2 60 ~
: 2553 5 62 ~
: 2558 2 60 ~
- 2562
: 2576 2 60 So
: 2579 5 65  build
: 2584 2 64  me
: 2587 5 64  up
- 2594
* 2608 7 64 But
: 2615 2 62 ter
: 2618 5 62 cup
- 2625
: 2627 4 62 Don't
: 2633 4 60  break
: 2638 6 59  my
: 2644 5 60  heart
: 2649 11 57 ~
E