#TITLE:Forelska i lćrer'n
#ARTIST:The Kids
#LANGUAGE:Norwegian
#EDITION:SingStar Norske Hits
#GENRE:Rock
#YEAR:2000
#MP3:The Kids - Forelska i lćrer'n.mp3
#COVER:The Kids - Forelska i lćrer'n [CO].jpg
#BACKGROUND:The Kids - Forelska i lćrer'n [BG].jpg
#BPM:249
#GAP:9036,14
: 0 3 56 Hun
: 4 3 56  sit
: 8 3 56 ter
: 12 3 56  for
: 16 3 56 an
: 20 3 56  meg
: 24 3 56  pĺ
- 28
: 28 4 56 Fřr
: 37 4 54 ste
: 41 6 52  rad
: 49 4 52  hun
: 53 4 56  har
- 59 60
: 68 6 61 Blĺe
: 77 3 61  řy
: 81 3 61 ne
- 85
: 85 3 61 Er
: 89 3 61  be
: 93 6 61 stan
: 101 2 59 dig
: 105 8 57  glad
- 115 116
: 129 3 63 Jeg
: 133 3 63  er
: 137 3 63  for
: 141 4 63 el
: 145 3 61 ska
: 149 3 61  men
: 153 4 61  jeg
- 159
: 165 5 61 Fĺr
: 174 2 61  det
: 181 2 59  ikke
: 186 7 59  frem
: 194 3 54 ~
* 198 7 56 ~
- 207 237
: 257 3 56 Jeg
: 261 3 56  sen
: 265 3 56 der
: 269 3 56  lap
: 273 3 56 per
- 277
: 277 3 56 Men
: 281 3 56  jeg
: 285 3 56  fĺk
: 289 4 56 ke
: 293 3 54  no
: 298 8 52  svar
- 308 309
: 322 3 61 Hun
: 326 3 61  sy
: 330 3 61 nes
: 334 3 61  at
: 338 4 61  jeg
: 342 3 61  ik
: 346 3 61 ke
- 350
: 350 4 61 Er
: 354 3 59  no
: 358 2 57  til
: 363 8 57  kar
- 373 374
: 386 3 63 Hun
: 390 3 63  er
: 394 3 63  for
: 398 3 63 el
: 402 3 61 ska
: 406 5 61  men
- 413 414
: 422 5 61 Det
: 427 3 61  er
: 431 3 59  ikke
: 435 7 59  i
: 443 8 59  meg
: 451 4 54 ~
* 455 10 56 ~
- 467 494
: 514 3 68 Hun
: 518 3 68  er
: 522 3 68  forel
: 526 3 68 ska
: 530 6 64  i
: 538 8 64  lć
: 546 6 68 rer'n
- 554 565
: 585 3 68 Forel
: 589 4 68 ska
: 593 7 64  i
: 601 8 64  lć
: 609 10 61 rer'n
- 621 622
: 641 3 68 Hun
: 645 3 68  er
: 649 3 68  forel
: 653 3 68 ska
: 657 7 64  i
: 665 8 64  lć
: 673 3 68 rer'n
- 678
: 680 3 64 Og
: 684 4 68  ikke
: 688 10 64  i
* 700 21 64  meg
- 723 879
: 899 3 56 Lć
: 903 3 56 rer'n
: 907 5 56  vĺr
- 913
: 915 3 56 Er
: 923 8 56  tju
: 931 4 54 e
: 935 7 52  ĺr
: 943 4 52  han
: 947 4 56  har
- 953 954
: 963 3 61 Kraf
: 967 3 61 tig
: 971 4 61  kropp
- 977
: 979 3 61 Og
: 987 4 61  halv
: 991 5 59 langt
* 1000 7 57  hĺr
- 1009 1010
: 1028 3 63 Han
: 1032 3 63  er
: 1036 8 63  he
: 1044 3 61 le
: 1049 7 61  skol
: 1057 4 59 ens
- 1063
: 1069 5 59 Don
: 1077 4 61 Ju
: 1081 6 59 an
: 1089 4 54 ~
: 1093 6 56 ~
- 1101 1133
: 1153 3 56 Og
: 1157 3 56  jeg
: 1161 3 56  er
: 1165 7 56  bar
: 1173 3 56 e
- 1178
: 1181 3 56 Fem
: 1189 4 54 ten
: 1193 3 52  ĺr
: 1197 3 52  og
: 1201 3 52  hun
: 1205 3 56  si
: 1209 4 56 er
- 1215
: 1222 3 61 Kom
: 1226 3 61  til
: 1230 3 61 bak
: 1234 3 61 e
- 1238
: 1238 3 61 Om
: 1246 7 61  fi
: 1254 4 59 re
* 1258 10 57  ĺr
- 1270 1271
: 1283 3 63 Hun
: 1287 3 63  er
: 1291 3 63  for
: 1295 3 63 el
: 1299 3 61 ska
: 1303 4 61  men
- 1309 1310
: 1319 3 61 Det
: 1323 4 61  er
: 1327 3 59  ikke
: 1331 5 59  i
: 1339 8 59  meg
: 1347 4 54 ~
: 1351 12 56 ~
- 1365 1391
: 1411 3 68 Hun
: 1415 3 68  er
: 1419 3 68  forel
: 1423 3 68 ska
: 1427 6 64  i
: 1435 8 64  lć
: 1443 7 68 rer'n
- 1452 1462
: 1482 3 68 Forel
: 1486 3 68 ska
: 1490 6 64  i
: 1498 8 64  lć
: 1506 11 61 rer'n
- 1519 1520
: 1538 3 68 Hun
: 1542 3 68  er
: 1546 3 68  forel
: 1550 4 68 ska
: 1554 6 64  i
: 1562 8 64  lć
: 1570 4 68 rer'n
- 1575
: 1577 4 64 Og
: 1581 4 68  ikke
: 1585 10 64  i
: 1597 19 64  meg
- 1618 1642
: 1662 3 68 Hun
: 1666 3 68  er
: 1670 3 68  forel
: 1674 4 68 ska
: 1678 6 64  i
: 1686 8 64  lć
: 1694 7 68 rer'n
- 1703 1714
: 1734 3 68 Forel
: 1738 4 68 ska
: 1742 7 64  i
: 1750 9 64  lć
: 1759 9 61 rer'n
- 1770 1771
: 1790 3 68 Hun
: 1794 3 68  er
: 1798 3 68  forel
: 1802 4 68 ska
: 1806 6 64  i
: 1814 7 64  lć
: 1822 4 68 rer'n
- 1828
: 1830 4 64 Og
: 1834 4 68  ikke
: 1838 10 64  i
: 1850 18 64  meg
- 1870 2400
: 2420 3 68 Hun
: 2424 3 68  er
: 2428 3 68  forel
: 2432 4 68 ska
: 2436 7 64  i
: 2444 8 64  lć
* 2452 4 68 rer'n
- 2458 2472
: 2492 3 68 Forel
: 2496 4 68 ska
: 2500 7 64  i
: 2508 8 64  lć
: 2516 10 61 rer'n
- 2528 2529
: 2547 3 68 Hun
: 2551 3 68  er
: 2555 3 68  forel
: 2559 4 68 ska
: 2563 7 64  i
: 2571 7 64  lć
: 2579 4 68 rer'n
- 2585
: 2587 4 64 Og
: 2591 4 68  ikke
: 2595 10 64  i
* 2607 17 64  meg
- 2626 2653
: 2673 3 68 Hun
: 2677 3 68  er
: 2681 3 68  forel
: 2685 4 68 ska
: 2689 7 64  i
: 2697 7 64  lć
* 2705 5 68 rer'n
- 2712 2724
: 2744 3 68 Forel
: 2748 4 68 ska
: 2752 7 64  i
: 2760 8 64  lć
: 2768 10 61 rer'n
- 2780 2781
: 2799 3 68 Hun
: 2803 3 68  er
: 2807 3 68  forel
: 2811 4 68 ska
: 2815 7 64  i
* 2823 8 64  lć
: 2831 4 68 rer'n
- 2837
: 2839 3 64 Og
: 2843 4 68  ikke
: 2847 10 64  i
* 2859 19 64  meg
E
