#TITLE:Be My Thrill
#ARTIST:The Weepies
#MP3:The Weepies - Be My Thrill.mp3
#VIDEO:The Weepies - Be My Thrill.mp4
#COVER:The Weepies - Be My Thrill.jpg
#BPM:300
#GAP:3400
#ENCODING:UTF8
#AUTHOR:Unknown
: 0 5 13 Be
: 6 6 16  my
: 13 15 13  thrill
- 38
: 54 4 13 My
: 59 3 13  lit
: 62 2 13 tle
: 65 5 16  white
: 71 12 13  pill
- 93
: 114 1 13 My
: 118 4 13  un
: 125 5 16 paid
: 133 10 13  bill
- 153
: 170 3 8 The
: 174 5 11  one
: 180 6 11  who
: 187 16 13  will
- 213
: 231 5 13 Be
: 237 6 16  my
: 244 15 13  love
- 269
: 285 4 13 My
: 290 3 13  lit
: 293 2 13 tle
: 296 5 16  grey
: 302 12 13  dove
- 324
: 342 3 13 My
: 346 4 13  push
: 351 3 13  and
: 355 5 16  my
: 361 13 13  shove
- 384
: 401 4 2 My
: 406 3 4  heav
: 410 3 9 en
: 414 6 4  ab
: 421 11 13 ove
- 442
: 449 3 13 And
: 453 6 11  we
: 460 7 8  tum
: 467 4 3 ble
: 472 3 8  down
: 476 2 13  like
: 479 3 11  Jack
: 483 4 4  and
: 488 9 1  Jill
- 504
: 507 3 12 And
: 511 4 16  I
: 516 8 21  miss
: 525 3 14  all
: 529 2 8  of
: 532 3 6  the
: 536 3 6  joy
: 540 5 1  you
: 546 7 3  kill
- 561
: 564 3 16 But
: 568 6 16  I
: 575 5 21  l
: 580 7 20 o
: 587 8 16 v
: 595 2 18 e
: 598 3 9  you
: 602 9 9  still
- 618
: 621 4 4 Be
: 626 5 11  my
: 632 13 13  thrill
- 665
: 696 5 13 Be
: 702 6 16  my
: 709 15 13  one
- 734
: 751 1 13 My
: 754 1 13  day
: 757 2 13  in
: 761 5 16  the
: 769 9 13  sun
- 788
: 807 4 13 My
: 812 3 13  lit
: 815 2 13 tle
: 818 5 16  pop
: 824 12 13  gun
- 846
: 864 4 2 The
: 869 3 4  best
: 873 3 9  thing
: 877 6 4  I've
: 884 11 13  done
- 905
: 928 5 13 Be
: 934 6 16  my
: 941 15 13  what
- 966
: 979 4 13 My
: 984 3 13  op
: 987 2 13 en
: 990 5 16  and
: 996 12 13  shut
- 1018
: 1037 4 13 My
: 1042 3 13  ev
: 1045 2 13 ery
: 1048 5 16 thing
: 1054 12 13  but
- 1076
: 1095 4 2 My
: 1100 3 4  lit
: 1104 3 9 tle
: 1108 6 4  hot
: 1115 11 13  slut
- 1138
: 1142 3 13 And
: 1146 6 11  we
: 1153 7 8  tum
: 1160 4 3 ble
: 1165 3 8  down
: 1169 2 13  like
: 1172 3 11  Jack
: 1176 4 4  and
: 1181 9 1  Jill
- 1197
: 1200 3 12 And
: 1204 4 16  I
: 1209 8 21  miss
: 1218 3 14  all
: 1222 2 8  of
: 1225 3 6  the
: 1229 3 6  joy
: 1233 5 1  you
: 1239 7 3  kill
- 1254
: 1257 3 16 But
: 1261 6 16  I
: 1268 5 21  l
: 1273 7 20 o
: 1280 8 16 v
: 1288 2 18 e
: 1291 3 9  you
: 1295 9 9  still
- 1311
: 1314 4 4 Be
: 1319 5 11  my
: 1325 13 13  thrill
- 1348
: 1367 4 12 Eve
: 1371 4 13 ry
: 1376 2 13  morn
: 1378 3 16 ing
: 1383 6 9  is
: 1391 7 11  like
: 1398 5 10 ~
: 1404 10 9  the
: 1418 13 13  one
: 1433 11 16  be
: 1444 15 16 fore
- 1469
: 1480 3 12 And
: 1484 2 12  eve
: 1486 3 13 ry
: 1490 3 13 bod
: 1493 4 16 y
: 1498 5 9  needs
- 1503
: 1504 13 10 some
: 1517 13 9 one
: 1532 14 13  to
: 1547 13 16  ad
: 1560 15 16 ore
- 1581
: 1584 6 14 I'm
: 1591 7 17  coun
: 1598 4 17 ting
: 1603 6 1  on
: 1610 13 1  you
- 1633
: 1645 4 16 Oh
: 1650 5 16  oh
: 1656 2 16  ba
: 1658 3 13 by
: 1662 5 9  say
: 1668 6 4  you
: 1675 7 2  will
- 1692
: 1705 4 16 Oh
: 1710 3 16  oh
: 1714 2 16  ba
: 1716 4 13 by
: 1721 3 9  be
: 1725 3 4  my
: 1729 9 2  thrill
- 1758
: 1794 5 13 Be
: 1800 6 16  my
: 1807 15 13  youth
- 1832
: 1850 1 13 My
: 1854 1 13  kiss
: 1858 4 16 ing
: 1864 16 13  booth
- 1890
: 1905 4 13 My
: 1910 3 13  lit
: 1913 2 13 tle
: 1916 5 16  sweet
: 1922 12 13  tooth
- 1944
: 1961 4 2 My
: 1966 3 4  beaut
: 1970 3 9 y
: 1974 6 4  and
: 1981 11 13  truth
- 2002
: 2026 5 13 Be
: 2032 6 16  my
: 2039 15 13  thrill
- 2064
: 2080 4 13 My
: 2085 3 13  lit
: 2088 2 13 tle
: 2091 5 16  white
: 2097 12 13  pill
- 2119
: 2138 4 13 My
: 2143 2 13  wait
: 2146 2 13  up
: 2149 5 16  un
: 2155 12 13 til
- 2177
: 2197 3 8 The
: 2201 5 11  one
: 2207 6 11  who
: 2214 16 13  will
- 2239
: 2243 3 13 And
: 2247 6 11  we
: 2254 7 8  tum
: 2261 4 3 ble
: 2266 3 8  down
: 2270 2 13  like
: 2273 3 11  Jack
: 2277 4 4  and
: 2282 9 1  Jill
- 2298
: 2301 3 12 And
: 2305 4 16  I
: 2310 8 21  miss
: 2319 3 14  all
: 2323 2 8  of
: 2326 3 6  the
: 2330 3 6  joy
: 2334 5 1  you
: 2340 7 3  kill
- 2355
: 2358 3 16 But
: 2362 6 16  I
: 2369 5 21  l
: 2374 7 20 o
: 2381 8 16 v
: 2389 2 18 e
: 2392 3 9  you
: 2396 9 9  still
- 2412
: 2415 4 4 Be
: 2420 5 11  my
: 2426 13 13  thrill
- 2449
: 2474 3 13 And
: 2478 6 11  we
: 2485 7 8  tum
: 2492 4 3 ble
: 2497 3 8  down
: 2501 2 13  like
: 2504 3 11  Jack
: 2508 4 4  and
: 2513 9 1  Jill
- 2529
: 2532 3 12 And
: 2536 4 16  I
: 2541 8 21  miss
: 2550 3 21  all
: 2554 2 15  of
: 2557 3 13  the
: 2561 3 13  joy
: 2565 5 8  you
: 2571 7 21  kill
- 2586
: 2589 3 16 But
: 2593 6 16  I
: 2600 5 21  l
: 2605 7 20 o
: 2612 8 16 v
: 2620 2 18 e
: 2623 3 9  you
: 2627 9 9  still
- 2643
: 2646 4 4 Be
: 2651 5 11  my
: 2657 13 13  thrill
- 2680
: 2706 3 16 Yeah
: 2710 6 16  I
: 2717 5 21  l
: 2722 7 20 o
: 2729 8 16 v
: 2737 2 18 e
: 2740 3 9  you
: 2744 9 9  still
- 2760
: 2763 4 4 Be
: 2768 5 11  my
: 2774 13 13  thrill
E