#TITLE:Roses
#ARTIST:The Chainsmokers feat. ROZES
#GENRE:EDM
#YEAR:2015
#MP3:The Chainsmokers feat. ROZES - Roses.mp3
#COVER:The Chainsmokers feat. ROZES - Roses.jpg
#VIDEO:The Chainsmokers feat. ROZES - Roses.mp4
#BPM:200
#GAP:15408
#AUTHOR:amro98
: 0 1 2 Take
: 2 2 4 ~
: 6 3 -1  it
: 12 1 2  slow
: 14 4 4 ~
: 20 2 4  but
: 24 2 -1  it's
: 28 2 -1  not
: 32 2 4  ty
: 36 2 6 pi
: 40 6 8 cal
- 56
: 60 2 4 He
: 64 1 9  al
: 66 1 11 ~
: 68 2 8 rea
: 72 2 8 dy
* 75 1 6  knows
* 77 1 8 ~
* 79 5 6 ~
- 86
: 88 2 6 That
: 92 2 4  my
: 96 1 4  love
: 98 1 6 ~
: 100 2 4 ~
: 104 2 4  is
: 107 2 1 ~
: 112 7 1  fire
- 122
: 124 2 -1 His
: 128 1 2  heart
: 130 1 4 ~
: 132 2 -1  was
: 136 2 -1  a
* 140 1 2  stone
* 142 4 4 ~
: 148 2 2  but
: 152 1 1  then
: 154 1 -1 ~
: 156 1 -1  his
- 158
: 160 6 4 Hands
: 168 2 4  roam
: 171 4 6 ~
: 176 8 8 ~
- 185
: 187 1 4 I
: 191 1 9  turned
: 193 2 11 ~
: 196 3 8  him
: 200 2 6  to
: 204 1 6  gold
: 206 1 8 ~
: 208 6 6 ~
: 216 1 6  and
: 218 2 4  it
- 221
: 223 2 4 Took
: 226 3 6 ~
: 232 3 4  him
: 236 2 1 ~
: 240 8 1  higher
- 250
: 252 2 1 Oh
: 256 1 6  I'll
: 258 1 8 ~
: 261 1 1  be
: 264 2 1  your
: 268 2 6  day
: 271 1 8 ~
: 275 6 1 dream
- 286
: 288 1 6 I'll
: 290 1 8 ~
: 292 2 1  wear
: 296 1 1  your
: 300 1 6  fav
: 302 2 8 ~
: 305 1 1 orite
* 308 3 1  things
* 312 8 -1 ~
- 332
: 336 1 9 We
: 338 1 11 ~
: 340 1 11  could
: 344 4 11  be
: 352 2 8  beau
: 356 2 6 ti
: 360 3 6 ful
: 364 8 4 ~
- 378
: 380 1 1 Get
: 384 1 6  drunk
: 386 1 8 ~
: 388 2 1  on
: 392 2 1  the
: 396 3 6  good
: 400 1 8 ~
: 404 6 1  life
- 410
: 412 2 1 I'll
: 416 1 6  take
: 418 1 8 ~
: 420 2 1  you
: 424 2 1  to
* 428 1 6  pa
* 430 1 8 ~
* 432 1 1 ra
: 436 3 1 dise
: 440 6 -1 ~
- 456
: 464 1 9 Say
: 466 2 11 ~
: 469 1 11  you'll
: 472 3 8  ne
: 476 2 8 ver
: 480 2 6  let
: 484 2 6  me
: 488 2 6  go
: 491 4 4 ~
- 495
: 496 2 4 Deep
: 499 1 1  in
: 501 1 1  my
: 504 2 4  bones
: 508 1 1  I
: 510 1 1  can
: 512 3 4  feel
: 516 4 -1  you
- 522
: 524 1 4 Take
: 526 1 1  me
: 528 2 4  back
: 532 1 1  to
: 534 1 1  a
: 536 2 4  time
: 540 1 1  only
: 542 1 1 ~
: 544 2 4  we
* 548 2 -1  knew
- 550
: 552 1 4 Hide
: 554 1 1 a
: 556 6 4 way
- 588
* 624 1 4 We
* 626 1 4  could
: 628 1 1  waste
: 630 1 1  the
: 632 2 4  night
: 636 1 1  with
: 638 1 1  an
: 640 2 4  old
: 643 3 1  film
- 646
: 648 1 4 Smoke
: 650 1 4  a
: 652 1 1  lit
: 654 1 1 tle
: 656 2 4  weed
- 658
: 659 1 1 On
: 661 1 1  the
: 664 3 4  couch
: 668 1 1  in
: 670 1 1  the
: 672 2 4  back
: 676 2 -1  room
- 678
: 680 1 4 Hide
: 682 1 1 a
: 684 6 4 way
- 703
: 720 1 9 Say
: 722 2 11 ~
: 725 1 11  you'll
: 728 3 8  ne
: 732 2 8 ver
: 736 2 6  let
: 740 2 6  me
: 744 2 6  go
: 747 4 4 ~
- 777
: 848 1 9 Say
: 850 2 11 ~
: 853 1 11  you'll
: 856 3 8  ne
: 860 2 8 ver
: 864 2 6  let
: 868 2 6  me
: 872 2 6  go
: 875 4 4 ~
- 905
: 1036 6 4 Ah
: 1043 1 6 ~
: 1045 1 8 ~
- 1050
: 1052 6 4 Ah
: 1059 1 6 ~
: 1061 1 8 ~
- 1066
* 1068 10 4 Ah
- 1088
: 1100 6 4 Ah
: 1107 1 6 ~
: 1109 1 8 ~
- 1114
: 1116 6 4 Ah
: 1123 1 6 ~
: 1125 1 8 ~
- 1130
: 1132 10 4 Ah
- 1152
: 1164 6 4 Ah
: 1171 1 6 ~
: 1173 1 8 ~
- 1178
: 1180 6 4 Ah
: 1187 1 6 ~
: 1189 1 8 ~
- 1194
: 1196 10 4 Ah
- 1216
: 1232 1 9 Say
: 1234 2 11 ~
: 1237 1 11  you'll
: 1240 3 8  ne
: 1244 2 8 ver
: 1248 2 6  let
: 1252 2 6  me
: 1256 2 6  go
: 1259 4 4 ~
- 1289
: 1360 1 9 Say
: 1362 2 11 ~
: 1365 1 11  you'll
: 1368 3 8  ne
: 1372 2 8 ver
: 1376 2 6  let
: 1380 2 6  me
: 1384 2 6  go
: 1387 4 4 ~
- 1417
: 1488 1 9 Say
: 1490 2 11 ~
: 1493 1 11  you'll
: 1496 3 8  ne
: 1500 2 8 ver
: 1504 2 6  let
: 1508 2 6  me
: 1512 2 6  go
: 1515 4 4 ~
- 1545
* 1580 6 4 Ah
* 1587 1 6 ~
* 1589 1 8 ~
- 1616
: 1708 6 4 Ah
: 1715 1 6 ~
: 1717 1 8 ~
- 1728
: 1744 1 9 Say
: 1746 2 11 ~
: 1749 1 11  you'll
: 1752 3 8  ne
: 1756 2 8 ver
: 1760 2 6  let
: 1764 2 6  me
: 1768 2 6  go
: 1771 4 4 ~
- 1775
: 1776 2 4 Deep
: 1779 1 1  in
: 1781 1 1  my
: 1784 2 4  bones
: 1788 1 1  I
: 1790 1 1  can
: 1792 3 4  feel
: 1796 4 -1  you
- 1802
: 1804 1 4 Take
: 1806 1 1  me
: 1808 2 4  back
: 1812 1 1  to
: 1814 1 1  a
: 1816 2 4  time
: 1820 1 1  only
: 1822 1 1 ~
: 1824 2 4  we
: 1828 2 -1  knew
- 1830
: 1832 1 4 Hide
: 1834 1 1 a
: 1836 6 4 way
- 1868
: 1904 1 4 We
: 1906 1 4  could
: 1908 1 1  waste
: 1910 1 1  the
: 1912 2 4  night
: 1916 1 1  with
: 1918 1 1  an
: 1920 2 4  old
: 1923 3 1  film
- 1926
: 1928 1 4 Smoke
: 1930 1 4  a
: 1932 1 1  little
: 1934 1 1 ~
: 1936 2 4  weed
- 1938
: 1939 1 1 On
: 1941 1 1  the
* 1944 3 4  couch
: 1948 1 1  in
: 1950 1 1  the
: 1952 2 4  back
: 1956 2 -1  room
- 1958
: 1960 1 4 Hide
: 1962 1 1 a
: 1964 6 4 way
- 1983
: 2000 1 9 Say
: 2002 2 11 ~
: 2005 1 11  you'll
: 2008 3 8  ne
: 2012 2 8 ver
: 2016 2 6  let
: 2020 2 6  me
: 2024 2 6  go
: 2027 4 4 ~
- 2057
: 2128 1 9 Say
: 2130 2 11 ~
: 2133 1 11  you'll
: 2136 3 8  ne
: 2140 2 8 ver
: 2144 2 6  let
: 2148 2 6  me
: 2152 2 6  go
: 2155 4 4 ~
- 2185
: 2316 6 4 Ah
: 2323 1 6 ~
: 2325 1 8 ~
- 2330
: 2332 6 4 Ah
: 2339 1 6 ~
: 2341 1 8 ~
- 2346
: 2348 10 4 Ah
- 2368
: 2380 6 4 Ah
: 2387 1 6 ~
: 2389 1 8 ~
- 2394
: 2396 6 4 Ah
: 2403 1 6 ~
: 2405 1 8 ~
- 2410
: 2412 10 4 Ah
- 2432
: 2444 6 4 Ah
: 2451 1 6 ~
: 2453 1 8 ~
- 2458
: 2460 6 4 Ah
: 2467 1 6 ~
: 2469 1 8 ~
- 2474
: 2476 10 4 Ah
- 2496
: 2512 1 9 Say
: 2514 2 11 ~
: 2517 1 11  you'll
: 2520 3 8  ne
: 2524 2 8 ver
* 2528 2 6  let
* 2532 2 6  me
: 2536 2 6  go
: 2539 4 4 ~
- 2569
: 2604 6 4 Ah
: 2611 1 6 ~
: 2613 1 8 ~
- 2624
: 2640 1 9 Say
: 2642 2 11 ~
: 2645 1 11  you'll
: 2648 3 8  ne
: 2652 2 8 ver
: 2656 2 6  let
: 2660 2 6  me
: 2664 2 6  go
: 2667 4 4 ~
- 2697
: 2732 6 4 Ah
: 2739 1 6 ~
: 2741 1 8 ~
E
