#TITLE:Your Love
#ARTIST:The Outfield
#MP3:The Outfield - Your Love.mp3
#VIDEO:The Outfield - Your Love [VD#0].avi
#COVER:The Outfield - Your Love [CO].jpg
#BPM:259,16
#GAP:2836,09
#VIDEOGAP:0
#ENCODING:UTF8
#EDITION:SingStar Pop Vol. 2
: 0 2 68 Jo
: 4 2 71 sie's
: 8 2 71  on
: 12 3 71  a
: 16 4 71  va
: 22 4 71 ca
: 28 3 71 tion
- 32
* 32 7 69 Far
: 40 4 68  a
: 44 4 66 ~
: 48 6 66 way
- 56
: 69 5 63 Come
: 76 3 66  a
: 80 3 66 round
: 84 2 66  and
: 88 3 66  talk
: 92 4 64  it
: 96 7 68  o
: 104 3 66 ver
: 107 4 64 ~
- 113
: 128 2 68 So
: 132 6 71  ma
: 140 2 71 ny
: 144 2 71  things
: 148 6 71  that
: 156 2 71  I
: 160 6 73  wan
: 168 2 68 na
: 172 4 68  say
: 176 6 66 ~
- 184
: 196 4 59 You
: 200 3 64  know
: 204 3 66  I
: 208 3 66  like
: 212 2 66  my
: 216 3 66  girls
- 220
: 220 3 64 A
: 224 3 68  lit
: 228 3 68 tle
: 232 6 68  bit
: 240 4 66  ol
: 244 5 64 der
- 251
: 256 4 61 I
: 260 3 63  just
: 264 3 64  wan
: 268 3 66 na
: 272 6 68  use
: 280 4 64  your
: 284 3 61 ~
: 288 6 61 love
- 296
: 300 3 68 To
: 304 12 68 night
: 316 4 66 ~
- 322
: 384 3 68 I
: 388 3 68  don't
: 392 3 68  wan
: 396 3 69 na
: 400 5 68  lose
: 408 4 64  your
: 412 3 61 ~
: 416 5 61 love
- 423
: 428 3 68 To
: 432 12 68 night
: 444 2 69 ~
: 446 2 68 ~
: 448 6 66 ~
- 456
: 508 3 64 I
: 512 3 68  ain't
: 516 2 71  got
: 520 2 71  ma
: 524 3 71 ny
: 528 4 71  friends
: 534 4 71  left
- 539
: 540 3 71 To
: 544 7 69  talk
: 552 6 68  to
: 560 5 66 ~
- 567
: 580 4 56 No
: 584 3 63 where
: 588 3 66  to
: 592 3 66  run
- 596
: 596 2 66 When
: 600 3 66  I'm
: 604 4 64  in
* 608 7 68  trou
: 616 3 66 ble
: 619 4 64 ~
- 625
: 644 2 64 You
: 648 2 68  know
: 652 2 71  I'd
: 656 2 71  do
: 660 6 71  a
: 668 2 71 ny
: 672 6 73 thing
- 679
: 680 6 68 For
: 688 4 68  you
: 692 4 66 ~
- 698
: 708 7 63 Stay
: 716 3 66  the
: 720 3 66  night
- 724
: 724 3 66 But
: 728 3 66  keep
: 732 3 64  it
: 736 6 68  un
: 744 6 68 der
: 752 4 66 co
: 756 5 64 ver
- 763
: 768 4 61 I
: 772 3 63  just
: 776 3 64  wan
: 780 3 66 na
: 784 6 68  use
: 792 4 64  your
: 796 3 61 ~
: 800 6 61 love
- 808
: 812 3 68 To
: 816 12 68 night
: 828 4 66 ~
- 834
: 861 13 64 Whoa
- 876
: 896 3 68 I
: 900 3 68  don't
: 904 3 68  wan
: 908 2 69 na
: 912 5 68  lose
: 920 4 64  your
: 924 3 61 ~
: 928 5 61 love
- 935
: 940 3 68 To
: 944 12 68 night
: 956 2 69 ~
: 958 2 68 ~
: 960 10 66 ~
- 972
: 1281 3 59 Tryin'
: 1285 3 59  to
: 1289 3 62  stop
: 1293 3 62  my
: 1297 6 61  hands
- 1304
: 1305 4 59 From
: 1313 7 57  shak
: 1321 11 59 in'
- 1334
: 1344 3 59 Some
: 1348 3 59 thin'
: 1351 2 62  in
: 1355 3 62  my
: 1361 5 64  mind's
- 1367
: 1369 7 62 Not
: 1377 6 61  mak
: 1385 9 62 in'
: 1396 7 59  sense
- 1404
: 1404 2 59 It's
: 1408 1 59  been
: 1410 2 59  a
: 1414 5 62  while
: 1420 4 62  since
- 1425
: 1425 6 61 We
: 1432 5 59  were
: 1437 7 57  all
: 1445 5 59  a
: 1452 3 59 lone
: 1455 3 57 ~
: 1458 3 55 ~
- 1463
: 1472 3 59 I
: 1476 3 59  can't
: 1480 3 62  hide
: 1484 3 62  the
: 1488 6 64  way
: 1496 6 64  I'm
: 1504 6 64  feel
* 1512 12 66 in'
- 1526
: 1537 2 68 As
: 1541 2 71  you
: 1545 2 71  leave
: 1549 3 71  me
- 1553
: 1553 4 71 Please
: 1559 4 71  would
: 1565 3 71  you
: 1569 7 69  close
: 1577 3 68  the
: 1580 3 66 ~
: 1584 6 66 door
- 1592
: 1605 3 59 And
: 1609 3 63  don't
: 1613 3 66  for
: 1617 3 66 get
: 1621 3 66  what
- 1626
: 1629 4 68 I
* 1633 7 68  told
: 1641 3 66  you
: 1644 4 64 ~
- 1650
: 1668 2 64 Just
: 1672 3 68  'cause
: 1676 2 71  you're
: 1680 2 71  right
- 1683
: 1684 3 71 That
: 1688 5 71  don't
: 1696 6 73  mean
: 1704 4 68  I'm
: 1712 4 68  wrong
: 1716 5 66 ~
- 1723
: 1732 4 59 A
: 1736 3 64 no
: 1740 3 66 ther
: 1744 3 66  shoul
: 1748 2 66 der
- 1752
: 1756 3 66 To
: 1760 6 68  cry
: 1768 6 68  u
: 1776 4 66 pon
: 1780 5 64 ~
- 1787
: 1792 4 61 I
: 1796 3 63  just
: 1800 3 64  wan
: 1804 3 66 na
: 1808 6 68  use
: 1816 4 64  your
: 1820 3 61 ~
: 1824 6 61 love
- 1832
: 1836 3 68 To
* 1840 12 68 night
: 1852 4 66 ~
- 1858
: 1892 9 68 Yeah
: 1901 2 66 ~
: 1903 3 64 ~
- 1908
: 1920 3 68 I
: 1924 3 68  don't
: 1928 3 68  wan
: 1932 2 69 na
: 1936 5 68  lose
: 1944 4 64  your
: 1948 3 61 ~
: 1952 5 61 love
- 1959
: 1964 3 68 To
: 1968 12 68 night
: 1980 6 66 ~
- 1988
: 2016 4 71 Yeah
: 2020 19 68 ~
- 2041
: 2044 4 61 I
: 2048 3 68 ~
: 2052 3 68 just
: 2056 3 68  wan
: 2060 3 69 na
* 2064 7 68  use
: 2072 4 64  your
: 2076 3 61 ~
: 2080 7 61 love
- 2089
: 2092 3 68 To
: 2096 12 68 night
: 2108 7 66 ~
- 2117
: 2176 3 68 I
: 2180 3 68  don't
: 2184 3 68  wan
: 2188 3 69 na
: 2192 7 68  lose
: 2200 4 64  your
: 2204 3 61 ~
: 2208 7 61 love
- 2217
: 2220 3 68 To
: 2224 12 68 night
: 2236 2 69 ~
: 2238 2 68 ~
: 2240 12 66 ~
- 2254
: 2300 4 64 I
: 2304 3 71 ~
: 2308 3 71 just
: 2312 3 71  wan
: 2316 3 71 na
: 2320 6 68  use
: 2328 4 64  your
: 2332 3 61 ~
: 2336 5 61 love
- 2343
: 2348 3 68 To
: 2352 12 68 night
: 2364 11 66 ~
- 2377
: 2432 3 68 I
: 2436 3 68  don't
: 2440 3 68  wan
: 2444 3 69 na
* 2448 7 68  lose
: 2456 4 64  your
: 2460 3 61 ~
: 2464 7 61 love
- 2473
: 2476 3 68 To
: 2480 12 68 night
: 2492 2 69 ~
: 2494 2 68 ~
: 2496 43 66 ~
: 2540 4 66 ~
: 2544 47 68 ~
- 2593
: 2672 32 68 Lose
: 2704 31 64  your
: 2736 42 66  love
- 2780
* 2789 38 71 Your
: 2828 42 68  love
- 2872
: 2907 4 64 Oh
: 2911 3 71  I
: 2915 3 71  don't
: 2919 3 71  wan
: 2923 4 71 na
: 2928 34 68  lose
- 2964
: 3002 4 64 No
: 3006 3 71  I
: 3010 3 71  don't
: 3014 3 71  wan
: 3018 4 71 na
- 3024
: 3026 4 64 No
* 3030 3 71  I
: 3034 3 71  don't
: 3038 3 71  wan
: 3042 3 71 na
- 3047
: 3054 3 71 I
: 3058 3 71  don't
: 3062 3 71  wan
: 3066 3 71 na
: 3070 40 68  lose
- 3112
: 3170 10 64 Your
: 3182 7 68  love
: 3189 5 69 ~
: 3194 7 68 ~
: 3201 2 66 ~
: 3203 16 64 ~
- 3221
: 3234 5 64 Your
: 3239 15 66 ~
: 3255 10 66 love
: 3265 3 64 ~
- 3270
: 3275 22 66 Your
* 3298 46 68  love
- 3346
: 3370 2 68 To
: 3374 12 68 night
: 3386 6 66 ~
E