#TITLE:You Can't Hurry Love
#ARTIST:The Supremes
#MP3:The Supremes - You Can't Hurry Love.mp3
#VIDEO:The Supremes - You Can't Hurry Love [VD#0].avi
#COVER:The Supremes - You Can't Hurry Love [CO].jpg
#BACKGROUND:The Supremes - You Can't Hurry Love [BG].jpg
#BPM:194
#GAP:7422,68
#VIDEOGAP:0
#ENCODING:UTF8
#LANGUAGE:English
#GENRE:Soul
#EDITION:SingStar Motown
#YEAR:1966
: 0 1 62 I
: 2 5 65  need
: 8 6 67  love,
: 16 2 65  love
* 18 8 62 ~
: 26 2 60 ~
: 28 3 58 ~
- 33
: 36 1 58 To
: 38 5 60  ease
: 44 2 55  my
: 48 4 58  mind
- 54
: 60 3 62 I
: 64 3 65  need
: 68 1 62  to
: 70 7 67  find,
: 79 4 65  find
: 83 3 62 ~
- 88
: 91 3 58 Some
: 95 3 60 one
: 99 1 58  to
: 101 5 60  call
: 107 3 65  mine
- 112
: 115 1 67 But
: 118 2 70  Ma
: 121 3 67 ma
: 126 3 67  said
- 130
: 131 3 53 "You
: 135 2 63  can't
: 139 3 62  hur
: 143 3 60 ry
: 147 3 62  love
- 152
* 155 7 67 No
: 163 3 65  you
: 167 2 67  just
: 171 2 65  have
: 175 2 63  to
: 179 3 65  wait"
- 184
: 191 1 65 She
: 193 5 65  said
- 199
: 199 2 65 "Love
: 203 2 67  don't
: 207 2 69  come
: 211 7 62  ea
: 219 2 60 sy
: 221 5 58 ~
- 228
: 231 2 60 It's
: 235 2 62  a
: 239 2 63  game
: 243 2 62  of
: 247 1 60  give
: 249 3 62  and
: 253 4 63  take"
- 258
: 259 2 53 "You
: 263 2 63  can't
: 267 3 62  hur
: 271 3 60 ry
: 275 4 62  love
- 281
: 283 7 67 No
: 291 2 65  you
: 295 2 67  just
: 299 2 65  have
: 303 2 63  to
: 307 3 65  wait
- 312
: 319 1 62 You
: 321 3 65  got
: 325 1 62  to
: 327 4 65  trust
: 331 4 67 ~
: 335 3 69 ~
: 339 2 62  give
: 342 2 62  it
: 347 2 60  time
: 349 3 58 ~
- 354
: 356 2 58 No
: 359 3 60  mat
: 363 3 62 ter
: 367 2 63  how
: 374 4 67  long
: 379 2 65  it
: 383 2 65  takes"
- 386
: 387 2 65 But
: 391 4 69  how
: 396 3 69  ma
: 400 3 65 ny
* 404 3 69  heart
: 408 2 65 aches
- 412
: 416 2 65 Must
: 420 2 67  I
: 424 3 69  stand
: 427 1 67 ~
: 428 4 69 ~
: 432 3 65 ~
: 436 2 65 ~
- 440
: 444 3 65 Be
: 448 2 67 fore
: 451 2 69  I
: 454 4 70  find
: 460 2 67  a
: 462 1 65 ~
: 464 4 67  love
- 470
: 476 3 67 To
: 480 2 70  let
: 484 3 67  me
* 488 2 70  live
: 491 2 67  a
: 494 6 67 gain?
- 502
: 507 2 67 Right
: 511 3 70  now
: 515 3 67  the
: 519 3 70  on
: 523 1 67 ly
: 526 5 67  thing
- 533
: 539 3 67 That
: 543 3 70  keeps
: 547 3 67  me
: 551 3 70  hang
: 555 1 67 in'
: 557 7 67  on
- 566
: 575 3 67 When
: 579 3 67  I
: 583 3 69  feel
: 587 3 69  my
: 591 5 65  strength
- 598
: 607 3 67 Yeah
: 611 1 70  it's
: 613 4 70  al
: 618 2 67 most
: 622 4 67  gone
- 627
: 627 1 65 I
: 629 1 67  re
: 631 1 70 mem
: 634 2 67 ber
: 637 3 70  Ma
: 641 3 67 ma
* 645 5 67  said
- 652
: 658 13 67 "No
: 675 3 65  you
: 679 2 67  just
: 683 2 65  have
: 687 2 63  to
: 691 4 65  wait"
- 697
: 703 1 62 She
: 705 4 65  said
- 710
: 711 3 65 "Love
: 715 3 67  don't
: 719 3 69  come
: 723 7 62  ea
: 731 2 60 sy
: 733 6 58 ~
- 741
: 743 2 60 It's
: 747 2 62  a
: 751 2 63  game
: 755 2 62  of
: 759 1 60  give
: 761 2 62  and
: 765 2 63  take"
- 769
: 771 3 53 How
: 775 2 63  long
: 779 2 62  must
: 783 2 60  I
: 787 3 62  wait?
- 792
: 795 7 67 How
: 803 2 65  much
: 807 2 67  more
: 811 2 65  can
: 815 2 63  I
: 819 4 65  take
- 825
: 831 3 62 Be
: 835 3 65 fore
: 839 3 65  lone
: 843 3 67 ~
: 847 3 69 li
: 851 7 62 ness
: 858 2 60 ~
: 860 3 58 ~
- 865
: 867 3 58 Will
: 871 2 60  cause
: 875 2 62  my
: 879 2 63  heart
- 883
: 886 4 67 Heart
: 891 1 65  to
: 893 5 65  break?
- 899
: 899 3 65 No
: 903 3 69  I
: 907 3 69  can't
: 911 4 69  bear
- 917
: 922 3 65 To
: 926 3 67  live
: 930 3 65  my
: 934 4 69  life
: 939 3 69  a
: 943 5 69 lone
- 950
: 954 3 65 I
: 958 3 67  grow
: 962 3 70  im
: 966 3 70 pa
: 970 2 67 tient
: 974 4 67  for
: 979 2 65  a
: 982 2 65  love
: 984 2 67 ~
* 986 5 70 ~
- 992
: 994 2 70 To
: 998 3 70  call
: 1002 2 67  my
: 1006 5 67  own
- 1013
: 1019 2 67 But
: 1023 1 67  when
: 1025 3 70  I
: 1030 4 70  feel
: 1035 2 67  that
: 1038 6 67  I
- 1046
: 1050 2 65 I
: 1052 2 67 ~
* 1054 5 70 ~
: 1059 2 67 ~
: 1062 3 70  can't
: 1067 1 67  go
: 1069 6 67  on
- 1077
: 1091 2 67 These
: 1095 2 69  pre
: 1099 2 69 cious
: 1103 7 65  words
- 1112
: 1118 2 67 Keeps
: 1122 3 70  me
: 1126 2 70  hang
: 1129 3 67 in'
: 1133 3 67  on
- 1137
: 1137 1 65 I
: 1139 1 67  re
: 1141 3 70 mem
: 1145 3 68 ber
: 1149 3 70  Ma
: 1153 3 67 ma
: 1157 4 67  said
- 1163
: 1171 10 67 "No
: 1186 3 65  you
: 1191 2 67  just
: 1195 2 65  have
: 1199 2 63  to
: 1203 3 65  wait"
- 1208
: 1215 1 65 She
: 1217 5 65  said
- 1223
: 1223 2 65 "Love
: 1227 2 67  don't
: 1231 2 69  come
: 1235 7 62  ea
: 1243 2 60 sy
: 1245 4 58 ~
- 1251
: 1255 2 60 It's
: 1259 2 62  a
: 1263 2 63  game
: 1267 2 62  of
: 1271 1 60  give
: 1273 2 62  and
* 1277 2 63  take"
- 1281
: 1283 3 53 "You
: 1287 3 63  can't
: 1291 3 62  hur
: 1295 3 60 ry
: 1299 3 62  love
- 1304
: 1307 6 67 No
: 1314 3 65  you
: 1318 2 67  just
: 1322 2 65  have
: 1326 2 63  to
: 1330 3 65  wait"
- 1335
: 1343 1 65 She
: 1345 4 65  said
- 1350
: 1351 4 65 "Trust
: 1355 4 67 ~
: 1359 2 69 ~
: 1362 2 62  give
: 1365 2 62  it
: 1369 3 60  time
: 1372 3 58 ~
- 1376
: 1378 2 58 No
: 1382 3 60  mat
: 1386 3 62 ter
: 1390 3 63  how
: 1397 5 67  long
: 1403 1 65  it
: 1406 4 65  takes
: 1410 2 67 ~"
- 1414
: 1442 3 65 No
* 1446 7 67  love,
: 1454 3 65  love
: 1457 4 62 ~
: 1461 2 60 ~
: 1463 3 58 ~
- 1468
: 1471 2 58 Don't
: 1474 2 58  come
: 1478 4 60  ea
: 1482 3 55 ~
: 1486 6 58 sy
- 1494
: 1503 1 62 But
: 1505 4 65  I
: 1510 2 67  keep
: 1514 7 67  on
: 1522 7 65  wait
: 1530 6 62 ing
- 1537
: 1538 2 58 An
: 1542 2 60 ti
: 1546 2 60 ci
: 1554 6 67 pa
: 1561 3 65 ting
- 1565
: 1566 1 63 For
: 1568 3 65  that
: 1573 4 67  soft
: 1582 4 67  voice
- 1588
: 1596 1 58 To
: 1598 2 58  talk
: 1602 2 58  to
: 1605 3 60  me
: 1609 2 55  at
: 1617 4 58  night
- 1623
: 1629 2 62 For
: 1633 2 65  some
: 1637 2 67  ten
: 1641 7 67 der
: 1649 7 65  arms
: 1656 4 67 ~
- 1662
: 1665 2 58 To
: 1668 4 60  hold
: 1672 3 62 ~
: 1676 3 63  me
: 1680 3 67  tight
: 1683 4 65 ~
- 1689
: 1692 2 70 I
: 1696 2 67  keep
: 1699 1 65 ~
: 1700 2 67  wait
: 1704 3 67 ing
- 1709
: 1722 1 58 I
: 1724 1 58  keep
: 1728 2 58  on
: 1732 2 60  wait
: 1734 2 55 ~
* 1736 5 58 ing
- 1743
: 1755 1 62 But
: 1757 1 63  it
: 1759 2 65  ain't
: 1763 3 67  ea
: 1767 8 65 sy
: 1775 3 62 ~
- 1780
: 1788 1 58 It
: 1790 3 58  ain't
: 1795 2 60  ea
: 1797 2 55 ~
: 1799 3 58 sy
- 1804
: 1807 1 67 But
: 1809 4 70  Ma
: 1814 2 67 ma
: 1818 4 67  said
- 1823
: 1823 3 53 "You
: 1827 3 63  can't
: 1831 3 62  hur
: 1835 3 60 ry
: 1839 3 62  love
- 1844
: 1847 7 67 No
: 1855 2 65  you
: 1859 2 67  just
: 1863 2 65  have
: 1867 2 63  to
: 1871 3 65  wait"
- 1876
: 1883 1 65 She
: 1885 4 65  said
- 1890
: 1891 3 65 "Trust
: 1894 4 67 ~
: 1898 3 69 ~
: 1902 2 62  give
: 1905 2 62  it
: 1909 2 60  time
: 1911 3 58 ~
- 1916
: 1918 2 58 No
: 1922 3 60  mat
: 1926 3 62 ter
: 1930 3 63  how
: 1936 5 67  long
: 1942 2 65  it
: 1945 3 67  takes"
- 1949
: 1949 2 53 "You
: 1953 3 63  can't
: 1957 3 62  hur
: 1961 3 60 ry
: 1965 3 62  love
- 1970
: 1974 6 67 No
: 1981 2 65  you
: 1985 2 67  just
: 1989 2 65  have
: 1993 3 63  to
: 1997 3 65  wait"
E