#TITLE:The Boys Of Summer
#ARTIST:The Ataris
#MP3:The Ataris - The Boys Of Summer.mp3
#COVER:The Ataris - The Boys Of Summer [CO].jpg
#BACKGROUND:The Ataris - The Boys Of Summer [BG].jpg
#BPM:194,46
#GAP:26225
: 0 2 61 No
: 2 2 61 bo
: 4 2 61 dy
: 6 4 61  on
: 10 2 61  the
: 12 6 63  road,
- 20
: 32 2 61 no
: 34 2 61 bo
: 36 2 61 dy
: 38 4 61  on
: 42 2 61  the
: 44 6 58  beach.
- 52
: 64 2 61 I
: 66 2 61  feel
: 68 2 61  it
: 70 4 61  in
: 74 4 61  the
: 78 6 63  air,
- 86
: 96 2 61 the
: 98 2 61  sum
: 100 2 61 mer's
: 102 4 61  out
: 106 4 61  of
: 110 6 58  reach.
- 117
: 119 4 61 Emp
: 123 2 61 ty
: 125 6 63  lake,
: 135 4 61  emp
: 139 2 61 ty
: 141 6 63  streets,
- 148
: 150 2 59 the
: 152 4 61  sun
: 156 4 61  goes
: 160 4 61  down
: 164 2 61  a
: 166 4 58 lone.
- 172
: 194 2 61 I'm
: 196 2 61  dri
: 198 2 61 vin'
: 200 4 61  by
: 204 4 61  your
: 208 6 63  house,
- 216
: 221 2 61 though
: 223 2 61  I
: 225 4 61  know
: 233 4 61  you're
: 237 4 61  not
: 241 4 63  home
: 245 6 66 -.
- 253
: 257 4 70  I
: 261 4 70  can
: 265 8 70  see
: 273 4 68  you
: 277 4 66 -.
- 283
: 287 2 66 Your
: 289 4 68  brown
: 293 4 68  skin
: 297 2 68  shi
: 299 2 68 nin'
: 301 2 68  in
: 303 2 66  the
: 305 6 70  sun.
- 313
: 324 2 66 You
: 326 2 68  got
: 328 2 66  your
: 330 4 68  hair
: 334 4 66  combed
: 338 4 66  back
: 342 2 66  and
: 344 4 64  those
- 349
: 350 4 66 sun
: 354 4 61 glas
: 358 4 59 ses
: 362 6 59  on
: 368 6 61  ba
: 374 4 63 by.
- 380
: 387 4 70 I
: 391 4 70  can
: 395 8 70  tell
: 403 4 68  you
- 407
: 407 4 66  my
: 411 4 68  love
: 415 2 68  for
: 417 4 68  you
: 423 4 66  will
: 427 4 68  still
: 431 4 68  be
: 435 6 70  strong,
- 442
: 444 6 68 af
: 450 6 68 ter
: 456 4 68  the
: 460 8 70  boys
: 468 4 68  of
: 476 6 66  sum
: 482 6 59 mer
: 488 4 61  have
: 492 6 61  go
: 498 6 63 ne.
- 506
: 774 2 61 I
: 776 2 61  ne
: 778 2 61 ver
: 780 2 61  will
: 782 2 61  for
: 784 4 61 get
: 788 4 61  those
: 792 6 63  nights.
- 800
: 806 2 61 I
: 808 2 61  won
: 810 2 61 der
: 812 2 61  if
: 814 2 61  it
: 816 4 61  was
: 820 4 61  a
: 824 4 58  dream.
- 830
: 838 2 61 Re
: 840 2 61 mem
: 842 2 61 ber
: 844 2 61  how
: 846 2 61  you
: 848 4 61  made
: 852 4 61  me
: 856 4 63  cra
: 860 4 66 zy?
- 866
: 871 2 61 Re
: 873 2 61 mem
: 875 2 61 ber
: 877 2 61  how
: 879 2 61  I
: 881 4 61  made
: 885 4 61  you
: 889 4 58  scream?
- 895
: 903 2 59 Now
: 905 4 61  I
: 909 4 61  don't
: 913 4 61  un
: 917 2 61 der
: 919 6 63 stand
- 925
: 925 4 61  what
: 929 4 61  hap
: 933 4 61 pened
: 937 2 61  to
: 939 6 61  our
: 945 6 58  love.
- 953
: 966 2 61 But
: 968 4 61  ba
: 972 2 61 by
: 974 2 61  when
: 976 2 61  I
: 978 4 61  get
: 982 4 61  you
: 986 6 63  back,
- 994
: 996 2 59 I'm
: 998 2 61  gon
: 1000 2 61 na
: 1002 4 61  show
: 1006 4 61  you
: 1010 4 61  what
: 1014 4 61  I'm
: 1018 4 63  made
: 1022 6 66  of.
- 1030
: 1035 4 70 I
: 1039 4 70  can
: 1043 8 70  see
: 1051 4 68  you
: 1055 4 66 -.
- 1061
: 1065 2 66 Your
: 1067 4 68  brown
: 1071 4 68  skin
: 1075 2 68  shi
: 1077 2 68 nin'
: 1079 2 68  in
: 1081 2 66  the
: 1083 6 70  sun.
- 1091
: 1101 2 66 I
: 1103 2 68  see
: 1105 2 66  you
: 1107 2 68  wal
: 1109 2 68 kin'
: 1111 4 68  real
: 1115 4 66  slow
: 1119 2 66  and
: 1121 4 64  you're
- 1126
: 1128 4 66 smi
: 1132 4 61 lin'
: 1136 4 59  at
: 1140 4 59  e
: 1144 2 59 very
: 1146 6 61 o
: 1152 4 63 ne.
- 1158
: 1165 4 70 I
: 1169 4 70  can
: 1173 8 70  tell
: 1181 4 68  you
- 1185
: 1185 4 66  my
: 1189 4 68  love
: 1193 2 68  for
: 1195 4 68  you
: 1201 4 66  will
: 1205 4 68  still
: 1209 4 68  be
: 1213 6 70  strong,
- 1220
: 1221 6 68 af
: 1227 6 68 ter
: 1233 4 68  the
: 1237 8 70  boys
: 1245 4 68  of
: 1253 6 66  sum
: 1259 6 59 mer
: 1265 4 61  have
: 1269 6 61  go
: 1275 6 63 ne.
- 1283
: 1957 2 61 Out
: 1959 2 61  on
: 1961 2 61  the
: 1963 4 61  road
: 1967 2 61  to
: 1969 4 63 day
- 1973
: 1973 2 61 I
: 1975 2 61  saw
: 1977 2 61  a
: 1979 4 61  black
: 1983 4 61  flag
: 1987 2 61  sti
: 1989 2 61 cker
: 1991 2 61  on
: 1993 2 61  a
: 1995 4 61  ca
: 1999 2 61 dil
: 2001 4 58 lac.
- 2007
: 2014 2 61 A
: 2016 2 61  lit
: 2018 2 61 tle
: 2020 4 61  voice
: 2024 4 61  in
: 2028 4 61 side
: 2032 4 61  my
: 2036 4 63  head
- 2040
: 2040 4 61 said
: 2044 4 61  "Don't
: 2048 4 61  look
: 2052 4 58  back,
- 2057
: 2057 2 61  you
: 2059 2 61  can
: 2061 2 61  ne
: 2063 2 61 ver
: 2065 4 61  look
: 2069 4 58  back."
- 2075
: 2083 2 59 I
: 2085 2 61  thought
: 2087 6 61  I
: 2093 4 61  knew
: 2097 4 61  what
: 2101 4 63  love
: 2105 6 66  was.
- 2112
: 2114 4 61 What
: 2118 2 61  did
: 2120 6 61  I
: 2126 4 58  know?
- 2132
: 2147 4 61 Those
: 2151 4 61  days
: 2155 4 61  are
: 2159 4 61  gone
: 2163 2 61  for
: 2165 6 63 e
: 2171 4 66 ver,
- 2176
: 2178 4 61 I
: 2182 4 61  should
: 2186 4 61  just
: 2190 2 63  let
: 2192 6 66  them
: 2198 6 68  go
: 2204 4 70  but
- 2210
: 2215 4 70 I
: 2219 4 70  can
: 2223 8 70  see
: 2231 4 68  you
: 2235 4 66 -.
- 2241
: 2246 2 66 Your
: 2248 4 68  brown
: 2252 4 68  skin
: 2256 2 68  shi
: 2258 2 68 nin'
: 2260 2 68  in
: 2262 2 66  the
: 2264 6 70  sun.
- 2272
: 2282 2 66 You
: 2284 2 68  got
: 2286 2 66  your
: 2288 4 68  top
: 2292 4 66  pulled
: 2296 4 66  down
: 2300 2 66  and
: 2302 4 64  that
- 2307
: 2309 4 66 Ra
: 2313 4 61 di
: 2317 4 59 o
: 2321 6 59  on
: 2327 6 61  ba
: 2333 4 63 by.
- 2339
: 2345 4 70 I
: 2349 4 70  can
: 2353 8 70  tell
: 2361 4 68  you
- 2365
: 2365 4 66 my
: 2369 4 68  love
: 2373 2 68  for
: 2375 4 68  you
: 2381 4 66  will
: 2385 4 68  still
: 2389 4 68  be
: 2393 6 70  strong,
- 2400
: 2402 6 68 af
: 2408 6 68 ter
: 2414 4 68  the
: 2418 8 70  boys
: 2426 4 68  of
: 2433 6 66  sum
: 2439 6 59 mer
: 2445 4 61  have
: 2449 6 61  go
: 2455 6 63 ne.
- 2463
: 2475 4 70 I
: 2479 4 70  can
: 2483 8 70  see
: 2491 4 68  you
: 2495 4 66 -.
- 2501
: 2505 2 66 Your
: 2507 4 68  brown
: 2511 4 68  skin
: 2515 2 68  shi
: 2517 2 68 nin'
: 2519 2 68  in
: 2521 2 66  the
: 2523 6 70  sun.
- 2531
: 2541 2 66 You
: 2543 2 68  got
: 2545 2 66  that
: 2547 4 68  hair
: 2551 4 66  slicked
: 2555 4 66  back
: 2559 2 66  and
: 2561 4 64  those
- 2566
: 2568 4 66 way
: 2572 4 61 fa
: 2576 4 59 rers
: 2580 6 59  on
: 2586 6 61  ba
: 2592 4 63 by.
- 2598
: 2605 4 70  I
: 2609 4 70  can
: 2613 8 70  tell
: 2621 4 68  you
- 2625
: 2625 4 66 my
: 2629 4 68  love
: 2633 2 68  for
: 2635 4 68  you
: 2641 4 66  will
: 2645 4 68  still
: 2649 4 68  be
: 2653 6 70  strong,
- 2660
: 2662 6 68 af
: 2668 6 68 ter
: 2674 4 68  the
: 2678 8 70  boys
: 2686 4 68  of
: 2694 6 70  sum
: 2700 6 68 mer
: 2706 6 66  have
: 2712 12 63  gone.
E
