#TITLE:Needle In A Haystack
#ARTIST:The Velvelettes
#LANGUAGE:English
#EDITION:SingStar Motown
#GENRE:Soul
#YEAR:1964
#MP3:The Velvelettes - Needle In A Haystack.mp3
#COVER:The Velvelettes - Needle In A Haystack [CO].jpg
#BACKGROUND:The Velvelettes - Needle In A Haystack [BG].jpg
#VIDEO:The Velvelettes - Needle In A Haystack [VD#0].avi
#VIDEOGAP:0
#BPM:312
#GAP:5288,46
P1
: 0 8 67 Well,
: 8 6 65  well
: 16 2 63  I
: 18 6 67  once
: 24 4 65  be
: 28 3 63 ~
: 34 8 67 lieved
: 42 2 65 ~
: 44 3 64 ~
P2
: 44 5 58 To
: 50 2 60  da
: 52 5 60  li
: 60 6 57  to
: 66 2 60  da
: 68 5 60  li
- 74
P1
: 74 2 65 All
: 76 5 67 ~
: 84 5 65  fel
: 89 3 63 las
: 92 6 65  were
: 98 9 63  nice
- 108
P2
: 108 5 57 To
: 114 2 60  da
: 116 5 60  li
: 124 6 57  to
: 130 2 60  da
: 132 5 60  li
- 138
P1
: 138 4 60 But
* 142 7 70  girls
: 150 5 67  lis
: 155 3 65 ten
: 158 4 63  to
: 162 8 67  me
: 170 3 65 ~
: 173 3 63 ~
P2
: 172 5 57 To
: 178 2 60  da
* 181 5 60  li
: 188 6 57  to
: 194 2 60  da
: 198 5 60  li
- 204
P1
: 204 2 60 And
: 206 5 67  take
: 214 4 67  my
: 218 4 65  ad
: 226 4 63 vice
: 230 5 60 ~
- 236
P2
: 238 5 57 To
: 244 2 60  da
: 246 5 60  li
: 254 6 57  to
: 260 2 60  da
: 262 5 60  li
- 268
P1
: 276 3 66 Girls
: 279 4 67 ~
: 284 2 67  you'd
: 288 2 67  bet
: 291 3 67 ter
- 295
P2
* 294 22 67 Ooh
: 316 2 69 ~
: 318 10 67 ~
: 328 24 65 ~
P1
: 300 4 71 Get
: 306 3 67  your
: 312 3 67 selves
: 315 3 65 ~
: 318 4 63 ~ 
: 326 4 65 On 
: 332 2 63  the 
: 334 4 65  right 
: 340 4 65  track
: 344 4 63 ~
- 353
P1
: 356 3 65 'Cause
: 360 3 67  find
: 365 2 67 in'
: 368 4 67  a
: 372 6 71  good
: 380 6 67  man
: 388 6 60  girls
P2
: 360 16 67 Ooh
: 376 1 74 ~
: 380 8 71 ~
: 388 6 60 ~
- 395
P1
: 396 1 60 Is
: 398 3 60  like
: 406 5 60  find
: 412 2 60 in'
: 415 4 60  a
- 420
P2
: 422 3 60 Nee
: 427 2 60 dle
: 430 3 60  in
: 436 3 60  a
: 439 5 58  hay
: 446 5 60 stack
- 452
P1
: 456 4 67 What'd
: 460 6 65  I
: 466 8 63  say
: 476 6 60  girls
- 483
P2
: 486 3 60 Nee
: 491 2 60 dle
: 494 3 60  in
: 500 3 60  a
: 503 5 58  hay
: 510 5 60 stack
- 516
P2
: 520 3 55 Yeah,
: 524 4 55  yeah
: 532 4 55  sha
: 536 5 60  doop
- 542
P1
: 564 4 66 Sha
: 568 4 67  doop
P2
: 564 4 63 Sha
: 568 4 64  doop
- 573
P1
: 580 10 72 Wah
: 590 4 69  dah 
: 597 3 66 Sha 
: 600 4 67  doop
P2
: 580 10 67 Wah
: 590 4 65  dah
: 597 3 63  sha
: 600 4 64  doop
- 605
P1
: 628 4 66 Sha
: 632 4 67  doop
: 644 12 72  wah
: 656 4 69  dah
P2
: 628 4 63 Sha
: 632 4 64  doop
* 644 12 67  wah
: 656 4 65  dah
- 661
P1
: 696 5 67 Girls
: 704 6 67  those
: 712 4 65  fel
: 717 3 65 las
: 720 5 63  are
- 726
P1
: 726 4 66 Sly
* 730 11 67 ~
: 744 3 67  slick
: 750 5 67  and
: 758 4 65  shy
: 762 11 64 ~ 
: 784 3 63 So
P2
: 726 4 63 Sly
: 730 11 64 ~
: 744 3 64  slick
: 750 5 64  and
: 758 4 62  shy
: 762 11 60 ~
: 774 14 63  yeah
- 789
P1
: 787 4 65  don't
: 791 3 63  you
: 794 4 67  e
: 798 3 65 ver
: 802 4 67  let
: 806 4 65  him
: 810 3 67  get
: 814 2 65  you
- 817
P1
: 818 4 67 With
: 822 4 65  his
: 826 3 67  star
: 830 5 67 ry
: 838 4 65  eyes
: 842 4 63 ~
- 847
P1
: 847 3 66 They'll
: 850 4 67 ~
: 856 2 66  tell
: 858 4 67 ~
P2
: 856 2 59 Sha
: 858 4 60  doop
- 863
P1
: 863 2 67 You
: 866 2 67  that
: 872 3 67  their
: 875 4 65  love
: 880 5 63  is
: 886 2 66  true
: 888 6 67 ~ 
: 912 2 65 But 
: 914 7 67  they'll
P2
: 888 2 59 Sha
: 890 5 60  doop
: 904 10 63  wah
: 914 3 60  dah
- 922
P2
: 920 2 59 Sha
: 922 5 60  doop 
: 952 2 59 Sha 
: 954 3 60  doop
P1
* 922 5 72  walk
: 930 7 67  right
: 938 4 65  o
: 944 5 63 ver
: 952 5 60  you
- 958
P1
: 958 6 67 Now
: 968 6 67  girls
: 975 2 67  you
: 978 4 67  should
P2
: 968 10 63  wah
: 978 3 60  dah
- 983
P1
: 990 3 71 Know
: 993 3 67 ~
: 998 2 67  these
: 1002 3 67  things
: 1005 3 65 ~
: 1008 3 63 ~ 
: 1016 3 67 Right 
: 1019 3 65  off 
: 1024 3 65  the
: 1027 3 63 ~ 
: 1032 3 63  bat
: 1035 3 65 ~
: 1038 7 67 ~
P2
: 990 18 67 Ooh
: 1008 2 69 ~
: 1010 10 67 ~
: 1020 25 65 ~
- 1046
P1
: 1048 3 65 'Cause
: 1051 4 67  find
: 1056 2 67 in'
: 1060 4 67  a
* 1064 4 71  good
: 1072 4 67  man
: 1079 7 60  girls
P2
: 1052 19 71 Ooh
* 1071 3 74 ~
: 1074 8 71 ~
: 1082 4 69 ~
- 1087
P1
: 1088 2 67 Is
: 1090 7 67  like
: 1098 4 65  find
: 1104 2 65 in'
: 1106 3 63  a
P2
: 1088 2 63 Is
: 1090 7 63  like
: 1098 4 62  find
: 1104 2 62 in'
: 1106 3 60  a
- 1110
P2
: 1114 3 60 Nee
: 1120 2 60 dle
: 1123 3 60  in
: 1128 3 60  a
: 1131 5 58  hay
: 1138 4 60 stack
- 1143
P1
: 1140 4 72 What
: 1147 5 67  did
: 1152 4 65  I
: 1160 4 63  say
: 1168 7 60  girls
- 1176
P2
* 1177 5 60 Nee
: 1184 2 60 dle
: 1188 2 60  in
: 1193 3 60  a
: 1196 5 58  hay
: 1204 4 60 stack
- 1209
P2
: 1212 4 55 Yeah,
: 1217 4 55  yeah
: 1224 3 55  sha
: 1227 4 60  doop
- 1232
P1
: 1256 4 66 Sha
: 1260 4 67  doop
P2
: 1256 4 63 Sha
: 1260 4 64  doop
- 1265
P1
: 1272 10 72 Wah
: 1282 4 69  dah 
: 1289 3 66 Sha 
: 1292 4 67  doop
P2
: 1272 10 67 Wah
: 1282 4 65  dah
: 1289 3 63  sha
: 1292 4 64  doop
- 1297
P1
: 1321 3 66 Sha
: 1324 4 67  doop
: 1336 12 72  wah
: 1348 4 69  dah
P2
: 1321 3 63 Sha
: 1324 4 64  doop
: 1336 12 67  wah
: 1348 4 65  dah
- 1353
P1
: 1394 2 60 Hey,
: 1397 3 60  hey,
* 1402 6 72  hey,
: 1411 9 72  hey
- 1421
P1
: 1644 4 70 Well
: 1650 5 67  now
: 1658 5 67  girls
: 1665 2 67  I
: 1668 3 67  say
: 1672 5 67  I'm
- 1678
P2
: 1678 20 67 Ooh
: 1698 3 69 ~
: 1701 7 67 ~
* 1708 23 65 ~
P1
: 1682 4 70 Tell
: 1686 2 67 in'
: 1692 3 67  you
: 1695 3 65 ~
: 1698 4 63 ~ 
: 1706 3 67 The 
: 1709 4 65  na
* 1714 3 65 tu
: 1717 4 63 ral 
: 1722 5 65  facts
: 1727 6 63 ~
- 1734
P1
: 1738 3 65 'Cause
: 1742 3 67  find
: 1747 2 67 in'
: 1750 4 67  a
: 1754 8 71  good
: 1762 4 67  man
: 1770 8 60  girls
P2
: 1740 22 67 Ooh
: 1762 3 69 ~
: 1766 6 67 ~
: 1772 6 65 ~
- 1779
P1
: 1780 2 67 Is
: 1782 7 67  like
: 1790 4 65  find
: 1796 2 65 in'
: 1798 3 63  a
P2
: 1780 2 63 Is
: 1782 7 63  like
: 1790 4 62  find
: 1796 2 62 in'
: 1798 3 60  a
- 1802
P2
: 1807 3 60 Nee
: 1812 2 60 dle
: 1815 3 60  in
: 1820 3 60  a
* 1823 5 58  hay
: 1830 4 60 stack
P1
: 1830 4 72 What
: 1838 5 67  did
: 1843 4 65  I
: 1850 4 63  say
: 1858 7 60  girls
- 1866
P2
: 1868 6 60 Nee
: 1875 1 60 dle
: 1877 4 60  in
: 1883 3 60  a
: 1886 8 58  hay
: 1894 5 60 stack
- 1900
P1
: 1932 3 65 I'm
: 1935 2 67  tell
: 1938 2 67 in'
: 1941 2 67  you
: 1944 2 65  girls
- 1947
P1
: 1949 3 65 You'd
: 1952 2 67  bet
: 1956 3 67 ter
: 1964 5 72  look
- 1970
P1
: 1980 4 67 Be
: 1984 6 70 fore
: 1990 6 72  you
* 1998 5 75  leap
: 2004 7 76 ~
P2
: 1998 5 72 Leap
: 2004 7 72 ~
- 2012
P2
F 2014 6 72 Yeah
- 2021
P1
: 2024 6 67 Still
: 2033 3 67  wa
: 2038 2 67 ter
: 2041 6 67  some
: 2048 4 65 times
: 2056 6 63  runs
- 2063
P1
: 2064 4 67 Ve
: 2070 6 67 ry
: 2076 4 65  deep
: 2080 3 64 ~
- 2084
P1
: 2084 7 67 You'll
: 2092 4 65  be
: 2096 3 67  sor
: 2101 2 67 ry
P2
: 2092 4 59 Sha
: 2096 3 60  doop
- 2104
P1
: 2104 6 67 When
: 2110 5 65  you
: 2118 5 63  dis
: 2124 4 66 co
: 2128 3 67 ~
: 2134 5 60 ver 
: 2152 2 67 That
P2
: 2124 4 59 Sha
: 2128 3 60  doop
: 2142 11 64  wah
: 2153 2 62  dah
- 2156
P1
: 2154 2 67  you
: 2156 3 67  are
: 2160 5 72  just
: 2168 6 67  his
P2
: 2158 2 59 Sha
: 2160 5 60  doop
- 2175
P1
: 2176 4 65 Part
: 2184 8 63  time
: 2192 4 58  lo
: 2196 4 60 ver 
: 2206 5 67 Girls 
: 2212 2 65  you 
: 2215 5 67  should
P2
: 2188 4 59 Sha
* 2192 3 60  doop
: 2204 10 64  wah
: 2214 4 62  dah
- 2221
P2
: 2226 18 67 Ooh
: 2244 4 69 ~
: 2248 8 67 ~
: 2256 23 65 ~
P1
: 2230 3 71 Know
: 2236 3 67  these
: 2240 4 67  things
: 2244 4 65 ~ 
: 2252 4 67 Right 
: 2256 3 65  off 
: 2260 3 65  the
: 2264 3 63 ~ 
: 2268 6 63  bat
: 2274 2 65 ~
: 2276 5 67 ~
- 2282
P1
: 2284 4 65 'Cause
: 2288 4 67  find
: 2293 3 67 in'
: 2297 3 67  a
: 2301 4 71  good
: 2309 5 67  man
: 2316 4 67  girls
: 2320 4 65 ~
P2
: 2288 20 71 Ooh
: 2308 3 74 ~
: 2311 7 71 ~
: 2318 4 69 ~
- 2325
P2
: 2324 4 58 Is
: 2328 6 60  like
: 2336 4 60  find
: 2341 2 60 in'
: 2344 3 60  a
- 2348
P2
: 2352 4 60 Nee
: 2358 2 60 dle
: 2362 4 60  in
: 2367 2 60  a
: 2369 6 58  hay
: 2376 4 60 stack
P1
: 2376 4 72 What
: 2384 6 67  did
: 2390 5 65  I
: 2398 6 63  say
* 2406 3 58  girl
: 2409 7 60 ~
- 2417
P2
: 2416 6 60 Nee
: 2423 2 60 dle
: 2426 4 60  in
: 2431 3 60  a
: 2434 7 58  hay
: 2441 5 60 stack
P1
: 2438 2 65 I
: 2441 3 67  say
: 2446 2 67  you'd
: 2450 3 67  bet
: 2454 4 65 ter
: 2458 4 64  take
: 2462 4 65  heed
: 2466 4 67 ~
: 2470 4 65 ~
: 2474 4 64 ~
- 2479
P2
: 2480 6 60 Nee
: 2487 2 60 dle
: 2490 4 60  in
: 2495 3 60  a
: 2498 7 58  hay
* 2505 5 60 stack
- 2511
P1
: 2514 3 60 Lis
: 2518 2 60 ten
: 2522 4 60  to
: 2526 7 58  me
: 2533 7 60 ~
- 2541
P2
: 2544 7 60 Nee
: 2552 2 60 dle
: 2555 4 60  in
: 2560 3 60  a
: 2563 7 58  hay
: 2570 5 60 stack
P1
: 2566 4 65 You'd
: 2570 3 67  bet
: 2575 2 67 ter
: 2578 4 67  play
: 2582 4 65  hard
: 2586 4 63  to
: 2590 3 65  get
: 2593 3 67 ~
: 2596 4 65 ~
: 2600 4 64 ~
- 2605
P2
: 2606 4 59 Sha
: 2610 3 60  doop
: 2622 4 59  sha
: 2626 3 60  doop
- 2630
P1
: 2630 5 67 Or
: 2635 5 65  you're
* 2640 6 67  gon
: 2646 4 65 na
: 2650 5 63  reg
: 2655 8 67 ret
: 2663 3 65 ~
: 2666 5 63 ~
- 2672
P2
: 2670 4 59 Sha
: 2674 4 60  doop
: 2686 4 59  sha
: 2690 4 60  doop
- 2695
P1
: 2696 3 59 The
: 2702 6 60  day
: 2710 2 60  you
: 2714 5 60  were
: 2719 9 63  born
: 2728 9 60  girl
P2
: 2734 4 59 Sha
* 2738 4 60  doop
: 2750 4 59  sha
: 2754 4 60  doop
- 2759
P1
: 2758 3 60 When
: 2762 3 60  he
: 2768 5 60  leaves
: 2775 2 60  you
: 2778 4 60  a
* 2782 8 63 lone
: 2790 4 58  girl
: 2794 5 60 ~
- 2800
P2
: 2798 4 59 Sha
: 2802 4 60  doop
: 2814 4 59  sha
: 2818 4 60  doop
- 2823
P1
: 2824 4 67 Good
: 2830 6 67  guys
: 2838 3 65  are
: 2842 4 63  like
: 2848 7 67  find
: 2855 3 65 in'
: 2859 3 63  a
: 2862 4 60 ~
- 2867
P2
: 2864 6 60 Nee
: 2871 2 60 dle
: 2874 5 60  in
: 2880 2 60  a
: 2882 7 58  hay
: 2889 5 60 stack
P1
: 2888 5 67 Oh
: 2896 6 67  girls
: 2902 3 65  they're
: 2905 3 63  like
: 2910 8 67  find
: 2918 3 67 in'
: 2921 5 65  a
: 2926 3 63 ~
- 2930
E
