#TITLE:How To Save A Life
#ARTIST:The Fray
#LANGUAGE:
#EDITION:SSHottestHitsGE
#GENRE:
#YEAR:
#MP3:The Fray - How To Save A Life.mp3
#COVER:The Fray - How To Save A Life [CO].jpg
#BACKGROUND:The Fray - How To Save A Life [BG].jpg
#VIDEO:The Fray - How To Save A Life [VD#0].avi
#VIDEOGAP:0
#BPM:244
#GAP:9282,79
: 0 2 48 Step
: 4 10 50  one
: 16 3 50  you
: 20 10 53  say
- 31
: 32 2 53 We
: 37 7 53  need
: 44 2 51 ~
: 48 2 51 to
: 52 6 51  talk
: 64 3 50  he
: 68 6 50  walks
- 76
: 81 2 53 You
: 85 5 53  say
: 92 5 53  sit
: 100 4 53  down
: 104 3 51 ~
- 108
: 108 4 51 It's
: 116 4 51  just
: 120 5 50 ~
: 129 3 50 a
: 134 5 46  talk
- 141
: 148 2 53 He
: 152 6 53  smiles
: 161 2 53  po
: 165 3 53 lite
: 168 2 51 ~
: 172 6 51 ly
- 180
: 183 4 51 Back
: 187 3 50  at
* 192 5 50  you
- 199 200
: 208 5 50 You
: 216 6 50  stare
: 224 2 50  po
: 228 3 50 lite
: 232 2 48 -
: 236 7 48 ly
- 245
: 247 2 48 Right
: 251 6 50  on
: 259 6 46  through
- 267
: 273 5 58 Some
: 281 5 58  sort
: 289 3 58  of
: 293 6 58  win
: 302 5 60 dow
- 308
: 309 5 60 To
: 317 3 58 ~
: 321 3 58 your
: 325 5 58  right
- 332
: 337 3 58 As
: 342 6 58  he
: 349 6 60  goes
: 357 7 60  left
- 366
: 369 2 62 And
: 374 4 60  you
: 381 4 57  stay
: 385 3 58 ~
: 389 7 58 right
- 398
: 401 3 58 Be
: 405 8 60 tween
: 416 3 58  the
: 421 7 60  lines
- 430 431
: 441 7 60 Fear
: 449 2 62  and
* 453 7 58  blame
- 462
: 465 2 62 You
: 469 2 60  be
: 473 5 62 gin
: 481 2 65  to
: 485 4 62  won
: 489 2 60 ~
: 493 4 60 der
: 497 2 57 ~
- 500
: 501 5 57 Why
: 510 2 60  you
: 514 5 58  came
- 520
: 522 6 58 Where
: 529 3 65  did
: 533 5 60  I
: 541 6 58  go
: 550 8 60  wrong?
- 560
: 562 2 60 I
: 566 8 62  lost
: 577 2 57  a
: 581 7 58  friend
- 590
: 593 2 65 Some
: 597 9 60 where
: 610 2 58  a
: 614 6 60 long
- 621
: 621 2 60 In
: 625 2 60  the
: 629 3 61  bit
: 633 2 60 ter
: 637 3 60 ness
- 642
: 645 3 58 And
: 649 5 58  I
: 657 3 65  would
: 661 4 60  have
: 669 4 58  stayed
: 673 2 60 ~
: 677 5 60 up
- 684
: 690 2 60 With
: 694 4 62  you
: 698 2 57 ~
: 701 6 57 all
: 710 6 58  night
- 718
: 721 2 65 Had
: 725 4 60  I
: 733 4 58  known
- 739
: 745 6 58 How
: 753 3 58  to
: 757 8 60  save
: 766 2 57 ~
: 770 3 57 a
: 774 21 58  life
- 797 886
: 906 4 50 Let
: 910 5 53  him
: 918 7 53  know
- 927
: 929 2 53 That
: 934 4 53  you
: 938 3 51 ~
: 942 5 51 know
: 949 4 51  best
: 953 5 50 ~
- 960
: 966 2 48 'Cause
: 970 3 50  af
: 974 6 53 ter
: 982 7 53  all
- 990
: 990 4 53 You
: 997 4 53  do
: 1001 2 51 ~
: 1005 4 51 know
: 1014 3 51  best
: 1017 4 50 ~
: 1021 7 48 ~
- 1030 1031
: 1040 4 50 Try
: 1044 2 48  to
: 1048 3 50  slip
: 1052 5 50  past
: 1062 4 50  his
: 1066 6 48 ~
: 1073 2 48 de
: 1077 8 48 fence
- 1087 1088
: 1097 2 50 With
: 1101 5 50 out
: 1108 5 50  grant
* 1117 4 53 ing
- 1122
: 1124 4 50 In
: 1128 2 48 no
: 1132 18 48 cence
- 1152 1153
: 1170 3 57 Lay
: 1174 9 58  down
: 1185 2 58  a
: 1190 4 58  list
- 1196
: 1198 4 60 Of
: 1205 4 60  what
: 1209 3 58 ~
: 1213 5 58 is
: 1221 7 58  wrong
- 1230 1231
: 1241 7 60 Things
: 1249 2 58  you've
: 1253 8 60  told
: 1265 4 62  him
- 1270
: 1270 4 60 All
: 1274 2 58 ~
: 1278 3 58 a
: 1282 4 58 long
- 1287
: 1289 4 60 Pray
: 1293 2 58 ~
: 1297 2 58 to
* 1301 8 60  God
: 1309 3 58 ~
- 1313
: 1313 2 58 He
: 1317 3 60  hears
: 1321 2 58 ~
: 1325 11 58 you
- 1338
: 1345 2 58 And
: 1349 2 58  I
: 1353 6 62  pray
: 1361 2 60  to
: 1365 9 62  God
- 1375
: 1377 2 65 He
: 1381 4 62  hears
: 1385 2 60 ~
: 1390 15 60 you
: 1405 6 58  and
- 1413
: 1417 6 58 Where
: 1425 2 65  did
: 1429 6 60  I
: 1437 6 58  go
: 1446 7 60  wrong?
- 1455
: 1458 2 60 I
: 1462 7 62  lost
: 1469 2 57 ~
: 1473 2 57 a
: 1477 8 58  friend
- 1487
: 1490 2 65 Some
: 1494 8 60 where
: 1505 2 58  a
: 1510 7 60 long
- 1518
: 1518 2 60 In
: 1522 2 60  the
: 1526 3 61  bit
: 1529 2 60 ter
: 1533 3 60 ness
- 1538
: 1542 2 58 And
: 1546 6 58  I
: 1554 2 65  would
: 1558 5 60  have
: 1565 4 58  stayed
: 1569 2 60 ~
: 1574 5 60 up
- 1581
: 1585 2 60 With
: 1589 4 62  you
: 1594 2 57 ~
: 1597 6 57 all
: 1605 6 58  night
- 1613
: 1617 2 65 Had
: 1621 5 60  I
: 1629 8 58  known
- 1639
* 1641 5 58 How
: 1649 2 58  to
: 1653 7 60  save
: 1661 2 57 ~
: 1665 2 57 a
: 1669 11 58  life
- 1682 1777
: 1797 2 50 As
: 1801 6 50  he
: 1809 2 53  be
: 1813 8 53 gins
- 1823
: 1825 2 53 To
: 1829 4 53  raise
: 1833 3 51 ~
: 1837 4 51 his
: 1844 4 51  voice
: 1848 9 50 ~
- 1859
: 1861 3 48 You
: 1864 3 50  lo
: 1868 5 53 wer
: 1876 4 53  yours
: 1880 5 50 ~
- 1887
: 1892 2 53 And
: 1896 4 53  grant
: 1902 4 51  him
: 1909 5 51  one
: 1916 5 48  last
* 1925 6 46  choice
- 1933
: 1936 3 50 Drive
: 1940 2 48  un
: 1944 2 50 til
: 1948 4 50  you
: 1953 2 48 ~
- 1956
: 1956 4 50 Lose
: 1961 2 48  the
: 1965 10 48  road
- 1977 1978
: 1988 2 48 Or
: 1992 6 50  break
: 2000 2 50  with
: 2004 2 48  the
: 2009 6 50  ones
- 2016
: 2017 2 53 You've
: 2021 3 50  fol
: 2026 11 48 lowed
- 2039 2040
: 2065 2 58 He
: 2069 5 58  will
: 2077 5 60  do
- 2083
: 2084 7 60 One
: 2093 5 60  of
: 2101 6 60  two
: 2108 9 58  things
- 2118
: 2120 4 58 He
: 2124 4 60  will
: 2128 4 58  ad
: 2136 5 60 mit
- 2142
: 2144 3 58 To
: 2148 4 60  eve
: 2152 2 58 ~
: 2156 6 58 ry
: 2165 8 60 thing
- 2175 2176
: 2184 3 58 Or
: 2189 5 60  he'll
: 2196 5 60  say
: 2204 5 60  he's
- 2210
: 2212 2 60 Just
: 2217 4 60  not
: 2221 2 58 ~
: 2225 3 58 the
: 2229 7 60  same
: 2236 2 58 ~
- 2239
: 2241 5 58 And
: 2248 7 62  you'll
: 2257 2 60  be
: 2261 9 62 gin
* 2272 3 65  to
: 2276 4 62  won
: 2280 2 60 ~
: 2284 4 60 der
: 2288 2 57 ~
- 2291
: 2292 7 57 Why
: 2301 3 60  you
: 2304 6 58  came
- 2311
: 2312 6 58 Where
: 2320 2 65  did
: 2324 5 60  I
: 2332 4 58  go
: 2336 2 60 ~
: 2340 6 60 wrong?
- 2348
: 2353 2 60 I
: 2357 6 62  lost
: 2364 2 57 ~
: 2368 2 57 a
: 2372 7 58  friend
- 2381
: 2384 2 65 Some
: 2388 11 60 where
: 2401 2 58  a
: 2405 6 60 long
- 2412
: 2413 2 60 In
: 2416 2 60  the
: 2420 2 62  bit
: 2424 2 60 ter
: 2428 5 60 ness
- 2435
: 2437 2 58 And
: 2440 6 58  I
: 2448 2 65  would
: 2452 5 60  have
: 2461 4 58  stayed
: 2465 2 60 ~
: 2469 5 60 up
- 2476
: 2480 2 60 With
: 2484 5 62  you
: 2489 2 57 ~
: 2493 4 57 all
: 2501 5 58  night
- 2508
: 2512 2 65 Had
: 2516 4 60  I
: 2524 6 58  known
- 2532
: 2536 5 58 How
: 2544 2 58  to
: 2548 4 60  save
: 2552 3 57 ~
: 2556 3 57 a
: 2560 4 58  life
- 2566
: 2569 6 58 Where
: 2577 2 65  did
: 2581 5 60  I
: 2588 4 58  go
: 2592 2 60 ~
: 2596 4 60 wrong?
- 2602
: 2608 2 60 I
: 2612 7 62  lost
: 2620 2 57 ~
: 2624 2 57 a
: 2629 5 58  friend
- 2636
: 2640 2 65 Some
: 2644 9 60 where
: 2656 3 58  a
: 2661 6 60 long
- 2668
: 2668 2 60 In
: 2672 2 60  the
* 2676 4 61  bit
: 2680 2 60 ter
: 2684 5 60 ness
- 2690
: 2692 2 58 And
: 2696 6 58  I
: 2704 3 65  would
: 2708 5 60  have
: 2716 4 58  stayed
: 2720 2 60 ~
: 2724 4 60 up
- 2730
: 2736 2 60 With
: 2741 3 62  you
: 2744 2 57 ~
: 2748 6 57 all
: 2757 5 58  night
- 2764
: 2768 2 65 Had
: 2773 4 60  I
: 2780 6 58  known
- 2788
: 2792 6 58 How
: 2800 2 60  to
: 2805 5 60  save
: 2812 3 57 ~
: 2816 3 57 a
: 2820 42 58  life
- 2864 2900
: 2920 6 58 How
: 2928 2 58  to
: 2932 8 60  save
: 2940 2 57 ~
: 2944 2 57 a
: 2948 39 58  life
- 2989 3028
: 3048 6 58 How
: 3056 2 60  to
: 3060 7 60  save
: 3067 3 57  a
: 3072 6 58  life
- 3080
: 3085 5 58 Where
: 3092 2 65  did
: 3096 5 60  I
: 3104 2 58  go
: 3108 7 60  wrong?
- 3117
: 3120 2 60 I
: 3124 8 62  lost
: 3132 2 57 ~
: 3136 2 57 a
: 3140 6 58  friend
- 3148
: 3152 2 65 Some
: 3157 7 60 where
: 3168 2 58  a
: 3172 6 60 long
- 3179
: 3181 2 60 In
: 3185 2 60  the
: 3189 3 62  bit
: 3192 2 60 ter
: 3196 5 60 ness
- 3202
: 3204 2 58 And
: 3208 6 58  I
: 3216 2 65  would
: 3220 5 60  have
: 3228 4 58  stayed
: 3232 2 60 ~
: 3236 4 60 up
- 3242
: 3248 2 60 With
: 3252 5 62  you
: 3257 2 57 ~
* 3261 6 57 all
: 3269 5 58  night
- 3276
: 3280 2 65 Had
: 3284 4 60  I
: 3292 6 58  known
- 3300
: 3305 5 58 How
: 3313 2 60  to
: 3316 6 60  save
: 3324 2 57  a
: 3328 5 58  life
- 3334
: 3336 7 58 Where
: 3344 2 65  did
: 3348 5 60  I
: 3356 4 58  go
: 3360 2 60 ~
: 3364 5 60 wrong?
- 3371
: 3377 2 60 I
: 3381 7 62  lost
: 3388 2 57 ~
: 3392 2 57 a
: 3397 5 60  friend
- 3404
: 3408 2 58 Some
: 3412 10 58 where
: 3424 2 60  a
: 3428 7 60 long
- 3436
: 3436 2 60 In
: 3440 2 60  the
: 3444 4 62  bit
: 3448 2 60 ter
: 3452 4 60 ness
- 3458
: 3460 2 58 And
: 3464 6 58  I
: 3472 2 65  would
: 3476 5 60  have
: 3484 5 58  stayed
: 3489 2 60 ~
: 3493 4 60 up
- 3499
: 3504 2 60 With
: 3508 4 62  you
: 3512 2 57 ~
: 3516 6 57 all
: 3525 4 58  night
- 3531
: 3537 2 65 Had
: 3540 4 60  I
: 3548 6 58  known
- 3556
: 3560 6 58 How
: 3569 2 60  to
: 3573 6 60  save
: 3581 2 57 ~
: 3584 3 57 a
: 3589 37 58  life
- 3628 3669
: 3689 6 58 How
: 3697 2 58  to
: 3701 6 60  save
: 3709 2 57 ~
: 3713 2 57 a
: 3717 25 58  life
- 3744 3797
: 3817 6 58 How
: 3825 2 58  to
: 3829 7 60  save
: 3836 2 57 ~
: 3841 2 57 a
* 3845 37 58  life
E
