#TITLE:Hello, I love you
#ARTIST:The Doors
#MP3:The Doors - Hello, I love you.mp3
#VIDEO:The Doors - Hello, I love you.avi
#COVER:The Doors - Hello, I love you.jpg
#BPM:399,72
#GAP:14350
#ENCODING:UTF8
#LANGUAGE:English
#GENRE:Pop
#EDITION:Rock Band Store 2010 Vol. 4
#YEAR:1968
#START:3
: 0 5 9 Hel
: 6 4 9 lo
- 21
: 25 4 9 I
: 32 4 7  love
: 40 4 7  you
: 45 4 7  won't
: 53 2 7  you
* 60 5 12  tell
: 67 4 12  me
: 73 5 12  your
: 80 8 9  name?
- 98
: 108 4 9 Hel
: 114 4 9 lo
- 130
: 134 4 9 I
: 141 4 7  love
: 148 4 7  you
: 155 3 7  let
: 162 2 7  me
: 169 3 12  jump
: 177 3 12  in
: 182 4 12  your
* 190 8 9  game?
- 208
: 217 4 9 Hel
: 223 4 9 lo
- 239
: 243 4 9 I
: 250 4 7  love
: 258 4 7  you
: 264 3 7  won't
: 272 2 7  you
: 278 5 12  tell
: 286 3 12  me
: 291 6 12  your
: 299 11 9  name?
- 322
: 326 3 9 Hel
: 332 4 9 lo
- 346
: 353 4 9 I
: 360 4 7  love
: 367 4 7  you
: 373 3 7  let
: 381 2 7  me
* 387 3 12  jump
: 395 3 12  in
: 401 4 12  your
: 408 9 9  game?
- 427
: 435 3 9 She's
* 442 8 12  wal
* 455 7 12 kin'
* 463 2 9 ~
: 468 10 11  down
: 483 3 9  the
: 497 13 11  street
: 511 6 12 ~
: 518 5 9 ~
- 533
: 552 5 12 Blind
: 558 4 12 ~
: 567 5 12  to
: 573 5 9 ~
: 580 6 11  e
: 587 4 9 ~
: 592 5 9 very
: 607 5 11  eye
: 613 3 12 ~
: 621 4 13  she
: 628 5 9  meets
- 645
: 649 4 11 Do
: 656 3 9  you
: 663 7 12  think
: 677 7 12  you'll
: 685 2 9 ~
: 691 11 11  be
: 705 4 9  the
* 719 11 11  guy
* 731 9 12 ~
: 741 9 9 ~?
- 760
: 768 3 9 To
: 774 4 12  make
: 788 6 12  the
: 795 2 9 ~
: 802 5 11  queen
: 808 6 11 ~
: 816 5 12  of
: 823 4 9  the
: 830 4 12  an
: 837 5 11 gels
: 843 2 12 ~
: 850 7 9  sigh?
- 867
: 875 6 9 Hel
: 883 2 9 lo
- 895
: 903 4 9 I
: 910 5 7  love
: 918 4 7  you
: 924 3 7  won't
: 931 2 7  you
: 938 5 12  tell
: 945 4 12  me
* 951 5 12  your
: 959 11 9  name?
- 982
: 986 4 9 Hel
: 992 3 9 lo
- 1005
: 1012 4 9 I
: 1019 4 7  love
: 1026 5 7  you
: 1033 2 7  let
: 1040 2 7  me
: 1047 3 12  jump
: 1054 4 12  in
: 1060 5 12  your
: 1067 10 9  game?
- 1087
: 1094 4 9 Hel
: 1101 4 9 lo
- 1117
: 1121 4 9 I
: 1128 4 7  love
: 1136 4 7  you
: 1142 3 7  won't
: 1149 2 7  you
: 1155 5 12  tell
: 1163 4 12  me
: 1169 6 12  your
: 1177 10 9  name?
- 1199
* 1203 6 9 Hel
* 1210 3 9 lo
- 1223
: 1232 2 9 I
: 1237 4 7  love
: 1244 4 7  you
: 1250 3 7  let
: 1257 2 7  me
: 1263 2 12  jump
: 1271 4 12  in
: 1278 5 12  your
: 1285 14 9  game?
- 1308
: 1312 4 9 She
: 1318 5 12  holds
: 1324 3 12 ~
: 1332 6 12  her
: 1339 5 9 ~
: 1346 5 11  head
: 1357 4 9  so
* 1373 13 11  high
* 1387 6 12 ~
* 1394 4 9 ~
- 1408
: 1415 3 11 Like
: 1421 2 9  a
: 1428 6 12  sta
: 1442 6 12 tue
: 1449 5 9 ~
: 1456 11 11  in
: 1469 3 9  the
: 1481 11 11  sky
: 1494 8 12 ~
: 1504 11 9 ~
- 1525
: 1532 2 9 Her
: 1538 5 11  arms
: 1544 3 12 ~
: 1552 4 12  are
: 1557 5 9 ~
: 1565 2 11  wic
: 1571 5 9 ked
: 1579 5 11  and
: 1585 4 9  her
: 1593 5 12  legs
: 1606 4 12  are
: 1614 8 9  long
- 1629
: 1632 3 15 When
: 1640 5 15  she
: 1646 5 16  moves
: 1660 5 16  my
: 1673 7 16  brain
- 1685
* 1687 5 16 Screams
: 1700 3 16  out
: 1709 4 16  this
: 1722 15 16  song
- 1790
: 1865 7 14 Side
: 1878 6 14 walk
: 1891 7 14  crou
: 1904 8 14 ches
: 1914 3 10 ~
: 1920 4 14  at
: 1926 4 12  her
: 1931 2 14 ~
: 1940 4 10  feet
- 1954
: 1961 4 13 Like
: 1967 4 10  a
: 1975 6 14  dog
: 1982 3 10 ~
: 1989 6 13  that
: 2002 8 10  begs
: 2016 4 13  for
: 2029 3 13  some
: 2037 5 13 thing
: 2049 5 10  sweet
- 2066
: 2070 3 13 Do
: 2077 4 10  you
: 2084 5 13  hope
: 2097 9 10  to
: 2111 3 13  make
: 2117 5 10  her
: 2137 6 17  see
: 2145 5 13  you
: 2151 3 14 ~
: 2158 9 10  fool?
- 2176
: 2179 4 17 Do
: 2185 4 17  you
* 2192 4 17  hope
: 2207 5 17  to
: 2221 4 17  pluck
* 2233 4 17  this
: 2246 3 17  dus
: 2256 6 17 ky
: 2268 13 17  jewel?
- 2290
: 2294 4 22 Hel
: 2301 6 22 lo
- 2317
: 2340 4 22 hel
: 2347 8 22 lo
- 2365
: 2394 4 22 hel
: 2402 9 22 lo
- 2421
: 2448 5 22 hel
: 2455 13 22 lo
- 2478
: 2500 5 22 Hel
: 2508 14 22 lo
- 2532
: 2554 4 22 hel
: 2561 14 22 lo
- 2585
: 2607 4 22 hel
: 2614 14 22 lo
- 2638
: 2657 6 10 I
: 2664 4 12  want
: 2669 2 13 ~
: 2678 9 10  you
- 2713
: 2763 5 10 I
: 2770 7 13  need
: 2778 6 10 ~
: 2788 7 10  my
: 2801 7 10  ba
: 2809 5 8 ~
: 2815 4 5 ~
: 2822 14 5 by
- 2846
: 2879 7 10 Love
: 2887 2 5 ~
- 2899
: 2920 5 10 my
: 2928 17 10  girl
: 2946 9 5 ~
- 2965
: 2987 8 9 Love
: 2996 18 10 ~
- 3024
: 3037 7 13 love
: 3045 17 10 ~
- 3072
: 3090 2 11 hah
- 3102
* 3130 4 17 Hel
* 3138 11 10 lo
- 3159
: 3180 5 8 hel
: 3188 20 5 lo
- 3218
: 3233 5 8 hel
: 3240 17 5 lo
- 3267
: 3284 6 8 hel
: 3292 12 10 lo
- 3314
: 3337 5 12 Hel
: 3344 6 10 lo
: 3351 1 8 ~
: 3353 1 5 ~
- 3364
: 3371 4 5 ba
: 3376 3 5 by
- 3389
: 3423 21 5 Love
- 3454
: 3475 11 8 you
: 3487 12 10  oh
: 3500 6 8 ~
E