#TITLE:Johnny B.
#ARTIST:The Hooters
#MP3:The Hooters - Johnny B.mp3
#COVER:The Hooters - Johnny B [CO].jpg
#BACKGROUND:The Hooters - Johnny B [BG].jpg
#BPM:273
#GAP:21380
#ENCODING:UTF8
#LANGUAGE:English
#EDITION:[SC]-Songs
#YEAR:1987
: 0 2 12 It's
: 6 2 14  a
: 12 3 16  sleep
: 19 5 16 less
: 30 4 14  night
- 37
: 54 2 9 she's
: 60 4 12  call
: 66 3 14 ing
: 72 4 16  your
: 79 5 14  name
- 87
: 95 3 12 It's
: 102 2 14  a
: 108 3 16  lone
: 114 6 16 ly
: 126 6 14  ride
- 135
: 150 3 9 I
: 156 3 12  know
: 162 3 14  how
: 168 3 16  you
: 174 6 14  want
: 186 4 12  her
- 192
: 198 3 9 A
: 204 4 14 gain
: 210 3 16  and
: 216 3 14  a
: 222 5 12 gain
- 230
: 245 3 9 you're
: 251 3 14  chas
: 258 3 16 ing
: 263 3 14  a
: 270 7 12  dream,
: 282 4 14  yeah
- 288
: 292 2 9 But
: 299 3 14  John
: 305 3 16 ny,
: 311 3 14  my
: 317 4 12  friend
- 324
: 335 3 9 well,
: 341 3 9  she's
: 346 3 14  not
: 352 3 16  what
: 358 3 14  she
: 364 5 12  seems
- 371
: 376 4 12 John
: 382 3 14 ny
* 388 5 16  B.
- 396
: 411 3 16 how
: 417 3 14  much
: 423 3 12  there
: 430 2 11  is
: 436 2 9  to
: 442 4 14  see?
- 449
: 460 2 14 Just
: 466 3 12  o
: 472 3 11 pen
: 478 3 9  your
: 484 5 12  eyes
- 492
: 508 2 9 and
: 513 2 11  lis
: 520 3 12 ten
: 527 2 9  to
: 532 4 9  me
- 538
: 567 3 12 Straight
: 573 3 14  a
: 579 6 16 head
- 588
: 603 2 16 a
: 609 3 14  green
: 615 3 12  light
: 622 3 11  turns
: 628 3 9  to
: 634 5 14  red
- 642
: 652 3 14 Oh,
: 658 3 12  why
: 664 3 11  can't
: 670 2 9  you
: 677 4 12  see
- 684
: 700 4 9 O
: 706 2 11 ~h,
: 712 4 12  John
: 718 3 9 ny
: 724 4 9  B.
- 730
: 759 2 9 And
: 765 3 12  when
: 771 2 14  you
: 777 3 16  drive
: 783 7 16  her
: 795 5 14  home
- 802
: 812 2 9 and
: 818 3 9  she's
: 825 2 12  sit
: 828 1 14 tin'
: 831 2 14  rea
: 834 4 16 ~l
: 843 5 14  close
- 851
: 861 2 12 Does
: 867 2 14  she
: 873 3 16  make
: 880 5 16  you
: 891 4 14  weak?
- 897
: 903 3 9 Well,
: 909 2 9  that's
: 915 2 7  the
: 921 3 12  way
: 927 2 14  that
* 933 2 16  she
: 939 5 14  wants
: 951 4 12  you
- 957
: 963 2 9 You're
: 969 3 14  strung
: 975 3 16  out
: 981 3 14  a
: 987 5 12 gain
- 995
: 1011 2 9 she's
: 1017 3 14  ta
: 1023 3 16 kin'
: 1029 3 14  you
: 1036 5 12  ov
: 1048 3 14 er
- 1053
: 1059 3 9 You've
: 1066 3 14  been
: 1072 2 16  here
: 1078 3 14  be
: 1084 5 12 fore
- 1092
: 1107 3 9 Why
: 1113 3 14  can't
: 1119 3 16  you
: 1125 3 14  let
: 1131 3 12  go?
- 1136
: 1143 4 12 John
: 1149 2 14 ny
: 1155 6 16  B.
- 1164
: 1179 3 16 how
: 1185 2 14  much
: 1191 3 12  there
: 1197 2 11  is
: 1202 2 9  to
: 1209 5 14  see?
- 1217
: 1227 2 14 Just
: 1233 2 12  o
: 1239 3 11 pen
: 1245 3 9  your
: 1251 6 12  eyes
- 1260
: 1275 2 9 and
: 1281 2 11  lis
: 1287 2 12 ten
: 1293 3 9  to
: 1299 5 9  me
- 1306
: 1335 3 12 Straight
: 1341 3 14  a
* 1347 5 16 head
- 1354
: 1370 2 16 a
: 1376 3 14  green
: 1382 3 12  light
: 1389 3 11  turns
: 1395 2 9  to
: 1401 4 14  red
- 1408
: 1419 2 14 Oh,
: 1425 3 12  why
: 1431 3 11  can't
: 1437 2 9  you
: 1443 5 12  see?
- 1450
: 1466 3 9 O
: 1472 2 11 ~h,
: 1478 4 12  John
: 1484 3 9 ny
: 1490 4 9  B.
- 1496
: 2227 2 9 And
: 2232 3 12  when
: 2239 2 14  she
* 2244 5 16  calls
: 2253 5 16  your
: 2263 5 14  name
- 2271
: 2286 2 9 my
: 2292 2 12  sweet
: 2299 3 14  John
: 2305 2 16 ny
: 2311 4 14  B.
- 2318
: 2328 3 12 you
: 2334 2 14  can
: 2340 5 16  drive
: 2347 6 16  all
: 2357 4 14  night
- 2364
: 2376 2 9 and
: 2381 2 9  you
: 2387 2 12  know
: 2393 3 14  she'll
: 2399 3 16  be
: 2406 5 14  wait
: 2417 3 12 ing
- 2422
: 2429 2 9 to
: 2434 3 14  love
: 2440 3 16  you
: 2446 2 14  a
: 2452 5 12 gain
- 2460
: 2476 2 9 Her
: 2482 2 14  kiss
: 2488 3 16  is
: 2494 3 14  her
* 2500 4 16  poi
: 2505 2 9 ~
: 2512 3 9 son
- 2517
: 2523 3 9 for
: 2530 3 14  e
: 2536 3 16 ver
: 2542 2 9  in
: 2548 6 12 side
: 2560 3 14  you
- 2565
: 2572 3 9 where
: 2578 3 14  e
: 2583 3 16 ver
: 2589 2 14  you
: 2595 4 12  go
- 2601
: 2607 4 12 John
: 2613 2 14 ny
: 2618 5 16  B.
- 2626
: 2642 2 16 how
: 2648 2 14  much
: 2654 4 12  there
: 2660 2 11  is
: 2666 2 9  to
: 2672 5 14  see?
- 2681
: 2690 2 14 Just
: 2696 2 12  o
: 2702 3 11 pen
: 2708 3 9  your
: 2714 5 12  eyes
- 2722
: 2738 2 9 and
: 2743 3 11  lis
: 2750 2 12 ten
: 2756 2 11  to
: 2761 2 9  me
: 2764 2 7 ~
: 2767 2 4 ~
- 2772
: 2797 3 12 Straight
: 2803 2 14  a
* 2809 5 16 head
- 2817
: 2833 2 16 a
: 2839 4 14  green
: 2845 2 12  light
: 2851 3 11  turns
: 2857 2 9  to
: 2863 4 14  red
- 2870
: 2881 2 14 Oh,
: 2887 3 12  why
: 2893 3 11  can't
: 2899 2 9  you
: 2905 5 12  see?
- 2913
: 2928 4 9 O
: 2934 3 11 ~h,
: 2941 3 12  John
: 2946 3 9 ny
: 2952 4 9  B.
- 2963
* 2976 5 16 Hey,
: 2987 3 12  John
: 2992 3 14 ny
: 2998 6 16  B.
- 3007
: 3021 3 16 how
: 3027 3 14  much
: 3033 3 12  there
: 3040 2 11  is
: 3045 2 9  to
: 3052 4 14  see?
- 3059
: 3070 2 14 Just
: 3076 2 12  o
: 3082 2 11 pen
: 3088 3 9  your
: 3094 5 12  eyes
- 3102
: 3118 2 9 and
: 3123 2 11  lis
: 3129 2 12 ten
: 3135 2 9  to -
: 3141 2 9  just
: 3147 3 11  lis
: 3153 3 12 ten
: 3159 2 9  to
: 3165 4 9  me
- 3171
: 3176 3 12 Straight
: 3181 3 14  a
: 3187 6 16 head
- 3196
: 3210 2 16 a
: 3216 3 14  green
: 3222 3 12  light
: 3228 3 11  turns
: 3235 2 9  to
: 3241 4 14  red
- 3248
: 3258 3 14 Oh,
: 3264 3 12  why
: 3270 3 11  can't
: 3276 2 9  you
: 3283 5 12  see?
- 3291
: 3305 4 9 O
: 3311 3 11 ~h,
: 3317 4 12  John
: 3323 3 9 ny
: 3329 5 9  B.
- 3337
: 3353 4 12 Yeah!
- 3359
: 3448 1 12 O
* 3450 3 14 ~
* 3454 2 12 ~h,
: 3460 3 11  can't
: 3466 2 9  you
: 3472 5 12  see?
- 3480
: 3495 4 9 O
: 3501 3 11 ~h,
: 3508 3 12  John
: 3514 2 9 ny
: 3520 5 9  B.
- 3527
: 3640 4 14 O
: 3646 3 12 ~h,
: 3653 3 11  can't
: 3658 2 9  you
: 3664 5 12  see?
E