#TITLE:Love Is You
#ARTIST:Thomas Godoj
#MP3:Thomas Godoj - Love Is You.mp3
#VIDEO:Thomas Godoj - Love Is You [VD#0].avi
#COVER:Thomas Godoj - Love Is You [CO].jpg
#BPM:276
#GAP:11304,35
#ENCODING:UTF8
#LANGUAGE:English
#GENRE:Pop
#EDITION:SingStar Chartbreaker
#YEAR:2008
: 0 4 53 You
: 4 10 58  caught
: 14 3 57  my
: 17 11 53  tear
: 28 8 50 drops
- 37
: 37 7 53 In
: 44 5 50  your
: 49 10 53  eye
: 60 5 53 lids
: 65 19 55 ~
- 86
: 126 6 53 You
: 132 8 58  gave
: 140 4 57  me
: 144 11 53  strength
- 156
: 156 5 50 To
: 161 9 53  say
: 170 5 55  hel
: 175 15 53 lo
- 192
: 254 4 53 You
: 258 8 58  found
: 266 4 57  me
: 270 12 53  stran
: 282 5 50 ded
- 288
: 290 8 53 On
: 298 4 50  your
: 302 10 53  is
* 313 5 53 land
: 318 13 55 ~
- 333
: 382 4 53 It
: 386 8 58  felt
: 394 4 57  like
: 398 10 53  I
- 409
: 410 8 50 Was
: 418 8 53  com
: 426 4 55 ing
: 430 11 50  home
- 443
: 480 9 58 And
: 490 7 58  I
: 498 7 57  know
: 506 6 58  that
: 514 7 58  you're
- 522
: 522 8 62 Go
: 530 8 57 ~
: 539 12 57 ing
: 552 16 57  pla
: 568 12 58 ces
- 582
: 584 11 62 Take
: 595 6 57 ~
: 602 13 57 a
* 616 15 57  look
- 632
: 632 15 58 I'm
: 648 8 62  right
: 656 7 57 ~
: 664 15 57 be
: 680 4 58 hind
: 684 42 60 ~
- 728
: 734 6 58 Love
: 740 8 60  is
: 750 9 65  you
: 759 14 62 ~
- 775
: 782 4 58 See
: 786 3 60 ing
: 790 7 60  things
: 799 7 60  like
: 808 4 58  you
: 812 10 65  do
: 822 14 62 ~
- 838
: 847 5 58 Wak
: 852 3 60 ing
: 856 5 60  up
: 863 7 60  next
: 871 4 58  to
: 876 10 65  you
: 886 15 62 ~
- 903
: 910 3 58 Wan
: 914 3 60 na
: 918 3 60  give
: 922 3 60  you
: 926 6 60  all
: 932 6 58 ~
- 940
: 942 8 58 All
: 950 8 60  that
: 958 8 62  I
: 966 10 60  am
: 976 9 58 ~
- 987
: 990 4 58 Love
: 994 8 60  is
: 1004 8 65  you
: 1012 14 62 ~
- 1028
: 1034 4 55 You
: 1038 8 58  turn
: 1046 6 60  this
: 1054 8 60  world
: 1062 4 58  in
: 1066 10 65 to
: 1076 14 62 ~
- 1092
: 1100 5 58 Some
: 1105 4 60 thing
: 1110 7 60  I
: 1118 3 60  ne
: 1121 3 58 ~
: 1126 3 58 ver
: 1130 12 65  knew
: 1142 14 62 ~
- 1158
: 1164 8 58 Beau
: 1172 8 60 ty
: 1180 8 62  sur
: 1188 8 60 rounds
: 1196 7 58 ~
: 1204 10 58 you
: 1214 5 55 ~
- 1221
: 1228 8 58 Love
: 1236 15 57  is
: 1252 20 58  you
- 1274
: 1276 8 58 Let
: 1284 4 57  me
: 1288 12 53  dive
: 1300 2 50  in
- 1303
: 1304 9 53 O
: 1313 7 50 ther
: 1320 10 53  wa
: 1330 16 55 ters
- 1348
: 1398 4 53 I
* 1402 8 58  closed
: 1410 5 57  my
: 1416 11 53  eyes
- 1428
: 1428 4 50 I
: 1432 10 53  learnt
: 1442 4 55  to
: 1446 18 53  see
- 1466
: 1526 4 53 And
: 1530 4 58  I
: 1534 6 57  don't
: 1540 6 53  want
: 1546 5 50 ~
- 1552
: 1552 6 50 To
: 1558 9 53  waste
* 1568 6 50  to
: 1574 8 53 mor
: 1582 3 55 ~
: 1586 15 55 row
- 1603
: 1636 4 58 And
: 1640 9 57  I
: 1649 11 58  won't
- 1662
: 1668 4 55 If
: 1672 9 58  you're
: 1681 9 60  there
: 1690 8 62  with
: 1698 31 58  me
: 1730 17 60 ~
- 1748
: 1750 6 58 Love
: 1756 8 60  is
: 1766 9 65  you
: 1775 14 62 ~
- 1791
: 1798 4 58 See
: 1802 3 60 ing
: 1806 7 60  things
: 1815 7 60  like
: 1824 4 58  you
: 1828 10 65  do
: 1838 14 62 ~
- 1854
: 1864 4 58 Wak
: 1868 3 60 ing
: 1872 4 60  up
: 1878 8 60  next
: 1887 4 58  to
: 1892 10 65  you
: 1902 17 62 ~
- 1921
: 1926 4 58 Wan
: 1930 2 60 na
: 1934 2 60  give
: 1938 2 60  you
: 1942 6 60  all
: 1948 6 58 ~
- 1956
: 1958 8 58 All
: 1966 8 60  that
: 1974 8 62  I
: 1982 10 60  am
: 1992 9 58 ~
- 2003
* 2006 4 58 Love
: 2010 8 60  is
: 2020 8 65  you
: 2028 16 62 ~
- 2046
: 2050 4 57 You
: 2054 8 58  turn
: 2062 6 60  this
: 2070 8 60  world
: 2078 4 58  in
: 2082 10 65 to
: 2092 15 62 ~
- 2109
: 2116 4 58 Some
: 2120 5 60 thing
: 2126 7 60  I
: 2134 7 60  ne
: 2142 4 62 ver
: 2146 12 65  knew
: 2158 14 62 ~
- 2174
: 2180 8 58 Beau
: 2188 8 60 ty
: 2196 8 62  sur
: 2204 8 60 rounds
: 2212 7 58 ~
: 2220 10 58 you
: 2230 5 55 ~
- 2237
: 2244 8 58 Love
: 2252 18 57  is
: 2270 30 58  you
: 2300 15 53 ~
: 2316 16 62 ~
: 2332 28 60 ~
- 2362
: 2388 6 58 Love
: 2394 6 57  is
: 2400 58 58  you
: 2458 5 60 ~
: 2464 7 58 ~
: 2472 4 60 ~
: 2476 12 58 ~
- 2490
: 2514 8 58 You're
: 2522 5 60  my
: 2527 11 62  e
* 2538 8 60 very
: 2546 7 58 thing
- 2554
: 2554 4 60 My
: 2558 12 62  e
: 2570 8 60 very
: 2578 7 58 thing
- 2586
: 2586 4 60 My
: 2590 12 62  e
: 2602 8 60 very
: 2610 7 58 thing
- 2618
: 2618 6 65 My
: 2624 9 62  world
: 2634 8 60  just
: 2642 8 58  falls
: 2650 4 60  a
: 2654 10 62 part
: 2666 9 60  when
- 2677
: 2682 8 63 You're
: 2690 7 62 ~
: 2698 8 62 not
: 2706 7 58 ~
* 2714 44 58 here
- 2760
: 2794 7 58 You
: 2802 8 57  caught
: 2810 4 53  my
* 2814 10 50  tear
: 2824 8 48 drops
- 2833
: 2833 7 50 In
: 2840 4 48  your
: 2844 12 50  eye
: 2856 26 53 lid
- 2884
: 2921 7 58 It
: 2928 8 57  felt
: 2936 5 53  like
: 2941 8 50  I
- 2950
: 2950 8 48 Was
: 2958 8 50  com
: 2966 4 53 ing
: 2970 10 50  home
* 2980 3 51 ~
: 2983 5 50 ~
- 2990
: 3022 6 58 Love
: 3028 6 60  is
: 3036 10 65  you
: 3046 11 62 ~
- 3059
: 3070 4 67 See
: 3074 4 67 ing
: 3078 7 65  things
: 3086 8 65  like
: 3094 3 62  you
: 3098 10 62  do
: 3108 11 60 ~
- 3121
: 3132 6 67 Wak
: 3138 3 65 ing
: 3142 6 65  up
: 3150 7 65  next
: 3157 3 62  to
: 3162 8 62  you
: 3170 3 60 ~
: 3173 7 58 ~
- 3182
: 3196 4 58 Wan
: 3200 3 60 na
: 3204 3 60  give
: 3208 3 60  you
: 3213 11 60  all
- 3226
: 3230 8 58 All
: 3238 8 60  that
: 3246 8 62  I
: 3254 16 60  am
- 3272
: 3278 4 58 Love
: 3282 9 60  is
: 3292 8 65  you
: 3300 13 62 ~
- 3315
: 3320 5 57 You
: 3325 7 58  turn
: 3332 7 60  this
: 3340 8 60  world
: 3348 4 58  in
: 3352 10 65 to
: 3362 15 62 ~
- 3379
: 3388 4 58 Some
: 3392 3 60 thing
: 3396 7 60  I
: 3404 8 60  ne
: 3412 4 62 ver
: 3416 12 65  knew
: 3428 15 62 ~
- 3445
: 3452 7 58 Beau
: 3459 9 60 ty
: 3468 8 62  sur
: 3476 8 60 rounds
: 3484 7 58 ~
: 3492 8 58 you
: 3500 4 55 ~
- 3506
: 3514 10 58 Love
: 3524 6 57  is
- 3531
: 3532 6 58 You're
: 3538 5 60  my
: 3543 11 62  e
: 3554 8 60 very
: 3562 7 58 thing
- 3570
: 3570 6 60 My
: 3576 10 62  e
: 3586 8 60 very
: 3594 7 58 thing
- 3602
: 3604 4 60 My
: 3608 10 62  e
: 3618 9 60 very
: 3627 7 58 thing
- 3635
: 3636 4 65 My
: 3640 10 62  world
: 3650 8 60  just
: 3658 10 58  falls
: 3669 3 60  a
: 3672 8 62 part
: 3680 10 60  when
- 3692
: 3698 10 63 You're
: 3708 6 62 ~
: 3715 7 62 not
: 3722 7 58 ~
: 3730 46 58 here
- 3778
: 3784 6 58 Love
: 3790 8 57  is
* 3798 6 58  you
: 3804 6 57 ~
: 3810 35 55 ~
E