#TITLE:I Hate Everything About You
#ARTIST:Three Days Grace
#MP3:Three Days Grace - I Hate Everything About You.mp3
#VIDEO:Three Days Grace - I Hate Everything About You.mp4
#COVER:Three Days Grace - I Hate Everything About You [CO].jpg
#BPM:276
#GAP:13070
#MedleyStartBeat:975
#MedleyEndBeat:1157
#ENCODING:UTF8
#PREVIEWSTART:65,289
#LANGUAGE:English
#GENRE:Rock
#YEAR:2003
: 0 6 4 Ev
: 7 7 6 ery
: 18 11 16 time
: 30 7 14  we
: 42 4 11  lie
: 47 6 13 ~
: 58 10 14  a
: 69 12 13 wake
- 91
: 98 6 6 Af
: 105 7 6 ter
: 117 9 16  ev
: 127 11 17 ery
: 141 10 13  hit
: 153 12 14  we
: 166 14 13  take
- 192
: 196 7 6 Ev
: 204 6 6 ery
* 214 14 16  feel
: 229 9 14 ing
: 240 11 13  that
: 253 9 14  I
: 264 11 13  get
- 285
: 296 7 6 But
: 304 8 6  I
: 316 11 16  have
: 328 9 17 n't
: 338 11 13  missed
: 351 4 14  you
: 356 6 13 ~
: 363 9 11  yet
- 382
: 394 7 6 Ev
: 402 6 6 ery
: 413 8 16  room
* 422 14 14 mate
: 437 8 13  kept
: 450 4 13  a
: 455 8 14 ~
: 464 4 13 wake
: 469 8 11 ~
- 484
: 487 5 6 By
: 493 6 6  ev
: 500 5 6 ery
: 509 13 16  sigh
: 525 3 16  and
: 529 4 17 ~
: 535 10 13  scream
: 546 14 14  we
: 561 13 13  make
- 584
: 591 7 6 All
: 599 7 6  the
: 611 9 16  feel
: 621 15 14 ings
: 637 12 13  that
: 650 10 14  I
: 661 5 13  get
: 667 5 12 ~
- 682
: 691 6 6 But
: 698 4 6  I
: 707 13 16  still
: 722 8 18  don't
: 731 13 13  miss
: 747 11 14  you
: 759 4 13  yet
: 764 7 12 ~
- 781
: 791 4 9 On
: 796 5 11 ~
: 802 8 11 ly
: 813 7 16  when
: 821 6 14 ~
: 828 7 14  I
: 838 11 13  stop
: 851 4 13  to
: 856 5 14 ~
: 862 4 11  think
: 867 6 13 ~
: 878 5 9  a
: 884 8 9 bout
: 893 6 9  it
: 900 4 9 ~
- 922
: 975 7 6 I
- 992
: 999 9 8 hate
: 1011 10 8  ev
: 1022 7 8 ery
: 1030 7 9 thing
* 1038 6 9  a
* 1047 8 8 bout
: 1058 6 9  you
- 1071
: 1074 12 9 Why
- 1095
: 1099 8 8 do
: 1108 6 9 ~
: 1117 5 8  I
: 1123 14 8 ~
: 1138 6 8  love
: 1148 9 8  you
- 1167
: 1174 8 6 I
- 1194
: 1198 13 8 hate
: 1214 9 8  ev
: 1224 7 8 ery
: 1232 6 9 thing
: 1239 8 9  a
: 1248 6 8  bout
: 1255 5 9  you
- 1269
: 1272 10 9 Why
- 1293
: 1297 10 8 do
: 1308 4 9 ~
: 1314 5 8  I
: 1320 13 8 ~
* 1337 6 8  love
* 1346 10 8  you
- 1392
: 1581 8 6 ev
: 1590 6 4 ery
: 1600 6 6 time
: 1611 8 15  we
- 1624
: 1626 7 14 lie
: 1634 3 11 ~
: 1638 8 13  a
: 1650 11 14  wake
- 1671
: 1682 6 7 Af
: 1689 6 6 ter
: 1700 8 6  ev
: 1709 11 16 ery
: 1724 7 16  hit
- 1735
: 1737 9 14 we
: 1747 10 14  take
- 1767
: 1781 6 7 Ev
: 1788 6 6 ery
: 1797 8 15  feel
: 1807 12 16 ing
: 1823 8 14  that
: 1834 9 13  I
: 1845 8 14  get
- 1863
: 1880 6 7 But
: 1887 6 6  I
: 1896 8 6  have
: 1906 9 16 n't
: 1920 9 16  missed
: 1930 7 13  you
: 1938 4 14 ~
: 1945 6 13  yet
- 1961
: 1979 4 11 On
: 1984 4 11 ~
: 1989 7 11 ly
: 1999 6 11  when
: 2006 7 14 ~
: 2014 4 14  I
: 2022 9 14  stop
- 2036
: 2038 8 13 to
: 2047 3 13 ~
: 2051 6 13  think
: 2058 3 11 ~
: 2062 9 11  a
: 2072 8 9 bout
: 2083 8 9  it
- 2109
: 2161 11 9 I
- 2182
: 2186 7 6 hate
: 2197 9 8  ev
: 2208 9 8 ery
: 2219 5 8 thing
: 2226 7 9  a
: 2235 6 9 bout
: 2242 8 8  you
- 2256
: 2259 14 7 Why
- 2282
: 2285 7 11 do
: 2293 5 9 ~
: 2299 8 9  I
: 2308 5 8 ~
- 2321
: 2324 9 6 love
: 2334 6 6  you
- 2350
: 2360 12 8 I
- 2380
: 2383 11 6 hate
: 2398 9 8  ev
: 2408 5 8 ery
: 2414 5 8 thing
: 2421 7 9  a
: 2429 6 9 bout
: 2437 8 8  you
- 2455
: 2459 10 9 Why
- 2478
: 2481 9 10 do
: 2491 5 8 ~
: 2498 8 9  I
: 2507 7 8 ~
* 2517 12 8  love
* 2531 9 7  you
- 2545
: 2547 12 8 on
: 2560 11 7 ly
- 2578
: 2581 8 -2 when
: 2590 7 -2 ~
: 2598 9 -2  I
: 2608 11 -2  stop
- 2625
: 2627 12 -2 to
: 2641 12 -2  think
- 2658
: 2660 16 -2 a
: 2677 12 -4 bout
: 2690 18 -2  you
* 2709 4 -1  I
* 2714 5 -3 ~
* 2723 6 -4  know
- 2739
: 2743 10 -4 On
: 2756 8 -5 ly
- 2771
: 2774 14 -2 when
: 2789 5 -2 ~
: 2795 8 -2  you
: 2804 16 -2  start
: 2824 12 -2  to
: 2837 16 -2  think
- 2857
: 2859 16 -2 a
: 2876 13 -4 bout
: 2891 12 -3  me
- 2907
: 2909 4 -1 do
: 2914 3 -2 ~
: 2920 11 -3  you
- 2967
: 3054 10 -4 I
- 3072
: 3075 12 -6 hate
: 3088 8 8  ev
: 3097 6 8 ery
: 3104 9 8 thing
: 3114 7 9  a
: 3123 6 9 bout
: 3131 8 8  you
- 3147
: 3150 11 9 Why
- 3170
: 3173 5 10 do
: 3179 6 8 ~
: 3187 2 9  I
: 3190 6 9 ~
: 3197 10 8 ~
: 3208 14 8  love
: 3225 6 8  you
- 3243
: 3247 12 8 You
- 3269
: 3273 14 6 hate
: 3289 7 8  ev
: 3297 5 8 ery
: 3303 5 8 thing
* 3312 7 9  a
* 3320 6 9 bout
* 3327 8 8  me
- 3344
: 3347 15 9 Why
- 3368
: 3370 7 10 do
: 3379 3 8 ~
: 3383 10 9  you
: 3394 12 8 ~
: 3408 14 8  love
: 3424 6 8  me
- 3440
: 3444 12 8 I
- 3465
: 3469 12 6 hate
- 3492
: 3496 12 8 you
- 3517
: 3520 13 8 hate
- 3540
: 3543 16 8 I
- 3565
: 3568 13 8 hate
- 3592
: 3596 8 8 You
* 3608 6 8  love
: 3618 12 8  me
- 3639
: 3642 11 8 I
- 3663
: 3670 9 6 hate
: 3680 8 8  ev
: 3689 5 8 ery
: 3697 6 8 thing
* 3704 8 9  a
* 3714 8 9 bout
* 3723 9 8  you
- 3739
: 3742 15 9 Why
- 3762
: 3764 7 9 do
: 3772 6 8 ~
: 3780 8 9  I
: 3790 11 8 ~
: 3803 10 8  love
* 3814 4 8  you
* 3819 4 8 ~
* 3824 5 7 ~
E