#TITLE:Carry Out
#ARTIST:Timbaland ft. Justin Timberlake
#GENRE:R&B
#LANGUAGE:English
#MP3:Timbaland ft. Justin Timberlake - Carry Out.mp3
#COVER:Timbaland ft. Justin Timberlake - Carry Out[CO].jpg
#VIDEO:Timbaland ft. Justin Timberlake - Carry Out.mp4
#PREVIEWSTART:57,732
#MedleyStartBeat:1008
#MedleyEndBeat:1516
#BPM:396
#GAP:20550
#YEAR:2009
: 0 4 6 Ba
* 8 4 6 by, 
: 20 2 6 you're 
: 24 2 6 look
* 28 2 6 ing 
: 32 4 3 fine
: 40 4 3 ~
- 46
: 52 2 3 I'll 
: 56 2 6 have 
: 60 2 8 you 
: 64 2 10 o
: 68 2 10 pen 
: 72 4 8 all 
: 80 4 6 night 
: 88 2 6 like 
: 92 2 6 an 
: 96 4 8 i
: 104 4 3 HOP
- 110
: 116 2 6 I 
: 120 2 6 take 
: 124 2 6 you 
: 128 4 6 home 
- 134
: 136 2 6 Ba
: 140 2 6 by, 
: 144 2 6 let 
* 148 2 6 you 
: 152 2 6 keep 
: 156 2 6 me 
: 160 2 6 com
: 164 2 3 pa
: 168 4 3 ny
- 174
: 180 2 3 You 
: 184 2 3 gim
: 188 2 3 me 
: 192 2 6 some 
: 196 2 3 of 
: 200 4 3 you
- 206
: 212 2 3 I 
: 216 2 3 give 
: 220 2 3 you 
: 224 2 6 some 
: 228 2 3 of 
: 232 4 3 me
- 238
: 244 2 3 You 
: 248 4 5 look 
: 256 4 6 good, 
: 264 2 5 ba
: 268 2 3 by 
: 272 4 3 must 
: 280 4 3 taste 
: 288 2 5 hea
: 292 2 3 ven
: 296 4 3 ly
- 302
: 308 2 3 I'm 
: 312 2 5 pret
: 316 2 5 ty 
: 320 4 6 sure 
: 328 2 5 that 
: 332 2 5 you 
: 336 2 5 got 
: 340 2 5 your 
: 344 2 5 own
: 348 2 3 ~ 
: 352 2 3 re
* 356 2 3 ci
: 360 2 3 pe
- 364
: 372 2 3 So 
: 376 2 5 pick 
: 380 2 5 it 
: 384 4 6 up, 
: 392 2 5 pick 
: 396 2 5 it 
: 400 4 6 up, 
: 408 2 5 yeah 
: 412 2 5 I 
: 416 4 5 like 
: 424 4 3 you
- 430
: 440 2 3 I 
: 444 2 3 just 
: 448 4 3 can't 
: 456 2 5 get 
: 460 2 5 e
: 464 2 6 nough 
- 467
: 468 2 6 I 
: 472 2 8 got 
: 476 2 8 to 
: 480 4 10 drive 
: 488 4 3 through
- 494
: 504 2 3 Cause 
: 508 2 3 is 
: 512 4 3 me, 
: 528 4 3 you, 
* 544 4 3 you
- 550
: 560 4 3 Me, 
: 576 4 3 me, 
: 592 4 3 you 
: 608 4 6 all 
: 616 4 6 night
- 622
: 632 2 3 Have 
: 636 2 3 it 
: 640 4 3 your 
: 656 4 3 way, 
: 672 4 3 fore
: 688 4 3 play
- 694
: 700 2 3 Be
: 704 4 3 fore 
: 716 2 3 I 
: 720 4 3 feed 
: 728 4 3 you 
: 736 2 6 ap
: 740 2 6 pe
: 744 4 6 tite
- 750
: 760 2 6 Let 
: 764 2 6 me 
: 768 2 6 get 
: 772 2 6 my 
: 776 2 6 tic
* 780 2 6 ket 
: 784 2 6 ba
: 788 2 6 by
- 791
: 792 2 6 Let 
: 796 2 6 me 
: 800 2 3 get 
: 804 2 3 it 
: 808 2 3 line
: 812 4 1 ~
- 818
: 824 2 3 I 
: 828 2 3 can 
: 832 2 3 tell 
: 836 2 3 the 
: 840 2 3 way 
: 844 2 3 you 
: 848 2 3 like 
: 852 2 3 it
- 855
: 856 2 3 Ba
: 860 2 3 by, 
: 864 2 3 su
: 868 2 3 per
: 872 4 3 sized
- 878
: 888 4 6 Hold 
: 896 4 5 on, 
* 904 2 5 you 
: 908 2 5 got 
: 912 4 5 yours, 
: 920 2 5 let 
: 924 2 5 me 
: 928 4 -1 get 
: 936 4 -1 mine
- 942
: 952 2 -1 I 
: 956 2 -1 ain't 
: 960 2 -1 lea
: 964 2 -1 vin' 
: 968 2 -1 till 
: 972 2 -1 they
- 975
: 976 2 1 Turn 
: 980 2 1 o
: 984 2 1 ver 
: 988 2 1 the 
: 992 4 3 closed 
: 1000 4 3 sign
- 1006
F 1008 2 -1 Check 
F 1012 2 -1 it
- 1015
: 1016 2 3 Take 
: 1020 2 3 my 
: 1024 2 3 or
: 1028 2 3 der 
: 1032 2 3 'cause 
* 1036 2 3 your 
: 1040 2 3 bo
: 1044 2 3 dy 
: 1048 2 3 like 
: 1052 2 3 a
- 1055
: 1056 2 6 Car
: 1060 2 6 ry 
: 1064 4 6 out
- 1070
: 1080 2 3 Let 
: 1084 2 3 me 
: 1088 2 3 walk 
: 1092 2 3 in
: 1096 2 3 to 
: 1100 2 3 your 
: 1104 2 3 bo
: 1108 2 3 dy 
: 1112 2 3 'till 
: 1116 2 3 you
- 1119
: 1120 2 6 Hear 
: 1124 2 6 me 
: 1128 4 6 out
- 1134
: 1144 2 8 Turn 
: 1148 2 8 me 
: 1152 4 10 on, 
: 1160 4 3 my 
: 1168 2 3 ba
: 1172 2 3 by 
: 1176 2 3 don't 
* 1180 2 3 you
- 1183
: 1184 2 6 Cut 
: 1188 2 6 me 
: 1192 4 6 out
- 1198
: 1208 2 8 Turn 
: 1212 2 8 me 
* 1216 4 10 on, 
: 1224 4 3 my 
: 1232 2 3 ba
: 1236 2 3 by 
: 1240 2 3 don't 
: 1244 2 3 you
- 1247
: 1248 2 6 Cut 
: 1252 2 6 me 
: 1256 4 6 out
- 1262
: 1272 2 3 Take 
: 1276 2 3 my 
: 1280 2 3 or
: 1284 2 3 der 
: 1288 2 3 'cause 
: 1292 2 3 your 
: 1296 2 3 bo
: 1300 2 3 dy 
: 1304 2 3 like 
: 1308 2 3 a
- 1311
: 1312 2 6 Car
* 1316 2 6 ry 
: 1320 4 6 out
- 1326
: 1336 2 3 Let 
: 1340 2 3 me 
: 1344 2 3 walk 
: 1348 2 3 in
: 1352 2 3 to 
: 1356 2 3 your 
: 1360 2 3 bo
: 1364 2 3 dy 
: 1368 2 3 'till 
: 1372 2 3 you
- 1375
: 1376 4 6 Lights 
* 1384 4 6 out
- 1390
: 1400 2 8 Turn 
: 1404 2 8 me 
: 1408 4 10 on, 
: 1416 4 3 my 
: 1424 2 3 ba
: 1428 2 3 by 
: 1432 2 3 don't 
: 1436 2 3 you
- 1439
: 1440 2 6 Cut 
: 1444 2 6 me 
: 1448 4 6 out
- 1454
: 1464 2 8 Turn 
: 1468 2 8 me 
: 1472 4 10 on, 
: 1480 4 3 my 
: 1488 2 3 ba
: 1492 2 3 by 
: 1496 2 3 don't 
: 1500 2 3 you
- 1503
: 1504 2 6 Cut 
: 1508 2 6 me 
: 1512 4 6 out
- 1518
: 1528 2 6 Num
: 1532 2 6 ber 
: 1536 4 6 one, 
: 1548 2 6 I 
: 1552 4 6 take 
: 1560 4 6 two 
: 1568 2 3 num
: 1572 2 3 ber 
: 1576 4 3 threes
- 1582
: 1592 2 6 That's 
: 1596 2 6 a 
: 1600 4 6 whole 
: 1608 2 6 lot
: 1612 2 6 ta 
: 1616 4 6 you 
: 1624 2 10 and 
: 1628 2 10 a 
: 1632 2 3 side 
: 1636 2 3 of 
: 1640 4 3 me
- 1646
: 1652 2 6 Now 
: 1656 2 6 is 
: 1660 2 6 it 
: 1664 2 6 full 
: 1668 2 6 of 
: 1672 2 6 my
: 1676 4 6 self 
: 1684 2 6 to 
: 1688 2 6 want 
: 1692 2 6 you 
: 1696 2 3 full 
: 1700 2 3 of 
: 1704 4 3 me
- 1710
: 1716 2 6 And 
: 1720 2 6 if 
: 1724 2 6 it's 
: 1728 4 6 room 
: 1736 2 6 for 
: 1740 2 6 des
: 1744 4 6 sert 
: 1752 2 10 then 
: 1756 2 10 I 
: 1760 2 3 want 
: 1764 2 3 a 
: 1768 4 3 piece
- 1774
: 1784 2 3 Ba
: 1788 2 3 by 
: 1792 2 3 get 
: 1796 2 3 my 
: 1800 2 3 or
: 1804 2 3 der 
: 1808 4 3 right, 
: 1816 4 3 no 
: 1824 4 6 er
: 1832 8 6 rors
- 1842
: 1848 2 3 Im
: 1852 2 3 ma 
: 1856 4 3 touch 
: 1864 2 3 you 
: 1868 2 3 on 
: 1872 2 3 the 
: 1876 2 3 
: 1880 4 3 right 
: 1888 2 6 a
: 1892 2 6 re
: 1896 4 6 as
- 1902
: 1912 2 10 I 
: 1916 2 10 can 
: 1920 4 3 feed 
: 1928 4 3 you, 
: 1944 2 10 you 
: 1948 2 10 can 
: 1952 4 3 feed 
: 1960 4 3 me
- 1966
: 1976 2 6 Girl 
: 1980 2 6 de
: 1984 2 6 li
: 1988 2 6 ver 
: 1992 4 6 that 
: 2000 2 6 to 
: 2004 2 6 me 
: 2008 4 10 come 
: 2016 4 3 see 
: 2024 4 3 me
- 2030
: 2040 2 3 'Cause 
: 2044 2 3 is 
: 2048 4 3 me, 
: 2064 4 3 you, 
: 2080 4 3 you
- 2086
: 2096 4 3 Me, 
: 2112 4 3 me, 
: 2128 4 3 you 
: 2144 4 6 all 
: 2152 4 6 night
- 2158
: 2168 2 3 Have 
: 2172 2 3 it 
: 2176 4 3 your 
: 2192 4 3 way, 
: 2208 4 3 fore
: 2224 4 3 play
- 2230
: 2236 2 3 Be
: 2240 4 3 fore 
: 2252 2 3 I 
: 2256 4 3 feed 
: 2264 4 3 you 
: 2272 2 6 ap
: 2276 2 6 pe
: 2280 4 6 tite
- 2286
: 2296 2 10 Do 
: 2300 2 10 you 
: 2304 2 3 like 
: 2308 2 3 it 
: 2312 4 3 well 
: 2320 4 3 done, 
: 2328 2 3 'cause 
: 2332 2 3 I 
: 2336 2 6 do 
: 2340 2 6 it 
: 2344 4 6 well
- 2350
: 2360 2 10 'Cause 
: 2364 2 10 I'm 
: 2368 4 3 well 
* 2376 4 3 sea
: 2384 4 3 soned 
: 2392 2 3 if 
: 2396 2 3 you 
: 2400 2 6 could
: 2404 2 6 n't 
: 2408 4 6 tell
- 2414
: 2420 2 6 Now 
: 2424 2 6 let 
: 2428 2 6 me 
: 2432 2 6 walk 
: 2436 2 6 in
: 2440 2 6 to 
: 2444 2 6 your 
: 2448 2 6 bo
: 2452 2 6 dy 
- 2455
: 2456 2 6 'Till 
: 2460 2 6 you 
: 2464 2 6 hear 
: 2468 2 5 me 
: 2472 4 5 out
- 2478
: 2484 2 3 And 
: 2488 2 6 turn 
: 2492 2 6 me 
: 2496 4 3 on, 
: 2504 4 3 my 
* 2512 2 3 ba
: 2516 2 3 by, 
: 2520 2 -2 don't 
: 2524 2 -2 you 
: 2528 2 -2 cut 
: 2532 2 -2 me 
: 2536 4 3 out
- 2542
F 2544 4 -3 Say
- 2550
: 2552 2 3 Take 
: 2556 2 3 my 
: 2560 2 3 or
: 2564 2 3 der 
: 2568 2 3 'cause 
: 2572 2 3 your 
: 2576 2 3 bo
: 2580 2 3 dy 
: 2584 2 3 like 
: 2588 2 3 a
- 2591
: 2592 2 6 Car
: 2596 2 6 ry 
: 2600 4 6 out
- 2606
: 2616 2 3 Let 
: 2620 2 3 me 
: 2624 2 3 walk 
: 2628 2 3 in
: 2632 2 3 to 
: 2636 2 3 your 
: 2640 2 3 bo
: 2644 2 3 dy 
: 2648 2 3 'till 
: 2652 2 3 you
- 2655
: 2656 2 6 Hear 
: 2660 2 6 me 
: 2664 4 6 out
- 2670
: 2680 2 8 Turn 
: 2684 2 8 me 
: 2688 4 10 on, 
: 2696 4 3 my 
: 2704 2 3 ba
: 2708 2 3 by 
: 2712 2 3 don't 
: 2716 2 3 you
- 2719
: 2720 2 6 Cut 
: 2724 2 6 me 
: 2728 4 6 out
- 2734
: 2744 2 8 Turn 
: 2748 2 8 me 
: 2752 4 10 on, 
: 2760 4 3 my 
: 2768 2 3 ba
: 2772 2 3 by 
: 2776 2 3 don't 
: 2780 2 3 you
- 2783
: 2784 2 6 Cut 
: 2788 2 6 me 
: 2792 4 6 out
- 2798
: 2808 2 3 Take 
: 2812 2 3 my 
: 2816 2 3 or
: 2820 2 3 der 
: 2824 2 3 'cause 
: 2828 2 3 your 
: 2832 2 3 bo
: 2836 2 3 dy 
: 2840 2 3 like 
: 2844 2 3 a
- 2847
: 2848 2 6 Car
: 2852 2 6 ry 
: 2856 4 6 out
- 2862
: 2872 2 3 Let 
: 2876 2 3 me 
: 2880 2 3 walk 
: 2884 2 3 in
: 2888 2 3 to 
: 2892 2 3 your 
: 2896 2 3 bo
: 2900 2 3 dy 
: 2904 2 3 'till 
: 2908 2 3 you
- 2911
: 2912 4 6 Lights 
: 2920 4 6 out
- 2926
: 2936 2 8 Turn 
: 2940 2 8 me 
: 2944 4 10 on, 
: 2952 4 3 my 
: 2960 2 3 ba
: 2964 2 3 by 
: 2968 2 3 don't 
: 2972 2 3 you
- 2975
: 2976 2 6 Cut 
: 2980 2 6 me 
: 2984 4 6 out
- 2990
: 3000 2 8 Turn 
: 3004 2 8 me 
: 3008 4 10 on, 
: 3016 4 3 my 
: 3024 2 3 ba
: 3028 2 3 by 
: 3032 2 3 don't 
: 3036 2 3 you
- 3039
: 3040 2 6 Cut 
: 3044 2 6 me 
: 3048 2 6 out
- 3052
: 3104 4 6 What's 
: 3112 4 6 you 
: 3120 12 8 name?
- 3134
: 3168 4 6 What's 
: 3176 4 6 you 
: 3184 4 8 num
: 3192 8 3 ber?
- 3202
: 3224 4 3 I'm 
: 3232 4 6 glad 
: 3240 4 6 I 
: 3248 12 8 came
- 3262
: 3288 2 3 Can 
: 3292 2 3 you 
: 3296 4 6 take 
: 3304 4 6 my 
: 3312 4 8 o
: 3320 8 3 ther?
- 3330
: 3360 4 6 What's 
: 3368 4 6 you 
: 3376 12 8 name?
- 3390
: 3416 4 3 Girl, 
: 3424 4 6 what 
: 3432 4 6 you 
: 3440 4 8 num
: 3448 8 3 ber?
- 3458
: 3480 4 3 I'm 
: 3488 4 6 glad 
: 3496 4 10 I 
: 3504 12 8 came
- 3518
: 3544 2 3 Can 
: 3548 2 3 you 
: 3552 4 6 take 
: 3560 4 6 my 
: 3568 4 8 o
: 3576 8 3 ther?
- 3586
: 3616 4 6 What's 
: 3624 4 6 you 
: 3632 4 8 name?
- 3638
: 3680 4 6 What's 
: 3688 4 6 you 
: 3696 4 8 num
: 3704 8 3 ber?
- 3714
: 3736 4 3 I'm 
: 3744 4 6 glad 
: 3752 4 6 I 
: 3760 12 8 came
- 3774
: 3800 2 3 Can 
: 3804 2 3 you 
: 3808 4 6 take 
: 3816 4 6 my 
: 3824 4 8 o
: 3832 8 3 ther?
- 3842
: 3872 4 6 What's 
: 3880 4 6 you 
: 3888 12 8 name?
- 3902
: 3936 4 6 What's 
: 3944 4 6 you 
: 3952 4 8 num
: 3960 8 3 ber?
- 3970
: 3992 4 3 I'm 
: 4000 4 6 glad 
: 4008 4 10 I 
: 4016 12 8 came
- 4030
: 4056 2 3 Can 
: 4060 2 3 you 
: 4064 4 6 take 
: 4072 4 6 my...
- 4078
: 4088 2 3 Take 
: 4092 2 3 my 
: 4096 2 3 or
: 4100 2 3 der 
: 4104 2 3 'cause 
: 4108 2 3 your 
: 4112 2 3 bo
: 4116 2 3 dy 
: 4120 2 3 like 
: 4124 2 3 a
- 4127
: 4128 2 6 Car
: 4132 2 6 ry 
: 4136 4 6 out
- 4142
: 4152 2 3 Let 
: 4156 2 3 me 
: 4160 2 3 walk 
: 4164 2 3 in
: 4168 2 3 to 
: 4172 2 3 your 
: 4176 2 3 bo
: 4180 2 3 dy 
: 4184 2 3 'till 
: 4188 2 3 you
- 4191
: 4192 2 6 Hear 
: 4196 2 6 me 
: 4200 4 6 out
- 4206
: 4216 2 8 Turn 
: 4220 2 8 me 
: 4224 4 10 on, 
: 4232 4 3 my 
: 4240 2 3 ba
: 4244 2 3 by 
: 4248 2 3 don't 
: 4252 2 3 you
- 4255
: 4256 2 6 Cut 
: 4260 2 6 me 
: 4264 4 6 out
- 4270
: 4280 2 8 Turn 
: 4284 2 8 me 
: 4288 4 10 on, 
: 4296 4 3 my 
: 4304 2 3 ba
: 4308 2 3 by 
: 4312 2 3 don't 
: 4316 2 3 you
- 4319
: 4320 2 6 Cut 
: 4324 2 6 me 
: 4328 4 6 out
- 4334
: 4344 2 3 Take 
: 4348 2 3 my 
: 4352 2 3 or
: 4356 2 3 der 
: 4360 2 3 'cause 
: 4364 2 3 your 
: 4368 2 3 bo
: 4372 2 3 dy 
: 4376 2 3 like 
: 4380 2 3 a
- 4383
: 4384 2 6 Car
: 4388 2 6 ry 
: 4392 4 6 out
- 4398
: 4408 2 3 Let 
: 4412 2 3 me 
: 4416 2 3 walk 
: 4420 2 3 in
: 4424 2 3 to 
: 4428 2 3 your 
: 4432 2 3 bo
: 4436 2 3 dy 
: 4440 2 3 'till 
: 4444 2 3 you
- 4447
: 4448 4 6 Lights 
: 4456 4 6 out
- 4462
: 4472 2 8 Turn 
: 4476 2 8 me 
: 4480 4 10 on, 
: 4488 4 3 my 
: 4496 2 3 ba
: 4500 2 3 by 
: 4504 2 3 don't 
: 4508 2 3 you
- 4511
: 4512 2 6 Cut 
: 4516 2 6 me 
: 4520 4 6 out
- 4526
: 4536 2 8 Turn 
: 4540 2 8 me 
: 4544 4 10 on, 
: 4552 4 3 my 
: 4560 2 3 ba
: 4564 2 3 by 
: 4568 2 3 don't 
: 4572 2 3 you
- 4575
: 4576 2 6 Cut 
: 4580 2 6 me 
: 4584 4 6 out
- 4590
: 4600 2 3 Take 
: 4604 2 3 my 
: 4608 2 3 or
: 4612 2 3 der 
: 4616 2 3 'cause 
: 4620 2 3 your 
: 4624 2 3 bo
: 4628 2 3 dy 
: 4632 2 3 like 
: 4636 2 3 a 
- 4639
: 4640 2 6 Car
: 4644 2 6 ry 
: 4648 4 6 out
- 4654
: 4664 2 3 Let 
: 4668 2 3 me 
: 4672 2 3 walk 
: 4676 2 3 in
: 4680 2 3 to 
: 4684 2 3 your 
: 4688 2 3 bo
: 4692 2 3 dy 
: 4696 2 3 'till 
: 4700 2 3 you
- 4703
: 4704 2 6 Hear 
: 4708 2 6 me 
: 4712 4 6 out
- 4718
: 4728 2 8 Turn 
: 4732 2 8 me 
: 4736 4 10 on, 
: 4744 4 3 my 
: 4752 2 3 ba
: 4756 2 3 by 
: 4760 2 3 don't 
: 4764 2 3 you
- 4767
: 4768 2 6 Cut 
: 4772 2 6 me 
: 4776 4 6 out
- 4782
: 4792 2 8 Turn 
: 4796 2 8 me 
: 4800 4 10 on, 
: 4808 4 3 my 
: 4816 2 3 ba
: 4820 2 3 by 
: 4824 2 3 don't 
: 4828 2 3 you
- 4831
: 4832 2 6 Cut 
: 4836 2 6 me 
: 4840 4 6 out
- 4846
: 4856 2 3 Take 
: 4860 2 3 my 
: 4864 2 3 or
: 4868 2 3 der 
: 4872 2 3 'cause 
: 4876 2 3 your 
: 4880 2 3 bo
: 4884 2 3 dy 
: 4888 2 3 like 
: 4892 2 3 a
- 4895
: 4896 2 6 Car
: 4900 2 6 ry 
: 4904 4 6 out
- 4910
: 4920 2 3 Let 
: 4924 2 3 me 
: 4928 2 3 walk 
: 4932 2 3 in
: 4936 2 3 to 
: 4940 2 3 your 
: 4944 2 3 bo
: 4948 2 3 dy 
: 4952 2 3 'till 
: 4956 2 3 you
- 4959
: 4960 4 6 Lights 
: 4968 4 6 out
- 4974
: 4984 2 8 Turn 
: 4988 2 8 me 
: 4992 4 10 on, 
: 5000 4 3 my 
: 5008 2 3 ba
: 5012 2 3 by 
: 5016 2 3 don't 
: 5020 2 3 you
- 5023
: 5024 2 6 Cut 
: 5028 2 6 me 
: 5032 4 6 out
- 5038
: 5048 2 8 Turn 
: 5052 2 8 me 
: 5056 4 10 on, 
: 5064 4 3 my 
: 5072 2 3 ba
: 5076 2 3 by 
: 5080 2 3 don't 
: 5084 2 3 you
- 5087
: 5088 2 6 Cut 
: 5092 2 6 me 
: 5096 4 6 out
E
