#TITLE:If we ever meet again
#ARTIST:Timbaland feat Katy Perry
#EDITION:Diverse
#MP3:Timbaland feat Katy Perry - If we ever meet again.mp3
#COVER:Timbaland feat Katy Perry - If we ever meet again [CO].jpg
#VIDEO:Timbaland feat Katy Perry - If we ever meet again.avi
#BPM:251,98
#GAP:28000
: 0 2 12 What's
: 4 2 12  some-
: 8 2 12 bo-
: 12 2 12 dy
: 16 6 15  like
: 24 4 17  you
- 32
: 40 2 12 Do-
: 44 2 12 in'
: 48 2 12  in
: 52 2 12  a
: 56 6 12  place
: 64 6 8  like
: 72 16 5  this
- 92
: 124 2 5 Say,
: 128 2 12  did
: 132 2 12  you
: 136 6 12  come
: 144 6 15  a-
: 152 4 17 lone
- 160
: 168 2 12 Or
: 172 2 12  did
: 176 2 12  you
: 180 2 12  bring
: 184 6 12  all
: 192 6 8  your
: 200 16 5  friends
- 224
: 244 2 5 Say
: 248 2 12  what's
: 252 2 12  your
: 256 4 12  name
- 262
: 263 1 12 What
: 265 2 12  are
: 268 2 12  you
: 272 2 12  drin-
: 276 2 12 king
- 279
: 280 2 10 I
: 284 2 10  think
: 288 2 10  I
: 292 2 10  know
: 296 1 10  what
: 298 2 10  are
: 301 2 10  you
: 304 2 10  thin-
: 308 2 10 king
- 314
: 320 2 8 Ba-
: 324 2 8 by
: 328 2 8  what's
: 332 2 8  your
: 336 4 8  sign
- 342
: 344 2 13 Tell
: 348 2 13  me
: 352 2 13  yours,
: 356 1 8  and
: 358 1 8  I'll
: 360 2 8  tell
: 364 2 8  you
: 368 4 8  mine
- 376
: 380 2 5 Say,
: 384 2 12  what's
: 388 2 12  some-
: 392 2 12 bo-
: 396 2 12 dy
: 400 6 15  like
: 408 4 17  you
- 416
: 424 2 12 Do-
: 428 2 12 in'
: 432 2 12  in
: 436 2 12  a
: 440 6 12  place
* 448 6 8  like
: 456 16 5  this
- 472
F 472 4 13 One,
F 480 4 13  two,
F 488 4 13  three,
F 496 4 13  four
- 502
: 504 30 15 I'll
: 536 6 16  ne-
: 544 6 16 ver
: 552 6 17  be
: 559 3 19  the
: 564 14 20  sa-
: 580 3 15 ~
: 584 8 17 me
- 596
: 600 2 13 If
: 604 2 13  we
: 608 2 13  e-
: 612 2 13 ver
: 616 2 13  meet
: 620 2 15  a-
: 624 2 13 gain
: 628 2 12  ~
- 631
: 632 30 15 Won't
: 664 6 16  let
: 672 6 16  you
: 680 6 17  get
: 688 3 19  a-
: 692 14 20 wa-
: 708 3 15 y
: 712 8 17  ~
- 722
: 724 2 5 Said
: 728 2 13  if
: 732 2 13  we
: 736 2 13  e-
: 740 2 13 ver
: 744 2 13  meet
: 748 2 15  a-
: 752 2 13 gain
: 756 4 12  ~
- 764
* 768 6 20 This
: 776 6 15  free-
: 784 6 12 fall's
: 800 6 20  got
: 808 6 15  me
: 816 6 12  sold
- 828
: 832 6 20 Kiss
: 840 6 15  me
: 848 4 12  all
: 856 2 20  night,
: 860 2 20  don't
: 864 2 20  e-
: 868 2 19 ver
: 872 2 19  let
: 876 2 20  me
: 880 4 20  go
- 886
: 888 30 15 I'll
: 920 6 16  ne-
: 928 6 16 ver
: 936 6 17  be
: 944 3 19  the
: 948 14 20  sa-
: 964 3 15 ~
: 968 8 17 me
- 980
: 984 2 13 If
: 988 2 13  we
: 992 2 13  e-
: 996 2 13 ver
: 1000 2 13  meet
: 1004 2 15  a-
: 1008 2 13 gain
: 1012 6 12  ~
- 1024
: 1152 2 12 Do
: 1156 2 12  you
: 1160 6 12  come
: 1168 6 15  here
: 1176 6 17  much
- 1186
: 1188 2 12 I
: 1192 2 12  swear
: 1196 2 12  I've
: 1200 2 12  seen
: 1204 2 12  your
: 1208 6 12  face
: 1216 6 8  be-
* 1224 6 5 fore,
- 1231
: 1233 6 15 be-
: 1240 6 17 fore
: 1248 6 15  ~
: 1256 6 12 ~
* 1264 8 15 Yeah
- 1272
: 1276 2 12 Hope
: 1280 2 12  you
: 1284 2 12  don't
: 1288 6 12  see
: 1296 6 15  me
: 1304 6 17  blush
- 1312
: 1317 2 12 But
: 1321 2 12  I
: 1325 2 12  can't
: 1329 2 12  help
: 1333 2 10  but
: 1338 6 12  want
* 1345 6 15  you
: 1353 10 12  more,
: 1376 10 10  more
- 1392
: 1400 2 24 Ba-
: 1404 2 24 by,
: 1408 2 24  tell
: 1412 2 24  me
: 1416 2 24  what's
: 1420 2 24  your
: 1424 2 24  sto-
: 1428 2 24 ry
- 1431
: 1432 2 22 I
: 1436 2 22  ain't
: 1440 6 22  shy,
: 1448 2 22  don't
: 1452 2 22  you
: 1456 2 24  wo-
: 1460 4 20 rry
- 1466
: 1468 2 20 I'm
: 1472 2 20  flir-
: 1476 2 20 ting
: 1480 2 20  with
: 1484 2 20  my
: 1488 4 20  eyes,
- 1493
: 1495 2 20 I
: 1499 1 20  wa-
: 1501 1 20 nna
: 1504 2 20  leave
: 1508 2 20  with
: 1512 2 20  you
: 1516 2 22  to-
: 1520 4 22 night
: 1525 2 20  ~
- 1530
: 1532 2 5 So
: 1536 2 12  do
: 1540 2 12  you
: 1544 6 12  come
: 1552 6 15  here
: 1560 6 17  much
- 1570
: 1572 2 24 I've
: 1576 2 24  go-
: 1580 2 24 tta
: 1584 2 24  see
: 1588 2 24  your
: 1592 6 24  face
: 1600 6 20  some
: 1608 6 17  more
: 1616 8 15  ~
- 1628
: 1631 2 20 Some
: 1636 4 20  more
: 1643 2 17  'cause
: 1647 2 20  ba-
: 1651 2 22 by
- 1654
: 1656 30 15 I'll
: 1688 6 16  ne-
: 1696 6 16 ver
: 1704 6 17  be
: 1712 3 19  the
: 1716 14 20  sa-
: 1732 3 15 ~
: 1736 8 17 me
- 1748
: 1752 2 20 If
: 1756 2 20  we
: 1760 2 20  e-
: 1764 2 20 ver
: 1768 2 20  meet
: 1772 2 22  a-
: 1776 2 22 gain
: 1780 2 20  ~
- 1783
: 1784 30 15 Won't
* 1816 6 16  let
: 1824 6 16  you
: 1832 6 17  get
: 1840 3 19  a-
: 1844 14 20 wa-
: 1860 3 15 y
: 1864 8 17  ~
- 1874
: 1876 2 5 Said
: 1880 2 13  if
: 1884 2 13  we
: 1888 2 13  e-
: 1892 2 13 ver
: 1896 2 13  meet
: 1900 2 15  a-
: 1904 2 13 gain
: 1908 4 12  ~
- 1916
: 1920 6 20 This
: 1928 6 15  free-
: 1936 6 12 fall's
: 1952 6 20  got
: 1960 6 15  me
: 1968 6 12  sold
- 1976
: 1984 6 20 Kiss
: 1992 6 15  me
: 2000 4 12  all
: 2008 2 20  night,
: 2012 2 20  don't
: 2016 2 20  e-
: 2020 2 19 ver
: 2024 2 19  let
: 2028 2 20  me
: 2032 4 20  go
- 2038
: 2040 30 15 I'll
: 2072 6 16  ne-
: 2080 6 16 ver
: 2088 6 17  be
: 2096 3 19  the
: 2100 14 20  sa-
: 2116 3 15 ~
: 2120 8 17 me
- 2132
: 2136 2 13 If
: 2140 2 13  we
: 2144 2 13  e-
: 2148 2 13 ver
: 2152 2 13  meet
: 2156 2 15  a-
: 2160 2 13 gain
: 2164 2 12  ~
- 2167
: 2169 10 15 If
: 2180 2 12  we
: 2184 10 12  e-
: 2195 2 10 ver
: 2200 4 12  meet
: 2205 2 10  a-
: 2208 6 7 gain
- 2216
: 2232 2 15 I'll
: 2236 2 15  have
: 2240 2 12  so
: 2244 2 17  much
: 2248 2 15  more
: 2252 2 15  to
: 2256 4 12  say
- 2261
F 2263 1 7 (I
F 2265 1 7  said,
F 2267 2 10  if
F 2271 2 10  we
F 2275 2 10  e-
F 2279 2 10 ver
F 2283 2 10  meet
F 2287 2 12  a-
F 2291 2 10 gain)
- 2294
* 2296 10 15 If
: 2308 2 12  we
: 2312 10 12  e-
: 2323 2 10 ver
: 2328 4 12  meet
: 2333 2 10  a-
: 2336 6 7 gain
- 2348
: 2360 2 15 I
: 2364 2 15  won't
: 2368 2 12  let
: 2372 2 17  you
: 2376 2 15  go
: 2380 2 15  a-
: 2384 4 12 way
- 2391
F 2393 1 10 (Said,
F 2396 2 10  if
F 2400 2 10  we
F 2404 2 10  e-
F 2408 2 10 ver
F 2412 2 10  meet
F 2416 2 10  a-
F 2420 2 12 gain)
- 2423
: 2425 10 20 If
: 2436 2 17  we
: 2440 10 15  e
: 2453 2 13  ver,
* 2457 10 12  e
: 2469 2 13  ver
: 2473 6 15  meet
: 2481 2 12  a-
: 2485 2 12 gain
- 2488
: 2490 2 20 I'll
: 2493 2 20  have
: 2497 2 15  so
: 2501 2 22  much
: 2505 2 20  more
: 2509 2 20  to
: 2513 4 15  say
- 2518
F 2519 1 10 (I
F 2521 1 10  said,
F 2525 2 10  if
F 2529 2 10  we
F 2533 2 10  e-
F 2537 2 10 ver
F 2541 2 10  meet
F 2545 2 10  a-
F 2549 2 7 gain)
- 2553
: 2554 10 20 If
: 2565 2 17  we
: 2569 10 15  e-
: 2580 2 13 ver,
: 2584 10 12  e-
: 2596 2 13 ver
: 2600 6 15  meet
: 2608 2 12  a-
: 2612 2 12 gain
- 2616
: 2618 2 24 I
: 2622 2 24  won't
: 2626 2 20  let
: 2629 2 25  you
: 2633 2 24  go
: 2637 2 24  a-
: 2641 10 20 way
- 2664
: 2680 30 15 I'll
: 2712 6 16  ne-
: 2720 6 16 ver
: 2728 6 17  be
: 2736 3 19  the
: 2740 14 20  sa-
: 2756 3 15 ~
: 2760 8 17 me
- 2772
: 2776 2 13 If
: 2780 2 13  we
: 2784 2 13  e-
: 2788 2 13 ver
: 2792 2 13  meet
: 2796 2 15  a-
: 2800 2 13 gain
: 2804 2 12  ~
- 2807
: 2808 30 15 Won't
: 2840 6 16  let
: 2848 6 16 you
: 2856 6 17  get
: 2864 3 19  a-
: 2869 14 20 wa-
: 2884 3 15 y
: 2888 8 17  ~
- 2898
: 2900 2 5 Said,
: 2904 2 13  if
: 2908 2 13  we
: 2912 2 13  e-
: 2916 2 13 ver
: 2920 2 13  meet
: 2924 2 15  a
: 2928 2 13  gain
: 2932 4 12  ~
- 2940
: 2944 6 20 This
* 2952 6 15  free-
: 2960 6 12 fall's
: 2976 6 20  got
: 2984 6 15  me
: 2992 6 12  sold
- 3004
: 3008 6 20 Kiss
: 3016 6 15  me
: 3024 4 12  all
: 3032 2 20  night,
: 3036 2 20  don't
: 3040 2 20  e-
: 3044 2 19 ver
: 3048 2 19  let
: 3052 2 20  me
: 3056 4 20  go
- 3062
: 3064 30 15 I'll
: 3096 6 16  ne-
* 3104 6 16 ver
: 3112 6 17  be
: 3120 3 19  the
* 3125 14 20  sa-
: 3140 3 15 ~
: 3144 8 17 me
- 3156
: 3160 2 20 If
: 3164 2 20  we
: 3168 2 15  e-
: 3172 2 15 ver
: 3176 2 20  meet
: 3180 2 22  a-
: 3184 2 22 gain
: 3188 2 20  ~
- 3191
: 3192 30 15 I'll
: 3224 6 16  ne-
: 3232 6 16 ver
: 3240 6 17  be
: 3248 3 19  the
: 3252 14 20  sa-
: 3268 3 15 ~
: 3272 8 17 me
- 3284
: 3288 2 24 If
: 3293 2 25  we
: 3296 2 24  e-
: 3299 2 25 ver
: 3304 2 24  meet
: 3308 2 22  a-
: 3312 2 22 gain
: 3316 2 20  ~
- 3319
* 3320 30 15 Won't
: 3352 6 16  let
: 3360 6 16  you
: 3368 6 17  get
: 3376 3 19  a-
: 3380 14 24 wa-
: 3396 3 25 y
: 3400 8 27  ~
- 3410
: 3412 2 5 Said,
: 3416 2 13  if
: 3420 2 13  we
: 3424 2 13  e-
: 3428 2 13 ver
: 3432 2 13  meet
: 3436 2 15  a
: 3440 2 13  gain
: 3444 2 12  ~
- 3448
: 3456 6 20 This
: 3464 6 15  free--
: 3472 6 12 fall's
: 3488 6 20  got
: 3496 6 15  me
: 3504 6 12  sold
- 3516
: 3520 6 20 Kiss
: 3528 6 15  me
: 3536 4 12  all
: 3544 2 20  night,
: 3548 2 20  don't
: 3552 2 20  e-
: 3556 2 19 ver
: 3560 2 19  let
: 3564 2 20  me
: 3568 4 20  go
- 3574
: 3576 30 15 I'll
: 3608 6 16  ne-
: 3616 6 16 ver
: 3624 6 17  be
: 3632 3 19  the
: 3636 14 20  sa-
: 3652 3 15 ~
: 3656 8 17 me
- 3666
: 3668 2 5 Said,
: 3672 2 13  if
: 3676 2 13  we
: 3680 2 13  e-
: 3684 2 13 ver
: 3688 2 13  meet
: 3692 2 15  a-
: 3696 2 13 gain
: 3700 2 12  ~
- 3704
: 4330 2 15 Just
: 4334 2 15  when
: 4338 2 15  the
: 4342 2 15  night
: 4346 2 11  can't
: 4350 2 13  get
: 4354 2 11  no
: 4358 4 11  less
- 4363
: 4365 2 15 Porn
: 4369 2 15 stars
: 4373 2 15  stru-
: 4376 2 11 ttin'
: 4381 2 13  while
: 4385 2 11  they
: 4389 4 11  dis'
- 4395
: 4397 2 15 Vi
: 4401 2 15 xens
: 4405 2 15  figh-
: 4408 2 11 ting
: 4413 2 13  for
: 4416 2 11  their
: 4420 4 11  shirts
- 4426
: 4428 2 15 My
: 4432 2 15  bu-
: 4436 2 15 ddy
: 4440 2 11  like
: 4444 2 13  Jus-
: 4447 2 11 tin
: 4451 4 11  West,
: 4459 2 11  yes
- 4464
: 4466 2 15 You
: 4470 1 15  go-
: 4472 1 15 nna
: 4474 2 15  fi-
: 4478 2 11 nish
: 4482 4 11  dear
- 4487
: 4489 2 15 And
: 4493 2 15  your
: 4497 2 15  bo
: 4501 2 11  dy
: 4505 2 11  so
: 4509 2 18  su-
: 4512 4 15 perb
- 4518
: 4520 2 15 Me
: 4524 2 15  and
: 4528 4 15  you,
: 4536 2 11  dance
: 4540 2 15  with
: 4544 4 15  her
- 4550
: 4552 2 13 But
: 4556 2 11  your
: 4560 2 20  girl,
: 4567 2 11  face
: 4571 1 11  of
: 4573 1 11  the
: 4575 6 8  year
- 4582
: 4598 2 11 Face
: 4602 1 11  of
: 4604 1 11  the
: 4606 6 8  year
- 4622
: 4629 2 11 Face
: 4633 1 11  of
: 4635 1 11  the
: 4637 6 8  year
- 4644
: 4660 2 11 Face
: 4664 1 11  of
: 4666 1 11  the
: 4668 6 8  year
- 4684
: 4691 2 11 Face
: 4695 1 11  of
: 4697 1 11  the
: 4699 6 8  year
E
