#TITLE:Ljubi, Ljubi, I Love You (Rumänien 2007)
#ARTIST:Todomondo
#LANGUAGE:English
#EDITION:Ultrastar Eurovision Edition Vol.3
#GENRE:Pop
#MP3:Todomondo - Ljubi, Ljubi, I Love You (Rumänien 2007).mp3
#COVER:Todomondo - Ljubi, Ljubi, I Love You (Rumänien 2007) [CO].jpg
#BACKGROUND:Todomondo - Ljubi, Ljubi, I Love You (Rumänien 2007) [BG].jpg
#VIDEO:Todomondo - Ljubi, Ljubi, I Love You (Rumänien 2007) [VD#0].mpg
#BPM:243,7
#GAP:18860
: 0 4 13 E
: 5 3 13 very
: 10 4 13 where 
: 18 1 8 a
: 20 3 15 round 
: 25 2 15 the 
: 30 5 15 world 
- 37
: 41 3 16 "I 
: 45 3 16 love 
: 51 3 16 you" 
: 58 2 18 it 
: 61 3 16 means 
: 66 2 13 the 
: 71 3 13 same, 
- 76
: 81 4 13 E
: 87 3 13 very
: 91 4 13 day 
: 99 1 8 and 
: 102 2 15 e
: 106 3 15 very 
: 111 3 15 night 
- 116
: 121 3 16 On
: 127 3 16 ly 
: 132 4 16 you 
: 139 1 18 can 
: 142 2 16 touch 
: 148 2 13 my 
: 152 3 13 flame, 
- 157
: 160 2 11 So 
: 163 2 20 take 
: 167 3 20 my 
: 173 7 20 heart, 
: 183 2 18 take 
: 188 2 13 my 
: 193 3 13 soul, 
- 198
: 204 3 15 E
: 210 2 15 very
: 214 3 13 thing 
: 219 2 15 of 
: 224 4 16 me, 
- 230
: 245 3 20 E
: 250 3 20 very
: 255 5 20 where 
: 262 2 20 you 
: 266 2 18 go 
* 271 4 13 my 
: 276 3 14 ba
: 281 3 13 by, 
: 287 3 15 e
: 291 3 15 ven 
: 297 3 16 I
: 301 4 15 ta
: 307 4 13 ly, 
- 313
: 327 3 13 Non 
: 332 5 13 de
: 337 3 13 vi e
: 342 4 13 sse
: 347 3 15 re 
: 352 3 15 spe
: 357 4 15 cia
: 361 3 15 le, 
- 365
: 367 2 16 "Io 
: 371 3 16 ti 
: 376 4 16 a
: 381 3 18 mo" e 
: 386 4 13 semp
: 391 2 13 re u
: 395 5 13 gua
: 400 2 13 le, 
- 406
: 406 2 13 Lo 
: 410 3 13 pui 
: 415 4 13 di
: 420 3 13 re 
: 425 1 15 co
: 427 1 15 me 
: 429 5 15 vo
: 435 3 15 i, 
- 440
: 445 3 16 Sei 
: 449 2 16 da 
: 454 4 16 so
: 459 2 18 la 
: 463 1 13 con 
: 465 1 13 i 
: 468 4 13 tuo
: 473 2 13 i, 
- 476
: 478 1 11 E 
: 480 2 11 qui 
: 484 4 20 non 
: 490 2 20 e
: 493 2 20 sis
: 497 4 20 to 
: 503 2 18 no 
: 507 4 13 fron
: 512 3 13 tie
: 517 1 13 re, 
- 519
: 519 2 13 La a
: 522 3 15 mor 
: 527 3 15 non 
: 532 2 13 ha 
: 537 3 15 bar
: 541 5 16 rie
: 546 4 15 - 
: 551 2 16 re, 
- 555
: 561 3 20 In 
: 566 3 20 cit
* 571 3 20 ta 
: 576 3 20 o 
: 580 3 18 in 
: 586 3 13 cam
: 590 3 13 pag
: 594 1 13 na, 
- 596
: 596 2 13 Lo 
: 600 2 15 stes
: 604 1 15 so 
: 605 1 15 in 
: 610 4 16 Spa
: 615 2 15 g
: 619 2 13 na, 
- 623
: 639 3 13 Por 
: 644 3 13 to
: 648 8 13 do 
: 658 2 15 el 
: 663 3 15 mun
: 668 4 15 do, 
- 676
: 676 2 16 "Te 
: 681 4 16 quie
: 686 4 16 ro" 
: 692 2 18 es 
: 695 3 13 lo 
: 700 2 13 mis
: 704 4 13 mo, 
- 710
: 714 3 13 Ca
: 718 3 13 da 
: 723 4 13 di
: 727 2 13 a y 
: 732 4 15 ca
: 736 3 15 da 
: 741 6 15 no
: 747 2 15 che
- 750
: 751 3 16 So
: 755 3 16 lo 
: 760 4 16 t
: 764 2 18 u 
: 767 1 18 me 
: 769 3 13 das 
: 774 4 13 a
: 778 1 13 mor, 
- 783
: 783 3 13 A
: 788 2 16 qui es 
: 792 2 20 mi 
: 797 6 20 sol 
: 807 2 18 te 
: 811 2 13 lo 
: 816 3 13 doy, 
- 821
: 825 3 15 To
: 830 2 15 do 
: 834 2 13 lo 
: 838 3 15 que 
* 844 7 16 soy, 
- 853
: 862 2 20 Si 
: 866 4 20 te 
: 871 4 20 vas, 
: 878 1 20 te 
: 880 2 18 bus
: 885 5 13 ca
: 890 4 13 re 
: 899 3 15 en 
: 904 2 15 Rus
: 908 4 16 si
: 913 2 15 a 
: 918 4 13 se, 
- 924
: 937 3 13 Gde 
: 941 2 13 to 
: 945 5 13 tam, 
: 954 2 15 kto 
: 958 2 15 to 
: 962 6 15 tam, 
- 972
: 972 3 16 Mie
: 976 2 16 nia 
: 980 3 16 liu
: 984 3 18 bi 
: 989 2 16 ne
: 993 3 13 za
: 998 3 13 bud, 
- 1003
: 1007 3 13 Ska
: 1011 3 13 zi 
: 1016 4 13 da 
: 1022 2 13 liu
: 1025 2 15 bi
: 1029 3 15 ma
: 1033 2 15 ja, 
- 1037
: 1043 3 16 Liu
: 1047 3 16 bi, 
: 1052 3 16 liu
: 1056 2 18 bi 
: 1059 3 16 ti 
: 1064 3 13 me
: 1068 3 13 nia, 
- 1073
: 1078 5 20 Gde 
: 1085 1 20 bi 
: 1087 2 20 ti 
: 1091 3 20 ne
: 1095 3 18 na
: 1100 3 13 ha
: 1104 3 13 di
: 1108 3 13 las, 
- 1112
: 1113 3 15 Gde 
: 1118 2 15 ne
: 1122 3 13 po
: 1127 2 15 bi
: 1131 4 16 va
: 1135 3 15 - 
: 1139 2 16 la, 
- 1143
: 1149 5 20 Bu
: 1155 1 20 du 
: 1158 2 20 zdat 
: 1162 3 20 liu
: 1166 2 20 bi
: 1170 4 13 ma
: 1175 2 13 ja, 
- 1178
: 1180 3 13 Se
: 1184 4 15 vod
: 1189 2 15 nia 
* 1193 3 16 i 
: 1198 2 18 vseg
: 1202 4 20 da, 
- 1208
: 1491 3 13 Made
: 1495 3 13 moi
: 1499 4 13 selle, 
: 1505 1 8 par
: 1507 3 15 tout 
: 1512 2 15 au 
: 1516 4 15 monde, 
- 1524
: 1524 2 16 Un 
: 1528 2 16 "Je 
: 1532 3 16 t'aime" 
: 1538 1 18 c'est 
: 1540 2 16 la 
: 1544 3 13 meme 
: 1548 4 13 chose, 
- 1556
: 1556 3 13 Cha
: 1560 2 13 que 
: 1564 4 13 jour, 
: 1572 3 15 chaque 
: 1576 4 15 nu
: 1580 3 15 it, 
- 1585
: 1589 2 16 Toi, 
: 1593 2 16 tu 
: 1596 3 16 reste 
: 1601 2 18 ma 
: 1604 2 16 se
: 1608 3 13 ule 
: 1613 5 13 rose, 
- 1622
: 1622 2 20 Par 
: 1625 2 20 mon 
: 1629 4 20 coeur, 
: 1637 2 18 par 
: 1641 2 13 mon 
: 1645 3 13 ame, 
- 1650
: 1654 2 15 Ma 
: 1657 2 15 vie, 
: 1662 2 16 ma 
: 1666 3 15 che
: 1670 6 16 rie, 
- 1678
: 1686 3 20 Ap
: 1690 3 20 pelle 
: 1694 3 20 moi, 
: 1699 1 20 ou 
: 1702 2 18 que 
: 1706 2 13 tu 
: 1710 4 13 sois 
- 1716
F 1719 2 15 Meme 
F 1722 3 15 en 
F 1726 4 17 Ro
F 1730 4 17 ma
F 1734 5 17 nie, 
- 1741
: 1750 3 13 Un
: 1754 3 13 de
* 1758 6 13 va 
: 1766 3 15 ci
: 1770 3 15 ne
: 1774 4 15 va, 
- 1782
: 1782 2 16 Te 
: 1786 3 16 iu
: 1790 2 16 bes
: 1795 1 18 te, 
: 1798 3 16 nu u
: 1802 2 13 i
: 1805 3 13 ta, 
- 1810
: 1814 2 13 Spu
: 1817 2 13 ne 
: 1821 3 13 da, 
: 1826 2 13 iu
: 1829 2 15 bi
: 1832 3 15 ta 
: 1836 2 15 mea, 
- 1840
: 1845 2 16 Stii 
: 1848 2 16 cum 
: 1852 2 16 e 
: 1856 2 18 cu 
: 1860 3 16 dra
: 1864 3 13 gos
: 1868 2 13 tea, 
- 1874
: 1874 1 13 O
: 1876 2 20 riun
: 1879 3 20 de ai 
: 1884 2 20 fi, 
: 1888 2 20 ori
: 1891 2 18 cat 
: 1895 2 13 ai 
: 1898 3 13 sta, 
- 1903
: 1907 2 15 Te 
: 1910 2 15 voi 
: 1914 2 13 as
: 1918 2 15 tep
: 1921 4 16 ta, 
- 1927
: 1936 3 18 I
: 1940 2 20 ni
: 1943 5 20 ma ini 
: 1951 2 18 spu
: 1954 2 13 ne 
: 1958 3 13 ea, 
: 1964 1 13 a
: 1966 3 15 i
: 1970 1 15 ci 
: 1973 2 16 ca
: 1977 2 15 sa 
: 1980 4 13 ta, 
- 1986
: 1996 3 13 E
: 1999 3 13 very
* 2003 4 13 where 
: 2009 1 8 a
: 2011 2 15 round 
: 2014 2 15 the 
: 2018 3 15 world 
- 2025
: 2025 2 16 "Io 
: 2028 2 16 ti 
: 2032 2 16 a
: 2036 2 18 mo" 
: 2040 2 16 sepre 
: 2043 2 13 u
: 2046 4 13 gua
: 2050 2 13 le, 
- 2053
: 2054 3 13 Ca
: 2058 2 13 da 
: 2061 3 13 di
: 2064 2 13 a y 
: 2069 2 15 ca
: 2072 2 15 da 
: 2075 3 15 no
: 2079 3 15 che, 
- 2083
: 2083 2 16 Liu
: 2086 2 15 bi, 
: 2090 2 16 liu
: 2093 2 18 bi 
: 2097 1 16 ti 
: 2100 3 13 me
: 2104 4 13 nia, 
- 2109
: 2111 2 20 Par 
: 2114 2 20 mon 
: 2118 4 20 coeur, 
: 2125 2 18 par 
: 2129 2 13 mon 
: 2133 3 13 ame, 
- 2140
: 2140 2 15 Ma 
: 2143 2 15 vie, 
: 2147 2 13 ma 
: 2150 3 15 che
: 2154 3 16 ri, 
- 2159
: 2167 3 18 I
: 2171 2 20 ni
: 2174 4 20 ma ini 
: 2181 2 18 spu
: 2184 2 13 ne 
: 2187 5 13 ea, 
: 2194 1 13 a
: 2196 2 15 i
: 2199 1 15 ci 
: 2202 2 16 ca
: 2205 2 15 sa 
: 2208 4 13 ta, 
- 2214
: 2240 3 13 E
: 2243 1 13 very
* 2245 2 13 where 
: 2248 1 8 a
: 2250 2 15 round 
: 2253 1 15 the 
: 2255 3 15 world 
- 2259
: 2261 1 18 "Io 
: 2263 1 16 ti 
: 2266 1 16 a
: 2268 1 18 mo" 
: 2271 1 16 sepre 
: 2273 2 13 u
: 2275 4 13 gua
: 2279 1 13 le, 
- 2280
: 2280 3 13 Ca
: 2283 2 13 da 
: 2286 1 13 di
: 2288 1 13 a y 
: 2291 2 15 ca
: 2293 2 15 da 
: 2296 2 15 no
: 2299 3 15 che, 
- 2302
: 2302 2 16 Liu
: 2304 2 16 bi, 
: 2307 2 16 liu
: 2309 2 18 bi 
: 2312 1 16 ti 
: 2315 2 13 me
: 2317 3 13 nia, 
- 2321
: 2322 1 20 Par 
: 2324 2 20 mon 
: 2327 3 20 coeur, 
: 2332 2 18 par 
: 2335 1 16 mon 
: 2337 3 13 ame, 
- 2341
: 2342 2 15 Ma 
: 2345 1 15 vie, 
: 2347 1 16 ma 
: 2350 2 15 che
: 2353 3 16 ri, 
- 2358
: 2363 2 18 I
: 2366 2 20 ni
: 2368 3 20 ma ini 
: 2374 1 18 spu
: 2376 2 13 ne 
: 2379 1 13 ea, 
: 2381 1 13 a
: 2383 3 15 i
: 2386 1 15 ci 
: 2389 1 16 ca
: 2391 1 15 sa 
: 2394 2 13 ta, 
E
