#TITLE:Baby can i hold
#ARTIST:Tracy Chapman
#MP3:Tracy Chapman - Baby can i hold.mp3
#COVER:Tracy Chapman - Baby can i hold [CO].jpg
#BACKGROUND:Tracy Chapman - Baby can i hold [BG].jpg
#BPM:360
#GAP:14800
#ENCODING:UTF8
: 0 13 36 So
: 13 13 43 rry
: 79 7 31  Is
: 86 18 38  all
: 104 14 31  that
: 118 22 43  you
: 142 18 36  can't
: 160 28 43  say
- 190
: 240 22 31 Years
: 263 16 38  gone
: 280 20 29  by
: 301 16 31  and
: 317 27 38  still
- 346
: 396 22 43 Words
: 419 19 40  don't
: 438 19 38  come
: 457 8 31  ea
: 465 8 36 si
: 473 19 38 ly
- 494
: 544 9 36 Like
: 554 11 36  so
: 565 10 36 rry,
: 584 8 31  like
: 592 11 31  so
: 603 21 31 rry
- 626
: 742 8 36 For
: 750 7 38 give
: 760 14 38  me
- 776
: 824 6 38 Is
: 832 16 26  all
: 850 16 31  that
: 868 16 38  you
: 888 18 43  can't
: 908 24 36  say
- 934
: 984 22 36 Years
: 1006 18 36  gone
: 1024 20 31  by
: 1046 12 31  and
: 1064 30 31  still
- 1096
: 1140 22 36 Words
: 1162 20 38  don't
: 1183 17 38  come
: 1201 6 38  ea
: 1207 8 29 si
: 1215 25 31 ly
- 1242
: 1286 6 38 Like
: 1292 4 43  for
: 1296 4 45 gi
: 1300 4 48 ve
: 1304 20 43  me
: 1328 5 40  For
: 1333 5 38 gi
: 1338 5 36 ve
: 1343 21 31  me
- 1366
: 1464 4 36 But
: 1468 5 36  you
: 1473 4 38  can
: 1477 10 40  say
: 1488 10 41  Ba
: 1498 22 29 by
- 1522
: 1566 8 31 Ba
: 1574 8 36 by
: 1586 8 31  can
: 1594 8 36  I
: 1604 20 36  hold
: 1626 12 38  you
: 1638 3 40  to
: 1641 24 41 night
- 1667
: 1720 8 29 May
: 1728 10 29 be
: 1739 3 31  if
: 1743 10 33  I
: 1754 22 31  told
: 1777 10 33  you
: 1788 4 33  the
: 1793 4 31  ri
: 1797 3 31 ght
: 1800 16 38  wor
: 1816 4 31 ds
- 1822
: 1856 8 43 At
: 1864 4 43  the
: 1868 5 38  ri
: 1873 5 31 ght
: 1878 10 43  ti
: 1888 10 40 me
: 1928 7 38  you'd
: 1935 4 36  be
: 1939 25 31  mine
- 1966
: 2096 8 36 I
: 2104 10 31  love
: 2114 22 36  you
- 2138
: 2176 6 38 Is
: 2184 12 38  all
: 2199 16 40  that
: 2216 22 41  you
: 2239 18 31  can't
: 2258 20 36  say
- 2280
: 2338 10 36 Ye
: 2348 7 31 ars
: 2356 20 36  gone
: 2377 15 36  by
: 2393 18 43  and
: 2412 16 43  still
- 2430
: 2496 8 38 Wor
: 2504 9 43 ds
: 2514 19 43  don't
: 2534 18 38  come
: 2552 8 43  ea
: 2560 8 38 si
: 2568 20 31 ly
- 2590
: 2640 4 38 Like
: 2644 4 38  I
: 2648 10 36  love
: 2658 14 40  you,
: 2676 8 38  I
: 2684 12 31  love
: 2696 14 31  you
- 2712
: 2815 5 38 But
: 2820 6 31  you
: 2826 4 31  can
: 2830 10 38  say
: 2840 10 43  ba
: 2850 12 38 by
- 2864
: 2918 8 31 Ba
: 2926 11 36 by
: 2938 9 36  can
: 2947 8 31  I
: 2955 20 36  hold
: 2975 13 36  you
: 2988 5 43  to
: 2993 23 43 night
- 3018
: 3072 8 38 May
: 3080 8 43 be
: 3089 6 43  if
: 3096 10 38  I
: 3107 21 43  told
: 3128 12 38  you
: 3140 4 31  the
: 3144 8 38  right
: 3153 10 38  wor
: 3163 5 36 ds
- 3170
: 3209 5 40 At
: 3214 4 38  the
: 3219 10 38  right
: 3229 19 40  time
: 3277 8 41  you'd
: 3286 4 31  be
: 3291 21 31  mine
- 3314
: 3374 11 31 Ba
: 3385 10 31 by
: 3396 8 31  can
: 3404 10 38  I
: 3414 20 43  hold
: 3435 13 43  you
: 3448 4 43  to
: 3452 24 38 night
- 3478
: 3528 11 43 May
: 3539 9 36 be
: 3548 5 31  if
: 3553 14 36  I
: 3567 17 36  told
: 3584 14 38  you
: 3598 6 40  the
: 3604 7 41  right
: 3611 11 29  wor
: 3622 6 31 ds
- 3630
: 3668 4 36 At
: 3672 4 31  the
: 3676 5 36  ri
: 3681 4 36 ght
: 3685 9 38  ti
: 3694 7 40 me
: 3739 7 41  you'd
: 3746 4 29  be
: 3750 22 29  mine
- 3774
: 3892 8 31 You'd
: 3900 4 33  be
: 3904 36 31  mine
- 3942
: 4045 11 33 You'd
: 4056 4 33  be
: 4060 40 31  mine
E