#TITLE:Honky Tonk Badonkadonk
#ARTIST:Trace Adkins
#LANGUAGE:English
#EDITION:SingStar Country
#GENRE:Country
#YEAR:2005
#MP3:Trace Adkins - Honky Tonk Badonkadonk.mp3
#COVER:Trace Adkins - Honky Tonk Badonkadonk [CO].jpg
#BACKGROUND:Trace Adkins - Honky Tonk Badonkadonk [BG].jpg
#BPM:248
#GAP:10645,16
F 0 2 79 Turn
F 2 1 79  it
F 4 2 79  up
F 8 2 79  son
- 12 40
F 60 4 79 Alright
F 65 3 79  boys
- 70 71
F 95 1 79 This
F 97 2 79  is
F 100 2 79  her
F 103 5 79  favorite
F 109 2 79  song
- 112
F 113 2 79 You
F 116 2 79  know
F 119 2 79  that
F 122 3 79  right?
- 127 128
F 146 2 79 So
F 150 1 79  we
F 152 1 79  play
F 154 1 79  it
F 158 1 79  good
F 160 1 79  and
F 162 5 79  loud
- 169
F 176 1 79 She
F 178 2 79  might
F 181 1 79  get
F 183 1 79  up
F 185 1 79  and
F 187 2 79  dance
F 191 3 79  again
- 196 208
F 228 6 79 Aw
F 236 1 79  she
F 238 1 79  put
F 240 1 79  her
F 242 2 79  beer
F 245 2 79  down
- 249 250
F 261 1 79 Here
F 263 3 79  she
F 267 2 79  comes,
F 271 1 79  here
F 273 1 79  she
F 275 2 79  comes
- 279 280
: 298 6 52 Left,
: 315 6 52  left
- 323 324
: 332 6 55 Left
: 341 6 55  right
: 350 5 52  left
- 357
: 359 4 50 Hust
: 363 2 52 lers
: 367 4 52  shoot
: 371 2 47 in'
: 375 6 50  eight
: 383 4 52 ball
- 389
: 391 4 50 Throw
: 395 2 52 in'
: 399 4 52  darts
: 403 3 47 ~
: 407 3 50 at
: 411 3 47  the
: 415 4 45  wall
: 419 3 43 ~
- 423
: 423 4 50 Feel
: 427 2 52 in'
: 431 3 52  damn
: 435 3 47  near
: 439 3 50  ten
: 443 3 52  feet
* 447 5 52  tall
- 453
: 455 3 50 Here
: 459 1 52  she
: 461 3 52  comes
: 467 3 55  Lord
: 471 3 55  help
: 475 3 52  us
: 479 4 55  all
- 485
: 487 3 54 Old
: 491 3 54  T
: 495 3 54  W's
: 499 3 52 ~
: 503 5 54  girl
: 511 3 54 friend
- 515
: 515 3 52 Done
: 519 3 55  slapped
: 523 3 55  him
: 527 3 55  out
: 531 3 52  his
: 535 5 55  chair
- 542
: 547 6 57 Poor
: 555 3 57  ol'
: 559 3 57  boy
: 563 2 59  it
: 565 2 57  ain't
: 569 4 55  his
: 575 3 52  fault
- 579
: 579 3 45 It's
: 583 3 59  so
: 587 3 60  hard
: 591 3 60  not
: 595 3 57  to
* 599 4 62  stare
- 605
: 607 3 55 At
: 611 3 52  that
: 615 3 55  hon
: 619 3 52 ky
: 623 16 55  tonk
: 639 3 50 ~
- 643
: 643 3 50 Ba
: 647 3 52 donk
: 651 3 52 a
: 655 4 43 donk
- 661 662
: 679 4 55 Keep
: 683 3 52 in'
: 687 4 55  per
: 691 3 52 fect
: 695 4 55  rhy
: 699 3 49 thm
- 703
: 703 3 52 Make
: 707 3 50  you
: 711 4 52  wan
: 715 2 50 na
: 719 3 52  swing
: 723 4 50  a
: 727 5 54 long
- 733
: 735 3 50 Got
: 739 3 52  it
: 743 4 55  go
: 747 3 52 in'
: 751 16 55  on
: 767 3 50 ~
- 771
: 771 3 50 Like
: 775 3 52  Don
: 779 3 52 key
: 783 4 47  Kong
- 789 790
: 803 3 52 And
: 807 8 71  ooh
: 815 4 67  wee
- 821
F 823 2 79 Shut
F 827 2 79  my
F 831 4 79  mouth
- 837
: 839 2 55 Slap
: 843 2 55  your
: 847 4 55  grand
: 851 4 50 ~
: 855 5 52 ma
- 862
: 867 4 52 There
: 871 2 54  ought
: 875 2 54 ta
: 879 2 54  be
: 883 3 52  a
: 887 7 54  law
- 895
: 895 3 54 Get
: 899 3 52  the
: 903 3 55  she
: 907 3 55 riff
: 911 3 55  on
: 915 3 52  the
: 919 4 55  phone
- 925
: 931 6 57 Lord
: 939 3 57  have
: 943 3 52  mer
: 947 3 45 cy
- 951
: 951 3 57 How'd
: 955 3 57  she
: 959 3 57  e
: 963 3 57 ven
: 967 3 60  get
: 971 3 57  them
: 975 3 60  britch
: 979 3 60 es
: 983 4 62  on
- 989
: 995 3 52 That
: 999 3 55  hon
: 1003 3 52 ky
* 1007 16 55  tonk
: 1023 3 50 ~
- 1027
: 1027 3 50 Ba
: 1031 3 52 donk
: 1035 3 52 a
: 1039 4 43 donk
- 1045 1046
F 1059 8 79 Woo
- 1069 1070
F 1083 4 79 Aw
F 1091 4 79  son
- 1097 1098
: 1123 3 47 Now
: 1127 2 50  ho
: 1129 4 52 ney
: 1135 3 52  you
: 1139 3 47  can't
: 1143 6 50  blame
: 1151 2 52  her
- 1154
: 1155 3 47 For
: 1159 3 50  what
: 1163 3 52  her
: 1167 4 52  ma
: 1171 3 47 ma
* 1175 6 50  gave
: 1183 2 47  her
: 1185 2 45 ~
: 1187 3 43 ~
- 1191
: 1191 2 50 It
: 1193 4 52  ain't
: 1199 3 52  right
: 1203 3 47  to
: 1207 7 50  hate
: 1215 3 52  her
- 1219
: 1219 3 47 For
: 1223 4 50  work
: 1227 3 52 in'
: 1231 3 52  that
- 1236
F 1239 6 79 Money
F 1247 6 79  maker
- 1254
: 1255 3 54 Band
: 1259 3 54  shuts
: 1263 3 54  down
: 1267 3 52  at
: 1271 6 54  two
- 1278
: 1279 3 54 But
: 1283 3 52  we're
: 1287 3 55  hang
: 1291 3 55 in'
: 1295 3 55  out
: 1299 3 52  'til
: 1303 6 55  three
- 1311
: 1315 3 45 We
: 1319 3 57  hate
: 1323 3 57  to
: 1327 3 57  see
: 1331 3 55  her
* 1335 6 57  go
- 1342
: 1343 2 57 But
: 1347 4 60  love
: 1351 3 57 ~
: 1355 3 57  to
: 1359 3 60  watch
: 1363 3 57  her
: 1367 6 62  leave
- 1374
: 1375 3 55 With
: 1379 3 52  that
: 1383 3 55  hon
: 1387 3 52 ky
: 1391 16 55  tonk
: 1407 3 50 ~
- 1411
: 1411 3 50 Ba
: 1415 3 52 donk
: 1419 3 52 a
: 1423 4 43 donk
- 1429 1430
: 1443 2 43 Ah
: 1447 4 55  keep
: 1451 3 52 in'
: 1455 4 55  per
: 1459 3 52 fect
: 1463 4 54  rhy
: 1467 3 49 thm
- 1471
: 1471 3 52 Make
: 1475 3 50  you
: 1479 4 52  wan
: 1483 2 50 na
: 1487 3 52  swing
: 1491 4 50  a
: 1495 5 54 long
- 1501
: 1503 3 50 Got
: 1507 3 52  it
: 1511 4 55  go
: 1515 3 52 in'
: 1519 16 55  on
: 1535 3 50 ~
- 1539
: 1539 3 50 Like
: 1543 3 52  Don
: 1547 3 52 key
: 1551 4 47  Kong
- 1557 1558
: 1571 3 52 And
: 1575 8 71  ooh
: 1583 4 67  wee
- 1589
F 1591 2 79 Shut
F 1595 2 79  my
F 1599 4 79  mouth
- 1605
: 1607 2 55 Slap
: 1611 2 55  your
: 1615 4 55  grand
: 1619 4 50 ~
: 1623 5 52 ma
- 1630
: 1635 4 52 There
: 1639 2 54  out
: 1643 2 54 ta
: 1647 2 54  be
: 1651 3 52  a
: 1655 7 54  law
- 1663
: 1663 3 54 Get
: 1667 3 52  the
: 1671 3 55  she
: 1675 3 55 riff
: 1679 3 55  on
: 1683 3 52  the
: 1687 4 55  phone
- 1693
: 1699 6 57 Lord
: 1707 3 57  have
: 1711 3 52  mer
: 1715 3 45 cy
- 1719
: 1719 3 57 How'd
: 1723 3 57  she
: 1727 3 57  e
: 1731 3 57 ven
: 1735 3 60  get
: 1739 3 57  them
: 1743 3 60  britch
: 1747 3 60 es
: 1751 4 62  on
- 1757
: 1759 3 55 With
: 1763 3 52  that
: 1767 3 55  hon
: 1771 3 52 ky
: 1775 16 55  tonk
: 1791 3 50 ~
- 1795
: 1795 3 50 Ba
: 1799 3 52 donk
: 1803 3 52 a
: 1807 4 43 donk
- 1813 1829
F 1849 14 79 Aw
F 1865 2 79  that's
F 1868 1 79  what
F 1870 1 79  I'm
F 1873 2 79  talking
F 1876 3 79  about
- 1880
F 1881 2 79 Right
F 1885 2 79  there
F 1889 3 79  honey
- 1894 1932
F 1952 2 79 Ha
F 1956 2 79  ha
- 1960 1961
F 1979 8 79 Woo
- 1989 1990
F 1999 1 79 This
F 2001 2 79  is
F 2004 2 79  her
F 2007 4 79  favorite
F 2013 3 79  song
- 2017
F 2017 1 79 You
F 2019 1 79  know
F 2021 2 79  that
F 2025 2 79  right?
- 2029 2030
F 2057 1 79 You
F 2059 1 79  know
F 2061 2 79  that
F 2065 2 79  right?
- 2069
F 2071 5 79 Money
F 2079 5 79  maker
- 2086 2100
F 2120 2 79 You
F 2123 2 79  know
F 2126 2 79  that
F 2129 2 79  right?
- 2133 2134
F 2149 5 79 Aw
F 2159 3 79  son
- 2164 2165
F 2183 2 79 Ha
F 2187 2 79  ha
- 2191 2192
: 2207 3 57 We
: 2211 3 57  don't
: 2215 3 57  care
: 2219 3 57  a
: 2223 3 57 bout
: 2227 3 57  the
: 2231 3 55  drink
: 2235 3 52 in'
- 2239
: 2239 4 57 Bare
: 2243 3 55 ly
: 2247 4 57  lis
: 2251 3 55 ten
: 2255 3 57  to
: 2259 3 55  the
: 2263 5 59  band
- 2269
: 2271 3 59 Our
* 2275 4 59  hands
: 2279 3 52 ~
: 2283 3 52  they
: 2287 3 55  start
: 2291 3 52  a
: 2295 3 55  sha
: 2299 3 50 kin'
- 2303
: 2303 3 52 When
: 2307 3 49  she
: 2311 3 52  gets
: 2315 3 49  the
: 2319 3 52  urge
: 2323 3 52  to
: 2327 4 47  dance
- 2333
: 2335 3 52 Dri
: 2339 3 52 vin'
: 2343 4 54  e
: 2347 4 52 very
: 2351 4 54 bo
: 2355 3 52 dy
: 2359 4 54  cra
: 2363 3 47 zy
- 2368
: 2371 3 54 You
: 2375 3 55  think
: 2379 3 52  you
: 2383 3 55  fell
: 2387 3 52  in
* 2391 4 55  love
: 2395 3 52 ~
- 2399
: 2399 3 55 Boys
: 2403 3 55  you
: 2407 4 57  bet
: 2411 3 55 ter
: 2415 3 57  keep
: 2419 3 55  your
: 2423 4 57  dis
: 2427 3 55 tance
- 2431
: 2431 3 57 You
: 2435 3 57  can
: 2439 3 60  look
: 2443 2 57  but
: 2445 2 60  you
: 2449 4 60  can't
: 2455 3 62  touch
- 2460
: 2467 3 52 That
: 2471 3 55  hon
: 2475 3 52 ky
: 2479 16 55  tonk
: 2495 3 50 ~
- 2499
: 2499 3 50 Ba
: 2503 3 52 donk
: 2507 3 52 a
: 2511 4 43 donk
- 2517 2518
: 2531 3 43 Ah
: 2535 4 55  keep
: 2539 3 52 in'
: 2543 4 55  per
: 2547 3 52 fect
: 2551 4 55  rhy
: 2555 3 49 thm
- 2559
: 2559 3 52 Make
: 2563 3 50  you
: 2567 4 52  wan
: 2571 2 50 na
: 2575 3 52  swing
: 2579 4 50  a
: 2583 5 54 long
- 2589
: 2591 3 50 Got
: 2595 3 52  it
: 2599 4 55  go
: 2603 3 52 in'
: 2607 8 55  on
* 2615 11 57 ~
- 2627
: 2627 3 55 Like
: 2631 4 57  Don
: 2635 2 55 key
: 2639 2 59  Kong
: 2641 2 57 ~
: 2643 2 55 ~
: 2645 3 52 ~
- 2650 2651
: 2659 3 52 And
: 2663 8 71  ooh
: 2671 4 67  wee
- 2677
F 2679 3 79 Shut
F 2684 3 79  my
F 2689 4 79  mouth
- 2694
F 2696 3 79 Slap
F 2701 3 79  your
F 2707 7 79  grandma
- 2716
: 2723 4 52 There
: 2727 2 54  ought
: 2731 2 54 ta
: 2735 2 54  be
: 2739 3 52  a
: 2743 7 54  law
- 2751
: 2751 3 54 Get
: 2755 3 52  the
: 2759 3 55  she
: 2763 3 55 riff
: 2767 3 55  on
: 2771 3 52  the
: 2775 4 55  phone
- 2781
* 2787 6 57 Lord
: 2795 3 57  have
: 2799 3 52  mer
: 2803 3 45 cy
- 2807
: 2807 3 57 How'd
: 2811 3 57  she
: 2815 3 57  e
: 2819 3 55 ven
: 2823 3 60  get
: 2827 3 57  them
: 2831 3 60  britch
: 2835 3 60 es
: 2839 7 62  on
- 2847
: 2847 3 52 With
: 2851 3 52  that
: 2855 7 55  hon
: 2863 3 52 ky
: 2868 13 55  tonk
: 2881 3 50 ~
- 2885
: 2885 3 50 Ba
: 2889 8 52 donk
: 2898 3 50 a
: 2902 5 52 donk
: 2907 6 55 ~
- 2915 2931
F 2951 4 79 Ha
- 2957 2958
: 2971 12 59 Yeah
: 2984 5 59  that
: 2993 5 62  hon
: 3001 3 62 ky
: 3006 2 59  tonk
: 3008 2 57 ~
: 3010 9 55 ~
- 3021
: 3023 3 52 Ba
: 3027 6 50 donk
: 3035 3 50 a
: 3040 4 45 donk
: 3044 9 43 ~
* 3053 27 52 ~
: 3080 2 47 ~
: 3082 2 45 ~
- 3086 3101
: 3121 7 52 That
: 3131 6 55  hon
: 3139 3 52 ky
: 3144 14 55  tonk
: 3161 3 50  ba
: 3165 6 52 donk
: 3174 3 50 a
: 3178 18 52 donk
: 3196 6 55 ~
- 3204 3249
: 3269 6 55 Hon
: 3277 3 52 ky
: 3282 14 55  tonk
- 3297
: 3299 3 50 Ba
: 3303 6 52 donk
: 3312 3 50 a
: 3316 16 52 donk
E
