#TITLE:You're Gonna Miss This
#ARTIST:Trace Adkins
#MP3:Trace Adkins - You're Gonna Miss This.mp3
#COVER:Trace Adkins - You're Gonna Miss This [CO].jpg
#BACKGROUND:Trace Adkins - You're Gonna Miss This [BG].jpg
#BPM:155
#GAP:12774,19
#ENCODING:UTF8
#LANGUAGE:English
#GENRE:Country
#EDITION:SingStar Country
#YEAR:2007
: 0 3 48 She
: 3 3 51  was
: 6 4 53  star
: 10 1 51 in'
: 12 3 51  out
: 16 1 51  the
: 18 3 51  win
: 21 2 48 dow
- 25
: 32 1 44 Of
: 34 3 44  their
: 42 3 53  S
: 46 3 53  U
: 50 7 51  V
- 59
: 66 2 44 Com
: 70 4 53 plain
: 74 1 51 in'
- 76
: 76 4 51 Say
: 81 3 51 in'
: 84 4 53  I
: 88 4 48  can't
: 94 2 46  wait
- 97
: 98 2 44 To
: 100 4 48  turn
* 104 2 46  eight
: 107 3 46 teen
: 110 2 48 ~
- 114
: 128 1 44 She
: 130 2 44  said
: 134 4 44  I'll
: 138 3 53  make
: 142 4 53  my
: 146 2 51  own
: 149 2 51  mon
: 151 4 48 ey
- 157
: 162 1 44 And
: 164 2 44  I'll
: 166 3 53  make
: 170 3 53  my
: 174 2 51  own
: 178 7 51  rules
- 187
: 193 2 48 Mom
: 195 2 51 ma
: 198 2 53  put
: 201 2 53  the
: 204 3 51  car
: 209 3 51  in
: 213 4 51  park
: 217 4 48  out
: 222 3 46  there
- 226
: 226 3 44 In
: 229 2 48  front
: 231 1 46  of
: 233 1 46  the
* 235 14 46  school
- 251
: 256 1 44 And
: 258 2 44  she
: 260 2 46  kissed
: 262 2 44  her
: 264 9 44  head
- 275
: 284 2 46 And
: 286 1 48  said
: 288 1 48  I
: 290 1 48  was
: 292 4 48  just
: 296 3 46  like
: 300 6 49  you
- 308
: 318 2 60 You're
: 320 2 58  gon
: 322 1 56 na
: 324 4 56  miss
: 328 12 51  this
- 342
: 350 2 60 You're
: 352 2 58  gon
: 354 4 56 na
: 358 6 58  want
: 366 4 58  this
* 370 8 51  back
- 380
: 382 2 51 You're
: 384 2 53  gon
: 386 2 55 na
: 388 3 56  wish
: 392 3 49  these
: 396 2 49  days
: 398 2 48 ~
: 400 11 49 ~
- 412
: 414 1 60 Had
: 415 2 58 n't
: 418 2 58  gone
: 420 2 56 ~
: 422 5 58  by
: 428 5 58  so
: 434 4 61  fast
: 438 5 60 ~
- 444
: 446 2 60 These
: 448 2 58  are
: 450 2 56  some
: 453 3 56  good
: 456 11 51  times
- 469
: 476 2 51 So
: 478 2 60  take
: 480 1 58  a
: 482 2 58  good
: 484 2 56  a
: 486 5 58  look
: 492 5 58  a
: 497 5 61 round
: 502 11 60 ~
- 514
: 514 4 55 You
: 518 6 56  may
: 524 5 58  not
: 529 9 55  know
: 538 6 56  it
: 545 3 51  now
: 548 2 49 ~
: 550 14 51 ~
- 566
: 572 2 48 But
: 574 1 51  you're
: 576 1 51  gon
: 578 1 51 na
: 580 3 51  miss
: 584 9 44  this
- 595
: 652 2 44 Be
: 654 3 51 fore
: 658 1 51  she
: 660 4 51  knows
: 664 2 48  it
- 668
: 673 2 44 She's
: 676 2 44  a
: 682 3 53  brand
: 686 4 53  new
: 690 7 48  bride
- 699
: 706 2 48 In
: 708 2 51  her
* 710 4 53  one
: 714 2 51  bed
: 718 3 51 room
: 722 1 51  a
: 724 5 51 part
: 729 5 48 ment
- 735
: 736 2 44 And
: 738 1 44  her
: 740 2 48  dad
: 742 1 46 dy
: 744 3 46  stops
: 748 2 46  by
: 750 4 48 ~
- 756
: 772 2 44 He
: 774 3 53  tells
: 777 2 51  her
: 780 4 51  its
: 784 2 48  a
: 786 5 51  nice
: 791 5 48  place
- 798
: 800 2 44 She
: 803 2 44  says
: 810 2 53  it
: 812 1 51 'll
: 814 3 51  do
: 818 2 44  for
: 820 6 48  now
- 828
: 834 4 51 Starts
: 838 3 53  talk
: 841 3 51 in'
: 845 2 51  a
: 848 3 51 bout
: 852 4 51  bab
: 856 6 48 ies
- 864
: 868 2 44 And
: 870 3 48  buy
: 873 1 48 in'
: 874 1 46  a
: 876 3 46  house
: 879 4 48 ~
- 885
: 896 2 44 And
: 898 2 44  dad
: 900 2 44 dy
: 902 3 46  shakes
* 906 2 41  his
: 908 5 44  head
- 915
: 924 1 48 And
: 926 2 48  says
: 930 1 48  ba
: 932 1 48 by
: 934 2 48  just
: 938 2 46  slow
: 940 10 49  down
- 952
: 956 2 51 'Cause
: 958 2 60  you're
: 960 2 58  gon
: 962 1 56 na
: 964 5 56  miss
: 969 16 51  this
- 987
: 990 2 60 You're
: 992 2 58  gon
: 994 4 56 na
: 998 5 58  want
: 1004 4 58  this
: 1010 2 55  back
: 1012 6 51 ~
- 1020
: 1022 2 51 You're
: 1024 2 53  gon
: 1026 2 55 na
: 1028 3 56  wish
: 1032 2 49  these
: 1036 4 48  days
: 1040 8 49 ~
- 1050
: 1054 1 60 Had
: 1055 2 58 n't
: 1058 4 56  gone
: 1062 5 58  by
: 1069 5 58  so
: 1074 5 61  fast
: 1079 4 60 ~
- 1084
: 1086 2 60 These
: 1088 2 58  are
: 1090 1 56  some
: 1092 3 56  good
: 1096 10 51  times
- 1108
: 1116 2 51 So
: 1118 2 60  take
: 1120 1 58  a
: 1122 2 58  good
: 1124 2 56  a
: 1126 3 58  look
: 1132 4 58  a
: 1137 5 61 round
: 1142 4 60 ~
: 1146 5 55 ~
- 1152
: 1154 3 55 You
: 1157 8 56  may
: 1165 5 58  not
: 1170 10 55  know
: 1180 5 56  it
: 1186 6 56  now
: 1192 2 51 ~
: 1194 5 49 ~
- 1201
: 1211 2 51 But
: 1213 2 60  you're
: 1215 2 58  gon
: 1217 2 56 na
: 1219 5 58  miss
: 1224 27 60  this
: 1251 2 58 ~
: 1254 1 58 ~
: 1255 6 56 ~
: 1261 8 51 ~
- 1271
: 1278 3 60 Five
: 1282 3 60  years
: 1286 4 60  la
: 1290 3 58 ter
: 1294 4 58  there's
: 1298 1 56  a
: 1300 4 56  plum
: 1304 2 53 ber
- 1308
* 1314 2 56 Work
: 1316 2 53 in'
: 1318 4 56  on
: 1322 2 53  the
: 1324 3 56  wa
: 1328 3 56 ter
: 1332 4 58  heat
: 1336 7 60 er
- 1344
: 1344 4 60 Dog's
: 1350 4 60  bark
: 1354 3 56 in'
: 1360 4 56  phone's
: 1366 2 56  ring
: 1368 2 51 in'
- 1372
: 1374 2 56 One
: 1377 4 56  kid's
: 1382 3 56  cry
: 1385 2 53 in'
: 1388 2 56  one
: 1392 3 56  kid's
: 1398 3 58  scream
: 1401 5 60 in'
- 1407
: 1408 1 60 And
: 1410 3 60  she
: 1414 4 60  keeps
: 1418 1 58  a
: 1420 2 58 pol
: 1422 1 56 o
: 1424 5 56 gi
: 1429 4 53 zin'
- 1435
: 1438 1 56 He
: 1440 3 56  says
: 1445 5 56  they
: 1450 4 55  don't
* 1454 2 53  bo
: 1456 2 51 ther
: 1458 9 53  me
- 1468
: 1468 1 48 I've
: 1470 2 48  got
: 1472 3 51  two
: 1477 3 53  bab
: 1480 2 51 ies
: 1483 2 51  of
: 1485 2 48  my
: 1487 8 53  own
- 1497
: 1499 3 48 One's
: 1502 2 46  thir
: 1504 2 44 ty
: 1507 4 44  six
: 1518 4 44  one's
: 1522 2 46  twen
: 1524 2 41 ty
: 1526 7 44  three
- 1535
: 1538 3 48 Huh
: 1546 1 48  it's
: 1548 2 48  hard
: 1551 1 48  to
: 1553 6 48  believe
- 1561
: 1564 2 51 But
: 1566 2 60  you're
: 1568 2 58  gon
: 1570 2 56 na
: 1573 3 56  miss
: 1577 9 51  this
- 1588
: 1598 2 60 You're
: 1600 2 58  gon
: 1602 4 56 na
: 1606 5 58  want
: 1612 3 56  this
: 1618 2 55  back
: 1620 4 51 ~
- 1626
* 1630 2 51 You're
: 1632 2 53  gon
: 1634 2 55 na
: 1636 4 56  wish
: 1640 2 49  these
: 1644 9 49  days
- 1655
: 1662 2 60 Had
: 1664 2 58 n't
: 1666 4 56  gone
: 1670 5 58  by
: 1676 3 58  so
: 1682 8 63  fast
: 1690 3 60 ~
- 1694
: 1694 2 60 These
: 1696 2 58  are
: 1698 2 56  some
: 1701 3 56  good
: 1704 9 51  times
- 1715
: 1723 2 51 So
: 1725 2 60  take
: 1727 1 58  a
: 1729 2 58  good
: 1731 3 56  a
: 1734 5 58  look
: 1740 5 58  a
* 1745 4 61 round
: 1749 6 60 ~
: 1755 3 55 ~
- 1760
: 1763 3 56 You
: 1766 12 60  may
: 1778 3 58  not
: 1782 8 58  know
: 1790 4 60  it
: 1794 8 56  now
: 1802 3 53 ~
: 1805 5 51 ~
- 1812
: 1820 2 56 But
: 1822 2 60  you're
: 1824 2 58  gon
: 1826 2 56 na
: 1828 4 58  miss
* 1832 30 60  this
: 1862 8 58 ~
: 1870 4 56 ~
- 1876
: 1882 7 60 You're
: 1889 4 58 ~
: 1894 1 58  gon
: 1895 3 56 na
: 1898 2 58  miss
: 1900 2 53 ~
: 1902 8 56  this
: 1910 4 53 ~
- 1916
: 1930 19 56 Yeah
: 1950 2 58  you're
: 1952 2 58  gon
: 1954 2 56 na
: 1956 3 58  miss
: 1959 27 60  this
: 1986 2 58 ~
: 1990 2 58 ~
: 1992 5 56 ~
: 1998 2 53 ~
: 2000 3 51 ~
E