#TITLE:Dear friends
#ARTIST:TRIPLANE
#MP3:1.mp3
#COVER:Triplane [CO].jpg
#BPM:399,88
#GAP:19758
#VIDEOGAP:-0,4
#ENCODING:UTF8
#LANGUAGE:Japanese
#GENRE:Anime
#YEAR:2005
#END:269000
: 0 6 8 Ma
: 8 6 10 i
: 16 12 11 nichi
- 37
: 40 6 3 hi
: 48 6 11  ga
: 56 6 10  shi
: 64 6 8 zu
: 72 20 8 mu
: 96 6 6  ma
: 104 12 6 de
- 125
: 128 6 3 Ko
: 136 6 6 ro
: 144 12 8 ma
: 160 6 8  mi
: 168 14 8 re
: 184 6 6  ni
: 192 6 4  na
: 200 6 6 ri
: 208 14 4  na
: 224 6 3 ga
: 232 8 3 ra
- 246
: 248 6 3 Mu
: 256 6 1 ja
: 264 6 -2 ki
: 272 12 -1  ni
- 293
: 296 6 -1 su
: 304 12 -1 goshi
: 320 6 8 ta
: 328 22 8  hi
: 352 6 6 bi
: 360 12 6  mo
- 381
: 384 6 3 su
: 392 6 6 te
: 400 14 6  ga
: 416 6 4 ta
: 424 14 4 i
: 440 6 3  ke
: 448 6 1 re
: 456 6 3 do
: 464 20 1 ~
- 494
: 512 6 8 Yu
: 520 6 10 me
: 528 12 11 mi
: 544 6 10 ru
: 552 12 11  bo
: 568 6 10 ku
: 576 6 8  ga
: 584 6 8  i
: 592 12 8 ~
: 608 6 10 tte
: 616 12 6  mo
- 637
: 640 6 3 so
: 648 6 6 re
: 656 12 8  wa
: 672 6 8  so
: 680 14 8 re
: 696 6 6  de
: 704 6 4  bo
: 712 6 6 ku
: 720 14 4  da
: 736 6 3 ka
: 744 12 3 ra
- 765
: 768 6 3 Ji
: 776 6 1 gu
: 784 12 3 soo
: 800 6 4  pa
: 808 20 3 zu
: 832 6 7 ru
: 840 14 10  mi
: 856 6 8 ta
: 864 6 10 i
: 872 18 11  ni
- 900
: 904 6 13 wa
: 912 12 15  ma
: 928 6 8 tte
: 936 12 8  na
: 952 6 6 ku
: 960 6 8 te
: 968 20 8  ii
- 998
: 1008 6 8 Da
: 1016 6 6 re
: 1024 6 4 ka
: 1032 6 3  no
* 1040 10 4  yes
- 1060
: 1064 6 3 ga
: 1072 6 4  ki
: 1080 6 6 mi
: 1088 6 8  ni
: 1096 10 8  to
: 1112 8 6 tte
- 1126
: 1128 12 6 no
: 1144 6 4  de
: 1152 6 3 a
: 1160 6 1 ru
: 1168 10 3  no
: 1184 6 1  to
: 1192 6 1  o
: 1200 14 3 na
: 1216 6 6 ji
: 1224 14 10  you
: 1240 12 11  ni
- 1261
: 1264 14 8 I
: 1280 6 10 tsu
: 1288 20 11 da
: 1312 6 8 tte
: 1320 20 8  ji
: 1344 6 10 yu
: 1352 16 11 u
- 1374
: 1376 6 10 na
: 1384 20 11  ha
: 1408 6 13 zu
: 1416 14 11  da
: 1432 6 10 ka
* 1440 40 10 ra
- 1490
: 1520 6 11 A
: 1528 6 10 shi
: 1536 6 11 ta
: 1544 6 13  ka
: 1552 6 15 ze
: 1560 6 11  ga
: 1568 6 10  to
: 1576 6 11 o
: 1584 6 18 ri
: 1592 6 18  nu
: 1600 6 20 ke
: 1608 8 18 ta
- 1622
: 1624 6 15 to
: 1632 6 13 ki
: 1640 12 15  ni
- 1661
: 1664 6 13 Pa
* 1672 6 11 zu
* 1680 6 20 ru
: 1688 6 16  ga
: 1696 6 18  ka
: 1704 6 20 ke
: 1712 12 22 te i
: 1728 6 18 ta
: 1736 12 16  to
: 1752 6 15 shi
: 1760 6 13 te
: 1768 10 15 mo
- 1788
: 1792 6 16 Da
: 1800 6 18 re
: 1808 18 20 mo
- 1830
: 1832 6 11 so
: 1840 14 11 re
: 1856 6 11  wo
: 1864 6 11  se
: 1872 12 10 me
: 1888 14 11 ta
: 1904 8 10 ri
- 1918
: 1920 6 6 shi
: 1928 14 10 na
: 1944 6 8 i
: 1952 40 8  yo
- 2018
: 2048 6 8 A
: 2056 6 10 no
: 2064 12 11  hi
- 2085
* 2088 6 3 yu
* 2096 6 11 me
: 2104 6 10 mi
: 2112 6 8 ta
: 2120 14 8  bo
: 2136 6 6 ku
: 2144 6 6 ra
: 2152 10 6  wa
- 2172
: 2176 6 3 Ma
: 2184 6 6 chi
: 2192 12 8 gai
: 2208 6 8  ja
: 2216 14 8  na
: 2232 6 6 i
: 2240 6 4  to
: 2248 6 4  shi
: 2256 14 4 n
: 2272 6 3 ji
: 2280 10 3 te
- 2300
: 2304 6 3 A
: 2312 6 1 ra
: 2320 12 3 ku
: 2336 6 1  u
: 2344 14 3 ne
: 2360 8 7 ru
- 2374
: 2376 6 10 u
: 2384 6 10 na
: 2392 6 8 ba
: 2400 6 10 ra
: 2408 18 11  wo
- 2436
: 2440 6 13 wa
: 2448 12 15 ta
: 2464 6 8 tte
: 2472 12 8  yu
: 2488 6 6 ke
: 2496 6 8 ~
: 2504 20 8 ru
- 2534
: 2544 6 8 Ki
: 2552 6 6 mi
: 2560 6 4  no
: 2568 6 3  mu
: 2576 12 4 ne
: 2592 12 6  no i
: 2608 12 8 ta
: 2624 6 15 mi
: 2632 10 15  da
: 2648 12 13 tte
- 2669
: 2672 6 10 Bo
: 2680 6 8 ku
: 2688 6 6 ra
: 2696 6 4  wa
: 2704 10 3  shi
: 2720 12 4 tte i
: 2736 12 6 ru
: 2752 6 13  ka
: 2760 20 10 ra
- 2790
: 2800 6 11 Mo
: 2808 6 10 shi
: 2816 6 11 mo
: 2824 6 13  ki
: 2832 6 15 mi
: 2840 6 11  ga
: 2848 6 10  ko
: 2856 6 11 no
* 2864 14 18  fu
: 2880 6 20 ne
: 2888 12 18  o
: 2904 6 15 wo
: 2912 6 13 ri
: 2920 12 15 te
- 2941
: 2944 6 13 Chi
: 2952 6 11 ga
: 2960 6 20 u
: 2968 6 16  se
: 2976 6 18 ka
: 2984 6 20 i
* 2992 12 22  ni i
: 3008 6 18 ta
: 3016 12 16  to
: 3032 6 15 shi
: 3040 6 13 te
: 3048 10 15  mo
- 3068
: 3072 6 16 sa
: 3080 6 18 i
: 3088 18 20 go
: 3112 6 11  ni
: 3120 14 11  wa
- 3141
: 3144 6 11 ki
: 3152 12 10 ~
: 3168 6 11 tto
: 3176 20 10  wa
: 3200 6 6 ra
: 3208 14 10 e
: 3224 6 8 ru
* 3232 78 8  yo
- 3363
: 4480 6 6 I
: 4488 6 8 ma
: 4496 12 9  de
: 4512 6 8 mo
: 4520 12 9  bo
: 4536 6 11 ku
: 4544 12 6 ra
: 4560 14 4  wa
- 4584
: 4608 6 1 yu
: 4616 6 4 me
: 4624 14 6  wo
: 4640 14 9  mi
: 4656 12 8 te i
: 4672 14 11 ru
: 4688 22 4  yo
- 4720
: 4736 6 1 Ta
: 4744 6 4 ku
: 4752 14 6 sa
: 4768 6 4 re
: 4776 10 6 ta
- 4796
: 4800 6 8 so
: 4808 6 9 no
: 4816 28 11  o
* 4848 28 16 moi
: 4880 60 13  mo
- 4950
: 4960 14 13 No
: 4976 14 15 se
: 4992 10 16 te
- 5006
: 5008 6 15 a
: 5016 6 11 re
: 5024 6 10 ta
: 5032 6 11  ko
: 5040 6 18 no
: 5048 6 18  u
: 5056 6 20 na
: 5064 20 18 ba
: 5088 6 16 ra
: 5096 12 15  wo
- 5117
: 5120 6 13 i
: 5128 6 11 ta
: 5136 6 20 mi
: 5144 6 16  to
: 5152 6 18  ta
: 5160 6 20 ta
: 5168 12 22 ka
: 5184 6 18 tte
: 5192 12 16  kyou
: 5208 6 15  mo
: 5216 6 13  yu
: 5224 12 15 ku
- 5245
: 5248 6 13 Ya
: 5256 6 11 ku
: 5264 18 20 so
: 5288 6 11 ku
: 5296 12 11  ga
- 5317
: 5320 6 11 u
: 5328 12 10 so
: 5344 14 11  ni
: 5360 12 13  na
: 5376 12 18 ra
: 5392 40 18  nai
- 5438
: 5440 6 16 you
: 5448 14 15  ni
- 5469
: 5472 14 13 Soshi
: 5488 6 15 te
: 5496 6 13  i
: 5504 6 15 tsu
: 5512 6 16 ka
: 5520 6 15  bo
: 5528 6 11 ku
: 5536 6 10 ra
: 5544 6 11  no
: 5552 12 18  fu
: 5568 6 20 ne
: 5576 14 18  o
: 5592 6 16 wo
: 5600 6 15 ri
: 5608 12 15 ta
- 5629
: 5632 6 13 chi
: 5640 6 11 ga
: 5648 6 20 u
: 5656 6 16  se
: 5664 6 18 ka
: 5672 6 20 i
: 5680 8 22  ni
- 5694
: 5696 6 18 i
: 5704 12 23 ru
: 5720 6 18  ki
: 5728 6 16 mi
: 5736 10 15  ni
- 5756
: 5760 6 16 Ka
: 5768 6 18 n
: 5776 14 20 seishi
: 5792 14 18 ta
: 5808 10 16  pa
: 5820 10 15 zu
: 5832 6 13 ru
: 5840 8 10  wo
- 5854
: 5856 14 11 to
: 5872 12 13 do
: 5888 12 18 ke
: 5904 22 16  yo
* 5928 102 15 u
E