#TITLE:Le jour s'est levé
#ARTIST:Téléphone
#MP3:Téléphone - Le jour s'est levé.mp3
#VIDEO:Téléphone - Le jour s'est levé.mp4
#COVER:Téléphone - Le jour s'est levé.jpg
#BPM:365.51
#GAP:11416
#VIDEOGAP:20.4
#ENCODING:UTF8
#LANGUAGE:French
#GENRE:Pop
#YEAR:1985
#CREATOR:mustangfred et PatTwo
: 0 4 -2 Le
: 7 3 -2  jour
* 15 14 0  s'est
: 31 3 0  le
: 40 6 -7 vé
- 70
: 120 4 -2 Sur
: 126 7 -2  une
: 134 3 -2  é
: 141 15 0 trange
: 159 4 0  i
: 168 9 -7 dée
- 201
: 254 2 -2 Je
: 262 3 -2  crois
: 270 5 -2  que
: 280 11 -2  j'ai
: 294 4 -4  rê
: 302 4 -2 vé
: 308 9 -7 ~
- 341
: 374 3 -2 Que
: 381 3 -2  ce
: 388 6 -2  soir
: 397 6 0  je
: 415 4 0  mour
: 422 8 -7 rais
- 454
: 509 5 -2 Le
: 516 3 -2  jour
: 525 13 0  s'est
: 541 4 0  le
: 549 7 -7 vé
- 580
: 629 7 -2 Plein
: 638 2 -2  de
: 645 3 -2  per
: 654 3 0 ple
: 667 3 0 xi
: 676 11 -7 té
- 711
: 765 2 -2 Si
: 772 4 -2  c'n'é
* 781 5 3 tait
: 793 6 2  pas
: 803 7 0  un
: 812 5 0  rêve
: 819 2 2 ~
: 823 21 -2 ~
- 868
: 893 3 -2 Qu'il
: 900 4 -2  faille
: 908 14 0  s'en
: 924 5 0  al
: 933 7 -7 ler
- 950
: 980 6 3 S'en
: 987 6 2  al
: 995 8 3 ler
: 1005 29 0 ~
- 1082
: 1523 4 -2 Comme
: 1529 5 -2  le
: 1538 5 -2  jour
: 1545 11 0  a
: 1561 2 0 van
: 1570 6 -7 çait
- 1600
: 1657 5 -2 En
: 1665 6 -2  moi
: 1681 3 0  je
: 1689 3 0  pen
: 1698 8 -7 sais
- 1730
: 1785 2 -2 Si
: 1791 4 -2  c'n'é
: 1800 4 3 tait
: 1810 8 2  pas
: 1823 7 0  un
: 1832 4 0  rêve
: 1838 2 2 ~
: 1842 19 -2 ~
- 1885
: 1919 1 -2 J'ai
: 1927 6 3  tout
: 1939 8 -4  à
: 1949 2 -5  ai
: 1959 3 -5 mer
: 1963 2 -7 ~
- 1989
: 2032 6 -2 Quand
: 2040 3 -2  le
: 2046 3 -2  jour
: 2055 6 0  s'est
: 2070 3 0  cou
: 2079 7 -7 ché
- 2110
: 2168 5 -2 J'ai
: 2175 7 -2  ré
: 2183 11 0 a
: 2198 4 0 li
: 2207 7 -7 sé
- 2238
: 2295 1 -2 Que
: 2301 4 -2  c'n'é
: 2310 6 3 tait
: 2321 9 2  qu'u
: 2333 2 0 ne
: 2342 6 0  trêve
: 2350 2 2 ~
: 2353 19 -2 ~
- 2382
: 2413 6 -2 Dans
: 2421 5 -2  ma
: 2429 8 -2  ré
: 2438 9 0 a
: 2451 4 0 li
: 2461 10 -7 té
- 2495
: 2550 1 -5 Nous
: 2556 3 -5  sommes
* 2564 4 3  i
* 2574 6 2 ci
: 2587 2 0  pour
: 2596 4 0  croire
: 2602 5 -2 ~
- 2631
: 2675 7 -4 Rien
: 2684 3 -4  d'autre
* 2693 7 3  à
: 2703 5 2  lais
: 2714 3 0 ser
: 2724 4 0  croire
: 2730 9 -2 ~
- 2763
: 2805 2 -5 Croire
: 2812 4 -5  que
: 2819 8 3  l'on
* 2830 6 2  meurt
: 2842 2 0  ce
: 2851 5 0  soir
: 2858 9 -2 ~
- 2877
: 2891 1 -5 Pour
: 2896 9 -2  qui
: 2907 3 0  veux
: 2914 6 -5  bien
: 2926 4 -7  voir
- 2978
: 3064 2 3 Le
: 3068 5 3  voile
: 3075 9 3  est
: 3085 7 2 ~
: 3098 2 0  le
: 3106 5 0 vé
: 3112 4 -2 ~
- 3140
: 3179 8 3 Sur
: 3192 4 3  ma
: 3202 6 3  pau
: 3210 5 2 ~
: 3217 4 0 vre
: 3225 8 -2 té
- 3257
: 3313 4 -2 Qu'ai
: 3320 3 -2 -je
* 3329 5 3  donc
: 3340 6 2  à
: 3351 5 0  gar
: 3361 5 0 der
: 3367 8 -2 ~
- 3399
: 3433 6 -2 Qui
: 3441 1 -2  ne
: 3448 6 -2  se
* 3456 6 0 ra
: 3472 2 0  souf
: 3480 6 -7 flé
- 3510
: 3560 5 3 Oui,
: 3567 6 3  le
: 3576 6 3  voile
: 3584 5 3  est
: 3591 5 2 ~
: 3600 3 0  le
: 3607 5 0 vé
: 3613 3 -2 ~
- 3640
: 3688 4 3 Tout
: 3696 3 3  est
: 3704 3 3  si
: 3712 5 3  co
: 3719 5 2 ~
: 3728 4 0 lo
: 3737 4 -2 ré
- 3765
: 3823 3 -2 Qu'ai
: 3831 2 -2 -je
* 3839 6 3  donc
: 3850 7 2  à
: 3861 4 0  don
: 3870 5 0 ner
* 3877 2 2 ~
: 3880 5 -2 ~
- 3909
: 3942 6 -2 Que
: 3950 5 -2  la
: 3957 5 -2  nuit
* 3966 6 0  m'a
: 3981 4 0  souf
: 3991 5 -7 flé
- 4020
: 4078 1 -5 Nous
: 4085 3 -5  sommes
* 4094 3 3  i
* 4103 7 2 ci
: 4117 3 0  pour
: 4126 6 0  croire
: 4133 6 -2 ~
- 4163
: 4199 10 -4 Rien
: 4212 3 -4  d'autre
* 4220 7 3  à
: 4232 4 2  lais
: 4243 3 0 ser
: 4252 6 0  croire
: 4260 5 -2 ~
- 4289
: 4333 3 -5 Croire
: 4341 5 -5  que
* 4349 8 3  l'on
: 4359 6 2  meurt
: 4371 1 0  ce
: 4380 4 0  soir
: 4386 7 -2 ~
- 4417
: 4460 3 -4 Et
: 4467 6 -4  qu'il
* 4476 6 3  est
: 4487 7 2  dé
: 4499 3 0 jà
: 4509 5 0  tard
: 4515 9 -2 ~
- 4572
: 4635 8 3 Dé
: 4647 9 2 jà
: 4660 8 -5  tard
- 4692
: 4754 3 3 Mais
* 4763 6 3  pas
: 4775 5 2  trop
: 4786 8 -2  tard
- 4818
: 4882 1 3 A
: 4889 10 3  toi
: 4903 5 2  de
: 4914 3 2  voir
: 4919 10 0 ~
- 4953
: 5010 1 -2 A
: 5016 10 3  toi
: 5029 6 2  de
: 5041 4 2  croire
: 5047 9 0 ~
- 5080
: 5146 4 3 Ah
: 5157 7 2 ~
: 5167 2 2 ~
: 5170 12 -5 ~
- 5206
: 5275 8 3 Ah
: 5285 10 2 ~
: 5297 12 -2 ~
- 5333
: 5401 9 3 Ah
: 5412 10 2 ~
: 5424 17 0 ~
- 5465
: 5529 9 3 Ah
: 5540 8 2 ~
: 5551 6 0 ~
- 5605
: 5735 3 -2 Le
: 5742 2 -2  jour
: 5751 12 0  s'est
: 5766 3 0  le
: 5774 8 -7 vé
- 5806
: 5854 3 -2 Sur
: 5862 3 -2  cette
: 5870 1 -2  é
: 5879 13 0 trange
: 5895 2 0  i
: 5901 7 -7 dée
- 5932
: 5989 4 -2 La
: 5996 4 -2  vie
: 6005 5 3  n'est
: 6016 8 2  qu'une
: 6028 5 2  jour
: 6036 5 0 née
: 6043 6 -2 ~
- 6073
: 6108 5 -2 Et
: 6116 3 -2  la
: 6124 2 -2  mort
: 6132 14 0  qu'u
: 6148 3 0 ne
: 6155 8 -7  nuit
- 6187
: 6244 3 -2 La
: 6252 3 -2  vie
* 6260 4 3  n'est
: 6272 5 2  a
: 6282 6 0 jour
: 6292 2 0 née
: 6296 1 -2 ~
- 6321
: 6374 3 0 Que
: 6382 6 0  si
: 6392 4 -7  la
: 6401 9 -5  mort
: 6423 6 -7  lui
: 6437 10 -9  nuit
E