#TITLE:Elevation
#ARTIST:U2
#MP3:U2 - Elevation.mp3
#COVER:U2 - Elevation [CO].jpg
#VIDEO:U2 - Elevation [VD#0].mpg
#VIDEOGAP:0
#BPM:110
#GAP:7800
: 144 3 76 High,
: 152 1 74  hi
: 154 1 74 gher
: 156 1 74  than
: 158 2 74  the
: 160 3 76  sun
- 164   
: 166 1 74 You
: 168 1 74  shoot
: 170 1 74  me
: 172 1 74  from
: 174 2 74  a
: 176 2 76  gun
- 180   
: 182 1 74 I
: 184 2 76  need
: 186 1 74  you
: 188 1 71  to
: 192 2 76  e
: 194 3 76 le
: 198 3 76 vate
: 202 4 76  me
: 206 2 74  here
- 211   
: 214 1 74 At
: 215 1 74  the
: 216 1 74  cor
: 218 1 74 ner
: 220 1 74  of
: 222 2 74  your
: 224 1 76  lips
- 227   
: 230 1 74 As
: 231 1 74  the
: 232 1 74  or
: 234 1 74 bit
: 236 1 74  of
: 238 2 74  your
: 240 1 76  hips
- 243   
: 246 2 74 E
: 248 2 76 clipse
- 252   
: 254 2 74 You
: 256 2 76  e
: 258 2 76 le
: 262 2 76 vate
: 266 3 76  my
: 272 3 79  soul
- 276   
: 278 2 74 I've
: 280 1 74  got
: 282 1 76  no
: 284 1 76  self
: 286 2 76  con
: 288 2 79 trol
- 292   
: 294 1 74 Been
: 296 2 74  liv
: 298 1 76 ing
: 300 1 76  like
: 302 1 76  a
: 304 2 79  mole
: 308 2 76  now
- 311   
: 312 2 74 Go
: 314 1 76 ing
: 316 2 76  down,
: 320 2 79  ex
: 324 2 76 ca
: 326 4 79 va
: 330 2 76 tion
- 333   
: 334 1 79 I
: 338 1 76  and
: 340 2 76  I
: 344 2 74  in
: 346 3 76  the
: 350 1 76  sky
- 352   
: 354 1 76 You
: 356 1 76  make
: 358 1 76  me
: 360 1 79  feel
: 362 1 76  like
: 364 2 76  I
: 366 2 74  can
: 368 1 76  fly
- 371   
: 374 2 79 So
: 376 2 76  high
- 381   
: 384 1 79 E
: 388 1 79 le
: 392 1 79 va
: 396 2 79 tion
- 412   
: 448 1 79 E
: 452 1 79 le
: 456 1 79 va
: 460 2 76 tion
- 463   
: 464 1 74 A
: 465 1 76  star
: 469 3 76  Lit
: 472 1 74  up
: 475 1 74  like
: 476 1 74  a
: 478 2 74  ci
: 480 3 76 gar
- 484   
: 486 1 71 Strung
: 488 1 74  out
: 490 1 74  like
: 492 1 74  a
: 494 2 74  gui
: 496 2 76 tar
- 501   
: 504 2 76 May
: 506 2 76 be
: 508 2 74  you
: 510 2 71  can
: 512 1 76  e
: 514 3 76 du
: 518 1 76 cate
: 522 4 76  my
: 526 3 74  mind
- 531   
: 534 1 71 Ex
: 536 1 74 plain
: 538 1 74  all
: 540 1 74  these
: 542 2 74  con
: 544 1 76 trols
- 547   
: 550 1 71 Can't
: 552 1 74  sing
: 554 1 74  but
: 555 1 74  I've
: 557 2 74  got
: 559 1 76  soul
- 563   
: 566 2 74 The
: 568 2 76  goal
: 574 2 74  is
: 576 2 76  e
: 578 2 76 le
: 582 2 76 va
: 586 3 76 tion
- 589   
: 590 2 76 A
: 592 3 79  mole
- 597   
: 600 1 74 Dig
: 602 1 76 ging
: 604 1 76  in
: 606 2 76  a
: 608 2 79  hole
- 613   
: 616 2 74 Dig
: 618 1 76 ging
: 620 1 76  up
: 622 1 76  my
: 624 2 79  soul
: 628 2 76  now
- 631   
: 632 2 74 Go
: 634 1 76 ing
: 636 2 76  down,
: 640 2 79  ex
: 644 2 76 ca
: 646 4 79 va
: 650 2 76 tion
- 653   
: 654 1 79 I
: 658 1 76  and
: 660 2 76  I
: 664 2 74  in
: 666 3 76  the
: 670 1 76  sky
- 672   
: 674 1 76 You
: 676 1 76  make
: 678 1 76  me
: 680 1 79  feel
: 682 1 76  like
: 684 2 76  I
: 686 2 74  can
: 688 1 76  fly
- 691   
: 694 2 79 So
: 696 2 76  high
- 701   
: 704 1 79 E
: 708 1 79 le
: 712 1 79 va
: 716 2 79 tion
- 732   
: 832 1 79 E
: 836 1 79 le
: 840 1 79 va
: 844 2 76 tion
- 847   
: 848 9 68 Love
- 864   
: 872 1 68 Lift
: 874 3 68  me
: 878 3 69  up
: 882 5 69  out
: 888 2 69  of
: 890 4 68  these
: 894 3 69  blues
- 900   
: 908 1 69 Won't
: 910 1 69  you
: 912 3 69  tell
: 916 2 68  me
: 918 4 66  some
: 922 4 64 thing
: 926 5 66  true
- 934   
: 940 2 64 I
: 942 2 64  be
: 944 9 66 lieve
: 954 4 66  in
: 958 13 64  you
- 961   
: 990 2 76 A
: 992 3 79  mole
- 997   
: 1000 1 74 Dig
: 1002 1 76 ging
: 1004 1 76  in
: 1006 2 76  a
: 1008 2 79  hole
- 1013   
: 1016 2 74 Dig
: 1018 1 76 ging
: 1020 1 76  up
: 1022 1 76  my
: 1024 2 79  soul
: 1028 2 76  now
- 1031   
: 1032 2 74 Go
: 1034 1 76 ing
: 1036 2 76  down,
: 1040 2 79  ex
: 1044 2 76 ca
: 1046 4 79 va
: 1050 2 76 tion
- 1053   
: 1054 1 79 I
: 1058 1 76  and
: 1060 2 76  I
- 1063   
: 1064 2 74 In
: 1066 3 76  the
: 1070 1 76  sky
- 1072   
: 1074 1 76 You
: 1076 1 76  make
: 1078 1 76  me
: 1080 1 79  feel
: 1082 1 76  like
: 1084 2 76  I
: 1086 2 74  can
: 1088 1 76  fly
- 1091   
: 1094 2 79 So
: 1096 2 76  high
- 1101   
: 1104 1 79 E
: 1108 1 79 le
: 1112 1 79 va
: 1116 2 79 tion
- 1132   
: 1234 2 79 E
: 1236 2 76 le
: 1238 4 79 va
: 1242 2 79 tion
- 1258   
: 1310 1 79 E
: 1311 1 79 le
: 1312 2 79 va
: 1314 2 76 tion
- 1330   
: 1360 3 79 E
: 1364 3 79 le
: 1368 4 79 va
: 1372 2 76 tion
E
