#TITLE:Lady in black
#ARTIST:Uriah Heep
#EDITION:UltraStar 60s
#MP3:Uriah Heep - Lady in black.mp3
#COVER:Uriah Heep - Lady in black [CO].jpg
#BACKGROUND:Uriah Heep - Lady in black [BG].jpg
#BPM:170
#GAP:5800
: 0 3 64 She
: 4 4 69  came
: 8 2 69  to
: 10 2 69  me
: 14 6 72  one
: 20 6 71  morn
: 26 6 69 ing,
- 32
: 32 4 64 one
: 36 4 69  lone
: 40 2 69 ly
: 42 4 69  Sun
: 46 6 72 day
: 52 6 71  morn
: 58 4 69 ing,
- 63
: 64 4 71 her
: 68 8 67  long
: 76 8 71  hair
: 84 4 74  flow
: 88 4 74 ing
: 92 3 72  in
: 95 5 71  the
: 100 6 69  mid
: 106 4 69 win
: 110 6 71 ter
: 116 8 69  wind.
- 126
: 128 4 64 I
: 132 5 69  know
: 137 2 69  not
: 139 4 69  how
: 143 5 72  she
: 148 8 71  found
: 156 4 69  me,
- 161
: 161 2 64 for
: 163 2 64  in
: 165 3 69  dark
: 168 4 69 ness
: 172 2 69  I
: 175 5 72  was
: 180 6 71  wal
: 186 5 69 king,
- 191
: 191 3 69 and
: 194 3 69  des
: 197 3 67 truc
: 200 4 67 tion
: 204 3 67  lay
: 207 4 71  a
: 211 6 74 round
: 217 5 74  me
- 223
: 223 3 72 from
: 226 2 71  a
: 228 6 69  fight
: 234 3 69  I
: 237 2 69  could
: 239 5 72  not
: 244 6 69  win.
- 251
: 262 10 69 Ah
: 272 6 71  ah
: 278 10 72  ah
: 288 2 71  ah
: 290 4 69  ah
: 294 10 71  ah
: 304 2 72  ah
: 306 2 71  ah
: 308 10 69  ah
- 320
: 326 10 76 Ah
: 336 2 74  ah
: 338 4 72  ah
: 342 10 74  ah
: 352 2 76  ah
: 354 2 74  ah
: 356 8 72  ah
- 366
: 480 4 64 She
: 484 4 69  asked
: 488 2 69  me
: 490 4 69  name
: 494 6 72  my
: 500 6 71  foe
: 506 4 69  then.
- 511
: 512 3 64 I
: 515 5 69  said
: 520 2 69  the
: 522 4 69  need
: 526 5 72  with
: 531 3 71 in
: 534 4 69  some
: 538 3 69  men
- 542
: 542 4 71 to
: 548 5 67  fight
: 553 3 67  and
: 556 3 67  kill
: 559 4 71  their
: 563 3 74  bro
: 566 8 74 thers
- 574
: 574 2 72 with
: 576 4 71 out
: 580 4 69  thought
: 584 3 69  of
: 588 2 69  love
: 590 4 71  or
: 594 6 69  god.
- 602
: 606 3 64 And
: 609 3 64  I
: 612 4 69  begged
: 616 2 69  her
: 618 4 69  give
: 622 6 72  me
: 628 5 71  hor
: 633 5 69 ses
- 638
: 638 4 64 to
: 642 4 69  tram
: 646 4 69 ple
: 650 4 69  down
: 654 6 72  my
: 660 2 71  en
: 662 4 69 e
: 666 4 69 mies,
- 670
: 670 6 71 so
: 676 3 67  ea
: 679 4 67 ger
: 683 3 67  was
: 686 5 71  my
: 691 3 74  pas
: 694 8 74 sion
- 702
: 702 2 72 to
: 704 2 71  de
: 706 6 69 vour
: 712 3 69  this
: 715 3 69  waste
: 718 4 71  of
: 722 8 69  life.
- 733
: 739 10 69 Ah
: 749 6 71  ah
: 755 10 72  ah
: 765 2 71  ah
: 767 3 69  ah
: 770 9 71  ah
: 781 2 72  ah
: 783 3 71  ah
: 786 9 69  ah
- 796
: 802 10 76 Ah
: 812 2 74  ah
: 814 4 72  ah
: 818 10 74  ah
: 828 2 76  ah
: 830 3 74  ah
: 833 11 72  ah
- 847
: 859 2 64 But
: 861 3 64  she
: 864 3 69  would
: 867 4 69  not
: 871 4 69  think
: 875 6 72  of
: 881 3 71  bat
: 884 3 69 tle
: 887 5 64  that
- 892
: 892 3 69  re
: 895 7 69 duces
: 902 4 69  men
: 906 7 72  to
: 913 2 71  an
: 915 2 71 i
: 917 6 69 mals,
- 922
: 924 4 71 so
: 928 4 67  ea
: 932 4 67 sy
: 936 2 67  to
: 938 4 71  be
: 942 5 74 gin
: 947 5 74  and
- 951
: 951 3 72  yet
: 954 5 71  im
: 959 4 69 pos
: 963 3 69 si
: 966 4 69 ble
: 970 4 71  to
: 974 8 69  end.
- 983
: 988 2 64 For
: 990 5 69  she
: 995 3 69  the
: 998 3 69  moth
: 1001 6 72 er
: 1007 2 71  of
: 1009 3 69  all
: 1012 5 69  men
- 1018
: 1020 3 64 had
: 1023 3 69  coun
: 1026 4 69 ciled
: 1030 2 69  me
: 1032 6 72  so
: 1038 5 71  wise
: 1043 3 69 ly
: 1046 3 69  that
: 1050 4 71  I
- 1055
: 1055 3 67  feared
: 1058 3 67  to
: 1061 4 67  walk
: 1065 3 71  a
: 1068 7 74 lone
: 1075 2 74  a
: 1077 4 72 gain
- 1081
: 1082 4 71 and
: 1086 4 69  asked
: 1090 3 69  if
: 1093 3 69  she
: 1096 4 71  would
: 1100 8 69  stay.
- 1118
: 1118 10 69 Ah
: 1128 6 71  ah
: 1134 10 72  ah
: 1144 2 71  ah
: 1146 4 69  ah
: 1150 10 71  ah
: 1160 2 72  ah
: 1162 4 71  ah
: 1166 6 69  ah
- 1174
: 1182 9 76 Ah
: 1191 2 74  ah
: 1193 5 72  ah
: 1198 9 74  ah
: 1207 2 76  ah
: 1209 4 74  ah
: 1213 10 72  ah
- 1224
: 1240 3 64 "Oh
: 1243 5 69  la
: 1248 2 69 dy
: 1250 4 69  lend
: 1254 6 72  your
: 1260 4 71  hand,"
: 1264 3 69  I
: 1267 5 69  cried,
- 1272
: 1272 3 64 "Oh
: 1275 5 69  let
: 1280 2 69  me
: 1282 5 69  rest
: 1287 5 72  here
: 1292 2 71  at
: 1294 4 69  your
: 1298 6 69  side."
- 1304
: 1304 4 71 "Have
: 1308 4 67  faith
: 1312 3 67  and
: 1315 4 67  trust
: 1319 4 71  in
: 1323 3 74  me,"
: 1326 3 74  she
: 1329 5 72  said
- 1334
: 1334 5 71 and
: 1339 4 69  filled
: 1343 3 69  my
: 1346 4 69  heart
: 1350 4 71  with
: 1354 9 69  life.
- 1364
: 1366 5 64 There
: 1371 3 69  is
: 1374 3 69  no
: 1377 6 69  strength
: 1383 4 72  in
: 1387 6 71  num
: 1393 5 69 bers.
- 1398
: 1398 4 64 I've
: 1402 4 69  no
: 1406 4 69  such
: 1410 4 69  mis
: 1414 4 72 con
: 1418 6 71 cep
: 1424 4 69 tions.
- 1429
: 1430 4 71 But
: 1434 4 67  when
: 1438 2 67  you
: 1440 4 67  need
: 1444 6 71  me
: 1450 3 74  be
: 1453 3 74  as
: 1456 4 72 sured
- 1460
: 1460 6 71 I
: 1466 4 69  won't
: 1470 2 69  be
: 1472 4 69  far
: 1476 4 71  a
: 1480 8 69 way.
- 1490
: 1497 10 69 Ah
: 1507 6 71  ah
: 1513 10 72  ah
: 1523 2 71  ah
: 1525 4 69  ah
: 1529 10 71  ah
: 1539 2 72  ah
: 1541 4 71  ah
: 1544 7 69  ah
- 1552
: 1561 10 76 Ah
: 1571 2 74  ah
: 1573 4 72  ah
: 1577 10 74  ah
: 1587 2 76  ah
: 1589 4 74  ah
: 1591 10 72  ah
- 1602
: 1619 4 64 Thus
: 1623 3 69  hav
: 1626 3 69 ing
: 1629 4 69  spoke
: 1633 6 72  she
: 1639 4 71  turned
: 1643 2 69  a
: 1645 6 69 way
- 1651
: 1651 4 64 and
: 1655 3 69  though
: 1658 3 69  I
: 1661 5 69  found
: 1666 5 72  no
: 1671 4 71  words
: 1675 2 69  to
: 1677 4 69  say
- 1682
: 1682 3 71 I
: 1685 4 67  stood
: 1689 4 67  and
: 1693 5 67  watched
: 1698 4 71  un
: 1702 3 74 til
: 1705 3 74  I
: 1708 4 72  saw
- 1713
: 1713 4 71  her
: 1717 4 69  black
: 1721 5 69  cloak
: 1726 2 69  dis
: 1728 4 71 ap
: 1732 6 69 pear.
- 1740
: 1745 3 64 My
: 1748 5 69  la
: 1753 3 69 bor
: 1756 3 69  is
: 1759 6 72  no
: 1765 3 71  ea
: 1768 3 71 sy
: 1771 3 69 er,
- 1775
: 1779 2 64 but
: 1781 2 69  now
: 1783 3 69  I
: 1786 4 69  know
: 1790 6 72  I'm
: 1796 3 71  not
: 1799 2 69  a
: 1801 5 69 lone.
- 1807
: 1809 2 71 I
: 1811 5 67  find
: 1816 3 67  new
: 1819 5 67  heart
: 1824 3 71  each
: 1827 3 74  time
: 1830 3 74  I
: 1833 5 72  think
- 1839
: 1839 2 71  up
: 1841 6 69 on
: 1847 4 69  that
: 1851 2 69  win
: 1853 4 71 dy
: 1857 6 69  day.
- 1864
: 1870 4 64 And
: 1874 3 69  if
: 1877 4 69  one
: 1881 4 69  day
: 1885 5 72  she
: 1890 5 71  comes
: 1895 2 69  to
: 1897 4 69  you
- 1901
: 1901 5 64 drink
: 1906 4 69  deep
: 1910 2 69 ly
: 1912 4 69  from
: 1916 5 72  her
: 1921 4 71  words
: 1925 4 69  so
: 1929 4 69  wise.
- 1933
: 1933 4 69 Take
: 1937 2 67  cour
: 1939 5 67 age
: 1944 3 67  from
: 1947 5 71  her
: 1952 3 74  as
: 1955 3 74  your
: 1958 5 72  prize
- 1963
: 1963 4 71 and
: 1967 4 69  say
: 1971 3 69  hel
: 1974 4 69 lo
: 1978 5 71  for
: 1983 7 69  me.
- 1990
: 1999 10 69 Ah
: 2009 6 71  ah
: 2015 10 72  ah
: 2025 2 71  ah
: 2027 4 69  ah
: 2031 10 71  ah
: 2041 2 72  ah
: 2043 3 71  ah
: 2046 7 69  ah
- 2054
: 2062 10 76 Ah
: 2072 2 74  ah
: 2074 4 72  ah
: 2078 10 74  ah
: 2088 2 76  ah
: 2090 4 74  ah
: 2094 9 72  ah
- 2105
: 2123 11 64 Ah
: 2134 6 69  ah
: 2140 10 71  ah
: 2150 2 72  ah
: 2152 3 71  ah
: 2155 11 69  ah
: 2166 2 72  ah
: 2168 3 71  ah
: 2171 6 69  ah
- 2178
: 2186 11 76 Ah
: 2197 2 74  ah
: 2199 3 72  ah
: 2202 10 74  ah
: 2212 2 76  ah
: 2214 3 74  ah
: 2217 7 72  ah
- 2225
: 2248 10 64 Ah
: 2258 6 69  ah
: 2264 10 71  ah
: 2274 2 72  ah
: 2276 4 71  ah
: 2280 9 69  ah
: 2289 2 72  ah
: 2291 4 71  ah
: 2295 8 69  ah
- 2305
: 2311 10 76 Ah
: 2321 2 74  ah
: 2323 4 72  ah
: 2327 10 74  ah
: 2337 2 76  ah
: 2339 3 74  ah
: 2342 9 72  ah
- 2357
: 2373 10 64 Ah
: 2383 6 69  ah
: 2389 10 71  ah
: 2399 2 72  ah
: 2401 4 71  ah
: 2405 10 69  ah
: 2415 2 71  ah
: 2417 3 72  ah
: 2420 4 71  ah
- 2430
: 2436 10 76 Ah
: 2446 2 74  ah
: 2448 4 72  ah
: 2452 10 74  ah
: 2462 2 76  ah
: 2464 2 74  ah
: 2466 10 72  ah
- 2480
: 2500 8 64 Ah
: 2508 6 69  ah
: 2514 9 71  ah
: 2523 2 72  ah
: 2525 5 71  ah
: 2530 9 69  ah
: 2539 3 71  ah
: 2542 3 72  ah
: 2545 10 71  ah
- 2556
: 2560 11 76 Ah
: 2571 2 74  ah
: 2573 4 72  ah
: 2577 10 74  ah
: 2587 2 76  ah
: 2589 3 74  ah
: 2592 10 72  ah
- 2607
: 2624 8 64 Ah
: 2632 6 69  ah
: 2638 9 71  ah
: 2647 2 72  ah
: 2649 5 71  ah
: 2654 9 69  ah
: 2663 3 71  ah
: 2666 3 72  ah
: 2669 10 71  ah
- 2679
: 2684 11 76 Ah
: 2695 2 74  ah
: 2697 4 72  ah
: 2701 10 74  ah
: 2711 2 76  ah
: 2713 3 74  ah
: 2716 10 72  ah
- 2728
: 2748 8 64 Ah
: 2756 6 69  ah
: 2762 9 71  ah
: 2771 2 72  ah
: 2773 5 71  ah
: 2778 9 69  ah
: 2787 3 71  ah
: 2790 3 72  ah
: 2793 10 71  ah
- 2804
: 2808 11 76 Ah
: 2819 2 74  ah
: 2821 4 72  ah
: 2825 10 74  ah
: 2835 2 76  ah
: 2837 3 74  ah
: 2840 10 72  ah
E
