#TITLE:Absolutely Everybody
#ARTIST:Vanessa Amorosi
#MP3:Vanessa Amorosi - Absolutely Everybody.mp3
#COVER:Vanessa Amorosi - Absolutely Everybody.jpg
#VIDEO:Vanessa Amorosi - Absolutely Everybody.mp4
#BPM:123.1
#GAP:15776
: 0 1 5 ab
: 2 1 5 so
: 4 1 5 lute
: 6 1 5 ly 
: 8 2 8 eve
: 10 1 8 ry
: 11 3 8 bod
: 14 2 8 y 
- 16
: 32 1 5 ab
: 34 1 5 so
: 36 1 5 lute
: 38 1 5 ly 
: 40 2 0 eve
: 42 1 0 ry
: 43 3 0 bod
: 46 9 1 y 
- 55
: 64 1 5 ab
: 66 1 5 so
: 68 1 5 lute
: 70 1 5 ly 
: 72 2 8 eve
: 74 1 8 ry
: 75 3 8 bod
: 78 2 8 y 
- 80
: 96 1 5 ab
: 98 1 5 so
: 100 1 5 lute
: 102 1 5 ly 
: 104 2 0 eve
: 106 1 0 ry
: 107 3 0 bod
: 110 9 1 y 
- 120
: 130 1 5 eve
: 131 1 5 ry
: 132 1 5 bod
: 133 1 5 y 
: 134 4 3 needs 
- 139
: 143 1 0 a 
: 145 1 0 lit
: 147 1 0 tle 
: 151 1 1 lo
: 152 1 0 ~o
: 154 2 -2 ving
- 156
: 162 1 5 eve
: 163 1 5 ry
: 164 1 5 bod
: 164 2 5 y 
: 166 4 3 needs 
- 171
: 176 3 10 some
: 180 2 8 bod
: 182 2 5 y 
: 184 2 10 think
: 186 2 8 ing 
: 188 2 5 of 
: 190 1 3 them 
- 191
: 192 2 5 eve
: 194 1 5 ry
: 195 2 5 bod
: 197 1 5 y 
: 198 4 3 needs 
: 206 1 0 a 
: 208 2 0 lit
: 210 2 0 tle 
: 212 2 0 re
: 214 4 1 spect 
: 218 3 -2 and 
- 221
: 222 2 -2 what
: 224 2 5 ev
: 226 2 5 er 
: 228 2 5 it 
: 230 5 3 takes 
- 236
: 240 3 10 I'm 
: 243 3 8 gon
: 246 2 5 na 
: 248 4 10 get 
: 252 2 8 i
: 254 2 5 ~it
- 260
: 260 2 10 eve
: 262 1 10 ry
: 264 2 10 bod
: 266 1 8 y 
: 268 2 8 needs 
: 270 2 5 a 
: 272 3 5 hand 
: 275 3 10 to 
: 278 6 8 hold 
- 284
: 290 1 10 some
: 292 2 10 one 
: 294 2 8 to 
: 296 2 10 cling 
: 298 2 8 to 
: 300 2 8 when 
: 302 2 5 the 
- 304
: 304 4 13 nights 
: 308 4 12 are 
: 312 2 13 get
: 314 4 12 ting 
: 318 3 10 cold 
- 322
: 324 2 10 I'm 
: 326 2 8 no 
: 328 2 8 differ
: 330 1 5 ent 
- 331
: 332 2 5 I 
: 334 2 1 am 
: 336 3 1 just 
: 339 3 5 the 
: 342 4 3 same 
- 346
: 346 4 0 a 
: 350 4 1 play
: 354 4 5 er 
: 358 4 3 in 
: 362 4 0 the 
: 366 1 1 ga
: 367 1 0 ~a
: 368 7 -2 ~ame
- 379
: 384 1 5 ab
: 386 1 5 so
: 388 1 5 lute
: 390 1 5 ly 
: 392 2 8 eve
: 394 1 8 ry
: 395 3 8 bod
: 398 2 8 y 
- 400
: 400 1 6 eve
: 402 1 6 ry
: 403 2 6 bod
: 405 3 5 y 
: 408 2 6 eve
: 410 2 5 ry
: 412 2 3 bod
: 414 2 1 y 
- 416
: 416 1 5 ab
: 418 1 5 so
: 420 1 5 lute
: 422 1 5 ly 
: 424 2 8 eve
: 426 1 8 ry
: 427 3 8 bod
: 430 2 8 y 
- 432
: 432 3 10 in 
: 435 3 8 the 
: 438 3 5 whole 
: 442 2 10 wide 
: 444 2 8 wo
: 446 1 5 ~orld
- 448
: 448 1 5 ab
: 450 1 5 so
: 452 1 5 lute
: 454 1 5 ly 
: 456 2 8 eve
: 458 1 8 ry
: 459 3 8 bod
: 462 2 8 y 
- 464
: 464 1 6 eve
: 466 1 6 ry 
: 467 2 6 boy 
: 469 2 5 and 
: 471 3 6 eve
: 474 2 5 ry 
: 476 2 3 gi
: 478 2 1 ~irl
- 480
: 480 1 5 ab
: 482 1 5 so
: 484 1 5 lute
: 486 1 5 ly 
: 488 2 0 eve
: 490 1 0 ry
: 491 3 0 bod
: 494 9 1 y 
- 503
: 514 1 5 eve
: 515 1 5 ry
: 516 2 5 bod
: 518 2 5 y 
: 520 4 3 needs 
- 524
: 526 1 0 a 
: 528 1 0 hu
: 530 4 0 man 
: 534 3 1 touch, 
: 538 2 -2 I 
- 540
: 542 2 5 can't 
: 546 2 5 live 
: 548 2 1 with
: 550 3 3 out 
: 553 3 1 it 
- 556
: 556 2 1 it 
: 560 3 10 means 
: 563 3 8 too 
: 566 4 5 much 
: 570 2 10 to 
: 572 2 8 me 
- 575
: 578 1 5 eve
: 579 1 5 ry
: 580 1 5 bod
: 581 1 5 y 
: 582 4 3 needs 
- 587
: 592 3 0 one 
: 595 3 0 true 
: 598 4 1 friend, 
: 602 3 -2 some-
- 605
: 607 3 5 one 
: 611 3 5 who'll 
: 614 3 3 be 
: 618 2 1 there 
: 620 2 1 'till 
: 622 2 -2 the 
- 625
: 626 3 10 ver
: 630 2 8 y 
: 632 3 10 e
: 635 4 8 ~end
- 640
: 642 2 5 and 
: 644 2 8 ab
: 646 2 10 so
: 648 2 10 lute
: 650 2 8 ly 
: 652 2 8 eve
: 654 2 5 ry
: 656 3 5 bod
: 659 3 8 y 
: 662 6 8 breathes 
- 668
: 674 2 5 and 
: 676 1 12 eve
: 678 2 10 ry
: 680 2 10 bod
: 682 2 8 y 
- 684
: 688 4 13 eve
: 692 4 12 ry
: 696 2 13 bod
: 698 4 12 y 
: 702 3 10 bleeds 
- 705
: 708 2 10 we're 
: 710 2 8 no 
: 712 2 8 differ
: 714 2 5 ent 
- 716
: 718 2 0 we're
: 720 3 1  all 
: 723 3 5 the 
: 726 4 3 same 
- 730
: 734 4 1 play
: 738 4 5 ers 
: 742 4 3 in 
: 746 3 0 the 
: 752 2 1 ga
: 754 2 3 ~a
: 756 2 5 ~a
: 758 2 8 ~a
* 760 2 10 ~a
: 762 5 8 ~ame
- 768
: 768 1 5 ab
: 770 1 5 so
: 772 1 5 lute
: 774 1 5 ly 
: 776 2 8 eve
: 778 1 8 ry
: 779 3 8 bod
: 782 2 8 y 
- 784
: 784 1 6 eve
: 786 1 6 ry
: 787 2 6 bod
: 789 3 5 y 
: 792 2 6 eve
: 794 2 5 ry
: 796 2 3 bod
: 798 2 1 y 
- 800
: 800 1 5 ab
: 802 1 5 so
: 804 1 5 lute
: 806 1 5 ly 
: 808 2 8 eve
: 810 1 8 ry
: 811 3 8 bod
: 814 2 8 y 
- 816
: 816 3 10 in 
: 819 3 8 the 
: 822 3 5 whole 
: 826 2 10 wide 
: 828 2 8 wo
: 830 1 5 ~orld
- 832
: 834 1 5 eve
: 835 1 5 ry
: 836 1 5 bod
: 837 2 5 y 
: 839 6 8 breathes
- 845
: 848 2 6 eve
: 850 1 6 ry
* 851 3 6 bod
: 854 2 5 y 
: 856 2 3 ble
: 858 2 1 ~eds 
- 864
: 864 1 5 ab
: 866 1 5 so
: 868 1 5 lute
: 870 1 5 ly 
: 872 2 0 eve
: 874 1 0 ry
: 875 3 0 bod
: 878 9 1 y 
- 887
: 896 1 5 ab
: 898 1 5 so
: 900 1 5 lute
: 902 1 5 ly 
: 904 2 8 eve
: 906 1 8 ry
: 907 3 8 bod
: 910 2 8 y 
- 913
: 928 1 5 ab
: 930 1 5 so
: 932 1 5 lute
: 934 1 5 ly 
: 936 2 0 eve
: 938 1 0 ry
: 939 3 0 bod
: 942 9 1 y 
- 951
: 960 1 5 ab
: 962 1 5 so
: 964 1 5 lute
: 966 1 5 ly 
: 968 2 8 eve
: 970 1 8 ry
: 971 3 8 bod
: 974 2 8 y 
- 977
: 992 1 5 ab
: 994 1 5 so
: 996 1 5 lute
: 998 1 5 ly 
: 1000 2 0 eve
: 1002 1 0 ry
: 1003 3 0 bod
: 1006 3 1 y 
- 1009
: 1012 2 5 eve
: 1014 2 8 ry 
: 1016 4 10 boy 
: 1020 4 12 and 
: 1024 3 13 gi
: 1027 1 12 ~i
: 1028 12 8 ~irl
- 1044
: 1044 2 5 eve
: 1046 1 8 ry 
: 1048 2 10 wom
: 1050 1 10 an 
: 1052 3 10 and 
* 1056 6 10 chi
* 1062 6 8 ~i
* 1068 4 10 ~ild
- 1074
: 1076 2 5 eve
: 1078 2 8 ry 
: 1080 2 10 fath
: 1082 2 10 er 
: 1084 3 12 and 
: 1088 2 12 so
: 1090 6 10 ~o
: 1096 2 10 ~o
: 1098 2 8 ~o
* 1100 6 13 ~o
: 1106 2 12 ~o
: 1108 2 10 ~o
: 1110 1 8 ~on
- 1112
: 1114 2 8 I 
: 1116 2 8 said 
: 1118 2 8 now 
: 1120 2 10 eve
: 1122 1 8 ry
: 1123 3 10 o
: 1126 2 8 ~one
- 1129
: 1130 2 8 yes 
: 1132 3 8 now 
: 1136 2 10 eve
: 1138 1 8 ry
: 1139 3 10 o
: 1142 3 8 ~one
- 1147
: 1156 2 5 eve
: 1158 1 5 ry
: 1160 2 5 bod
: 1162 2 3 y 
: 1164 2 3 needs 
: 1166 2 1 a 
: 1168 3 1 hum
: 1171 3 3 an 
: 1174 5 3 touch 
- 1181
: 1188 2 5 eve
: 1190 2 5 ry
: 1192 1 5 bod
: 1194 2 3 y 
- 1197
: 1200 4 13 eve
: 1204 3 12 ry
: 1208 2 13 bod
: 1210 1 13 y 
: 1212 2 12 needs 
: 1214 2 10 love 
- 1217
: 1220 1 10 I'm 
: 1222 2 8 no 
: 1224 2 8 differ
: 1226 1 5 ent 
- 1227
: 1228 2 5 I 
: 1230 2 1  am 
: 1232 3 1 just 
: 1235 3 5 the 
: 1238 3 3 same 
- 1241
: 1242 2 0 a 
: 1246 4 1 play
: 1250 4 5 er 
: 1254 4 3 in 
: 1258 3 0 the 
: 1264 2 1 ga
: 1266 4 3 ~a
: 1270 4 5 ~a
: 1274 2 10 ~a
: 1276 3 8 ~ame
- 1280
: 1280 1 5 ab
: 1282 1 5 so
: 1284 1 5 lute
: 1286 1 5 ly 
: 1288 2 8 eve
: 1290 1 8 ry
: 1291 3 8 bod
: 1294 2 8 y 
- 1296
: 1296 1 6 eve
: 1298 1 6 ry
: 1299 2 6 bod
: 1301 3 5 y 
: 1304 2 6 eve
: 1306 2 5 ry
: 1308 2 3 bod
: 1310 2 1 y 
- 1312
: 1312 1 5 ab
: 1314 1 5 so
: 1316 1 5 lute
: 1318 1 5 ly 
: 1320 2 8 eve
: 1322 1 8 ry
: 1323 3 8 bod
: 1326 2 8 y 
- 1328
: 1328 3 10 in 
: 1331 3 8 the 
: 1334 3 5 whole 
: 1338 2 10 wide 
* 1340 2 8 wo
* 1342 1 5 ~orld
- 1344
: 1346 1 5 eve
: 1347 1 5 ry
: 1348 1 5 bod
: 1349 2 5 y 
* 1351 5 8 breathes 
- 1356
: 1358 1 5 and 
: 1360 2 6 eve
: 1362 1 6 ry
: 1363 3 6 bod
: 1366 2 5 y 
* 1368 2 3 ble
* 1370 2 1 ~eds 
- 1376
: 1376 1 5 ab
: 1378 1 5 so
: 1380 1 5 lute
: 1382 1 5 ly 
: 1384 2 0 eve
: 1386 1 0 ry
: 1387 3 0 bod
: 1390 9 1 y 
- 1400
: 1408 1 5 ab
: 1410 1 5 so
: 1412 1 5 lute
: 1414 1 5 ly 
: 1416 2 8 eve
: 1418 1 8 ry
: 1419 3 8 bod
: 1422 2 8 y 
- 1424
: 1424 1 6 eve
: 1426 1 6 ry
: 1427 2 6 bod
: 1429 3 5 y 
: 1432 2 6 eve
: 1434 2 5 ry
: 1436 2 3 bod
: 1438 2 1 y 
- 1440
: 1440 1 5 ab
: 1442 1 5 so
: 1444 1 5 lute
: 1446 1 5 ly 
: 1448 2 8 eve
: 1450 1 8 ry
: 1451 3 8 bod
: 1454 2 8 y 
- 1456
: 1456 3 10 in 
: 1459 3 8 the 
: 1462 3 5 whole 
: 1466 2 10 wide 
: 1468 2 8 wo
: 1470 1 5 ~orld
- 1472
: 1474 1 5 eve
: 1475 1 5 ry
: 1476 1 5 bod
: 1477 2 5 y 
: 1479 5 8 breathes 
- 1484
: 1486 1 5 and 
: 1488 2 6 eve
: 1490 1 6 ry
: 1491 3 6 bod
: 1494 2 5 y 
: 1496 2 3 ble
: 1498 2 1 ~eds 
- 1504
: 1504 1 5 ab
: 1506 1 5 so
: 1508 1 5 lute
: 1510 1 5 ly 
: 1512 2 0 eve
: 1514 1 0 ry
: 1515 3 0 bod
: 1518 9 1 y 
- 1527
: 1536 1 5 ab
: 1538 1 5 so
: 1540 1 5 lute
: 1542 1 5 ly 
: 1544 2 8 eve
: 1546 1 8 ry
: 1547 3 8 bod
: 1550 2 8 y 
- 1552
: 1568 1 5 ab
: 1570 1 5 so
: 1572 1 5 lute
: 1574 1 5 ly 
: 1576 2 8 eve
: 1578 1 8 ry
: 1579 3 8 bod
: 1582 2 8 y 
- 1585
: 1600 1 5 ab
: 1602 1 5 so
: 1604 1 5 lute
: 1606 1 5 ly 
: 1608 2 8 eve
: 1610 1 8 ry
: 1611 3 8 bod
: 1614 2 8 y 
- 1616
: 1616 1 6 eve
: 1618 1 6 ry
: 1619 2 6 bo
: 1621 2 5 dy 
: 1623 3 6 eve
: 1626 2 5 ry
: 1628 2 3 bo
: 1630 2 1 dy
- 1632
: 1632 1 5 ab
: 1634 1 5 so
: 1636 1 5 lute
: 1638 1 5 ly 
: 1640 2 0 eve
: 1642 1 0 ry
: 1643 3 0 bod
: 1646 9 1 y 
- 1656
: 1664 1 5 ab
: 1666 1 5 so
: 1668 1 5 lute
: 1670 1 5 ly 
: 1672 2 8 eve
: 1674 1 8 ry
: 1675 3 8 bod
: 1678 2 8 y 
E
