#TITLE:War is Not Over (Lettland 2005)
#ARTIST:Walters & Kazha
#LANGUAGE:English
#EDITION:Ultrastar Eurovision Edition Vol.3
#GENRE:Pop
#MP3:Walters & Kazha - War is Not Over (Lettland 2005).mp3
#COVER:Walters & Kazha - War is Not Over (Lettland 2005) [CO].jpg
#BACKGROUND:Walters & Kazha - War is Not Over (Lettland 2005) [BG].jpg
#VIDEO:Walters & Kazha - War is Not Over (Lettland 2005) [VD#14].avi
#VIDEOGAP:14
#BPM:104,975
#GAP:2890
: 0 4 12 Na-
: 6 2 11 n
: 8 2 7 a-
: 10 2 7 n
: 12 2 5 a-
: 14 2 5 na, 
- 18
: 52 16 12 Uhm, 
: 70 3 14 na-
: 74 2 14 n
: 76 1 16 a-
: 78 6 12 na, 
: 90 1 7 o
: 92 1 9 - 
: 94 1 7 - 
: 96 4 7 h, 
- 102
: 110 1 7 I 
: 112 2 12 slow
: 114 2 12 ly 
: 118 2 19 walk 
: 124 2 12 in
: 126 2 11 to 
: 130 2 11 the 
: 134 2 19 night 
: 140 2 11 a
: 142 2 9 round, 
- 146
: 154 1 12 To 
: 156 1 14 see 
: 158 1 16 how 
: 160 3 17 dreams 
: 164 1 16 of 
: 166 2 14 pe
: 168 2 12 - 
: 170 2 12 p
: 172 1 14 le 
: 174 2 14 die, 
- 178
: 206 1 11 They 
: 208 2 12 gent
: 210 2 12 ly 
: 214 2 19 fall 
- 220
: 220 1 12 From 
: 222 2 11 win
* 226 2 11 dows 
: 230 2 19 all 
: 236 2 11 a
: 238 2 9 round, 
- 242
: 250 1 12 And 
: 252 1 14 crash 
: 254 1 16 a
: 256 3 17 gainst 
: 260 1 16 the 
: 262 2 14 gro
: 264 1 12 und 
: 266 2 12 li
: 268 1 14 ke 
: 270 4 14 glass, 
- 276
: 282 1 14 And 
: 284 1 16 I'm 
: 286 1 17 so 
: 288 1 17 so
: 289 3 19 r
: 292 1 17 ry 
: 294 2 16 I'm 
: 298 2 14 so 
: 302 1 14 he
: 303 3 16 lp
: 306 2 16 less 
- 309
: 310 2 20 I
: 312 1 16 n 
: 314 2 16 this 
: 318 4 23 an
: 322 2 21 gry
: 324 1 16 - 
: 326 2 16 world, 
- 332
: 332 1 12 If 
: 334 4 19 on
: 338 1 17 l
: 340 1 12 y 
: 342 2 12 I 
: 348 1 12 could 
: 350 3 19 change 
: 354 2 17 it 
: 358 2 12 for 
: 362 1 12 o
: 363 2 14 ne 
: 366 4 14 day, 
- 372
: 390 1 7 The 
: 392 1 19 war 
: 394 1 17 is 
: 396 1 16 not 
: 398 2 14 o
: 400 2 12 - 
: 402 2 12 ver, 
- 408
: 408 2 19 E
: 410 2 17 very
: 412 1 16 one 
: 414 2 14 kno
: 416 1 12 ws 
: 418 2 12 it, 
- 424
: 424 1 12 It's 
: 426 1 14 just 
: 428 1 16 a 
* 430 4 16 rea
: 434 2 17 son 
: 438 1 7 to 
: 440 2 19 make 
: 443 1 17 us 
: 446 1 16 be
: 447 1 14 - 
: 448 3 14 lieve, 
- 452
: 454 1 7 That 
: 456 2 19 some
: 458 1 17 one's 
: 460 1 16 a 
: 462 2 14 lo
: 464 2 12 - 
: 466 2 12 ser, 
- 472
: 472 2 19 Some
: 474 1 17 one's 
: 476 1 16 a 
: 478 2 14 wi
: 480 2 12 n
: 482 2 12 ner, 
- 485
: 486 1 9 To 
: 488 1 12 make 
: 490 1 14 us 
: 492 2 16 be
: 494 2 16 lieve 
: 498 2 17 that's 
- 501
: 502 1 7 The 
: 504 1 19 way 
: 506 2 17 it 
: 510 1 16 should 
: 512 3 14 be, 
- 517
: 522 2 12 Bu
: 524 1 11 t 
: 526 2 11 I 
: 528 8 12 - 
: 548 1 12 don't 
: 550 3 14 wan
: 554 1 12 na 
: 556 2 11 be
: 558 2 11 lie
: 560 4 12 ve, 
- 565
: 566 4 19 In 
: 572 1 12 the 
: 574 4 11 sto
: 578 2 11 ry 
: 582 2 19 they 
: 586 2 11 a
: 588 1 9 ll 
: 590 2 9 tell, 
- 594
: 602 1 12 This 
: 604 2 14 fai
: 606 1 16 ry
* 608 2 17 tale 
: 612 1 16 has 
: 614 2 14 go
: 616 1 12 ne 
: 618 2 12 to
: 620 1 14 o 
: 622 1 12 fa
: 623 7 14 r, 
- 632
: 650 1 7 I 
: 652 1 12 take 
: 654 1 11 a 
: 656 2 12 step 
- 659
: 660 1 12 And 
: 662 2 19 dare 
: 666 2 12 my
: 670 2 11 self 
: 678 2 19 to 
: 682 2 11 b
: 684 1 9 e 
: 686 2 9 free, 
- 690
: 698 1 12 To 
: 700 1 14 see 
: 702 1 16 how 
: 704 4 17 beau
: 708 1 16 ti
: 710 2 14 fu
: 712 1 12 l 
: 714 2 12 w
: 716 1 14 e 
: 718 1 12 a
: 719 3 14 re, 
- 724
: 730 1 14 That 
: 732 1 16 e
: 734 1 17 very
: 736 2 19 one 
: 740 1 17 can 
: 742 2 16 b
: 744 1 14 e 
: 746 1 14 a 
: 750 3 16 star, 
- 754
: 756 1 16 If 
: 758 2 20 o
: 760 2 16 n
: 762 2 16 ly 
: 766 2 23 we 
: 770 2 21 would 
: 774 2 16 start
- 780
: 780 1 12 Be
* 782 3 14 lieve 
: 786 2 12 in 
: 790 3 12 dreams, 
- 794
: 796 1 12 Be
: 798 3 14 lieve 
: 802 2 12 in 
: 806 2 12 who 
: 810 1 12 w
: 811 2 14 e 
: 814 1 12 a
: 815 7 14 re, 
- 824
: 838 1 7 The 
: 840 1 19 war 
: 842 1 17 is 
: 844 1 16 not 
: 846 2 14 o
: 848 2 12 - 
: 850 2 12 ver, 
- 856
: 856 2 19 E
: 858 2 17 very
: 860 1 16 one 
: 862 2 14 kno
: 864 1 12 ws 
: 866 2 12 it, 
- 872
: 872 1 12 It's 
: 874 1 14 just 
: 876 1 16 a 
: 878 4 16 rea
: 882 2 17 son 
: 886 1 7 to 
: 888 2 19 make 
: 891 1 17 us 
: 893 1 16 be
: 894 2 14 - 
: 896 3 14 lieve, 
- 900
: 902 1 7 That 
: 904 2 19 some
: 906 1 17 one's 
: 908 1 16 a 
: 910 2 14 lo
: 912 2 12 - 
: 914 2 12 ser, 
- 920
: 920 2 19 Some
: 922 1 17 one's 
: 924 1 16 a 
: 926 2 14 wi
: 928 2 12 n
: 930 2 12 ner, 
- 933
: 934 1 9 To 
: 936 1 12 make 
: 938 1 14 us 
: 940 2 16 be
: 942 2 16 lieve 
: 946 2 17 that's 
- 949
: 950 1 7 The 
: 952 1 19 way 
* 954 2 17 it 
: 957 1 16 sho
: 958 1 14 uld 
: 960 3 14 be, 
- 965
: 970 2 12 Bu
: 972 1 11 t 
: 974 2 11 I 
: 976 8 12 - 
: 996 1 12 don't 
: 998 3 14 wan
: 1002 1 12 na 
: 1004 2 11 be
: 1006 2 11 lie
: 1008 4 12 ve, 
- 1014
: 1042 2 24 Bu
: 1044 1 23 t 
: 1046 2 23 I 
: 1048 10 24 - 
: 1068 1 24 don't 
: 1070 4 26 wan
: 1074 1 24 na 
: 1076 2 23 be
: 1078 10 24 lieve, 
- 1090
: 1094 2 14 No, 
: 1098 2 14 no, 
: 1102 2 14 n
: 1104 1 12 o, 
- 1106
: 1106 2 12 Bu
: 1108 1 11 t 
: 1110 2 11 I
: 1112 10 12 - 
: 1132 1 12 don't 
: 1134 1 12 wa
: 1135 3 14 n
: 1138 1 12 na 
: 1140 2 11 be
: 1142 2 11 lie
: 1144 8 12 ve, 
E
