#TITLE:Luzia
#ARTIST:Wanda
#MP3:Wanda - Luzia.mp3
#VIDEO:Wanda - Luzia.mkv
#COVER:Wanda - Luzia.jpg
#BPM:210.99
#GAP:3493
#VIDEOGAP:14
#ENCODING:UTF8
#LANGUAGE:German
#YEAR:2014
#AUTHOR:Schlackmeister
: 0 8 9 Hey!
- 8
: 129 3 1 Weil
: 133 3 1  du
: 137 3 1  wei
: 141 3 1 ße
: 145 3 1  Zäh
: 149 1 1 ne
: 151 3 1  hast
- 156
: 159 1 1 ob
: 161 2 1 wohl
: 164 2 1  du
: 167 3 1  stän
: 171 4 2 dig
: 176 4 1  rau
: 180 3 -1 chst
- 185
: 189 1 1 Ist
: 191 1 1  der
: 193 3 6  Thom
: 197 3 4 as
: 201 3 2  in
: 205 3 6  dich
: 209 2 4  ver
: 212 3 2 liebt
: 216 2 2  und
: 219 2 4  ich
: 223 6 1  auch
- 231
: 245 3 7 (Na,
: 249 1 7  gib
: 251 4 7  iam!)
- 257
: 261 4 1 Ich
: 266 1 1  bin
: 268 3 1  ein
: 272 4 1  ein
: 277 2 1 fach
: 281 2 1 er
: 285 2 1  Typ
- 289
: 293 1 1 Oh
: 295 3 1 ne
: 299 4 2  viel
: 304 1 1  Hi
: 306 4 -1 rn
- 310
: 313 1 1 Ab
: 315 2 1 er
* 321 4 6  Ba
* 325 2 4 by
* 327 2 2  ich
* 333 3 6  bra
* 336 3 4 uch
* 339 3 2  dich
: 343 4 1  nah
: 348 2 1  bei
: 352 8 -3  mir
- 361
: 389 1 -1 Ich
: 391 3 -1  glaub
: 395 3 1  das
: 400 8 -1  sieht
- 408
: 412 2 -10 Ein
* 415 11 2  je
: 428 2 -10 der
* 431 9 2  ein
- 440
: 447 1 2 Am
: 449 3 6  En
: 453 1 4 de
: 455 3 2  sein
: 459 3 4 es
: 463 5 1  Leb
: 469 2 1 ens
- 472
: 473 1 1 Wird
: 476 1 1  ein
: 479 5 2  je
: 485 1 2 der
: 487 3 2  ein
: 491 3 -1 sam
: 495 4 -3  sein
- 499
: 501 1 7 (Al
: 503 1 7 so
: 505 1 7  bit
: 507 3 7 te!)
- 510
: 513 3 1 Tu
: 517 3 1  mir
: 521 5 1  weh,
* 533 3 1  Lu
* 537 3 1 zi
* 541 6 1 a
- 549
: 573 1 1 Od
: 575 1 1 er
* 577 3 6  irg
: 581 3 4 end
: 585 2 2 wer
* 589 3 6  an
: 593 3 4 ders
: 597 2 2  tut's
: 601 3 4  statt
: 605 5 1  dir
- 611
: 628 2 7 (Na,
: 632 1 7  gib
: 634 4 7  iam!)
- 639
* 641 3 1 Tu
* 645 3 1  mir
* 649 5 1  weh,
: 661 3 1  Lu
: 665 3 2 zi
: 669 6 1 a
: 675 3 2 ~
: 678 5 1 ~
: 684 5 1 ~
- 690
: 701 1 1 Od
: 703 1 1 er
: 705 3 6  irg
: 709 3 4 end
: 713 2 2 wer
: 717 3 6  an
: 721 3 4 ders
: 725 3 2  tut's
: 729 3 4  statt
: 733 6 1  dir
- 741
: 756 2 7 (Na,
: 760 1 7  gib
: 762 5 7  iam!)
- 768
: 769 3 1 Weil
: 773 3 1  ich
: 777 3 1  tau
: 781 3 1 send
: 785 3 1  Wün
: 789 1 1 sche
: 791 3 1  hab
- 795
: 799 1 1 Ob
: 801 2 1 wohl
: 805 1 1  ich
: 807 3 1  gar
: 811 3 2  nichts
: 815 6 1  brauch
- 823
: 829 1 1 Ist
: 831 1 1  der
: 833 4 6  Thom
: 837 2 4 as
: 841 4 2  in
: 845 2 6  dich
: 849 2 4  ver
: 852 2 2 liebt
* 855 3 2  und
* 859 2 4  ich
* 863 6 1  auch
- 869
: 884 2 7 (Na,
: 888 1 7  gib
: 890 6 7  iam!)
- 896
: 900 3 1 Ich
: 905 1 1  bin
: 907 2 1  ein
: 911 4 1  zwei
: 917 2 1 fach
: 921 2 1 er
: 925 2 1  Typ
- 928
: 933 1 1 Und
: 935 3 1  nur
: 939 2 2  ein
: 943 6 1  Hirn
- 949
: 953 1 1 Ab
: 955 2 1 er
* 961 4 6  Ba
* 965 2 4 by
* 967 2 2  ich
* 972 3 6  bra
* 975 3 4 uch
* 979 3 2  dich
: 983 3 1  nah
: 987 3 1  bei
: 991 6 -3  mir
- 998
: 1029 1 -1 Ich
: 1031 2 -1  glaub
: 1035 2 1  das
: 1039 9 -1  sieht
- 1049
: 1053 2 -10 Ein
* 1055 12 2  je
: 1069 2 -10 der
* 1071 11 2  ein
- 1083
: 1087 1 1 Am
: 1089 3 6  En
: 1093 1 4 de
: 1095 3 2  sein
: 1099 2 4 es
* 1103 4 1  Leb
* 1108 3 1 ens
* 1113 1 1  wird
* 1115 1 1  ein
* 1118 5 2  je
: 1125 1 2 der
: 1127 2 2  ein
: 1131 2 -1 sam
: 1135 3 -3  sein
- 1138
: 1140 1 7 (Al
: 1142 1 7 so
: 1144 1 7  bit
: 1146 3 7 te!)
- 1150
* 1153 3 1 Tu
* 1157 3 1  mir
* 1161 6 1  weh
- 1169
: 1173 3 1 Lu
: 1177 2 1 zi
: 1181 6 1 a
- 1188
: 1213 1 1 Od
: 1215 1 1 er
: 1217 4 6  irg
: 1221 4 4 end
: 1225 2 2 wer
: 1229 4 6  and
: 1233 4 4 ers
: 1237 2 2  tut's
: 1241 2 4  statt
: 1245 5 1  dir
- 1251
: 1268 2 7 (Na,
: 1273 1 7  gib
: 1275 3 7  iam!)
- 1278
: 1281 3 1 Tu
: 1285 3 1  mir
: 1289 6 1  weh
- 1297
: 1301 3 1 Lu
: 1305 3 2 zi
* 1309 6 1 a
* 1317 5 1 ~
* 1324 5 1 ~
- 1330
: 1341 1 1 Od
: 1343 1 1 er
: 1345 4 6  irg
: 1349 4 4 end
: 1353 2 2 wer
: 1357 4 6  and
: 1361 4 4 ers
: 1365 3 2  tut's
: 1369 2 4  statt
: 1373 5 1  dir
- 1379
: 1396 3 7 (Na,
: 1400 1 7  gib
: 1402 5 7  i
: 1407 4 9 am!)
- 1411
* 1669 6 1 Mein
* 1677 12 -1  Glied
- 1691
: 1693 1 -10  unt
: 1695 1 -10 er
: 1697 5 2 wirft
: 1703 3 2  sich
: 1709 3 -3  der
: 1713 3 2  Dik
: 1717 2 -3 ta
: 1721 4 2 tur
: 1725 8 1 ~
- 1733
: 1751 1 1 Ah,
: 1753 1 1 Dei
: 1755 3 1 nes
: 1761 2 5  Mu
: 1763 4 4 n
: 1767 5 2 des,
* 1773 7 2  Ba
* 1781 6 2 by
- 1788
: 1793 3 1 Tu
: 1797 3 1  mir
: 1801 5 1  weh,
: 1813 3 1  Lu
: 1817 3 1 zi
: 1821 7 1 a
- 1829
: 1853 1 1 Od
: 1855 1 1 er
* 1857 4 6  irg
* 1861 4 4 end
* 1865 2 2 wer
* 1869 4 6  and
* 1873 4 4 ers
* 1877 2 2  tut's
: 1881 2 4  statt
: 1885 6 1  dir
- 1892
: 1908 2 7 (Na,
: 1913 1 7  gib
: 1915 3 7  iam!)
- 1918
: 1921 3 1 Tu
: 1925 3 1  mir
: 1929 6 1  weh
- 1936
: 1941 3 1 Lu
: 1945 3 2 zi
: 1949 5 1 a
: 1957 6 1 ~
: 1965 6 1 ~
- 1972
: 1981 1 1 Od
: 1983 1 1 er
: 1985 4 6  irg
: 1989 2 4 end
: 1992 2 2 wer
: 1997 4 6  and
: 2001 3 4 ers
: 2005 2 2  tut's
: 2009 2 4  statt
: 2013 8 1  dir
- 2021
: 2037 2 7 (Noch
: 2041 1 7  gib
: 2043 3 7  iam!)
- 2047
: 2049 3 1 Tu
: 2053 2 1  mir
: 2057 4 1  weh
- 2063
: 2069 3 1 Lu
: 2073 3 2 zi
* 2077 22 1 a
- 2100
: 2109 1 1 Od
: 2111 1 1 er
: 2113 4 6  irg
: 2117 4 4 end
: 2121 2 2 wer
: 2125 4 6  and
: 2129 4 4 ers
: 2133 2 2  tut's
: 2137 2 4  statt
: 2141 9 1  dir
- 2151
: 2164 2 7 (Noch
: 2168 1 7  gib
: 2170 3 7  iam!)
- 2174
* 2177 3 7 Tu
* 2181 4 6  mir
* 2185 6 4  weh,
: 2197 3 7  Lu
: 2201 3 7 zi
: 2205 8 4 a
- 2214
: 2237 1 4 Od
: 2239 1 4 er
: 2242 2 7  irg
: 2245 3 6 end
: 2249 2 4 wer
: 2253 3 7  and
: 2257 2 6 ers
: 2260 3 4  tut's
: 2264 4 7  statt
: 2271 2 4  di
: 2273 5 7 r
- 2278
: 2293 2 7 (Noch
: 2297 1 7  gib
: 2300 13 7  iam!)
E