#TITLE:The Sun
#ARTIST:Western Disco
#MP3:Western Disco - The Sun.mp3
#VIDEO:Western Disco - The Sun.mp4
#COVER:Western Disco - The Sun [CO].jpg
#BPM:240
#GAP:38815
#ENCODING:UTF8
#LANGUAGE:English
#GENRE:Electronic
#YEAR:2013
#CREATOR:gun88
: 0 5 9 Na
: 6 3 7  na
: 10 8 5  na
- 24
: 26 4 7 Na
: 32 4 5  na
: 38 4 3  na
: 44 6 0  na
- 60
: 64 4 3 Na
: 70 4 0  na
: 76 4 -2  na
- 87
: 90 4 5 Na
: 96 4 5  na
: 102 4 5  na
: 108 4 -2  na
- 124
: 128 5 9 Sun
: 134 3 7  a
: 138 8 5 way
- 152
: 154 4 7 Sun
: 160 4 5  up
: 166 4 3  the
: 172 6 0  light
- 188
: 192 4 3 Sun
: 198 4 0  is
: 204 4 -2  up
- 215
: 218 4 5 Sun
: 224 4 5  is
: 230 4 5  the
: 236 4 -2  life
- 252
: 256 5 9 Sun
: 262 3 7  a
: 266 8 5 way
- 280
: 282 4 7 Sun
: 288 4 5  up
: 294 4 3  the
: 300 6 0  light
- 316
: 320 4 3 Sun
: 326 4 0  is
: 332 4 -2  up
- 343
: 346 4 5 Sun
: 352 4 5  is
: 358 4 5  the
: 364 4 -2  life
- 380
: 384 5 9 Sun
: 390 3 7  a
: 394 8 5 way
- 408
: 410 4 7 Sun
: 416 4 5  of
: 422 4 3  the
: 428 6 0  light
- 444
: 448 4 3 Sun
: 454 4 0  is
: 460 4 -2  up
- 471
: 474 4 5 Sun
: 480 4 5  is
: 486 4 5  the
: 492 4 -2  life
- 508
: 512 5 9 Sun
: 518 3 7  a
: 522 8 5 way
- 536
: 538 4 7 Sun
: 544 4 5  of
: 550 4 3  the
: 556 6 0  light
- 572
: 576 4 3 Sun
: 582 4 0  is
: 588 4 -2  up
- 599
: 602 3 5 Sun
: 606 4 5  is...
- 614
: 616 24 15 Ah
: 646 42 12 ~
- 697
: 700 3 12 Ah
: 704 1 10 ~
: 706 3 7 ~
: 710 1 5 ~
: 712 12 7 ~
: 726 4 10 ~
: 732 20 10 ~
- 784
: 894 4 9 Lost
: 900 4 9  some
: 906 4 9 where
: 914 1 9  in
: 916 1 9  the
* 918 5 9  morn
* 924 6 10 ing
- 940
: 958 5 10 One
: 964 1 10  in
: 966 2 10  a
: 970 5 10  mil
: 976 5 5 lion
: 982 4 9  lights
: 988 3 7 ~
: 992 4 5 ~
- 1006
: 1022 4 9 All
: 1028 1 9  that
: 1030 2 9  I
: 1034 6 9  know a
: 1042 3 9 bout
: 1046 3 9  eve
* 1050 2 10 ry
* 1054 6 10 thing
- 1070
: 1086 5 10 Ris
: 1092 4 10 ing
: 1098 4 10  in
: 1104 5 5  your
: 1110 5 9  eyes
: 1116 3 7 ~
: 1120 6 5 ~
- 1136
* 1150 5 9 Like
* 1156 3 7  the
: 1160 8 5  sky
- 1172
: 1174 3 5 The
: 1178 4 7  sun
: 1184 4 5  in
: 1190 4 3  my
: 1196 6 0  eyes
- 1211
: 1214 4 3 Blind
: 1220 4 0 ed
: 1226 4 -2  by
- 1236
: 1238 3 3 The
: 1242 8 5  fires
* 1252 1 5  of
* 1254 2 5  the
: 1258 3 -2  sum
: 1262 4 0 mer
- 1276
: 1280 5 9 Sun
: 1286 3 7  a
: 1290 8 5 way
- 1304
: 1306 4 7 Son
: 1312 4 5  of
: 1318 4 3  the
: 1324 6 0  light
- 1340
: 1344 4 3 Sun
: 1350 4 0  is
: 1356 4 -2  up
- 1367
: 1370 4 5 Sun
: 1376 4 5  is
: 1382 4 5  the
: 1388 4 -2  life
- 1404
: 1408 5 9 Sun
* 1414 3 7  a
: 1418 8 5 way
- 1432
: 1434 4 7 Sun
: 1440 4 5  up
: 1446 4 3  the
: 1452 6 0  light
- 1468
: 1472 4 3 Sun
: 1478 4 0  is
: 1484 4 -2  up
- 1495
: 1498 4 5 Sun
: 1504 4 5  is
: 1510 4 5  the
: 1516 4 -2  life
- 1532
: 1536 5 9 Sun
: 1542 3 7  a
: 1546 8 5 way
- 1560
* 1562 4 7 Sun
* 1568 4 5  up
: 1574 4 3  the
: 1580 6 0  light
- 1596
: 1600 4 3 Sun
: 1606 4 0  is
: 1612 4 -2  up
- 1623
: 1626 4 5 Sun
: 1632 4 5  is
: 1638 4 5  the
: 1644 4 -2  life
- 1660
: 1664 5 9 Sun
: 1670 3 7  a
: 1674 8 5 way
- 1688
: 1690 4 7 Sun
: 1696 4 5  of
: 1702 4 3  the
: 1708 6 0  light
- 1724
: 1728 4 3 Sun
: 1734 4 0  is
: 1740 4 -2  up
- 1751
* 1754 4 5 Sun
* 1760 4 5  is
: 1766 4 5  the
: 1772 4 -2  life
- 1788
: 1792 5 9 Sun
: 1798 3 7  a
: 1802 8 5 way
- 1816
: 1818 4 7 Sun
: 1824 4 5  of
: 1830 4 3  the
: 1836 6 0  light
- 1852
: 1856 4 3 Sun
: 1862 4 0  is
: 1868 4 -2  up
- 1879
: 1882 4 5 Sun
: 1888 4 5  is
: 1894 4 5  the
: 1900 4 -2  life
- 1936
: 2024 6 5 Keep
: 2032 6 7  me
* 2040 8 9  warm
- 2054
: 2056 6 7 Keep
: 2064 6 9  me
* 2072 8 10  safe
- 2086
: 2088 6 9 In
: 2096 6 10  my
* 2104 8 12  dream
- 2118
: 2120 6 10 In
: 2128 6 12  my
* 2136 26 14  dreams,
: 2168 26 12  yeah
- 2226
: 2304 5 9 Like
: 2310 3 7  the
: 2314 8 5  sky
- 2326
: 2328 3 5 The
* 2332 4 7  sun
: 2338 4 5  in
: 2344 4 3  my
: 2350 6 0  eyes
- 2365
: 2368 4 3 Blind
: 2374 4 0 ed
: 2380 4 -2  by
- 2390
: 2392 3 3 The
: 2396 8 5  fires
: 2406 1 5  of
: 2408 2 5  the
: 2412 3 -2  sum
: 2416 4 0 mer
- 2429
: 2432 5 9 Sun
: 2438 3 7  a
: 2442 8 5 wake
- 2456
: 2458 4 7 Son
: 2464 4 5  of
: 2470 4 3  the
: 2476 6 0  light
- 2492
: 2496 4 3 Sun
: 2502 4 0  is
: 2508 4 -2  up
- 2519
: 2522 4 5 Sun
: 2528 4 5  is
: 2534 4 5  the
: 2540 4 -2  life
- 2556
* 2560 5 9 Sun
* 2566 3 7  a
: 2570 8 5 way
- 2584
: 2586 4 7 Sun
: 2592 4 5  up
: 2598 4 3  the
: 2604 6 0  light
- 2620
: 2624 4 3 Sun
: 2630 4 0  is
: 2636 4 -2  up
- 2647
: 2650 4 5 Sun
: 2656 4 5  is
: 2662 4 5  the
: 2668 4 -2  life
- 2684
: 2688 5 9 Sun
: 2694 3 7  a
: 2698 8 5 way
- 2712
: 2714 4 7 Sun
: 2720 4 5  up
: 2726 4 3  the
: 2732 6 0  light
- 2748
: 2752 4 3 Sun
: 2758 4 0  is
: 2764 4 -2  up
- 2775
: 2778 4 5 Sun
: 2784 4 5  is
: 2790 4 5  the
: 2796 4 -2  life
- 2812
* 2816 5 9 Sun
* 2822 3 7  a
: 2826 8 5 way
- 2840
: 2842 4 7 Sun
: 2848 4 5  of
: 2854 4 3  the
: 2860 6 0  light
- 2876
: 2880 4 3 Sun
: 2886 4 0  is
: 2892 4 -2  up
- 2903
: 2906 4 5 Sun
: 2912 4 5  is
: 2918 4 5  the
: 2924 4 -2  life
- 2940
: 2944 5 9 Sun
: 2950 3 7  a
: 2954 8 5 way
- 2968
: 2970 4 7 Sun
: 2976 4 5  of
: 2982 4 3  the
: 2988 6 0  light
- 3004
: 3008 4 3 Sun
: 3014 4 0  is
: 3020 4 -2  up
- 3031
: 3034 4 5 Sun
: 3040 4 5  is
: 3046 4 5  the
: 3052 4 -2  life
E