#TITLE:My love
#ARTIST:Westlife
#MP3:Westlife - My love.mp3
#COVER:Westlife - My love [CO].jpg
#BACKGROUND:west[CO].jpg
#BPM:144
#GAP:9200
: 0 2 55 An 
: 2 3 60 emp
: 6 1 60 ty 
: 8 5 60 street, 
: 16 2 60 an 
: 18 1 62 emp
: 22 1 62 ty 
: 24 5 62 house
-29
: 32 2 57 Are 
: 34 3 59 hole 
: 38 1 59 in
: 40 4 59 side 
: 44 3 60 my 
: 48 6 60 heart
-55
: 64 2 55 I'm 
: 66 3 57 all 
: 70 1 57 al
: 72 6 57 one, 
: 80 1 57 the 
: 82 3 57 rooms 
: 86 3 57 are 
: 90 1 57 get
: 92 3 57 ting 
: 96 4 57 smal
: 100 12 55 ler
-115
: 128 2 55 I 
: 130 3 60 won
: 134 1 60 der 
: 136 6 60 how, 
: 144 2 60 I 
: 146 3 62 won
: 150 1 62 der 
: 152 6 62 why
-159
: 160 2 64 I 
: 162 3 67 won
: 166 1 67 der 
: 168 4 67 where 
: 172 4 64 they 
: 176 9 60 are
-186
: 192 2 55 The 
: 194 3 57 days 
: 198 1 57 we 
: 200 6 57 had, 
: 208 1 57 the 
: 210 3 57 songs 
: 214 1 57 we 
: 216 5 60 sang 
: 222 1 60 to
: 224 4 57 get
: 228 9 55 her
-237
: 238 2 59 O
: 240 2 57 h 
: 242 2 59 Ye
: 244 9 55 ah
-253
: 254 4 55 And 
: 258 8 65 all 
: 266 7 57 my 
: 274 9 59 love, 
: 288 2 55 we're 
: 290 3 60 hol
: 294 1 60 ding 
: 296 6 60 on 
: 302 2 64 for
: 304 4 62 ev
: 308 7 60 er
-316
: 322 3 65 Reach
: 326 1 65 ing 
: 328 5 65 for 
: 334 1 65 the 
: 336 6 65 love 
: 342 2 64 that 
: 344 4 62 seems 
: 348 4 60 so 
: 352 18 62 far
-372
: 378 4 60 So 
: 382 4 59 I 
: 386 4 57 say 
: 390 1 55 it 
: 392 4 55 in 
: 396 4 53 a 
: 400 6 55 breath
-407
: 410 4 60 Hope 
: 414 4 59 my 
: 418 4 57 dreams 
: 422 1 55 will 
: 424 4 55 take 
: 428 4 53 me 
: 432 6 52 there
-439
: 442 4 64 Where 
: 446 4 67 the 
: 450 4 65 skies 
: 454 1 64 are 
: 456 5 62 blue
-462
: 464 1 60 To 
: 466 4 64 see 
: 470 2 62 you 
: 472 6 60 once 
: 478 2 64 ag
: 480 9 62 ain 
: 490 4 57 my 
: 494 8 57 love
-503
: 506 4 60 All 
: 510 4 59 the 
: 514 4 57 seas 
: 518 1 55 go 
: 520 4 55 coast 
: 524 4 53 to 
: 528 6 55 coast
-535
: 538 4 60 Find 
: 542 4 59 the 
: 546 4 57 place 
: 550 1 55 I 
: 552 6 67 love 
: 558 2 65 the 
: 560 6 64 most
-568
: 570 4 64 Where 
: 574 2 67 the 
: 576 6 65 fields 
: 582 1 64 are 
: 584 5 62 green
-590
: 592 1 60 To 
: 594 4 64 see 
: 598 2 62 you 
: 600 6 60 once 
: 606 2 64 ag
: 608 10 62 ain 
: 634 2 59 m
: 636 1 60 y 
: 638 12 60 love
-655
: 672 2 55 I 
: 674 3 60 tried 
: 678 1 60 to 
: 680 5 60 read, 
: 688 2 60 I 
: 690 0 62 go 
: 694 1 62 to 
: 696 5 62 work
-702
: 704 2 57 I'm 
: 706 3 59 laugh
: 710 1 59 ing 
: 712 4 59 with 
: 716 3 60 my 
: 720 4 60 fr
: 724 2 59 ie
: 726 5 57 nds
-732
: 736 2 55 But 
: 738 3 57 I 
: 742 1 57 can't 
: 744 6 57 stop 
: 752 1 57 to 
: 754 3 57 keep 
: 758 2 57 my
: 760 4 60 self 
: 764 4 59 from 
: 768 4 57 think
: 772 8 55 ing
-780
: 780 2 59 O
: 782 1 57 h, 
: 784 2 59 N
: 786 2 57 o
: 788 4 55 o
-792
: 800 2 55 I 
: 802 3 60 won
: 806 1 60 der 
: 808 6 60 how, 
: 816 2 60 I 
: 818 3 62 won
: 822 1 62 der 
: 824 6 62 why
-831
: 832 2 64 I 
: 834 3 67 won
: 838 1 67 der 
: 840 4 67 where 
: 844 4 64 they 
: 848 9 60 are
-858
: 864 2 55 The 
: 866 3 57 days 
: 870 1 57 we 
: 872 6 57 had, 
: 880 1 57 the 
: 882 3 57 songs 
: 886 1 57 we 
: 888 5 60 sang 
: 894 1 64 to
: 896 4 64 get
: 900 9 62 her
-909
: 910 3 59 O
: 912 2 57 h, 
: 914 2 59 Ye
: 916 9 55 ah
-925
: 926 4 55 And 
: 930 8 65 all 
: 938 7 57 m
: 946 4 59 y 
: 950 2 57 lo
: 952 5 55 ve
-958
: 960 2 55 We're 
: 962 3 60 hold
: 966 1 60 ing 
: 968 6 60 on 
: 974 2 64 for
: 976 4 62 ev
: 980 7 60 er
-989
: 994 3 65 Reach
: 998 1 65 ing 
: 1000 5 65 for 
: 1006 1 65 the 
: 1008 6 67 love 
: 1014 2 64 that 
: 1016 4 65 seems 
: 1020 3 64 so 
: 1024 4 64 f
: 1028 1 65 a
: 1029 1 64 a
: 1030 13 62 r
-1045
: 1050 4 60 So 
: 1054 4 59 I 
: 1058 4 57 say 
: 1062 1 55 it 
: 1064 4 55 in 
: 1068 4 53 a 
: 1072 6 55 breath
-1079
: 1080 1 55 And 
: 1082 4 60 hope 
: 1086 4 59 my 
: 1090 4 57 dreams 
: 1094 1 55 will 
: 1096 4 55 take 
: 1100 4 53 me 
: 1104 6 52 there
-1111
: 1114 4 64 Where 
: 1118 4 67 the 
: 1122 4 65 skies 
: 1126 1 64 are
: 1128 5 62 blue
-1134
: 1136 1 60 To 
: 1138 4 64 see 
: 1142 2 62 you 
: 1144 6 60 once 
: 1150 2 64 ag
: 1152 10 62 ain 
: 1162 4 57 my 
: 1166 8 57 love
-1175
: 1178 4 60 All 
: 1182 4 59 the 
: 1186 4 57 seas 
: 1190 1 55 from 
: 1192 4 55 coast 
: 1196 4 53 to 
: 1200 6 55 coast
-1207
: 1208 1 55 To 
: 1210 4 60 find 
: 1214 4 59 a 
: 1218 4 57 place 
: 1222 1 55 I 
: 1224 6 67 love 
: 1230 2 65 the 
: 1232 6 64 most
-1239
: 1242 4 64 Where 
: 1246 2 67 the 
: 1248 6 65 fields 
: 1254 1 64 are 
: 1256 5 62 green,
-1262
: 1264 1 60 to 
: 1266 4 64 see 
: 1270 2 62 you 
: 1272 6 60 once 
: 1278 2 64 ag
: 1280 10 62 ain
-1291
: 1296 1 57 To 
: 1298 4 64 hold 
: 1302 2 62 you 
: 1304 6 60 in 
: 1310 2 59 my 
: 1312 8 60 arms
-1321
: 1328 1 57 To 
: 1330 4 62 pro
: 1334 2 60 mise 
: 1336 4 59 you 
: 1340 4 57 my 
: 1344 4 59 lo
: 1348 6 57 ve
-1355
: 1360 1 57 To 
: 1362 4 64 tell 
: 1366 2 62 you 
: 1368 4 60 from 
: 1372 4 59 my 
: 1376 10 62 heart
-1387
: 1392 2 55 You're 
: 1394 3 57 all 
: 1398 1 57 I'm 
: 1400 6 57 think
: 1406 1 55 ing 
: 1408 15 55 of
-1423
: 1506 3 65 Reach
: 1510 1 65 ing 
: 1512 5 65 for 
: 1518 1 65 the 
: 1520 2 65 love 
: 1522 4 64 that 
: 1526 1 62 seems 
: 1528 4 62 so 
: 1532 4 60 f
: 1536 15 62 ar
-1542
: 1554 8 62 So... 
: 1562 4 62 so 
: 1566 4 61 I 
: 1570 4 59 say 
: 1574 1 57 it 
: 1576 4 57 in 
: 1580 4 55 a 
: 1584 6 57 breath
-1591
: 1592 1 57 And 
: 1594 4 62 hope 
: 1598 4 61 my 
: 1602 4 59 dreams 
: 1606 1 57 will 
: 1608 4 57 take 
: 1612 4 55 me 
: 1616 6 54 there
-1623
: 1626 4 66 Where 
: 1630 4 69 the 
: 1634 4 67 skies 
: 1638 1 66 are 
: 1640 5 64 blue
-1646
: 1648 1 62 to 
: 1650 4 66 see 
: 1654 2 64 you 
: 1656 6 62 once 
: 1662 2 66 ag
: 1664 9 64 ain 
: 1674 4 59 my 
: 1678 8 59 love
-1686
: 1690 4 62 All 
: 1694 4 61 the 
: 1698 4 59 seas 
: 1702 1 57 go 
: 1704 4 57 coast 
: 1708 4 55 to 
: 1712 6 57 coast
-1719
: 1720 1 57 To 
: 1722 4 62 find 
: 1726 4 61 a 
: 1730 4 59 place 
: 1734 1 57 I 
: 1736 6 69 love 
: 1742 2 67 the 
: 1744 6 66 most
-1751
: 1754 4 66 Where 
: 1758 2 69 the 
: 1760 6 67 fields 
: 1766 1 66 are 
: 1768 5 64 green
-1774
: 1776 1 62 To 
: 1778 4 66 see 
: 1782 2 64 you 
: 1784 6 62 once 
: 1790 2 66 ag
: 1792 10 64 ain 
: 1818 4 62 my 
: 1822 3 61 love
-1825
: 1826 3 67 See 
: 1830 1 67 you 
: 1832 3 67 in 
: 1836 4 67 a 
: 1840 4 66 pray
: 1844 2 64 er, 
: 1858 3 67 dreams 
: 1862 1 67 will 
: 1864 4 67 take 
: 1868 3 69 me 
: 1872 2 69 the
: 1874 4 66 re
-1879
: 1882 4 66 Where 
: 1886 4 69 the 
: 1890 4 67 skies 
: 1894 1 66 are 
: 1896 5 64 blue
-1901
: 1904 1 62 To 
: 1906 4 66 see 
: 1910 2 64 you 
: 1912 6 62 once 
: 1918 2 66 ag
: 1920 20 64 ain
-1940
: 1946 4 62 All 
: 1950 4 61 the 
: 1954 4 59 seas 
: 1958 1 57 from 
: 1960 4 57 coast 
: 1964 4 55 to 
: 1968 6 57 coast
-1975
: 1976 1 57 To 
: 1978 4 62 find 
: 1982 4 61 a 
: 1986 4 59 place 
: 1990 1 57 I 
: 1992 6 69 love 
: 1998 2 67 the 
: 2000 6 66 most
-2006
: 2010 4 66 Where 
: 2014 2 69 the 
: 2016 6 67 fields 
: 2022 1 66 are 
: 2024 5 64 green
-2030
: 2032 1 62 To 
: 2034 4 66 see 
: 2038 2 64 you 
: 2040 6 62 once 
: 2046 2 66 ag
: 2048 10 64 ain, 
: 2074 2 61 m
: 2076 2 62 y 
: 2078 25 62 love
E

Created by PURE6 [poland]
My song no. 12 (all to be found under "[ultrastar][pure6]" in e-donkey 2000 network)
