#TITLE:Club Tropicana
#ARTIST:Wham
#LANGUAGE:
#EDITION:SingStar Summer Party
#GENRE:
#YEAR:
#MP3:Wham - Club Tropicana.mp3
#COVER:Wham - Club Tropicana [CO].jpg
#BACKGROUND:Wham - Club Tropicana [BG].jpg
#VIDEO:Wham - Club Tropicana [VD#0].avi
#VIDEOGAP:0
#BPM:238
#GAP:48214,29
: 0 1 64 Let
: 3 2 63  me
: 6 2 61  take
: 10 2 59  you
: 14 3 61  to
: 18 2 59  the
: 22 3 61  place
- 26
: 27 4 64 Where
: 32 1 63  mem
: 34 1 64 ber
: 38 2 63 ship's
- 41
: 42 1 64 A
: 46 4 63  smi
: 51 1 59 ling
: 56 4 59  face
- 62 63
: 72 1 54 Brush
: 78 2 57  shoul
: 82 2 57 ders
- 85
: 86 1 61 With
: 90 1 64  the
: 94 2 62  stars
* 96 17 63 ~
- 115
: 121 3 66 Where
: 128 3 64  stran
: 132 1 63 gers
- 134
: 134 2 61 Take
: 138 3 59  you
: 142 3 61  by
: 146 3 59  the
: 150 4 61  hand
- 155
: 156 2 64 And
: 160 2 63  wel
: 163 2 64 come
: 166 2 63  you
- 169
: 170 3 59 To
* 174 3 68  won
: 178 2 66 der
: 180 1 64 ~
: 183 15 64 land
- 200
: 204 1 54 From
: 206 1 56  be
: 208 2 57 neath
: 212 2 54  their
: 217 3 61  pa
: 220 1 57 na
: 222 2 57 mas
: 224 20 59 ~
- 246 247
: 262 2 66 Club
: 266 2 66  Tro
: 269 1 64 pi
: 273 3 64 ca
: 277 2 63 na
- 280
: 281 2 63 Drinks
: 285 2 61  are
: 289 2 62  free
: 291 32 63 ~
- 325
: 328 5 59 Fun
: 334 2 61  and
: 340 6 63  sun
: 347 6 59 shine
- 355
: 357 5 66 There's
: 365 6 64  e
: 372 2 63 nough
: 376 1 61  for
: 378 2 61  ev
: 381 1 59 ery
: 384 3 59 one
- 389
: 392 2 66 All
: 394 2 65 ~
: 396 2 64 ~
: 399 1 64 that's
: 403 1 64  mis
: 406 2 63 sing
: 410 2 63  is
: 414 1 61  the
: 418 2 62  sea
: 420 32 63 ~
- 454
: 456 5 59 But
: 462 6 61  don't
: 469 6 63  wor
: 477 2 59 ry
- 481
: 486 5 68 You
: 493 4 66  can
: 501 4 68  sun
: 509 4 68 tan
: 513 3 66 ~
- 517
: 517 1 64 Cast
: 521 1 63 a
: 523 2 61 ways
: 527 2 59  and
: 531 2 61  lo
: 535 1 59 vers
: 539 2 61  meet
- 543
: 545 2 64 Then
: 549 1 63  kiss
: 551 1 64  in
: 555 2 63  Tro
: 559 1 63 pi
: 563 5 63 ca
: 569 1 59 na's
* 573 6 59  heat
- 581
: 589 1 54 Watch
: 593 1 57  the
: 595 3 57  waves
: 601 2 61  break
: 605 2 64  on
: 609 1 66  the
: 611 2 61  bay
: 613 19 63 ~
- 634
: 638 4 66 Oh
: 645 2 64  soft
: 649 2 63  white
: 653 3 61  sands
- 657
: 657 1 59 A
: 659 3 61  blue
: 663 2 59  la
: 667 5 61 goon
- 674
: 677 2 63 Cock
: 681 2 64 tail
: 685 3 63  time
- 689
: 691 3 68 Sum
: 695 2 66 mer's
: 699 2 64  tune
: 701 4 66 ~
: 705 11 64 ~
- 718
: 723 1 59 A
: 725 3 68  whole
: 729 2 66  night's
: 733 3 64  ho
: 737 1 66 li
: 740 9 63 day
: 749 9 61 ~
: 758 2 59 ~
: 760 2 61 ~
* 762 12 59 ~
- 776
: 778 2 66 Club
: 782 2 66  Tro
: 785 1 64 pi
: 789 3 64 ca
: 793 2 63 na
- 796
: 797 2 63 Drinks
: 801 2 61  are
: 805 2 62  free
: 807 32 63 ~
- 841
: 844 5 59 Fun
: 850 2 61  and
: 857 5 63  sun
: 864 5 59 shine
- 871
* 873 5 66 There's
: 881 6 64  e
: 888 2 63 nough
: 892 1 61  for
: 894 2 61  ev
: 897 1 59 ery
: 900 3 59 one
- 905
: 908 2 66 All
: 910 2 65 ~
: 912 2 64 ~
: 915 1 64 that's
: 919 1 64  mis
: 922 2 63 sing
: 926 2 63  is
: 930 1 61  the
: 934 2 62  sea
: 936 32 63 ~
- 970
: 972 5 59 But
: 979 5 61  don't
: 986 5 63  wor
: 993 1 59 ry
- 996
: 1002 5 68 You
: 1009 4 66  can
: 1017 4 68  sun
: 1025 4 68 tan
: 1029 15 66 ~
: 1044 3 67 ~
: 1047 8 68 ~
- 1057 1403
: 1423 1 66 Club
: 1427 1 66  Tro
: 1429 1 64 pi
: 1433 3 64 ca
: 1437 2 63 na
- 1440
: 1441 2 63 Drinks
: 1445 2 61  are
: 1449 2 62  free
: 1451 30 63 ~
- 1483
: 1488 5 59 Fun
: 1494 2 61  and
: 1500 6 63  sun
: 1507 6 59 shine
- 1515
: 1517 5 66 There's
: 1525 6 64  e
: 1532 2 63 nough
: 1536 1 61  for
: 1538 2 61  ev
: 1541 1 59 ery
: 1543 4 59 one
- 1549
: 1552 2 66 All
: 1554 2 65 ~
: 1556 1 64 ~
: 1558 1 64 that's
: 1562 1 64  mis
: 1566 3 63 sing
: 1570 1 63  is
: 1574 1 61  the
: 1578 2 62  sea
: 1580 30 63 ~
- 1612
: 1615 4 59 But
: 1621 5 61  don't
: 1629 5 63  wor
: 1636 2 59 ry
- 1640
: 1643 2 66 You
: 1645 5 68 ~
: 1651 5 66 can
: 1661 4 68  sun
* 1670 12 71 tan
- 1684 1912
: 1932 3 64 Pack
: 1938 3 66  your
: 1944 5 68  bags
- 1951
: 1959 2 59 And
: 1964 3 63  leave
: 1970 4 59  to
: 1976 7 54 night
- 1985
: 1991 2 61 Don't
: 1996 3 64  take
: 2002 3 66  your
* 2009 5 68  time
- 2016
: 2024 1 59 Got
: 2026 1 59 ta
: 2028 3 63  move
: 2032 1 59  your
: 2034 2 59  feet
- 2038
: 2040 1 59 Don't
: 2042 1 59  you
: 2044 1 63  miss
: 2048 1 59  the
: 2050 5 59  flight
- 2057
: 2060 3 64 Pack
: 2066 3 66  your
: 2073 6 68  bags
- 2081
: 2088 3 59 And
: 2092 3 63  leave
: 2099 4 59  to
: 2105 9 54 night
- 2116
: 2120 3 61 Don't
: 2125 3 64  take
: 2131 2 66  your
: 2138 5 68  time
- 2145
: 2153 1 59 Got
: 2155 1 59 ta
* 2157 3 63  move
: 2161 1 59  your
: 2163 4 59  feet
- 2168
: 2169 1 59 Don't
: 2171 1 59  you
: 2173 1 66  miss
: 2177 1 63  the
: 2182 7 61  flight
- 2190
: 2191 31 68 Cool
: 2222 23 66 ~
- 2247
: 2254 33 68 Cool
: 2287 24 66 ~
- 2313
: 2319 33 68 Cool
: 2352 23 66 ~
- 2377
: 2385 30 68 Cool
: 2416 8 66 ~
: 2424 8 68 ~
: 2432 8 71 ~
: 2440 5 73 ~
- 2447
: 2452 2 66 Club
: 2456 2 66  Tro
: 2459 1 64 pi
* 2463 3 64 ca
: 2467 2 63 na
- 2470
: 2471 2 63 Drinks
: 2475 2 61  are
: 2479 2 62  free
: 2481 30 63 ~
- 2513
: 2517 5 59 Fun
: 2523 2 61  and
: 2529 5 63  sun
: 2537 6 59 shine
- 2544
: 2546 5 66 There's
: 2554 6 64  e
: 2561 2 63 nough
: 2565 1 61  for
: 2567 2 61  ev
: 2571 1 59 ery
: 2573 4 59 one
- 2579
: 2581 3 66 All
: 2584 2 65 ~
: 2586 1 64 ~
: 2588 1 64 that's
: 2592 1 64  mis
: 2596 3 63 sing
: 2600 1 63  is
: 2604 1 61  the
: 2608 2 62  sea
: 2610 30 63 ~
- 2642
: 2646 4 59 But
: 2652 5 61  don't
: 2659 6 63  wor
: 2666 1 59 ry
- 2669
: 2674 2 66 You
: 2676 5 68 ~
: 2682 5 66 can
: 2691 4 68  sun
: 2698 4 68 tan
: 2702 16 66 ~
: 2718 3 67 ~
: 2721 7 68 ~
- 2730 2816
: 2836 32 68 Cool
: 2868 23 66 ~
- 2893
: 2900 32 68 Cool
: 2932 25 66 ~
- 2959
: 2965 32 68 Cool
: 2997 24 66 ~
- 3023
: 3029 32 68 Cool
: 3061 8 66 ~
: 3069 8 68 ~
: 3077 8 71 ~
: 3085 5 73 ~
- 3091
* 3093 33 68 Cool
: 3126 22 66 ~
- 3150 3151
: 3159 32 68 Cool
: 3191 12 66 ~
E
