#TITLE:Saturday Night
#ARTIST:Whigfield
#MP3:Whigfield - Saturday Night.mp3
#COVER:Whigfield - Saturday Night [CO].jpg
#BACKGROUND:Whigfield - Saturday Night [BG].jpg
#BPM:130
#GAP:2200
: 137 3 71 Sa
: 140 2 71 tur
: 142 2 71 day
: 144 4 75  night,
- 148
: 148 1 78 I
: 149 3 78  feel
: 152 2 78  the
: 154 2 80  air
: 156 2 80  is
: 158 2 80  get
: 160 2 75 ting
: 162 6 78  hot
- 172
: 179 3 76 Like
: 182 2 75  you
: 184 3 75  ba
: 187 5 73 by
: 201 2 71  I'll
: 203 3 71  make
: 206 2 71  you
: 208 3 75  mine
- 211
: 211 2 78 You
: 213 3 78  know
: 216 1 78  I'll
: 217 3 80  take
: 220 1 80  you
: 221 2 80  to
: 223 2 75  the
: 225 7 78  top
- 236
: 240 3 76 I'll
: 243 3 76  drive
: 246 1 75  you
: 247 4 75  cra
: 251 7 73 zy
: 264 3 71  Sa
: 267 2 71 tur
: 269 2 71 day
: 271 4 75 night,
: 275 3 78  dan
: 278 1 78 ce,
- 280
: 280 1 78 I
: 281 2 80  like
: 283 2 80  the
: 285 2 80  way
: 287 2 75  you
: 289 5 78  move
- 300
: 307 2 76 Pret
: 309 2 75 ty
: 311 4 75  ba
: 315 5 73 by
: 329 2 71  It's
: 331 2 71  par
: 333 2 71 ty
: 335 5 75  time,
- 340
: 340 1 78 And
: 341 2 78  not
: 343 2 78  one
: 345 2 80  mi
: 347 2 80 nute
: 349 2 80  we
: 351 2 75  can
: 353 6 78  lose
- 364
: 371 3 76 Be
: 374 1 75  my
: 375 4 75  ba
: 379 6 73 by
: 392 3 71  Da
: 395 2 71  ba
: 397 2 71  da
: 399 4 75  dan
- 403
: 403 2 78 Dee
: 405 2 78  dee
: 407 2 78  dee
: 409 2 80  da
: 411 2 80  nee
: 413 2 80  na
: 415 2 75  na
: 417 6 78  na
- 428
: 435 2 76 Be
: 437 2 75  my
: 439 4 75  ba
: 443 6 73 by
: 457 2 71  Da
: 459 2 71  ba
: 461 2 71  da
: 463 4 75  dan
- 467
: 467 2 78 Dee
: 469 2 78  dee
: 471 2 78  dee
: 473 2 80  da
: 475 2 80  nee
: 477 2 80  na
: 479 2 75  na
: 481 5 78  na
- 494
: 499 2 76 Pret
: 501 2 75 ty
: 503 4 75  ba
: 507 5 73 by
- 600
: 647 4 71  Sa
: 651 2 71 tur
: 653 2 71 day
: 655 4 75  night,
- 659
: 659 1 78 I
: 660 3 78  feel
: 663 2 78  the
: 665 2 80  air
: 667 2 80  is
: 669 2 80  get
: 671 1 75 ting
: 672 7 78  hot
- 684
: 690 3 76 Like
: 693 2 75  you
: 695 4 75  ba
: 699 7 73 by
: 713 2 71  I'll
: 715 2 71  make
: 717 2 71  you
: 719 4 75  mine
- 723
: 723 2 78 You
: 725 2 78  know
: 727 1 78  I'll
: 728 3 80  take
: 731 1 80  you
: 732 2 80  to
: 734 2 75  the
: 736 7 78  top
- 746
: 752 2 76 I'll
: 754 3 76  drive
: 757 2 75  you
: 759 3 75  cra
: 762 7 73 zy
- 772
: 776 3 71 Sa
: 779 1 71 tur
: 780 2 71 day
: 782 4 75  night,
: 786 2 78  dan
: 788 3 78 ce,
- 791
: 791 1 78 I
: 792 2 80  like
: 794 2 80  the
: 796 2 80  way
: 798 2 75  you
: 800 5 78  move
- 812
: 818 3 76 Pret
: 821 2 75 ty
: 823 3 75  ba
: 826 6 73 by
: 840 2 71  It's
: 842 2 71  par
: 844 2 71 ty
: 846 5 75  time,
- 851
: 851 1 78 And
: 852 2 78  not
: 854 2 78  one
: 856 2 80  mi
: 858 2 80 nute
: 860 2 80  we
: 862 2 75  can
: 864 7 78  lose
- 876
: 882 3 76 Be
: 885 1 75  my
: 886 4 75  ba
: 890 6 73 by
- 936
: 1031 3 71  Sa
: 1034 2 71 tur
: 1036 2 71 day
: 1038 3 75 night,
: 1041 3 78  dan
: 1044 2 78 ce,
- 1046
: 1046 1 78 I
: 1047 3 80  like
: 1050 1 80  the
: 1051 3 80  way
: 1054 1 75  you
: 1055 6 78  move
- 1066
: 1074 2 76 Pret
: 1076 2 75 ty
: 1078 3 75  ba
: 1081 8 73 by
: 1096 2 71  It's
: 1098 2 71  par
: 1100 2 71 ty
: 1102 4 75  time,
- 1106
: 1106 1 78 And
: 1107 2 78  not
: 1109 2 78  one
: 1111 3 80  mi
: 1114 2 80 nute
: 1116 2 80  we
: 1118 2 75  can
: 1120 7 78  lose
- 1133
: 1138 2 76 Be
: 1140 2 75  my
: 1142 4 75  ba
: 1146 5 73 by
- 1213
: 1286 3 71 Sa
: 1289 2 71 tur
: 1291 3 71 day,
: 1302 4 71  sa
: 1306 2 71 tur
: 1308 2 71 day
- 1314
: 1318 4 71 Sa
: 1322 1 71 tur
: 1323 2 71 day
: 1325 4 75  night,
: 1334 4 71  sa
: 1338 1 71 tur
: 1339 2 71 day
: 1341 4 75  night
- 1347
: 1350 3 71 Sa
: 1353 2 71 tur
: 1355 3 71 day,
: 1366 4 71  sa
: 1370 2 71 tur
: 1372 2 71 day
- 1378
: 1382 4 71 Sa
: 1386 1 71 tur
: 1387 2 71 day
: 1389 4 75  night,
: 1397 5 71  sa
: 1402 1 71 tur
: 1403 2 71 day
: 1405 4 75  night
- 1412
: 1414 3 71 Sa
: 1417 2 71 tur
: 1419 3 71 day,
: 1430 3 71  sa
: 1433 1 71 tur
: 1434 2 71 day
- 1441
: 1446 3 71 Sa
: 1449 2 71 tur
: 1451 2 71 day
: 1453 4 75  night,
: 1463 2 71  sa
: 1465 2 71 tur
: 1467 2 71 day
: 1469 4 75  night
- 1476
: 1478 3 71 Sa
: 1481 2 71 tur
: 1483 6 71 day,
: 1494 3 71  sa
: 1497 2 71 tur
: 1499 7 71 day
E
