#TITLE:Greatest Love Of All
#ARTIST:Whitney Houston
#MP3:Whitney Houston - Greatest Love Of All.mp3
#VIDEO:Whitney Houston - Greatest Love Of All [VD#0].avi
#COVER:Whitney Houston - Greatest Love Of All [CO].jpg
#BACKGROUND:Whitney Houston - Greatest Love Of All [CO].jpg
#BPM:262,8
#GAP:19520,55
#VIDEOGAP:0
#ENCODING:UTF8
#LANGUAGE:Englisch
#GENRE:Pop
#EDITION:SingStar Legends
#YEAR:1986
: 0 3 61 I
: 4 2 61  be
: 8 7 61 lieve
: 16 2 61  the
: 20 7 61  child
: 28 2 61 ren
- 31
: 32 2 61 Are
: 35 4 61  our
: 39 4 59  fu
: 43 3 57 ~
: 48 8 57 ture
- 58
: 64 3 61 Teach
: 69 4 61  them
: 73 4 59  well
: 77 3 57 ~
- 81
: 81 4 57 And
: 85 6 66  let
: 92 6 64  them
: 100 5 61  lead
: 107 3 59  the
: 112 7 57  way
- 121
: 128 3 66 Show
: 132 2 66  them
: 136 6 66  all
: 144 1 66  the
: 146 3 66  beau
: 149 2 67 ~
: 151 4 66 ~
: 156 2 66 ty
- 159
: 160 2 66 They
: 164 3 66  pos
: 168 5 64 sess
: 175 3 62  in
: 181 30 66 side
- 213
: 232 4 66 Give
: 238 3 66  them
: 243 2 62  a
: 248 18 64  sense
: 277 2 66  of
: 282 15 57  pride
- 298
: 300 4 57 To
: 305 3 59  make
: 309 2 61  it
: 313 3 59  ea
: 316 5 61 ~
: 322 2 59 si
: 325 10 59 er
- 337
: 351 4 68 Let
: 357 2 66  the
: 362 8 64  child
: 370 5 62 ren's
* 378 24 64  laugh
: 402 4 66 ~
: 409 15 57 ter
- 426
: 438 3 57 Re
: 442 7 61 mind
: 449 2 59  us
: 453 12 59  how
: 466 5 61  we
: 471 18 62  used
: 494 5 61  to
: 499 3 57 ~
: 503 3 57 be
- 508
: 515 4 61 Eve
: 520 3 61 ry
: 524 7 61 bo
: 532 3 61 dy's
: 536 4 61  search
: 542 3 61 ing
- 546
: 547 2 59 For
: 551 3 61  a
: 556 3 59  he
: 559 3 57 ~
: 563 6 57 ro
- 571
: 579 3 61 Peo
: 583 3 61 ple
: 587 5 59  need
: 595 3 57  some
: 600 5 66 one
- 606
: 606 4 66 To
: 611 2 64  look
: 615 5 61  up
: 620 2 59 ~
: 622 2 57 ~
: 626 8 57 to
- 636
: 639 4 57 I
: 643 2 64  ne
: 645 1 66 ~
: 647 3 66 ver
: 651 2 64  found
: 653 4 66 ~
: 659 4 66 a
: 663 2 66 ny
: 667 6 66 one
- 674
: 674 3 66 Who
: 678 3 66  ful
: 682 4 64 filled
: 686 3 62 ~
: 691 3 62 my
: 695 3 64  needs
* 698 32 66 ~
- 732
: 743 3 66 A
: 747 4 66  lone
: 751 5 64 ~
: 756 1 62 ly
: 760 16 64  place
: 776 2 66 ~
: 787 5 66 to
: 793 2 57 ~
: 796 14 57 be
- 812
: 816 4 57 And
: 820 3 59  so
: 823 3 61  I
: 828 4 61  learned
: 832 5 59 ~
- 838
: 839 12 59 To
: 852 3 61  de
: 856 20 62 pend
: 881 4 61  on
: 885 3 57 ~
: 889 3 57 me
- 894
: 901 4 69 I
: 906 2 69  de
: 910 7 69 ci
: 918 2 69 ded
: 921 2 69  long
: 923 10 68 ~
: 934 2 69 a
: 937 9 69 go
- 948
: 957 4 68 Ne
: 961 3 68 ver
: 965 4 69  to
: 969 4 69  walk
- 975
: 982 3 71 In
* 986 6 73  a
: 993 3 73 ny
: 997 4 71 one's
: 1001 2 69 ~
: 1005 7 69 sha
: 1012 5 68 dows
- 1019
: 1026 2 68 If
: 1031 2 69  I
: 1037 4 69  fail
- 1043
: 1049 2 69 If
: 1054 4 68  I
: 1062 2 69  suc
: 1066 5 69 ceed
- 1073
: 1081 2 69 At
: 1085 5 68  least
: 1093 2 69  I'll
: 1098 9 69  live
- 1108
: 1109 3 71 As
: 1113 11 73  I
: 1124 5 71  be
: 1129 3 69 ~
: 1133 5 69 lieve
: 1138 2 68 ~
- 1142
: 1146 2 68 No
: 1149 8 68  mat
: 1158 5 69 ter
: 1165 2 69  what
- 1169
: 1173 3 69 They
: 1176 3 68 ~
: 1181 4 68 take
: 1189 7 69  from
: 1197 3 69  me
- 1202
: 1209 3 69 They
: 1213 5 68  can't
: 1221 3 69  take
: 1225 2 69  a
: 1228 3 69 way
- 1233
: 1237 6 71 My
: 1245 6 73  dig
: 1253 4 71 ni
: 1257 2 69 ~
: 1262 15 69 ty
- 1279
: 1287 7 69 Be
: 1296 7 68 cause
: 1305 7 66  the
- 1313
: 1313 27 64 Great
: 1340 1 66 ~
: 1344 1 61 est
: 1345 2 59 ~
: 1347 14 57 ~
- 1363
: 1380 6 61 Love
: 1386 3 59 ~
: 1389 2 59 of
: 1392 6 59  all
- 1400
: 1408 2 69 Is
: 1412 6 68  hap
: 1421 5 66 pen
: 1429 5 64 ing
- 1435
: 1437 4 62 To
: 1441 61 64  me
- 1504
: 1535 6 69 I
: 1542 14 68  found
: 1558 10 66  the
: 1568 2 68 ~
- 1572
* 1574 23 64 Great
: 1598 5 66 ~
: 1603 1 61 est
: 1604 2 59 ~
: 1607 16 57 ~
- 1625
: 1638 6 61 Love
: 1644 3 59 ~
: 1648 2 59 of
: 1651 11 59  all
- 1663
: 1664 2 61 In
: 1668 23 62 side
: 1694 5 61  of
: 1699 2 57 ~
: 1702 5 57 me
- 1709
: 1729 4 74 The
: 1735 9 73  great
: 1744 5 71 ~
: 1751 8 71 est
: 1759 4 73 ~
- 1765
: 1768 4 71 Love
: 1772 18 69 ~
: 1797 2 62 of
* 1801 36 62  all
: 1837 2 64 ~
: 1839 2 66 ~
: 1841 1 64 ~
: 1842 2 66 ~
: 1844 2 64 ~
: 1846 5 62 ~
- 1853
: 1860 4 74 Is
: 1865 7 73  ea
: 1872 6 71 sy
: 1880 7 69  to
: 1888 4 67  a
: 1893 74 69 chieve
- 1969
: 1988 2 69 Learn
: 1990 2 71 ~
: 1992 2 73 ~
: 1994 10 74 ~
: 2005 10 73 ing
: 2017 6 71  to
: 2025 23 69  love
: 2049 3 71  your
: 2054 17 62 self
- 2073
: 2077 4 62 It
: 2081 4 64  is
: 2085 2 66  the
: 2089 7 66  great
: 2096 5 64 ~
: 2102 4 64 est
- 2108
: 2122 20 67 Love
: 2143 2 66  of
: 2145 2 64 ~
: 2147 3 62 ~
: 2151 31 62 all
- 2184
: 2225 3 61 I
: 2229 2 61  be
: 2233 7 61 lieve
: 2241 2 61  the
: 2245 7 61  child
: 2253 2 61 ren
- 2256
: 2257 2 61 Are
: 2260 3 61  our
: 2264 4 59  fu
: 2268 3 57 ~
: 2273 8 57 ture
- 2283
: 2288 4 61 Teach
: 2293 3 61  them
: 2297 6 59  well
- 2304
: 2305 3 57 And
: 2309 6 66  let
: 2316 6 64  them
: 2323 5 61  lead
: 2329 3 59  the
: 2332 3 57 ~
: 2335 8 57 way
- 2345
: 2352 3 66 Show
: 2356 2 66  them
: 2360 6 66  all
: 2367 3 66  the
: 2371 8 66  beau
: 2380 2 66 ty
- 2383
: 2384 2 66 They
: 2388 3 66  pos
: 2392 5 64 sess
: 2399 3 62  in
: 2404 39 66 side
- 2445
: 2456 4 69 Give
: 2461 4 66  them
: 2466 2 62  a
: 2472 18 64  sense
: 2500 2 66  of
* 2505 15 57  pride
- 2522
: 2525 2 57 To
: 2529 2 59  make
: 2533 2 61  it
: 2537 8 61  ea
: 2546 2 59 si
: 2550 12 59 er
- 2564
: 2575 3 68 Let
: 2579 4 66  the
: 2585 7 64  child
: 2592 3 62 ren's
: 2602 24 64  laugh
: 2626 4 66 ~
: 2633 15 57 ter
- 2650
: 2661 3 57 Re
: 2665 7 61 mind
: 2673 2 59  us
: 2678 10 59  how
: 2689 4 61  we
: 2693 2 62  used
: 2695 2 64 ~
: 2697 15 62 ~
: 2718 4 61 to
: 2722 3 57 ~
: 2726 2 57 be
- 2730
: 2738 4 69 I
: 2743 2 69  de
* 2747 7 69 ci
: 2755 2 69 ded
: 2758 2 69  long
: 2760 10 68 ~
: 2771 2 69 a
: 2773 8 69 go
- 2783
: 2795 4 68 Ne
: 2799 3 68 ver
: 2803 4 69  to
: 2807 9 69  walk
- 2817
: 2819 4 71 In
: 2823 7 73  a
: 2831 2 73 ny
: 2834 4 71 one's
: 2838 2 69 ~
: 2842 7 69 sha
: 2849 6 68 dows
- 2857
: 2863 2 76 If
: 2868 2 69  I
: 2874 4 69  fail
- 2880
: 2886 2 76 If
* 2890 5 78  I
: 2898 2 69  suc
: 2902 4 69 ceed
- 2908
: 2918 2 69 At
: 2922 5 68  least
: 2930 2 69  I
: 2933 8 69  lived
- 2942
: 2943 2 71 As
: 2946 14 73  I
: 2961 6 71  be
: 2967 7 69 lieve
- 2976
: 2982 2 68 No
: 2985 8 68  mat
: 2994 2 69 ter
: 2997 2 69  what
: 2999 2 71 ~
: 3001 2 69 ~
- 3005
: 3010 2 69 They
: 3014 5 68  take
: 3026 5 71  from
: 3034 3 69  me
- 3039
: 3047 4 69 They
: 3051 5 68  can't
: 3058 3 69  take
: 3062 3 69  a
: 3066 3 69 way
- 3071
: 3075 7 76 My
: 3083 7 73  dig
: 3092 4 71 ni
: 3096 3 69 ~
: 3100 15 69 ty
- 3117
: 3126 7 69 Be
: 3135 7 68 cause
: 3144 8 66  the
- 3153
: 3155 23 64 Great
: 3178 3 66 ~
: 3183 1 61 est
: 3184 2 59 ~
: 3186 14 57 ~
- 3202
: 3218 8 61 Love
: 3227 2 59  of
: 3231 8 59  all
- 3241
: 3246 3 69 Is
: 3250 7 68  hap
: 3258 5 66 pen
: 3267 7 64 ing
: 3274 3 62  to
: 3278 41 64  me
: 3319 4 71 ~
: 3324 27 69 ~
- 3353
: 3371 6 69 I
* 3379 15 68  found
: 3394 9 66  the
: 3403 3 68 ~
- 3408
: 3410 24 64 Great
: 3434 4 66 ~
: 3440 18 57 est
- 3460
: 3475 8 61 Love
: 3484 3 59  of
: 3488 11 59  all
- 3500
: 3500 2 61 In
: 3504 23 62 side
: 3530 3 61  of
: 3533 1 59 ~
: 3534 3 57 ~
: 3540 6 57 me
- 3548
: 3564 6 74 The
: 3572 8 73  great
: 3580 6 71 ~
: 3588 7 71 est
: 3595 5 73 ~
- 3601
: 3603 4 71 Love
: 3608 14 69 ~
: 3633 4 62 of
: 3637 57 74  all
- 3695
: 3695 3 74 Is
: 3699 6 76  ea
: 3706 6 73 sy
: 3715 4 71  to
- 3721
: 3727 3 67 A
: 3731 80 69 chieve
- 3813
: 3824 2 71 Learn
: 3826 2 73 ~
: 3828 15 74 ~
: 3844 7 73 ing
: 3856 3 71  to
: 3859 2 69 ~
: 3863 24 69 love
: 3888 3 71  your
: 3892 14 62 self
- 3908
: 3917 3 62 Is
: 3920 4 64 ~
: 3924 3 66 the
: 3928 7 66  great
: 3936 3 64 ~
: 3940 6 64 est
- 3948
: 3962 20 67 Love
: 3983 2 66  of
: 3985 2 64 ~
: 3987 5 62 ~
: 3993 18 62 all
- 4013
: 4019 7 69 And
: 4027 5 68  if
: 4034 3 66  by
: 4037 3 64 ~
: 4042 4 64 chance
- 4048
: 4056 2 62 That
: 4061 18 64  spe
: 4082 3 66 cial
: 4090 36 57  place
- 4128
: 4150 3 69 That
: 4156 2 66  you've
: 4158 3 68 ~
: 4162 3 66 been
: 4165 3 64 ~
- 4169
: 4170 5 64 Dream
: 4175 4 62 ~
: 4180 4 62 ing
: 4184 76 64  of
- 4262
: 4284 6 68 Leads
: 4291 6 66  you
: 4299 7 64  to
: 4307 5 62  a
- 4313
: 4313 21 64 Lone
: 4337 5 73 ly
: 4342 2 71 ~
: 4344 2 69 ~
: 4350 20 69 place
- 4372
: 4380 13 73 Find
: 4394 3 71  your
: 4397 2 73 ~
: 4399 6 71 ~
: 4409 9 69 strength
- 4420
: 4429 15 68 In
: 4444 6 71  love
* 4450 190 69 ~
E