#TITLE:Switch It On
#ARTIST:Will Young
#MP3:Will Young - Switch It On.mp3
#COVER:Will Young - Switch It On [CO].jpg
#BACKGROUND:Will Young - Switch It On [BG].jpg
#BPM:340
#GAP:0
#ENCODING:UTF8
#EDITION:Singstar - Pop Hits
: 349 5 43 I
: 356 3 43  can
: 360 4 47  see
- 365
: 367 5 47 I'm
: 373 4 47  a
: 377 2 50  lit
: 381 2 50 tle
: 385 4 50  un
: 391 7 52 stab
: 399 11 55 le
- 420
: 457 7 58 Mys
: 465 3 55 ti
: 471 4 58 fied
: 478 3 55  I'm
: 485 5 58  tired
- 491
: 493 2 53 And
* 497 3 53  un
: 501 5 53 ab
: 509 5 53 le
: 514 8 55 ~
- 532
: 568 2 47 To
: 572 3 43  switch
: 578 3 43  it
: 582 3 47  on
- 587
: 589 3 47 And
: 596 3 50  switch
: 602 2 50  it
: 607 5 50  off
: 613 7 52  dai
: 620 9 55 ly
- 639
: 665 4 62 It's
: 673 3 60  O
: 679 8 57 K
: 687 3 58 ~
: 694 9 55  to
- 705
: 707 4 53 Say
: 714 5 53  how
: 721 2 53  you
: 724 6 53  see
: 731 5 53  me
: 736 11 55 ~
- 757
: 770 2 55 It's
: 773 3 55  a
: 776 6 58 bout
: 784 10 55  my
: 795 23 57  time
: 818 11 58 ~
: 833 5 55  hmm
- 848
: 888 5 58 There's
: 895 4 55  no
: 905 21 57  way
: 926 14 58 ~
: 944 7 55  hmm
- 961
: 1008 11 62 Please
- 1029
: 1053 4 65 This
: 1060 3 65  is
: 1064 2 61 n't
: 1069 6 65  work
: 1076 6 62 in'
- 1092
: 1109 2 64 And
: 1111 3 64  I
: 1117 3 65  can't
* 1124 13 67  breathe
- 1147
: 1165 4 65 Got
: 1172 3 67  no
: 1179 3 70  air
: 1186 14 65  now
- 1210
: 1237 4 70 How
: 1242 2 67  can
: 1245 5 70  I
: 1252 5 70  live
- 1257
: 1258 3 67 When
: 1261 3 65  I
: 1265 3 67  wan
: 1268 3 65 na
: 1272 11 67  be
: 1283 10 70  free
: 1293 7 65 ~?
- 1310
: 1348 3 67 This
: 1352 3 65  is
: 1355 4 67  my
: 1362 6 67  time
- 1368
: 1369 3 67 And
: 1376 3 67  these
: 1380 3 65  are
: 1383 4 67  my
: 1390 12 67  needs
: 1402 3 65 ~
: 1405 4 62 ~
- 1419
: 1443 3 67 It's
: 1449 3 69  O
: 1457 10 70 K
: 1467 3 67  to
: 1471 6 70  want
: 1477 3 64 ~
- 1480
: 1481 3 64 Be
: 1485 6 67 fore
: 1492 2 65  you
: 1495 10 67  fall
: 1508 6 70  down
: 1514 11 65 ~
- 1535
: 1567 3 58 You're
: 1571 3 67  set
: 1575 2 67 ting
: 1577 5 67  me
: 1584 6 70  up
- 1590
: 1591 3 67 On
: 1594 3 65  a
: 1598 3 67  mis
: 1601 3 65 sion
: 1606 5 67  of
: 1613 3 67  life
: 1616 4 65 ~
: 1620 5 62 ~
- 1635
: 1786 4 36 Ha
- 1800
: 1848 2 70 Got
: 1854 2 67  to
: 1859 2 70  got
: 1866 2 67  to
- 1870
: 1872 2 70 Go
: 1879 2 67  to
: 1883 2 70  go
* 1889 6 72  cra
: 1897 9 70 zy
- 1916
: 2061 5 62 Mmm
: 2066 4 64 ~
: 2070 6 65 ~
: 2076 4 64 ~
: 2080 4 62 ~
: 2085 5 60 ~
: 2090 2 61 ~
: 2092 3 60 ~
: 2095 3 58 ~
: 2098 3 60 ~
: 2102 3 58 ~
: 2105 8 55 ~
- 2119
: 2125 3 43 Can
: 2132 3 43  you
: 2137 4 47  tell
- 2141
: 2143 3 47 I'm
: 2150 3 47  a
: 2153 2 50  lit
: 2157 2 50 tle
: 2161 3 50  bit
: 2168 4 52  hun
: 2174 8 55 gry?
- 2192
: 2234 3 58 Mis
: 2240 4 55 ter
: 2247 4 58  Fa
: 2254 3 55 bu
* 2261 5 58 lous
- 2266
: 2268 3 53 Don't
: 2274 3 53  im
: 2278 5 53 press
: 2285 6 53  me
: 2291 6 55 ~
- 2307
: 2344 2 50 You
: 2348 5 59  talk
: 2355 2 60  to
: 2358 5 60  me
- 2364
: 2366 5 60 With
: 2371 2 58  the
: 2375 2 60  speech
: 2379 2 58  with
: 2382 5 60 out
: 2389 3 60  words
* 2393 13 58 ~
- 2416
: 2451 2 55 Where
: 2455 2 55  the
: 2458 5 57  vowels
: 2465 5 57  all
: 2473 3 58  mis
: 2477 3 58 sin'
- 2480
: 2481 2 55 And
: 2484 2 53  the
: 2487 5 55  truth
: 2493 4 55  un
: 2500 3 55 heard
: 2504 9 53 ~
- 2523
: 2564 9 62 Please
- 2583
: 2608 5 65 This
: 2615 2 65  is
: 2617 4 62 n't
: 2623 8 65  work
: 2631 6 62 in'
- 2647
: 2663 2 65 And
: 2665 3 65  I
: 2671 3 65  can't
: 2677 4 65  breathe
: 2681 8 67 ~
- 2699
: 2719 4 65 Got
: 2726 5 67  no
: 2734 4 70  air
: 2740 14 65  now
- 2764
: 2774 2 62 It's
: 2777 3 65  all
: 2781 3 65  a
: 2785 2 65 bout
: 2790 6 62  the
* 2797 3 67  mo
: 2803 14 67 ney
: 2817 6 62 ~
- 2826
: 2830 2 62 It's
: 2833 3 65  all
: 2837 2 62  a
: 2840 3 65 bout
: 2845 4 62  the
: 2854 12 65  fame
: 2866 4 66 ~
: 2870 6 67 ~
- 2880
: 2885 2 62 It's
: 2889 3 64  not
: 2892 3 62  a
: 2895 3 65 bout
: 2900 2 62  the
: 2903 6 67  way
- 2909
: 2910 2 62 You
: 2913 6 67  live
: 2921 2 62  your
* 2927 3 65  life
: 2930 10 67 ~
: 2940 5 62 ~
- 2951
: 2958 3 65 This
: 2963 3 65  is
: 2968 4 64  how
- 2973
: 2975 3 62 I'm
: 2979 2 62  gon
: 2982 1 62 na
: 2985 6 65  break
: 2992 3 62  it
: 3000 3 65  down
: 3006 2 62  now
- 3011
: 3015 2 70 How
: 3018 2 70  can
: 3022 4 70  I
: 3028 6 70  live
- 3034
: 3035 2 67 When
: 3038 3 65  I
: 3042 2 67  wan
: 3045 2 65 na
: 3049 10 67  be
: 3061 9 70  free
: 3070 8 65 ~?
- 3088
: 3121 2 62 Cos
: 3125 3 67  this
: 3128 2 65  is
: 3131 4 67  my
: 3138 7 67  time
- 3145
: 3146 3 67 And
: 3149 2 65 ~
: 3152 3 67  these
: 3156 2 65  are
: 3160 3 67  my
: 3169 5 69  needs
: 3174 5 65 ~
: 3179 11 67 ~
: 3190 2 65 ~
: 3192 2 62 ~
- 3204
: 3219 4 67 It's
: 3226 3 69  O
: 3233 11 70 K
: 3244 3 67  to
: 3248 4 70  want
: 3252 3 64 ~
- 3255
: 3256 3 65 Be
: 3260 6 67 fore
: 3267 3 65  you
: 3271 10 67  fall
: 3283 7 70  down
: 3291 10 64 ~
: 3301 4 65 ~
- 3315
: 3343 3 65 You're
: 3347 2 67  set
: 3350 2 65 ting
: 3354 4 67  me
: 3361 4 69  up
- 3366
: 3368 3 67 On
: 3371 3 65  a
: 3375 3 67  mis
: 3378 3 65 sion
: 3381 4 67  of
: 3389 3 67  life
: 3392 4 65 ~
: 3396 7 62 ~
- 3413
: 3503 4 65 Just
: 3507 3 66  give
: 3510 4 64  it
: 3515 6 67  to
: 3521 6 65  me
- 3537
: 3563 4 36 Ha
- 3577
: 3680 4 45 Can't
: 3686 3 45  you
: 3691 3 49  see
- 3695
: 3697 3 49 I'm
: 3704 3 49  a
: 3707 3 52  lit
: 3711 2 52 tle
: 3714 4 52  bit
: 3721 6 54  wea
: 3728 12 57 ry
- 3750
: 3783 2 64 In
: 3788 2 64  a
: 3791 4 67  three
: 3798 5 67  piece
: 3804 6 64  suit
- 3810
: 3812 2 64 And
* 3817 2 66  shoes
: 3819 3 63 ~
: 3823 2 63  that
: 3825 5 62  don't
: 3832 4 62  fit
: 3839 3 62  me
: 3843 10 60 ~
: 3853 4 57 ~?
- 3867
: 3899 2 60 You're
: 3902 5 62  bright
: 3909 5 62  eyed
: 3916 3 62  bush
: 3919 3 60 y
: 3923 3 62  tailed
- 3927
: 3929 3 62 Push
: 3933 2 60 ing
: 3936 3 62  it
* 3940 2 60  a
: 3944 3 62 round
: 3948 10 60 ~
: 3960 7 57  ah
- 3977
: 4006 2 64 No
: 4008 3 64  I
: 4013 5 66  won't
: 4020 2 66  let
: 4023 2 67  it
: 4027 4 64  go
- 4032
: 4034 2 64 No
: 4037 3 64  I
: 4041 6 67  won't
: 4048 5 64  stop
: 4056 4 67  so
: 4062 7 69  tough
- 4079
: 4124 3 70 How
: 4128 3 67  can
: 4132 4 70  I
: 4138 5 70  live
- 4143
: 4145 3 67 When
: 4148 3 65  I
: 4152 3 67  wan
: 4155 2 65 na
: 4159 11 67  be
: 4172 11 70  free
: 4183 13 65 ~?
- 4206
: 4235 3 67 This
: 4238 2 65  is
: 4242 4 67  my
: 4249 4 67  time
- 4253
: 4255 3 67 And
: 4259 2 65 ~
: 4263 3 67  these
: 4266 3 65  are
: 4270 4 67  my
: 4280 6 69  needs
: 4286 5 65 ~
: 4291 4 67 ~
- 4305
: 4330 4 67 It's
: 4337 3 69  O
: 4343 10 70 K
: 4354 2 67  to
: 4358 5 70  want
: 4363 2 64 ~
- 4365
: 4366 3 65 Be
: 4370 7 67 fore
: 4377 3 65  you
: 4381 8 67  fall
: 4392 7 70  down
: 4399 12 65 ~
- 4421
: 4454 2 62 You're
: 4457 3 67  set
: 4461 2 65 ting
: 4463 5 67  me
: 4471 5 70  up
- 4476
: 4478 3 67 On
: 4481 2 65  a
: 4485 3 67  mis
: 4488 2 65 sion
: 4492 5 67  of
: 4499 3 67  life
: 4502 3 65 ~
: 4506 6 62 ~
- 4522
: 4568 3 70 How
: 4573 3 67  can
: 4576 3 70  I
: 4582 5 70  live
- 4587
: 4589 2 67 When
: 4592 3 65  I
: 4595 3 67  wan
: 4599 3 65 na
: 4603 9 67  be
: 4616 12 70  free
: 4628 11 65 ~?
- 4649
: 4677 2 65 Cos
: 4680 2 67  this
: 4683 2 65  is
: 4686 5 67  my
: 4693 8 70  time
- 4701
: 4703 2 65 And
: 4707 3 67  these
: 4711 2 65  are
: 4714 4 67  my
: 4721 19 67  needs
: 4740 3 65 ~
: 4743 3 62 ~
- 4756
: 4773 4 67 It's
: 4780 2 69  O
: 4787 8 70 K
: 4797 2 67  to
: 4801 8 70  want
- 4809
: 4811 2 65 Be
: 4815 7 67 fore
: 4822 2 65  you
: 4826 8 67  fall
: 4837 7 70  down
: 4845 12 65 ~
- 4867
: 4898 2 65 You're
: 4901 3 67  set
: 4905 2 65 ting
: 4908 5 67  me
: 4916 4 67  up
- 4920
: 4922 3 67 On
: 4926 3 65  a
: 4929 3 67  mis
: 4933 2 65 sion
: 4935 6 67  of
: 4943 3 67  life
: 4946 3 65 ~
: 4950 5 62 ~
- 4965
: 5008 2 65 You're
: 5012 2 67  set
: 5016 2 65 ting
: 5019 6 67  me
: 5026 5 67  up
- 5031
: 5033 3 67 On
: 5036 3 65  a
* 5040 3 67  mis
: 5043 3 65 sion
: 5047 5 67  of
: 5054 3 67  life
: 5057 4 65 ~
: 5061 6 62 ~
- 5077
: 5119 3 65 You're
: 5123 3 67  set
: 5126 3 65 ting
: 5129 4 67  me
: 5137 4 67  up
- 5142
: 5144 3 67 On
: 5147 3 65  a
: 5150 4 67  mis
: 5154 3 65 sion
: 5157 5 67  of
: 5165 3 67  life
: 5168 4 65 ~
: 5172 5 62 ~
- 5187
: 5227 5 36 Ha
E