#TITLE:Owner Of A Lonely Heart
#ARTIST:Yes
#MP3:Yes - Owner Of A Lonely Heart.mp3
#COVER:Yes - Owner Of A Lonely Heart [CO].jpg
#BACKGROUND:Yes - Owner Of A Lonely Heart [BG].jpg
#BPM:251
#GAP:30310,32
#ENCODING:UTF8
#LANGUAGE:Englisch
#EDITION:Singstar Amped
: 0 4 69 Move
: 4 2 64  your
: 8 4 64 self
- 14
: 35 2 62 You
: 39 2 62  al
: 43 2 64 ways
: 47 2 64  live
: 51 2 62  your
: 55 4 62  life
- 61
: 67 2 69 Ne
: 71 2 69 ver
: 75 2 69  think
: 79 2 64 ing
- 82
: 83 2 64 Of
: 87 2 64  the
: 91 3 62  fu
: 98 10 64 ture
- 110
: 127 3 69 Prove
: 131 2 64  your
: 135 2 64 self
- 139
: 163 2 62 You
: 167 2 62  are
: 171 2 64  the
: 175 2 64  move
: 179 2 62  you
: 183 3 62  make
- 188
: 195 2 69 Take
: 199 2 69  your
: 203 2 69  chan
: 207 2 64 ces
- 210
: 211 2 64 Win
: 215 2 64  or
: 219 3 62  lo
: 225 14 64 ser
- 241
: 255 4 72 See
: 260 3 71  your
: 263 2 69 self
: 265 6 71 ~
- 273
: 291 2 69 You
: 295 2 69  are
: 299 2 71  the
: 303 2 72  steps
: 307 2 72  you
: 311 4 69  take
- 317
: 323 2 69 You
: 327 2 69  and
: 331 3 69  you
- 335
: 335 2 64 And
: 339 2 64  that's
: 343 3 62  the
: 347 2 62  on
: 351 2 62 ly
* 355 10 64  way
- 367
: 383 4 69 Shake
- 389
: 399 2 69 Shake
: 403 2 64  your
: 407 3 64 self
- 412
: 419 2 62 You're
: 423 3 62  ev
: 427 3 64 ery
: 431 3 64  move
: 435 3 62  you
: 439 3 62  make
- 444
: 451 4 69 So
: 455 2 71  the
: 459 4 71  sto
: 463 4 72 ~
: 467 3 71 ~
: 471 4 69 ry
: 475 4 71  goes
: 479 17 69 ~
- 498
: 511 3 64 Ow
: 515 2 64 ner
: 519 3 64  of
: 523 3 67  a
: 527 6 67  lone
: 535 2 69 ly
: 539 5 69  heart
- 546
: 575 3 64 Ow
: 579 3 64 ner
: 583 3 64  of
: 587 3 67  a
: 591 5 67  lone
: 599 3 69 ly
: 603 4 69  heart
- 609
: 615 4 64 Much
* 623 2 62  bet
: 627 3 62 ter
: 631 3 60  than
: 635 3 59  a
- 639
: 639 3 64 Ow
: 643 2 64 ner
: 647 2 64  of
: 651 2 67  a
: 655 6 67  bro
: 663 2 69 ken
: 667 6 69  heart
- 675
: 703 2 64 Ow
: 707 2 64 ner
: 711 3 64  of
: 715 3 67  a
: 719 5 67  lone
: 727 2 69 ly
: 731 45 69  heart
- 778
: 807 3 71 Say
: 811 2 69  you
: 815 4 69  don't
: 819 3 67  wan
: 823 3 64 na
: 827 4 67  chance
: 834 6 69  it
- 842
: 870 3 71 You've
: 875 2 69  been
: 878 4 69  hurt
: 883 3 67  so
: 888 2 64  be
: 894 4 67 fore
: 898 5 64 ~
- 905
* 926 2 69 Watch
: 930 2 64  it
: 934 5 64  now
- 941
: 962 4 62 The
: 966 3 62  ea
: 970 2 64 gle
: 974 2 64  in
: 978 2 62  the
: 982 5 62  sky
- 989
: 994 2 69 How
: 998 2 69  he
: 1002 3 69  danc
: 1006 2 64 in'
- 1009
: 1010 2 64 One
: 1014 4 64  and
: 1018 4 62  on
: 1026 4 62 ly
: 1030 9 64 ~
- 1041
: 1054 6 69 You
- 1062
: 1070 2 69 Lose
: 1074 2 64  your
: 1078 5 64 self
- 1085
: 1090 2 62 No
: 1094 2 62  not
: 1098 2 64  for
: 1102 2 64  pi
: 1106 2 62 ty's
: 1110 3 62  sake
- 1115
: 1122 2 69 There's
: 1126 2 69  no
: 1130 2 69  real
* 1134 2 69  rea
: 1138 2 64 son
- 1141
: 1142 2 64 To
: 1146 2 64  be
: 1150 4 62  lone
: 1158 10 64 ly
- 1170
: 1182 3 72 Be
: 1186 3 71  your
: 1190 4 69 self
: 1194 6 71 ~
- 1202
: 1217 2 69 Give
: 1221 3 69  your
: 1225 2 71  free
: 1229 3 72  will
: 1233 2 71  a
: 1237 4 69  chance
- 1243
: 1249 2 72 You've
: 1253 2 72  got
: 1257 2 72  to
: 1261 4 74  want
- 1266
: 1268 3 72 To
: 1272 3 69  suc
* 1277 3 67 ceed
: 1280 11 69 ~
- 1293
: 1309 3 64 Ow
: 1313 4 64 ner
: 1317 3 64  of
: 1321 3 67  a
: 1325 6 67  lone
: 1333 2 69 ly
: 1337 5 69  heart
- 1344
: 1373 3 64 Ow
: 1377 2 64 ner
: 1381 3 64  of
: 1385 2 67  a
: 1389 4 67  lone
: 1397 2 69 ly
: 1400 5 69  heart
- 1407
: 1413 5 64 Much
: 1421 2 62  bet
: 1425 3 62 ter
: 1429 3 60  than
: 1433 3 59  a
- 1437
: 1437 2 64 Ow
: 1441 2 64 ner
: 1445 2 64  of
: 1449 2 67  a
: 1453 5 67  bro
: 1461 2 69 ken
: 1465 5 69  heart
- 1472
: 1501 2 64 Ow
: 1505 2 64 ner
: 1509 2 64  of
: 1513 2 67  a
: 1517 4 67  lone
: 1521 6 69 ly
: 1528 29 69  heart
- 1559
: 1625 6 64 Ow
: 1633 2 64 ner
: 1637 3 64  of
: 1641 2 67  a
: 1645 3 67  lone
: 1649 4 69 ly
* 1656 26 69  heart
- 1684
: 1717 2 64 Af
: 1719 1 67 ter
: 1720 3 69  my
: 1725 7 71  own
: 1733 3 69  in
: 1737 2 67 de
: 1741 2 69 ci
: 1745 3 69 sion
- 1749
: 1749 2 69 They
: 1753 2 67  con
: 1757 2 69 fused
: 1761 2 69  me
: 1765 3 69  so
- 1770
: 1777 2 69 My
: 1781 2 69  love
: 1785 2 69  said
: 1789 2 73  ne
: 1793 2 73 ver
- 1796
: 1797 2 73 Ques
: 1801 2 73 tion
: 1805 3 73  your
: 1809 3 71  will
: 1813 2 69  at
: 1817 10 69  all
- 1829
: 1845 3 69 In
: 1849 2 69  the
: 1853 2 72  end
: 1857 2 72  you've
: 1861 2 72  got
: 1865 2 71 ta
: 1869 8 69  go
- 1879
: 1881 2 72 Look
: 1885 2 72  be
: 1889 2 72 fore
: 1893 2 71  you
: 1897 9 69  leap
- 1908
: 1913 4 69 And
: 1917 2 72  don't
: 1921 2 72  you
- 1924
: 1925 2 72 He
: 1929 3 72 si
: 1933 4 72 tate
: 1937 2 71 ~
: 1941 2 69  at
: 1945 4 69  all
: 1949 4 71 ~
: 1953 10 69 ~
- 1964
: 1965 2 72 No
: 1969 4 72  no
- 1975
: 2010 6 68 Yow
- 2018
: 2082 5 64 Yow
: 2087 4 65  yow
: 2092 5 66  yow
: 2098 5 67  yow
: 2104 4 68  yow
: 2109 6 69  yow
- 2117
: 2877 2 64 Ow
: 2881 2 64 ner
: 2885 2 64  of
: 2889 2 67  a
: 2893 6 67  lone
: 2901 2 69 ly
: 2905 4 69  heart
- 2911
: 2941 2 64 Ow
: 2945 2 64 ner
: 2949 2 64  of
: 2953 2 67  a
: 2957 5 67  lone
: 2965 2 69 ly
: 2969 4 69  heart
- 2975
: 2981 3 64 Much
: 2989 2 62  bet
: 2993 2 62 ter
: 2997 3 60  than
: 3001 3 59  a
- 3005
: 3005 2 64 Ow
: 3009 2 64 ner
: 3013 2 64  of
: 3017 2 67  a
: 3021 5 67  bro
: 3029 2 69 ken
: 3033 4 69  heart
- 3039
: 3069 2 64 Ow
: 3073 2 64 ner
: 3077 2 64  of
: 3081 2 67  a
: 3085 5 67  lone
: 3093 2 69 ly
: 3097 7 71  heart
: 3104 4 67 ~
- 3110
* 3133 2 64 Ow
: 3137 2 64 ner
: 3141 3 64  of
: 3145 2 67  a
: 3149 5 67  lone
: 3157 2 69 ly
: 3161 5 69  heart
- 3168
: 3197 2 64 Ow
: 3201 2 64 ner
: 3205 3 64  of
: 3209 2 67  a
: 3213 6 67  lone
: 3221 2 69 ly
: 3225 4 69  heart
- 3231
: 3237 4 64 Much
: 3245 2 62  bet
: 3249 3 62 ter
: 3253 3 60  than
: 3257 3 59  a
- 3261
: 3261 2 64 Ow
: 3265 2 64 ner
: 3269 3 64  of
: 3273 2 67  a
* 3277 6 67  bro
: 3285 2 69 ken
: 3289 4 69  heart
- 3295
: 3325 2 64 Ow
: 3329 2 64 ner
: 3333 2 64  of
: 3337 2 67  a
: 3341 4 67  lone
: 3345 4 69 ly
: 3353 25 69  heart
- 3380
: 3449 6 64 Ow
: 3457 2 64 ner
: 3461 3 64  of
: 3465 2 67  a
: 3469 3 67  lone
: 3473 3 69 ly
: 3481 25 69  heart
- 3508
: 3541 2 64 Soo
: 3543 2 67 ner
: 3545 3 69  or
: 3549 2 71  la
: 3553 2 71 ter
- 3556
: 3557 2 69 Each
: 3561 2 69  con
: 3565 2 69 clu
: 3569 2 69 sion
- 3572
: 3573 2 69 Will
: 3577 2 69  de
: 3581 2 69 cide
: 3585 2 69  the
: 3589 2 69  lone
: 3593 2 69 ly
: 3597 6 69  heart
- 3605
: 3665 2 69 It
: 3669 2 69  will
: 3672 2 69  ex
: 3677 2 73 cite
- 3680
: 3681 2 73 It
: 3685 2 73  will
: 3689 2 73  de
: 3693 2 73 light
- 3696
: 3697 2 73 It
: 3701 2 69  will
: 3705 2 69  give
: 3709 2 69  a
: 3713 2 69  bet
: 3717 2 69 ter
: 3721 6 69  start
- 3729
* 3733 2 69 Don't
: 3736 3 69  de
: 3741 2 72 ceive
: 3745 2 72  your
- 3748
: 3749 2 72 Free
: 3753 3 72  will
: 3760 3 72  at
: 3769 5 72  all
- 3776
: 3797 2 72 Don't
: 3801 2 72  de
* 3805 2 72 ceive
: 3809 2 72  your
- 3812
: 3813 2 72 Free
: 3817 3 72  will
: 3825 3 72  at
: 3833 4 72  all
- 3839
: 3861 3 72 Don't
: 3865 3 72  de
: 3869 3 72 ceive
: 3873 3 72  your
- 3877
: 3877 3 72 Free
: 3881 3 72  will
: 3889 3 72  at
: 3897 4 72  all
E