#TITLE:La Leglaire Dance
#ARTIST:Yvette Leglaire
#MP3:Yvette Leglaire - La Leglaire Dance.mp3
#VIDEO:Yvette Leglaire - La Leglaire Dance.mp4
#COVER:Yvette Leglaire - La Leglaire Dance.jpg
#BPM:261.87
#GAP:4388
#ENCODING:UTF8
: 0 3 0 A
: 4 3 2 llez
: 8 3 -5  tous
: 12 3 -5  le
: 16 4 -5  monde
: 21 4 -5  de
: 26 13 -4 bout
- 56
: 93 3 1 C'est
: 98 3 1  la
: 104 4 2  le
: 110 4 3 glaire
* 124 29 6  dan
* 155 23 5 ~
: 181 3 6 ce
- 194
: 201 3 -3 On
: 206 2 -4  lčve
: 209 2 -4  tous
: 214 2 -4  le
: 218 2 -4  bras
- 224
: 226 2 4 La
: 230 2 4  la
: 236 3 3  la
: 244 3 0  la
: 249 3 0  la
: 254 3 0  la
- 263
: 266 3 -3 On
: 271 2 -4  fais
: 274 2 -3  bouger
: 279 2 -4  ses
* 283 2 -3  doigts
- 289
: 291 2 -1 La
: 295 2 -1  la
: 301 3 8  la
: 309 3 6  la
: 314 3 5  la
: 319 3 -3  la
- 327
: 329 2 -3 Et
: 334 3 -4  puis
: 338 2 -4  on
: 343 2 -4  croise
: 347 3 -5  les
: 352 2 -6  bras
- 356
: 358 2 4 La
: 362 2 4  la
: 368 3 3  la
: 376 3 0  la
: 381 3 0  la
: 386 3 1  la
- 392
: 394 3 -2 A
: 398 2 -3 llez
: 402 2 -3  on
: 407 2 -3  baisse
: 411 2 -3  la
: 414 2 -3  tęte
- 417
: 419 2 0 On
: 423 3 -1  se
: 428 3 -1 coue
: 441 2 0  ses
: 445 9 1  couettes
- 456
: 458 3 -3 On
: 463 2 -4  lčve
: 466 2 -4  tous
: 471 2 -4  le
: 475 2 -4  bras
- 481
: 483 2 4 La
: 487 2 4  la
: 493 3 3  la
: 501 3 0  la
: 506 3 0  la
: 511 3 0  la
- 520
: 523 3 -3 On
: 528 2 -3  fais
: 531 2 -3  bouger
: 536 2 -3  ses
: 540 2 -3  doigts
- 546
: 548 2 -1 La
: 552 2 -1  la
: 558 3 8  la
: 566 3 6  la
: 571 3 5  la
: 576 3 -3  la
- 584
: 586 2 -3 Et
: 591 3 -4  puis
: 595 2 -4  on
: 600 2 -4  croise
: 604 3 -5  les
: 609 2 -6  bras
- 613
: 615 2 4 La
: 619 2 4  la
: 625 3 3  la
: 633 3 0  la
: 638 3 0  la
: 643 3 1  la
- 649
: 651 3 -2 A
: 655 2 -3 llez
: 659 2 -3  on
: 664 2 -3  baisse
: 668 2 -3  la
: 671 2 -3  tęte
- 674
: 676 2 0 On
: 680 3 -1  se
: 685 3 -1 coue
: 698 2 0  ses
: 702 9 1  couettes
- 721
: 738 3 -2 Je
: 742 3 -2  ne
: 746 3 -2  chante
: 752 4 -2  plus
- 762
: 764 3 -2 Comme
: 768 3 -2  Mi
: 773 3 -2 chelle
* 781 13 -3  torr
- 801
: 804 3 -1 Je
: 808 3 -1  suis
: 812 4 -1  la
: 817 3 -1  reine
: 829 4 -1  des
: 834 3 -2  dan
: 838 3 -1 ce
: 847 13 -5 floors
- 867
: 870 3 -4 Je
: 874 3 -4  mets
: 878 3 -4  le
: 882 3 -4  feu
: 894 3 -4  au
: 899 3 -4  dis
: 904 4 -4 coth
: 910 4 -4 čques
- 924
: 933 3 -3 Au
: 937 3 -3  quatre
: 942 3 -3  coins
: 951 2 -3  de
: 954 2 -3  la
: 957 9 -3  plančte
- 983
: 1026 5 -4 Hi
: 1037 9 -3  Yvettes
- 1046
: 1047 2 -2 C'est
: 1050 9 -3  l'élé
: 1061 7 -2 ctro
: 1073 3 3 choc
- 1077
: 1079 3 1 Le
: 1083 3 2  sym
: 1087 3 2 bole
: 1102 3 2  de
: 1106 3 3  toute
: 1113 4 6  une
: 1118 4 -5  épo
: 1125 4 5 que
- 1139
: 1155 4 -2 Hi
: 1165 9 -4  Yvettes
- 1175
: 1177 3 -2 Dance
: 1181 2 -4  in
: 1184 2 -4  the
: 1187 3 -3  rules
: 1197 3 0  the
: 1203 3 0  clock
- 1206
: 1207 2 1 A
: 1211 2 0  Pa
: 1215 3 0 ris
: 1227 3 0  New
: 1232 2 0  York
: 1236 3 0  ou
: 1244 3 1  Ban
: 1249 3 0 kok
- 1262
: 1284 5 -4 Hi
* 1295 9 -3  Yvettes
- 1304
: 1305 2 -2 C'est
: 1308 9 -3  élec
: 1319 7 -2 tro
: 1331 3 3 choc
- 1335
: 1337 3 1 Le
: 1341 3 2  sym
: 1345 3 2 bole
: 1360 3 2  de
: 1364 3 3  toute
: 1371 4 6  une
: 1376 4 -5  épo
: 1383 4 5 que
- 1397
: 1413 4 -3 Hi
: 1423 9 -4  Yvettes
- 1433
: 1435 3 -2 Dance
: 1439 2 -4  in
: 1442 2 -4  the
: 1445 3 -3  rules
: 1455 3 0  the
: 1461 3 0  clock
- 1464
: 1465 2 1 A
: 1469 2 0  Pa
: 1473 3 0 ris
: 1485 3 0  New
: 1490 2 0  York
: 1494 3 0  ou
: 1502 3 1  Ban
: 1507 3 0 kok
- 1527
: 1550 3 -3  On
: 1555 2 -4  lčve
: 1558 2 -4  tous
: 1563 2 -4  le
: 1567 2 -4  bras
- 1573
: 1575 2 4 La
: 1579 2 4  la
: 1585 3 3  la
: 1593 3 0  la
: 1598 3 0  la
: 1603 3 0  la
- 1612
: 1615 3 -3 On
: 1620 2 -4  fais
: 1623 2 -3  bouger
: 1628 2 -4  ses
: 1632 2 -3  doigts
- 1638
: 1640 2 -1 La
: 1644 2 -1  la
: 1650 3 8  la
: 1658 3 6  la
: 1663 3 5  la
: 1668 3 -3  la
- 1676
: 1678 2 -3 Et
: 1683 3 -4  puis
: 1687 2 -4  on
: 1692 2 -4  croise
: 1696 3 -5  les
: 1701 2 -6  bras
- 1705
: 1707 2 4 La
: 1711 2 4  la
: 1717 3 3  la
: 1725 3 0  la
: 1730 3 0  la
: 1735 3 1  la
- 1741
: 1743 3 -2 A
: 1747 2 -3 llez
: 1751 2 -3  on
: 1756 2 -3  baisse
: 1760 2 -3  la
: 1763 2 -3  tęte
- 1766
: 1768 2 0 On
: 1772 3 -1  se
: 1777 3 -1 coue
: 1790 2 0  ses
: 1794 9 1  couettes
- 1809
: 1812 3 -3 On
: 1817 2 -4  lčve
: 1820 2 -4  tous
: 1825 2 -4  le
: 1829 2 -4  bras
- 1835
: 1837 2 4 La
: 1841 2 4  la
: 1847 3 3  la
: 1855 3 0  la
: 1860 3 0  la
: 1865 3 0  la
- 1874
: 1877 3 -3 On
: 1882 2 -4  fais
: 1885 2 -3  bouger
: 1890 2 -4  ses
: 1894 2 -3  doigts
- 1900
: 1902 2 -1 La
: 1906 2 -1  la
: 1912 3 8  la
: 1920 3 6  la
: 1925 3 5  la
: 1930 3 -3  la
- 1938
: 1940 2 -3 Et
: 1945 3 -4  puis
: 1949 2 -4  on
: 1954 2 -4  croise
: 1958 3 -5  les
: 1963 2 -6  bras
- 1967
: 1969 2 4 La
: 1973 2 4  la
: 1979 3 3  la
: 1987 3 0  la
: 1992 3 0  la
: 1997 3 1  la
- 2003
: 2005 3 -2 A
: 2009 2 -3 llez
: 2013 2 -3  on
: 2018 2 -3  baisse
: 2022 2 -3  la
: 2025 2 -3  tęte
- 2028
: 2030 2 0 On
: 2034 3 -1  se
: 2039 3 -1 coue
: 2052 2 0  ses
: 2056 9 1  couettes
- 2075
: 2094 2 -2 Au
: 2099 2 -2 jourd'hui
: 2105 2 -2  plus
: 2115 7 -2  rien
: 2124 3 -2  ne
: 2129 3 -2  ma
: 2135 9 -2 rrente
- 2155
: 2159 2 -1 Je
: 2162 2 -1  fais
: 2167 2 -1  le
: 2171 3 -1  buzz
: 2184 2 -1  sur
: 2189 2 0  in
: 2195 3 -1 ter
: 2204 9 -3 net
- 2220
: 2223 3 -3 Męme
: 2227 3 -3  les
: 2231 3 -3  dj
: 2248 3 -3  les
: 2253 3 -3  plus
: 2258 9 -3  branché
- 2277
: 2286 4 -3 Veulent
: 2291 3 -2  re
: 2295 3 -2 mixer
: 2300 3 -2  mes
: 2306 4 -2  vieux
: 2313 9 -2  succčs
- 2339
: 2380 5 -4 Hi
: 2391 9 -3  Yvette
- 2400
: 2401 2 -2 C'est
: 2404 9 -3  élec
: 2415 7 -2 tro
: 2427 3 3 choc
- 2431
: 2433 3 1 Le
: 2437 3 2  sym
: 2441 3 2 bole
: 2456 3 2  de
: 2460 3 3  toute
: 2467 4 6  une
: 2472 4 -5  épo
: 2479 4 5 que
- 2493
: 2509 4 -2 Hi
* 2519 9 -4  Yvette
- 2529
: 2531 3 -2 Dance
: 2535 2 -4  in
: 2538 2 -4  the
: 2541 3 -3  rules
: 2551 3 0  the
: 2557 3 0  clock
- 2560
: 2561 2 1 A
: 2565 2 0  Pa
: 2569 3 0 ris
: 2581 3 0  New
: 2586 2 0  York
: 2590 3 0  ou
: 2598 3 1  Ban
: 2603 3 0 kok
- 2616
: 2636 5 -4 Hi
: 2647 9 -3  Yvette
- 2656
: 2657 2 -2 C'est
: 2660 9 -3  l'éléctro
: 2671 7 -2 cho
: 2683 3 3 que
- 2687
: 2689 3 1 Le
: 2693 3 2  sym
: 2697 3 2 bole
: 2712 3 2  de
: 2716 3 3  toute
: 2723 4 6  une
: 2728 4 -5  épo
: 2735 4 5 que
- 2749
: 2765 4 -2 Hi
: 2775 9 -4  Yvette
- 2785
: 2787 3 -2 Dance
: 2791 2 -4  in
: 2794 2 -4  the
: 2797 3 -3  rules
: 2807 3 0  the
: 2813 3 0  clock
- 2816
: 2817 2 1 A
: 2821 2 0  Pa
: 2825 3 0 ris
: 2837 3 0  New
: 2842 2 0  York
: 2846 3 0  ou
: 2854 3 1  Ban
: 2859 3 0 kok
- 2872
: 2883 1 0 Tous
: 2887 1 0  le
: 2890 1 0  monde
: 2893 1 0  tous
: 2896 1 0  le
: 2899 1 0  monde
- 2907
: 2910 3 -3 On
: 2915 2 -4  leve
: 2918 2 -4  tous
: 2923 2 -4  le
: 2927 2 -4  bras
- 2933
: 2935 2 4 La
: 2939 2 4  la
: 2945 3 3  la
: 2953 3 0  la
: 2958 3 0  la
: 2963 3 0  la
- 2972
: 2975 3 -3 On
: 2980 2 -4  fais
: 2983 2 -3  bouger
: 2988 2 -4  ses
: 2992 2 -3  doigts
- 2998
: 3000 2 -1 La
: 3004 2 -1  la
: 3010 3 8  la
: 3018 3 6  la
: 3023 3 5  la
: 3028 3 -3  la
- 3036
: 3038 2 -3 Et
: 3043 3 -4  puis
: 3047 2 -4  on
: 3052 2 -4  croise
: 3056 3 -5  les
: 3061 2 -6  bras
- 3065
: 3067 2 4 La
: 3071 2 4  la
: 3077 3 3  la
: 3085 3 0  la
: 3090 3 0  la
: 3095 3 1  la
- 3101
: 3103 3 -2 A
: 3107 2 -3 llez
: 3111 2 -3  on
: 3116 2 -3  baisse
: 3120 2 -3  la
: 3123 2 -3  tęte
- 3126
: 3128 2 0 On
: 3132 3 -1  se
: 3137 3 -1 coue
: 3150 2 0  ses
: 3154 9 1  couettes
- 3164
: 3166 3 -3 On
: 3171 2 -4  leve
: 3174 2 -4  tous
: 3179 2 -4  le
: 3183 2 -4  bras
- 3189
: 3191 2 4 La
: 3195 2 4  la
: 3201 3 3  la
: 3209 3 0  la
: 3214 3 0  la
: 3219 3 0  la
- 3228
: 3231 3 -3 On
: 3236 2 -4  fais
: 3239 2 -3  bouger
: 3244 2 -4  ses
: 3248 2 -3  doigts
- 3254
: 3256 2 -1 La
: 3260 2 -1  la
: 3266 3 8  la
: 3274 3 6  la
: 3279 3 5  la
: 3284 3 -3  la
- 3292
: 3294 2 -3 Et
: 3299 3 -4  puis
: 3303 2 -4  on
: 3308 2 -4  croise
: 3312 3 -5  les
: 3317 2 -6  bras
- 3321
: 3323 2 4 La
: 3327 2 4  la
: 3333 3 3  la
: 3341 3 0  la
: 3346 3 0  la
: 3351 3 1  la
- 3357
: 3359 3 -2 A
: 3363 2 -3 llez
: 3367 2 -3  on
: 3372 2 -3  baisse
: 3376 2 -3  la
: 3379 2 -3  tęte
- 3382
: 3384 2 0 On
: 3388 3 -1  se
: 3393 3 -1 coue
: 3406 2 0  ses
: 3410 9 1  couettes
- 3422
: 3424 3 -3 On
: 3429 2 -4  leve
* 3432 2 -4  tous
* 3437 2 -4  le
* 3441 2 -4  bras
- 3447
: 3449 2 4 La
: 3453 2 4  la
: 3459 3 3  la
: 3467 3 0  la
: 3472 3 0  la
: 3477 3 0  la
- 3486
: 3489 3 -3 On
: 3494 2 -4  fais
: 3497 2 -3  bouger
: 3502 2 -4  ses
: 3506 2 -3  doigts
- 3512
: 3514 2 -1 La
: 3518 2 -1  la
: 3524 3 8  la
: 3532 3 6  la
: 3537 3 5  la
: 3542 3 -3  la
- 3550
: 3552 2 -3 Et
: 3557 3 -4  puis
: 3561 2 -4  on
: 3566 2 -4  croise
: 3570 3 -5  les
: 3575 2 -6  bras
- 3579
: 3581 2 4 La
: 3585 2 4  la
: 3591 3 3  la
: 3599 3 0  la
: 3604 3 0  la
: 3609 3 1  la
- 3615
: 3617 3 -2 A
: 3621 2 -3 llez
: 3625 2 -3  on
: 3630 2 -3  baisse
: 3634 2 -3  la
: 3637 2 -3  tęte
- 3640
: 3642 2 0 On
: 3646 3 -1  se
: 3651 3 -1 coue
: 3664 2 0  ses
: 3668 9 1  couettes
E