#TITLE:20 ans
#ARTIST:Zazie
#MP3:Zazie - 20 ans.mp3
#VIDEO:Zazie - 20 ans.avi
#COVER:Zazie - 20 ans.jpg
#BPM:359,99
#GAP:8416,68
#ENCODING:UTF8
#LANGUAGE:French
#GENRE:Pop
#EDITION:Other
#YEAR:2013
: 0 5 13 D'ac
: 6 7 15 ~
: 18 9 16 cord
: 28 2 11 ~,
- 38
: 41 2 11 J'ai
: 48 11 15  men
: 66 8 16 ti,
- 84
: 88 2 11 J'ai
: 95 16 18  pas
: 114 12 16  l'âge
: 144 12 15  re
: 162 10 16 quis,
- 182
: 192 10 10 Je
: 210 12 11  sors,
: 240 12 10  tant
: 258 3 11  pis
: 262 2 11 ~
- 273
: 276 9 8 J'ai
: 289 11 13  vingt
* 307 7 15  ans
: 324 3 11  jus
: 330 1 11 qu'au
: 336 4 10  bout
: 342 4 11  de
: 349 5 10  la
: 358 9 8  nuit!
- 377
: 384 4 13 D'ac
: 390 6 15 ~
: 402 8 16 cord
: 411 2 11 ~,
: 425 4 11  j'ai
: 432 12 15  men
: 451 6 16 ti
: 458 2 16 ~,
- 469
: 473 2 11 J'ai
: 480 2 18  pas
: 489 6 18 sé
: 498 10 16  l'â
: 510 3 16 ge,
: 528 6 15  et
: 535 7 15 ~
: 545 6 16  oui
: 552 1 11 ~
- 561
: 564 7 10 Et
: 576 16 10  a
: 594 6 11 lors
: 601 4 8 ~
: 624 11 10  tant
: 642 5 11  pis,
- 656
: 659 9 8 J'ai
: 672 10 13  vingt
: 690 8 15  ans
: 706 3 11  jus
: 713 2 11 qu'au
: 720 4 10  bout
: 726 4 11  de
: 732 5 10  la
: 740 5 8  nuit!
- 755
: 767 6 13 D'ac
: 774 7 15 ~
: 785 8 16 cord
: 794 3 11 ~,
: 803 8 11  j'ai
: 812 12 15  men
: 832 8 16 ti
: 841 4 11 ~
- 852
: 855 2 11 J'suis
* 864 5 16  pas
* 870 5 18 ~
: 881 8 16  V
: 890 4 11 ~.
: 912 10 15 I.
: 930 6 16 P
: 937 4 11 ~.
- 951
: 959 11 10 Je
: 979 6 11  sors
: 986 4 8 ~,
: 1009 9 10  tant
: 1026 4 11  pis,
- 1040
: 1044 8 8 J'ai
: 1056 10 13  vingt
: 1074 6 15  ans
: 1091 3 11  jus
: 1098 1 11 qu'au
: 1105 3 10  bout
: 1110 4 11  de
: 1117 4 10  la
: 1127 5 8  nuit!
- 1155
: 1182 1 13 Et
: 1187 5 13  quand
: 1194 1 13  le
: 1201 2 13  si
: 1207 9 15 lence
: 1224 2 16  est
: 1234 4 13  trop
* 1242 7 15  lourd
* 1251 5 13 ~,
- 1266
: 1276 2 13 Je
: 1283 5 13  prends
: 1290 1 18  mes
* 1296 6 18  ta
* 1304 4 18 lons
: 1314 14 18  hauts
: 1332 2 16  et
: 1338 5 15  je
: 1345 3 13 ~
: 1356 10 15  cours,
- 1372
: 1374 4 15 Je
: 1379 5 13 ~
: 1392 9 15  cours
: 1402 7 13 ~,
- 1419
: 1440 3 16 Je
: 1453 6 15  fuis
: 1461 5 13  l'om
: 1468 3 11 bre
: 1484 4 15  qui
: 1489 13 16  ~
: 1506 6 16  me
: 1513 9 18 ~
: 1531 10 13  suit
: 1542 3 11 ~
- 1555
: 1566 4 13 Quand
: 1572 1 13  l'é
: 1577 2 13 tau
: 1585 5 13  se
: 1592 2 15  res
: 1602 9 16 serre
: 1614 2 18  je
: 1626 6 15  sors
: 1633 9 13 ~,
- 1652
: 1662 3 13 Chan
: 1668 4 13 ger
: 1673 2 13  la
: 1680 4 18  pous
: 1692 6 20 sičre
: 1699 10 20 ~
: 1713 6 16  en
: 1722 5 15  or
: 1728 6 13 ~,
- 1736
: 1738 3 13 Et
: 1747 7 15  je
: 1755 1 13 ~
: 1765 8 15  danse,
: 1783 5 15  je
: 1789 4 13 ~
: 1801 5 15  danse
: 1807 2 13 ~
- 1815
: 1817 2 8 Se
: 1823 2 15 coue,
: 1829 2 15  se
* 1836 3 15 coue
: 1841 2 15  le
: 1848 4 15  mon
: 1854 2 16 de
: 1861 9 16  qui
: 1871 1 18 ~
: 1879 3 16  s'en
: 1890 6 15 dort
: 1898 4 13 ~
: 1903 8 11 ~
- 1917
: 1920 5 13 D'ac
: 1926 5 15 ~
: 1938 5 16 cord
: 1944 2 11 ~,
: 1955 2 11  tu
: 1961 2 11  as
: 1967 12 15  men
: 1986 7 16 ti~
: 1994 2 11 ~,
- 2004
: 2007 2 11 J'suis
: 2016 5 18  pas
: 2023 5 18  l'a
: 2032 10 16 mour
: 2043 5 11 ~
: 2058 1 11  de
: 2064 14 15  ta
: 2083 6 16  vie,
- 2097
: 2100 7 11 Et
: 2112 16 10  a
: 2130 7 11 lors
: 2139 4 8 ~,
: 2160 13 10  tant
: 2179 5 11  pis,
- 2193
: 2196 9 8 J'ai
: 2208 12 13  vingt
: 2226 9 15  ans
: 2244 3 11  jus
: 2249 2 11 qu'au
: 2256 3 10  bout
: 2262 3 11  de
: 2268 4 10  la
: 2279 8 8  nuit!
- 2297
: 2305 5 13 D'ac
: 2311 5 15 ~
: 2322 5 16 cord
: 2329 4 11 ~,
: 2346 4 11  j'ai
: 2352 4 15  men
: 2357 7 15 ~
: 2370 6 16 ti
: 2377 3 11 ~,
- 2389
: 2393 2 11 J'ai
: 2400 8 18  peur
: 2412 4 18  de
: 2418 4 18  la
: 2429 7 16  mort
: 2438 3 8 ~
: 2448 6 16  moi
: 2456 2 15  aus
: 2466 4 16 si
: 2473 3 15 ~,
- 2486
: 2495 11 10 Je
: 2515 10 11  sors
: 2537 2 8  et
: 2544 12 10  j'ou
: 2562 6 11 blie,
- 2576
: 2579 9 8 J'ai
: 2592 11 13  vingt
: 2610 8 15  ans
: 2626 4 11  jus
: 2634 2 11 qu'au
: 2641 2 10  bout
: 2646 4 11  de
: 2653 4 10  la
: 2662 11 8  nuit!
- 2684
* 2688 13 18 D'ac
* 2706 6 18 cord
* 2713 3 20 ~,
: 2729 2 6  j'ai
: 2737 11 18  tout
: 2755 4 18  faux
: 2760 6 20 ~,
- 2774
: 2777 2 11 Je
: 2784 11 18  re
: 2802 5 18 fume
: 2808 6 20 ~,
: 2825 2 11  je
: 2831 7 20  bois
: 2839 3 18 ~
: 2850 6 18  trop,
: 2857 4 20  ~
: 2862 1 11 ~
- 2873
: 2880 7 15 Je
: 2888 2 13 ~
: 2898 9 15  sors
: 2909 2 13 ~
: 2928 5 15  tant
: 2934 5 16 ~
: 2947 6 15  pis
- 2960
: 2963 8 8 J'ai
: 2976 12 13  vingt
: 2994 7 15  ans
: 3011 3 11  jus
: 3017 2 11 qu'au
: 3024 4 10  bout
: 3031 4 11  de
: 3036 5 10  la
: 3046 7 8  nuit!
- 3076
: 3101 1 13 Et
: 3108 2 13  quand
: 3114 2 13  ton
: 3121 4 13  si
: 3128 9 15 lence
: 3143 1 16  est
: 3150 7 13  trop
: 3161 6 15  lourd
: 3168 10 13 ~
- 3188
: 3196 2 13 Je
: 3204 3 13  prends
: 3209 1 13  mes
: 3215 7 18  ta
: 3224 6 18 lons
: 3234 12 18  hauts
- 3249
: 3251 2 16 Et
: 3258 5 15  je
: 3264 4 13 ~
: 3276 6 15  cours
: 3283 4 13 ~,
: 3292 6 15  je
: 3299 5 13 ~
: 3312 7 15  cours
: 3320 7 13 ~
- 3337
: 3360 3 16 Je
: 3372 4 15  fuis
: 3379 8 13  l'om
: 3395 2 11 bre
: 3404 19 16  qui
* 3427 6 16  me
* 3434 7 18 ~
: 3452 9 13  suit,
- 3471
: 3486 1 13 Et
: 3492 3 13  quand
: 3498 2 13  ma
: 3505 4 13  gor
: 3511 2 13 ge
: 3515 2 15  se
: 3523 11 16  serre,
: 3537 2 18  je
: 3547 7 15  sors
: 3555 6 13 ~
- 3571
: 3582 3 13 Chan
: 3588 4 13 ger
: 3594 2 13  la
* 3600 4 18  pous
* 3612 7 18 sičre
* 3621 10 20 ~
: 3636 2 16  en
: 3642 7 15  or
: 3650 5 13 ~,
- 3657
: 3659 2 13 Et
: 3666 6 15  je
: 3673 3 13 ~
: 3684 8 15  danse,
: 3703 5 15  je
: 3709 2 13 ~
: 3720 8 15  danse,
- 3734
: 3737 2 16 Se
: 3743 2 15 coue,
: 3749 2 16  se
: 3756 3 15 coue
: 3761 2 16  le
: 3768 3 15  mon
: 3774 2 16 de
* 3782 3 16  qui
* 3787 3 18 ~
: 3800 5 16  s'en
: 3810 6 15 dort
: 3817 6 13 ~
: 3824 6 11 ~
- 3840
: 3869 1 13 Et
: 3876 3 13  quand
: 3882 4 13  j'au
: 3888 4 13 rai
: 3900 5 15  soi
: 3913 6 16 xante
: 3924 3 18  dix
: 3933 7 15  ans
: 3941 4 13 ~,
- 3955
: 3965 2 13 Je
: 3971 2 13  s'rai
: 3978 4 13  plus
: 3984 4 18  lé
: 3995 13 18 gčre
: 4014 2 20  que
: 4020 4 16  main
: 4032 6 15 t'nant
: 4039 3 13 ~,
- 4048
: 4051 5 15 Je
: 4057 2 13 ~
: 4069 6 15  sais,
: 4088 3 15  je
: 4092 3 13 ~
: 4104 2 15  sens
: 4108 3 13 ~,
- 4118
: 4121 4 15 Je
: 4128 2 16  met
: 4135 1 16 trai
: 4140 1 16  mes
: 4146 3 16  ta
: 4153 4 15 lons
* 4164 10 18  hauts
: 4185 4 20  tout
: 4193 3 17  le
: 4204 7 15  temps
: 4212 6 13 ~
: 4219 5 11 ~,
- 4234
: 4254 3 13 Ça
: 4260 2 13  vas
: 4266 2 16  pas
: 4272 12 16  plaire
: 4286 3 18  ŕ
: 4296 4 20  Cen
: 4306 9 16 dril
: 4316 9 18 lon
: 4326 2 13 ~,
- 4338
: 4350 3 13 Si
: 4356 2 13  je
: 4361 2 13  me
* 4368 10 23  change
: 4381 5 23  en
: 4392 3 25  po
: 4402 3 16 ti
: 4410 8 15 ron
: 4419 4 13 ~,
- 4433
: 4446 1 13 C'est
: 4451 7 15  com
: 4459 2 13 ~
: 4463 2 13 me
: 4470 6 15  ça
: 4477 3 13 ~
- 4490
: 4504 2 13 Je
: 4511 4 15  se
: 4518 2 15 rai
: 4524 3 15  tou
: 4530 4 15 jours
: 4536 2 15  lŕ
: 4541 3 15  quand
: 4548 4 15  mi
: 4553 2 16 nuit
* 4560 6 16  son
* 4567 2 18 ~
* 4572 6 16 ne
* 4584 8 15 ra
* 4593 8 11 ~
- 4648
: 4884 8 8 J'ai
: 4896 12 13  vingt
: 4914 8 15  ans
: 4930 3 11  jus
: 4938 1 11 qu'au
: 4945 3 10  bout
: 4951 4 11  de
: 4956 5 10  la
: 4968 8 8  nuit!
E